%!PS-Adobe-2.0 EPSF-1.2
%%Creator: MATLAB, The MathWorks, Inc. Version 7.13.0.564 (R2011b). Operating System: Microsoft Windows 7.
%%Title: ..\figures\_orianalog_ort_std.eps
%%CreationDate: 11/13/2012  17:43:18
%%DocumentNeededFonts: Helvetica
%%DocumentProcessColors: Cyan Magenta Yellow Black
%%Extensions: CMYK
%%Pages: 1
%%BoundingBox:    52   199   549   602
%%EndComments

%%BeginProlog
% MathWorks dictionary
/MathWorks 160 dict begin
% definition operators
/bdef {bind def} bind def
/ldef {load def} bind def
/xdef {exch def} bdef
/xstore {exch store} bdef
% operator abbreviations
/c  /clip ldef
/cc /concat ldef
/cp /closepath ldef
/gr /grestore ldef
/gs /gsave ldef
/mt /moveto ldef
/np /newpath ldef
/cm /currentmatrix ldef
/sm /setmatrix ldef
/rm /rmoveto ldef
/rl /rlineto ldef
/s {show newpath} bdef
/sc {setcmykcolor} bdef
/sr /setrgbcolor ldef
/sg /setgray ldef
/w /setlinewidth ldef
/j /setlinejoin ldef
/cap /setlinecap ldef
/rc {rectclip} bdef
/rf {rectfill} bdef
% page state control
/pgsv () def
/bpage {/pgsv save def} bdef
/epage {pgsv restore} bdef
/bplot /gsave ldef
/eplot {stroke grestore} bdef
% orientation switch
/portraitMode 0 def /landscapeMode 1 def /rotateMode 2 def
% coordinate system mappings
/dpi2point 0 def
% font control
/FontSize 0 def
/FMS {/FontSize xstore findfont [FontSize 0 0 FontSize neg 0 0]
  makefont setfont} bdef
/ISOLatin1Encoding where {pop /WindowsLatin1Encoding 256 array bdef
ISOLatin1Encoding WindowsLatin1Encoding copy pop
/.notdef/.notdef/quotesinglbase/florin/quotedblbase/ellipsis/dagger
/daggerdbl/circumflex/perthousand/Scaron/guilsinglleft/OE/.notdef/.notdef
/.notdef/.notdef/quoteleft/quoteright/quotedblleft/quotedblright/bullet
/endash/emdash/tilde/trademark/scaron/guilsinglright/oe/.notdef/.notdef
/Ydieresis WindowsLatin1Encoding 128 32 getinterval astore pop}
{/WindowsLatin1Encoding StandardEncoding bdef} ifelse
/reencode {exch dup where {pop load} {pop StandardEncoding} ifelse
  exch dup 3 1 roll findfont dup length dict begin
  { 1 index /FID ne {def}{pop pop} ifelse } forall
  /Encoding exch def currentdict end definefont pop} bdef
/isroman {findfont /CharStrings get /Agrave known} bdef
/FMSR {3 1 roll 1 index dup isroman {reencode} {pop pop} ifelse
  exch FMS} bdef
/csm {1 dpi2point div -1 dpi2point div scale neg translate
 dup landscapeMode eq {pop -90 rotate}
  {rotateMode eq {90 rotate} if} ifelse} bdef
% line types: solid, dotted, dashed, dotdash
/SO { [] 0 setdash } bdef
/DO { [.5 dpi2point mul 4 dpi2point mul] 0 setdash } bdef
/DA { [6 dpi2point mul] 0 setdash } bdef
/DD { [.5 dpi2point mul 4 dpi2point mul 6 dpi2point mul 4
  dpi2point mul] 0 setdash } bdef
% macros for lines and objects
/L {lineto stroke} bdef
/MP {3 1 roll moveto 1 sub {rlineto} repeat} bdef
/AP {{rlineto} repeat} bdef
/PDlw -1 def
/W {/PDlw currentlinewidth def setlinewidth} def
/PP {closepath eofill} bdef
/DP {closepath stroke} bdef
/MR {4 -2 roll moveto dup  0 exch rlineto exch 0 rlineto
  neg 0 exch rlineto closepath} bdef
/FR {MR stroke} bdef
/PR {MR fill} bdef
/L1i {{currentfile picstr readhexstring pop} image} bdef
/tMatrix matrix def
/MakeOval {newpath tMatrix currentmatrix pop translate scale
0 0 1 0 360 arc tMatrix setmatrix} bdef
/FO {MakeOval stroke} bdef
/PO {MakeOval fill} bdef
/PD {currentlinewidth 2 div 0 360 arc fill
   PDlw -1 eq not {PDlw w /PDlw -1 def} if} def
/FA {newpath tMatrix currentmatrix pop translate scale
  0 0 1 5 -2 roll arc tMatrix setmatrix stroke} bdef
/PA {newpath tMatrix currentmatrix pop	translate 0 0 moveto scale
  0 0 1 5 -2 roll arc closepath tMatrix setmatrix fill} bdef
/FAn {newpath tMatrix currentmatrix pop translate scale
  0 0 1 5 -2 roll arcn tMatrix setmatrix stroke} bdef
/PAn {newpath tMatrix currentmatrix pop translate 0 0 moveto scale
  0 0 1 5 -2 roll arcn closepath tMatrix setmatrix fill} bdef
/vradius 0 def /hradius 0 def /lry 0 def
/lrx 0 def /uly 0 def /ulx 0 def /rad 0 def
/MRR {/vradius xdef /hradius xdef /lry xdef /lrx xdef /uly xdef
  /ulx xdef newpath tMatrix currentmatrix pop ulx hradius add uly
  vradius add translate hradius vradius scale 0 0 1 180 270 arc 
  tMatrix setmatrix lrx hradius sub uly vradius add translate
  hradius vradius scale 0 0 1 270 360 arc tMatrix setmatrix
  lrx hradius sub lry vradius sub translate hradius vradius scale
  0 0 1 0 90 arc tMatrix setmatrix ulx hradius add lry vradius sub
  translate hradius vradius scale 0 0 1 90 180 arc tMatrix setmatrix
  closepath} bdef
/FRR {MRR stroke } bdef
/PRR {MRR fill } bdef
/MlrRR {/lry xdef /lrx xdef /uly xdef /ulx xdef /rad lry uly sub 2 div def
  newpath tMatrix currentmatrix pop ulx rad add uly rad add translate
  rad rad scale 0 0 1 90 270 arc tMatrix setmatrix lrx rad sub lry rad
  sub translate rad rad scale 0 0 1 270 90 arc tMatrix setmatrix
  closepath} bdef
/FlrRR {MlrRR stroke } bdef
/PlrRR {MlrRR fill } bdef
/MtbRR {/lry xdef /lrx xdef /uly xdef /ulx xdef /rad lrx ulx sub 2 div def
  newpath tMatrix currentmatrix pop ulx rad add uly rad add translate
  rad rad scale 0 0 1 180 360 arc tMatrix setmatrix lrx rad sub lry rad
  sub translate rad rad scale 0 0 1 0 180 arc tMatrix setmatrix
  closepath} bdef
/FtbRR {MtbRR stroke } bdef
/PtbRR {MtbRR fill } bdef
/stri 6 array def /dtri 6 array def
/smat 6 array def /dmat 6 array def
/tmat1 6 array def /tmat2 6 array def /dif 3 array def
/asub {/ind2 exch def /ind1 exch def dup dup
  ind1 get exch ind2 get sub exch } bdef
/tri_to_matrix {
  2 0 asub 3 1 asub 4 0 asub 5 1 asub
  dup 0 get exch 1 get 7 -1 roll astore } bdef
/compute_transform {
  dmat dtri tri_to_matrix tmat1 invertmatrix 
  smat stri tri_to_matrix tmat2 concatmatrix } bdef
/ds {stri astore pop} bdef
/dt {dtri astore pop} bdef
/db {2 copy /cols xdef /rows xdef mul dup 3 mul string
  currentfile exch readhexstring pop
  dup 0 3 index getinterval /rbmap xdef
  dup 2 index dup getinterval /gbmap xdef
  1 index dup 2 mul exch getinterval /bbmap xdef pop pop}bdef
/it {gs np dtri aload pop moveto lineto lineto cp c
  cols rows 8 compute_transform 
  rbmap gbmap bbmap true 3 colorimage gr}bdef
/il {newpath moveto lineto stroke}bdef
currentdict end def
%%EndProlog

%%BeginSetup
MathWorks begin

0 cap

end
%%EndSetup

%%Page: 1 1
%%BeginPageSetup
%%PageBoundingBox:    52   199   549   602
MathWorks begin
bpage
%%EndPageSetup

%%BeginObject: obj1
bplot

/dpi2point 12 def
portraitMode 0204 7344 csm

  422   110  5965  4844 MR c np
85 dict begin %Colortable dictionary
/c0 { 0.000000 0.000000 0.000000 sr} bdef
/c1 { 1.000000 1.000000 1.000000 sr} bdef
/c2 { 0.900000 0.000000 0.000000 sr} bdef
/c3 { 0.000000 0.820000 0.000000 sr} bdef
/c4 { 0.000000 0.000000 0.800000 sr} bdef
/c5 { 0.910000 0.820000 0.320000 sr} bdef
/c6 { 1.000000 0.260000 0.820000 sr} bdef
/c7 { 0.000000 0.820000 0.820000 sr} bdef
c0
1 j
1 sg
   0    0 6913 5185 PR
6 w
0 4225 5356 0 0 -4225 899 4614 4 MP
PP
-5356 0 0 4225 5356 0 0 -4225 899 4614 5 MP stroke
4 w
DO
SO
6 w
0 sg
 899  389 mt 6255  389 L
 899 4614 mt 6255 4614 L
6255 4614 mt 6255  389 L
 899 4614 mt  899  389 L
 899 4614 mt 6255 4614 L
 899 4614 mt  899  389 L
 899 4614 mt  899 4560 L
 899  389 mt  899  442 L
%%IncludeResource: font Helvetica
/Helvetica /WindowsLatin1Encoding 120 FMSR

 783 4759 mt 
(0.12) s
1494 4614 mt 1494 4560 L
1494  389 mt 1494  442 L
1378 4759 mt 
(0.14) s
2089 4614 mt 2089 4560 L
2089  389 mt 2089  442 L
1973 4759 mt 
(0.16) s
2684 4614 mt 2684 4560 L
2684  389 mt 2684  442 L
2568 4759 mt 
(0.18) s
3279 4614 mt 3279 4560 L
3279  389 mt 3279  442 L
3196 4759 mt 
(0.2) s
3874 4614 mt 3874 4560 L
3874  389 mt 3874  442 L
3758 4759 mt 
(0.22) s
4469 4614 mt 4469 4560 L
4469  389 mt 4469  442 L
4353 4759 mt 
(0.24) s
5064 4614 mt 5064 4560 L
5064  389 mt 5064  442 L
4948 4759 mt 
(0.26) s
5659 4614 mt 5659 4560 L
5659  389 mt 5659  442 L
5543 4759 mt 
(0.28) s
6255 4614 mt 6255 4560 L
6255  389 mt 6255  442 L
6172 4759 mt 
(0.3) s
 899 4614 mt  925 4614 L
6255 4614 mt 6228 4614 L
 899 4614 mt  952 4614 L
6255 4614 mt 6201 4614 L
 640 4658 mt 
(10) s
%%IncludeResource: font Helvetica
/Helvetica /WindowsLatin1Encoding 80 FMSR

 773 4584 mt 
(-3) s
 899 4296 mt  925 4296 L
6255 4296 mt 6228 4296 L
 899 4110 mt  925 4110 L
6255 4110 mt 6228 4110 L
 899 3978 mt  925 3978 L
6255 3978 mt 6228 3978 L
 899 3875 mt  925 3875 L
6255 3875 mt 6228 3875 L
 899 3792 mt  925 3792 L
6255 3792 mt 6228 3792 L
 899 3721 mt  925 3721 L
6255 3721 mt 6228 3721 L
 899 3660 mt  925 3660 L
6255 3660 mt 6228 3660 L
 899 3606 mt  925 3606 L
6255 3606 mt 6228 3606 L
 899 3557 mt  925 3557 L
6255 3557 mt 6228 3557 L
 899 3557 mt  952 3557 L
6255 3557 mt 6201 3557 L
%%IncludeResource: font Helvetica
/Helvetica /WindowsLatin1Encoding 120 FMSR

 640 3601 mt 
(10) s
%%IncludeResource: font Helvetica
/Helvetica /WindowsLatin1Encoding 80 FMSR

 773 3527 mt 
(-2) s
 899 3239 mt  925 3239 L
6255 3239 mt 6228 3239 L
 899 3053 mt  925 3053 L
6255 3053 mt 6228 3053 L
 899 2921 mt  925 2921 L
6255 2921 mt 6228 2921 L
 899 2819 mt  925 2819 L
6255 2819 mt 6228 2819 L
 899 2735 mt  925 2735 L
6255 2735 mt 6228 2735 L
 899 2665 mt  925 2665 L
6255 2665 mt 6228 2665 L
 899 2603 mt  925 2603 L
6255 2603 mt 6228 2603 L
 899 2549 mt  925 2549 L
6255 2549 mt 6228 2549 L
 899 2501 mt  925 2501 L
6255 2501 mt 6228 2501 L
 899 2501 mt  952 2501 L
6255 2501 mt 6201 2501 L
%%IncludeResource: font Helvetica
/Helvetica /WindowsLatin1Encoding 120 FMSR

 640 2545 mt 
(10) s
%%IncludeResource: font Helvetica
/Helvetica /WindowsLatin1Encoding 80 FMSR

 773 2471 mt 
(-1) s
 899 2183 mt  925 2183 L
6255 2183 mt 6228 2183 L
 899 1997 mt  925 1997 L
6255 1997 mt 6228 1997 L
 899 1865 mt  925 1865 L
6255 1865 mt 6228 1865 L
 899 1763 mt  925 1763 L
6255 1763 mt 6228 1763 L
 899 1679 mt  925 1679 L
6255 1679 mt 6228 1679 L
 899 1608 mt  925 1608 L
6255 1608 mt 6228 1608 L
 899 1547 mt  925 1547 L
6255 1547 mt 6228 1547 L
 899 1493 mt  925 1493 L
6255 1493 mt 6228 1493 L
 899 1445 mt  925 1445 L
6255 1445 mt 6228 1445 L
 899 1445 mt  952 1445 L
6255 1445 mt 6201 1445 L
%%IncludeResource: font Helvetica
/Helvetica /WindowsLatin1Encoding 120 FMSR

 640 1489 mt 
(10) s
%%IncludeResource: font Helvetica
/Helvetica /WindowsLatin1Encoding 80 FMSR

 773 1415 mt 
(0) s
 899 1127 mt  925 1127 L
6255 1127 mt 6228 1127 L
 899  941 mt  925  941 L
6255  941 mt 6228  941 L
 899  809 mt  925  809 L
6255  809 mt 6228  809 L
 899  706 mt  925  706 L
6255  706 mt 6228  706 L
 899  623 mt  925  623 L
6255  623 mt 6228  623 L
 899  552 mt  925  552 L
6255  552 mt 6228  552 L
 899  491 mt  925  491 L
6255  491 mt 6228  491 L
 899  437 mt  925  437 L
6255  437 mt 6228  437 L
 899  389 mt  925  389 L
6255  389 mt 6228  389 L
 899  389 mt  952  389 L
6255  389 mt 6201  389 L
%%IncludeResource: font Helvetica
/Helvetica /WindowsLatin1Encoding 120 FMSR

 640  433 mt 
(10) s
%%IncludeResource: font Helvetica
/Helvetica /WindowsLatin1Encoding 80 FMSR

 773  359 mt 
(1) s
 899  389 mt 6255  389 L
 899 4614 mt 6255 4614 L
6255 4614 mt 6255  389 L
 899 4614 mt  899  389 L
gs 899 389 5357 4226 MR c np
/c8 { 0.000000 0.000000 1.000000 sr} bdef
c8
8 7 0 -3 8 7 -2 1 10 -6 5 -11 2 -17 12 -19 
-1 -39 10 -21 14 -30 8 -87 10 -83 8 -95 19 -126 4 -115 
0 -136 11 -190 3 -334 10 -411 7 -544 2 874 16 92 5 160 
1 115 12 69 11 17 7 -70 9 -15 20 -121 5 -148 1 -8 
15 -244 2 -112 5 -292 8 320 -1 -375 10 509 5 -51 11 -175 
7 -101 0 493 13 54 1 -539 4 27 10 225 2 -182 10 -113 
4 124 7 164 -4 177 -2 108 17 -140 2 414 14 -507 21 330 
11 -248 9 -224 2 222 8 -584 0 790 6 -76 15 -49 6 -520 
8 484 5 -41 10 33 2 -225 6 160 22 62 3 -437 5 -38 
12 200 -1 205 7 -149 10 -639 10 238 7 380 7 46 5 -358 
6 -250 9 211 4 77 10 33 10 235 6 112 11 -48 6 -271 
4 144 5 197 8 -227 7 55 -2 -272 10 -14 15 632 4 -823 
11 359 10 322 0 -732 2966 2792 100 MP stroke
3 769 8 -80 6 -228 6 -25 8 -91 11 -103 15 212 5 177 
-1 -359 10 214 6 381 7 164 11 -179 -6 -69 13 -388 22 623 
-5 8 5 44 9 -189 0 -230 5 -468 2 534 9 41 4 -93 
7 -129 13 162 2 -117 6 -285 4 -67 4 120 7 133 0 342 
7 -337 8 321 6 75 6 -885 0 568 -1 -47 -1 119 2 -245 
1 -719 -4 548 2 170 4 181 3 280 6 -186 -1 -775 0 692 
1 134 -1 -307 4 306 -2 -123 -2 -469 8 531 -12 -962 -9 963 
5 -110 -2 231 0 -48 -2 -412 -3 -279 2 552 -3 -6 -3 -235 
-3 -288 -3 22 -8 596 -4 36 5 -44 -8 -906 -4 571 -1 392 
-6 -13 0 -347 -5 201 -3 -129 -5 -313 -7 62 5 595 -9 111 
-13 -426 -1 -388 -5 392 -4 -57 -3 -102 -6 -71 -6 415 -4 156 
-5 -73 -4 -122 1 55 -6 -90 -14 10 -4 40 -6 -193 -12 89 
-6 114 -3 18 -4 -48 2912 2177 100 MP stroke
-7 -225 -4 201 -5 55 -9 -789 -3 529 -7 -102 -15 -83 -8 323 
-7 -186 -12 -315 -11 173 -5 340 -6 -92 -7 295 -8 34 -11 -267 
-4 383 -7 72 -22 -649 -16 395 -5 -339 -9 162 -13 -168 -7 -70 
-10 213 -13 -54 -10 38 -16 97 -8 -6 -10 -253 -7 259 -3 113 
-24 -226 -21 14 -11 -120 -14 424 -6 -15 -13 -591 -16 227 -9 271 
-12 -223 -13 58 -5 84 -13 -527 -27 847 -15 248 -9 -391 -11 -108 
-10 -590 -14 139 -13 496 -14 -197 -11 -253 -11 131 -15 1 -20 225 
-17 367 -11 -636 -20 489 -6 -387 -23 -440 -34 478 1 79 -18 191 
-15 85 5 -148 -19 133 -12 126 -14 -88 -27 -136 -20 142 -15 152 
-14 -178 -15 -93 -13 -154 -31 -263 -14 81 3 -425 -21 264 -13 -26 
-13 -66 -17 39 -12 193 -14 -34 -11 250 -16 -253 -12 -37 -24 190 
-16 -474 6 -64 -19 224 -9 95 -8 -122 -18 356 -2 -336 -24 521 
-14 -72 0 265 -11 186 4121 1695 100 MP stroke
0 -1070 -4 789 -10 -85 -8 -68 -10 -305 -6 207 -10 -498 -11 -118 
-5 -317 -9 130 -7 759 -6 35 -12 -20 -6 -294 -1 400 -15 -65 
2 66 1 261 -29 133 -15 299 -5 -71 2 -96 6 -564 -9 111 
3 -73 1 536 -16 -395 -10 82 -15 -202 -1 -64 -1 178 -22 -598 
-1 -129 -5 -51 -13 105 2 349 -14 -136 0 247 -8 -111 -25 368 
4 -251 -17 157 -11 56 13 -374 -14 -680 -6 723 0 12 -8 -176 
-3 -34 -8 203 -3 -256 -8 -640 -9 172 0 385 -4 241 -5 -222 
-4 -97 -4 -819 -6 709 0 473 -4 172 -4 -34 0 -122 -10 -30 
2 -124 0 67 -8 -172 3 293 -5 -14 -1 93 0 -141 -3 -724 
2 499 -1 39 2 -327 -2 213 0 -94 1 -90 -2 -123 3 466 
-2 -696 3 1029 1 -73 -1 -182 7 -315 0 157 2 -237 -2 279 
2 281 14 42 -3 -229 -3 182 6 -538 9 293 0 -196 -3 -249 
20 582 10 241 -4 -283 4477 2453 100 MP stroke
1 -259 0 -177 0 390 -2 232 10 -312 12 -122 -4 50 1 124 
0 -231 4 110 6 -470 -6 781 1 408 6 -4 -2 -32 17 -353 
13 397 -4 -470 4 -428 -1 408 2 109 10 107 1 -290 6 -422 
3 255 3 185 4 -49 1 113 9 89 1 -176 3 -50 16 -86 
1 230 -3 -71 5 109 2 -96 8 -32 7 -161 0 241 6 -232 
6 -413 -3 124 7 -17 5 -221 4 -391 10 1068 -1 -55 4 131 
7 -162 6 -41 6 94 1 -166 23 -148 18 108 -4 229 1 -476 
0 -26 4 91 6 628 10 -260 13 -348 -2 -47 5 430 20 -577 
6 -698 1 958 13 419 4 -606 6 459 25 -37 10 -213 -4 30 
2 -15 7 201 17 435 2 91 4 -202 19 -16 4 -159 11 -101 
30 -34 6 62 -4 264 3 -66 11 -266 25 81 2 56 0 -37 
28 -131 6 154 5 -60 18 -312 0 269 8 56 11 -225 15 -80 
20 313 -2 -46 8 -113 3873 2652 100 MP stroke
18 191 2 -297 20 -292 20 501 -2 1 8 -539 12 744 9 -103 
16 -74 10 14 15 -46 15 125 13 226 23 -320 7 319 1 -983 
14 983 13 8 14 -468 11 422 20 -188 18 293 7 -210 12 147 
15 -83 18 -164 6 155 18 -28 24 -407 -1 477 14 -264 22 206 
14 -121 19 418 10 -329 13 -258 14 -321 11 740 15 134 20 -35 
25 -326 14 430 11 -133 13 140 11 -251 12 -403 14 335 11 -21 
10 -520 20 573 22 -27 16 335 7 -261 12 -81 22 139 -7 125 
13 51 30 -179 11 246 36 -203 9 -639 2 350 28 258 3 40 
13 -509 15 276 10 -351 22 259 7 -43 12 387 20 -593 20 569 
9 -65 8 109 16 -469 15 304 27 185 2 55 1 35 24 -4 
6 -117 22 240 17 -829 10 293 25 229 2 -131 6 -709 12 1131 
9 -67 9 -182 6 -454 28 688 12 -35 8 -298 13 -205 -8 932 
18 -408 24 16 -4 -259 2564 2120 100 MP stroke
18 -298 22 205 0 -193 7 162 12 53 4 -123 10 266 6 -138 
4 82 13 82 -8 -67 2 383 15 -379 1 -120 13 111 10 -138 
1 -206 12 457 6 54 5 -56 8 26 6 -147 2 -372 1 88 
5 -1454 0 1571 5 131 9 192 4 -107 6 -943 3 480 2 -156 
5 282 3 276 2 -349 2 -290 2 352 3 -887 2 689 0 437 
2 -69 5 96 1 -143 0 -292 1 475 7 197 5 -66 -5 -496 
-1 446 0 -88 -2 -154 1 -676 -3 940 0 -155 1 23 -4 230 
-1 -580 1 5 -1 -59 -1 399 3 89 -3 76 -12 -707 -6 810 
-3 -571 -4 121 -5 61 -5 -111 -8 339 -6 -267 -2 -354 -11 226 
-9 524 0 167 -5 -181 -9 -469 -10 -826 -8 756 -9 118 -8 477 
-5 154 -13 -264 -12 141 -13 -243 -19 625 -2 -487 -7 114 -17 -18 
-7 -95 -11 -480 -11 -95 -13 -123 -10 350 -9 240 -32 -94 -13 -705 
0 398 -14 -74 -5 173 2668 2336 100 MP stroke
-16 -152 -15 195 -10 242 -19 -94 -10 -288 -15 -434 -17 439 -11 -245 
-16 466 -14 391 -15 -55 -12 -474 -14 42 -16 -168 -11 -176 -16 712 
-15 67 -14 -55 -13 -340 -13 -129 -18 292 -13 -585 -16 660 -14 -937 
-13 828 -13 86 -11 -82 -21 -244 -17 -99 -14 561 -14 26 -16 -369 
-12 319 -12 -163 -26 232 -12 -30 -10 -335 -22 -151 -7 443 -19 -331 
-19 114 -9 -38 -16 -272 -15 530 -13 -176 -11 -262 -20 -73 -16 -75 
-11 331 -17 185 -10 5 -16 -487 -17 262 -15 -108 -18 60 -10 232 
-16 -548 -10 79 -14 351 -21 -152 -13 71 -14 202 -11 -59 -17 85 
-14 -881 -11 942 -26 123 -13 -291 -7 -272 -13 -714 -15 288 -13 652 
-9 140 -28 -271 -13 321 -13 -188 -27 155 -1 -826 -6 608 -18 61 
-4 152 -16 -308 -24 535 -10 -519 -12 -57 -17 50 -12 -447 -16 -20 
-12 220 -7 339 -24 33 -19 -549 -9 -162 -12 588 -12 167 -16 21 
-17 -740 -15 973 -17 -16 4097 1907 100 MP stroke
-17 -686 -11 -300 -12 282 -13 292 -17 24 -16 -209 -13 337 -18 -875 
-15 1118 -15 -206 -15 447 -9 -119 -17 -111 -12 -82 -12 60 -22 41 
-15 -275 -14 -37 -14 31 -16 389 -13 -1037 -5 1105 -17 -166 -14 -4 
-13 -45 -17 -261 -12 32 -15 -12 -12 164 -13 168 -12 -214 -7 167 
-12 -203 -14 -180 -11 -81 -11 -195 -11 150 -11 35 -10 278 -12 -138 
-14 162 -11 -362 -8 70 -13 193 -10 -109 -9 -426 -12 -18 -9 184 
-12 22 -10 53 -4 678 -10 -300 -12 -442 -8 212 -8 -49 -12 -252 
-10 -104 -9 309 -13 199 -8 -125 -6 -192 -9 136 -5 221 -9 -82 
-12 295 -10 -169 -7 226 -9 76 -14 -825 -8 489 -8 -31 -13 186 
-6 -29 -8 -115 -7 179 -6 -114 -14 -40 1 -588 -13 458 -25 441 
12 -642 2 391 -21 -359 -3 37 -2 -71 -10 -275 -9 828 -6 61 
-11 -424 -9 -580 2 -386 -9 -41 -9 589 -3 418 -10 110 -5 -50 
-5 28 -6 -86 -7 -214 5131 2472 100 MP stroke
-9 -63 -6 -24 -5 145 -5 -139 -7 302 -5 150 -4 46 -6 -147 
-5 188 -5 -182 -6 305 -8 -102 -6 -145 -4 118 -5 32 -4 -120 
-6 -243 -2 78 -8 231 5 -270 11 338 -12 -257 3 -154 -5 -150 
-11 434 12 -194 1 319 -2 -1164 -2 497 -3 164 2 -356 -1 290 
2 -56 0 -406 0 642 1 484 7 -584 15 682 -13 -607 -10 428 
18 -256 10 -154 0 286 8 62 5 -81 -7 -58 2 232 8 -137 
4 32 6 -223 7 -164 -1 82 4 -17 14 -212 8 233 9 -101 
17 317 4 -92 4 -123 9 -149 0 680 11 -23 18 -490 6 203 
7 -86 6 -788 5 118 7 459 9 -365 20 924 7 -228 4 -349 
12 -124 7 -14 8 254 6 409 19 -365 14 -228 1 453 15 -494 
8 645 12 -53 10 -1016 2 873 21 -229 -1 -187 -1 526 20 -283 
9 -22 11 -778 12 704 12 80 5 -152 2 175 23 165 13 52 
9 -283 13 3 8 268 4738 2051 100 MP stroke
13 -14 13 -510 12 261 10 -300 9 468 15 -593 10 -248 14 518 
14 -349 6 730 16 -970 20 1040 8 -859 9 168 14 58 9 572 
18 -64 18 -223 11 227 16 196 10 -104 4 -828 9 191 15 882 
20 -449 16 247 13 25 12 85 18 -212 16 -135 8 -329 13 547 
14 -6 12 272 18 -140 12 -110 15 -73 14 -329 11 194 16 -858 
13 999 18 -178 17 608 8 -826 19 735 14 34 6 -485 18 14 
13 -700 10 609 18 -1039 13 815 13 -301 15 198 14 -142 11 555 
13 226 21 -415 20 104 8 -669 10 752 15 170 11 48 22 -1241 
23 1342 7 -511 10 -387 13 -414 7 1121 20 -295 18 187 5 -97 
15 -819 15 118 9 703 24 124 16 75 5 -456 13 -384 14 -18 
14 147 10 -242 14 635 14 112 13 -249 16 -8 10 -40 22 383 
17 25 -3 -227 17 -195 19 47 13 146 13 27 9 -122 6 449 
10 237 27 -686 16 -305 3406 2779 100 MP stroke
5 85 19 443 11 -315 13 -6 17 236 13 -40 16 261 10 -123 
13 -114 13 -314 15 193 18 204 15 -68 14 -257 12 43 11 -359 
9 662 14 4 18 43 7 -19 23 -979 26 379 1 -31 7 282 
16 308 4 -422 16 819 24 -773 10 61 11 -98 16 604 12 -85 
13 -264 13 23 15 60 14 152 13 64 10 31 10 -837 20 593 
16 4 9 -113 10 -357 14 672 18 -137 12 16 14 369 14 -597 
13 363 11 -332 9 464 22 -641 14 -269 11 454 16 143 9 -494 
18 296 15 241 13 29 18 -202 7 239 15 115 16 -553 10 513 
14 -433 17 346 19 203 10 -301 14 -449 16 389 13 116 14 -665 
14 789 17 145 13 -92 22 -204 27 -77 3 247 5 -15 17 -46 
11 -115 17 -203 15 -119 14 708 18 -110 12 -281 8 314 15 -481 
15 532 14 -686 19 875 2 -29 0 508 37 -1470 27 735 0 -278 
8 195 11 -81 13 -34 2054 2177 100 MP stroke
21 -33 14 112 13 -861 16 1086 11 -547 8 406 13 89 14 263 
14 -130 14 14 7 -143 11 -304 13 131 11 337 15 323 -2 -642 
-1 700 18 -243 11 51 12 -138 10 -914 8 318 13 -1 10 241 
11 6 14 -385 13 142 13 91 10 -40 11 -60 11 14 11 111 
11 313 10 -347 10 -434 10 -106 10 317 10 -35 11 -299 10 -533 
11 1217 6 -234 8 165 15 -112 10 -109 6 119 10 -103 8 15 
7 472 8 103 7 -239 8 -174 5 -694 4 832 6 -102 10 -88 
7 178 4 -12 6 -271 6 -322 6 -108 4 706 3 -2 2 3 
4 -448 -1 -406 4 364 8 758 3 -65 0 -36 -4 -75 9 -827 
12 862 -13 -38 -4 142 6 189 -3 -187 2 -1040 -2 859 0 174 
-1 -61 -5 33 -2 -176 -7 -444 -2 301 3 -33 -6 -387 -1 316 
0 -136 -3 304 -8 -432 -13 405 -2 -135 -2 -46 -7 -462 -3 367 
-5 318 -7 274 -4 77 1491 1758 100 MP stroke
-7 -345 -7 -94 -7 -106 -5 -125 -7 72 -7 64 -3 -122 -7 378 
-12 133 -11 -315 -3 332 -7 -404 -7 -120 -6 -120 -7 489 -5 91 
-11 -660 -11 111 -8 391 -12 -904 -4 832 -8 48 -8 -112 -7 -57 
-13 15 -4 148 -13 3 -13 -214 -5 -384 -11 442 -6 14 -10 111 
-8 -262 -8 606 -11 -31 -8 -486 -21 433 -8 15 -1 -82 -10 168 
-9 50 -14 -357 -7 104 -14 -78 -23 141 -9 -243 -9 115 -10 -349 
-13 -209 -9 482 -7 171 -18 -706 -14 479 -12 -8 -13 -389 -13 400 
-13 -174 -11 -85 -16 188 -9 -60 -14 53 -22 -824 -13 294 -13 20 
-14 420 -17 157 -11 9 -13 -51 -18 205 -16 29 -16 -225 -7 87 
-6 78 -22 -444 -16 780 -15 -13 -16 -620 -13 345 -21 247 -17 -193 
-12 -335 -17 178 -19 -172 -17 290 -8 48 -19 130 -30 -481 -13 97 
-14 259 -18 -395 -15 241 -13 161 -16 -351 -23 165 -18 178 -19 -309 
-22 203 -14 -824 -21 417 2689 2479 100 MP stroke
-19 673 -15 -528 -19 107 -19 -271 -15 -50 -17 422 -37 -55 -15 -658 
-10 738 -26 -207 -8 -127 -27 37 -15 -318 -11 576 -47 -97 -11 -312 
-6 229 -22 -458 -17 488 -21 -235 -13 106 -38 -18 -23 228 2 -350 
-21 9 -17 486 -19 -390 -13 446 -19 -525 -34 553 -9 -214 -20 -312 
-21 272 -4 -328 -33 322 -29 -83 3 -134 -17 -354 -22 553 -12 -612 
-27 240 -10 29 -21 129 -33 -97 3 284 -22 78 -13 270 -4 -354 
-34 53 -9 -267 -29 -253 -24 606 11 -319 -20 269 -12 -141 -12 -107 
-19 -505 -10 172 -17 131 -9 -134 -16 -54 -16 27 -13 133 -18 390 
-7 -39 -15 389 -15 -1167 -9 266 -12 -67 -10 682 -15 -192 -9 145 
-12 -27 -13 -149 -9 -22 -25 -490 -14 17 2 419 -15 101 -17 364 
-11 60 -7 -596 -5 220 -13 -58 -10 -59 -8 -205 -12 -79 -5 58 
-17 194 -17 -491 2 38 -10 531 -12 -86 -6 -192 -15 32 -7 -156 
-4 298 -15 266 -10 -95 4176 2380 100 MP stroke
-9 -234 -9 59 -8 149 -10 -196 -9 67 -9 -16 -12 154 -6 -106 
-10 341 -8 101 -1 -126 -8 -62 -1 -258 1 449 -8 -23 -13 -360 
-14 -167 -1 160 -2 -41 -7 -151 -7 -87 -7 -434 0 472 -9 27 
-10 -13 7 -260 -5 -109 -6 444 0 194 -2 -257 -3 178 -6 21 
-3 -653 0 267 -4 -316 -3 494 -4 -435 -3 366 -4 170 -5 -70 
-2 -102 -4 299 2 -169 6 115 -6 0 -6 -863 -2 468 -5 340 
-2 -252 0 285 -4 76 -4 -203 -5 109 0 105 -2 -495 -5 704 
3 -28 5 -141 -8 175 -6 -21 3 -678 -4 323 -3 94 0 176 
-5 -217 -4 -337 -2 58 1 165 -6 89 0 -183 8 715 -7 -306 
-5 -227 1 102 -3 -173 0 86 -7 -290 -2 339 1 69 -6 159 
-1 -93 -2 36 -1 -178 1 -211 -2 332 1 -214 -2 11 -4 -459 
-3 -64 -2 -176 -1 566 -5 97 3 189 7 358 -6 -466 -3 -9 
2 -425 -1 288 0 -253 4498 2946 100 MP stroke
-5 130 -2 307 -1 102 -4 146 5 -719 4 773 0 -51 -1 -242 
-1 8 -2 -362 -2 302 2 -71 -3 213 -1 246 6 -159 2 -80 
1 -896 0 608 -1 -92 1 -29 1 229 2 259 0 -94 1 -230 
4 -896 5 833 2 169 -1 -109 3 -20 3 32 8 320 1 -81 
-3 118 9 -136 5 124 1 -452 4 610 0 -116 2 -250 4 -312 
5 -766 3 948 8 514 10 282 5 -5 4 70 -2 -566 -1 367 
5 -151 3 -72 4 48 4 -23 3 -178 3 35 9 94 1 -358 
-1 436 10 -582 3 762 8 -68 7 48 -1 -207 9 -621 1 185 
3 -310 5 213 0 79 9 93 3 11 0 -245 5 235 4 -68 
9 109 1 132 0 157 9 -203 3 -261 0 -497 5 175 3 61 
5 384 7 150 3 -58 6 -143 4 -102 2 387 10 -166 2 -127 
2 378 7 208 -1 -47 5 -182 6 155 0 -590 12 360 14 498 
2 -99 3 -282 3 -311 4198 2528 100 MP stroke
4 -248 7 523 -2 -64 6 42 6 -101 1 -104 13 -111 3 -96 
3 272 9 93 0 4 7 -340 4 -31 0 61 6 163 7 108 
5 -88 5 229 15 -414 10 -395 -3 -372 1 260 4 387 13 -358 
4 514 1 -34 6 266 -1 -401 15 -66 7 287 -5 71 15 -657 
5 350 1 -198 11 31 0 138 5 138 5 255 0 -170 12 8 
11 437 1 -128 2 -430 8 318 3 -23 6 -305 11 -56 -1 35 
11 247 15 504 -4 -201 1 32 10 -31 20 109 -4 -382 6 12 
10 -109 -2 100 12 -168 6 -142 -2 294 1 57 4 -54 11 142 
3 49 -4 4 7 -121 15 -123 -2 150 2 -755 13 204 -3 211 
8 50 5 85 0 264 19 43 4 -185 -1 -151 -1 226 2 206 
9 -32 -1 -43 14 -143 11 -382 -5 -274 2 -55 1 791 11 137 
5 -19 -3 1 11 -217 11 59 10 408 8 -79 6 -248 3 -472 
5 15 14 -6 -2 174 3680 2546 100 MP stroke
4 -63 17 116 1 0 3 -35 6 -196 7 -939 16 839 5 336 
-4 197 5 -21 10 -176 7 -128 6 232 9 -717 -1 984 13 -84 
32 37 -5 -16 -3 -27 18 57 0 -68 5 -22 4 -512 5 92 
16 146 1 -18 6 -37 5 -349 12 -48 30 441 2 113 -4 43 
3 -296 -1 120 12 191 10 -360 8 47 9 -48 6 -207 15 543 
8 233 8 -153 24 -566 8 400 -9 249 12 -139 13 -33 -1 17 
9 -263 9 301 9 -30 10 146 8 98 7 -69 7 1 18 262 
12 50 2 -559 12 2 9 38 12 218 11 -18 16 75 15 123 
-4 37 11 -59 14 163 4 -217 24 -811 11 374 0 -438 16 1142 
15 112 12 -34 10 -118 7 -160 11 45 10 138 9 -845 10 702 
9 -39 11 205 14 116 11 -34 12 -73 9 -125 10 -404 9 574 
13 -186 22 -418 1 111 5 35 17 -331 5 -118 15 650 12 125 
10 -492 19 155 7 -195 2790 2409 100 MP stroke
8 245 10 -116 11 -181 12 -102 8 313 11 286 9 45 11 -170 
12 -176 10 -29 13 -706 9 788 12 -305 12 44 11 669 12 -84 
6 -364 21 287 14 54 -2 -26 12 -328 7 537 15 -569 16 135 
2 -178 15 381 8 -136 6 129 21 -47 5 -27 2 -446 12 639 
9 128 11 -181 9 -414 8 -117 11 473 9 49 6 -18 5 -191 
9 48 8 256 6 254 6 -411 8 -52 6 -653 4 592 12 -143 
9 -1240 -3 1253 7 34 10 -107 0 272 3 -168 7 -7 9 -180 
2 327 5 -666 15 371 4 192 1 205 4 262 2 -224 3 -329 
3 392 6 -357 2 105 3 155 8 -320 3 -304 8 226 3 -808 
0 801 6 115 3 -79 3 335 4 -272 1 -10 3 -475 4 560 
3 267 -1 -240 3 -48 5 271 -1 -70 3 -130 3 -246 0 234 
3 -13 2 126 1 -180 3 -41 -1 14 1 351 2 129 -1 -65 
-2 -367 -1 118 0 235 2172 1823 100 MP stroke
0 -670 -1 -242 0 361 -1 506 0 -69 1 -185 -1 -175 -1 98 
0 93 -2 -220 -4 8 -2 -149 -2 67 -3 425 -3 -66 -3 -294 
-2 -221 -3 -136 -3 295 -5 186 -1 132 -2 -111 -7 185 -6 94 
-4 -339 -3 -1720 -6 1776 -5 111 -7 110 -6 -184 -4 -44 -5 101 
-7 -450 -8 -43 -9 413 -6 148 -6 -163 -7 -739 -7 151 -8 618 
-6 259 -7 20 -10 -541 -8 293 -6 174 -9 -558 -7 227 -8 -130 
-10 116 -9 -34 -9 160 -8 164 -12 -637 -11 385 -9 -47 -9 134 
-6 -236 -10 -19 -11 -115 -9 14 -10 -202 -7 783 -10 -16 -16 -885 
-12 532 -8 159 -8 -208 -11 -671 -9 650 -13 -152 -11 -19 -6 674 
-13 -339 -13 -36 -9 90 -10 322 -10 -97 -9 -715 -13 548 -11 141 
-10 57 -11 -210 -10 243 -10 -94 -11 -464 -8 151 -11 25 -12 -10 
-10 199 -8 26 -12 -518 -14 180 -10 -133 -11 285 -11 227 -12 74 
-10 26 -9 -60 -16 -168 2910 2141 100 MP stroke
-9 -62 -12 -435 -21 -705 -3 390 -4 911 -16 -16 -4 -150 -12 214 
-22 617 -11 80 -17 58 2 -245 19 25 -16 -156 -11 -61 -5 185 
-18 -485 -4 302 -16 -121 -18 -514 -8 443 -12 5 -8 130 -16 -117 
-6 415 -14 68 -43 -226 -20 273 -8 -172 -14 27 -10 -144 -13 -32 
-10 -223 -10 -300 -12 -338 -11 -482 -12 373 -11 810 -12 -71 -12 -280 
-10 101 -10 5 -14 -312 -9 -264 -10 206 -14 -871 -9 614 -15 562 
-10 117 -11 142 -13 206 1 -679 -10 588 -12 -218 -9 181 -16 -349 
-15 -79 -13 -290 -7 248 -20 66 -17 -54 1 -217 -11 140 -12 213 
-5 250 -15 -603 -20 621 -8 -502 -10 -310 -25 317 -8 86 0 -374 
-14 -9 -10 -183 -10 -597 -11 692 -11 67 -10 -110 -14 -673 -11 324 
-9 354 -15 -6 -6 -8 -18 234 -15 -413 1 275 -10 -108 -10 113 
-17 126 -13 195 3 -75 -10 131 -16 336 -21 146 -4 17 -11 -687 
-29 212 4 -24 1 22 4012 2258 100 MP stroke
-4 19 2 87 -18 -501 -12 663 -4 -161 -4 -111 -13 -383 -14 162 
1 180 -14 22 -13 113 1 72 -13 -722 -12 747 -5 -86 -10 128 
-4 -375 5 306 -12 -505 -16 381 1 -126 -6 2 -6 137 -5 -138 
-15 401 -4 -44 1 -716 3 595 -6 -34 -17 31 -4 -188 -7 -596 
3 1014 3 201 -24 -830 -4 74 12 331 -12 -375 -9 403 -4 -286 
-5 32 1 -548 -3 77 -5 294 -4 -1221 -4 858 -4 -62 -6 274 
-2 280 3 53 -1 -5 1 314 0 -15 -12 -1121 -7 842 6 3 
-6 -326 -10 647 4 -635 -3 -387 -3 17 6 970 -4 -154 -9 -335 
0 -141 0 185 -2 -161 -1 -585 -3 581 1 257 0 27 3 -412 
-4 63 -8 388 5 -470 -2 409 -1 -814 6 945 -6 -395 -4 304 
1 -462 -6 120 -1 119 -1 -122 0 155 -1 140 -4 -551 2 340 
2 55 -1 150 -1 -32 -2 319 2 -230 1 1 -1 88 4 -274 
0 -123 -3 391 1 -186 4362 2435 100 MP stroke
1 -1477 3 1564 2 -48 3 218 1 -23 -3 -426 2 -203 1 113 
3 -52 2 153 3 -163 6 95 -4 477 2 -74 7 -101 0 87 
3 -343 3 -97 0 284 2 -314 4 56 3 328 1 -710 3 666 
1 -186 4 -26 3 276 0 53 7 -445 2 70 5 -364 3 391 
3 123 6 -111 1 -489 6 148 4 51 4 355 10 271 0 -249 
3 -338 5 -687 3 1005 6 207 8 -114 10 58 2 221 3 3 
7 -1543 5 1515 8 -569 8 3 3 284 7 -46 8 262 4 -194 
4 -206 7 -67 7 -260 6 732 7 -1247 11 835 6 368 2 490 
14 44 3 -327 2 161 17 165 8 -43 -1 -360 3 98 13 -549 
4 592 5 53 16 -268 -2 -378 1 -143 8 440 6 286 16 -442 
8 432 5 56 -3 -332 -2 429 21 -294 9 -376 -1 324 7 79 
5 -549 4 37 4 -59 5 75 2 -278 3 769 4 257 3 -185 
3 90 1 -601 4 255 3920 2387 100 MP stroke
8 171 4 -21 1 -65 2 -380 -2 489 0 186 11 -225 3 -230 
-4 486 9 -305 6 58 -6 93 -2 -540 3 67 0 -12 -4 386 
1 -205 5 133 1 200 0 -136 3 -279 1 -222 -2 170 0 153 
-4 -170 0 250 2 -233 -2 180 0 70 -2 119 1 -451 2 161 
-3 223 0 -258 -2 -96 0 608 3 -96 -6 -116 -7 330 2 25 
-2 -597 -1 -50 4 195 -1 -302 2 113 0 -300 -10 638 -5 -167 
1 310 -1 -358 -3 -19 -1 131 -3 143 -4 -81 -2 -405 2 411 
1 -48 -6 -307 -1 -372 -1 651 0 -185 9 709 -7 -82 -13 -198 
1 137 -1 -267 -1 -615 -4 435 -3 17 0 -212 0 424 -1 -636 
-5 611 -4 -64 0 -302 0 117 -4 415 -6 -175 2 -83 1 -267 
-1 253 -1 145 -11 20 -4 -229 1 200 -5 -227 0 -358 -2 -2 
-2 -316 1 579 -3 214 -3 -85 -6 153 -11 286 3 -228 8 -175 
-4 199 -4 -188 -1 145 4010 2118 100 MP stroke
-3 -120 0 -264 -1 -1428 -1 1305 -1 -90 -2 -119 1 209 -4 -183 
-9 626 1 -199 2 390 -4 -8 1 -265 4 127 -2 1 -2 187 
0 -375 0 225 -2 -189 -1 -229 2 -146 0 304 -2 -376 2 421 
-3 120 -4 -52 1 -11 -9 -208 -2 147 4 -567 -4 692 1 90 
1 115 -1 94 2 -110 1 -247 2 -164 0 227 1 52 2 -127 
-1 13 2 -25 1 45 1 17 2 -117 -1 153 -1 21 5 -118 
1 -110 -10 508 -1 -64 2 -408 -2 43 4 105 -4 -1092 -3 961 
1 -510 -6 493 0 126 3 139 1 -121 3 90 4 297 4 -718 
0 603 4 -462 2 235 0 -67 2 -77 0 150 4 -258 2 -42 
0 161 3 -230 0 -136 1 256 1 291 1 86 3 -428 1 105 
1 -272 2 64 3 22 3 -79 3 -1 0 6 2 211 2 0 
1 -89 3 -22 4 -5 2 -142 2 -64 2 336 0 -456 3 248 
7 406 0 118 0 -658 3970 2725 100 MP stroke
6 480 2 90 5 -25 3 -64 7 -197 5 -80 2 -54 12 -210 
4 181 2 2 12 313 0 32 6 -105 12 206 5 -82 10 20 
7 -171 5 -607 10 259 5 351 6 -163 6 -421 7 469 6 172 
5 -54 12 93 6 121 11 21 22 -50 1 -38 3 -107 11 -328 
3 438 14 264 8 -90 8 -244 11 132 4 24 14 -48 3 -341 
11 594 13 57 3 -228 22 -177 7 -173 3 34 19 448 1 92 
6 -128 12 -66 8 63 17 -66 7 105 6 -183 13 -50 5 75 
8 349 13 -109 9 -239 7 -71 9 -151 8 -206 13 45 9 -555 
4 694 16 -827 10 345 7 719 13 -339 5 -16 3 332 6 36 
3 347 9 -276 15 -191 12 224 5 -121 8 54 9 200 1 -406 
2 555 6 -179 3 -711 6 329 5 -124 2 364 10 -34 6 254 
-1 64 5 -554 4 302 2 -240 5 311 1 245 1 -116 3 -390 
4 -274 7 712 1 -14 3262 1801 100 MP stroke
0 -794 5 327 3 -285 0 -109 2 318 0 -255 1 184 2 410 
-4 331 -2 -473 3 393 6 24 4 -259 -2 -272 3 167 2 -404 
-5 -76 2 554 -1 -121 -5 237 -2 -342 1 -179 7 378 -1 152 
-1 115 2 -680 -4 419 5 -188 -5 193 -11 179 4 -66 0 -67 
-3 -355 2 303 2 148 1 -113 -5 -296 -2 189 -4 -376 -5 508 
3 -69 -1 -1036 -2 1086 1 -221 -2 51 -3 189 -2 -489 -7 483 
-6 -85 1 -149 2 287 -3 -307 -6 302 3 29 -3 163 -15 -561 
2 487 -5 -129 -9 -182 5 130 -7 200 -4 -197 -2 -217 -5 -55 
-3 88 -10 -712 -3 467 -5 -15 -6 -57 -4 239 -9 42 0 -534 
-12 795 -17 258 0 -171 -2 -204 -4 -417 -13 563 -6 165 3 -410 
-18 30 -14 -666 -5 760 -10 30 -6 -110 -12 -216 -7 -334 -4 308 
-12 -61 -14 465 -14 -7 -3 -114 -8 232 -14 -303 0 -281 -18 307 
-20 368 -3 -112 -14 -317 3619 2196 100 MP stroke
-10 -161 -9 -189 -9 622 -4 185 -21 -242 -18 -2 -10 -132 -15 -367 
-11 280 -14 -298 -11 172 -13 80 -31 -142 -12 332 1 -181 -19 -8 
-11 -110 -12 188 -27 85 -15 325 -12 -580 -10 23 -15 -430 -17 180 
-5 631 -24 -557 -26 463 -7 159 -17 -70 -16 -413 -14 53 -20 219 
-16 -40 -17 1 -17 -24 -15 45 -17 -234 -20 249 -20 151 -18 -299 
-15 180 -15 12 -18 -84 -15 142 -21 43 -14 -92 -17 -67 -19 -439 
-12 -409 -34 954 -20 125 3 -19 -20 -30 -16 -271 -14 494 -23 16 
-19 -338 -12 -203 -12 367 -14 -12 -14 -51 -19 12 -12 121 -20 -397 
-32 395 -10 -191 -13 -394 -20 179 -13 -76 -15 21 -12 401 -22 -83 
-19 -235 -15 140 -19 157 -13 23 -21 -106 -17 -124 -17 67 -18 -85 
-12 -179 -24 397 -18 -180 -21 -17 -23 292 -11 -337 -18 309 -14 13 
-19 -245 -19 186 -5 -442 -26 153 -23 37 -5 291 -17 61 -16 -106 
-12 7 -16 -185 -13 19 5193 2015 100 MP stroke
-23 -944 -17 1022 -12 91 -30 -12 -11 -62 0 -586 -19 -30 -11 93 
-10 405 -27 -125 -12 -692 3 152 -26 -179 -21 399 2 34 -21 -179 
-11 -284 1 318 -14 34 -9 201 -10 -14 -9 -314 -19 114 -16 214 
4 -84 -12 36 -11 159 -7 -368 -11 468 -6 -464 -10 86 -8 -87 
-7 5 -7 318 -7 -529 -8 571 -7 -262 -10 122 -2 -347 -4 300 
-7 -328 -6 339 -9 -52 -4 -53 -6 119 -5 113 -6 -599 -7 248 
1 -132 -8 347 -1 -195 2 -188 -12 575 -2 12 -1 -109 0 -92 
0 56 -1 -61 1 311 -13 -437 -10 402 3 68 -2 -81 0 -153 
0 18 -4 -294 -1 -904 0 511 -2 293 1 294 -2 184 -3 -48 
1 -266 -3 -96 -1 -349 -2 201 -3 505 2 -261 -1 -56 -1 -255 
-4 -444 -3 617 4 329 -3 -190 2 129 -1 -35 -4 -97 3 251 
-6 -521 3 239 -5 -328 -6 813 16 -259 -5 -569 -9 668 4 -151 
-5 -4 1 -181 1 -29 5757 2610 100 MP stroke
-1 -560 1 365 -1 -24 2 25 -1 26 2 862 1 -233 0 -399 
4 -535 -2 261 2 251 -2 313 -3 130 7 -550 2 -108 1 304 
5 -271 -1 64 3 384 3 -520 3 -584 4 743 3 43 2 270 
5 66 4 -124 1 -77 3 -73 2 143 6 -188 12 193 -1 -46 
7 -509 13 -125 -2 552 6 8 13 -38 5 211 6 -459 2 -170 
9 -512 15 811 2 -467 4 348 14 283 5 -512 10 309 12 302 
10 -40 7 -267 13 376 23 -172 -3 -100 6 29 28 -108 1 16 
7 451 10 -26 9 -185 18 -9 4 146 22 -1603 19 1719 6 -175 
14 -107 11 -88 12 211 4 218 28 -104 34 -207 -3 -67 7 -245 
16 182 11 -112 14 12 8 115 14 55 15 -59 27 -582 9 98 
5 234 29 96 -4 -24 5 -494 37 431 6 143 4 163 17 -226 
17 -643 10 142 10 440 13 17 8 52 13 388 10 141 19 -561 
35 351 10 -134 -1 300 4926 2239 100 MP stroke
15 -24 16 143 12 -120 6 106 21 57 31 -157 3 -202 12 -174 
41 -225 10 464 -8 -98 8 -53 15 -355 30 730 25 -145 1 273 
7 -128 16 -186 15 230 11 32 11 207 27 -627 21 442 8 5 
14 -23 12 -256 12 -126 13 -274 12 601 19 13 14 -1125 17 437 
14 105 7 187 28 -322 18 355 -3 -18 14 228 13 155 15 -194 
27 266 12 228 15 -549 22 -820 1 379 8 15 21 210 7 142 
18 7 10 -78 5 517 27 -707 20 553 8 -174 14 -259 15 -61 
11 111 12 194 14 -55 9 -294 14 -244 17 487 14 109 15 86 
12 -53 17 -120 11 72 15 -210 14 -564 6 127 25 453 7 582 
5 -154 31 -405 11 40 12 328 17 -157 6 -463 10 281 12 -275 
13 -104 13 695 17 1 13 -103 15 -99 15 109 13 544 15 -254 
12 -213 13 81 11 46 16 124 15 -353 7 143 25 276 5 -404 
12 -395 29 790 7 -557 3540 2429 100 MP stroke
29 32 11 -171 6 -622 31 920 -4 -165 9 -16 14 664 6 -90 
19 -224 14 -244 31 291 13 102 8 -129 20 -30 2 -268 15 -27 
12 550 11 -96 31 -695 9 533 0 91 17 -149 20 126 11 -166 
8 188 12 -215 11 27 9 229 12 -1090 12 709 6 -613 19 338 
14 67 -2 -144 12 521 12 372 22 -1082 15 811 -2 -629 13 914 
9 -323 11 131 14 -869 9 581 12 272 6 -216 13 -580 9 501 
3 -73 3 565 3 30 24 -57 14 10 2 -630 7 39 9 321 
5 -467 -7 931 7 -114 6 -193 2 89 20 -460 7 143 1 302 
7 75 15 -596 15 345 2 -447 8 615 9 -130 6 -14 9 407 
6 -215 6 -274 1 -457 5 233 6 357 0 -753 6 883 -1 -40 
-2 -549 5 377 5 290 5 -315 -2 -170 5 163 14 -436 5 -926 
0 850 1 582 3 -113 3 -666 6 126 2 303 2 382 4 -867 
0 792 6 -76 1 -656 2680 2796 100 MP stroke
-1 482 7 14 2 -169 2 149 2 49 -1 422 4 122 6 -257 
0 -1022 0 974 2 -59 0 -153 0 246 -1 24 -1 -127 0 -16 
-2 105 3 -83 -5 -193 -5 328 9 102 -2 -283 -7 191 0 -548 
-2 325 2 5 -4 -145 -3 405 3 -47 -6 -251 -7 255 -1 -952 
0 897 -1 -28 1 -171 -2 -11 -4 -270 -1 -554 -3 974 -8 169 
-5 -108 1 253 1 -85 -6 -1042 1 1157 0 226 -9 -262 -2 -468 
-4 5 -5 250 -4 -53 -4 81 -1 -459 -6 83 -1 -454 0 1045 
-8 -421 -6 43 -4 -401 -7 67 -4 333 -3 160 -4 188 -3 -95 
-1 -275 -4 264 -10 -309 -6 221 -3 72 -6 -15 -3 -57 0 -372 
-7 14 -8 -699 -2 20 -10 440 -10 57 -2 650 -6 103 -2 -1104 
-7 540 -10 425 -4 -251 -14 -231 -7 -531 -1 716 -17 -86 -4 112 
-1 162 -14 -254 -7 -501 -5 272 -8 -112 -10 305 -12 30 -8 -302 
-9 568 -3 -100 -8 71 3016 2011 100 MP stroke
-11 -196 -7 473 -14 -544 -15 192 -10 168 -11 -33 -8 114 -9 -219 
-12 -450 -15 269 -14 -76 -12 180 -11 215 -11 -39 -11 -762 -12 124 
-15 161 -15 249 -12 -314 -12 255 -11 -282 -15 132 -14 361 -11 217 
-17 -581 -16 324 -14 -140 -13 175 -13 -59 -14 -401 -14 195 -14 -24 
-15 5 -17 -795 -14 198 -14 1091 -16 131 -16 -256 -16 35 -10 207 
-13 -189 -20 -436 -14 -419 -15 390 -15 228 -17 -28 -15 -297 -9 608 
-23 -642 -17 477 -6 169 -20 38 -16 -254 -13 299 -18 -805 -8 -24 
-18 461 -24 246 -13 -343 -12 147 -14 -147 -16 -13 -10 -262 -15 315 
-13 43 -6 465 -27 -423 -17 -302 -7 123 -16 -95 -13 198 -27 41 
-8 88 4 -48 -24 -92 -24 -45 -9 -192 -9 186 -25 162 -13 81 
3 -599 -21 193 -8 -140 -9 675 -28 -174 -13 -119 -10 -41 -11 99 
-14 31 -16 26 -12 -91 -15 138 -9 -239 -15 360 -24 55 -9 -80 
-9 -200 -17 225 -12 -114 4381 1997 100 MP stroke
-14 -674 -16 279 -9 -79 -14 -149 -10 704 -11 -127 -20 35 -10 129 
-13 -61 -16 42 -13 -402 -15 64 -11 -7 -14 -160 -10 531 -8 55 
-21 -419 -19 347 -13 -50 -8 -1338 -13 397 -14 361 -11 -275 -11 694 
-7 321 -12 -496 -11 -106 -13 -216 -14 193 -12 -624 -23 1193 -10 -109 
-10 -171 -12 -615 -5 515 -28 -461 -15 -37 0 275 -12 201 -10 -209 
-10 219 -6 -425 -11 355 -9 347 -9 323 -23 -319 -16 -228 -11 44 
-9 -183 -7 -45 -12 317 -11 315 -13 -509 -9 -196 -12 -97 -13 311 
-8 -271 -11 93 -6 -54 -11 216 -12 -87 -6 373 -10 118 -8 -39 
-17 -416 -18 225 -6 -214 -9 -103 -11 344 -4 -426 -8 -1469 -14 1424 
-8 81 -8 154 -13 -30 -9 -107 -20 -663 -17 -168 6 134 -2 248 
-17 -480 -2 -34 -4 758 -10 67 -4 530 -7 -6 -7 85 -15 -1066 
-19 952 -2 -303 -2 96 -9 52 -8 -212 -2 192 0 -78 -6 -2 
-8 -349 -15 302 -8 182 5445 2168 100 MP stroke
-1 -108 -15 -128 -7 -114 0 80 -7 -800 -3 804 -5 -565 -6 978 
-5 76 -10 -317 -8 -250 0 -309 -3 596 -6 -121 -7 -30 -11 62 
2 48 1 -164 -5 -113 -2 -217 -8 280 -7 252 0 81 -4 233 
-8 -187 -1 -649 -2 681 -6 -203 0 299 -5 -32 -5 2 -1 72 
-4 141 -1 -126 -6 -293 -3 54 1 -283 -5 274 3 -180 -4 116 
-4 -86 0 -5 -1 88 2 -230 -2 133 3 -242 1 272 -1 -143 
5 171 -2 2 4 18 -1 -523 -1 352 3 334 -4 173 12 -403 
6 -695 1 -155 8 458 -1 50 6 61 2 -354 3 -124 7 -99 
0 334 8 105 2 377 1 -370 6 44 3 -208 7 242 5 164 
0 210 3 459 6 -1587 6 1631 4 -98 8 -146 1 -155 7 280 
24 -155 14 -110 -1 -16 -1 -29 4 49 15 201 16 -20 -6 -46 
2 -173 20 227 7 137 5 -358 7 -425 6 -450 7 388 5 -883 
7 29 5 1030 13 168 5347 2329 100 MP stroke
10 195 -1 -84 15 180 12 -45 3 -313 10 258 7 -283 9 -126 
5 373 3 193 5 122 6 66 19 -427 13 431 5 -72 4 -701 
3 513 9 -301 6 392 10 -355 17 575 8 59 4 -570 2 350 
10 -1157 17 1217 -1 -663 3 519 16 -414 11 27 6 -259 3 487 
11 -173 8 -791 1 903 12 -202 2 289 6 131 19 -238 6 232 
9 -778 8 -273 -1 198 8 284 7 193 5 -375 12 425 10 355 
6 -504 9 -452 1 202 2 435 13 -303 0 375 7 86 18 -210 
5 -209 3 107 4 233 8 -238 4 90 5 318 18 -284 8 175 
4 -1609 4 987 9 955 10 44 -3 -445 14 -18 14 227 -1 -603 
10 -294 6 624 2 129 3 168 11 -374 15 340 1 -292 6 -275 
6 -222 5 568 4 124 7 42 15 -140 1 39 4 -179 9 3 
-1 133 14 -12 13 379 2 -216 2 -441 3 -227 1 794 -2 317 
13 -607 14 25 3 -221 4646 2418 100 MP stroke
4 242 2 -400 7 265 -2 -532 -1 819 14 -168 2 -207 2 -814 
5 771 -1 -478 3 130 0 167 1 353 3 -415 3 -205 6 -1 
0 519 1 -560 0 2 3 154 -2 -218 1 33 3 568 -2 -104 
1 -90 2 212 -6 462 -2 126 13 -550 7 124 -5 -1097 1 880 
-2 -332 -1 7 -2 580 -9 303 11 -319 12 206 -9 -1436 2 1071 
2 717 -8 -614 -2 -70 -1 -58 3 -453 2 -30 1 428 5 133 
-3 -235 3 354 3 496 -5 -715 -3 580 -6 178 13 -335 15 -45 
-6 -999 1 507 -1 225 -2 -314 3 194 -3 209 4 -215 9 38 
0 -448 0 7 5 137 2 135 3 -75 3 348 1 -108 4 -789 
1 786 3 -49 11 -38 2 -171 2 190 9 135 2 164 2 -331 
8 305 4 24 6 -514 9 193 1 -429 3 279 7 342 4 -375 
4 154 5 -220 11 346 4 139 8 -364 20 -179 1 -90 -3 352 
6 -206 8 -150 5 192 4396 2682 100 MP stroke
5 50 6 292 3 379 13 -753 15 582 1 -654 8 -86 7 168 
6 30 9 -267 8 338 9 -269 9 145 14 326 11 231 5 -175 
9 30 6 -598 9 230 11 -173 11 366 9 -350 8 -76 11 424 
9 109 12 -22 6 -388 14 -531 14 869 -3 -157 11 27 10 164 
14 263 13 70 -6 -26 21 -423 10 -48 7 130 27 -70 -2 333 
15 -641 24 202 -2 338 9 156 14 -522 11 481 11 -203 13 -278 
15 462 8 -514 14 376 13 -78 6 94 13 -71 13 154 11 135 
16 -237 16 -290 10 33 13 9 13 -169 12 -256 13 400 11 -35 
13 50 14 181 21 -9 20 436 12 13 16 -134 15 -55 13 -142 
12 -693 13 399 19 411 16 522 17 -105 19 -285 21 -246 12 172 
12 -59 20 245 11 -46 21 -587 13 598 12 292 42 -748 14 604 
1 7 21 -31 14 -230 14 -81 16 390 18 -155 16 68 16 -353 
31 -411 15 -206 15 532 3169 2302 100 MP stroke
21 152 13 35 17 -38 15 -138 20 -80 26 279 20 182 18 -852 
16 506 16 -410 15 185 16 -192 18 -331 20 434 27 345 20 -88 
16 -368 18 225 17 83 19 151 18 168 20 -3 21 -389 19 36 
21 140 21 459 14 -414 17 -108 20 -251 16 221 20 12 20 199 
16 212 16 -124 20 -200 20 -257 18 359 17 229 15 -186 16 -373 
21 435 16 33 11 -314 18 194 23 -338 13 306 15 -226 20 178 
11 69 18 -212 20 292 12 -44 18 -479 14 250 16 -216 16 527 
11 367 16 -187 17 -1013 17 362 13 104 14 250 12 -157 15 177 
16 -98 10 -10 33 -95 24 -186 -5 -176 17 5 14 316 10 36 
18 145 7 216 20 -414 14 -4 11 36 20 134 7 125 29 -521 
21 118 -1 11 29 249 10 -218 -2 -202 26 -211 6 550 16 -754 
29 989 0 11 16 -297 18 -104 -4 311 13 -97 12 -814 7 462 
15 229 8 -975 15 1412 1580 1955 100 MP stroke
11 -178 5 133 12 -60 11 -473 10 -58 10 -95 11 143 9 -155 
9 -157 10 730 5 -5 9 -382 7 -247 7 1063 12 -180 10 -463 
7 102 6 155 9 -339 8 -306 2 183 6 -1119 7 1365 5 42 
7 87 5 62 8 111 7 61 7 -62 -2 -9 -5 273 7 252 
4 -275 -2 8 7 -190 -1 230 6 7 17 -170 3 215 5 -396 
1 86 -5 387 4 68 -13 -857 -5 594 6 -626 -6 104 3 52 
0 -174 -3 -103 2 385 -5 -172 2 -203 -1 218 1 136 -3 199 
-7 418 12 -695 7 568 -3 -160 -1 -346 0 -460 2 606 -7 210 
0 366 -8 -220 -25 106 -5 -8 -2 -22 -4 -58 -5 -81 -2 -8 
8 -492 -2 233 -10 -169 -1 148 -1 -773 -4 433 -4 -233 -5 -38 
-4 717 -5 7 -6 -377 -3 -101 -2 8 -1 235 -5 -682 -6 654 
-4 187 -7 -130 -6 -299 -2 342 -4 -236 -3 120 -10 -113 -2 -398 
0 542 -19 -212 -8 409 1495 1960 100 MP stroke
1 -110 -7 -663 -3 218 -8 -413 -10 800 1 -170 -11 -173 -14 186 
-6 199 -7 -483 -6 -117 -7 586 -3 132 -12 -1151 -20 999 -1 -369 
-7 628 -12 18 -4 -41 -12 -437 -7 311 -11 124 -18 34 -6 -555 
-11 124 -11 -92 -9 61 -10 323 -9 158 -24 -296 -19 175 -6 -102 
-13 -84 -14 53 -15 -260 -18 -124 -15 224 -13 100 -16 258 -15 -66 
-15 -261 -15 92 -14 59 -15 79 -12 -331 -16 -362 -16 1 -16 237 
-13 136 -11 209 -14 -381 -14 85 -14 347 -15 57 -24 -276 -22 336 
-11 -737 -12 585 -12 -141 -32 124 -16 -196 4 29 -23 -112 -13 11 
-14 352 -22 64 -7 -146 -21 -256 -9 -314 -18 282 -30 -197 -1 578 
-10 -109 -18 37 -13 -173 -15 -86 -13 -114 -18 373 -10 -504 -13 -124 
-18 229 -16 -486 -15 235 -14 81 -18 115 -15 -40 -17 273 -10 -111 
-13 -63 -20 269 -12 -337 -18 -15 -15 -162 -12 473 -14 -593 -12 316 
-15 293 -12 -229 -18 253 2780 2201 100 MP stroke
-17 -207 -17 300 -15 208 -6 -411 -14 -348 -7 855 -18 -372 -15 -165 
-4 320 -20 -91 -7 54 -20 -495 -10 -109 -7 -378 -23 1238 5 -402 
-35 604 0 -237 24 422 -42 -1213 4 941 -8 74 -37 -456 -5 -382 
-24 707 -12 210 -15 175 15 -676 22 492 -23 -300 -1 211 -22 -543 
-17 -775 9 906 -24 -824 6 1187 -4 -210 -63 550 -23 199 40 -666 
23 218 -15 -292 -11 32 -6 -15 -9 -99 -9 61 -6 -87 -12 -255 
-4 240 -1 296 -47 -6 -11 108 12 -1103 -23 950 6 -677 -12 -825 
-11 1090 8 -398 -19 415 2 -642 -12 214 -17 35 5 -165 -15 354 
-8 -208 0 -163 -5 -540 -12 1310 -5 -81 2 56 -14 -383 -2 196 
-8 -50 -7 -51 -7 -262 -17 120 3 37 -15 -81 -14 370 -1 -204 
-16 -7 -2 -382 -4 324 -5 -359 -6 -230 -12 464 -6 -332 -18 59 
-5 484 -2 -529 -14 200 -6 -167 -11 666 6 -160 4 315 -13 -353 
-7 -217 -12 194 -5 -733 3638 3056 100 MP stroke
-2 688 -10 -24 -5 -116 -6 -316 -7 -389 -7 657 -6 213 -8 -315 
-8 -322 1 -6 -5 420 -7 -83 -3 162 -5 -314 -4 98 -4 80 
-5 -249 -9 85 -3 256 0 54 -4 -357 6 691 -1 20 -7 -205 
2 -396 -5 28 -6 290 1 -251 -2 48 -2 265 0 -283 -1 237 
-2 22 -3 14 0 -392 -3 446 -1 108 1 -100 -1 -307 -5 371 
5 -146 6 -73 -7 405 1 -309 0 -66 -1 206 5 359 -6 -117 
0 12 9 209 0 7 -4 -249 -2 -400 1 298 0 86 1 -50 
2 -72 2 -57 0 72 -3 240 0 -27 1 -26 0 16 3 14 
0 42 3 -314 1 -112 -1 -178 -2 -148 -4 613 8 -305 4 -333 
1 252 5 260 -1 -178 3 109 4 73 2 -32 4 -105 3 -231 
3 -166 2 -284 3 356 3 157 6 15 5 276 1 -331 3 -72 
5 -305 1 376 1 -255 7 -364 3 484 3 62 3 52 -1 95 
1 131 -4 253 1 33 3685 1970 100 MP stroke
15 -511 0 -467 -1 586 7 -335 -2 -306 2 35 3 537 1 -686 
6 748 2 36 -2 -376 1 -309 3 276 1 -213 0 131 4 269 
3 333 0 -250 -2 -257 -3 251 0 158 -1 -52 -2 35 1 -195 
0 -382 -2 254 -3 141 0 -79 -5 -478 -5 248 -2 118 -8 635 
0 -35 6 -954 -2 375 0 359 -1 158 -4 -177 -2 58 -5 -68 
-7 11 -3 5 -6 266 2 -326 10 281 -6 -479 -3 -147 -1 305 
-7 233 0 -134 -6 23 -4 -350 -5 206 -10 397 9 -511 2 375 
-8 -477 2 461 -2 29 -6 -317 -3 212 -3 43 -3 -648 -3 638 
-2 46 -4 -80 -4 -102 -1 -110 0 -391 -4 335 -1 136 5 197 
-5 -118 -6 -429 2 96 0 -108 -4 138 0 -124 -3 51 -5 -262 
2 -644 -1 372 -6 448 -1 -156 0 271 -1 124 -3 -485 1 553 
-4 -56 -3 -17 1 81 0 -30 0 92 -2 -295 -2 -213 2 594 
-2 9 -1 -271 1 52 3794 2559 100 MP stroke
-4 -73 5 394 -3 -148 -2 -256 5 573 -13 -466 -2 453 6 -458 
-4 245 2 100 0 -94 1 -321 1 -481 0 510 4 -201 2 292 
3 29 2 -187 6 344 3 191 0 201 4 -144 -8 -62 2 148 
10 -409 1 -407 7 -234 6 364 0 2 4 157 5 -382 4 112 
3 422 4 46 4 -106 7 4 5 10 9 -215 7 152 -1 -8 
11 -288 1 -507 -2 217 16 274 8 -92 -1 -161 0 -195 -1 206 
4 278 5 158 5 -318 8 -2 15 438 1 -36 -4 -420 11 268 
9 225 -3 -105 1 -126 10 -24 3 -122 -1 225 12 115 6 -140 
0 -261 2 -58 8 502 12 -12 -1 -119 4 179 10 -830 0 517 
7 -2 5 93 -1 -252 7 464 4 210 -1 -44 8 -139 7 -78 
6 -239 9 -297 -1 85 4 230 7 246 1 193 9 -40 2 -26 
7 19 18 -899 3 749 -1 -1246 0 772 1 -44 5 34 5 263 
5 -125 7 281 6 -336 3431 2804 100 MP stroke
5 38 7 -143 7 656 4 -210 8 -435 9 62 5 329 6 30 
7 -229 5 84 12 -124 8 428 -1 -132 8 37 9 -184 6 -856 
9 889 5 -418 10 384 8 257 7 126 7 -4 19 230 19 135 
-7 38 2 -173 9 -375 8 -41 15 -2 3 260 16 194 12 95 
8 -188 15 -126 -2 274 20 -28 13 -210 0 -496 23 648 4 -172 
4 81 11 -172 11 -435 13 334 9 -7 25 -83 8 136 1 -120 
10 -380 11 278 25 -34 4 160 4 467 14 -212 10 -66 13 72 
10 -184 25 -166 7 -67 6 -163 21 461 -3 -649 22 240 11 161 
-8 -321 22 -50 11 559 18 150 25 -426 1 133 4 -852 8 1037 
11 358 10 -412 11 -242 13 230 9 228 11 -205 9 -329 12 401 
10 -848 10 406 13 244 16 199 17 199 -2 153 6 -168 15 -252 
6 -463 17 349 5 96 14 -51 23 89 -1 179 13 116 14 -438 
-3 135 10 -333 11 460 2470 2173 100 MP stroke
8 -208 7 458 9 -11 14 19 12 215 22 -28 8 146 -13 -712 
2 423 9 -111 10 177 10 125 8 -2 10 -14 7 -32 7 -528 
8 121 11 306 11 -130 3 450 21 -666 32 862 12 -105 0 -156 
1 -203 15 -442 12 391 -2 -531 6 250 9 340 11 -523 10 -257 
1 658 3 67 6 9 6 -49 4 -410 8 -99 7 -235 -1 363 
5 32 4 357 6 -397 6 107 2 132 5 -146 2 -129 3 23 
5 88 1 -556 3 -131 1 504 3 -147 3 -222 3 26 2 35 
2 497 1 51 -2 -705 1 80 3 566 -1 -174 3 41 -2 318 
0 -82 4 -67 0 192 0 -160 -4 -577 -1 301 2 473 -2 215 
0 -180 -3 -255 -4 -483 0 343 -2 125 -2 -61 -1 84 -4 260 
1 51 0 -83 -4 -866 -2 918 -4 0 -3 -1071 -4 866 -3 -300 
1 -525 -4 -391 -2 739 -2 239 -5 -192 -6 -153 -4 444 -5 -204 
-6 2 0 128 -3 118 2159 2147 100 MP stroke
-8 -248 1 382 -6 -461 -8 -291 -3 -72 -6 413 -4 -115 -8 278 
-3 316 -5 109 -11 -362 -3 -214 -7 -358 -10 790 -3 -144 -9 -357 
-4 -508 -9 622 -9 122 -4 229 -9 -351 -6 374 -13 -148 -12 -338 
1 66 -10 -466 -10 377 -7 460 -12 -155 -11 -197 -10 240 -10 -175 
-11 -216 -12 -173 -10 593 -12 -85 -9 -1144 -9 742 -12 -350 -12 805 
-13 -227 -11 -554 -11 358 -13 33 -10 -146 -10 233 -14 -63 -10 288 
-15 173 -14 -127 -8 53 -26 -260 -16 59 2 97 -16 295 -12 86 
-11 -664 -17 423 -10 -401 -16 158 -13 -77 -12 -181 -14 -430 -12 465 
-15 191 -11 91 -16 -89 -14 115 -10 60 -13 -52 -8 -250 -14 -429 
-13 -172 -13 268 -13 802 -8 47 -18 -241 -9 -241 -15 343 -26 -133 
-1 281 -8 -103 -13 -272 -15 -288 -23 11 -1 592 -7 47 -13 72 
-21 -288 -32 -224 4 301 3 -228 -13 -75 -6 -117 -15 355 -7 198 
-9 -115 -15 -211 -8 316 3192 2004 100 MP stroke
-9 -119 -4 123 -18 -179 -23 425 -1 36 -5 -103 -13 184 -6 -166 
-10 85 -7 -56 -9 -226 -22 201 -6 -133 -1 120 -14 -112 -6 22 
-6 86 -9 -55 -10 64 -7 -852 -3 848 -8 -219 -8 -305 -8 174 
-8 11 -7 98 -9 -205 -7 5 -8 -21 -8 -412 -5 108 -8 78 
-7 -26 -6 133 -12 -126 -8 52 -5 325 -9 -232 -8 -53 -9 -857 
-9 260 -6 -17 -16 293 -8 314 -1 -352 -14 24 -7 -211 -3 -108 
-7 -100 -6 475 -8 -524 -7 170 -14 698 -3 66 0 138 -12 -41 
-3 299 -8 -59 -9 22 -2 70 -10 -300 -7 176 -12 -268 -12 84 
1 -73 -12 -271 -7 -838 2 452 -13 207 -6 1 -5 488 -19 -20 
-7 136 -10 -340 -14 -23 1 -13 -9 -398 -10 235 -14 143 -14 6 
4 -240 -10 302 -11 75 -7 -554 -15 191 -5 -543 -13 615 -10 -1485 
-8 1523 -15 40 -8 375 -13 -167 -5 -537 -11 -608 -22 649 -2 263 
-4 146 -9 303 -10 89 4023 2045 100 MP stroke
-19 -1102 -11 608 -11 120 -19 224 -10 -377 1 358 -14 -120 -12 -279 
-6 286 -22 -103 -9 161 -1 45 -13 57 -10 -23 -14 -490 -14 22 
-10 389 -14 -244 -12 -333 -11 108 -11 -598 -12 450 -12 -279 -13 525 
-12 -85 -10 107 -15 -259 -16 86 -12 270 -13 267 -11 -85 -14 87 
-17 102 -7 -221 -25 -542 -33 488 4 -97 2 -94 -12 455 -12 -378 
-16 -127 -9 257 -17 -362 -13 198 -10 181 -20 81 -5 -236 -20 -725 
-23 409 1 312 -12 293 -16 104 -12 -416 -11 -278 -11 343 -12 308 
-13 -380 -17 -269 -10 413 -17 156 -11 -79 -11 -57 -29 -210 -6 44 
-4 122 -12 -379 -11 183 -23 108 -4 267 -2 -24 -13 200 -9 14 
-16 -505 -12 49 -11 -6 -8 2 -16 61 -19 47 2 64 -6 -185 
-11 -97 -4 -151 -9 -234 -8 5 -8 571 -11 138 -17 -10 -6 97 
-1 -656 -16 528 -6 -176 -10 58 -13 209 -2 14 -17 -32 -10 -563 
0 117 -7 82 -8 307 5153 2354 100 MP stroke
-20 -79 -19 81 6 -121 -2 65 -10 67 -5 -93 -25 186 -17 83 
4 -114 -1 34 -1 -1271 -9 713 -8 669 -8 -364 -13 -190 2 -293 
-5 57 -9 96 0 522 -10 -28 -2 36 -5 -162 -5 -23 3 427 
-11 -230 -2 58 -10 -258 -20 460 0 64 -4 9 -6 58 -5 -462 
-11 -273 1 -174 -4 58 -6 323 -2 -949 -11 -61 -6 714 0 -483 
-4 659 -7 281 -5 -137 2 189 -7 -36 -3 -35 -3 112 -17 -715 
-6 557 1 -115 -8 197 -10 -38 -1 -42 -2 -8 -8 -23 -2 13 
-8 -170 -12 -276 1 -62 -5 -221 -5 584 -8 200 -10 26 1 -175 
-5 -231 -5 8 -9 167 -6 380 -1 -36 -21 -809 -2 69 2 -290 
-19 749 1 29 -6 119 -9 -31 1 -145 -11 -213 1 141 -9 -51 
-18 -273 2 235 0 124 1 -31 -9 -385 -11 391 3 227 -1 8 
-5 -124 -9 -95 -4 78 0 130 -9 167 1 -133 2 322 -12 -856 
-12 743 -1 -365 -2 349 5717 2069 100 MP stroke
-5 -95 0 96 -2 -40 -3 301 -2 -465 -2 310 0 -119 -9 -39 
-4 50 5 -212 -7 -52 -11 -45 1 37 2 107 -9 -157 -3 -129 
-3 157 -9 24 1 37 0 25 -2 -20 -6 -48 -6 -433 2 -706 
-6 912 -5 197 -6 -84 -6 188 5 32 -6 -17 -9 -15 0 352 
-3 -1308 -11 1395 -2 -269 -1 -64 -7 106 0 -280 -3 53 -5 -1115 
-5 827 -4 103 0 840 -2 132 -8 -553 -3 -20 -5 -24 -9 235 
0 101 -6 -40 -6 176 3 -454 -6 159 -1 -121 -4 -77 -12 4 
1 -94 -6 -186 -9 -369 1 122 -7 361 -7 -66 -1 -143 -2 375 
-7 36 -9 -59 0 -91 -3 -133 -8 207 -3 -149 -7 365 -7 95 
-6 -97 -19 202 -10 -149 5 -1 -3 -93 -6 129 -3 37 -7 38 
-4 -620 -3 689 -8 -145 -3 25 2 -118 -6 -186 -11 -67 -5 -527 
1 318 -7 -137 -8 -90 1 300 -6 -123 -5 138 0 141 -6 78 
-1 81 1 -139 -2 -175 6115 2334 100 MP stroke
1 -83 -2 352 1 -178 0 -290 -1 -21 3 -394 1 741 0 -326 
-2 219 5 436 2 -3 -2 188 5 -492 3 513 2 -192 5 -312 
2 167 9 -213 5 179 0 50 6 74 7 128 7 -412 8 482 
4 -346 6 -56 5 -135 4 -18 12 281 10 46 8 -2 4 -85 
-1 -417 8 112 11 -95 6 -245 9 228 7 -34 8 149 7 151 
6 62 9 -167 6 -84 6 -88 8 159 7 141 6 -139 9 220 
10 -34 6 154 5 -74 6 248 6 32 6 -45 6 -11 3 66 
2 -28 9 -385 8 320 5 -186 7 -73 6 -53 6 -82 6 -101 
5 -129 5 -126 5 151 6 -490 4 175 3 48 5 233 5 -13 
4 -168 8 -94 3 179 5 -22 6 -137 2 297 10 54 4 -58 
0 -73 6 -196 0 -196 5 391 2 -12 1 277 3 73 -6 142 
4 80 2 -31 3 -41 9 25 -1 -115 10 42 11 197 -1 -19 
3 -35 5 99 -1 -32 5653 1859 100 MP stroke
-6 -328 2 250 2 -142 2 209 6 207 0 -74 9 -237 4 45 
-2 -362 7 137 0 -36 3 -137 1 70 -2 10 3 -165 0 -343 
-3 287 4 -90 4 110 -5 20 1 115 -1 -1 1 -117 4 -135 
0 71 1 270 0 126 -1 -397 -6 225 -2 150 6 -269 1 80 
-1 34 1 89 4 145 0 -42 -4 -232 -3 328 -5 79 1 -76 
3 -27 -1 130 -3 -599 -2 184 2 -641 -2 623 -2 148 0 -216 
-4 76 -2 268 4 270 -9 -577 -14 247 -6 141 -8 127 -6 -223 
-2 -734 -7 795 -2 124 -9 50 -8 54 -8 -572 -17 552 -12 76 
-9 160 -7 91 -10 -121 -9 -470 -8 176 -14 -74 -4 83 -11 123 
-13 87 -8 78 -22 213 -8 14 -6 -146 -18 268 -13 113 5902 1114 80 MP stroke
gr

c8
0 sg
%%IncludeResource: font Helvetica
/Helvetica /WindowsLatin1Encoding 120 FMSR

1568  294 mt 
(Experiment 1a - Analog magnetometers - Standard deviation o\
f orientation) s
2502 4902 mt 
(Distance to center of sensor network [m]) s
 558 3114 mt  -90 rotate
(sqrt\(Variance\) [degree]) s
90 rotate

end %%Color Dict

eplot
%%EndObject

epage
end

showpage

%%Trailer
%%EOF
