%!PS-Adobe-2.0 EPSF-1.2
%%Creator: MATLAB, The MathWorks, Inc. Version 7.13.0.564 (R2011b). Operating System: Microsoft Windows 7.
%%Title: ..\figures\_posanalog_ort_std.eps
%%CreationDate: 11/13/2012  17:43:16
%%DocumentNeededFonts: Helvetica
%%DocumentProcessColors: Cyan Magenta Yellow Black
%%Extensions: CMYK
%%Pages: 1
%%BoundingBox:    52   199   549   602
%%EndComments

%%BeginProlog
% MathWorks dictionary
/MathWorks 160 dict begin
% definition operators
/bdef {bind def} bind def
/ldef {load def} bind def
/xdef {exch def} bdef
/xstore {exch store} bdef
% operator abbreviations
/c  /clip ldef
/cc /concat ldef
/cp /closepath ldef
/gr /grestore ldef
/gs /gsave ldef
/mt /moveto ldef
/np /newpath ldef
/cm /currentmatrix ldef
/sm /setmatrix ldef
/rm /rmoveto ldef
/rl /rlineto ldef
/s {show newpath} bdef
/sc {setcmykcolor} bdef
/sr /setrgbcolor ldef
/sg /setgray ldef
/w /setlinewidth ldef
/j /setlinejoin ldef
/cap /setlinecap ldef
/rc {rectclip} bdef
/rf {rectfill} bdef
% page state control
/pgsv () def
/bpage {/pgsv save def} bdef
/epage {pgsv restore} bdef
/bplot /gsave ldef
/eplot {stroke grestore} bdef
% orientation switch
/portraitMode 0 def /landscapeMode 1 def /rotateMode 2 def
% coordinate system mappings
/dpi2point 0 def
% font control
/FontSize 0 def
/FMS {/FontSize xstore findfont [FontSize 0 0 FontSize neg 0 0]
  makefont setfont} bdef
/ISOLatin1Encoding where {pop /WindowsLatin1Encoding 256 array bdef
ISOLatin1Encoding WindowsLatin1Encoding copy pop
/.notdef/.notdef/quotesinglbase/florin/quotedblbase/ellipsis/dagger
/daggerdbl/circumflex/perthousand/Scaron/guilsinglleft/OE/.notdef/.notdef
/.notdef/.notdef/quoteleft/quoteright/quotedblleft/quotedblright/bullet
/endash/emdash/tilde/trademark/scaron/guilsinglright/oe/.notdef/.notdef
/Ydieresis WindowsLatin1Encoding 128 32 getinterval astore pop}
{/WindowsLatin1Encoding StandardEncoding bdef} ifelse
/reencode {exch dup where {pop load} {pop StandardEncoding} ifelse
  exch dup 3 1 roll findfont dup length dict begin
  { 1 index /FID ne {def}{pop pop} ifelse } forall
  /Encoding exch def currentdict end definefont pop} bdef
/isroman {findfont /CharStrings get /Agrave known} bdef
/FMSR {3 1 roll 1 index dup isroman {reencode} {pop pop} ifelse
  exch FMS} bdef
/csm {1 dpi2point div -1 dpi2point div scale neg translate
 dup landscapeMode eq {pop -90 rotate}
  {rotateMode eq {90 rotate} if} ifelse} bdef
% line types: solid, dotted, dashed, dotdash
/SO { [] 0 setdash } bdef
/DO { [.5 dpi2point mul 4 dpi2point mul] 0 setdash } bdef
/DA { [6 dpi2point mul] 0 setdash } bdef
/DD { [.5 dpi2point mul 4 dpi2point mul 6 dpi2point mul 4
  dpi2point mul] 0 setdash } bdef
% macros for lines and objects
/L {lineto stroke} bdef
/MP {3 1 roll moveto 1 sub {rlineto} repeat} bdef
/AP {{rlineto} repeat} bdef
/PDlw -1 def
/W {/PDlw currentlinewidth def setlinewidth} def
/PP {closepath eofill} bdef
/DP {closepath stroke} bdef
/MR {4 -2 roll moveto dup  0 exch rlineto exch 0 rlineto
  neg 0 exch rlineto closepath} bdef
/FR {MR stroke} bdef
/PR {MR fill} bdef
/L1i {{currentfile picstr readhexstring pop} image} bdef
/tMatrix matrix def
/MakeOval {newpath tMatrix currentmatrix pop translate scale
0 0 1 0 360 arc tMatrix setmatrix} bdef
/FO {MakeOval stroke} bdef
/PO {MakeOval fill} bdef
/PD {currentlinewidth 2 div 0 360 arc fill
   PDlw -1 eq not {PDlw w /PDlw -1 def} if} def
/FA {newpath tMatrix currentmatrix pop translate scale
  0 0 1 5 -2 roll arc tMatrix setmatrix stroke} bdef
/PA {newpath tMatrix currentmatrix pop	translate 0 0 moveto scale
  0 0 1 5 -2 roll arc closepath tMatrix setmatrix fill} bdef
/FAn {newpath tMatrix currentmatrix pop translate scale
  0 0 1 5 -2 roll arcn tMatrix setmatrix stroke} bdef
/PAn {newpath tMatrix currentmatrix pop translate 0 0 moveto scale
  0 0 1 5 -2 roll arcn closepath tMatrix setmatrix fill} bdef
/vradius 0 def /hradius 0 def /lry 0 def
/lrx 0 def /uly 0 def /ulx 0 def /rad 0 def
/MRR {/vradius xdef /hradius xdef /lry xdef /lrx xdef /uly xdef
  /ulx xdef newpath tMatrix currentmatrix pop ulx hradius add uly
  vradius add translate hradius vradius scale 0 0 1 180 270 arc 
  tMatrix setmatrix lrx hradius sub uly vradius add translate
  hradius vradius scale 0 0 1 270 360 arc tMatrix setmatrix
  lrx hradius sub lry vradius sub translate hradius vradius scale
  0 0 1 0 90 arc tMatrix setmatrix ulx hradius add lry vradius sub
  translate hradius vradius scale 0 0 1 90 180 arc tMatrix setmatrix
  closepath} bdef
/FRR {MRR stroke } bdef
/PRR {MRR fill } bdef
/MlrRR {/lry xdef /lrx xdef /uly xdef /ulx xdef /rad lry uly sub 2 div def
  newpath tMatrix currentmatrix pop ulx rad add uly rad add translate
  rad rad scale 0 0 1 90 270 arc tMatrix setmatrix lrx rad sub lry rad
  sub translate rad rad scale 0 0 1 270 90 arc tMatrix setmatrix
  closepath} bdef
/FlrRR {MlrRR stroke } bdef
/PlrRR {MlrRR fill } bdef
/MtbRR {/lry xdef /lrx xdef /uly xdef /ulx xdef /rad lrx ulx sub 2 div def
  newpath tMatrix currentmatrix pop ulx rad add uly rad add translate
  rad rad scale 0 0 1 180 360 arc tMatrix setmatrix lrx rad sub lry rad
  sub translate rad rad scale 0 0 1 0 180 arc tMatrix setmatrix
  closepath} bdef
/FtbRR {MtbRR stroke } bdef
/PtbRR {MtbRR fill } bdef
/stri 6 array def /dtri 6 array def
/smat 6 array def /dmat 6 array def
/tmat1 6 array def /tmat2 6 array def /dif 3 array def
/asub {/ind2 exch def /ind1 exch def dup dup
  ind1 get exch ind2 get sub exch } bdef
/tri_to_matrix {
  2 0 asub 3 1 asub 4 0 asub 5 1 asub
  dup 0 get exch 1 get 7 -1 roll astore } bdef
/compute_transform {
  dmat dtri tri_to_matrix tmat1 invertmatrix 
  smat stri tri_to_matrix tmat2 concatmatrix } bdef
/ds {stri astore pop} bdef
/dt {dtri astore pop} bdef
/db {2 copy /cols xdef /rows xdef mul dup 3 mul string
  currentfile exch readhexstring pop
  dup 0 3 index getinterval /rbmap xdef
  dup 2 index dup getinterval /gbmap xdef
  1 index dup 2 mul exch getinterval /bbmap xdef pop pop}bdef
/it {gs np dtri aload pop moveto lineto lineto cp c
  cols rows 8 compute_transform 
  rbmap gbmap bbmap true 3 colorimage gr}bdef
/il {newpath moveto lineto stroke}bdef
currentdict end def
%%EndProlog

%%BeginSetup
MathWorks begin

0 cap

end
%%EndSetup

%%Page: 1 1
%%BeginPageSetup
%%PageBoundingBox:    52   199   549   602
MathWorks begin
bpage
%%EndPageSetup

%%BeginObject: obj1
bplot

/dpi2point 12 def
portraitMode 0204 7344 csm

  422   110  5965  4844 MR c np
85 dict begin %Colortable dictionary
/c0 { 0.000000 0.000000 0.000000 sr} bdef
/c1 { 1.000000 1.000000 1.000000 sr} bdef
/c2 { 0.900000 0.000000 0.000000 sr} bdef
/c3 { 0.000000 0.820000 0.000000 sr} bdef
/c4 { 0.000000 0.000000 0.800000 sr} bdef
/c5 { 0.910000 0.820000 0.320000 sr} bdef
/c6 { 1.000000 0.260000 0.820000 sr} bdef
/c7 { 0.000000 0.820000 0.820000 sr} bdef
c0
1 j
1 sg
   0    0 6913 5185 PR
6 w
0 4225 5356 0 0 -4225 899 4614 4 MP
PP
-5356 0 0 4225 5356 0 0 -4225 899 4614 5 MP stroke
4 w
DO
SO
6 w
0 sg
 899  389 mt 6255  389 L
 899 4614 mt 6255 4614 L
6255 4614 mt 6255  389 L
 899 4614 mt  899  389 L
 899 4614 mt 6255 4614 L
 899 4614 mt  899  389 L
 899 4614 mt  899 4560 L
 899  389 mt  899  442 L
%%IncludeResource: font Helvetica
/Helvetica /WindowsLatin1Encoding 120 FMSR

 783 4759 mt 
(0.12) s
1494 4614 mt 1494 4560 L
1494  389 mt 1494  442 L
1378 4759 mt 
(0.14) s
2089 4614 mt 2089 4560 L
2089  389 mt 2089  442 L
1973 4759 mt 
(0.16) s
2684 4614 mt 2684 4560 L
2684  389 mt 2684  442 L
2568 4759 mt 
(0.18) s
3279 4614 mt 3279 4560 L
3279  389 mt 3279  442 L
3196 4759 mt 
(0.2) s
3874 4614 mt 3874 4560 L
3874  389 mt 3874  442 L
3758 4759 mt 
(0.22) s
4469 4614 mt 4469 4560 L
4469  389 mt 4469  442 L
4353 4759 mt 
(0.24) s
5064 4614 mt 5064 4560 L
5064  389 mt 5064  442 L
4948 4759 mt 
(0.26) s
5659 4614 mt 5659 4560 L
5659  389 mt 5659  442 L
5543 4759 mt 
(0.28) s
6255 4614 mt 6255 4560 L
6255  389 mt 6255  442 L
6172 4759 mt 
(0.3) s
 899 4614 mt  925 4614 L
6255 4614 mt 6228 4614 L
 899 4614 mt  952 4614 L
6255 4614 mt 6201 4614 L
 640 4658 mt 
(10) s
%%IncludeResource: font Helvetica
/Helvetica /WindowsLatin1Encoding 80 FMSR

 773 4584 mt 
(-3) s
 899 4359 mt  925 4359 L
6255 4359 mt 6228 4359 L
 899 4210 mt  925 4210 L
6255 4210 mt 6228 4210 L
 899 4105 mt  925 4105 L
6255 4105 mt 6228 4105 L
 899 4023 mt  925 4023 L
6255 4023 mt 6228 4023 L
 899 3956 mt  925 3956 L
6255 3956 mt 6228 3956 L
 899 3899 mt  925 3899 L
6255 3899 mt 6228 3899 L
 899 3850 mt  925 3850 L
6255 3850 mt 6228 3850 L
 899 3807 mt  925 3807 L
6255 3807 mt 6228 3807 L
 899 3769 mt  925 3769 L
6255 3769 mt 6228 3769 L
 899 3769 mt  952 3769 L
6255 3769 mt 6201 3769 L
%%IncludeResource: font Helvetica
/Helvetica /WindowsLatin1Encoding 120 FMSR

 640 3813 mt 
(10) s
%%IncludeResource: font Helvetica
/Helvetica /WindowsLatin1Encoding 80 FMSR

 773 3739 mt 
(-2) s
 899 3514 mt  925 3514 L
6255 3514 mt 6228 3514 L
 899 3365 mt  925 3365 L
6255 3365 mt 6228 3365 L
 899 3260 mt  925 3260 L
6255 3260 mt 6228 3260 L
 899 3178 mt  925 3178 L
6255 3178 mt 6228 3178 L
 899 3111 mt  925 3111 L
6255 3111 mt 6228 3111 L
 899 3054 mt  925 3054 L
6255 3054 mt 6228 3054 L
 899 3005 mt  925 3005 L
6255 3005 mt 6228 3005 L
 899 2962 mt  925 2962 L
6255 2962 mt 6228 2962 L
 899 2924 mt  925 2924 L
6255 2924 mt 6228 2924 L
 899 2924 mt  952 2924 L
6255 2924 mt 6201 2924 L
%%IncludeResource: font Helvetica
/Helvetica /WindowsLatin1Encoding 120 FMSR

 640 2968 mt 
(10) s
%%IncludeResource: font Helvetica
/Helvetica /WindowsLatin1Encoding 80 FMSR

 773 2894 mt 
(-1) s
 899 2669 mt  925 2669 L
6255 2669 mt 6228 2669 L
 899 2520 mt  925 2520 L
6255 2520 mt 6228 2520 L
 899 2415 mt  925 2415 L
6255 2415 mt 6228 2415 L
 899 2333 mt  925 2333 L
6255 2333 mt 6228 2333 L
 899 2266 mt  925 2266 L
6255 2266 mt 6228 2266 L
 899 2209 mt  925 2209 L
6255 2209 mt 6228 2209 L
 899 2160 mt  925 2160 L
6255 2160 mt 6228 2160 L
 899 2117 mt  925 2117 L
6255 2117 mt 6228 2117 L
 899 2079 mt  925 2079 L
6255 2079 mt 6228 2079 L
 899 2079 mt  952 2079 L
6255 2079 mt 6201 2079 L
%%IncludeResource: font Helvetica
/Helvetica /WindowsLatin1Encoding 120 FMSR

 640 2123 mt 
(10) s
%%IncludeResource: font Helvetica
/Helvetica /WindowsLatin1Encoding 80 FMSR

 773 2049 mt 
(0) s
 899 1824 mt  925 1824 L
6255 1824 mt 6228 1824 L
 899 1675 mt  925 1675 L
6255 1675 mt 6228 1675 L
 899 1570 mt  925 1570 L
6255 1570 mt 6228 1570 L
 899 1488 mt  925 1488 L
6255 1488 mt 6228 1488 L
 899 1421 mt  925 1421 L
6255 1421 mt 6228 1421 L
 899 1364 mt  925 1364 L
6255 1364 mt 6228 1364 L
 899 1315 mt  925 1315 L
6255 1315 mt 6228 1315 L
 899 1272 mt  925 1272 L
6255 1272 mt 6228 1272 L
 899 1234 mt  925 1234 L
6255 1234 mt 6228 1234 L
 899 1234 mt  952 1234 L
6255 1234 mt 6201 1234 L
%%IncludeResource: font Helvetica
/Helvetica /WindowsLatin1Encoding 120 FMSR

 640 1278 mt 
(10) s
%%IncludeResource: font Helvetica
/Helvetica /WindowsLatin1Encoding 80 FMSR

 773 1204 mt 
(1) s
 899  979 mt  925  979 L
6255  979 mt 6228  979 L
 899  830 mt  925  830 L
6255  830 mt 6228  830 L
 899  725 mt  925  725 L
6255  725 mt 6228  725 L
 899  643 mt  925  643 L
6255  643 mt 6228  643 L
 899  576 mt  925  576 L
6255  576 mt 6228  576 L
 899  519 mt  925  519 L
6255  519 mt 6228  519 L
 899  470 mt  925  470 L
6255  470 mt 6228  470 L
 899  427 mt  925  427 L
6255  427 mt 6228  427 L
 899  389 mt  925  389 L
6255  389 mt 6228  389 L
 899  389 mt  952  389 L
6255  389 mt 6201  389 L
%%IncludeResource: font Helvetica
/Helvetica /WindowsLatin1Encoding 120 FMSR

 640  433 mt 
(10) s
%%IncludeResource: font Helvetica
/Helvetica /WindowsLatin1Encoding 80 FMSR

 773  359 mt 
(2) s
 899  389 mt 6255  389 L
 899 4614 mt 6255 4614 L
6255 4614 mt 6255  389 L
 899 4614 mt  899  389 L
gs 899 389 5357 4226 MR c np
/c8 { 0.000000 0.000000 1.000000 sr} bdef
c8
8 1 0 -2 8 7 -2 -7 10 -6 5 -9 2 -17 12 -20 
-1 -31 10 -36 14 -29 8 -34 10 -61 8 -71 19 -64 4 -84 
0 -130 11 -177 3 -243 10 -671 7 413 2 328 16 108 5 78 
1 56 12 -76 11 -45 7 -10 9 -173 20 -101 5 -109 1 158 
15 -93 2 136 5 -189 8 231 -1 -336 10 275 5 -956 11 931 
7 48 0 -502 13 325 1 70 4 -23 10 76 2 -166 10 -89 
4 95 7 31 -4 -188 -2 377 17 -86 2 218 14 -417 21 370 
11 -47 9 -97 2 85 8 -431 0 297 6 110 15 -239 6 -269 
8 348 5 -171 10 -171 2 354 6 151 22 75 3 -227 5 -394 
12 457 -1 117 7 -187 10 -231 10 317 7 150 7 -38 5 -158 
6 -230 9 -564 4 779 10 -180 10 31 6 -313 11 69 6 91 
4 38 5 -60 8 39 7 60 -2 -209 10 118 15 316 4 -48 
11 207 10 77 0 -685 2966 2768 100 MP stroke
3 626 8 30 6 -73 6 -282 8 -10 11 202 15 121 5 -51 
-1 -217 10 120 6 208 7 142 11 -28 -6 -268 13 -171 22 88 
-5 291 5 45 9 -209 0 -564 5 133 2 192 9 -114 4 -70 
7 -20 13 419 2 -348 6 -244 4 255 4 227 7 -592 0 781 
7 -436 8 469 6 -58 6 -506 0 220 -1 25 -1 -25 2 -11 
1 -89 -4 341 2 -13 4 -326 3 93 6 -234 -1 -40 0 630 
1 -456 -1 186 4 -203 -2 66 -2 27 8 125 -12 -243 -9 148 
5 134 -2 119 0 -15 -2 -320 -3 -92 2 137 -3 -53 -3 -72 
-3 -53 -3 -70 -8 360 -4 32 5 -224 -8 59 -4 -512 -1 675 
-6 -23 0 -427 -5 434 -3 -43 -5 -524 -7 655 5 39 -9 -349 
-13 307 -1 -239 -5 -294 -4 377 -3 -129 -6 -68 -6 -13 -4 373 
-5 -163 -4 -173 1 143 -6 -63 -14 7 -4 -299 -6 -58 -12 248 
-6 -102 -3 245 -4 -188 2912 2681 100 MP stroke
-7 -123 -4 79 -5 -142 -9 286 -3 126 -7 -21 -15 -331 -8 247 
-7 8 -12 73 -11 245 -5 -189 -6 -311 -7 71 -8 136 -11 -203 
-4 339 -7 77 -22 -354 -16 35 -5 -215 -9 77 -13 50 -7 -119 
-10 -14 -13 81 -10 112 -16 216 -8 -122 -10 -88 -7 56 -3 269 
-24 -369 -21 262 -11 -217 -14 204 -6 -355 -13 -397 -16 459 -9 173 
-12 34 -13 -114 -5 179 -13 34 -27 20 -15 128 -9 -146 -11 -435 
-10 202 -14 -68 -13 -335 -14 398 -11 -46 -11 188 -15 109 -20 -95 
-17 425 -11 -624 -20 604 -6 -614 -23 239 -34 475 1 -346 -18 168 
-15 -34 5 -125 -19 -95 -12 92 -14 -4 -27 92 -20 -314 -15 385 
-14 -53 -15 -13 -13 -36 -31 2 -14 -44 3 -236 -21 -57 -13 -72 
-13 -29 -17 -295 -12 344 -14 -135 -11 100 -16 78 -12 -201 -24 569 
-16 -14 6 -202 -19 -397 -9 223 -8 59 -18 -41 -2 74 -24 246 
-14 140 0 -289 -11 144 4121 2328 100 MP stroke
0 -336 -4 376 -10 -251 -8 87 -10 -109 -6 34 -10 -122 -11 -713 
-5 668 -9 -469 -7 162 -6 -19 -12 561 -6 -259 -1 65 -15 164 
2 -4 1 238 -29 -22 -15 201 -5 -44 2 -173 6 -443 -9 -192 
3 512 1 307 -16 -250 -10 -132 -15 -121 -1 -136 -1 425 -22 -50 
-1 -298 -5 -69 -13 218 2 -30 -14 -364 0 276 -8 -129 -25 444 
4 -536 -17 532 -11 46 13 -372 -14 56 -6 79 0 -234 -8 -14 
-3 120 -8 -228 -3 229 -8 -149 -9 25 0 59 -4 242 -5 -287 
-4 80 -4 -344 -6 445 0 -134 -4 80 -4 113 0 -154 -10 133 
2 -494 0 166 -8 158 3 -352 -5 73 -1 490 0 -131 -3 8 
2 -42 -1 -394 2 243 -2 -72 0 41 1 23 -2 206 3 -196 
-2 126 3 -238 1 144 -1 148 7 -70 0 -78 2 -279 -2 368 
2 18 14 102 -3 -81 -3 77 6 -61 9 -392 0 101 -3 453 
20 51 10 193 -4 -248 4477 2477 100 MP stroke
1 -280 0 -911 0 784 -2 472 10 -585 12 512 -4 -452 1 53 
0 267 4 -306 6 199 -6 24 1 157 6 17 -2 186 17 -539 
13 459 -4 -427 4 47 -1 146 2 109 10 -132 1 69 6 -274 
3 16 3 42 4 8 1 95 9 -54 1 -1 3 -70 16 484 
1 -166 -3 -523 5 -60 2 458 8 -251 7 265 0 -46 6 -47 
6 42 -3 186 7 -364 5 8 4 101 10 138 -1 -89 4 69 
7 -109 6 -104 6 89 1 379 23 46 18 304 -4 -229 1 -350 
0 -39 4 221 6 53 10 -218 13 -51 -2 136 5 146 20 -364 
6 -183 1 307 13 -281 4 260 6 159 25 287 10 28 -4 -378 
2 -96 7 -12 17 122 2 -18 4 234 19 -266 4 184 11 -57 
30 239 6 -81 -4 -406 3 305 11 -145 25 195 2 -569 0 556 
28 -30 6 -247 5 -111 18 290 0 -291 8 317 11 -74 15 -508 
20 732 -2 -637 8 295 3873 2611 100 MP stroke
18 -209 2 346 20 -402 20 517 -2 -312 8 78 12 -124 9 120 
16 -538 10 142 15 195 15 127 13 149 23 242 7 -2 1 -490 
14 146 13 -94 14 -3 11 49 20 108 18 26 7 -268 12 88 
15 -330 18 461 6 106 18 -228 24 459 -1 -143 14 -92 22 -345 
14 208 19 85 10 -316 13 -80 14 74 11 279 15 -114 20 -386 
25 714 14 -101 11 -131 13 87 11 -184 12 0 14 -7 11 191 
10 187 20 -549 22 391 16 -24 7 -159 12 30 22 206 -7 160 
13 43 30 -657 11 498 36 395 9 -200 2 -300 28 32 3 -172 
13 9 15 -50 10 364 22 -103 7 -236 12 -11 20 -180 20 324 
9 -37 8 130 16 -81 15 -427 27 822 2 -469 1 421 24 -164 
6 -153 22 17 17 76 10 -390 25 657 2 -279 6 -96 12 -243 
9 291 9 152 6 48 28 -184 12 -64 8 -20 13 14 -8 339 
18 -307 24 75 -4 214 2564 2173 100 MP stroke
18 -292 22 534 0 -427 7 -195 12 59 4 80 10 -136 6 21 
4 -161 13 290 -8 98 2 234 15 -137 1 -84 13 -570 10 211 
1 129 12 117 6 255 5 -51 8 -61 6 200 2 -174 1 -10 
5 -522 0 507 5 146 9 -78 4 -205 6 -64 3 44 2 -544 
5 2 3 426 2 -437 2 354 2 248 3 -197 2 -6 0 -25 
2 25 5 64 1 -199 0 -511 1 542 7 69 5 -30 -5 128 
-1 -87 0 -54 -2 49 1 -726 -3 955 0 -15 1 -59 -4 -63 
-1 -147 1 47 -1 12 -1 231 3 -14 -3 -70 -12 -85 -6 299 
-3 -67 -4 -273 -5 18 -5 -69 -8 2 -6 -18 -2 354 -11 -290 
-9 568 0 17 -5 -234 -9 -564 -10 296 -8 -211 -9 108 -8 370 
-5 123 -13 -74 -12 -20 -13 -171 -19 401 -2 -228 -7 -19 -17 81 
-7 -71 -11 -265 -11 -489 -13 72 -10 216 -9 368 -32 223 -13 -42 
0 -330 -14 -178 -5 174 2668 2455 100 MP stroke
-16 -31 -15 136 -10 26 -19 -464 -10 123 -15 -440 -17 605 -11 -156 
-16 -4 -14 417 -15 69 -12 -481 -14 -90 -16 183 -11 -175 -16 454 
-15 59 -14 -121 -13 -271 -13 -199 -18 306 -13 -752 -16 683 -14 -104 
-13 256 -13 -158 -11 -68 -21 177 -17 -354 -14 113 -14 238 -16 -224 
-12 149 -12 27 -26 89 -12 41 -10 -62 -22 8 -7 -151 -19 81 
-19 -7 -9 -82 -16 9 -15 179 -13 -277 -11 48 -20 57 -16 -64 
-11 32 -17 53 -10 224 -16 -182 -17 -191 -15 -3 -18 -19 -10 172 
-16 -158 -10 76 -14 -283 -21 318 -13 41 -14 131 -11 -91 -17 -118 
-14 117 -11 324 -26 -266 -13 -52 -7 -47 -13 -36 -15 -268 -13 155 
-9 228 -28 -67 -13 66 -13 155 -27 257 -1 -634 -6 294 -18 -254 
-4 246 -16 23 -24 -377 -10 -92 -12 20 -17 -38 -12 -132 -16 258 
-12 -110 -7 479 -24 -345 -19 338 -9 -579 -12 418 -12 98 -16 -3 
-17 -276 -15 335 -17 64 4097 2356 100 MP stroke
-17 -75 -11 -278 -12 -324 -13 271 -17 102 -16 -406 -13 537 -18 -348 
-15 407 -15 -352 -15 501 -9 8 -17 -227 -12 -285 -12 131 -22 185 
-15 -175 -14 9 -14 -103 -16 321 -13 -109 -5 378 -17 -349 -14 -575 
-13 249 -17 -36 -12 -245 -15 750 -12 107 -13 38 -12 1 -7 -411 
-12 184 -14 -10 -11 -15 -11 79 -11 -4 -11 67 -10 -18 -12 -291 
-14 143 -11 -259 -8 -171 -13 -70 -10 -20 -9 -226 -12 555 -9 -145 
-12 250 -10 -48 -4 142 -10 -551 -12 577 -8 -301 -8 -200 -12 28 
-10 183 -9 -51 -13 -135 -8 254 -6 -427 -9 273 -5 631 -9 -319 
-12 -215 -10 -501 -7 402 -9 210 -14 150 -8 82 -8 -246 -13 28 
-6 -20 -8 -179 -7 517 -6 -170 -14 -340 1 212 -13 54 -25 301 
12 -730 2 579 -21 -273 -3 235 -2 -58 -10 -171 -9 196 -6 -23 
-11 -18 -9 -53 2 -56 -9 -124 -9 -80 -3 194 -10 -114 -5 -1 
-5 -196 -6 51 -7 -23 5131 2934 100 MP stroke
-9 -10 -6 263 -5 -86 -5 -75 -7 205 -5 -46 -4 102 -6 -59 
-5 -97 -5 -454 -6 227 -8 628 -6 131 -4 -234 -5 163 -4 -155 
-6 -1 -2 -44 -8 82 5 -54 11 245 -12 -10 3 -385 -5 -119 
-11 184 12 -12 1 -73 -2 -213 -2 -260 -3 144 2 38 -1 81 
2 -198 0 287 1 -2 7 27 15 361 -13 -358 -10 395 18 -763 
10 803 0 -517 8 323 5 6 -7 -339 2 87 8 197 4 -156 
6 -81 7 -224 -1 486 4 158 14 -307 8 -159 9 -164 17 493 
4 -142 4 -223 9 93 0 99 11 214 18 -17 6 -169 7 5 
6 -316 5 164 7 198 9 76 20 -106 7 -240 4 89 12 -347 
7 229 8 172 6 199 19 -126 14 165 1 115 15 -222 8 87 
12 -97 10 -34 2 199 21 -30 -1 -140 -1 149 20 -284 9 115 
11 -189 12 48 12 51 5 9 2 337 23 -305 13 -61 9 275 
13 -166 8 146 13 2 4725 2451 100 MP stroke
13 -110 12 -2 10 -87 9 -166 15 -291 10 449 14 -157 14 17 
6 178 16 -284 20 176 8 -457 9 352 14 7 9 250 18 21 
18 32 11 -50 16 185 10 -38 4 192 9 -61 15 -108 20 -4 
16 -84 13 -289 12 341 18 -251 16 366 8 -132 13 52 14 -60 
12 28 18 -105 12 -354 15 93 14 -202 11 439 16 -358 13 508 
18 -725 17 929 8 -507 19 333 14 177 6 -243 18 -82 13 -406 
10 202 18 -266 13 269 13 -62 15 218 14 -260 11 -23 13 101 
21 10 20 234 8 -324 10 99 15 -150 11 236 22 -206 23 514 
7 -432 10 -149 13 -16 7 406 20 -75 18 -2 5 -25 15 -349 
15 100 9 364 24 -20 16 -3 5 -179 13 43 14 -436 14 376 
10 -342 14 397 14 157 13 -233 16 -331 10 395 22 209 17 225 
-3 -419 17 -281 19 208 13 15 13 97 9 -412 6 509 10 118 
27 -291 16 77 5 -119 3401 2765 100 MP stroke
19 -210 11 257 13 -120 17 87 13 91 16 -209 10 291 13 -331 
13 114 15 158 18 -227 15 372 14 -16 12 -455 11 18 9 379 
14 69 18 -323 7 234 23 -30 26 459 1 -568 7 55 16 11 
4 341 16 -383 24 236 10 -363 11 21 16 389 12 -471 13 48 
13 182 15 196 14 -142 13 -244 10 80 10 371 20 -212 16 -65 
9 -217 10 349 14 65 18 -240 12 100 14 -67 14 -103 13 -120 
11 -92 9 534 22 -167 14 -41 11 57 16 76 9 -227 18 -144 
15 384 13 22 18 -45 7 -236 15 -290 16 380 10 -157 14 -68 
17 275 19 -95 10 110 14 -204 16 -32 13 49 14 258 14 234 
17 -235 13 45 22 -124 27 613 3 -221 5 -510 17 48 11 -182 
17 -16 15 -47 14 425 18 148 12 66 8 -209 15 -491 15 528 
14 -6 19 -33 2 10 0 390 37 -1058 27 1065 0 -534 8 298 
11 -197 13 -156 21 217 2033 2493 100 MP stroke
14 -29 13 -273 16 369 11 -54 8 85 13 -56 14 -129 14 -395 
14 508 7 -292 11 222 13 68 11 60 15 259 -2 -632 -1 514 
18 -103 11 -79 12 34 10 146 8 -67 13 -176 10 -136 11 346 
14 -378 13 121 13 -286 10 404 11 19 11 -152 11 -67 11 -37 
10 -129 10 284 10 -173 10 -318 10 230 11 7 10 -31 11 259 
6 -132 8 306 15 -607 10 -39 6 245 10 97 8 217 7 50 
8 51 7 -220 8 -191 5 206 4 244 6 -71 10 -797 7 560 
4 174 6 -43 6 -427 6 -103 4 412 3 14 2 261 4 -96 
-1 329 4 -74 8 35 3 83 0 30 -4 -76 9 -334 12 182 
-13 -259 -4 256 6 -87 -3 -110 2 -263 -2 373 0 16 -1 -10 
-5 -46 -2 -163 -7 190 -2 -239 3 -91 -6 -384 -1 326 0 47 
-3 120 -8 -171 -13 287 -2 -60 -2 24 -7 -197 -3 163 -5 -11 
-7 279 -4 -14 -7 -315 1498 2603 100 MP stroke
-7 178 -7 198 -5 -179 -7 -256 -7 -54 -3 -70 -7 311 -12 -2 
-11 -204 -3 147 -7 -268 -7 16 -6 -8 -7 244 -5 21 -11 -36 
-11 -237 -8 319 -12 55 -4 -161 -8 124 -8 -158 -7 -321 -13 388 
-4 250 -13 -527 -13 249 -5 -349 -11 140 -6 -212 -10 471 -8 -133 
-8 272 -11 -66 -8 -66 -21 530 -8 -64 -1 -204 -10 53 -9 7 
-14 -308 -7 -47 -14 104 -23 144 -9 -312 -9 -38 -10 -213 -13 87 
-9 -27 -7 68 -18 179 -14 -76 -12 -220 -13 286 -13 64 -13 -148 
-11 -241 -16 152 -9 198 -14 -195 -22 82 -13 -205 -13 -27 -14 40 
-17 -16 -11 156 -13 -81 -18 295 -16 -178 -16 251 -7 -373 -6 455 
-22 -323 -16 359 -15 32 -16 -502 -13 392 -21 -32 -17 -13 -12 -515 
-17 370 -19 -108 -17 -337 -8 606 -19 -169 -30 208 -13 -103 -14 -657 
-18 267 -15 19 -13 214 -16 133 -23 -102 -18 -267 -19 -48 -22 234 
-14 198 -21 -384 -19 243 2708 2634 100 MP stroke
-15 248 -19 -307 -19 206 -15 -142 -17 129 -37 139 -15 -107 -10 -309 
-26 125 -8 410 -27 -410 -15 99 -11 311 -47 205 -11 -297 -6 -114 
-22 -499 -17 45 -21 340 -13 141 -38 95 -23 193 2 -401 -21 -40 
-17 194 -19 -245 -13 37 -19 38 -34 140 -9 -210 -20 -218 -21 183 
-4 331 -33 -713 -29 863 3 -568 -17 210 -22 -505 -12 664 -27 -332 
-10 59 -21 -216 -33 633 3 -287 -22 -123 -13 108 -4 209 -34 -135 
-9 -522 -29 675 -24 108 11 -362 -20 -484 -12 374 -12 38 -19 -889 
-10 855 -17 -411 -9 432 -16 -263 -16 -95 -13 -137 -18 483 -7 -213 
-15 343 -15 -237 -9 -624 -12 517 -10 109 -15 -286 -9 260 -12 42 
-13 -226 -9 280 -25 271 -14 31 2 -160 -15 -310 -17 87 -11 268 
-7 -305 -5 144 -13 -311 -10 -24 -8 14 -12 3 -5 376 -17 5 
-17 311 2 -391 -10 -271 -12 -101 -6 198 -15 -94 -7 382 -4 258 
-15 -266 -10 -236 -9 -254 4185 3065 100 MP stroke
-9 223 -8 -178 -10 68 -9 -156 -9 307 -12 263 -6 -20 -10 14 
-8 -43 -1 -132 -8 -41 -1 82 1 349 -8 -88 -13 -313 -14 232 
-1 -417 -2 149 -7 12 -7 -5 -7 281 0 -277 -9 200 -10 339 
7 -576 -5 -217 -6 341 0 25 -2 81 -3 3 -6 -392 -3 380 
0 -273 -4 108 -3 -279 -4 292 -3 -1008 -4 915 -5 195 -2 17 
-4 93 2 -233 6 301 -6 -145 -6 -245 -2 81 -5 246 -2 -423 
0 99 -4 119 -4 81 -5 151 0 -91 -2 -121 -5 67 3 -8 
5 190 -8 -119 -6 -112 3 36 -4 -49 -3 224 0 -327 -5 121 
-4 223 -2 -289 1 3 -6 128 0 13 8 114 -7 -199 -5 126 
1 -245 -3 275 0 -355 -7 295 -2 -182 1 57 -6 -51 -1 -321 
-2 65 -1 -83 1 331 -2 -17 1 155 -2 -82 -4 5 -3 -101 
-2 -108 -1 159 -5 153 3 -2 7 26 -6 179 -3 -725 2 259 
-1 71 0 163 -5 -230 4503 2858 100 MP stroke
-2 14 -1 -19 -4 325 5 -79 4 295 0 -718 -1 252 -1 27 
-2 67 -2 -397 2 17 -3 -53 -1 246 6 135 2 132 1 -80 
0 -227 -1 -219 1 409 1 -93 2 -32 0 -104 1 72 4 -196 
5 637 2 -645 -1 537 3 -46 3 -135 8 476 1 -249 -3 188 
9 -310 5 171 1 -295 4 474 0 -401 2 -97 4 0 5 -8 
3 173 8 70 10 158 5 -20 4 48 -2 -522 -1 572 5 -160 
3 -125 4 116 4 -218 3 47 3 -179 9 451 1 -418 -1 579 
10 -333 3 222 8 -263 7 -51 -1 58 9 77 1 -288 3 -284 
5 555 0 -248 9 237 3 -388 0 403 5 -288 4 -59 9 488 
1 -272 0 -60 9 240 3 -194 0 15 5 -65 3 -24 5 -22 
7 -221 3 282 6 -2 4 97 2 90 10 81 2 -61 2 -83 
7 317 -1 -345 5 206 6 77 0 -11 12 -282 14 237 2 -126 
3 -218 3 -53 4 -17 4194 2791 100 MP stroke
7 355 -2 -177 6 -172 6 -108 1 457 13 -83 3 -267 3 -363 
9 795 0 -1031 7 583 4 -291 0 778 6 -75 7 -56 5 -99 
5 89 15 5 10 331 -3 -512 1 -199 4 10 13 307 4 -304 
1 229 6 -237 -1 512 15 -425 7 299 -5 124 15 -119 5 -175 
1 -138 11 227 0 -143 5 -624 5 674 0 182 12 -712 11 575 
1 -301 2 107 8 -45 3 228 6 -99 11 65 -1 25 11 -100 
15 629 -4 -611 1 -17 0 403 10 62 20 -196 -4 -767 6 145 
10 559 -2 -91 12 179 6 85 -2 -697 1 579 4 22 11 -42 
3 -119 -4 214 7 -111 15 -198 -2 116 2 47 13 -42 -3 -38 
8 -770 5 478 0 392 19 256 4 -20 -1 -539 -1 197 2 154 
9 -148 -1 58 14 8 11 311 -5 -829 2 281 1 359 11 -284 
5 -210 -3 628 11 -237 11 -216 10 -150 8 152 6 68 3 -110 
5 -128 14 540 -2 -496 3680 2833 100 MP stroke
4 256 17 236 1 -467 3 -9 6 166 7 -96 16 479 5 -97 
-4 -214 5 121 10 -157 7 -76 6 139 9 -249 -1 504 13 -368 
32 611 -5 -396 -3 -43 18 108 0 -489 5 191 4 261 5 -9 
16 -214 1 68 6 90 5 121 12 -373 30 756 2 -100 -4 -390 
3 -217 -1 470 12 -235 10 -117 8 0 9 -193 6 240 15 -230 
8 103 8 -45 24 590 8 -32 -9 -460 12 -400 13 563 -1 -102 
9 16 9 -433 9 113 10 -170 8 320 7 147 7 147 18 -91 
12 170 2 -326 12 -294 9 158 12 300 11 -125 16 264 15 200 
-4 -600 11 120 14 234 4 -27 24 -1 11 41 0 -101 16 162 
15 -20 12 -31 10 -133 7 119 11 -186 10 247 9 -175 10 86 
9 -87 11 136 14 162 11 -24 12 -94 9 -220 10 -334 9 783 
13 -151 22 -27 1 -338 5 -191 17 -29 5 331 15 -58 12 123 
10 -412 19 502 7 -432 2790 2767 100 MP stroke
8 57 10 -189 11 162 12 -38 8 5 11 360 9 -27 11 -7 
12 -129 10 108 13 -384 9 160 12 103 12 -62 11 429 12 -138 
6 47 21 -84 14 150 -2 -58 12 -727 7 656 15 -319 16 244 
2 33 15 46 8 2 6 58 21 225 5 -157 2 -206 12 133 
9 264 11 -65 9 -518 8 -105 11 491 9 35 6 -27 5 -225 
9 -157 8 276 6 403 6 -367 8 -46 6 -333 4 229 12 87 
9 194 -3 -67 7 -133 10 279 0 -548 3 140 7 101 9 -142 
2 203 5 -143 15 353 4 -187 1 42 4 188 2 -180 3 -207 
3 354 6 -157 2 -381 3 -287 8 253 3 329 8 199 3 -58 
0 -192 6 -70 3 -48 3 161 4 -253 1 50 3 -294 4 313 
3 219 -1 -366 3 455 5 -55 -1 -10 3 -91 3 -71 0 106 
3 43 2 -335 1 -320 3 536 -1 165 1 146 2 -16 -1 -6 
-2 -568 -1 485 0 115 2172 2128 100 MP stroke
0 -432 -1 -192 0 152 -1 212 0 -244 1 11 -1 449 -1 -79 
0 -123 -2 -217 -4 62 -2 -67 -2 -225 -3 297 -3 217 -3 -77 
-2 -176 -3 -128 -3 124 -5 -189 -1 326 -2 -72 -7 212 -6 -104 
-4 -207 -3 -325 -6 53 -5 391 -7 132 -6 -50 -4 -774 -5 638 
-7 38 -8 -146 -9 81 -6 -70 -6 -11 -7 -78 -7 -679 -8 913 
-6 -71 -7 6 -10 4 -8 -82 -6 -333 -9 151 -7 -14 -8 -206 
-10 459 -9 -71 -9 77 -8 26 -12 -293 -11 403 -9 -103 -9 -271 
-6 218 -10 -144 -11 39 -9 89 -10 82 -7 158 -10 -512 -16 238 
-12 214 -8 -20 -8 -311 -11 52 -9 94 -13 -257 -11 220 -6 -89 
-13 -483 -13 459 -9 184 -10 45 -10 42 -9 -231 -13 80 -11 227 
-10 84 -11 -251 -10 208 -10 -13 -11 -866 -8 792 -11 -202 -12 -267 
-10 395 -8 130 -12 -61 -14 -118 -10 -92 -11 -135 -11 193 -12 -43 
-10 82 -9 61 -16 -21 2910 2533 100 MP stroke
-9 -228 -12 -116 -21 826 -3 -433 -4 -143 -16 -303 -4 386 -12 -2 
-22 373 -11 45 -17 62 2 -200 19 -76 -16 18 -11 -121 -5 136 
-18 -140 -4 97 -16 -260 -18 27 -8 -288 -12 326 -8 195 -16 -33 
-6 186 -14 17 -43 -210 -20 181 -8 -33 -14 91 -10 -125 -13 -85 
-10 -134 -10 -135 -12 -141 -11 150 -12 52 -11 -57 -12 -115 -12 55 
-10 124 -10 -20 -14 -161 -9 -10 -10 -116 -14 45 -9 229 -15 49 
-10 131 -11 40 -13 -57 1 -10 -10 216 -12 -373 -9 126 -16 28 
-15 -109 -13 -73 -7 215 -20 -137 -17 257 1 -354 -11 -439 -12 480 
-5 153 -15 -39 -20 160 -8 -155 -10 -350 -25 615 -8 -142 0 -242 
-14 -270 -10 -198 -10 240 -11 -32 -11 -282 -10 152 -14 21 -11 47 
-9 290 -15 -172 -6 82 -18 167 -15 269 1 -358 -10 178 -10 60 
-17 -655 -13 396 3 367 -10 33 -16 -132 -21 85 -4 -100 -11 -67 
-29 610 4 -243 1 -489 4012 2608 100 MP stroke
-4 -111 2 561 -18 -477 -12 -83 -4 114 -4 135 -13 -110 -14 -115 
1 224 -14 -312 -13 444 1 -222 -13 -301 -12 239 -5 -285 -10 240 
-4 -40 5 229 -12 -340 -16 418 1 -442 -6 134 -6 -102 -5 171 
-15 86 -4 -53 1 -52 3 315 -6 -2 -17 -651 -4 229 -7 294 
3 -170 3 207 -24 242 -4 -353 12 266 -12 -486 -9 -30 -4 -174 
-5 201 1 -22 -3 -234 -5 102 -4 109 -4 85 -4 -114 -6 502 
-2 -189 3 143 -1 -281 1 192 0 179 -12 -394 -7 -170 6 329 
-6 -629 -10 578 4 -226 -3 -149 -3 197 6 91 -4 23 -9 -77 
0 -119 0 101 -2 132 -1 186 -3 72 1 -169 0 28 3 12 
-4 -294 -8 55 5 -123 -2 -123 -1 -19 6 611 -6 -264 -4 16 
1 -49 -6 -32 -1 1 -1 -169 0 -169 -1 143 -4 235 2 -430 
2 176 -1 -368 -1 462 -2 -131 2 -84 1 238 -1 31 4 3 
0 -52 -3 -283 1 125 4362 2976 100 MP stroke
1 269 3 -589 2 325 3 204 1 -11 -3 227 2 -4 1 42 
3 -99 2 -432 3 717 6 -62 -4 -40 2 -180 7 322 0 -442 
3 89 3 374 0 -228 2 -215 4 -55 3 125 1 -53 3 13 
1 -56 4 -21 3 -49 0 140 7 -436 2 217 5 106 3 54 
3 -118 6 113 1 -344 6 45 4 410 4 -185 10 262 0 -206 
3 -29 5 -341 3 436 6 75 8 -100 10 311 2 114 3 -341 
7 -428 5 373 8 -46 8 -230 3 493 7 -494 8 440 4 -396 
4 128 7 -107 7 224 6 -18 7 82 11 -1 6 137 2 -106 
14 130 3 64 2 -230 17 360 8 71 -1 -421 3 65 13 -325 
4 101 5 248 16 -138 -2 -260 1 404 8 -51 6 -12 16 5 
8 214 5 -3 -3 -414 -2 390 21 -157 9 425 -1 -736 7 515 
5 -429 4 -325 4 294 5 -16 2 -47 3 311 4 27 3 -52 
3 -154 1 88 4 -66 3920 2695 100 MP stroke
8 28 4 -239 1 82 2 55 -2 218 0 102 11 -362 3 333 
-4 -313 9 281 6 47 -6 -43 -2 -185 3 174 0 -463 -4 534 
1 93 5 -403 1 180 0 -136 3 47 1 -29 -2 -225 0 71 
-4 -215 0 410 2 -22 -2 317 0 -105 -2 43 1 -419 2 87 
-3 195 0 -344 -2 119 0 236 3 -146 -6 -503 -7 733 2 8 
-2 -426 -1 225 4 224 -1 -114 2 91 0 77 -10 38 -5 -313 
1 252 -1 -288 -3 -76 -1 -296 -3 157 -4 292 -2 158 2 -287 
1 -253 -6 289 -1 47 -1 110 0 -220 9 323 -7 -1 -13 -260 
1 97 -1 -163 -1 -30 -4 466 -3 115 0 -440 0 226 -1 -462 
-5 245 -4 -364 0 196 -4 454 -6 -128 2 -43 1 -11 -1 55 
-1 -78 -11 -8 -4 -32 1 94 -5 34 0 -186 -2 -99 -2 -161 
1 288 -3 -23 -3 123 -6 -99 -11 177 3 -185 8 110 -4 -244 
-4 36 -1 57 -3 -90 4013 2778 100 MP stroke
0 -153 -1 48 -1 66 -1 74 -2 -46 1 171 -4 -264 -9 394 
1 -55 2 -47 -4 -29 1 -232 4 369 -2 -81 -2 160 0 -400 
0 125 -2 155 -1 78 2 -130 0 203 -2 -373 2 136 -3 142 
-4 229 1 -327 -9 -216 -2 114 4 -101 -4 223 1 -8 1 -5 
-1 58 2 -193 1 -67 2 -479 0 663 1 -6 2 186 -1 -282 
2 -208 1 -21 1 92 2 185 -1 -11 -1 -149 5 354 1 -52 
-10 38 -1 51 2 -357 -2 -17 4 188 -4 -501 -3 520 1 -184 
-6 410 0 -103 3 72 1 -148 3 29 4 218 4 -314 0 179 
4 19 2 79 0 -458 2 16 0 -489 4 428 2 148 0 -290 
3 393 0 -336 1 447 1 -169 1 291 3 -112 1 -670 1 312 
2 21 3 -254 3 466 3 177 0 -688 2 206 2 181 1 -28 
3 51 4 -307 2 150 2 -48 2 328 0 -409 3 168 7 363 
0 -343 6 96 2 -28 3962 2696 100 MP stroke
5 187 3 -224 7 -333 5 72 2 232 12 331 4 -108 2 -243 
12 252 0 -86 6 69 12 -226 5 132 10 2 7 98 5 -310 
10 404 5 -224 6 -182 6 -61 7 100 6 216 5 20 12 -284 
6 345 11 -152 22 445 1 -311 3 -51 11 -27 3 -495 14 379 
8 143 8 -136 11 -567 4 811 14 -395 3 351 11 231 13 -7 
3 -118 22 239 7 -156 3 -713 19 835 1 -300 6 217 12 8 
8 -10 17 -243 7 59 6 153 13 -153 5 -50 8 307 13 -42 
9 38 7 -184 9 -251 8 -385 13 232 9 58 4 348 16 -104 
10 -207 7 -10 13 281 5 -170 3 -204 6 102 3 462 9 -187 
15 -91 12 160 5 -227 8 62 9 227 1 -177 2 210 6 -186 
3 -57 6 153 5 -393 2 354 10 44 6 411 -1 -214 5 -226 
4 265 2 -57 5 -535 1 391 1 -102 3 -60 4 134 7 -355 
1 216 0 224 5 34 3257 2241 100 MP stroke
3 -184 0 -75 2 105 0 105 1 -52 2 63 -4 -102 -2 -219 
3 536 6 106 4 -315 -2 2 3 124 2 -52 -5 -778 2 441 
-1 220 -5 174 -2 -181 1 -234 7 262 -1 96 -1 29 2 -74 
-4 -119 5 38 -5 -362 -11 440 4 8 0 -130 -3 -287 2 372 
2 -96 1 -106 -5 -122 -2 240 -4 34 -5 117 3 33 -1 -429 
-2 423 1 -105 -2 4 -3 45 -2 -158 -7 273 -6 142 1 -610 
2 407 -3 -144 -6 -209 3 51 -3 184 -15 -302 2 479 -5 46 
-9 -62 5 -228 -7 54 -4 -256 -2 296 -5 73 -3 -46 -10 -604 
-3 -8 -5 367 -6 56 -4 117 -9 22 0 -53 -12 156 -17 244 
0 -323 -2 -145 -4 -128 -13 19 -6 17 3 340 -18 -157 -14 46 
-5 31 -10 -50 -6 -241 -12 -105 -7 39 -4 161 -12 105 -14 -258 
-14 42 -3 79 -8 113 -14 -42 0 175 -18 -209 -20 212 -3 -296 
-14 -120 -10 180 -9 -157 3638 2631 100 MP stroke
-9 -190 -4 111 -21 90 -18 161 -10 240 -15 -267 -11 107 -14 -652 
-11 -40 -13 485 -31 454 -12 -106 1 -80 -19 -445 -11 -61 -12 205 
-27 289 -15 20 -12 -247 -10 -26 -15 2 -17 109 -5 215 -24 -775 
-26 629 -7 -9 -17 65 -16 -538 -14 64 -20 -145 -16 276 -17 63 
-17 15 -15 101 -17 -195 -20 149 -20 35 -18 -179 -15 315 -15 -107 
-18 -51 -15 96 -21 -123 -14 -177 -17 152 -19 -88 -12 429 -34 31 
-20 145 3 -378 -20 -16 -16 -294 -14 577 -23 -56 -19 -261 -12 -263 
-12 141 -14 145 -14 115 -19 -223 -12 183 -20 -39 -32 -73 -10 -293 
-13 42 -20 190 -13 -127 -15 73 -12 360 -22 -193 -19 -352 -15 270 
-19 107 -13 -198 -21 64 -17 -456 -17 376 -18 105 -12 181 -24 270 
-18 -110 -21 -4 -23 28 -11 -446 -18 421 -14 -28 -19 -105 -19 36 
-5 -188 -26 3 -23 175 -5 18 -17 -68 -16 -202 -12 83 -16 -179 
-13 488 -23 -188 -17 -51 5233 2419 100 MP stroke
-12 131 -30 -138 -11 79 0 -153 -19 -185 -11 -80 -10 190 -27 208 
-12 -87 3 199 -26 -374 -21 408 2 -472 -21 354 -11 -64 1 -160 
-14 -408 -9 326 -10 63 -9 211 -19 -530 -16 437 4 53 -12 -79 
-11 59 -7 -603 -11 593 -6 -324 -10 218 -8 -81 -7 -207 -7 -781 
-7 850 -8 82 -7 -147 -10 52 -2 104 -4 28 -7 -200 -6 -63 
-9 276 -4 -541 -6 79 -5 429 -6 -16 -7 158 1 -313 -8 390 
-1 -481 2 484 -12 -14 -2 -171 -1 -87 0 215 0 -96 -1 161 
1 50 -13 -243 -10 201 3 -56 -2 -19 0 -103 0 64 -4 -235 
-1 185 0 -785 -2 853 1 -247 -2 -61 -3 -186 1 124 -3 -36 
-1 314 -2 -657 -3 452 2 380 -1 -1 -1 60 -4 140 -3 140 
4 -504 -3 253 2 -676 -1 455 -4 -212 3 237 -6 -138 3 -408 
-5 391 -6 171 16 168 -5 -290 -9 -38 4 -61 -5 500 1 -257 
1 -833 -1 537 1 254 5757 2554 100 MP stroke
-1 -230 2 3 -1 -109 2 58 1 33 0 -437 4 733 -2 -279 
2 22 -2 89 -3 -114 7 -57 2 38 1 -9 5 246 -1 -201 
3 50 3 -58 3 4 4 38 3 -109 2 14 5 26 4 124 
1 65 3 -219 2 8 6 47 12 288 -1 -393 7 137 13 333 
-2 -458 6 -137 13 382 5 39 6 -251 2 277 9 -35 15 80 
2 -398 4 304 14 -743 5 576 10 129 12 -35 10 -219 7 -51 
13 264 23 456 -3 -298 6 -64 28 307 1 -587 7 289 10 35 
9 64 18 -280 4 312 22 -591 19 444 6 -688 14 227 11 188 
12 35 4 476 28 -349 34 602 -3 -599 7 -265 16 116 11 42 
14 12 8 320 14 -50 15 -101 27 206 9 -206 5 55 29 240 
-4 -212 5 258 37 -2 6 -202 4 -526 17 105 17 222 10 -261 
10 118 13 161 8 110 13 77 10 121 19 -204 35 332 10 -64 
-1 -333 15 28 16 163 4895 2450 100 MP stroke
12 -96 6 250 21 -272 31 126 3 -211 12 76 41 462 10 -73 
-8 -287 8 179 15 3 30 -418 25 504 1 -175 7 -179 16 74 
15 72 11 -27 11 -169 27 -66 21 160 8 -304 14 -76 12 158 
12 37 13 -41 12 263 19 -63 14 -541 17 65 14 180 7 259 
28 156 18 128 -3 -394 14 34 13 137 15 24 27 19 12 -358 
15 31 22 500 1 -720 8 426 21 -243 7 214 18 -189 10 90 
5 354 27 -439 20 306 8 -336 14 -186 15 302 11 -100 12 -290 
14 -188 9 674 14 43 17 -671 14 347 15 -164 12 74 17 25 
11 -104 15 80 14 -124 6 593 25 -39 7 -17 5 113 31 -10 
11 10 12 -79 17 89 6 -26 10 -53 12 -110 13 -3 13 10 
17 -148 13 63 15 -231 15 359 13 232 15 -12 12 -413 13 416 
11 -70 16 -55 15 40 7 -27 25 -106 5 46 12 178 29 -474 
7 87 29 551 11 -234 3500 2442 100 MP stroke
6 -327 31 622 -4 -326 9 -107 14 13 6 292 19 -195 14 93 
31 -173 13 -70 8 -435 20 587 2 -206 15 39 12 335 11 63 
31 -73 9 -152 0 254 17 -172 20 94 11 -191 8 67 12 -490 
11 152 9 -397 12 426 12 -14 6 287 19 -210 14 333 -2 -53 
12 -83 12 3 22 -362 15 268 -2 101 13 61 9 -302 11 192 
14 154 9 -346 12 329 6 -56 13 40 9 -54 3 64 3 -91 
3 22 24 28 14 89 2 -7 7 9 9 52 5 -297 -7 237 
7 -54 6 85 2 30 20 86 7 77 1 -203 7 40 15 -32 
15 53 2 -316 8 -92 9 357 6 -251 9 -133 6 -77 6 256 
1 -161 5 361 6 93 0 -357 6 198 -1 -195 -2 137 5 163 
5 82 5 -138 -2 21 5 87 14 -140 5 240 0 -363 1 -336 
3 138 3 -67 6 319 2 -207 2 80 4 -116 0 279 6 -311 
1 244 -1 -324 7 217 2674 2555 100 MP stroke
2 -226 2 -209 2 295 -1 449 4 42 6 -550 0 365 2 -63 
0 -329 0 399 -1 23 -1 -23 0 -129 -2 179 3 -247 -5 -34 
-5 348 9 -401 -2 -80 -7 361 0 -156 -2 -64 2 -249 -4 675 
-3 -126 3 86 -6 -585 -7 370 -1 32 0 99 -1 53 1 -205 
-2 -470 -4 526 -1 163 -3 -46 -8 -181 -5 -24 1 208 1 -32 
-6 -586 1 700 0 104 -9 -38 -2 -294 -4 42 -5 -338 -4 238 
-4 173 -1 -317 -6 -67 -1 272 0 83 -8 -465 -6 393 -4 -55 
-7 -423 -4 228 -3 426 -4 179 -3 -248 -1 -416 -4 80 -10 171 
-6 223 -3 7 -6 36 -3 27 0 -176 -7 -833 -8 458 -2 35 
-10 307 -10 46 -2 139 -6 -82 -2 -206 -7 227 -10 93 -4 97 
-14 -236 -7 -230 -1 178 -17 310 -4 -174 -1 49 -14 -363 -7 57 
-5 -208 -8 -399 -10 403 -12 187 -8 11 -9 -213 -3 -21 -8 446 
-11 -119 -7 -2 -14 2 3048 2393 100 MP stroke
-15 77 -10 139 -11 -31 -8 42 -9 -107 -12 -362 -15 71 -14 -34 
-12 24 -11 294 -11 -40 -11 -437 -12 39 -15 47 -15 187 -12 -259 
-12 322 -11 -160 -15 -371 -14 524 -11 21 -17 -230 -16 234 -14 47 
-13 0 -13 -30 -14 -175 -14 -40 -14 121 -15 -546 -17 31 -14 72 
-14 505 -16 152 -16 -33 -16 -478 -10 385 -13 -587 -20 453 -14 113 
-15 -88 -15 -162 -17 227 -15 -316 -9 278 -23 163 -17 -167 -6 191 
-20 -38 -16 -192 -13 44 -18 -480 -8 473 -18 89 -24 -50 -13 151 
-12 -123 -14 -31 -16 -33 -10 42 -15 -230 -13 -1 -6 205 -27 123 
-17 -132 -7 -233 -16 0 -13 72 -27 448 -8 -264 4 234 -24 -400 
-24 291 -9 -72 -9 -568 -25 700 -13 -211 3 213 -21 -801 -8 617 
-9 132 -28 -156 -13 29 -10 -91 -11 38 -14 108 -16 106 -12 -693 
-15 580 -9 123 -15 -100 -24 -86 -9 101 -9 -3 -17 -122 -12 73 
-14 -135 -16 70 -9 -161 4420 2631 100 MP stroke
-14 -27 -10 -157 -11 21 -20 334 -10 -109 -13 147 -16 100 -13 -184 
-15 -513 -11 140 -14 374 -10 210 -8 -154 -21 -49 -19 7 -13 171 
-8 -635 -13 116 -14 102 -11 102 -11 -103 -7 283 -12 -183 -11 79 
-13 39 -14 -86 -12 13 -23 -48 -10 -252 -10 190 -12 -241 -5 323 
-28 233 -15 209 0 -602 -12 60 -10 -23 -10 -148 -6 276 -11 48 
-9 131 -9 112 -23 -179 -16 -121 -11 90 -9 47 -7 -76 -12 55 
-11 319 -13 -280 -9 -328 -12 -20 -13 152 -8 -77 -11 -102 -6 227 
-11 144 -12 15 -6 53 -10 -23 -8 -147 -17 144 -18 12 -6 -13 
-9 -30 -11 -200 -4 -153 -8 117 -14 -373 -8 455 -8 150 -13 -33 
-9 -100 -20 296 -17 183 6 -630 -2 113 -17 -110 -2 -103 -4 423 
-10 -274 -4 223 -7 -92 -7 -54 -15 113 -19 132 -2 -158 -2 -49 
-9 -14 -8 256 -2 -143 0 61 -6 -61 -8 -6 -15 -448 -8 124 
-1 168 -15 132 -7 -17 5468 2535 100 MP stroke
0 -241 -7 -258 -3 97 -5 233 -6 316 -5 120 -10 -458 -8 162 
0 -238 -3 131 -6 -11 -7 122 -11 235 2 -292 1 53 -5 -187 
-2 223 -8 -481 -7 565 0 -815 -4 600 -8 343 -1 -469 -2 41 
-6 -138 0 578 -5 -89 -5 -39 -1 51 -4 111 -1 -125 -6 12 
-3 57 1 -226 -5 2 3 -142 -4 -60 -4 539 0 -125 -1 -481 
2 -408 -2 787 3 -288 1 -164 -1 362 5 -206 -2 108 4 112 
-1 -50 -1 -40 3 -5 -4 158 12 -227 6 -32 1 -29 8 100 
-1 -284 6 -225 2 366 3 -189 7 435 0 -443 8 473 2 -73 
1 -74 6 35 3 14 7 187 5 -18 0 -143 3 301 6 -269 
6 487 4 -23 8 -90 1 89 7 -77 24 -138 14 195 -1 -147 
-1 -122 4 -130 15 123 16 105 -6 -310 2 175 20 -202 7 -12 
5 -125 7 -55 6 -230 7 153 5 331 7 50 5 49 13 -351 
10 186 -1 117 15 -584 5323 3084 100 MP stroke
12 388 3 -97 10 94 7 44 9 161 5 -119 3 -105 5 -21 
6 186 19 -93 13 277 5 112 4 -507 3 211 9 -87 6 108 
10 -10 17 84 8 202 4 -614 2 584 10 -541 17 690 -1 -677 
3 423 16 -706 11 478 6 -89 3 -91 11 -204 8 255 1 -60 
12 -611 2 700 6 113 19 -106 6 33 9 81 8 101 -1 -116 
8 -28 7 -109 5 196 12 -551 10 382 6 -257 9 586 1 -911 
2 606 13 -40 0 57 7 -192 18 330 5 -142 3 -43 4 -12 
8 -2 4 186 5 52 18 -280 8 93 4 -189 4 209 9 376 
10 81 -3 -395 14 94 14 39 -1 -134 10 -214 6 43 2 -38 
3 211 11 -375 15 372 1 -38 6 -75 6 -327 5 107 4 537 
7 18 15 -249 1 17 4 -195 9 -5 -1 261 14 -509 13 530 
2 -161 2 -290 3 46 1 311 -2 236 13 -529 14 380 3 -147 
4 -142 2 23 7 44 4633 2769 100 MP stroke
-2 11 -1 266 14 -186 2 -48 2 -210 5 81 -1 135 3 144 
0 -86 1 -82 3 28 3 -628 6 548 0 155 0 -86 1 230 
0 112 3 341 -2 -444 1 -298 3 68 -2 0 1 -132 2 58 
-6 280 -2 22 13 -318 7 360 -5 -169 1 -3 -2 -371 -1 -345 
-2 435 -9 470 11 -447 12 488 -9 -235 2 -276 2 661 -8 -286 
-2 149 -1 0 3 -86 2 -154 1 -145 5 141 -3 95 3 7 
3 353 -5 -907 -3 140 -6 410 13 -260 15 448 -6 -197 1 -51 
-1 -149 -2 207 3 -104 -3 185 4 -479 9 206 0 -302 0 170 
5 -74 2 136 3 132 3 40 1 -2 4 -224 1 165 3 -107 
11 20 2 -47 2 -53 9 555 2 -86 2 -361 8 16 4 115 
6 -62 9 -127 1 95 3 143 7 -74 4 15 4 -125 5 182 
11 -443 4 452 8 150 20 249 1 -219 -3 -441 6 75 8 0 
5 91 5 79 6 -127 4385 2711 100 MP stroke
3 179 13 -332 15 283 1 -213 8 -18 7 52 6 -51 9 -5 
8 -50 9 -111 9 -155 14 412 11 142 5 -504 9 178 6 -78 
9 257 11 26 11 -260 9 17 8 188 11 76 9 103 12 19 
6 -299 14 265 14 212 -3 -297 11 -174 10 92 14 61 13 123 
-6 197 21 -472 10 -53 7 259 27 329 -2 -428 15 -246 24 709 
-2 -298 9 -30 14 -95 11 105 11 -40 13 -246 15 338 8 34 
14 -539 13 -26 6 482 13 -234 13 -69 11 84 16 188 16 150 
10 -431 13 -6 13 175 12 -454 13 113 11 374 13 34 14 52 
21 -143 20 75 12 -75 16 -176 15 166 13 -19 12 -73 13 354 
19 -44 16 137 17 32 19 -50 21 -54 12 -538 12 507 20 75 
11 7 21 -284 13 -69 12 77 42 558 14 -179 1 -108 21 -25 
14 19 14 -208 16 -67 18 107 16 141 16 -26 31 119 15 -71 
15 -319 21 -2 13 88 3135 2685 100 MP stroke
17 230 15 -36 20 -421 26 209 20 21 18 194 16 -68 16 -156 
15 -250 16 330 18 155 20 -106 27 256 20 -106 16 -419 18 28 
17 139 19 150 18 -40 20 -287 21 -15 19 -224 21 464 21 118 
14 78 17 -74 20 -449 16 375 20 295 20 34 16 -153 16 -148 
20 -231 20 127 18 92 17 -144 15 -66 16 -97 21 112 16 16 
11 -26 18 280 23 -286 13 -9 15 233 20 -596 11 585 18 -68 
20 -370 12 482 18 14 14 -397 16 388 16 122 11 212 16 -175 
17 -523 17 73 13 -285 14 435 12 288 15 -77 16 -196 10 85 
33 234 24 178 -5 -409 17 69 14 57 10 -85 18 -43 7 -188 
20 -28 14 12 11 375 20 -180 7 348 29 -419 21 552 -1 -968 
29 760 10 -653 -2 913 26 -889 6 454 16 -254 29 760 0 -509 
16 78 18 225 -4 -149 13 -122 12 -183 7 302 15 -223 8 -280 
15 344 11 65 5 -137 1564 2556 100 MP stroke
12 -188 11 -511 10 588 10 157 11 -67 9 -53 9 -58 10 106 
5 -4 9 128 7 -98 7 382 12 -216 10 -203 7 210 6 2 
9 -191 8 180 2 -380 6 88 7 -104 5 350 7 -288 5 199 
8 -65 7 -14 7 169 -2 -265 -5 298 7 21 4 -93 -2 221 
7 -376 -1 297 6 -260 17 234 3 -54 5 209 1 -61 -5 -280 
4 182 -13 -292 -5 117 6 -166 -6 267 3 -26 0 78 -3 44 
2 -102 -5 -61 2 -22 -1 -56 1 91 -3 -115 -7 223 12 -172 
7 171 -3 100 -1 16 0 53 2 38 -7 -80 0 90 -8 -150 
-25 118 -5 99 -2 -105 -4 -122 -5 18 -2 9 8 -492 -2 404 
-10 208 -1 -88 -1 -17 -4 -237 -4 45 -5 -46 -4 82 -5 115 
-6 -13 -3 -452 -2 35 -1 283 -5 -16 -6 -66 -4 148 -7 -127 
-6 49 -2 3 -4 -27 -3 -290 -10 85 -2 46 0 235 -19 -401 
-8 308 1 47 -7 -61 1501 2541 100 MP stroke
-3 -168 -8 -200 -10 434 1 146 -11 -177 -14 -257 -6 135 -7 -252 
-6 -228 -7 517 -3 21 -12 52 -20 83 -1 -294 -7 327 -12 80 
-4 -350 -12 141 -7 118 -11 31 -18 -160 -6 -255 -11 75 -11 -63 
-9 -5 -10 362 -9 112 -24 -306 -19 283 -6 -310 -13 -50 -14 318 
-15 -93 -18 -144 -15 -115 -13 112 -16 296 -15 -121 -15 -148 -15 -64 
-14 -30 -15 -287 -12 378 -16 -614 -16 225 -16 254 -13 -20 -11 41 
-14 -25 -14 252 -14 106 -15 -55 -24 -685 -22 182 -11 32 -12 318 
-12 -32 -32 474 -16 4 4 -480 -23 -419 -13 451 -14 199 -22 -358 
-7 123 -21 -181 -9 160 -18 -52 -30 436 -1 -475 -10 -3 -18 328 
-13 -339 -15 80 -13 -241 -18 383 -10 -99 -13 -71 -18 -350 -16 -244 
-15 580 -14 70 -18 35 -15 -222 -17 -313 -10 354 -13 97 -20 -89 
-12 25 -18 6 -15 108 -12 -67 -14 -79 -12 283 -15 125 -12 -131 
-18 -148 -17 176 -17 87 2814 2395 100 MP stroke
-15 -120 -6 -303 -14 95 -7 185 -18 -299 -15 132 -4 194 -20 -39 
-7 -119 -20 74 -10 -170 -7 62 -23 178 5 193 -35 49 0 -198 
24 472 -42 -532 4 329 -8 12 -37 -130 -5 -269 -24 557 -12 13 
-15 17 15 -425 22 340 -23 -339 -1 186 -22 -208 -17 -4 9 90 
-24 -75 6 288 -4 -119 -63 345 -23 131 40 -571 23 208 -15 -140 
-11 -80 -6 45 -9 1 -9 -149 -6 139 -12 -61 -4 99 -1 114 
-47 34 -11 57 12 -656 -23 525 6 -549 -12 436 -11 -97 8 -105 
-19 -77 2 119 -12 -252 -17 309 5 -154 -15 -154 -8 321 0 -337 
-5 6 -12 116 -5 6 2 249 -14 -352 -2 174 -8 -153 -7 -23 
-7 106 -17 -62 3 -17 -15 -388 -14 554 -1 -512 -16 618 -2 -258 
-4 1 -5 115 -6 51 -12 -299 -6 19 -18 383 -5 25 -2 -313 
-14 282 -6 -36 -11 149 6 -418 4 366 -13 -214 -7 28 -12 -342 
-5 199 -2 162 -10 -163 3650 2718 100 MP stroke
-5 -39 -6 -26 -7 69 -7 144 -6 -268 -8 226 -8 152 1 -563 
-5 -15 -7 -173 -3 21 -5 276 -4 47 -4 23 -5 238 -9 74 
-3 47 0 96 -4 -81 6 -329 -1 85 -7 9 2 19 -5 189 
-6 126 1 -554 -2 82 -2 -122 0 81 -1 219 -2 -182 -3 -148 
0 310 -3 263 -1 26 1 -243 -1 -140 -5 103 5 117 6 50 
-7 -324 1 -91 0 366 -1 135 5 -10 -6 138 0 59 9 -154 
0 -109 -4 88 -2 -8 1 -34 0 -46 1 -134 2 -7 2 155 
0 79 -3 -47 0 -33 1 -18 0 21 3 128 0 24 3 -13 
1 -97 -1 -227 -2 -111 -4 261 8 -280 4 -61 1 116 5 -6 
-1 94 3 101 4 -34 2 -101 4 -163 3 211 3 -9 2 -91 
3 150 3 17 6 -24 5 -541 1 87 3 161 5 566 1 -104 
1 -326 7 -401 3 229 3 258 3 142 -1 -46 1 -177 -4 253 
1 -6 15 -74 0 -41 3670 2618 100 MP stroke
-1 17 7 194 -2 -192 2 -247 3 -655 1 789 6 -390 2 26 
-2 412 1 -246 3 424 1 -373 0 506 4 -617 3 264 0 -304 
-2 340 -3 153 0 144 -1 -608 -2 75 1 -173 0 448 -2 -37 
-3 150 0 -168 -5 -55 -5 -116 -2 211 -8 167 0 -132 6 -285 
-2 82 0 112 -1 18 -4 -351 -2 -9 -5 271 -7 186 -3 -15 
-6 162 2 -211 10 210 -6 -162 -3 -68 -1 171 -7 -185 0 -26 
-6 -79 -4 -7 -5 128 -10 312 9 -542 2 323 -8 -295 2 135 
-2 68 -6 -347 -3 238 -3 20 -3 -102 -3 105 -2 -23 -4 96 
-4 122 -1 -94 0 -59 -4 74 -1 -159 5 120 -5 64 -6 -21 
2 30 0 139 -4 -296 0 208 -3 -194 -5 252 2 -223 -1 58 
-6 236 -1 -135 0 -384 0 324 -1 21 -3 -256 1 424 -4 -162 
-3 387 1 -392 0 72 0 -435 0 267 -2 -22 -2 92 2 -62 
-2 181 -1 -317 1 96 3794 2725 100 MP stroke
-4 199 5 -21 -3 51 -2 -230 5 297 -13 -233 -2 312 6 -760 
-4 451 2 122 0 -560 1 179 1 -33 0 -133 4 87 2 89 
3 115 2 -59 6 301 3 -73 0 -3 4 -81 -8 152 2 60 
10 -513 1 253 7 -235 6 470 0 -1275 4 872 5 -7 4 256 
3 -8 4 80 4 118 7 -111 5 28 9 -255 7 150 -1 -20 
11 209 1 -330 -2 305 16 127 8 151 -1 -354 0 -200 -1 315 
4 15 5 -162 5 -48 8 -393 15 708 1 -211 -4 211 11 -536 
9 518 -3 -409 1 195 10 -168 3 -136 -1 462 12 -539 6 203 
0 -51 2 180 8 -310 12 440 -1 -549 4 321 10 217 0 -582 
7 502 5 178 -1 -224 7 -119 4 162 -1 176 8 -224 7 15 
6 -298 9 354 -1 28 4 158 7 -211 1 138 9 -281 2 288 
7 -146 18 603 3 7 -1 -311 0 -329 1 111 5 -3 5 -33 
5 86 7 -171 6 75 3431 2563 100 MP stroke
5 -162 7 -305 7 127 4 26 8 -279 9 359 5 2 6 -71 
7 23 5 -70 12 406 8 76 -1 -99 8 -134 9 -152 6 71 
9 -334 5 394 10 29 8 153 7 70 7 -44 19 304 19 280 
-7 -361 2 -560 9 451 8 98 15 -494 3 390 16 -113 12 -102 
8 -260 15 412 -2 131 20 -34 13 -84 0 -40 23 126 4 -364 
4 202 11 30 11 -67 13 -206 9 153 25 328 8 12 1 -584 
10 187 11 109 25 78 4 -334 4 322 14 -157 10 143 13 69 
10 114 25 -238 7 -173 6 57 21 317 -3 -489 22 548 11 -170 
-8 317 22 -322 11 119 18 -449 25 665 1 -262 4 -213 8 -172 
11 268 10 -717 11 636 13 160 9 -21 11 -184 9 -165 12 324 
10 -90 10 -41 13 -74 16 247 17 269 -2 -263 6 96 15 -391 
6 419 17 -405 5 352 14 -221 23 379 -1 -473 13 187 14 330 
-3 -487 10 51 11 2 2470 2575 100 MP stroke
8 -339 7 304 9 -84 14 17 12 32 22 580 8 -44 -13 -471 
2 5 9 77 10 130 10 15 8 -32 10 -45 7 -98 7 116 
8 23 11 -114 11 68 3 27 21 -87 32 439 12 68 0 -313 
1 -21 15 45 12 -258 -2 186 6 134 9 53 11 -747 10 357 
1 -215 3 459 6 -69 6 -155 4 -133 8 434 7 76 -1 -595 
5 82 4 246 6 -46 6 -63 2 168 5 -334 2 8 3 -194 
5 231 1 -173 3 74 1 27 3 54 3 -551 3 380 2 -79 
2 262 1 211 -2 67 1 -131 3 -404 -1 359 3 -32 -2 127 
0 -25 4 423 0 -205 -4 -253 -1 62 2 26 -2 305 0 32 
0 -104 -3 -154 -4 -140 0 -130 -2 175 -2 -411 -1 386 -4 245 
1 70 0 -60 -4 -549 -2 418 -4 -32 -3 -69 -4 -314 -3 613 
1 -608 -4 238 -2 18 -2 -162 -5 -129 -6 101 -4 115 -5 -86 
-6 285 0 -43 -3 -141 2159 2564 100 MP stroke
-8 432 1 -285 -6 -48 -8 -167 -3 208 -6 -98 -4 -116 -8 153 
-3 -114 -5 132 -11 86 -3 -375 -7 -29 -10 241 -3 -8 -9 -131 
-4 29 -9 131 -9 179 -4 -48 -9 -334 -6 419 -13 25 -12 49 
1 -477 -10 -134 -10 88 -7 134 -12 -302 -11 -141 -10 450 -10 -59 
-11 -333 -12 -48 -10 456 -12 -19 -9 -512 -9 338 -12 -77 -12 269 
-13 120 -11 53 -11 -25 -13 85 -10 -237 -10 45 -14 -125 -10 -2 
-15 183 -14 -110 -8 304 -26 97 -16 78 2 -281 -16 34 -12 77 
-11 -371 -17 48 -10 147 -16 -264 -13 88 -12 -167 -14 197 -12 62 
-15 -642 -11 542 -16 60 -14 -45 -10 81 -13 157 -8 -372 -14 200 
-13 -106 -13 38 -13 105 -8 -5 -18 83 -9 94 -15 81 -26 89 
-1 -254 -8 152 -13 -134 -15 -189 -23 436 -1 -189 -7 172 -13 34 
-21 -963 -32 1271 4 -274 3 -520 -13 -237 -6 377 -15 -211 -7 54 
-9 154 -15 -72 -8 104 3192 2493 100 MP stroke
-9 29 -4 94 -18 -217 -23 233 -1 61 -5 132 -13 23 -6 14 
-10 38 -7 -2 -9 -477 -22 607 -6 -110 -1 -150 -14 75 -6 -36 
-6 -98 -9 -232 -10 228 -7 -411 -3 536 -8 -137 -8 -59 -8 16 
-8 -166 -7 139 -9 -141 -7 -232 -8 -137 -8 191 -5 9 -8 -183 
-7 -93 -6 120 -12 4 -8 -58 -5 239 -9 -90 -8 -22 -9 -258 
-9 -130 -6 341 -16 464 -8 92 -1 -479 -14 39 -7 -129 -3 207 
-7 -135 -6 211 -8 -75 -7 -78 -14 298 -3 -302 0 378 -12 -445 
-3 439 -8 19 -9 -330 -2 -37 -10 -260 -7 44 -12 258 -12 444 
1 -403 -12 227 -7 -5 2 -66 -13 -320 -6 260 -5 155 -19 -333 
-7 20 -10 -2 -14 354 1 -438 -9 29 -10 38 -14 -13 -14 352 
4 -150 -10 -35 -11 -57 -7 67 -15 -436 -5 349 -13 -157 -10 -145 
-8 -56 -15 405 -8 -197 -13 239 -5 -226 -11 -19 -22 466 -2 -606 
-4 241 -9 109 -10 113 4023 2420 100 MP stroke
-19 -368 -11 38 -11 95 -19 223 -10 -26 1 -23 -14 -156 -12 -167 
-6 148 -22 249 -9 -101 -1 -27 -13 -156 -10 -4 -14 -342 -14 356 
-10 -204 -14 206 -12 -61 -11 -90 -11 -154 -12 86 -12 12 -13 -197 
-12 21 -10 299 -15 9 -16 -124 -12 49 -13 85 -11 182 -14 65 
-17 -223 -7 188 -25 91 -33 482 4 -280 2 -760 -12 247 -12 235 
-16 -371 -9 304 -17 -150 -13 100 -10 136 -20 -78 -5 88 -20 -394 
-23 550 1 -261 -12 -81 -16 -319 -12 -468 -11 251 -11 249 -12 71 
-13 102 -17 -158 -10 176 -17 17 -11 19 -11 -73 -29 554 -6 -283 
-4 -408 -12 51 -11 192 -23 136 -4 -272 -2 478 -13 -123 -9 -4 
-16 -309 -12 1 -11 160 -8 -254 -16 377 -19 322 2 -523 -6 -215 
-11 234 -4 71 -9 -106 -8 96 -8 -5 -11 -185 -17 314 -6 -327 
-1 349 -16 -327 -6 50 -10 1 -13 7 -2 253 -17 -308 -10 268 
0 -2 -7 81 -8 79 5153 2384 100 MP stroke
-20 -189 -19 409 6 -982 -2 643 -10 -104 -5 191 -25 15 -17 267 
4 -337 -1 -587 -1 491 -9 -8 -8 116 -8 -418 -13 489 2 -569 
-5 123 -9 -122 0 225 -10 -31 -2 66 -5 0 -5 90 3 222 
-11 -184 -2 172 -10 -146 -20 233 0 -392 -4 -86 -6 -177 -5 221 
-11 462 1 -341 -4 -356 -6 190 -2 195 -11 -164 -6 61 0 25 
-4 21 -7 -271 -5 92 2 360 -7 -74 -3 69 -3 72 -17 -283 
-6 173 1 -121 -8 21 -10 232 -1 -252 -2 -282 -8 -383 -2 650 
-8 -216 -12 182 1 -85 -5 69 -5 -49 -8 177 -10 42 1 -419 
-5 144 -5 215 -9 -156 -6 -231 -1 346 -21 205 -2 -232 2 129 
-19 -43 1 -249 -6 161 -9 -321 1 395 -11 -227 1 -77 -9 -198 
-18 788 2 -387 0 -62 1 314 -9 -628 -11 606 3 -339 -1 121 
-5 -158 -9 -421 -4 252 0 196 -9 229 1 -162 2 304 -12 -613 
-12 480 -1 -109 -2 -124 5717 2798 100 MP stroke
-5 136 0 -124 -2 34 -3 41 -2 -104 -2 375 0 -38 -9 -455 
-4 299 5 42 -7 -287 -11 324 1 -287 2 175 -9 194 -3 -45 
-3 -254 -9 267 1 -64 0 156 -2 69 -6 -98 -6 -329 2 -139 
-6 278 -5 67 -6 8 -6 119 5 -122 -6 -101 -9 126 0 106 
-3 -314 -11 371 -2 -181 -1 96 -7 31 0 -285 -3 118 -5 -307 
-5 307 -4 -96 0 302 -2 124 -8 -305 -3 -52 -5 -58 -9 260 
0 14 -6 -20 -6 164 3 -306 -6 71 -1 -129 -4 104 -12 -54 
1 -131 -6 -239 -9 471 1 -486 -7 -31 -7 301 -1 21 -2 206 
-7 -84 -9 -372 0 -78 -3 342 -8 120 -3 44 -7 176 -7 -27 
-6 -96 -19 211 -10 72 5 -113 -3 -27 -6 -162 -3 -33 -7 84 
-4 -497 -3 545 -8 -161 -3 105 2 21 -6 -105 -11 -201 -5 -50 
1 292 -7 -200 -8 -13 1 -9 -6 -646 -5 759 0 204 -6 27 
-1 143 1 -397 -2 20 6115 2568 100 MP stroke
1 -576 -2 934 1 -179 0 -87 -1 99 3 -111 1 210 0 -199 
-2 -54 5 -330 2 -26 -2 462 5 32 3 204 2 -146 5 -241 
2 -23 9 -233 5 334 0 -559 6 412 7 179 7 -95 8 243 
4 -155 6 -112 5 -156 4 -54 12 -56 10 257 8 -79 4 13 
-1 321 8 -43 11 -237 6 -51 9 -172 7 47 8 104 7 173 
6 40 9 -21 6 -113 6 -95 8 -53 7 -77 6 105 9 -197 
10 326 6 -106 5 -8 6 286 6 60 6 -49 6 12 3 71 
2 -16 9 -136 8 17 5 -35 7 88 6 -122 6 -91 6 -23 
5 -157 5 179 5 -536 6 267 4 127 3 97 5 -192 5 128 
4 29 8 -27 3 67 5 17 6 -18 2 162 10 -21 4 -88 
0 -300 6 324 0 -264 5 380 2 -75 1 164 3 -72 -6 66 
4 138 2 1 3 -97 9 58 -1 -116 10 132 11 36 -1 -46 
3 -14 5 14 -1 -63 5653 2355 100 MP stroke
-6 -73 2 128 2 -26 2 26 6 -144 0 89 9 -14 4 -112 
-2 39 7 -42 0 -265 3 170 1 52 -2 114 3 -295 0 87 
-3 -361 4 477 4 -226 -5 -10 1 415 -1 -183 1 27 4 152 
0 -384 1 29 0 -17 -1 -446 -6 513 -2 -20 6 66 1 170 
-1 55 1 6 4 -7 0 -189 -4 118 -3 -70 -5 103 1 -12 
3 -95 -1 135 -3 166 -2 192 2 -779 -2 202 -2 98 0 -362 
-4 175 -2 196 4 209 -9 -69 -14 24 -6 52 -8 -284 -6 -59 
-2 124 -7 -493 -2 565 -9 89 -8 -88 -8 -56 -17 319 -12 79 
-9 56 -7 -69 -10 -151 -9 -300 -8 31 -14 243 -4 -451 -11 308 
-13 236 -8 303 -22 -128 -8 35 -6 147 -18 92 -13 84 5902 1639 80 MP stroke
gr

c8
0 sg
%%IncludeResource: font Helvetica
/Helvetica /WindowsLatin1Encoding 120 FMSR

1643  294 mt 
(Experiment 1a - Analog magnetometers - Standard deviation o\
f position) s
2502 4902 mt 
(Distance to center of sensor network [m]) s
 558 3028 mt  -90 rotate
(sqrt\(Variance\) [mm]) s
90 rotate

end %%Color Dict

eplot
%%EndObject

epage
end

showpage

%%Trailer
%%EOF
