%!PS-Adobe-2.0 EPSF-1.2
%%Creator: MATLAB, The MathWorks, Inc. Version 7.13.0.564 (R2011b). Operating System: Microsoft Windows 7.
%%Title: ..\figures\digital_ort_ori_rmse.eps
%%CreationDate: 01/09/2013  18:28:11
%%DocumentNeededFonts: Helvetica
%%DocumentProcessColors: Cyan Magenta Yellow Black
%%Extensions: CMYK
%%Pages: 1
%%BoundingBox:    52   196   542   602
%%EndComments

%%BeginProlog
% MathWorks dictionary
/MathWorks 160 dict begin
% definition operators
/bdef {bind def} bind def
/ldef {load def} bind def
/xdef {exch def} bdef
/xstore {exch store} bdef
% operator abbreviations
/c  /clip ldef
/cc /concat ldef
/cp /closepath ldef
/gr /grestore ldef
/gs /gsave ldef
/mt /moveto ldef
/np /newpath ldef
/cm /currentmatrix ldef
/sm /setmatrix ldef
/rm /rmoveto ldef
/rl /rlineto ldef
/s {show newpath} bdef
/sc {setcmykcolor} bdef
/sr /setrgbcolor ldef
/sg /setgray ldef
/w /setlinewidth ldef
/j /setlinejoin ldef
/cap /setlinecap ldef
/rc {rectclip} bdef
/rf {rectfill} bdef
% page state control
/pgsv () def
/bpage {/pgsv save def} bdef
/epage {pgsv restore} bdef
/bplot /gsave ldef
/eplot {stroke grestore} bdef
% orientation switch
/portraitMode 0 def /landscapeMode 1 def /rotateMode 2 def
% coordinate system mappings
/dpi2point 0 def
% font control
/FontSize 0 def
/FMS {/FontSize xstore findfont [FontSize 0 0 FontSize neg 0 0]
  makefont setfont} bdef
/ISOLatin1Encoding where {pop /WindowsLatin1Encoding 256 array bdef
ISOLatin1Encoding WindowsLatin1Encoding copy pop
/.notdef/.notdef/quotesinglbase/florin/quotedblbase/ellipsis/dagger
/daggerdbl/circumflex/perthousand/Scaron/guilsinglleft/OE/.notdef/.notdef
/.notdef/.notdef/quoteleft/quoteright/quotedblleft/quotedblright/bullet
/endash/emdash/tilde/trademark/scaron/guilsinglright/oe/.notdef/.notdef
/Ydieresis WindowsLatin1Encoding 128 32 getinterval astore pop}
{/WindowsLatin1Encoding StandardEncoding bdef} ifelse
/reencode {exch dup where {pop load} {pop StandardEncoding} ifelse
  exch dup 3 1 roll findfont dup length dict begin
  { 1 index /FID ne {def}{pop pop} ifelse } forall
  /Encoding exch def currentdict end definefont pop} bdef
/isroman {findfont /CharStrings get /Agrave known} bdef
/FMSR {3 1 roll 1 index dup isroman {reencode} {pop pop} ifelse
  exch FMS} bdef
/csm {1 dpi2point div -1 dpi2point div scale neg translate
 dup landscapeMode eq {pop -90 rotate}
  {rotateMode eq {90 rotate} if} ifelse} bdef
% line types: solid, dotted, dashed, dotdash
/SO { [] 0 setdash } bdef
/DO { [.5 dpi2point mul 4 dpi2point mul] 0 setdash } bdef
/DA { [6 dpi2point mul] 0 setdash } bdef
/DD { [.5 dpi2point mul 4 dpi2point mul 6 dpi2point mul 4
  dpi2point mul] 0 setdash } bdef
% macros for lines and objects
/L {lineto stroke} bdef
/MP {3 1 roll moveto 1 sub {rlineto} repeat} bdef
/AP {{rlineto} repeat} bdef
/PDlw -1 def
/W {/PDlw currentlinewidth def setlinewidth} def
/PP {closepath eofill} bdef
/DP {closepath stroke} bdef
/MR {4 -2 roll moveto dup  0 exch rlineto exch 0 rlineto
  neg 0 exch rlineto closepath} bdef
/FR {MR stroke} bdef
/PR {MR fill} bdef
/L1i {{currentfile picstr readhexstring pop} image} bdef
/tMatrix matrix def
/MakeOval {newpath tMatrix currentmatrix pop translate scale
0 0 1 0 360 arc tMatrix setmatrix} bdef
/FO {MakeOval stroke} bdef
/PO {MakeOval fill} bdef
/PD {currentlinewidth 2 div 0 360 arc fill
   PDlw -1 eq not {PDlw w /PDlw -1 def} if} def
/FA {newpath tMatrix currentmatrix pop translate scale
  0 0 1 5 -2 roll arc tMatrix setmatrix stroke} bdef
/PA {newpath tMatrix currentmatrix pop	translate 0 0 moveto scale
  0 0 1 5 -2 roll arc closepath tMatrix setmatrix fill} bdef
/FAn {newpath tMatrix currentmatrix pop translate scale
  0 0 1 5 -2 roll arcn tMatrix setmatrix stroke} bdef
/PAn {newpath tMatrix currentmatrix pop translate 0 0 moveto scale
  0 0 1 5 -2 roll arcn closepath tMatrix setmatrix fill} bdef
/vradius 0 def /hradius 0 def /lry 0 def
/lrx 0 def /uly 0 def /ulx 0 def /rad 0 def
/MRR {/vradius xdef /hradius xdef /lry xdef /lrx xdef /uly xdef
  /ulx xdef newpath tMatrix currentmatrix pop ulx hradius add uly
  vradius add translate hradius vradius scale 0 0 1 180 270 arc 
  tMatrix setmatrix lrx hradius sub uly vradius add translate
  hradius vradius scale 0 0 1 270 360 arc tMatrix setmatrix
  lrx hradius sub lry vradius sub translate hradius vradius scale
  0 0 1 0 90 arc tMatrix setmatrix ulx hradius add lry vradius sub
  translate hradius vradius scale 0 0 1 90 180 arc tMatrix setmatrix
  closepath} bdef
/FRR {MRR stroke } bdef
/PRR {MRR fill } bdef
/MlrRR {/lry xdef /lrx xdef /uly xdef /ulx xdef /rad lry uly sub 2 div def
  newpath tMatrix currentmatrix pop ulx rad add uly rad add translate
  rad rad scale 0 0 1 90 270 arc tMatrix setmatrix lrx rad sub lry rad
  sub translate rad rad scale 0 0 1 270 90 arc tMatrix setmatrix
  closepath} bdef
/FlrRR {MlrRR stroke } bdef
/PlrRR {MlrRR fill } bdef
/MtbRR {/lry xdef /lrx xdef /uly xdef /ulx xdef /rad lrx ulx sub 2 div def
  newpath tMatrix currentmatrix pop ulx rad add uly rad add translate
  rad rad scale 0 0 1 180 360 arc tMatrix setmatrix lrx rad sub lry rad
  sub translate rad rad scale 0 0 1 0 180 arc tMatrix setmatrix
  closepath} bdef
/FtbRR {MtbRR stroke } bdef
/PtbRR {MtbRR fill } bdef
/stri 6 array def /dtri 6 array def
/smat 6 array def /dmat 6 array def
/tmat1 6 array def /tmat2 6 array def /dif 3 array def
/asub {/ind2 exch def /ind1 exch def dup dup
  ind1 get exch ind2 get sub exch } bdef
/tri_to_matrix {
  2 0 asub 3 1 asub 4 0 asub 5 1 asub
  dup 0 get exch 1 get 7 -1 roll astore } bdef
/compute_transform {
  dmat dtri tri_to_matrix tmat1 invertmatrix 
  smat stri tri_to_matrix tmat2 concatmatrix } bdef
/ds {stri astore pop} bdef
/dt {dtri astore pop} bdef
/db {2 copy /cols xdef /rows xdef mul dup 3 mul string
  currentfile exch readhexstring pop
  dup 0 3 index getinterval /rbmap xdef
  dup 2 index dup getinterval /gbmap xdef
  1 index dup 2 mul exch getinterval /bbmap xdef pop pop}bdef
/it {gs np dtri aload pop moveto lineto lineto cp c
  cols rows 8 compute_transform 
  rbmap gbmap bbmap true 3 colorimage gr}bdef
/il {newpath moveto lineto stroke}bdef
currentdict end def
%%EndProlog

%%BeginSetup
MathWorks begin

0 cap

end
%%EndSetup

%%Page: 1 1
%%BeginPageSetup
%%PageBoundingBox:    52   196   542   602
MathWorks begin
bpage
%%EndPageSetup

%%BeginObject: obj1
bplot

/dpi2point 12 def
portraitMode 0204 7344 csm

  422   110  5883  4881 MR c np
85 dict begin %Colortable dictionary
/c0 { 0.000000 0.000000 0.000000 sr} bdef
/c1 { 1.000000 1.000000 1.000000 sr} bdef
/c2 { 0.900000 0.000000 0.000000 sr} bdef
/c3 { 0.000000 0.820000 0.000000 sr} bdef
/c4 { 0.000000 0.000000 0.800000 sr} bdef
/c5 { 0.910000 0.820000 0.320000 sr} bdef
/c6 { 1.000000 0.260000 0.820000 sr} bdef
/c7 { 0.000000 0.820000 0.820000 sr} bdef
c0
1 j
1 sg
   0    0 6913 5185 PR
6 w
0 4225 5356 0 0 -4225 899 4614 4 MP
PP
-5356 0 0 4225 5356 0 0 -4225 899 4614 5 MP stroke
4 w
DO
SO
6 w
0 sg
 899  389 mt 6255  389 L
 899 4614 mt 6255 4614 L
6255 4614 mt 6255  389 L
 899 4614 mt  899  389 L
 899 4614 mt 6255 4614 L
 899 4614 mt  899  389 L
 899 4614 mt  899 4614 L
 899 4614 mt  899 4614 L
 899 4614 mt  899 4614 L
 899 4614 mt  899 4614 L
 899 4614 mt  899 4614 L
 899 4614 mt  899 4614 L
 899 4614 mt  899 4614 L
 899 4614 mt  899 4614 L
 899 4614 mt  899 4614 L
 899 4614 mt  899 4614 L
 899 4614 mt  899 4614 L
 899 4614 mt  899 4614 L
 899 4614 mt  899 4614 L
 899 4614 mt  899 4614 L
 899 4614 mt  899 4614 L
 899 4614 mt  899 4614 L
 899 4614 mt  899 4614 L
 899 4614 mt  899 4614 L
1229 4614 mt 1229 4560 L
1229  389 mt 1229  442 L
%%IncludeResource: font Helvetica
/Helvetica /WindowsLatin1Encoding 120 FMSR

1084 4796 mt 
(10) s
%%IncludeResource: font Helvetica
/Helvetica /WindowsLatin1Encoding 80 FMSR

1217 4722 mt 
(-0.9) s
 899 4614 mt  899 4614 L
 899 4614 mt  899 4614 L
 899 4614 mt  899 4614 L
 899 4614 mt  899 4614 L
 899 4614 mt  899 4614 L
 899 4614 mt  899 4614 L
 899 4614 mt  899 4614 L
 899 4614 mt  899 4614 L
 899 4614 mt  899 4614 L
 899 4614 mt  899 4614 L
 899 4614 mt  899 4614 L
 899 4614 mt  899 4614 L
 899 4614 mt  899 4614 L
 899 4614 mt  899 4614 L
 899 4614 mt  899 4614 L
 899 4614 mt  899 4614 L
 899 4614 mt  899 4614 L
 899 4614 mt  899 4614 L
2413 4614 mt 2413 4560 L
2413  389 mt 2413  442 L
%%IncludeResource: font Helvetica
/Helvetica /WindowsLatin1Encoding 120 FMSR

2268 4796 mt 
(10) s
%%IncludeResource: font Helvetica
/Helvetica /WindowsLatin1Encoding 80 FMSR

2401 4722 mt 
(-0.8) s
 899 4614 mt  899 4614 L
 899 4614 mt  899 4614 L
 899 4614 mt  899 4614 L
 899 4614 mt  899 4614 L
 899 4614 mt  899 4614 L
 899 4614 mt  899 4614 L
 899 4614 mt  899 4614 L
 899 4614 mt  899 4614 L
 899 4614 mt  899 4614 L
 899 4614 mt  899 4614 L
 899 4614 mt  899 4614 L
 899 4614 mt  899 4614 L
 899 4614 mt  899 4614 L
 899 4614 mt  899 4614 L
 899 4614 mt  899 4614 L
 899 4614 mt  899 4614 L
 899 4614 mt  899 4614 L
 899 4614 mt  899 4614 L
3597 4614 mt 3597 4560 L
3597  389 mt 3597  442 L
%%IncludeResource: font Helvetica
/Helvetica /WindowsLatin1Encoding 120 FMSR

3452 4796 mt 
(10) s
%%IncludeResource: font Helvetica
/Helvetica /WindowsLatin1Encoding 80 FMSR

3585 4722 mt 
(-0.7) s
 899 4614 mt  899 4614 L
 899 4614 mt  899 4614 L
 899 4614 mt  899 4614 L
 899 4614 mt  899 4614 L
 899 4614 mt  899 4614 L
 899 4614 mt  899 4614 L
 899 4614 mt  899 4614 L
 899 4614 mt  899 4614 L
 899 4614 mt  899 4614 L
 899 4614 mt  899 4614 L
 899 4614 mt  899 4614 L
 899 4614 mt  899 4614 L
 899 4614 mt  899 4614 L
 899 4614 mt  899 4614 L
 899 4614 mt  899 4614 L
 899 4614 mt  899 4614 L
 899 4614 mt  899 4614 L
 899 4614 mt  899 4614 L
4782 4614 mt 4782 4560 L
4782  389 mt 4782  442 L
%%IncludeResource: font Helvetica
/Helvetica /WindowsLatin1Encoding 120 FMSR

4637 4796 mt 
(10) s
%%IncludeResource: font Helvetica
/Helvetica /WindowsLatin1Encoding 80 FMSR

4770 4722 mt 
(-0.6) s
 899 4614 mt  899 4614 L
 899 4614 mt  899 4614 L
 899 4614 mt  899 4614 L
 899 4614 mt  899 4614 L
 899 4614 mt  899 4614 L
 899 4614 mt  899 4614 L
 899 4614 mt  899 4614 L
 899 4614 mt  899 4614 L
 899 4614 mt  899 4614 L
 899 4614 mt  899 4614 L
 899 4614 mt  899 4614 L
 899 4614 mt  899 4614 L
 899 4614 mt  899 4614 L
 899 4614 mt  899 4614 L
 899 4614 mt  899 4614 L
 899 4614 mt  899 4614 L
 899 4614 mt  899 4614 L
 899 4614 mt  899 4614 L
5966 4614 mt 5966 4560 L
5966  389 mt 5966  442 L
%%IncludeResource: font Helvetica
/Helvetica /WindowsLatin1Encoding 120 FMSR

5821 4796 mt 
(10) s
%%IncludeResource: font Helvetica
/Helvetica /WindowsLatin1Encoding 80 FMSR

5954 4722 mt 
(-0.5) s
 899 4614 mt  899 4614 L
 899 4614 mt  899 4614 L
 899 4614 mt  899 4614 L
 899 4614 mt  899 4614 L
 899 4614 mt  899 4614 L
 899 4614 mt  899 4614 L
 899 4614 mt  899 4614 L
 899 4614 mt  899 4614 L
 899 4614 mt  899 4614 L
 899 4614 mt  899 4614 L
 899 4614 mt  899 4614 L
 899 4614 mt  899 4614 L
 899 4614 mt  899 4614 L
 899 4614 mt  899 4614 L
 899 4614 mt  899 4614 L
 899 4614 mt  899 4614 L
 899 4614 mt  899 4614 L
 899 4614 mt  899 4614 L
 899 4614 mt  925 4614 L
6255 4614 mt 6228 4614 L
 899 4614 mt  952 4614 L
6255 4614 mt 6201 4614 L
%%IncludeResource: font Helvetica
/Helvetica /WindowsLatin1Encoding 120 FMSR

 640 4658 mt 
(10) s
%%IncludeResource: font Helvetica
/Helvetica /WindowsLatin1Encoding 80 FMSR

 773 4584 mt 
(-2) s
 899 4190 mt  925 4190 L
6255 4190 mt 6228 4190 L
 899 3942 mt  925 3942 L
6255 3942 mt 6228 3942 L
 899 3766 mt  925 3766 L
6255 3766 mt 6228 3766 L
 899 3629 mt  925 3629 L
6255 3629 mt 6228 3629 L
 899 3518 mt  925 3518 L
6255 3518 mt 6228 3518 L
 899 3423 mt  925 3423 L
6255 3423 mt 6228 3423 L
 899 3342 mt  925 3342 L
6255 3342 mt 6228 3342 L
 899 3270 mt  925 3270 L
6255 3270 mt 6228 3270 L
 899 3205 mt  925 3205 L
6255 3205 mt 6228 3205 L
 899 3205 mt  952 3205 L
6255 3205 mt 6201 3205 L
%%IncludeResource: font Helvetica
/Helvetica /WindowsLatin1Encoding 120 FMSR

 640 3249 mt 
(10) s
%%IncludeResource: font Helvetica
/Helvetica /WindowsLatin1Encoding 80 FMSR

 773 3175 mt 
(-1) s
 899 2781 mt  925 2781 L
6255 2781 mt 6228 2781 L
 899 2533 mt  925 2533 L
6255 2533 mt 6228 2533 L
 899 2357 mt  925 2357 L
6255 2357 mt 6228 2357 L
 899 2221 mt  925 2221 L
6255 2221 mt 6228 2221 L
 899 2109 mt  925 2109 L
6255 2109 mt 6228 2109 L
 899 2015 mt  925 2015 L
6255 2015 mt 6228 2015 L
 899 1933 mt  925 1933 L
6255 1933 mt 6228 1933 L
 899 1861 mt  925 1861 L
6255 1861 mt 6228 1861 L
 899 1797 mt  925 1797 L
6255 1797 mt 6228 1797 L
 899 1797 mt  952 1797 L
6255 1797 mt 6201 1797 L
%%IncludeResource: font Helvetica
/Helvetica /WindowsLatin1Encoding 120 FMSR

 640 1841 mt 
(10) s
%%IncludeResource: font Helvetica
/Helvetica /WindowsLatin1Encoding 80 FMSR

 773 1767 mt 
(0) s
 899 1373 mt  925 1373 L
6255 1373 mt 6228 1373 L
 899 1125 mt  925 1125 L
6255 1125 mt 6228 1125 L
 899  949 mt  925  949 L
6255  949 mt 6228  949 L
 899  812 mt  925  812 L
6255  812 mt 6228  812 L
 899  701 mt  925  701 L
6255  701 mt 6228  701 L
 899  607 mt  925  607 L
6255  607 mt 6228  607 L
 899  525 mt  925  525 L
6255  525 mt 6228  525 L
 899  453 mt  925  453 L
6255  453 mt 6228  453 L
 899  389 mt  925  389 L
6255  389 mt 6228  389 L
 899  389 mt  952  389 L
6255  389 mt 6201  389 L
%%IncludeResource: font Helvetica
/Helvetica /WindowsLatin1Encoding 120 FMSR

 640  433 mt 
(10) s
%%IncludeResource: font Helvetica
/Helvetica /WindowsLatin1Encoding 80 FMSR

 773  359 mt 
(1) s
 899  389 mt 6255  389 L
 899 4614 mt 6255 4614 L
6255 4614 mt 6255  389 L
 899 4614 mt  899  389 L
gs 899 389 5357 4226 MR c np
/c8 { 0.000000 0.000000 1.000000 sr} bdef
c8
6 6 4 -10 5 -7 1 -15 14 96 1 -25 4 -24 5 2 
3 -31 -2 -58 8 47 15 125 -1 -84 7 3 4 -11 5 9 
4 -15 7 26 5 10 4 -14 3 7 10 31 9 28 6 -22 
10 -11 1 4 3 -35 8 2 11 53 9 23 3 -33 10 -21 
0 22 14 10 9 19 5 32 9 -12 6 -43 4 3 1 -45 
19 50 7 -12 3 45 15 -22 2 -12 5 -53 3 -61 12 1 
15 51 2 -4 11 24 2 -50 10 4 6 0 6 -5 17 71 
6 -5 15 -3 12 22 -6 -44 8 -3 9 14 15 30 7 25 
8 -27 3 -5 20 39 0 6 13 -35 9 47 19 28 3 -7 
8 31 6 -31 13 32 22 82 9 -16 14 2 4 2 12 -18 
9 3 9 9 22 51 15 46 21 -15 23 13 -6 13 8 -36 
15 22 25 58 10 -8 14 8 7 -4 26 -3 12 8 0 -20 
32 -53 13 -182 14 -108 3652 1373 100 MP stroke
12 2 16 -87 13 216 15 -29 13 18 34 37 17 79 5 136 
21 51 13 -63 18 -116 15 -6 23 -148 16 -21 20 184 20 -59 
16 -37 14 -37 16 134 17 104 17 -187 21 -115 12 3 27 111 
16 91 24 -78 15 207 16 -104 17 -13 17 -115 12 -26 23 -134 
24 183 16 -62 17 -150 21 157 15 26 14 150 19 -152 13 -180 
17 -230 21 5 18 193 18 -279 14 286 14 -78 14 141 17 -90 
15 206 18 -410 14 439 16 -27 17 -216 16 33 12 -709 13 113 
9 602 16 -284 11 -227 20 96 10 294 12 -78 11 -444 15 733 
9 -85 17 -317 -1 246 13 -146 12 -139 16 148 3 232 11 -33 
11 -91 9 -43 5 -155 7 253 6 -19 12 -69 8 5 10 206 
-5 20 11 -136 3 -291 8 93 -5 -76 -1 -61 0 -213 4 154 
0 120 -4 -447 -4 500 1 -53 -7 -690 -3 884 -12 -34 -2 -267 
-2 122 -14 254 -10 -233 2498 1695 100 MP stroke
-12 -67 -7 489 -12 -167 -13 157 -15 7 -8 175 -15 -107 -14 88 
-16 -105 -15 -168 -17 -180 -18 -115 -19 10 -15 217 -20 166 -17 -37 
-20 -221 -21 237 -21 102 -21 -84 -17 47 -19 180 -27 -144 -17 -114 
-29 -112 -23 -62 -8 -148 -32 33 -18 90 -23 118 -18 -13 -23 135 
-28 -105 -22 -1 -22 -837 -21 187 -19 -288 -27 61 -26 200 -20 -463 
-28 418 -31 561 -10 334 -22 -86 -26 -140 -17 -124 -23 243 -19 -30 
-29 -355 -16 60 -40 151 -8 -72 -15 151 -24 -15 -25 190 -15 40 
-35 -157 -15 -131 -10 -127 -23 -325 -19 17 -20 -111 -20 -11 -23 86 
-17 192 -17 481 -17 78 -27 -21 -17 -35 -12 70 -29 -3 -12 80 
-20 -72 -14 -52 -13 -12 -20 -97 -13 117 -23 -43 -11 3 -15 -34 
-12 -318 -18 186 -11 110 -18 64 -22 93 -12 22 -16 106 -10 97 
-14 -78 -15 7 -15 27 -10 -28 -14 18 -15 79 -20 44 -10 -31 
-15 52 -10 -40 -14 -15 4314 920 100 MP stroke
-10 -30 -20 -47 -16 -63 -10 -27 -13 21 -13 153 -10 7 -14 25 
-16 -17 -20 17 -9 9 -2 -2 -24 36 -7 16 -9 -41 -23 24 
-9 3 -12 9 -7 3 -8 5 -9 40 -17 1 -22 -18 -17 -4 
-8 11 -16 -1 -15 16 -5 -2 -11 2 -12 5 -10 2 -13 13 
-9 -2 -12 13 -5 18 -15 -22 -12 1 -9 -9 -20 17 -8 0 
-5 -1 -12 -15 -9 -8 -15 4 1 0 -14 -6 -5 -7 -13 0 
-3 5 -14 4 -8 6 -4 1 -8 1 -13 1 -3 4 0 31 
-9 5 -15 -28 -5 10 -6 9 -4 15 -6 9 -13 7 -2 -6 
-1 -3 -10 -3 3 11 -11 2 -1 4 -4 -1 -4 4 -1 39 
-3 -15 -15 -25 0 9 -3 2 -1 6 -4 0 0 4 -3 -3 
-1 -7 -8 -13 -1 6 0 -3 -3 2 -2 1 2 6 -5 -7 
-3 2 0 1 1 5 -2 6 -1 -2 -2 -17 4 -6 0 -4 
1 -6 -1 -2 1 -1 5074 705 100 MP stroke
-1 8 3 2 1 -4 3 -5 1 2 3 10 3 1 2 2 
2 -11 5 -3 4 4 5 5 1 16 7 15 1 6 9 -10 
5 -20 7 -6 5 -6 8 -1 9 -8 6 -3 5 -20 16 -3 
12 -8 3 22 11 -4 11 -5 11 1 15 14 13 28 3 18 
17 -9 8 -27 7 -47 13 -56 10 -18 15 -20 16 -15 9 -25 
14 -11 15 -19 15 5 9 -10 16 25 12 15 14 -26 14 -7 
7 -27 17 -22 17 11 13 24 12 -9 16 -1 11 -6 16 -15 
16 12 17 -2 10 -43 11 -2 10 0 17 8 11 -10 27 -19 
11 22 5 12 21 15 10 -22 8 -48 14 26 8 -31 24 17 
13 -6 17 0 3 -23 11 3 22 23 10 27 11 -21 6 10 
14 -10 17 -158 9 -20 24 110 0 -9 23 -46 14 -37 13 -13 
12 17 14 -347 17 -703 19 153 9 -224 16 522 17 283 22 187 
16 -50 9 -133 19 294 3975 1194 100 MP stroke
17 -65 23 167 18 -139 16 21 15 -282 23 -76 21 165 16 -267 
21 -58 19 -360 22 61 21 245 19 263 16 -271 16 -194 30 -266 
23 470 17 133 19 157 23 -26 21 -82 25 251 15 -36 36 -71 
11 15 20 -125 28 -3 20 54 24 -5 19 -14 24 137 15 -163 
31 -227 21 230 21 104 22 -157 22 250 25 -2 24 -120 21 52 
24 -48 22 -96 22 147 26 99 28 210 27 -56 17 -123 29 181 
43 -4 2 24 23 -111 26 -84 22 130 26 43 23 38 29 -328 
41 -20 2 43 26 12 24 41 29 106 26 -68 23 24 24 201 
26 -74 29 154 27 -22 26 -187 26 7 26 -1 27 -67 31 92 
29 -25 27 -113 30 49 33 11 25 33 30 10 21 -10 44 39 
29 -264 7 1 35 270 28 136 32 -160 43 57 4 31 32 -163 
28 -82 27 136 24 -7 26 -90 25 82 28 -203 19 74 47 -43 
21 -413 17 196 4 75 1618 1538 100 MP stroke
16 160 34 -188 17 212 30 34 22 -144 28 -26 21 -45 24 56 
22 13 26 -300 21 -45 30 226 18 227 28 117 29 14 30 -56 
33 -103 16 -57 22 -12 20 -62 17 -379 18 -17 23 -505 18 -94 
10 870 1 -63 31 -159 26 119 9 -272 18 9 3 -582 16 563 
6 287 5 73 2 -721 11 -387 3 1001 -1 108 1 -70 -34 -634 
7 111 -17 -80 52 823 7 251 -23 -258 7 186 -36 -102 -62 -268 
-3 -80 -22 313 -12 -138 -20 -368 -18 171 -21 -147 -19 -315 -22 -90 
-23 528 -28 141 -23 -246 -27 -4 -28 100 -29 246 -29 22 -29 -76 
-31 249 -19 349 -53 -57 -10 -178 -34 -305 -34 236 -35 16 -28 94 
-40 -202 -41 77 -32 62 -40 111 -31 -149 -38 54 -35 -220 -36 -91 
-37 -188 -44 153 -30 191 -33 46 -32 -212 -34 91 -34 -121 -45 258 
-32 191 -31 63 -34 -228 -32 -199 -22 167 -41 22 -33 47 -32 -179 
-30 -51 -31 45 -32 -46 2542 1554 100 MP stroke
-32 17 -29 166 -32 -29 -24 96 -28 -96 -22 -385 -28 218 -40 22 
-18 288 -28 -235 -21 -406 -23 -411 -31 643 -31 192 -24 -163 -25 213 
-23 100 -27 31 -17 102 -41 -537 -19 -68 -24 31 -20 -50 -26 113 
-27 56 -24 -64 -23 -486 -23 225 -16 -1053 -27 898 -34 235 -18 -279 
-21 151 -19 300 -21 245 -37 -192 -15 308 -21 -70 -21 231 -17 53 
-15 4 -23 -215 -28 30 -22 7 -20 -204 -19 -29 -18 382 -17 -120 
-30 -137 -16 182 -18 -56 -19 -132 -15 208 -34 -17 -10 84 -12 -7 
-19 2 -22 -30 -22 -6 -15 26 -17 14 -14 22 -17 4 -13 17 
-20 -4 -16 24 -16 8 -16 11 -14 2 -21 -21 -22 11 -6 -9 
-21 6 0 -2 -19 15 -7 23 -19 14 -11 -9 -16 12 -16 -7 
3 49 -13 -8 -22 -85 -10 -10 -21 39 1 17 -2 11 -13 14 
-7 11 -5 17 -7 4 -4 -15 -15 -19 5 19 -10 33 -2 1 
-9 -26 1 29 -10 17 4374 943 100 MP stroke
-2 -12 0 1 -4 -17 -5 4 -2 17 -3 -5 -5 -8 -5 -6 
-2 -3 -7 -15 2 10 -4 -6 -3 -12 -3 -7 -2 0 7 53 
0 -1 -4 -13 -4 -5 -3 -6 -5 -15 -2 -2 -3 -15 -6 -37 
-2 -2 8 53 -6 -20 -3 16 -2 -12 -13 8 0 -17 -1 21 
-6 -20 -1 16 4 7 -20 -21 -2 38 0 11 -9 -22 -7 -11 
1 6 -3 16 -6 7 -1 3 -4 -3 -6 6 -5 -21 -3 3 
-2 -3 -3 1 -10 -73 -5 2 8 75 -8 -44 -5 -25 -8 -83 
3 51 -12 -27 -2 39 -4 -42 -7 -23 -3 -12 -3 -1 -9 30 
-2 -2 -5 23 -2 19 -4 -67 -7 -22 -6 9 -3 -88 -3 77 
-10 8 -5 142 -6 -80 -1 -92 -7 -62 -9 103 3 131 -4 -41 
-9 -21 -10 8 -14 11 4 -9 -5 13 -9 -19 -8 -8 2 70 
-9 -28 -8 3 -10 -43 -4 24 -6 -4 -3 10 -11 -68 -6 -29 
-5 -21 -4 -11 -5 34 4787 1146 100 MP stroke
-5 -24 -7 -58 -7 -48 -6 -44 1 128 -7 13 -4 -56 -5 -53 
2 11 -5 -13 -3 -83 -9 -79 3 -130 -3 -20 0 138 -8 240 
2 -42 1 15 -2 -216 -2 -231 5 148 -3 11 -2 -128 -3 -139 
10 332 -2 -313 2 -91 2 -501 1 120 6 885 4 105 1 28 
4 -30 1 12 8 -32 6 13 6 -32 5 -31 4 15 7 -35 
5 -75 1 -25 7 -22 7 -1 5 56 8 32 7 -23 8 -9 
6 -29 9 -59 9 36 8 2 7 14 9 32 6 -47 13 -1 
13 -67 7 54 12 -15 1 1 14 -49 11 -2 6 -28 7 -4 
17 -102 6 -95 4 -7 7 -68 18 296 9 34 9 -58 7 75 
10 24 4 -78 17 174 9 14 9 15 12 -44 9 -128 6 -196 
15 193 14 36 6 17 12 144 16 89 3 57 8 75 12 -102 
16 26 8 -36 9 -53 7 -54 13 -9 8 -57 15 98 11 11 
12 -192 8 28 14 38 4243 1425 100 MP stroke
14 34 6 52 8 -58 18 -73 17 104 10 -65 11 -56 10 -115 
12 98 13 -28 7 41 24 6 9 45 6 -79 26 216 -1 68 
20 50 12 56 3 -84 24 -115 5 -82 10 -224 10 -111 14 347 
21 -86 4 9 26 98 5 -152 10 185 12 -34 10 -314 11 -610 
13 193 10 258 13 398 10 91 14 87 14 62 11 72 14 -37 
11 77 11 -110 11 -560 9 243 11 148 14 -284 10 -103 12 149 
12 238 11 -163 10 -154 11 78 11 270 10 -244 12 129 16 65 
9 36 14 135 12 -33 14 62 13 -251 2 31 13 79 8 134 
13 58 9 -78 11 26 14 94 10 91 8 -175 12 26 9 39 
9 -195 10 135 11 -70 8 41 10 119 11 4 8 -47 10 88 
10 141 10 -32 8 -144 10 -220 9 -335 9 61 8 351 11 -196 
6 -74 9 -290 9 74 10 221 10 348 11 -171 9 -102 8 126 
6 -14 12 105 7 -11 3155 1212 100 MP stroke
8 31 9 -116 11 10 8 90 8 105 7 -123 8 -98 7 -175 
9 222 7 57 4 105 10 60 7 -71 6 -25 5 -24 6 81 
4 -27 7 -25 6 14 6 -154 6 44 4 135 4 -195 3 102 
4 37 4 66 4 -12 3 0 5 -119 3 -49 3 28 0 -39 
2 -305 1 -148 1 117 2 115 2 99 -3 -164 0 -71 -2 137 
-2 -19 -3 20 -1 -750 -2 -76 -1 296 -5 285 -3 -200 -6 52 
-8 7 -1 -111 -7 10 -4 343 -6 -87 -6 -337 -7 423 -6 29 
-6 -78 -8 107 -7 -780 -7 -381 -10 1091 -8 -28 -8 -163 -11 -20 
-11 -59 -10 251 -10 -202 -7 -25 -23 460 -13 -396 -9 168 -11 69 
-12 284 -12 51 -11 -362 -12 132 -19 -174 -3 128 -12 -62 -12 -1156 
-10 832 -19 -188 -7 348 -8 177 -18 39 -16 -200 -4 -354 -13 250 
-9 -26 -13 -222 -11 86 -13 -87 -9 170 -8 -770 -6 693 -18 714 
-7 154 -4 -158 -16 -91 3495 1390 100 MP stroke
-6 -66 -15 -233 -6 175 -6 -293 -11 -442 -10 -33 -9 543 -14 213 
-22 -164 3 5 -6 -3 -15 -21 -3 49 -9 49 -11 -274 -3 46 
-24 16 -16 106 4 -525 -6 119 -7 168 -9 318 -6 -122 -13 134 
-9 167 -16 -267 -7 -169 -3 -94 -12 172 -7 373 -6 -528 -9 360 
-10 3 -14 296 -12 -120 -7 116 -10 -371 -8 -141 -11 -101 -10 69 
-10 33 -15 202 -7 -23 -13 62 -10 -70 -12 48 -14 262 -10 36 
-14 129 -11 131 -10 -403 -12 38 -15 -138 -18 45 3 -117 -21 77 
-8 -55 -16 -124 -7 -37 -19 189 -18 162 -4 -117 -11 20 -24 -29 
-8 34 -7 12 -17 26 -17 -64 1 39 -31 -28 -14 -26 4 -11 
-22 -20 -2 -18 -9 -44 -13 75 -17 186 -5 -147 -11 -16 -19 8 
-1 20 -14 -30 -11 -41 -7 -67 -10 -24 -1 -52 -14 50 -7 -21 
-9 17 -13 -32 -20 -26 7 -30 -10 75 -9 -62 -6 -28 -5 -101 
-7 68 -4 -129 -8 246 4498 1700 100 MP stroke
-9 106 -5 -128 -5 -43 -5 -67 -6 -66 -1 -10 -4 -95 -4 56 
-4 -31 -1 -75 -7 248 -2 -52 0 -283 1 -53 -1 -24 2 -80 
0 48 -4 268 4 -149 2 -37 5 -262 3 -56 5 -183 6 -4 
7 430 -2 -754 3 -154 5 457 2 51 10 314 9 109 2 37 
3 -209 4 19 4 -41 6 130 4 -150 8 240 4 69 4 -15 
4 -78 5 12 5 151 7 24 8 79 15 181 -5 -150 4 -350 
7 141 0 -19 14 140 1 -5 10 157 8 67 0 -234 5 70 
6 -79 3 40 2 -54 7 58 6 29 5 -24 4 -45 7 82 
4 -95 9 118 5 -69 1 -333 6 246 3 -66 5 68 6 114 
5 83 4 -75 3 -28 1 28 4 -81 3 -8 2 -32 2 90 
2 -122 5 192 2 -240 -2 33 5 -396 3 -161 6 -382 -1 474 
0 -24 2 -165 0 332 1 -40 1 70 0 300 -1 58 -1 111 
3 -192 -2 233 -5 -152 4246 2057 100 MP stroke
4 94 -1 98 0 6 -9 -157 2 108 -1 -62 -2 -29 -3 -11 
5 137 -3 -78 -2 -125 1 225 -1 54 1 17 -4 -40 7 172 
-6 -96 0 39 2 64 -2 25 -2 119 -4 39 3 17 -3 -99 
1 214 -4 -2 -1 -260 -2 7 -1 -545 -3 -319 1 354 -4 360 
-1 95 -2 -669 0 360 -2 120 2 151 -9 62 -4 -254 5 161 
0 144 -9 -174 8 81 -4 -221 1 -628 -4 722 -5 -151 1 214 
-1 136 -4 27 -1 22 -3 -21 -1 -269 -3 -415 -3 445 -1 258 
-1 100 -1 22 -1 247 -1 178 -3 39 -2 115 -2 -134 -1 -70 
-1 -15 -3 -51 -3 -23 -2 54 -1 113 -2 3 0 -7 -1 -53 
-4 86 1 -72 -2 37 -10 4 5 20 -1 -49 1 -98 -3 1 
-4 65 2 11 0 -59 0 47 -6 13 -1 -84 4 25 -7 -205 
-5 138 2 41 2 41 0 -80 -10 77 0 21 -1 -4 -1 3 
0 -31 -4 -26 -4 89 4388 1006 100 MP stroke
-1 -38 -3 45 -2 31 -3 -42 -3 -5 -1 -16 -2 26 -3 29 
-6 50 1 -82 -4 -107 8 47 -5 19 -4 92 -7 49 -3 81 
-4 58 -11 48 -5 26 -11 -55 7 -6 -10 44 -6 -45 -6 2 
-2 -4 -11 -58 -4 -16 -5 -1 -4 -5 -10 25 -6 1 -4 -63 
-3 -1 -9 -118 -9 51 -1 -4 -5 -17 -15 55 -1 -51 -3 -29 
-10 -108 -11 -4 0 27 -9 84 -4 -22 -9 -45 -5 -43 -8 128 
-5 -117 -10 23 -4 -126 -9 1 -4 -91 -11 144 -2 42 -13 110 
-8 -201 -4 25 -7 42 -3 -82 -16 23 -8 -55 2 5 -9 -25 
-8 5 -6 -21 -5 -10 -7 -25 -8 -46 -8 -7 -3 33 -6 -7 
-9 -58 -7 53 -8 -2 -4 -53 -8 6 -9 23 -5 -53 -6 4 
-7 -8 -8 -19 -6 11 -7 -36 -4 41 -4 65 -6 -16 -6 -8 
-12 -37 -8 9 -8 8 -6 9 -8 10 -10 -23 -8 24 -6 17 
-7 -12 -8 -4 -7 13 4974 1369 100 MP stroke
-10 -7 -7 35 -7 -18 -8 32 -7 8 -10 -10 -4 36 -9 7 
-7 -11 -10 -39 -6 27 -4 48 -11 -27 -9 3 -7 -27 -12 -2 
-3 62 -8 -45 -9 -25 -6 -11 -4 -33 -12 -12 -13 42 -3 -36 
-9 -16 -5 -30 -8 -42 -8 -3 -9 13 -6 16 -9 -1 -6 27 
-9 -5 -9 74 -6 23 -9 -28 -8 20 0 -15 -6 -15 -9 95 
-10 -17 -7 -73 -7 3 -4 -57 -8 -31 -7 -18 -9 60 -9 -1 
-5 15 -9 -34 -9 -36 0 -12 -9 -3 -5 9 -7 72 -4 -15 
-8 -25 -5 -49 -5 24 -3 -33 -8 126 -6 34 -6 -6 -4 -6 
-4 -19 -3 18 -5 -37 -3 21 -9 -23 -5 11 -8 -54 -4 9 
-9 -62 -7 -72 -1 39 -4 8 -4 -7 -5 9 -4 -6 -5 47 
-7 -2 -7 -21 -2 -33 -5 -3 -4 -17 -2 -2 -7 -34 1 -11 
-2 -2 -3 -12 -2 -17 -2 7 -4 -3 -2 36 -3 -102 -2 -88 
-1 -9 2 160 0 66 5562 1537 100 MP stroke
-2 -31 0 19 1 -2 1 11 1 -8 0 24 2 -16 1 3 
2 48 2 16 2 33 1 6 3 -1 0 -147 1 -64 2 -31 
3 16 3 31 2 11 3 17 5 23 3 27 3 58 3 -36 
4 -30 0 -10 2 22 5 9 1 -19 9 7 0 -6 2 11 
4 -12 3 7 3 -72 2 53 5 -69 4 26 7 103 2 -132 
0 11 10 2 4 31 -1 -31 5 63 3 3 4 -4 3 -8 
3 25 7 13 3 39 4 27 6 -21 5 -5 2 2 5 17 
6 64 4 -5 3 -46 4 -32 3 45 6 64 4 1 2 30 
4 0 10 -74 5 78 7 11 10 -21 -2 53 4 -12 4 42 
8 -10 5 -75 8 62 0 106 6 25 5 105 10 -61 2 -62 
9 -10 1 -112 2 -73 10 33 2 174 6 -3 8 -288 5 -124 
7 150 7 10 8 -131 8 -171 5 -232 2 -279 13 756 0 172 
6 182 3 -315 6 102 5178 1349 100 MP stroke
11 -243 9 68 1 169 9 153 4 -52 10 237 2 43 12 120 
2 69 6 -109 6 -100 7 -454 -1 184 12 59 9 -108 2 -128 
12 -35 2 29 6 42 7 -12 5 183 8 1 5 45 7 64 
6 70 10 -65 4 34 4 -35 3 -22 11 66 4 79 2 -9 
6 -118 5 -112 3 -202 8 -128 4 -61 7 234 6 209 2 -16 
5 -69 6 -90 8 64 1 19 5 169 5 79 5 121 7 83 
8 77 2 -101 7 -96 5 -54 3 -32 7 33 4 38 0 62 
8 -160 11 5 3 6 6 64 4 -12 5 -52 5 64 3 -16 
5 -138 9 -85 5 -154 7 -89 3 -112 5 -162 3 326 4 16 
5 123 8 66 3 40 10 -40 4 -89 -1 243 2 5 5 89 
5 -24 6 -25 11 -17 2 -97 2 -20 5 94 0 90 7 -94 
3 106 7 -25 5 -113 3 -84 7 -43 1 97 4 64 2 -11 
9 -44 5 -151 1 219 4655 1037 100 MP stroke
3 117 3 99 7 6 1 -49 7 -31 4 -73 0 -23 3 -97 
2 -33 2 -158 9 111 5 12 1 -130 0 -153 2 -197 1 98 
5 140 3 163 3 -39 2 -1 -1 -68 2 -160 1 8 3 91 
3 -530 1 -69 3 -290 1 430 3 210 -3 -68 -2 3 2 167 
-3 237 3 -130 4 -62 1 -307 2 -219 -8 -349 2 381 -1 -86 
2 -123 2 -110 -2 173 -1 651 -1 -624 -5 261 -5 268 -2 -220 
-1 -108 -3 374 -3 212 2 53 -2 120 -7 -83 -6 -161 -4 -39 
-4 55 -5 96 1 84 -3 -579 -7 257 -9 81 -3 15 -14 -98 
-4 -207 -4 262 -3 35 -8 47 -3 -388 -12 -475 -7 333 -2 512 
-14 190 -5 -19 -4 44 -11 -130 -7 0 -7 -18 -10 -328 -10 323 
-6 47 -9 108 -9 14 -13 128 -7 -15 -7 -118 -8 -287 -6 78 
-8 304 -15 -28 -10 -95 -10 -160 -5 -111 -19 -335 -2 -97 -12 -261 
-8 474 -13 294 -18 -143 4955 1553 100 MP stroke
-8 133 -11 124 -8 60 -9 126 -10 72 -14 -100 -8 -93 -17 12 
-8 -24 -15 4 -10 -252 -12 -1263 -13 0 -13 1092 -10 427 -16 -87 
-13 -147 -12 -74 -14 -241 -16 547 -12 -40 -13 50 -15 -19 -14 9 
-13 -373 -14 199 -13 -54 -17 -40 -14 6 -17 155 -13 -19 -14 -128 
-13 415 -14 66 -12 -21 -22 -73 -14 -12 -18 -322 -11 -29 -19 -11 
-11 277 -17 -268 -21 -412 -21 -300 -12 416 -6 465 -19 -371 -13 41 
-16 72 -12 240 -16 222 -14 136 -15 -94 -12 91 -13 -59 -16 70 
-13 -22 -12 -141 -12 65 -14 -26 -13 -95 -12 136 -11 -33 -13 -217 
-10 -204 -12 199 -13 71 -11 -223 -11 48 -11 -90 -11 -166 -13 11 
-8 294 -13 160 -10 -98 -17 -105 -3 6 -8 -53 -10 -76 -11 -55 
-8 218 -10 -150 -5 253 -8 -249 -6 136 -12 112 -8 -198 -6 -17 
-10 -164 -7 220 -8 -71 -9 -344 0 405 -12 96 -10 -47 1 146 
-14 -8 -4 -12 -12 40 6138 1200 100 MP stroke
0 15 -7 -24 -5 -7 -3 7 -7 6 -5 14 -2 0 -10 -6 
-4 -30 -6 -6 -6 -39 -6 -17 -2 22 -7 -42 -2 14 -7 -41 
-4 14 -3 18 -4 11 -1 -16 -5 -20 1 45 -6 -48 -1 58 
-3 -13 -1 14 -4 17 -3 3 1 -11 -1 14 -2 -1 0 -21 
-1 -2 0 -1 -1 8 5 30 1 25 -1 -26 0 19 -1 -34 
1 11 -1 -25 13 80 1 3 0 -33 1 7 3 -1 0 6 
10 82 6 20 -1 -60 4 -11 1 -31 4 6 6 32 11 65 
3 -21 2 -48 6 -19 16 23 -4 4 10 24 6 -11 1 -10 
19 -11 2 2 -1 -14 5 -48 15 74 7 -18 9 33 6 -62 
10 7 15 25 9 -68 1 12 18 -22 9 26 0 -55 22 77 
6 -42 11 6 9 -60 5 -80 15 90 13 24 18 -39 4 20 
11 -12 8 13 32 31 13 -82 -4 20 11 -27 9 -25 37 -9 
-5 23 7 -44 10 5 5796 1388 100 MP stroke
26 12 6 -20 8 -6 13 -63 13 45 8 -50 16 -22 18 75 
10 -28 17 -41 7 0 16 -10 4 -26 15 41 19 -40 5 -6 
6 24 14 35 13 50 17 63 14 -49 11 -5 2 -3 18 23 
8 -25 19 6 9 33 18 -45 10 -51 5 -47 13 -8 13 26 
15 8 12 16 16 18 2 37 13 -60 8 -90 11 38 19 149 
19 33 1 13 14 17 8 -43 13 91 6 -51 15 46 17 -38 
14 -126 15 -103 3 10 13 14 9 22 11 26 12 64 20 -374 
10 409 14 7 11 -137 12 211 11 -260 24 199 2 67 16 -67 
14 155 10 -242 9 -112 13 4 12 298 10 -72 26 3 8 104 
11 -176 10 165 12 -106 14 -73 11 -50 23 82 8 -20 15 149 
12 -146 12 -15 18 114 17 -129 13 -19 17 53 10 109 17 9 
15 -1030 17 305 20 -101 14 -562 16 878 25 320 -7 -8 41 28 
12 81 6 -18 17 -189 4521 1565 100 MP stroke
18 -474 9 -611 36 341 26 685 -2 173 23 81 12 -59 20 41 
19 -37 21 268 18 -38 21 36 16 137 17 -15 21 74 21 -91 
20 29 23 -109 16 -79 21 -185 19 33 23 -62 25 318 16 -188 
18 -150 18 37 19 173 21 98 35 55 1 49 30 22 22 -58 
1 -92 25 66 16 25 23 2 27 -14 4 68 15 -144 12 -79 
20 -518 13 440 16 -4 16 -156 16 -20 16 319 13 -150 10 73 
15 -83 17 -239 15 -237 10 437 14 -227 11 -94 9 352 19 216 
8 -67 23 -163 3 81 10 3 5 -70 14 -86 9 80 5 -335 
16 180 2 -27 7 320 9 54 7 -37 9 -104 5 59 11 -46 
0 32 6 23 5 52 6 101 5 -80 2 119 5 -58 8 -183 
6 -111 -1 109 10 62 -2 -114 1 -127 3 133 -1 -115 3 80 
2 117 -2 1 2 -217 -4 -61 -2 -260 1 498 -5 188 4 -247 
-8 -318 -7 249 1 204 3364 1211 100 MP stroke
-6 83 0 62 -6 29 -3 -72 -10 -127 -5 56 -6 -151 -8 219 
-10 110 -8 39 -7 27 -10 -132 -12 33 -7 -126 -10 86 -9 -72 
-8 -173 -15 43 -10 114 -12 129 -9 -3 -16 -89 -14 -25 -9 26 
-16 127 -12 -72 -17 -149 -14 -105 -14 -55 -15 -150 -16 9 -15 186 
-18 -52 -14 84 -16 24 -17 -33 -15 260 -19 99 -18 -167 -16 150 
-19 -62 -15 -92 -22 -12 -18 41 -21 -53 -13 210 -28 -281 -14 6 
-21 60 -17 59 -20 27 -21 24 -22 -104 -15 -4 -24 -26 -32 14 
-4 9 -24 -491 -17 -82 -21 -878 -20 813 -21 200 -18 -77 -22 -45 
-22 -193 -20 168 -17 291 -16 249 -26 75 -19 12 -21 -639 -15 208 
-23 94 -24 -160 -13 353 -22 18 -13 -295 -35 -247 -20 -164 -4 -385 
-22 389 -14 318 -20 -145 -22 164 -15 165 -17 140 -19 -64 -18 98 
-20 -53 -15 108 -16 20 -15 -25 -19 -14 -18 175 -16 -57 -16 57 
-13 -85 -17 69 -16 -96 4933 1164 100 MP stroke
-20 -220 -20 -317 -1 42 -20 63 -12 77 -17 115 -14 11 -15 84 
-11 -6 -14 -43 -21 149 -8 15 -10 7 -17 68 -6 13 -21 -7 
-14 -32 -10 6 -8 -18 -14 56 -11 -16 -3 59 -14 -21 -14 -46 
-10 30 -7 0 -9 7 -10 19 -13 13 -8 -18 -6 39 -11 -52 
-12 -13 -5 15 -14 -2 -2 1 -6 6 -10 36 -8 -7 -6 -13 
-7 7 -6 -23 -13 8 -4 18 -8 -5 -1 -10 -5 -1 -10 -1 
-7 -4 4 -3 -7 1 -1 -10 -8 -2 -5 5 -1 -5 -5 3 
-3 -3 -4 -18 -3 -14 -3 19 -1 17 -2 18 -2 -25 -4 -16 
-1 22 0 -10 -5 24 -1 -17 -2 -13 -2 2 -1 23 -2 3 
0 7 -1 4 0 -18 1 3 0 10 2 2 0 10 1 9 
-3 23 2 3 -1 25 8 -33 8 -11 -1 12 7 41 3 16 
0 -5 4 1 1 17 3 5 2 11 0 12 5 -4 2 12 
5 4 3 5 4 8 5450 905 100 MP stroke
3 13 5 6 5 -5 1 6 1 11 3 16 0 2 5 5 
1 2 14 -17 0 6 5 4 4 -1 0 -2 3 -2 3 -3 
2 -8 6 -6 8 -8 -1 14 5 3 3 7 9 -5 1 -2 
1 1 2 -27 4 13 9 21 -3 -21 4 -14 1 7 3 22 
3 9 11 10 9 -22 -2 -7 3 -1 1 16 7 -1 13 12 
0 6 1 -9 -1 -16 4 4 3 -10 10 28 0 9 8 11 
-2 3 6 6 -1 -26 7 17 2 3 4 -13 6 0 2 -5 
7 12 -7 -19 9 0 0 3 2 6 -5 3 7 7 10 -25 
0 5 2 -2 0 8 2 -6 13 -20 3 -1 1 17 1 2 
3 5 10 -10 6 1 1 12 2 -2 3 -5 8 -2 7 -7 
1 21 2 2 5 -6 10 -14 2 22 4 6 3 0 11 -17 
2 6 4 -1 6 11 9 0 7 -11 0 7 6 -3 7 3 
12 -14 1 -6 2 0 5070 855 100 MP stroke
5 -5 12 1 8 -5 1 4 1 -5 5 9 19 22 3 -11 
3 -7 -3 7 11 -20 10 2 4 9 7 4 -1 10 10 -3 
12 -10 6 10 8 5 4 -11 7 -3 5 -1 8 -2 9 12 
13 18 10 15 5 -12 6 1 8 1 8 -4 11 -10 12 17 
10 -1 8 -4 6 -3 7 1 7 -22 22 -16 7 3 3 1 
10 -7 6 -9 20 -26 6 -8 13 -14 8 -11 3 -15 11 -5 
14 -7 9 -5 10 -1 9 -3 10 -2 12 -13 12 -6 12 -2 
9 -6 4 -9 10 1 6 10 32 -13 15 4 -5 -1 12 9 
17 -11 2 15 20 13 17 -48 10 -16 11 -27 12 19 25 10 
1 -3 16 12 12 18 17 7 12 -36 15 -12 24 -41 19 55 
9 58 20 -12 8 -88 38 56 13 -65 24 14 8 125 16 -88 
20 48 18 -53 24 -14 18 -115 19 -88 18 -16 26 -1 19 -334 
18 -66 19 -42 21 -10 3939 1733 100 MP stroke
17 -200 25 -131 21 -91 23 399 18 -216 18 176 23 87 25 -648 
18 63 21 -99 21 81 23 409 20 210 31 95 9 -642 12 -66 
24 -75 17 468 23 -1312 19 1225 17 -115 16 21 40 -179 7 342 
14 -365 21 884 13 -183 21 13 25 -328 10 -19 19 173 16 -166 
16 130 28 144 9 -360 22 474 10 -373 16 261 13 -725 22 11 
26 2 2 -628 22 757 16 412 22 250 15 252 21 -74 17 9 
26 225 28 50 17 33 21 -171 20 27 19 186 23 57 22 -104 
20 -88 19 -253 19 86 22 -60 25 174 17 -79 19 23 22 47 
21 -338 22 -22 22 64 20 119 19 116 20 47 25 77 24 42 
15 -169 22 104 15 -114 20 9 20 -18 5 -660 21 -13 21 151 
18 231 20 -54 18 -760 22 867 14 -360 30 -719 17 -77 6 354 
23 238 16 259 19 -34 15 47 17 -408 16 314 18 157 15 -62 
15 -83 16 126 16 -91 2053 1887 100 MP stroke
16 7 12 31 27 300 23 240 7 -84 18 -267 10 11 24 196 
12 -148 6 31 11 -529 8 45 11 -37 9 172 16 138 10 -1 
15 -227 10 -597 11 708 9 280 8 -8 11 -940 5 639 15 -4 
7 184 12 -733 6 148 8 311 4 318 -1 -288 11 -36 9 19 
2 -232 4 341 -1 -122 9 -200 1 165 -10 69 9 44 -3 519 
2 -1 -3 6 -1 47 3 -46 -4 0 -14 -241 12 -40 -36 -668 
24 615 -1 180 -17 215 -19 180 6 -12 -22 -124 -19 191 -6 -7 
-11 -105 -9 -51 -10 -215 -13 81 -12 -75 -15 -117 -13 254 -17 50 
-14 -478 -18 40 -14 124 -23 -169 -8 186 -16 -64 -26 83 -16 -194 
-17 534 -18 79 -29 -474 -26 -148 -21 145 -18 304 -21 134 -15 -273 
-36 -238 -25 369 -19 10 -23 -41 -21 -75 -34 171 -22 -481 -21 420 
-22 -167 -28 102 -23 32 -27 -5 -19 -138 -26 159 -20 127 -36 -178 
-27 291 -6 -84 -26 -15 2638 1219 100 MP stroke
-17 -234 -28 -143 -26 -56 -19 389 -19 -503 -18 233 -22 -184 -27 100 
-24 -12 -18 28 -19 236 -22 -51 -18 170 -30 130 -17 49 -17 -246 
-18 -482 -20 -360 -21 -57 -20 -264 -19 494 -18 175 -30 -54 -9 518 
-12 116 -29 -174 -22 -87 -5 -418 -18 376 -16 -96 -24 144 -12 -64 
-17 202 -15 -78 -19 -47 -16 101 -18 -55 -14 203 -19 -46 -13 26 
-25 -27 -20 80 0 -19 -21 22 -8 94 -30 -401 -10 -135 -16 312 
-12 15 -22 -160 -14 -184 -20 56 -12 83 -14 -162 -10 21 -27 -129 
-14 -15 -19 24 -14 -19 -4 25 -21 -61 -11 37 -16 -47 -11 -7 
-19 -74 -10 -61 -24 93 -2 -77 -20 -68 -15 -41 -25 -8 -4 -68 
-25 -26 -7 -103 -10 142 -14 71 -18 17 -19 -10 -2 -86 -20 -69 
-8 28 -16 38 -9 -102 -19 69 -14 -112 -10 -15 -15 -70 0 -28 
-16 126 -21 -101 -5 71 -1 77 -26 -171 -8 81 -6 61 -17 -92 
-24 169 2 14 -7 57 4228 2105 100 MP stroke
-12 -53 -8 52 -8 74 -14 -4 -10 -38 6 35 -15 25 -5 -24 
-5 8 -3 4 -21 65 -7 -25 2 -36 0 17 -3 -8 -7 -8 
-5 -40 -8 -94 4 26 -11 -22 1 76 -1 46 -5 -35 -6 -5 
2 8 -5 -74 0 -125 -1 -97 0 -19 3 93 2 57 0 77 
-1 91 1 83 -1 -57 1 41 0 -11 0 90 1 28 4 27 
3 -35 6 14 0 34 1 -3 2 65 1 34 3 74 4 -3 
4 -20 0 51 1 19 2 21 3 22 0 -19 1 -3 -2 -22 
0 -35 0 31 12 124 1 -19 1 11 -1 -14 3 25 -2 -51 
2 3 0 5 -2 -7 1 63 -1 19 3 1 0 16 -1 -24 
-5 -91 4 16 3 32 4 40 -1 -41 1 18 -1 2 1 32 
2 -21 2 16 1 19 1 8 0 17 2 36 0 6 1 37 
-4 -39 12 107 -2 -36 -2 -36 3 21 0 -48 1 -8 -1 3 
1 20 -1 -11 1 24 4295 1357 100 MP stroke
1 4 0 4 -1 -17 2 -24 2 -21 0 1 0 -7 2 19 
0 3 4 22 2 8 1 -38 -1 -44 1 2 3 -17 4 0 
1 27 -4 -33 9 97 4 -3 -3 -55 3 21 -4 -186 8 49 
7 53 -1 -99 2 -36 9 141 4 17 -2 -17 8 89 6 67 
-1 -58 1 -39 -3 -110 10 143 4 -20 -2 -120 2 143 7 9 
1 44 6 -103 0 183 3 -44 1 62 -1 -29 4 35 4 12 
5 12 -4 -65 5 8 11 60 -3 -96 3 3 1 -39 8 18 
0 23 3 -3 3 -47 7 31 0 -58 4 -66 7 -104 3 -29 
0 -96 6 79 8 106 -1 -111 8 91 8 86 2 -46 -1 -74 
3 -53 9 88 4 31 2 -7 1 -52 11 65 4 -42 2 -15 
5 9 0 11 6 5 6 53 4 29 2 33 7 26 0 -27 
6 17 2 -9 2 -23 8 34 3 -9 5 34 4 -4 8 -20 
-2 27 5 21 3 -18 3999 1335 100 MP stroke
1 -7 2 -2 2 -2 0 -56 -1 -79 14 141 4 -3 0 -24 
1 -27 2 3 2 -49 0 -3 6 22 5 -20 3 -26 1 20 
2 -42 4 49 -1 -61 6 40 2 65 8 19 2 5 9 -19 
0 25 3 -8 4 -5 1 4 16 121 2 -22 3 -17 3 -3 
1 -31 -2 -44 7 30 7 2 2 15 6 56 2 -74 4 28 
3 6 4 34 6 43 5 15 -4 -42 11 -12 1 20 17 -17 
13 8 -5 12 3 -12 -2 4 3 -7 5 -15 5 -6 -1 -41 
5 -18 6 46 8 10 3 45 12 43 -2 -62 9 -49 2 4 
6 7 10 16 3 17 8 16 2 -30 7 -5 5 -35 6 4 
11 -9 1 -27 10 5 3 8 13 -13 4 13 5 35 8 13 
10 11 6 47 8 10 5 -7 8 25 8 -29 18 -67 2 -27 
10 -40 6 70 15 56 9 -38 4 -55 12 194 9 95 13 -43 
17 -98 7 -131 12 -70 3478 1387 100 MP stroke
14 61 13 212 13 142 12 -77 16 -146 11 -255 16 150 14 -271 
14 -303 15 -82 15 504 16 202 15 140 12 -83 15 -241 16 -44 
17 -166 15 -216 14 241 17 126 13 306 16 -293 18 124 17 62 
14 -211 13 -431 13 435 18 -128 12 112 25 227 10 77 7 -139 
16 15 11 29 16 7 11 77 16 93 11 45 15 -177 11 -306 
14 233 7 -102 6 -26 20 157 17 0 11 -304 13 308 7 -252 
4 -135 23 324 12 30 14 -11 10 -22 12 -109 8 -19 11 -286 
11 402 13 126 13 56 13 -87 7 33 8 157 9 55 9 -109 
9 -33 8 -116 9 1 9 170 7 -203 6 -28 4 -31 6 110 
4 6 4 -11 8 -74 7 -226 3 206 2 21 2 -280 5 -178 
2 97 2 191 3 -50 5 143 5 51 2 155 0 -254 3 205 
2 -6 1 -248 4 120 4 -119 3 -89 1 72 2 39 3 -181 
4 54 6 225 2 -13 2486 1424 100 MP stroke
3 143 2 97 4 -40 3 -203 4 150 7 52 6 -218 4 -87 
5 58 5 -38 4 150 9 -22 7 -196 6 -61 9 125 5 81 
7 -560 4 91 12 -63 4 93 4 82 8 76 5 170 8 -125 
7 85 6 -101 5 -179 7 95 0 -54 7 -161 5 88 3 -101 
-1 214 3 7 0 99 1 -59 -2 -64 -3 167 0 -113 -2 14 
-5 -419 -5 416 -5 164 -6 -126 -6 -256 -8 186 -6 -44 -9 -74 
-17 156 -3 -81 -6 -259 -11 32 -5 105 -13 4 -10 195 -17 -200 
-17 143 -24 -510 -20 359 -16 -257 -5 368 -17 44 -15 -271 -15 216 
-14 69 0 -351 -15 -680 -22 -43 -14 -172 -18 345 -14 -236 -12 624 
-14 -144 -22 -52 -40 -353 6 109 -8 49 -11 60 -20 -335 -13 -197 
-17 190 -10 90 -27 388 -25 190 6 -20 -13 -321 -17 -289 -25 -1463 
-8 603 -22 544 0 38 -16 637 -13 -26 -18 -334 -13 -346 -25 446 
-1 -199 -16 186 -9 50 3076 2784 100 MP stroke
-16 262 -6 -578 -23 530 -3 -19 -13 -48 -10 40 -12 -18 -9 -71 
-14 213 -8 -162 -9 43 -11 160 -9 -66 -14 102 -8 82 -3 15 
-10 0 -4 39 -12 -141 -17 182 -1 -40 -8 12 -6 24 -6 91 
-7 36 -5 -18 -7 56 -1 230 -5 -147 -8 -89 -7 -49 -4 12 
-3 117 -4 48 -2 57 -5 18 -3 11 -3 12 -4 -23 -3 -20 
-3 5 -1 28 -1 51 -2 47 1 30 -4 41 -1 11 0 54 
-2 -28 -5 -78 1 4 2 -40 5 -2 0 22 1 31 4 -35 
-1 25 2 58 1 20 3 33 1 -5 -9 -278 5 60 6 77 
0 19 3 -57 1 31 3 -26 6 53 1 -14 6 14 -2 -66 
2 -51 6 -160 2 -110 -1 38 2 84 8 117 4 -109 2 34 
6 55 -3 -73 3 44 -2 -73 4 156 -9 78 0 -30 17 -82 
-4 43 9 -152 0 56 -10 43 -3 -7 -1 31 -1 13 1 -3 
-1 10 1 -71 -5 64 3331 1851 100 MP stroke
9 -158 11 132 -6 84 5 -107 -1 -56 -4 -18 1 -160 0 -109 
-3 109 -11 220 -8 11 3 -18 -5 -66 -7 -57 0 82 -7 -37 
-7 5 2 -196 -7 -25 -3 64 -9 -107 1 -106 -11 237 -5 98 
-2 -61 -4 -27 -4 88 -4 -55 -3 -39 -4 -19 -3 -87 -3 -4 
-3 62 -3 14 -4 154 1 -64 0 -33 -6 35 0 -149 -4 -5 
-2 -52 3 23 -5 -34 6 77 1 19 -3 -129 0 203 -1 5 
0 -8 -1 101 -2 -6 1 1 -1 -82 0 12 1 -168 -3 -257 
1 -1730 -1 1879 -2 675 -1 -121 0 -118 -1 -168 -3 299 0 191 
-1 -55 -1 -54 0 -501 -1 -443 0 453 -2 -42 -2 -305 -2 559 
-2 211 0 172 -1 84 -4 -178 -1 11 -3 -193 0 251 -4 -245 
-3 111 -2 411 -1 131 -2 123 -4 -50 -3 -336 -2 -496 -1 -95 
-3 205 -3 38 -4 10 1 29 -3 -135 -7 177 -5 55 0 -37 
-2 -199 -7 353 -4 -15 3531 1602 100 MP stroke
-1 164 -5 -282 -5 131 -4 50 -6 25 -1 34 -7 -6 -3 -105 
-9 64 -5 230 -3 -19 -8 38 -9 -104 -5 26 -6 -61 -9 -29 
-10 -57 -12 -50 -6 -85 -10 317 -12 158 -9 95 -10 -34 -12 -62 
-12 16 -9 38 -12 -59 -11 -86 -14 -60 3756 1315 30 MP stroke
gr

c8
0 sg
%%IncludeResource: font Helvetica
/Helvetica /WindowsLatin1Encoding 120 FMSR

1784  294 mt 
(Digital magnetometers - RMSE of orientation - function of d\
istance) s
2502 4939 mt 
(Distance to center of sensor network [m]) s
 558 2912 mt  -90 rotate
(RMSE [degree]) s
90 rotate

end %%Color Dict

eplot
%%EndObject

epage
end

showpage

%%Trailer
%%EOF
