%!PS-Adobe-2.0 EPSF-1.2
%%Creator: MATLAB, The MathWorks, Inc. Version 7.13.0.564 (R2011b). Operating System: Microsoft Windows 7.
%%Title: ..\figures\digital_all_pos_rmse.eps
%%CreationDate: 11/13/2012  17:43:56
%%DocumentNeededFonts: Helvetica
%%DocumentProcessColors: Cyan Magenta Yellow Black
%%Extensions: CMYK
%%Pages: 1
%%BoundingBox:    52   196   542   602
%%EndComments

%%BeginProlog
% MathWorks dictionary
/MathWorks 160 dict begin
% definition operators
/bdef {bind def} bind def
/ldef {load def} bind def
/xdef {exch def} bdef
/xstore {exch store} bdef
% operator abbreviations
/c  /clip ldef
/cc /concat ldef
/cp /closepath ldef
/gr /grestore ldef
/gs /gsave ldef
/mt /moveto ldef
/np /newpath ldef
/cm /currentmatrix ldef
/sm /setmatrix ldef
/rm /rmoveto ldef
/rl /rlineto ldef
/s {show newpath} bdef
/sc {setcmykcolor} bdef
/sr /setrgbcolor ldef
/sg /setgray ldef
/w /setlinewidth ldef
/j /setlinejoin ldef
/cap /setlinecap ldef
/rc {rectclip} bdef
/rf {rectfill} bdef
% page state control
/pgsv () def
/bpage {/pgsv save def} bdef
/epage {pgsv restore} bdef
/bplot /gsave ldef
/eplot {stroke grestore} bdef
% orientation switch
/portraitMode 0 def /landscapeMode 1 def /rotateMode 2 def
% coordinate system mappings
/dpi2point 0 def
% font control
/FontSize 0 def
/FMS {/FontSize xstore findfont [FontSize 0 0 FontSize neg 0 0]
  makefont setfont} bdef
/ISOLatin1Encoding where {pop /WindowsLatin1Encoding 256 array bdef
ISOLatin1Encoding WindowsLatin1Encoding copy pop
/.notdef/.notdef/quotesinglbase/florin/quotedblbase/ellipsis/dagger
/daggerdbl/circumflex/perthousand/Scaron/guilsinglleft/OE/.notdef/.notdef
/.notdef/.notdef/quoteleft/quoteright/quotedblleft/quotedblright/bullet
/endash/emdash/tilde/trademark/scaron/guilsinglright/oe/.notdef/.notdef
/Ydieresis WindowsLatin1Encoding 128 32 getinterval astore pop}
{/WindowsLatin1Encoding StandardEncoding bdef} ifelse
/reencode {exch dup where {pop load} {pop StandardEncoding} ifelse
  exch dup 3 1 roll findfont dup length dict begin
  { 1 index /FID ne {def}{pop pop} ifelse } forall
  /Encoding exch def currentdict end definefont pop} bdef
/isroman {findfont /CharStrings get /Agrave known} bdef
/FMSR {3 1 roll 1 index dup isroman {reencode} {pop pop} ifelse
  exch FMS} bdef
/csm {1 dpi2point div -1 dpi2point div scale neg translate
 dup landscapeMode eq {pop -90 rotate}
  {rotateMode eq {90 rotate} if} ifelse} bdef
% line types: solid, dotted, dashed, dotdash
/SO { [] 0 setdash } bdef
/DO { [.5 dpi2point mul 4 dpi2point mul] 0 setdash } bdef
/DA { [6 dpi2point mul] 0 setdash } bdef
/DD { [.5 dpi2point mul 4 dpi2point mul 6 dpi2point mul 4
  dpi2point mul] 0 setdash } bdef
% macros for lines and objects
/L {lineto stroke} bdef
/MP {3 1 roll moveto 1 sub {rlineto} repeat} bdef
/AP {{rlineto} repeat} bdef
/PDlw -1 def
/W {/PDlw currentlinewidth def setlinewidth} def
/PP {closepath eofill} bdef
/DP {closepath stroke} bdef
/MR {4 -2 roll moveto dup  0 exch rlineto exch 0 rlineto
  neg 0 exch rlineto closepath} bdef
/FR {MR stroke} bdef
/PR {MR fill} bdef
/L1i {{currentfile picstr readhexstring pop} image} bdef
/tMatrix matrix def
/MakeOval {newpath tMatrix currentmatrix pop translate scale
0 0 1 0 360 arc tMatrix setmatrix} bdef
/FO {MakeOval stroke} bdef
/PO {MakeOval fill} bdef
/PD {currentlinewidth 2 div 0 360 arc fill
   PDlw -1 eq not {PDlw w /PDlw -1 def} if} def
/FA {newpath tMatrix currentmatrix pop translate scale
  0 0 1 5 -2 roll arc tMatrix setmatrix stroke} bdef
/PA {newpath tMatrix currentmatrix pop	translate 0 0 moveto scale
  0 0 1 5 -2 roll arc closepath tMatrix setmatrix fill} bdef
/FAn {newpath tMatrix currentmatrix pop translate scale
  0 0 1 5 -2 roll arcn tMatrix setmatrix stroke} bdef
/PAn {newpath tMatrix currentmatrix pop translate 0 0 moveto scale
  0 0 1 5 -2 roll arcn closepath tMatrix setmatrix fill} bdef
/vradius 0 def /hradius 0 def /lry 0 def
/lrx 0 def /uly 0 def /ulx 0 def /rad 0 def
/MRR {/vradius xdef /hradius xdef /lry xdef /lrx xdef /uly xdef
  /ulx xdef newpath tMatrix currentmatrix pop ulx hradius add uly
  vradius add translate hradius vradius scale 0 0 1 180 270 arc 
  tMatrix setmatrix lrx hradius sub uly vradius add translate
  hradius vradius scale 0 0 1 270 360 arc tMatrix setmatrix
  lrx hradius sub lry vradius sub translate hradius vradius scale
  0 0 1 0 90 arc tMatrix setmatrix ulx hradius add lry vradius sub
  translate hradius vradius scale 0 0 1 90 180 arc tMatrix setmatrix
  closepath} bdef
/FRR {MRR stroke } bdef
/PRR {MRR fill } bdef
/MlrRR {/lry xdef /lrx xdef /uly xdef /ulx xdef /rad lry uly sub 2 div def
  newpath tMatrix currentmatrix pop ulx rad add uly rad add translate
  rad rad scale 0 0 1 90 270 arc tMatrix setmatrix lrx rad sub lry rad
  sub translate rad rad scale 0 0 1 270 90 arc tMatrix setmatrix
  closepath} bdef
/FlrRR {MlrRR stroke } bdef
/PlrRR {MlrRR fill } bdef
/MtbRR {/lry xdef /lrx xdef /uly xdef /ulx xdef /rad lrx ulx sub 2 div def
  newpath tMatrix currentmatrix pop ulx rad add uly rad add translate
  rad rad scale 0 0 1 180 360 arc tMatrix setmatrix lrx rad sub lry rad
  sub translate rad rad scale 0 0 1 0 180 arc tMatrix setmatrix
  closepath} bdef
/FtbRR {MtbRR stroke } bdef
/PtbRR {MtbRR fill } bdef
/stri 6 array def /dtri 6 array def
/smat 6 array def /dmat 6 array def
/tmat1 6 array def /tmat2 6 array def /dif 3 array def
/asub {/ind2 exch def /ind1 exch def dup dup
  ind1 get exch ind2 get sub exch } bdef
/tri_to_matrix {
  2 0 asub 3 1 asub 4 0 asub 5 1 asub
  dup 0 get exch 1 get 7 -1 roll astore } bdef
/compute_transform {
  dmat dtri tri_to_matrix tmat1 invertmatrix 
  smat stri tri_to_matrix tmat2 concatmatrix } bdef
/ds {stri astore pop} bdef
/dt {dtri astore pop} bdef
/db {2 copy /cols xdef /rows xdef mul dup 3 mul string
  currentfile exch readhexstring pop
  dup 0 3 index getinterval /rbmap xdef
  dup 2 index dup getinterval /gbmap xdef
  1 index dup 2 mul exch getinterval /bbmap xdef pop pop}bdef
/it {gs np dtri aload pop moveto lineto lineto cp c
  cols rows 8 compute_transform 
  rbmap gbmap bbmap true 3 colorimage gr}bdef
/il {newpath moveto lineto stroke}bdef
currentdict end def
%%EndProlog

%%BeginSetup
MathWorks begin

0 cap

end
%%EndSetup

%%Page: 1 1
%%BeginPageSetup
%%PageBoundingBox:    52   196   542   602
MathWorks begin
bpage
%%EndPageSetup

%%BeginObject: obj1
bplot

/dpi2point 12 def
portraitMode 0204 7344 csm

  422   110  5883  4881 MR c np
85 dict begin %Colortable dictionary
/c0 { 0.000000 0.000000 0.000000 sr} bdef
/c1 { 1.000000 1.000000 1.000000 sr} bdef
/c2 { 0.900000 0.000000 0.000000 sr} bdef
/c3 { 0.000000 0.820000 0.000000 sr} bdef
/c4 { 0.000000 0.000000 0.800000 sr} bdef
/c5 { 0.910000 0.820000 0.320000 sr} bdef
/c6 { 1.000000 0.260000 0.820000 sr} bdef
/c7 { 0.000000 0.820000 0.820000 sr} bdef
c0
1 j
1 sg
   0    0 6913 5185 PR
6 w
0 4225 5356 0 0 -4225 899 4614 4 MP
PP
-5356 0 0 4225 5356 0 0 -4225 899 4614 5 MP stroke
4 w
DO
SO
6 w
0 sg
 899  389 mt 6255  389 L
 899 4614 mt 6255 4614 L
6255 4614 mt 6255  389 L
 899 4614 mt  899  389 L
 899 4614 mt 6255 4614 L
 899 4614 mt  899  389 L
 899 4614 mt  899 4614 L
 899 4614 mt  899 4614 L
 899 4614 mt  899 4614 L
 899 4614 mt  899 4614 L
 899 4614 mt  899 4614 L
 899 4614 mt  899 4614 L
 899 4614 mt  899 4614 L
 899 4614 mt  899 4614 L
 899 4614 mt  899 4614 L
 899 4614 mt  899 4614 L
 899 4614 mt  899 4614 L
 899 4614 mt  899 4614 L
 899 4614 mt  899 4614 L
 899 4614 mt  899 4614 L
 899 4614 mt  899 4614 L
 899 4614 mt  899 4614 L
 899 4614 mt  899 4614 L
 899 4614 mt  899 4614 L
1168 4614 mt 1168 4560 L
1168  389 mt 1168  442 L
%%IncludeResource: font Helvetica
/Helvetica /WindowsLatin1Encoding 120 FMSR

1023 4796 mt 
(10) s
%%IncludeResource: font Helvetica
/Helvetica /WindowsLatin1Encoding 80 FMSR

1156 4722 mt 
(-0.9) s
 899 4614 mt  899 4614 L
 899 4614 mt  899 4614 L
 899 4614 mt  899 4614 L
 899 4614 mt  899 4614 L
 899 4614 mt  899 4614 L
 899 4614 mt  899 4614 L
 899 4614 mt  899 4614 L
 899 4614 mt  899 4614 L
 899 4614 mt  899 4614 L
 899 4614 mt  899 4614 L
 899 4614 mt  899 4614 L
 899 4614 mt  899 4614 L
 899 4614 mt  899 4614 L
 899 4614 mt  899 4614 L
 899 4614 mt  899 4614 L
 899 4614 mt  899 4614 L
 899 4614 mt  899 4614 L
 899 4614 mt  899 4614 L
2215 4614 mt 2215 4560 L
2215  389 mt 2215  442 L
%%IncludeResource: font Helvetica
/Helvetica /WindowsLatin1Encoding 120 FMSR

2070 4796 mt 
(10) s
%%IncludeResource: font Helvetica
/Helvetica /WindowsLatin1Encoding 80 FMSR

2203 4722 mt 
(-0.7) s
 899 4614 mt  899 4614 L
 899 4614 mt  899 4614 L
 899 4614 mt  899 4614 L
 899 4614 mt  899 4614 L
 899 4614 mt  899 4614 L
 899 4614 mt  899 4614 L
 899 4614 mt  899 4614 L
 899 4614 mt  899 4614 L
 899 4614 mt  899 4614 L
 899 4614 mt  899 4614 L
 899 4614 mt  899 4614 L
 899 4614 mt  899 4614 L
 899 4614 mt  899 4614 L
 899 4614 mt  899 4614 L
 899 4614 mt  899 4614 L
 899 4614 mt  899 4614 L
 899 4614 mt  899 4614 L
 899 4614 mt  899 4614 L
3262 4614 mt 3262 4560 L
3262  389 mt 3262  442 L
%%IncludeResource: font Helvetica
/Helvetica /WindowsLatin1Encoding 120 FMSR

3117 4796 mt 
(10) s
%%IncludeResource: font Helvetica
/Helvetica /WindowsLatin1Encoding 80 FMSR

3250 4722 mt 
(-0.5) s
 899 4614 mt  899 4614 L
 899 4614 mt  899 4614 L
 899 4614 mt  899 4614 L
 899 4614 mt  899 4614 L
 899 4614 mt  899 4614 L
 899 4614 mt  899 4614 L
 899 4614 mt  899 4614 L
 899 4614 mt  899 4614 L
 899 4614 mt  899 4614 L
 899 4614 mt  899 4614 L
 899 4614 mt  899 4614 L
 899 4614 mt  899 4614 L
 899 4614 mt  899 4614 L
 899 4614 mt  899 4614 L
 899 4614 mt  899 4614 L
 899 4614 mt  899 4614 L
 899 4614 mt  899 4614 L
 899 4614 mt  899 4614 L
4308 4614 mt 4308 4560 L
4308  389 mt 4308  442 L
%%IncludeResource: font Helvetica
/Helvetica /WindowsLatin1Encoding 120 FMSR

4163 4796 mt 
(10) s
%%IncludeResource: font Helvetica
/Helvetica /WindowsLatin1Encoding 80 FMSR

4296 4722 mt 
(-0.3) s
 899 4614 mt  899 4614 L
 899 4614 mt  899 4614 L
 899 4614 mt  899 4614 L
 899 4614 mt  899 4614 L
 899 4614 mt  899 4614 L
 899 4614 mt  899 4614 L
 899 4614 mt  899 4614 L
 899 4614 mt  899 4614 L
 899 4614 mt  899 4614 L
 899 4614 mt  899 4614 L
 899 4614 mt  899 4614 L
 899 4614 mt  899 4614 L
 899 4614 mt  899 4614 L
 899 4614 mt  899 4614 L
 899 4614 mt  899 4614 L
 899 4614 mt  899 4614 L
 899 4614 mt  899 4614 L
 899 4614 mt  899 4614 L
5355 4614 mt 5355 4560 L
5355  389 mt 5355  442 L
%%IncludeResource: font Helvetica
/Helvetica /WindowsLatin1Encoding 120 FMSR

5210 4796 mt 
(10) s
%%IncludeResource: font Helvetica
/Helvetica /WindowsLatin1Encoding 80 FMSR

5343 4722 mt 
(-0.1) s
 899 4614 mt  899 4614 L
 899 4614 mt  899 4614 L
 899 4614 mt  899 4614 L
 899 4614 mt  899 4614 L
 899 4614 mt  899 4614 L
 899 4614 mt  899 4614 L
 899 4614 mt  899 4614 L
 899 4614 mt  899 4614 L
 899 4614 mt  899 4614 L
 899 4614 mt  899 4614 L
 899 4614 mt  899 4614 L
 899 4614 mt  899 4614 L
 899 4614 mt  899 4614 L
 899 4614 mt  899 4614 L
 899 4614 mt  899 4614 L
 899 4614 mt  899 4614 L
 899 4614 mt  899 4614 L
 899 4614 mt  899 4614 L
 899 4614 mt  925 4614 L
6255 4614 mt 6228 4614 L
 899 4614 mt  952 4614 L
6255 4614 mt 6201 4614 L
%%IncludeResource: font Helvetica
/Helvetica /WindowsLatin1Encoding 120 FMSR

 640 4658 mt 
(10) s
%%IncludeResource: font Helvetica
/Helvetica /WindowsLatin1Encoding 80 FMSR

 773 4584 mt 
(-1) s
 899 4359 mt  925 4359 L
6255 4359 mt 6228 4359 L
 899 4210 mt  925 4210 L
6255 4210 mt 6228 4210 L
 899 4105 mt  925 4105 L
6255 4105 mt 6228 4105 L
 899 4023 mt  925 4023 L
6255 4023 mt 6228 4023 L
 899 3956 mt  925 3956 L
6255 3956 mt 6228 3956 L
 899 3899 mt  925 3899 L
6255 3899 mt 6228 3899 L
 899 3850 mt  925 3850 L
6255 3850 mt 6228 3850 L
 899 3807 mt  925 3807 L
6255 3807 mt 6228 3807 L
 899 3769 mt  925 3769 L
6255 3769 mt 6228 3769 L
 899 3769 mt  952 3769 L
6255 3769 mt 6201 3769 L
%%IncludeResource: font Helvetica
/Helvetica /WindowsLatin1Encoding 120 FMSR

 640 3813 mt 
(10) s
%%IncludeResource: font Helvetica
/Helvetica /WindowsLatin1Encoding 80 FMSR

 773 3739 mt 
(0) s
 899 3514 mt  925 3514 L
6255 3514 mt 6228 3514 L
 899 3365 mt  925 3365 L
6255 3365 mt 6228 3365 L
 899 3260 mt  925 3260 L
6255 3260 mt 6228 3260 L
 899 3178 mt  925 3178 L
6255 3178 mt 6228 3178 L
 899 3111 mt  925 3111 L
6255 3111 mt 6228 3111 L
 899 3054 mt  925 3054 L
6255 3054 mt 6228 3054 L
 899 3005 mt  925 3005 L
6255 3005 mt 6228 3005 L
 899 2962 mt  925 2962 L
6255 2962 mt 6228 2962 L
 899 2924 mt  925 2924 L
6255 2924 mt 6228 2924 L
 899 2924 mt  952 2924 L
6255 2924 mt 6201 2924 L
%%IncludeResource: font Helvetica
/Helvetica /WindowsLatin1Encoding 120 FMSR

 640 2968 mt 
(10) s
%%IncludeResource: font Helvetica
/Helvetica /WindowsLatin1Encoding 80 FMSR

 773 2894 mt 
(1) s
 899 2669 mt  925 2669 L
6255 2669 mt 6228 2669 L
 899 2520 mt  925 2520 L
6255 2520 mt 6228 2520 L
 899 2415 mt  925 2415 L
6255 2415 mt 6228 2415 L
 899 2333 mt  925 2333 L
6255 2333 mt 6228 2333 L
 899 2266 mt  925 2266 L
6255 2266 mt 6228 2266 L
 899 2209 mt  925 2209 L
6255 2209 mt 6228 2209 L
 899 2160 mt  925 2160 L
6255 2160 mt 6228 2160 L
 899 2117 mt  925 2117 L
6255 2117 mt 6228 2117 L
 899 2079 mt  925 2079 L
6255 2079 mt 6228 2079 L
 899 2079 mt  952 2079 L
6255 2079 mt 6201 2079 L
%%IncludeResource: font Helvetica
/Helvetica /WindowsLatin1Encoding 120 FMSR

 640 2123 mt 
(10) s
%%IncludeResource: font Helvetica
/Helvetica /WindowsLatin1Encoding 80 FMSR

 773 2049 mt 
(2) s
 899 1824 mt  925 1824 L
6255 1824 mt 6228 1824 L
 899 1675 mt  925 1675 L
6255 1675 mt 6228 1675 L
 899 1570 mt  925 1570 L
6255 1570 mt 6228 1570 L
 899 1488 mt  925 1488 L
6255 1488 mt 6228 1488 L
 899 1421 mt  925 1421 L
6255 1421 mt 6228 1421 L
 899 1364 mt  925 1364 L
6255 1364 mt 6228 1364 L
 899 1315 mt  925 1315 L
6255 1315 mt 6228 1315 L
 899 1272 mt  925 1272 L
6255 1272 mt 6228 1272 L
 899 1234 mt  925 1234 L
6255 1234 mt 6228 1234 L
 899 1234 mt  952 1234 L
6255 1234 mt 6201 1234 L
%%IncludeResource: font Helvetica
/Helvetica /WindowsLatin1Encoding 120 FMSR

 640 1278 mt 
(10) s
%%IncludeResource: font Helvetica
/Helvetica /WindowsLatin1Encoding 80 FMSR

 773 1204 mt 
(3) s
 899  979 mt  925  979 L
6255  979 mt 6228  979 L
 899  830 mt  925  830 L
6255  830 mt 6228  830 L
 899  725 mt  925  725 L
6255  725 mt 6228  725 L
 899  643 mt  925  643 L
6255  643 mt 6228  643 L
 899  576 mt  925  576 L
6255  576 mt 6228  576 L
 899  519 mt  925  519 L
6255  519 mt 6228  519 L
 899  470 mt  925  470 L
6255  470 mt 6228  470 L
 899  427 mt  925  427 L
6255  427 mt 6228  427 L
 899  389 mt  925  389 L
6255  389 mt 6228  389 L
 899  389 mt  952  389 L
6255  389 mt 6201  389 L
%%IncludeResource: font Helvetica
/Helvetica /WindowsLatin1Encoding 120 FMSR

 640  433 mt 
(10) s
%%IncludeResource: font Helvetica
/Helvetica /WindowsLatin1Encoding 80 FMSR

 773  359 mt 
(4) s
 899  389 mt 6255  389 L
 899 4614 mt 6255 4614 L
6255 4614 mt 6255  389 L
 899 4614 mt  899  389 L
gs 899 389 5357 4226 MR c np
/c8 { 0.000000 0.000000 1.000000 sr} bdef
c8
16 64 9 -27 22 78 14 -29 18 -14 17 18 18 -65 14 27 
16 116 13 0 16 -4 9 -3 13 57 7 25 11 33 4 -27 
6 41 1 4 -5 9 0 79 -2 -25 -3 -28 -6 -54 0 -13 
-6 -11 -8 -53 -12 2 -11 51 -10 60 -12 12 -14 11 -14 9 
-11 -2 -10 -45 -11 14 -9 24 -14 16 -7 -19 -9 -17 -6 -70 
-7 76 -3 -15 -6 36 -4 21 -2 1 1 -74 -1 -24 -3 86 
3 -32 3 17 0 39 2 10 5 -51 2 29 5 14 -1 -24 
1 15 -2 -11 3 43 -2 25 4 -59 -1 31 2 -20 -5 -29 
-2 -18 -8 8 -1 40 -4 18 -6 8 -7 -27 -4 -36 -7 -14 
-9 -147 -8 131 -8 83 -7 20 -7 -17 -7 -5 -6 34 -5 -20 
-9 3 -3 -28 -3 -41 -7 -2 -4 25 -6 15 3 38 -7 -111 
-8 -101 -5 64 -6 143 -5 -8 -6 3 -7 -9 -6 -6 -8 22 
-8 5 -8 45 -7 23 1999 2939 100 MP stroke
-8 17 -11 -77 -10 11 -10 76 -11 10 -10 -7 -11 -12 -12 6 
-11 -12 -11 -43 -10 9 -8 -26 -9 19 -8 9 -11 9 -9 24 
-12 42 -11 3 -9 -7 -8 4 -9 -17 -8 -4 -11 4 -11 3 
-11 -28 -6 17 -16 65 -7 -12 -3 -93 -11 75 -16 5 -22 -17 
-16 -53 -15 -41 -1 -204 -15 -143 -4 75 -8 -87 -18 180 -2 -103 
-11 74 -17 153 -3 -4 -9 45 -11 36 -2 14 -9 2 -8 31 
-6 19 -4 6 0 -61 -5 24 -1 -9 -6 67 5 5 -2 -20 
-3 7 2 -51 -4 -14 -1 88 -1 -22 -2 16 -1 -13 20 4 
-24 48 3 -26 11 -40 -7 11 -3 -71 -6 18 2 -43 -5 -27 
-10 5 -5 58 -5 45 -7 30 -6 36 -6 0 -4 -1 -8 -23 
-5 2 -5 1 -4 -56 -9 -21 -9 3 -3 30 -3 0 -2 -2 
-3 -11 -1 -22 -3 -60 2 -17 1 -6 3 -56 -1 -46 5 -17 
6 3 -2 44 11 43 2590 3033 100 MP stroke
2 -15 5 7 9 21 8 -9 0 33 4 14 5 10 2 -39 
8 -6 2 -24 1 -1 1 29 -1 11 -2 -2 -4 3 -2 -16 
-6 -78 -5 -90 -5 42 -5 30 -8 4 -8 27 -9 1 -7 -47 
-10 20 -9 38 -10 8 -11 18 -12 31 -10 33 -11 11 -10 15 
-13 6 -10 -14 -14 22 -13 -28 -10 62 -13 26 -13 29 -14 11 
-12 -45 -12 -30 -13 -8 -12 42 -14 25 -11 -13 -11 11 -12 43 
-14 -1 -10 -33 -12 18 -12 -19 -13 -51 -12 51 -7 -26 8 -37 
-28 86 -19 -45 -11 -71 -10 -35 -14 45 -4 -94 -2 -20 -25 -97 
-4 25 -14 84 -8 47 -12 58 -5 30 -13 -21 -9 32 -9 -29 
-6 44 -8 -15 -1 -83 -6 -105 -4 24 -5 -116 -2 102 -4 90 
0 -57 -2 35 1 -17 0 -3 4 38 6 10 4 74 6 78 
8 63 6 -30 10 -62 8 -149 9 -12 10 13 11 -5 8 84 
9 27 10 -48 11 43 3061 2895 100 MP stroke
9 -26 12 64 10 -2 10 -78 9 -126 9 -76 10 -75 8 -4 
9 -106 5 195 6 62 11 5 6 72 10 -37 5 -34 8 12 
7 -25 8 38 5 8 8 8 7 -45 7 -45 6 34 5 -35 
4 1 6 -25 2 20 3 -11 3 -1 5 -6 1 -23 4 -8 
2 34 5 13 2 46 3 13 -2 87 7 -18 -1 64 12 -3 
9 -11 3 3 5 -41 9 -43 5 4 7 -8 5 -15 7 -14 
7 -23 8 29 7 14 7 11 5 -5 9 17 4 -22 10 5 
4 0 10 0 4 47 9 -38 6 10 9 12 4 -44 11 50 
7 -6 6 22 7 21 10 2 5 12 8 -18 6 -15 9 -10 
3 -39 9 -1 4 -47 8 -25 1 51 12 -4 -3 9 25 27 
66 158 -1 -46 9 3 5 -18 3 -21 9 16 -1 -39 -56 -137 
17 24 3 52 12 5 7 4 15 -46 9 0 10 -22 14 -40 
17 25 10 -35 20 -21 2366 3149 100 MP stroke
17 15 17 -44 20 -37 14 -19 25 57 19 -14 20 -126 22 -11 
23 38 23 78 25 -91 29 48 23 -22 29 -15 21 -62 30 57 
26 -109 30 86 26 25 26 -47 32 103 23 -191 26 37 27 74 
26 29 23 -81 22 -16 26 -21 23 152 18 -98 23 -54 15 -75 
20 119 14 20 16 34 14 -50 13 91 15 -18 12 -31 10 -25 
13 -20 5 20 11 5 12 -9 18 -98 9 18 20 -17 23 96 
2 56 17 18 14 -60 21 -64 21 103 37 8 3 44 21 -129 
17 62 29 4 20 -40 27 -43 59 316 21 45 19 -14 23 -16 
21 -32 17 -4 23 27 9 46 25 17 4 26 19 -17 4 17 
4 -9 9 -28 -3 39 7 -51 0 66 2 3 1 32 -11 -12 
7 -4 -5 -22 -12 28 3 -29 -8 -17 -2 -26 -14 79 20 -477 
-1 29 -5 14 -3 24 -7 -23 -3 13 -3 -60 -5 147 -1 -13 
-1 -118 -11 -45 -7 81 968 3357 100 MP stroke
-10 48 -4 48 -14 -47 -11 50 -15 83 -10 110 -12 -16 -18 37 
-11 -62 -19 -7 -16 -49 -16 68 -22 -70 -18 29 -18 8 -19 -26 
-16 -27 -15 -25 -18 -26 -15 48 -15 -21 -18 31 -20 -26 -11 23 
-13 -20 -9 26 -12 75 -12 -13 -8 -24 -5 32 -8 -18 7 63 
-1 -82 -1 -46 -6 80 -6 -47 0 -12 4 89 -3 -11 -1 -140 
3 20 1 -148 -1 -9 -1 60 2 25 0 -7 -7 -13 1 6 
3 -7 -10 4 -2 106 -11 -14 -4 41 -8 -13 -6 37 -8 -29 
-11 -85 -25 -44 -8 -50 -13 18 -10 2 -16 110 -10 -21 -16 -13 
-13 -74 -10 -49 -15 88 -18 27 -17 52 -17 -33 -17 7 -18 -25 
-20 -31 -15 -79 -21 45 -17 50 -20 62 -17 -100 -19 48 -18 62 
-16 42 -17 -38 -15 -20 -13 -35 -16 11 -12 7 -21 15 -8 2 
-18 -32 -17 6 -13 -114 -10 112 -12 19 -10 -17 -12 -69 -10 -8 
-11 -105 -10 155 -11 15 2084 3252 100 MP stroke
-9 -49 -8 -64 -8 -4 -8 122 -5 56 -7 -51 -5 -86 -6 6 
-4 14 -3 -6 -2 66 -2 -38 -1 6 -1 48 0 4 0 -4 
4 14 2 -1 3 -14 5 -14 5 -18 6 17 7 -29 6 -6 
10 -57 10 3 11 22 10 -37 14 -20 12 7 17 71 9 -100 
16 45 15 34 19 78 14 -26 14 -86 21 86 18 14 18 -15 
16 -124 25 116 18 11 12 -138 18 5 23 61 9 14 15 72 
19 -35 13 -77 12 4 14 -21 11 16 11 76 8 -51 8 55 
6 56 4 -14 3 15 1 -10 1 -55 -1 77 -1 -1 -5 20 
-3 5 -7 -33 -5 23 -7 -55 -7 58 -7 -18 -6 -1 -12 53 
-8 -22 -8 -7 -10 54 -13 -31 -5 -16 -10 -26 -6 -50 -21 109 
-15 79 0 -67 -9 -66 -10 -51 -8 69 -11 56 -13 -23 -12 -34 
-12 -53 -14 72 -6 -51 -15 -49 -11 17 -16 46 -18 42 -12 -8 
-16 10 -15 -28 -17 -32 2012 3220 100 MP stroke
-22 -1 -18 -23 -19 -38 -20 40 -25 15 -21 -36 -23 -80 -22 60 
-23 1 -25 71 -22 -43 -22 -26 -25 1 -22 -35 -24 38 -23 -10 
-22 13 -23 -6 -21 136 -23 -9 -20 24 -20 0 -22 -89 -19 17 
-22 -56 -21 4 -20 68 -21 36 -19 25 -20 -11 -21 -36 -20 -62 
-16 -8 -19 31 -20 68 -19 68 -19 25 -18 26 -20 3 -20 -14 
-16 -62 -21 88 -16 24 -19 21 -17 43 -17 29 -14 13 -17 -55 
-12 -8 -15 34 -10 37 -18 25 -10 11 -8 -8 -8 18 -2 -14 
-8 -34 -2 -3 -4 -11 0 31 -2 7 3 -50 2 15 4 25 
4 45 9 -9 6 -18 10 -16 9 5 9 -60 13 -38 13 59 
11 15 13 7 12 -20 15 -12 11 -6 16 -33 13 13 15 -42 
12 -3 14 -83 15 -8 14 -10 13 22 16 -51 10 49 13 15 
11 -31 11 -75 11 30 8 -29 7 -17 10 12 0 17 10 -50 
5 -6 3 128 3 24 2715 3033 100 MP stroke
11 -4 0 -21 7 -42 -3 -3 4 -50 3 10 1 -4 -3 11 
2 -21 1 7 -1 -38 1 -14 -2 -6 -3 -4 3 -24 -1 -19 
-2 -4 3 9 -1 -41 2 37 2 -17 2 38 2 2 2 1 
2 8 4 12 3 -14 4 -52 3 -27 4 20 4 -25 4 51 
5 -20 4 31 5 0 5 40 6 55 5 -23 5 -30 4 37 
6 79 4 21 5 -13 4 15 7 -63 2 -47 6 17 1 24 
4 61 5 49 0 -11 10 -4 -1 -67 3 -79 3 -27 3 25 
2 -10 4 4 1 -23 2 -8 3 48 5 15 2 8 3 -54 
1 39 4 16 0 -42 3 -53 3 55 4 49 3 -34 4 34 
2 32 2 -7 5 10 6 16 7 -45 6 38 8 -3 6 -33 
12 -31 11 56 9 48 10 13 11 -9 8 -35 14 -10 13 21 
17 -68 13 -67 9 47 12 13 15 20 13 87 13 -1 13 -25 
17 17 14 21 8 64 2238 2974 100 MP stroke
16 -15 15 -57 11 7 12 -3 11 -23 10 -21 8 -7 14 -55 
10 -50 11 35 6 64 14 -62 9 -9 10 24 11 -15 11 58 
11 -3 11 37 11 -29 12 -48 12 -8 11 9 10 92 16 9 
12 -22 10 3 9 -41 15 -27 9 -43 20 -169 2 98 10 73 
9 38 7 23 15 -90 8 -55 4 61 10 -53 8 -50 5 -55 
3 80 3 108 2 -14 6 -92 1 -34 2 58 1 -5 3 -22 
2 -50 0 22 1 109 -1 48 3 -44 1 54 -3 30 -1 17 
-1 58 -2 -29 -2 -38 -1 -79 -6 -149 -1 -72 -11 107 -8 111 
-10 59 -5 40 -7 4 -5 18 -5 97 -6 43 -10 3 -10 -57 
-8 13 -15 -51 -15 -104 -6 115 -14 -3 -18 3 -14 -3 -17 25 
-17 -3 -12 -16 -21 -30 -16 -44 -18 -5 -18 70 -19 -26 -19 0 
-17 9 -18 7 -18 31 -19 17 -17 -14 -14 33 -16 -32 -19 40 
-13 -63 -16 -57 -15 -3 2308 3063 100 MP stroke
-11 -179 -15 219 -11 4 -8 -152 -11 14 -9 32 -15 140 -7 -28 
-5 -56 -10 122 -11 -49 0 -31 -22 -4 -11 -143 -23 40 -12 106 
2 41 7 1 -4 -10 0 26 1 -15 4 11 2 54 5 -25 
8 -4 14 -64 19 -8 15 -144 23 106 0 -87 6 -23 10 36 
8 -51 7 161 13 -35 9 4 12 -13 10 -13 13 -33 11 -14 
12 -23 11 -83 16 12 9 57 13 22 11 25 18 -93 12 29 
15 -1 13 46 14 -4 13 -20 11 8 16 35 16 -52 16 -21 
11 25 15 3 15 -29 11 13 18 -16 9 9 14 30 10 -54 
12 53 10 -38 9 2 5 -85 11 55 9 -67 5 54 3 -5 
2 46 1 -6 -3 17 -2 -8 -8 -20 -7 22 -5 -19 -13 12 
-13 -9 -15 -94 -14 67 -15 32 -18 21 -22 57 -18 39 -23 -29 
-24 -81 -23 29 -22 -45 -25 -133 -24 -39 -27 12 -19 1 -56 432 
-36 88 -17 -50 -6 62 2363 2836 100 MP stroke
-29 -53 -22 62 -28 -37 -22 32 -14 -349 -25 -100 -23 -2 -23 -18 
-21 50 -26 -96 -15 252 -21 30 -21 -87 -21 42 -21 -17 -17 71 
-23 100 -18 -12 -17 14 -17 -11 -17 32 -22 68 -13 27 -17 -23 
-13 13 -12 1 -12 -11 -17 -2 -11 -29 -14 -59 -11 59 -14 -33 
-12 -29 -11 127 -10 0 -15 -33 -10 -162 -7 -36 -7 38 -9 -16 
-12 11 -9 35 -9 -2 -11 -52 -9 18 -8 31 -10 36 -8 29 
-6 31 -9 63 -8 4 -6 -7 -6 32 -5 -39 -9 -14 -6 -42 
-6 48 -6 -63 -7 -44 -3 9 -6 92 -4 42 -7 -26 -3 17 
-6 -10 -3 -20 -6 -46 -6 31 -6 -23 -4 -48 -4 -24 -6 2 
-8 33 -3 44 -11 -7 27 -61 21 14 -19 -42 1 35 -16 14 
6 -58 -43 -60 -1 -34 26 35 -22 -69 2 16 -17 -135 -44 211 
-5 81 -6 -40 -7 -71 -6 -91 -6 78 -9 8 -5 8 -4 6 
-6 47 -7 -52 -6 -79 3423 3131 100 MP stroke
-10 -178 -3 95 -4 199 -6 -12 -4 5 -8 -26 -4 6 -6 -106 
-5 -209 -4 -36 -4 61 -5 -128 -4 24 -5 52 -5 -93 -4 -394 
-3 145 -3 133 -2 210 -4 -23 -2 62 -4 -30 -1 -35 -1 -32 
-1 19 -2 4 -1 141 -1 97 0 32 1 -97 0 12 1 -5 
1 112 1 28 0 -33 1 -31 2 31 1 10 0 50 2 -59 
1 24 2 20 1 70 5 -7 -1 -50 0 -30 0 102 1 21 
3 -29 0 -23 2 -19 0 82 3 15 5 -12 -3 -148 2 -207 
1 -209 2 27 6 -12 4 267 -7 59 4 149 6 91 1 -25 
-2 -31 -2 -84 3 3 4 -9 3 -19 -2 19 -2 26 -1 -114 
6 39 -3 -73 4 96 -5 41 -1 -26 -1 -46 5 12 -6 -52 
3 -38 4 69 -6 -49 -4 12 5 42 -1 15 -3 -29 -3 -4 
2 -33 2 43 -1 -21 1 4 -5 62 -1 69 -10 60 3 -53 
1 4 3 -37 -4 89 3495 2987 100 MP stroke
-1 -68 1 65 7 -49 1 108 3 9 0 56 4 10 0 67 
15 -157 11 -147 3 -12 11 -48 12 78 7 -258 16 300 9 -110 
6 11 0 81 -1 105 20 -98 -16 181 8 -5 -3 42 17 -96 
-6 -135 -8 -132 13 45 -3 -139 2 49 -2 53 -1 -6 2 72 
3 50 12 -76 3 164 -13 49 6 -18 1 14 -2 -12 10 -10 
3 0 0 -4 3 -51 1 24 1 35 -1 94 -1 -52 -1 -57 
-2 12 0 3 -2 3 0 -47 -1 48 -2 -2 -2 14 -3 -5 
4 107 -2 45 -2 30 -9 -1 -3 6 -4 5 -6 15 -2 -24 
-5 -31 -6 -24 -8 32 -5 -30 -7 -10 -7 -6 -3 -17 -13 -49 
-4 34 -4 5 -8 59 -7 9 -7 47 -7 36 -8 -78 -6 104 
-4 -4 -6 -45 -8 -25 -8 8 -8 30 -8 25 -12 40 -8 31 
-7 19 -9 -8 -8 18 -6 -34 -10 -32 -6 -36 -5 -5 -7 26 
-6 -1 -6 57 -6 -67 3622 2678 100 MP stroke
-6 23 -8 44 -2 -60 -3 -15 -4 26 -3 -13 -4 18 -3 33 
-4 -26 -6 -31 -2 -134 -3 8 -3 -39 1 104 -4 10 -5 17 
0 22 -2 0 -3 -84 -3 -27 1 64 -4 19 0 -80 -3 -10 
-5 -23 4 -56 -8 2 -2 -1 0 16 -7 83 -3 -62 -3 -28 
-6 -75 5 14 8 105 -5 57 -2 -29 -5 43 6 -4 7 -38 
-11 33 4 -12 -4 -22 6 -26 0 -28 1 78 -2 -14 4 -73 
-1 -4 2 9 0 -71 1 42 -1 28 1 -21 -1 12 0 69 
-1 55 -1 15 -2 23 0 -63 -2 -76 -1 -28 -3 -36 -1 -114 
-3 75 -2 137 -4 99 -2 28 -4 -36 -2 -25 -4 -20 -4 23 
-4 -19 -3 -44 -5 -54 -3 69 -5 28 -2 -3 -5 -12 -4 -27 
-4 -72 -4 163 -4 7 -4 15 -4 9 -4 -37 -4 27 -4 26 
-4 -56 -6 -30 -4 -32 -5 -8 -5 -41 -4 43 -6 10 -6 -17 
-5 116 -7 61 -5 -24 3868 2650 100 MP stroke
-6 -3 -7 -29 -6 83 -5 19 -8 41 -7 -25 -7 -41 -8 5 
-7 57 -7 36 -8 44 -6 25 -7 -20 -8 -70 -7 20 -4 -10 
-6 35 -9 -5 -5 22 -7 -1 -6 16 -7 23 -6 -14 -6 -20 
-6 -23 -6 33 -5 48 -6 16 -4 -18 -5 44 -5 -25 -5 -13 
-5 -20 -5 -25 -4 12 -5 -22 -4 -16 -3 -25 -5 1 -3 32 
-4 28 -4 29 -2 -13 -4 2 -3 -8 -3 62 -3 8 -3 13 
-3 30 -3 49 -3 4 -3 -11 -3 27 -3 -20 -2 -30 -2 -7 
-2 23 3 17 -3 17 -1 14 -3 2 -1 -17 -2 3 -6 1 
-1 -19 -2 -10 -3 6 1 6 -12 2 -9 12 2 9 -4 10 
1 -13 -5 -5 7 -3 6 -6 -3 -14 0 -33 -3 -29 -3 -44 
0 -46 -3 13 -4 27 -2 -17 -2 -20 -1 -24 -3 -19 -4 71 
-2 65 -2 5 -2 -12 -3 -57 -2 2 -2 2 -2 13 -2 -32 
-2 -41 -2 26 -2 4 4237 2411 100 MP stroke
-2 -61 -2 13 -2 -29 -1 10 -2 19 -1 43 -3 62 -1 49 
-1 43 -1 12 -2 21 -1 11 -2 -15 -1 -44 -2 -92 -1 63 
-2 -9 -1 25 -2 25 -1 -27 -2 10 0 -27 -2 -24 -1 3 
-1 65 -1 11 -1 -8 -1 -1 -2 -71 0 -21 -1 -7 -2 62 
-1 -5 -2 -17 -2 18 -2 19 -2 10 -2 -8 -2 -8 -3 38 
-3 0 -4 37 -3 -9 -4 -1 -4 19 -4 1 -4 -5 -5 31 
-6 7 -6 13 -5 31 -6 3 -7 21 -6 33 -7 -13 -6 14 
-7 -13 -6 -10 -7 39 -7 28 -7 15 -8 -32 -7 21 -7 61 
-7 7 -7 -14 -7 -34 -7 -20 -6 18 -6 -18 -6 15 -7 49 
-6 29 -5 13 -6 1 -6 14 -5 -3 -6 -17 -5 10 -5 8 
-5 4 -4 9 -5 20 -4 -15 -5 4 -4 21 -4 14 -4 -6 
-4 16 -4 -13 -4 1 -4 4 -3 7 -4 -13 -3 -12 -3 21 
-4 10 -3 -3 -3 9 4605 1826 100 MP stroke
-3 -1 -3 1 -3 1 -3 1 -3 -8 -3 4 -3 0 -2 6 
-3 9 -3 -9 -3 -17 -3 -13 -3 2 -3 -19 -2 -18 -3 -32 
-2 -4 -3 14 -2 14 -2 -7 -1 -4 -2 3 -2 0 -1 5 
-2 -5 -1 -9 -2 9 -2 -16 -1 14 -2 -2 -2 1 -1 -5 
-1 -3 -2 -11 -1 -14 -1 9 -1 -24 -1 8 -1 8 -1 15 
0 5 -1 10 0 -30 0 32 1 -12 0 8 1 4 1 6 
1 -5 1 -23 1 -14 2 -4 1 -26 2 -10 2 0 2 -41 
2 11 3 7 2 -10 2 15 3 -22 2 13 3 -1 3 -2 
2 8 3 -8 2 24 3 -3 3 -9 2 -10 3 4 3 -5 
2 10 3 -6 2 18 3 -11 2 10 3 -24 2 -38 2 -27 
2 -15 2 28 1 8 2 -15 2 9 1 -11 1 7 1 26 
0 18 1 6 0 9 -1 9 -1 15 -1 24 -2 -10 -1 -43 
-2 -21 -2 -15 -1 -18 4612 2068 100 MP stroke
-2 -18 -2 -13 -3 27 -2 20 -3 13 -2 2 -3 2 -3 -21 
-3 -22 -4 7 -4 25 -4 14 -4 24 -5 -3 -5 -13 -5 0 
-5 4 -6 -5 -6 0 -6 19 -6 0 -6 22 -7 23 -7 -7 
-7 -17 -7 19 -8 -5 -8 21 -7 17 -9 -4 -8 7 -9 -6 
-10 -6 -9 0 -9 18 -9 -5 -9 13 -10 -18 -10 19 -10 10 
-9 12 -10 31 -9 -20 -10 13 -10 16 -10 29 -10 -33 -10 -18 
-10 5 -9 -17 -10 1 -9 -10 -9 -5 -9 15 -9 10 -9 25 
-9 28 -9 -27 -9 21 -9 -21 -9 4 -9 35 -8 28 -9 19 
-9 -7 -8 -27 -9 -40 -9 -4 -8 -44 -9 36 -8 6 -9 19 
-8 -9 -8 -28 -9 1 -8 21 -8 -14 -8 21 -7 -40 -8 35 
-8 36 -8 15 -7 -61 -8 3 -7 39 -7 -21 -7 35 -7 -17 
-7 -16 -6 9 -7 63 -7 34 -6 55 -6 42 -6 -27 -6 9 
-6 28 -6 14 -5 -67 5337 1665 100 MP stroke
-6 -7 -5 -26 -5 40 -5 65 -4 13 -5 9 -4 60 -5 4 
-4 -6 -5 -11 -4 -17 -4 -15 -5 22 -4 20 -4 -8 -4 -16 
-4 25 -5 7 -4 17 -4 1 -4 8 -4 -1 -4 6 -4 7 
-4 9 -4 5 -4 3 -4 -7 -4 -13 -4 -5 -4 2 -5 11 
-3 4 -4 -8 -5 9 -4 14 -4 5 -3 -6 -5 -1 -4 8 
-4 12 -4 3 -4 5 -4 -3 -4 12 -4 4 -4 3 -4 13 
-4 0 -4 -6 -4 -3 -4 4 -4 19 -4 8 -4 5 -4 -9 
-5 3 -4 4 -4 7 -4 8 -4 -7 -5 -3 -4 -5 -4 -3 
-5 19 -4 -5 -4 -11 -5 6 -5 14 -4 -5 -4 -7 -5 9 
-4 11 -5 2 -4 5 -4 22 -5 2 -3 -2 -4 -3 -4 -16 
-4 7 -4 -2 -4 0 -4 6 -3 -1 -4 -1 -4 5 -3 2 
-4 7 -3 0 -4 1 -4 1 -3 3 -4 6 -3 7 -4 -6 
-4 1 -3 8 -4 -5 5745 1287 100 MP stroke
-3 3 -4 11 -3 -3 -4 -14 -3 29 -4 -4 -4 -3 -3 -2 
-4 -2 -4 -10 -3 11 -4 6 -3 10 -4 -4 -3 3 -4 12 
-3 11 -4 18 -3 -2 -4 9 -3 1 -4 0 -4 -7 -3 2 
-4 11 -3 -31 -4 20 -3 16 -4 -11 -4 12 -3 -4 -4 4 
-3 7 -4 -10 -3 0 -4 -2 -3 -17 -3 -11 -3 8 -3 7 
-3 5 -3 8 -3 5 -3 -12 -3 1 -3 -6 -2 9 -3 -2 
-3 7 -2 14 -3 7 -2 -2 -2 -10 -3 -14 -2 -4 -2 8 
-3 5 -2 -2 -2 6 -2 7 -2 3 -2 3 -2 -1 -1 0 
-2 -3 -2 4 -1 -3 -2 -4 -1 -2 -2 6 -1 3 -1 4 
-1 1 -1 -8 -1 7 -1 -5 -1 -8 -1 -3 -1 -33 0 2 
-1 13 -1 -1 0 1 -1 -23 0 -17 -1 11 0 8 0 -2 
-1 -3 0 13 0 -12 -1 11 0 -1 0 4 -1 -18 0 -18 
-1 22 0 12 -1 7 5971 1213 100 MP stroke
0 5 -1 -1 0 -21 -1 -3 0 11 0 -56 0 26 -1 2 
0 -64 0 11 -1 -11 0 12 0 -61 -1 12 0 10 0 -11 
0 2 -1 18 0 -13 -1 6 0 10 0 -6 -1 -7 0 3 
-1 5 0 9 -1 -2 0 -3 -1 -5 0 12 -1 4 0 -14 
-1 -40 0 -22 -1 10 -1 -13 0 3 -1 4 -1 1 0 9 
-1 -9 -1 -20 0 -19 -1 8 -1 22 0 13 -1 -2 -1 15 
0 -12 -1 -3 -1 16 0 -24 -1 -7 0 6 -1 18 0 -5 
0 9 -1 12 0 -10 -1 0 0 39 -1 -15 0 -10 0 17 
-1 9 0 16 -1 7 0 12 0 -16 -1 -21 0 -57 -1 -3 
0 4 0 -10 -1 -45 0 -52 -1 -9 0 20 -1 10 0 26 
-1 -4 0 -13 -1 42 0 53 -1 17 0 -27 -1 46 0 11 
0 -23 -1 -14 0 -7 -1 23 0 15 -1 16 0 -7 -1 17 
0 19 -1 9 0 24 6017 1254 100 MP stroke
-1 2 0 10 -1 13 0 -6 0 8 -1 6 0 -4 0 2 
-1 2 0 9 0 -4 -1 4 0 19 0 -21 1 -3 0 -5 
0 29 1 1 0 4 0 -8 0 7 -1 0 0 3 -1 0 
0 11 -1 1 0 4 -1 4 0 3 -1 -1 0 5 -1 1 
-1 5 -1 2 -1 -1 -1 1 -1 1 -1 6 -2 2 -1 0 
-1 0 -1 0 -1 3 -1 0 -2 0 -1 1 -1 1 -2 -2 
-1 1 -2 5 -1 1 -2 1 -2 1 -1 4 -2 2 -2 0 
-1 -2 -2 1 -2 2 -2 0 -1 0 -2 -1 -2 -2 -2 1 
-1 0 -2 1 -2 -1 -2 2 -2 0 -1 1 -2 2 -2 1 
-2 1 -1 -2 -2 0 -2 -1 -1 1 -2 1 -2 1 -1 1 
-2 0 -2 1 -1 -1 -2 1 -2 0 -2 1 -1 1 -2 2 
-2 -2 -2 -2 -1 0 -2 2 -2 1 -1 1 -2 0 -1 0 
-2 1 -1 1 -2 2 6131 1108 100 MP stroke
-1 3 -1 1 -1 1 -2 -1 -1 1 -1 1 -1 3 -1 -6 
-1 0 -1 2 -1 1 -1 -1 0 -1 -1 -1 -1 1 -1 -2 
0 -1 0 1 -1 1 1 1 0 -4 1 -3 1 0 1 2 
1 2 1 -1 1 -2 1 -1 1 1 1 2 2 0 1 -3 
2 -1 2 0 2 0 2 0 2 1 2 1 2 -3 2 -3 
2 1 3 -1 2 0 3 2 2 -2 2 -1 3 2 3 0 
2 0 2 3 3 -1 2 0 2 -5 2 1 2 -1 2 2 
2 1 2 1 1 0 2 -1 1 -1 1 -1 1 -1 0 -1 
-1 1 -1 -2 -1 -1 -2 0 -2 -1 -1 0 -3 1 -2 -3 
-3 -2 -3 0 -3 -1 -3 1 -3 -1 -4 0 -3 1 -4 1 
-4 -1 -3 1 -4 2 -4 -1 -4 -4 -3 0 -4 -1 -4 0 
-4 2 -4 2 -3 2 -4 -1 -3 -3 -3 -2 -3 0 -3 -2 
-2 2 -3 -2 -2 0 6175 1131 100 MP stroke
-2 1 -2 -2 -2 3 -2 1 -2 -1 -1 -1 -2 -2 -1 -1 
-2 1 -1 0 -1 2 -1 1 -1 1 0 -2 -1 -1 -1 -3 
-1 -1 -1 -1 -1 -2 -1 -1 0 -2 -1 0 -1 0 -1 -1 
-1 -1 0 1 -1 -2 -1 -2 -1 0 -1 -1 0 2 -1 1 
-1 0 -1 -1 -1 -1 -1 1 -1 -1 0 -2 -1 -2 -1 2 
-1 -1 -1 -3 -1 1 -1 2 -1 -1 -1 2 -1 -1 -1 -2 
-2 0 -1 0 -1 -3 -2 -1 -2 1 -1 -1 -2 -3 -1 -2 
-2 -1 -2 0 -1 -2 -2 1 -1 -1 -1 3 -2 2 -1 -2 
-1 -2 0 1 -1 2 -1 2 -1 0 1 0 -2 -3 0 2 
0 -3 -1 1 1 2 0 -1 1 2 1 2 1 -1 1 0 
1 -2 1 0 2 -2 1 -4 1 -1 2 2 1 -2 2 2 
2 -5 2 0 2 1 2 2 2 -3 2 0 2 -2 3 -1 
2 1 2 2 3 0 6215 1168 100 MP stroke
2 -3 3 -1 2 -4 3 0 2 1 3 5 2 4 2 1 
3 -1 2 -2 3 -3 2 -5 2 1 3 -8 2 0 2 1 
2 0 2 7 2 5 2 4 2 0 2 3 1 -1 2 -2 
2 0 1 1 1 2 2 0 1 3 1 2 1 6 1 3 
1 4 1 -6 1 0 1 -1 0 7 1 -3 1 2 0 4 
1 6 0 -4 1 -1 0 18 1 1 0 1 1 1 1 0 
1 1 1 1 1 0 1 0 1 1 1 1 2 2 1 2 
2 0 2 2 1 1 2 -1 2 1 2 1 3 0 2 0 
2 -1 2 0 3 2 2 2 2 -1 3 1 2 1 3 0 
3 1 2 0 3 0 3 1 2 -1 3 1 3 0 3 0 
3 0 3 0 3 0 3 0 3 1 2 1 3 0 3 0 
3 0 3 0 3 1 3 0 3 0 3 0 3 0 3 0 
2 1 3 0 3 0 6020 1098 100 MP stroke
3 0 2 0 3 0 2 0 3 0 2 0 2 0 3 0 
1 0 3 0 1 0 2 0 2 0 2 0 1 0 1 0 
2 -1 1 0 1 0 1 0 -1 -1 -1 0 -1 -1 -1 -1 
-1 0 -2 0 -1 -1 -2 0 -2 0 -2 0 -3 0 -2 0 
-3 0 -3 -1 -4 0 -3 0 -4 0 -4 -1 -4 0 -5 1 
-4 1 -5 -1 -4 0 -5 0 -5 -1 -6 0 -5 -1 -5 0 
-5 0 -5 0 -6 -1 -5 -1 -5 0 -5 1 -5 -1 -5 -1 
-5 0 -4 0 -5 0 -4 -1 -5 -2 -4 0 -4 -2 -4 -1 
-4 -3 -3 -1 -3 3 -3 1 -3 0 -2 -1 -3 -1 -1 0 
-2 -1 -1 -1 -1 -4 -1 0 -1 -4 0 -9 1 -1 1 -4 
1 1 1 0 1 2 2 -1 1 -1 2 -3 2 2 2 -4 
2 -3 3 -1 2 1 3 -2 3 -3 3 -5 3 1 3 2 
3 0 4 0 3 0 6128 1155 100 MP stroke
3 -6 4 -4 3 -2 4 2 3 -5 4 -1 4 -1 3 -1 
4 -2 4 -1 3 1 4 -2 4 -9 4 -5 4 -8 4 -5 
4 -3 4 2 5 -1 4 0 4 -2 4 4 4 -4 5 -7 
4 -9 4 8 4 -2 4 1 4 -3 4 5 4 2 4 4 
4 4 4 -2 4 -1 4 5 4 -1 5 -2 4 4 4 0 
4 -4 4 -2 4 1 4 -7 4 2 4 1 4 -4 4 0 
3 -1 4 3 3 -1 4 6 3 2 4 2 3 7 3 9 
4 1 3 -1 3 -4 3 7 4 6 3 -2 3 4 3 1 
3 -3 3 -1 3 -3 3 -7 3 -7 3 -7 3 -2 3 -5 
2 -7 3 1 3 -3 3 -2 2 4 3 4 2 -4 3 -3 
2 -6 3 -2 2 -4 2 -2 2 -2 2 -1 1 1 2 6 
2 3 2 2 1 -5 2 -3 2 5 2 0 2 -1 2 -6 
2 -7 2 4 3 8 5802 1231 100 MP stroke
2 1 3 -10 2 4 3 0 3 -5 3 -2 3 5 3 4 
3 -1 3 6 4 6 3 1 3 -4 3 0 4 -8 3 -12 
4 -5 3 2 3 5 4 8 3 -2 3 -1 3 5 4 -6 
3 -7 4 -12 3 -3 4 3 3 2 4 7 3 4 4 1 
4 3 3 -6 4 -12 4 -16 3 -11 4 -19 4 -8 3 11 
4 11 3 2 3 -11 4 1 3 10 3 -3 3 -16 3 -9 
3 -4 3 -5 3 13 3 9 3 -5 2 10 3 8 2 -9 
2 -6 3 2 2 8 2 7 2 -10 2 -3 2 -2 2 3 
2 -9 1 -14 2 -8 2 -3 1 3 2 -8 1 11 2 -4 
1 -12 1 -3 2 3 1 -11 1 -6 1 -4 1 -17 0 -8 
1 -11 1 -16 0 2 1 14 1 18 0 -8 1 5 0 -3 
0 12 1 1 0 29 0 -3 -1 -1 0 4 0 -19 -1 -3 
0 1 -1 3 0 5 5581 1362 100 MP stroke
-1 -2 0 -3 -1 -7 -1 4 -1 -11 0 -5 -1 -12 0 -11 
-1 18 -1 -17 0 7 -1 -6 0 9 0 -3 -1 3 0 12 
-1 -7 0 -97 0 9 1 -10 0 -4 1 18 0 19 1 -3 
1 -9 1 -12 2 3 1 0 2 -3 1 -10 2 -10 3 2 
2 -4 3 -11 3 -10 3 -15 4 -7 3 -19 4 -21 5 0 
5 -17 5 -15 5 -21 6 -12 6 -14 6 -18 7 -18 7 -21 
8 -33 7 -16 8 -31 9 -35 8 -23 9 -27 9 -13 10 -54 
10 -23 9 -45 11 -31 11 -74 11 -66 11 -34 11 26 12 111 
12 -29 12 -9 13 -8 13 -13 13 -7 13 -19 13 18 13 33 
13 37 13 32 15 -1 13 6 15 16 13 2 15 -15 13 16 
15 -11 10 20 20 -43 15 29 12 2 14 -22 11 23 15 -12 
13 -1 15 36 13 -1 14 48 14 -5 14 7 13 9 14 14 
14 2 13 9 13 6 4873 1922 100 MP stroke
13 -6 12 11 12 0 13 5 12 -8 13 6 9 5 12 -12 
12 -4 11 4 11 -10 9 12 10 4 10 20 10 -1 8 -1 
9 8 7 -2 8 -11 8 15 6 3 7 -4 6 4 5 -37 
6 -16 5 -14 4 -29 5 -6 5 -13 4 -3 3 23 4 22 
3 13 2 -14 2 -9 3 -5 2 8 1 -3 0 -1 2 -2 
3 17 3 -20 1 8 2 -2 1 -19 1 11 1 1 1 2 
1 7 1 -13 1 -7 2 12 1 10 1 6 1 7 1 1 
0 -37 0 3 1 -4 0 -8 -1 -17 0 -12 -1 -11 0 -46 
-1 -27 -1 8 -1 -10 -1 0 -1 14 -2 -11 -1 -19 -2 -26 
-3 -29 -2 -59 -3 -46 -2 28 -3 1 -3 -39 -2 41 -4 13 
-2 3 -4 44 -3 13 -4 20 -3 20 -4 24 -4 -30 -3 16 
-4 39 -4 -42 -3 63 -4 54 -4 10 -4 9 -3 -9 -4 -1 
-4 35 -3 11 -4 -23 4668 1986 100 MP stroke
-4 -3 -3 -16 -4 25 -3 3 -4 -12 -3 -7 -4 10 -3 7 
-4 3 -3 -12 -3 -8 -4 17 -3 22 -3 3 -3 -15 -3 -66 
-3 0 -2 -2 -3 -14 -3 -15 -2 -3 -3 -31 -2 -12 -2 17 
-2 1 -2 -50 -2 -32 -2 9 -1 22 -1 56 -1 66 -1 18 
0 22 1 12 1 -23 1 28 2 -8 2 10 3 -27 2 32 
3 50 3 -25 4 13 3 1 4 13 3 19 5 5 4 6 
4 5 4 13 6 30 5 0 4 0 5 -21 5 2 5 -9 
5 0 6 13 5 -8 6 3 6 8 6 -2 6 -13 6 -16 
7 -29 7 0 6 -5 7 -13 8 -2 7 1 8 5 8 10 
8 -8 8 -30 9 -27 9 -4 9 2 9 2 9 -5 10 12 
10 -13 10 -17 10 -18 11 13 10 7 11 -54 10 -22 11 17 
12 -1 11 -6 12 1 11 25 12 17 13 -8 12 -8 13 -10 
12 -14 13 -14 13 -16 4283 2084 100 MP stroke
14 -1 13 -9 13 23 14 -5 14 -6 14 -4 14 -21 14 22 
14 -6 14 -13 14 -1 14 -16 16 -26 17 -14 14 -32 15 -13 
15 -5 14 -4 15 2 15 -4 15 -6 16 -23 15 -47 15 -17 
17 19 13 -26 15 -30 16 1 14 -23 16 -24 14 -29 18 -45 
15 0 16 -26 15 42 15 -15 16 -17 14 0 15 10 13 -8 
13 19 12 -75 12 -26 13 -1 11 -36 11 -23 11 -13 9 -44 
10 39 8 4 8 9 7 29 6 30 6 3 5 -20 4 -11 
4 2 3 13 4 -4 2 13 3 7 2 -14 1 -6 2 -8 
2 -46 1 -17 1 3 1 5 0 -50 1 57 0 23 0 -84 
0 42 -1 -88 0 -53 -1 57 0 92 -1 2 0 26 0 -191 
0 40 1 20 0 -83 1 75 0 -61 1 -36 1 -56 1 42 
1 34 1 11 1 22 1 -1 1 -9 2 8 1 -100 2 -157 
2 -137 1 103 2 61 3503 3040 100 MP stroke
2 154 2 -55 2 35 2 -79 2 168 2 4 2 -45 1 -131 
3 -15 2 -42 3 -34 2 82 3 147 2 -19 3 11 3 -13 
3 -6 3 52 4 14 3 -32 4 -60 3 -40 3 -27 4 -1 
3 -163 4 6 3 78 3 3 3 152 2 150 3 -84 3 44 
3 -7 2 -53 2 23 2 -34 2 -117 2 50 2 31 2 99 
2 -51 2 6 2 36 1 17 2 -68 1 -89 1 72 2 12 
1 -23 0 73 1 31 0 11 -1 -79 -1 66 -1 37 -2 -18 
-2 -43 -3 1 -3 26 -5 -30 -3 -45 -4 -2 -5 10 -4 100 
-5 22 -14 -5 -6 -71 -4 15 -6 -28 -5 -112 -5 -15 -6 5 
-5 -15 -5 -26 -5 -38 -4 38 -4 47 -5 -121 -3 62 -5 -5 
-3 -83 -4 64 -3 132 -4 4 -4 -58 -4 -184 -3 -61 -2 -8 
-3 46 -3 33 -2 137 -2 -236 0 -179 -4 129 -1 188 -3 143 
0 17 -1 -131 -1 30 3552 3008 100 MP stroke
0 181 -2 -96 -2 43 -2 -47 1 13 -2 -8 0 -42 -1 70 
0 59 2 -76 -1 23 0 -211 1 -17 0 70 1 86 4 36 
2 38 -1 41 0 100 4 17 -1 -37 1 37 1 6 1 24 
-4 -81 4 -95 1 -87 2 5 3 -117 7 -299 0 290 7 84 
2 36 1 -122 -2 -299 16 218 8 49 3 90 5 5 4 -85 
6 143 2 -111 -3 6 5 -167 8 237 -2 24 5 -21 1 -72 
4 182 4 82 8 38 5 -3 5 -15 5 -65 3 -17 5 -53 
5 -27 4 48 4 2 6 -44 4 -30 4 56 4 -8 6 42 
4 45 5 -70 5 -121 5 -112 5 61 5 -27 5 69 5 35 
5 -35 6 8 6 -98 6 -214 5 -251 5 384 6 -9 5 135 
7 87 5 -97 5 0 6 -58 5 -39 5 225 6 68 4 -6 
6 9 7 35 4 -40 4 36 5 -54 5 5 4 -22 3 -112 
4 82 4 113 4 15 3215 2832 100 MP stroke
4 28 4 -85 3 -92 4 -26 3 147 4 -15 3 -8 3 -60 
3 53 2 110 4 48 2 10 -2 -41 7 0 -5 13 10 8 
-2 -13 -1 -7 9 -11 -5 -5 3 -2 4 1 1 -1 3 2 
1 16 2 -20 1 -21 2 -8 3 -25 0 -9 4 14 4 -2 
-3 -12 4 -12 1 -32 2 -5 1 -31 0 15 1 6 0 -54 
-1 10 -1 3 -2 -31 -1 -17 -2 14 -2 42 -1 23 -2 42 
-3 1 -2 -12 -3 -8 -2 -24 -3 -37 -3 -73 -4 -42 -3 -56 
-3 -41 -4 50 -4 -83 -3 60 -6 -36 -3 96 -4 -22 -3 -45 
-5 -63 -4 -70 -4 -141 -4 47 -4 -91 -4 80 -4 -30 -3 -281 
-3 100 -5 141 5 219 -1 9 -6 -252 -2 333 -3 129 -1 33 
-3 -30 -1 -126 -2 -286 -1 25 -1 117 -1 216 -1 10 0 -44 
1 31 1 -8 1 -104 1 -304 3 258 1 117 2 -196 3 333 
2 19 4 71 3 -116 3232 2998 100 MP stroke
3 -80 3 -40 4 50 3 103 4 2 5 -18 5 21 5 -48 
6 54 5 40 7 -31 4 28 6 149 6 23 6 -27 6 1 
6 5 7 -38 9 12 4 -147 3 44 9 -106 7 -25 6 54 
7 18 7 132 8 80 6 4 9 14 8 -31 8 18 6 13 
9 16 5 17 11 -6 10 14 0 19 7 26 5 11 6 5 
5 -9 4 -17 4 -3 5 2 4 6 2 21 3 11 2 19 
2 4 1 -6 1 -16 0 -13 -1 -60 -4 27 3 -11 -1 -28 
-1 -8 4 -26 -5 51 -3 18 -5 -53 -4 11 -4 -35 -2 -40 
-7 43 -8 -16 -4 -2 -7 6 -8 -4 -10 -19 -9 6 -9 -113 
-7 -62 -9 13 -9 1 -10 41 -9 90 -10 -23 -9 26 -10 -55 
-10 -134 -9 11 -11 88 -9 -86 -11 37 -10 -277 -8 -353 -7 341 
-12 210 -8 -102 -13 114 -12 113 -10 -83 -10 10 -10 6 -10 -24 
-9 53 -9 53 -10 -5 3304 2873 100 MP stroke
-9 -61 -9 -77 -8 5 -8 79 -8 55 -8 -24 -9 -86 -6 116 
-8 0 -6 32 -5 -30 -7 -2 -8 -39 -8 17 -8 -1 -8 24 
-8 -19 -7 72 -7 146 -7 -3 -7 -25 -8 62 -6 -65 -6 -13 
-6 -69 -7 43 -6 18 -6 73 -5 36 -6 -36 -6 36 -5 -51 
-6 40 -6 32 -6 -69 -7 -29 -8 36 -6 7 -7 53 -8 -53 
-7 22 -7 47 -6 -11 -7 -12 -7 31 -7 38 -6 -7 -7 43 
-6 -26 -7 30 -7 -15 -6 -54 -8 2 -7 -58 -7 -115 -6 -19 
-8 -19 -8 -112 -7 -64 -8 201 -7 37 -8 -11 -7 2 -7 -18 
-8 16 -8 109 -6 6 -7 -13 -9 51 -7 33 -7 5 -8 -35 
-7 33 -8 25 -7 6 -8 -54 -8 46 -7 58 -8 31 -7 18 
-8 21 -7 13 -7 -4 -8 -6 -7 11 -6 -10 -6 -49 -7 0 
-4 7 -6 -15 -6 54 -5 43 -5 4 -6 20 -4 10 -5 -20 
-3 -43 -4 -25 -4 4 3980 2381 100 MP stroke
-3 49 -2 55 -4 18 -2 3 -2 5 -2 8 -2 -10 -1 -8 
-2 -6 -1 -24 -1 -9 0 -24 -1 -8 0 -48 0 1 -1 4 
-1 52 -1 -18 0 -34 0 46 -1 7 0 13 -1 -33 -1 -4 
-1 15 -1 31 -1 -32 -1 -46 -1 7 -2 60 -1 -11 -2 12 
-2 -2 -2 21 -2 -53 -2 33 -2 -19 -2 14 -2 -34 -2 25 
-2 1 -3 2 -2 -22 -3 -12 -3 37 -3 -28 -3 -23 -3 24 
-3 9 -3 -66 -3 33 -3 -43 -4 -40 -3 -18 -3 45 -3 20 
-3 50 -3 -15 -4 -35 -3 -6 -3 -4 -3 24 -3 14 -4 -85 
-3 -7 -3 9 -4 -74 -3 1 -3 33 -4 20 -3 14 -4 -57 
-3 -3 -3 -25 -3 -43 -4 -1 -3 -58 -3 -26 -3 62 -3 -29 
-3 112 -3 -46 -2 8 -2 83 -3 -5 -2 72 -1 12 -1 -132 
-2 -34 -1 66 0 74 -1 17 0 39 0 -59 0 18 1 -17 
0 -36 1 -13 0 -8 4179 2496 100 MP stroke
0 58 1 45 0 97 0 -125 0 45 -1 -16 0 10 -1 27 
0 -30 -1 -38 -1 28 0 39 -1 -74 -1 -83 -1 -56 -1 84 
-1 30 -1 31 -1 -48 0 64 -2 18 0 67 -1 -10 -1 22 
-1 17 -1 -73 0 -182 -1 -72 0 -19 -1 -8 2 34 0 18 
-1 64 0 4 -1 -2 0 26 0 -60 -1 15 0 52 -1 18 
0 212 -1 49 0 -49 -1 68 -1 45 -1 -5 0 -29 -1 13 
0 -32 -1 -7 -1 -3 -1 -10 0 38 -1 -56 -1 10 -1 -7 
-1 45 -1 -22 -2 41 -1 -49 -2 33 -2 45 -1 -6 -3 1 
-2 -17 -2 -50 -3 -1 -2 4 -3 7 -3 35 -3 -13 -3 6 
-3 25 -4 27 -4 55 -3 9 -4 20 -5 -27 -4 -10 -4 -55 
-5 7 -4 1 -5 48 -5 -11 -5 9 -4 17 -5 35 -5 7 
-6 -13 -5 -27 -5 -57 -5 -28 -5 8 -5 4 -6 5 -5 12 
-6 17 -5 10 -5 -51 4371 2146 100 MP stroke
-6 30 -5 -2 -5 13 -5 -10 -5 1 -5 -5 -5 -52 -5 -22 
-4 -4 -5 7 -4 3 -5 2 -4 50 -4 20 -5 -30 -4 -10 
-4 23 -4 8 -3 34 -3 -16 -4 -2 -3 -3 -2 18 -3 -13 
-2 0 -3 4 -2 -31 -2 -28 -2 -7 -2 -10 -1 35 -1 -34 
-2 7 0 -57 -1 -23 -1 8 0 10 -1 1 0 26 0 -18 
1 -22 0 -59 1 -11 0 13 1 -6 1 -24 1 -16 1 4 
1 6 1 38 2 -26 1 -48 1 43 1 11 2 -15 1 -50 
1 33 2 -38 1 -36 2 13 1 14 1 45 2 42 1 -51 
1 8 1 75 1 5 0 30 1 9 1 -48 0 -42 0 52 
-1 -33 0 -17 0 79 -1 -2 -1 33 0 29 -1 5 -1 -100 
-1 -22 -2 -104 -1 5 -1 -96 -1 -98 -2 86 -2 64 -1 138 
-1 -56 -2 25 -2 77 -1 19 -1 52 -2 -66 -1 11 -2 12 
-1 44 -1 -18 -1 -13 4492 2220 100 MP stroke
-2 -6 -1 -45 -1 -38 -1 66 -1 -13 -1 -55 -1 -176 0 -116 
-1 0 0 -339 0 169 1 41 1 188 1 38 1 10 1 129 
2 -4 1 -70 2 -43 2 43 2 22 2 -102 3 -90 2 -68 
3 -51 3 172 2 24 3 6 3 80 4 55 3 101 4 -9 
3 -21 4 -42 4 31 4 46 4 -45 4 -5 4 -122 4 49 
4 -52 5 -55 4 -139 5 74 4 -38 5 30 5 10 5 21 
5 -7 5 -54 4 -51 6 -101 5 -125 5 144 5 104 5 -21 
5 -18 5 128 5 -127 5 -12 5 124 5 -2 5 -56 5 11 
5 85 6 -68 4 -71 6 89 4 76 5 26 5 16 5 2 
4 7 5 30 4 67 5 23 4 -23 4 -21 4 43 3 -89 
4 1 4 -111 4 -170 3 -47 3 -195 3 160 4 180 3 14 
3 -157 3 19 4 144 3 32 3 40 3 -15 3 -118 3 33 
3 -97 4 6 2 -8 4172 2719 100 MP stroke
3 2 4 130 3 48 3 -87 3 3 3 109 3 0 3 -46 
3 -12 4 -4 3 17 3 10 4 13 3 81 3 51 4 5 
3 5 3 -47 4 1 3 9 4 14 3 23 4 19 3 -29 
4 29 3 9 3 -1 3 -19 3 1 4 -6 3 0 3 16 
4 48 3 65 4 69 3 -24 4 -4 4 -2 4 -30 4 -22 
5 2 4 -6 5 -23 5 17 5 27 5 -6 5 5 5 3 
5 16 5 10 6 -30 5 15 5 -14 5 -36 5 -43 5 -32 
5 6 5 33 5 -5 5 -10 5 22 5 30 5 -9 5 -7 
4 4 5 -14 5 -61 5 -52 5 55 4 31 5 11 5 -24 
5 32 4 9 5 20 4 12 4 -16 4 -41 4 -1 4 13 
4 -8 4 -37 3 -35 4 8 4 -38 3 43 3 2 4 -18 
3 60 4 29 3 -5 3 -44 3 -27 4 -3 3 26 4 -20 
2 -13 3 -14 4 -21 3780 2447 100 MP stroke
3 -18 3 -37 2 -31 3 -24 2 -36 2 45 2 -19 2 65 
1 28 1 39 0 -34 1 -43 0 -42 -1 35 -1 -35 -1 -4 
-1 -1 -2 16 -2 30 -2 0 -2 -28 -2 -3 -3 -2 -4 -16 
-3 6 -3 -30 -4 -51 -4 -60 -4 14 -5 7 -4 -66 -5 -21 
-5 -26 -5 -59 -5 63 -6 30 -6 81 -6 1 -6 75 -6 29 
-7 20 -6 -14 -7 -76 -7 42 -7 -36 -7 -22 -7 -35 -7 33 
-8 24 -7 25 -8 50 -7 27 -7 31 -8 -3 -8 8 -7 28 
-8 -2 -8 31 -8 44 -8 33 -8 23 -8 22 -8 7 -9 43 
-8 6 -9 18 -8 -11 -9 1 -9 -23 -9 -13 -9 -54 -9 -7 
-9 22 -9 16 -9 29 -9 4 -9 2 -9 17 -9 12 -9 14 
-8 -7 -9 -9 -8 -58 -8 8 -9 11 -8 14 -8 -14 -8 -43 
-9 57 -8 25 -8 27 -8 -42 -7 -1 -9 -13 -8 -6 -8 -16 
-8 3 -8 3 -7 34 4332 2260 100 MP stroke
-8 29 -8 -34 -8 -15 -7 11 -7 -7 -8 47 -7 3 -7 3 
-7 -3 -7 5 -6 21 -7 -28 -7 -46 -6 43 -7 21 -7 2 
-6 25 -8 11 -6 -10 -7 9 -6 10 -7 4 -6 -75 -7 63 
-6 2 -7 14 -7 -55 -6 -66 -6 -4 -7 96 -6 8 -7 -10 
-7 1 -6 6 -6 -17 -7 24 -6 6 -6 36 -6 24 -5 -8 
-6 -7 -5 8 -6 4 -5 -2 -5 -5 -5 -14 -5 13 -4 26 
-5 -4 -3 12 -4 30 -4 5 -4 -6 -3 -9 -3 -4 -3 1 
-3 -36 -3 16 -2 -10 -3 -2 -2 16 -2 -8 -2 12 -1 18 
-1 8 -2 -8 0 43 -1 37 0 39 1 51 0 5 0 -27 
1 18 1 7 1 -17 1 2 2 25 1 33 2 11 2 33 
2 12 2 10 3 8 2 6 3 -3 2 13 2 8 3 9 
2 -4 3 12 2 -7 3 -11 2 -11 3 4 3 4 2 -4 
3 -2 3 2 3 1 4632 1753 100 MP stroke
3 -5 3 -6 3 -22 3 -13 4 0 3 5 4 -9 3 -8 
4 -8 4 0 3 -21 4 -6 4 -10 4 4 4 4 5 -8 
4 -6 5 -8 5 -6 4 4 5 -16 5 -14 4 2 5 2 
4 0 4 -11 5 -1 4 1 4 8 5 4 5 4 4 -23 
5 -9 4 -6 5 3 5 -3 5 -4 5 -6 4 -10 5 -13 
5 1 4 -16 5 2 5 -19 5 -15 6 -8 5 -48 5 -11 
6 2 6 11 5 -5 6 2 7 -12 6 -3 6 -11 6 -26 
6 8 7 -19 7 -14 5 2 7 -36 7 -18 7 -5 5 4 
7 -32 5 -34 6 16 6 -33 8 -20 6 -80 7 4 6 25 
4 -18 1 -21 4 -30 10 -22 3 -5 4 -5 4 1 4 -32 
5 -64 3 -13 3 -45 3 -4 3 3 4 6 3 -75 2 29 
1 67 2 141 2 -37 0 -42 1 -72 0 47 -1 88 -1 22 
-4 -44 2 56 -4 9 4216 2412 100 MP stroke
-3 -16 -1 -117 -3 -55 -1 -25 -3 -38 -2 -6 -4 75 -13 5 
-24 -82 -8 -15 -1 -87 -6 193 -4 39 -6 -32 3 16 4 -38 
-8 47 -5 123 -7 26 -6 -4 -8 -32 -7 -69 -7 60 -6 123 
-7 10 -5 16 -9 36 -6 36 -3 18 -7 0 -6 -29 -6 14 
-2 -2 -1 17 -6 -34 -6 -5 -4 39 -3 10 -13 38 -3 32 
-4 5 -4 19 -1 -13 -9 16 -5 -21 -5 15 -5 10 -5 16 
-4 35 -5 6 -5 -33 -4 -45 -4 13 -2 -33 -5 -28 -3 19 
-3 -8 -3 4 -5 -26 -4 42 -3 17 -4 -55 -4 -43 -2 -42 
-4 -9 -3 -160 -4 46 -3 65 -3 33 -3 40 -2 -1 -3 63 
-2 42 -3 -10 -2 -11 -2 23 -2 -7 -1 16 -2 29 -2 35 
-2 -34 -2 36 -2 -7 -2 10 -2 -37 -2 -14 -2 7 -1 8 
-3 4 -2 38 -1 9 -2 24 -2 -18 -2 13 -1 15 -2 -25 
-2 -23 -2 7 -2 0 4604 2048 100 MP stroke
-2 -15 -2 -21 -1 16 -3 21 -2 29 -2 5 -2 -57 -3 -31 
-2 -71 -3 -8 -3 34 -3 12 -3 -6 -3 0 -4 -43 -4 -7 
-4 26 -4 -9 -4 25 -5 -16 -5 16 -5 52 -5 -9 -5 -40 
-5 -5 -6 -18 -6 15 -5 4 -6 45 -6 34 -7 -33 -6 9 
-7 -5 -6 29 -7 10 -7 -23 -7 18 -7 -6 -7 -49 -8 6 
-7 -7 -7 26 -7 -3 -8 25 -7 -2 -8 11 -8 19 -7 27 
-7 -42 -8 24 -7 -3 -7 9 -8 -3 -7 43 -7 -23 -7 -19 
-7 -39 -7 43 -7 27 -8 20 -7 -15 -7 -3 -7 20 -7 -3 
-8 2 -7 23 -7 12 -8 -43 -7 -17 -8 54 -8 45 -7 -12 
-8 -18 -8 -27 -8 16 -8 24 -8 -14 -8 56 -8 9 -9 14 
-8 4 -9 -3 -8 27 -8 11 -9 -4 -9 37 -8 11 -9 10 
-8 -9 -9 -11 -9 -22 -9 -7 -9 12 -9 15 -8 -30 -9 9 
-9 27 -8 40 -9 20 5249 1721 100 MP stroke
-8 -30 -9 29 -8 45 -8 7 -8 9 -8 -6 -7 -3 -8 5 
-7 -15 -7 -3 -7 0 -6 6 -7 6 -7 8 -6 11 -6 4 
-6 -18 -5 -17 -5 -10 -5 -11 -5 0 -4 9 -4 -18 -4 -10 
-3 4 -3 17 -3 10 -3 2 -3 5 -2 -1 -2 21 -2 -17 
-2 -19 -2 11 -1 32 -2 0 -1 -2 0 -11 -1 -3 0 -6 
-1 -12 1 -20 -1 3 0 18 1 10 0 -27 1 4 1 -6 
1 5 1 0 0 15 1 0 1 17 1 -3 0 7 1 -20 
1 -10 0 -25 1 -9 0 -11 0 2 1 -2 0 -37 -1 -9 
0 30 -1 31 -1 17 0 1 -2 -25 -1 -5 -1 -7 -2 39 
-2 13 -2 11 -2 1 -3 2 -3 10 -3 14 -4 -5 -5 29 
-4 30 -5 10 -5 13 -5 10 -6 -8 -6 -20 -7 -8 -6 2 
-7 1 -8 17 -7 -10 -8 -22 -8 7 -8 4 -9 19 -8 6 
-9 7 -10 15 -9 15 5591 1546 100 MP stroke
-9 -1 -10 -25 -10 3 -10 -16 -9 -7 -10 35 -10 18 -10 4 
-10 30 -10 15 -9 20 -10 -17 -10 22 -9 24 -10 5 -10 8 
-9 -5 -10 15 -9 -3 -9 20 -9 -5 -9 19 -9 20 -9 -1 
-8 4 -8 -8 -8 4 -8 18 -8 -13 -8 -12 -7 8 -7 1 
-7 -6 -8 1 -6 16 -7 3 -7 -3 -7 -1 -6 -14 -6 -10 
-7 4 -5 -11 -6 -3 -6 1 -5 17 -5 3 -6 1 -5 -13 
-5 4 -4 -6 -5 1 -4 -9 -4 0 -4 15 -4 6 -3 -1 
-3 -7 -3 -8 -2 -1 -1 -6 -2 -4 -1 -6 0 -8 -1 24 
0 6 1 -26 1 -10 1 0 2 3 1 4 3 -23 2 -9 
3 0 4 9 3 20 4 25 4 26 5 19 4 -4 5 -1 
5 -6 5 5 5 6 5 -19 6 -22 5 5 5 -1 6 1 
5 5 6 0 5 -8 6 -23 5 18 5 -7 5 16 5 12 
5 -9 5 -10 4 1 5886 1384 100 MP stroke
5 3 4 -25 4 4 4 7 4 -6 4 12 4 -4 3 -9 
4 3 3 -15 3 0 3 8 3 3 2 -6 3 -8 2 -9 
2 -10 2 8 2 4 1 -8 1 -7 2 -6 1 12 1 -5 
0 -25 1 6 1 -17 1 -10 1 9 1 4 0 -7 1 8 
0 -1 1 -30 0 29 0 -8 -1 5 0 9 -1 -8 0 -15 
-1 27 0 28 -1 -8 0 -14 -1 3 -1 -17 0 -13 -1 -2 
-1 -25 0 4 -1 -12 0 31 -1 -7 0 25 -1 -12 0 39 
0 -55 1 -44 0 28 1 -43 0 -19 1 -40 1 -17 1 32 
1 7 1 -26 1 -15 1 21 2 21 1 18 1 -55 2 -66 
1 -28 2 9 1 -50 2 -20 1 54 2 61 2 -67 1 -1 
2 44 1 10 2 -20 1 -6 2 12 2 -22 1 -2 2 18 
2 -4 2 51 2 -11 2 23 1 99 2 -70 2 -16 2 -110 
1 -81 2 -56 1 88 5764 1790 100 MP stroke
1 84 2 18 1 -46 1 -57 2 41 1 -22 2 -42 1 28 
2 27 2 68 2 52 2 -21 2 10 3 26 2 10 3 -11 
2 10 3 -19 2 2 3 14 3 8 3 1 2 4 3 -2 
3 -2 3 -3 3 1 3 -13 3 0 3 -8 3 3 3 1 
3 0 4 7 3 -8 3 0 3 4 4 10 3 5 3 4 
3 5 3 27 2 11 3 -5 2 -6 3 7 2 -2 2 -5 
2 10 2 32 2 33 3 0 2 -2 2 -11 2 8 2 15 
2 -1 2 21 2 1 2 -2 2 4 2 5 2 6 2 2 
2 -2 3 8 2 13 2 14 2 0 2 7 3 -10 2 10 
2 6 2 -5 2 3 3 -5 2 -9 2 2 2 -9 2 -3 
2 -4 1 6 2 -1 2 -11 2 -10 1 -2 2 17 1 -1 
1 0 1 -1 2 3 1 8 1 6 1 -1 0 -5 1 10 
1 -12 0 7 1 1 5553 1423 100 MP stroke
0 2 0 -5 0 3 1 -11 0 36 0 -1 -1 3 0 4 
0 -12 -1 4 0 8 -1 19 -1 1 0 -4 -1 -2 -1 5 
-1 7 0 -3 -2 0 0 -1 -1 4 0 -11 -1 3 0 -15 
0 7 -1 -2 0 -31 0 3 1 19 0 13 1 -12 1 -7 
1 1 1 -1 1 -43 1 -6 1 -14 2 13 1 4 2 12 
2 0 2 2 2 -17 2 -8 2 -11 2 5 2 21 3 -2 
2 -3 2 -10 3 14 3 -14 2 -25 3 8 3 10 3 5 
3 -6 3 -14 3 19 3 -10 3 -1 3 18 3 -8 3 -6 
4 -23 3 -2 3 -8 3 -3 4 1 3 -23 3 -3 4 -29 
3 -14 3 -10 4 15 3 10 4 -46 3 5 4 -9 3 -1 
4 -12 4 -23 4 -14 4 -18 4 -21 4 -24 4 -32 4 -18 
5 -10 4 10 4 4 4 18 4 18 5 14 3 -2 5 -1 
4 -8 4 -8 4 5 5357 1728 100 MP stroke
4 -14 4 -29 4 -12 4 2 4 3 4 -18 4 -11 4 -11 
4 -10 5 -37 4 -26 5 -8 4 13 4 -13 4 -17 5 2 
4 -4 4 -29 4 -10 4 -37 4 -38 5 -55 3 21 3 -30 
4 -4 4 -24 3 -73 5 -108 3 -30 4 3 4 23 2 -42 
3 -1 2 -27 3 44 2 10 2 80 2 29 1 -34 1 61 
1 81 3 63 0 63 -1 -1 4 16 -1 16 -2 15 2 -22 
0 41 1 25 -1 -29 -2 20 -1 -12 -2 8 -3 21 -1 15 
-2 -18 -1 8 -4 42 -1 10 -3 44 -4 1 -3 6 -3 34 
-3 21 -4 -10 -3 3 -4 -11 -5 8 -4 20 -4 4 -5 -20 
-4 12 -4 9 -6 15 -5 1 -4 10 -6 2 -4 -20 -5 28 
-6 -10 -5 6 -4 -8 -5 25 -5 10 -4 0 -5 7 -4 -5 
-4 1 -4 14 -5 -4 -3 23 -6 -1 -3 -11 -5 -13 -2 12 
-5 -11 -4 -43 -3 -25 5390 1703 100 MP stroke
-4 -8 -3 -9 -3 13 -2 -11 -3 15 -3 13 -3 11 -2 0 
-2 22 -1 2 -3 -4 -2 -3 -3 -9 -2 -7 -3 3 -2 -12 
-3 -4 -2 -8 -3 18 -3 34 -3 -28 -3 -26 -3 -13 -3 -10 
-3 7 -4 21 -3 4 -4 0 -4 30 -4 20 -4 -55 -4 25 
-4 8 -4 0 -4 24 -4 -22 -4 -12 -4 9 -4 24 -4 -12 
-4 17 -4 7 -5 17 -4 13 -4 -9 -5 -6 -4 -1 -4 35 
-4 11 -5 -2 -4 14 -4 10 -4 9 -4 26 -4 29 -4 -1 
-4 -18 -3 41 -4 11 -3 9 -4 7 -4 -9 -4 0 -3 12 
-4 10 -3 2 -4 -7 -4 -10 -3 2 -3 15 -3 10 -4 -3 
-4 21 -3 -8 -3 -11 -3 -23 -3 -7 -3 -14 -3 -2 -3 11 
-2 -13 -3 -1 -3 -8 -2 -11 -3 20 -2 -12 -3 9 -2 -14 
-1 29 -2 -4 -2 -13 -2 -14 -1 -9 -3 -19 -1 0 -1 9 
-1 -1 -2 -10 -1 -7 5702 1514 100 MP stroke
0 24 -1 6 -1 6 0 6 -1 -2 0 -5 -1 -3 0 -83 
1 -18 1 -1 1 -3 1 -40 1 7 2 -32 2 -3 2 -30 
2 -15 2 -26 2 -45 3 1 3 20 3 -26 3 2 3 11 
3 -40 4 -45 3 11 4 -50 4 -70 4 42 4 -6 4 -40 
5 27 4 0 5 18 4 28 5 48 5 -8 4 -10 5 -24 
5 36 5 75 5 19 4 -34 5 -46 5 11 4 48 5 5 
5 -5 4 3 5 -4 4 -28 5 -42 4 -54 5 -16 4 -64 
5 -41 5 -15 4 -10 5 -85 4 -70 5 -180 5 -74 5 -118 
4 41 5 -29 4 260 5 -63 5 37 4 124 5 -39 4 90 
5 150 4 80 5 -11 4 -7 5 -8 4 52 5 25 4 22 
4 49 4 -33 4 -7 4 35 4 36 4 27 3 7 4 38 
3 27 3 13 3 25 3 -2 3 13 2 -29 3 -22 2 32 
3 28 2 -2 2 6 5363 1606 100 MP stroke
2 -12 2 -19 2 0 2 -53 1 -18 2 2 1 42 1 1 
1 -7 1 -21 1 -18 0 11 0 -5 1 -32 0 -20 -1 1 
0 1 -1 -2 0 -5 -1 8 -1 18 -1 4 -1 3 -1 3 
-1 -4 -1 -16 -1 11 -1 -13 -1 -9 -1 18 0 7 -1 -5 
-1 -8 -1 -27 0 -36 0 47 1 -38 1 10 1 -14 1 -1 
2 -18 2 19 2 10 2 -12 2 24 3 13 2 -10 4 -10 
3 3 3 5 3 4 4 1 4 -7 4 27 4 12 4 -7 
4 -9 5 -10 4 3 5 -13 5 17 5 4 5 -13 5 -14 
5 11 5 10 6 16 5 -18 5 1 5 -41 6 8 5 19 
5 4 5 -10 5 -4 5 5 5 -5 5 -3 5 9 5 -6 
5 -4 5 -8 4 -20 5 -18 5 11 4 9 5 -8 4 14 
5 0 4 -34 4 17 4 -8 5 0 4 12 4 -25 4 -2 
4 9 4 17 4 1 5107 1824 100 MP stroke
4 8 4 7 3 12 4 -3 4 -7 3 -6 4 -21 3 21 
3 -19 3 -9 3 -11 3 -18 3 -18 3 4 3 -7 3 -14 
2 1 3 11 2 -7 3 8 2 -2 3 -3 2 10 3 -6 
3 -16 2 -45 3 5 2 56 3 -39 3 -58 3 32 3 22 
3 -9 3 8 3 -22 4 41 3 5 4 50 3 -26 4 -1 
4 -25 3 31 4 9 4 -15 4 36 4 -10 5 -25 4 11 
4 -5 5 10 5 -39 5 -15 5 -5 5 6 6 -1 5 15 
6 -27 6 -24 7 -20 6 32 7 -7 7 11 7 -17 7 -2 
8 43 8 10 8 1 9 17 9 2 9 -23 9 -25 9 25 
10 -14 9 5 10 -7 10 14 9 10 10 12 10 -5 9 -22 
10 -41 10 -53 10 -14 9 9 10 1 9 5 10 -14 9 -7 
9 -34 8 -49 9 -19 8 -4 8 -4 8 -18 8 -7 8 -3 
7 31 7 22 8 -26 4549 2148 100 MP stroke
8 -24 7 2 7 -12 7 -1 7 19 8 18 7 -3 7 -4 
7 -2 7 -12 8 13 7 -48 7 -5 7 -22 7 -9 7 38 
7 0 7 -6 6 8 7 45 7 -37 6 -9 6 -35 7 26 
5 -16 6 -2 5 -15 6 25 5 70 4 21 4 9 4 10 
4 -4 3 34 3 17 3 -30 2 -3 2 -24 1 -29 1 -28 
0 -14 1 -9 0 22 -1 -29 0 27 -1 -31 -1 1 -1 -23 
-1 -27 -2 1 -1 39 -2 -27 -2 16 -2 -38 -1 27 -2 -43 
-1 9 -2 -21 -1 -102 -1 -3 -1 16 0 15 0 -21 0 12 
1 -26 1 -11 1 -11 2 63 2 -61 3 10 3 31 3 -25 
4 28 4 6 4 71 5 19 5 17 6 41 6 3 6 -27 
6 -50 7 -40 7 9 8 67 7 12 8 -7 8 38 9 -5 
9 -3 8 -10 9 -31 10 -10 9 -14 10 -73 10 -35 10 -4 
10 48 11 23 10 5 4123 2328 100 MP stroke
11 29 11 12 10 6 11 9 12 4 10 21 11 -20 13 -9 
11 -25 12 -26 10 16 12 15 11 -15 13 -23 12 -25 12 -5 
13 1 12 -59 13 36 12 21 13 -4 12 -23 13 -3 12 -2 
13 39 13 -68 12 -40 13 40 13 -13 13 18 13 -3 14 -2 
13 38 13 2 13 -16 14 7 13 -21 13 -5 13 -21 14 0 
12 -12 16 13 15 -12 12 1 13 -34 12 4 13 -38 12 2 
12 -21 12 -12 11 -33 11 -25 12 56 10 -47 10 -1 10 -2 
10 -18 8 -9 9 -55 9 -1 7 25 7 43 7 -35 7 -27 
6 -59 5 -58 5 24 5 -4 4 12 5 32 2 -28 3 -23 
2 -22 2 9 1 0 1 -31 0 -57 -1 -44 -1 23 -1 26 
-1 57 -2 -31 -3 -19 -3 95 -3 -6 -5 70 -5 9 -4 -52 
-7 -103 -6 -19 -7 58 -7 3 -8 -45 -7 -13 -10 -21 -9 -25 
-9 -30 -10 81 -10 51 3452 2820 100 MP stroke
-10 -19 -10 -75 -10 -77 -13 87 -11 71 -12 17 -10 29 -12 -29 
-12 -11 -12 -80 -12 21 -13 -39 -12 44 -13 -56 -12 106 -12 18 
-13 46 -12 72 -12 -51 -13 21 -12 -26 -12 66 -12 11 -12 44 
-12 -36 -11 26 -12 61 -11 -3 -11 -22 -12 -39 -11 -11 -10 -11 
-10 18 -10 -25 -9 -21 -11 51 -9 -5 -9 -4 -8 -47 -8 15 
-8 -24 -7 26 -7 -69 -7 42 -6 -19 -7 -19 -5 19 -6 42 
-5 -53 -3 -36 -6 19 -4 66 -4 14 -4 2 -4 17 -3 -47 
-4 -21 -3 -54 -3 44 -3 -63 -3 46 -3 -57 -3 -18 -3 -100 
-2 97 -4 -59 -2 95 -3 41 -3 45 -2 -40 -4 8 -3 94 
-3 10 -3 -58 -3 -103 -2 61 -3 32 -3 39 -3 37 -3 41 
-3 100 -2 8 -3 -23 -3 -8 -2 -29 -2 -4 -3 54 -2 -51 
-2 63 -2 18 -1 40 -2 -38 -2 13 -2 20 -1 8 -2 30 
-1 36 -2 16 -1 11 4095 2322 100 MP stroke
-2 -10 -1 7 -2 2 -2 1 -1 19 -2 -5 -2 15 -1 -6 
-3 15 -1 16 -2 -5 -2 -18 -1 -21 -2 -23 -1 29 -2 -4 
-1 -53 -1 -44 -1 10 -1 -13 -1 30 -1 -30 -1 13 -2 26 
-1 -16 -2 14 -2 7 -1 40 -1 49 -2 -16 0 9 -1 -7 
-2 -25 -1 -16 -2 -5 0 4 -1 31 -1 39 -1 16 0 -23 
-1 -13 -1 -2 -1 -15 0 45 0 -14 -1 25 0 55 1 39 
0 16 0 -37 1 -21 0 -41 1 -9 -1 -1 1 3 1 6 
0 -9 1 8 0 -100 -1 -12 0 83 -1 8 -1 -22 -1 -20 
-1 -28 -1 -19 -2 4 -1 28 -1 -21 -2 -106 -1 -46 -2 -35 
-2 -51 -2 132 -2 25 -3 -46 -2 -43 -3 -32 -2 60 -3 16 
-3 13 -3 34 -3 54 -3 -48 -3 2 -3 -97 -3 -19 -4 -7 
-3 19 -3 20 -4 30 -3 1 -3 -17 -4 -14 -3 -28 -3 -13 
-4 76 -3 60 -3 10 4243 2384 100 MP stroke
-3 20 -3 10 -2 30 -3 44 -2 55 -3 0 -2 11 -2 22 
-2 10 -2 -41 -2 -7 -1 0 -1 -64 -2 39 -1 28 -1 -1 
-1 22 0 54 -1 -13 0 30 0 -68 0 60 1 -30 0 17 
1 25 1 -14 1 -31 1 1 1 0 1 -70 1 -15 2 -26 
2 6 1 6 1 -10 1 15 2 -9 1 16 2 11 2 -5 
1 -58 2 -26 1 -46 2 -21 2 -25 2 -25 2 -4 1 31 
2 -5 2 -43 2 43 1 -46 2 59 2 -24 1 -62 1 -208 
2 35 1 50 1 -92 1 -21 2 -46 0 157 2 4 1 63 
1 -54 1 15 1 -51 1 -18 1 73 1 -121 1 46 0 30 
2 87 1 25 0 -8 1 11 2 48 1 4 1 -54 1 39 
1 92 2 24 1 -54 1 32 1 -25 1 22 1 -16 2 18 
1 -32 1 77 2 -25 2 41 2 5 2 45 3 -6 2 -65 
3 -45 2 -62 3 -19 4170 2487 100 MP stroke
3 35 3 1 4 58 3 -4 4 -3 4 -44 4 -16 4 0 
4 32 5 30 4 68 4 14 5 2 5 -41 5 16 5 31 
4 11 5 -32 5 -11 5 17 6 -41 5 4 6 10 5 1 
6 -29 6 -37 6 -6 7 44 7 -20 5 7 8 -6 6 -3 
7 -56 7 60 7 33 8 2 8 6 7 6 7 7 8 -49 
8 3 7 -76 9 20 9 -9 8 -64 9 1 8 56 11 27 
6 -52 10 17 13 -33 9 -56 12 21 10 -77 11 33 11 30 
13 -33 11 51 13 -14 11 2 13 38 12 -26 13 -3 12 -6 
13 -31 12 -13 14 -27 12 48 13 -26 14 38 14 -49 14 17 
14 -33 13 -93 13 -41 14 -97 13 -45 12 -148 13 124 10 86 
14 68 12 21 10 7 11 -55 10 9 11 -8 10 17 7 -49 
11 -39 2 -6 14 2 9 33 6 -2 8 -41 8 25 7 61 
5 -86 7 -138 5 -34 3329 3045 100 MP stroke
6 123 5 -14 5 3 6 23 6 -43 5 91 4 11 3 -80 
5 -69 3 56 4 22 4 -56 1 11 4 56 4 -93 3 31 
4 -17 2 -187 2 -100 4 -352 2 365 2 107 3 18 1 28 
3 -160 0 65 4 201 -4 -298 0 -36 -1 -33 2 125 3 -189 
-2 390 -1 -47 -9 139 1 25 -3 22 -4 -115 -2 27 -5 -6 
-5 50 -5 -60 -5 -79 -6 95 -6 74 -9 152 -6 -48 -5 -10 
-8 46 -9 -28 -13 -127 -9 5 -10 -7 -11 -17 -10 122 -14 -83 
-14 108 -9 43 -12 61 -12 -9 -9 73 -12 17 -8 -73 -18 64 
-9 70 -8 -5 -14 0 -5 -14 -12 -29 -8 31 -9 -32 -7 -20 
-10 -79 -7 -115 -4 26 -6 31 -4 80 -5 -66 -6 -37 -4 -33 
-2 -76 -3 26 -5 -129 -2 -86 -1 79 -3 63 -4 121 -2 69 
-2 -14 -2 -70 -3 -113 -1 -125 -3 -18 -2 157 -3 40 -2 -22 
-1 -142 -4 -11 -1 -35 3648 3110 100 MP stroke
-2 3 -1 131 -3 31 1 -34 -3 79 0 -58 -2 25 -1 112 
-2 -95 -2 -76 1 66 -4 84 4 48 -5 48 1 -27 -2 -24 
-4 29 0 -50 -1 81 -2 -29 -1 -82 -1 -23 0 -22 -4 -35 
-1 -49 -2 55 -1 64 -3 13 0 -67 -3 35 -2 -49 -3 4 
-2 15 -2 57 -2 -59 -3 152 -3 2 -3 -45 -4 -106 -3 -46 
-2 45 -4 -72 -4 14 -4 74 -4 154 -4 88 -4 -13 -5 -11 
-4 -70 -5 -78 -4 142 -6 31 -6 41 -6 14 -6 -27 -5 -24 
-6 -53 -7 -70 -4 38 -8 28 -5 -24 -6 -12 -7 85 -6 3 
-7 26 -5 -22 -6 16 -7 48 -4 74 -9 -39 -6 -23 -6 25 
-7 -5 -7 25 -6 -44 -7 21 -7 -13 -5 -15 -6 -22 -6 -43 
-6 -22 -7 -1 -5 60 -5 27 -7 58 -6 27 -5 -35 -7 -55 
-5 6 -7 -9 -7 13 -6 23 -4 35 -8 33 -5 44 -7 34 
-5 25 -8 -37 -3 -35 4054 2449 100 MP stroke
-5 -14 -6 1 -2 70 -5 23 -6 16 -6 17 -4 2 -4 5 
-3 1 -7 -31 -1 -4 -3 -34 -6 -18 -2 38 -3 40 -3 -28 
-3 23 -4 -10 -3 22 -2 12 -3 -9 -2 -4 -2 -16 -2 -41 
-3 29 -1 -5 -2 7 -1 -3 -2 -48 -1 -26 0 4 -1 -29 
0 -47 -1 -2 1 -20 -1 -13 1 51 0 -15 2 -60 0 -102 
2 -224 3 3 2 121 1 -105 3 106 3 156 2 61 3 -25 
4 23 4 -61 4 -45 4 -100 4 -19 4 56 6 33 3 -56 
6 -30 4 -61 5 65 5 -103 5 -225 5 62 5 40 5 -94 
5 239 5 131 4 -30 6 -22 4 -87 5 58 5 18 4 -37 
4 -31 5 -104 4 11 4 79 4 9 4 -3 4 70 4 -25 
3 -62 4 -80 3 39 3 -56 3 6 3 -103 2 -29 1 260 
2 7 2 94 2 -29 1 -60 1 56 1 -19 0 74 0 -2 
-1 71 1 81 -1 2 3957 2563 100 MP stroke
-1 -32 0 -31 -3 -73 -2 34 -3 -10 0 11 -5 21 3 12 
-5 -35 -1 49 -4 -13 0 18 -3 42 -8 16 5 55 -10 51 
-4 16 -3 21 -5 -4 -4 -21 -4 36 -5 1 -2 -21 -5 3 
-4 -12 -5 -10 -6 34 -6 9 -6 -2 -4 -35 -4 15 -6 28 
-5 4 -7 -24 1 -28 -2 -13 -11 -20 -1 12 -10 53 3 -31 
-10 10 -7 -19 -5 -43 1 -11 -2 -43 -11 -16 5 7 -10 1 
-4 32 5 54 -11 22 3 -75 -3 -100 -8 -46 3 93 -5 41 
-6 17 -1 55 -3 -18 -1 -17 -2 7 -1 -31 -1 -12 -2 18 
-1 7 0 51 -1 2 0 70 1 1 1 13 0 20 0 -16 
2 3 2 -17 0 -25 4 -29 -1 -24 2 -18 1 -2 2 88 
1 -18 0 37 2 -9 3 3 6 -2 1 -45 4 -18 0 -71 
2 30 3 17 4 11 5 32 4 29 2 25 2 -14 6 -31 
4 -65 5 -9 4 -61 4105 2546 100 MP stroke
5 45 6 31 6 31 7 23 4 -27 7 21 5 -13 5 -56 
4 -5 6 -14 6 -38 6 30 6 55 6 -6 4 -57 5 -1 
8 24 4 -20 6 8 7 24 7 -2 5 7 5 -42 5 -27 
5 -3 7 -34 6 -41 6 -1 7 -9 5 -20 6 -83 6 -23 
6 55 6 49 8 -35 5 -1 7 -44 7 -23 8 -32 7 33 
8 58 8 -30 8 -8 8 8 8 60 9 -10 8 -4 10 -12 
8 -65 10 -73 8 39 11 -32 9 -61 10 61 12 -13 9 17 
11 26 12 -72 9 -44 11 -54 9 59 12 17 8 -42 11 -55 
13 12 11 -161 9 -181 12 -116 10 165 12 128 10 45 12 -99 
10 -82 11 -91 10 51 11 33 10 112 13 -135 9 174 12 12 
11 8 10 24 10 7 11 89 11 -2 11 -63 10 32 10 1 
9 26 14 22 7 -78 13 5 11 28 12 -32 9 16 13 0 
10 93 13 29 9 -45 3262 2970 100 MP stroke
17 -30 6 19 22 -28 1 10 38 55 32 74 -3 -13 18 -21 
4 -140 15 -62 12 106 17 42 17 23 5 -56 18 70 13 -4 
13 -25 13 -1 15 -10 24 32 2 -84 18 -38 12 -35 -9 -43 
4 9 23 -15 10 132 16 11 14 2 10 5 18 -22 15 -17 
9 -24 20 45 12 50 11 -3 15 26 11 -19 18 2 13 -87 
9 -40 20 80 9 -54 10 -33 14 -11 10 -3 15 -3 11 73 
26 83 42 96 -2 -70 20 -23 5 -126 -21 -29 4 48 18 -44 
6 -31 12 -51 10 68 12 23 5 -37 13 -42 6 6 8 -225 
6 -82 11 9 5 25 9 8 1 139 11 32 6 -23 13 -56 
4 -78 9 -3 4 158 13 -4 -2 -7 9 55 10 40 13 -30 
3 141 38 -372 9 252 -4 7 14 -23 1 40 13 3 -8 48 
28 -177 5 113 -9 -167 -2 245 14 -35 6 2 9 44 6 29 
33 -302 8 -1 9 28 2166 3321 100 MP stroke
8 -25 9 22 7 48 2 157 13 19 -14 19 4 -7 9 -26 
7 10 8 -77 5 12 8 27 3 8 6 -54 4 21 7 34 
5 49 3 -8 4 20 2 1 1 28 7 -27 1 -56 -1 27 
0 13 3 -87 0 42 -6 -33 6 -39 17 -12 -7 29 4 143 
-7 -33 9 -83 -1 -74 2 -36 -10 65 -8 28 9 -112 -7 35 
2 -38 -3 151 2 106 -3 -75 -8 -140 -1 -190 -3 198 -3 36 
-2 -32 -7 100 5 54 -8 2 -3 30 -3 -63 -7 49 -4 -70 
-1 15 -9 33 -3 60 -11 56 0 9 1 -35 -5 -48 -1 -43 
-9 29 -3 0 -8 64 -8 31 4 -45 -8 9 -3 -10 -7 58 
-2 -7 -5 -51 -2 -68 -4 -8 -4 39 -1 -88 -7 1 -12 88 
-1 54 -8 3 -1 -11 -4 -103 -5 -26 -9 134 -7 33 -3 -125 
-8 -9 -10 -79 -5 72 -7 26 -10 29 -5 13 -10 -91 -4 69 
-13 -93 -5 -122 -5 -173 2328 3445 100 MP stroke
-13 212 -8 88 -10 83 -12 33 -5 -24 -6 -73 -17 -27 -13 -53 
-2 -87 -13 145 -11 -107 -8 167 -15 83 -6 -81 -10 15 -7 -47 
-12 53 0 88 35 31 -15 -34 -4 53 -14 -3 -3 47 -54 -216 
-13 2 -8 64 -7 -8 -10 65 -8 58 -9 -8 -10 -28 -8 -22 
-10 -180 -10 58 -8 50 -9 2 -8 -32 -9 -142 -8 -135 -8 38 
-8 -55 -9 196 -8 -58 -8 -14 -4 8 -8 33 -9 79 -8 -1 
-9 -17 -8 93 -8 29 -10 -12 -9 6 -9 13 -10 38 -10 -131 
-8 -85 -8 -56 -10 15 -9 115 -8 -7 -10 51 -8 13 -10 7 
-9 -26 -9 -42 -10 102 -9 2 -9 20 -10 0 -10 17 -10 53 
-9 12 -10 3 -9 -58 -10 31 -9 -70 -9 -31 -9 -108 -9 -9 
-9 15 -9 -8 -9 6 -10 67 -8 107 -10 39 -8 30 -9 -7 
-9 42 -7 -46 -8 14 -9 -49 -7 40 -8 47 -6 29 -8 10 
-7 -9 -7 -19 -6 -9 3204 2862 100 MP stroke
-6 3 -5 -28 -6 7 -5 -29 -5 -19 -4 -16 -4 22 -5 -2 
-5 -32 -4 -9 -4 -31 -3 2 -4 -15 -4 -27 -3 -20 -3 16 
-2 18 -2 18 -3 22 -1 4 -2 4 0 -21 -1 -51 0 49 
-1 14 1 18 1 -33 1 3 1 -13 3 45 1 -5 3 -36 
2 10 3 27 3 -23 3 13 4 -16 4 45 2 1 4 -40 
3 -8 3 15 4 33 3 15 2 3 2 22 3 51 2 -11 
2 -13 1 36 1 34 1 -11 0 -53 1 -52 0 -85 -1 -21 
-1 -58 -1 12 -1 -22 -2 3 -2 11 -1 -65 -3 -216 -2 7 
-3 -106 -2 150 -1 265 -4 48 -3 -45 -4 96 -4 57 -4 14 
-5 2 -4 -54 -4 -21 -4 -12 -4 88 -4 37 -4 20 -4 0 
-3 26 -4 -25 -3 8 -4 -9 -3 19 -3 -71 -3 0 -2 -124 
-3 -37 -2 -7 -3 -40 -3 21 -1 144 -2 -2 -2 -39 -2 -50 
-1 32 -2 -19 -1 12 3341 2982 100 MP stroke
-1 -28 -1 -58 -1 -134 -1 -416 0 285 -1 -104 0 377 0 -457 
0 436 1 54 1 -149 0 -113 1 6 1 35 2 -90 1 62 
1 48 1 95 2 7 1 3 2 -211 2 175 2 -23 3 -22 
3 -18 3 -52 3 136 2 -129 4 -130 3 118 3 208 3 117 
4 -47 2 -59 4 110 3 -58 4 -38 3 3 4 -14 3 -20 
4 67 4 -139 4 -96 3 -236 5 398 4 70 4 29 5 -4 
4 19 4 16 5 -2 5 24 4 -18 5 -1 4 169 5 52 
4 -100 5 -116 4 69 4 -84 4 -37 4 4 4 -71 3 132 
4 26 3 -166 4 -59 4 41 3 -6 3 1 2 -189 2 275 
3 -75 2 129 2 16 2 -14 1 -49 0 -36 1 65 0 83 
-1 28 0 -110 -2 41 -1 -120 -2 -35 -1 46 -3 -166 -2 165 
-3 -120 -3 -206 -3 102 -3 95 -4 -145 -3 47 -4 -133 -4 190 
-4 187 -3 68 -4 132 3187 2824 100 MP stroke
-4 28 -4 57 -5 46 -4 -16 -5 -1 -5 -18 -5 -48 -5 18 
-5 67 -6 -16 -6 10 -7 -22 -6 -24 -7 -78 -7 68 -7 -101 
-8 37 -8 -27 -8 -140 -8 -66 -9 77 -9 68 -8 15 -9 27 
-9 -77 -9 120 -9 53 -9 4 -9 1 -8 -55 -9 -25 -9 38 
-8 -7 -9 -53 -9 35 -8 15 -8 -13 -9 -36 -8 12 -8 73 
-9 10 -8 61 -8 35 -8 -11 -8 55 -8 -39 -8 30 -8 -44 
-7 38 -8 95 -7 34 -7 31 -7 28 -7 44 -7 30 -7 -50 
-6 -155 -7 -104 -6 -134 -6 19 -6 95 -6 49 -5 35 -5 -24 
-5 35 -5 53 -4 -93 -4 -72 -4 -15 -4 5 -3 3 -2 77 
-3 55 -2 46 -2 -35 -1 -19 -1 20 -1 3 0 23 -1 11 
1 27 1 -20 1 33 1 4 2 -23 3 -9 3 -21 3 3 
4 -4 4 26 5 41 6 33 6 -2 6 -6 8 30 8 -29 
9 -20 10 -7 11 -27 3599 2524 100 MP stroke
12 -16 12 -57 13 -1 15 21 15 57 16 -30 16 -50 17 -8 
19 -60 19 -78 19 -15 21 36 21 -22 22 41 23 47 23 13 
24 -5 25 -25 24 -52 26 -27 26 6 27 -47 26 -53 28 -5 
27 -29 28 69 28 26 27 40 28 -32 28 -32 27 3 27 13 
27 -20 26 -28 26 5 27 20 24 -5 25 -24 23 -13 23 37 
21 -20 21 -24 19 -86 19 -69 17 10 17 -33 16 -37 14 -82 
13 86 12 37 10 -54 10 -57 8 -116 7 103 6 46 6 -10 
3 -41 3 -57 2 -16 0 112 0 -53 -3 8 -3 -25 -3 -80 
-4 -80 -6 -38 -4 -9 -7 -40 -7 29 -7 -1 -7 13 -8 137 
-8 -31 -10 53 -9 -105 -9 -230 -10 28 -8 -19 -10 80 -11 34 
-10 -30 -11 -5 -10 -17 -11 119 -10 25 -11 59 -10 63 -11 24 
-10 -4 -10 -21 -10 3 -11 -99 -9 16 -13 108 -9 -67 -11 3 
-10 -19 -11 14 -9 -46 2796 3335 100 MP stroke
-8 -13 -9 21 -10 27 -5 25 -7 35 -7 -37 -5 35 -6 -43 
-5 -7 -4 -57 -4 53 -2 41 -6 19 -3 157 -3 67 -2 21 
1 -37 -1 32 -1 -32 -2 0 0 -5 -1 -75 1 -121 -2 -17 
0 -27 1 85 0 26 1 -27 -1 -3 5 82 -2 1 1 -33 
0 -70 1 35 -1 20 2 -110 0 87 -1 58 1 -31 0 -14 
-1 4 3 36 0 26 1 -59 0 -26 2 -42 4 27 0 -4 
4 -34 3 54 2 -36 3 -42 4 120 4 -7 4 15 7 -19 
5 19 6 24 6 -9 7 -27 8 32 9 -64 9 -24 10 49 
11 69 12 -29 11 16 12 41 15 31 12 91 13 -37 14 -65 
15 -77 18 -76 15 18 16 -8 17 16 16 72 16 32 19 -47 
16 -4 16 -75 16 -2 18 -75 14 148 12 -16 15 -105 12 -11 
11 -43 11 61 10 -43 7 18 6 30 6 85 3 -11 0 10 
2 -24 1 -19 -4 63 2376 3120 100 MP stroke
-2 -58 -6 -25 -2 -24 -11 51 -6 -74 -8 -79 -9 37 -10 17 
-14 87 -12 -28 -12 53 -12 107 -11 -18 -15 -66 -14 7 -25 125 
-9 16 -9 7 -18 32 -10 -59 -17 -55 -16 29 -17 3 -15 75 
-15 28 -14 -52 -16 -42 -14 67 -15 -64 -14 -78 -10 -120 -16 92 
-28 42 0 -54 -11 53 -9 89 -16 44 -16 -54 -7 -63 -15 71 
-11 12 -12 24 -13 1 -12 9 -10 -89 -5 -62 -13 24 -10 11 
-10 -72 -9 22 -8 35 -8 -14 -8 17 -4 -49 -10 -1 -7 -18 
-7 102 -4 17 -6 37 0 -38 -6 -22 -6 12 3 57 -3 -34 
-2 -33 -3 15 0 -93 -1 -58 2 8 -1 60 -5 59 2 -32 
4 70 5 -66 7 136 8 42 1 -47 6 91 1 -87 7 -36 
3 -107 5 51 6 76 7 -30 5 45 7 25 6 10 7 5 
6 -56 6 -1 7 10 7 75 7 -29 7 -23 4 -50 3 -87 
13 23 4 -27 8 -3 2902 3084 100 MP stroke
13 64 1 -56 14 65 12 4 8 -30 10 29 9 99 10 -42 
10 -3 11 -23 11 -2 11 -80 11 -43 6 -173 17 105 5 87 
17 46 15 -25 12 37 13 -18 10 16 12 8 11 14 13 17 
11 13 13 53 12 35 12 -48 12 -35 12 -9 11 31 10 3 
12 13 11 -48 12 -39 11 -18 12 3 9 9 11 -78 8 43 
11 -11 10 70 9 -16 10 33 7 -23 9 -40 10 -41 7 -18 
7 59 8 27 5 69 5 -33 6 -2 4 -73 4 -6 3 22 
4 38 1 -15 3 3 2 -1 5 -31 8 6 -2 -71 -4 -17 
0 -168 1 8 -2 81 -2 -6 -2 -82 -1 83 -3 13 -2 22 
-2 37 -3 22 -3 -31 -2 84 -3 42 -3 -50 -5 -14 -3 43 
-4 -126 -10 -31 -3 -26 -6 -173 -5 -50 -5 -14 -3 35 -7 186 
-5 28 -6 -26 -6 62 -6 0 -8 110 -4 -28 -6 94 -4 192 
-2 -74 -12 10 -5 -39 2471 2917 100 MP stroke
-9 31 -9 -54 -8 32 -8 29 -9 -3 -6 45 -9 11 -8 -50 
-9 -22 -8 -3 -6 22 -8 -22 -8 18 -11 -224 -14 3 -5 78 
-5 -55 -8 16 -5 51 -8 29 -4 12 -6 -70 -7 64 -3 -48 
-3 -10 -7 -45 -1 -44 -5 74 -7 13 2 -83 -1 -62 -4 75 
1 48 -4 -21 0 42 3 50 1 -14 -1 22 5 -40 2 -52 
2 21 1 -19 6 35 -2 -20 6 -13 5 -83 5 16 5 -43 
6 -114 7 -65 6 -84 6 5 8 51 8 45 9 116 9 -11 
10 -8 11 2 10 27 12 48 12 17 12 -16 13 35 12 37 
15 31 12 -54 13 -6 14 -40 16 -22 10 -12 22 52 12 -51 
5 -7 18 93 11 -14 14 -12 11 -17 12 -16 11 -44 12 -7 
12 -3 13 -8 11 -27 13 54 9 -14 11 -6 12 34 9 -23 
9 10 10 -3 8 21 7 -32 8 19 9 24 7 -40 8 47 
7 4 6 -45 7 -81 2108 3290 100 MP stroke
6 4 9 26 10 -17 -1 -14 6 15 8 14 9 -4 5 36 
7 -12 5 31 16 19 4 -55 15 44 1 -12 0 -128 9 116 
11 55 6 -55 9 -71 6 60 6 18 2 13 7 9 9 -33 
4 -12 5 -4 5 20 6 0 5 -101 6 -73 -1 112 1 14 
2 31 2 1 -3 21 5 -23 -2 27 -2 -1 0 1 -5 2 
0 5 0 -15 -5 1 -4 -19 -3 19 0 -15 -9 29 -3 -20 
-9 34 -6 4 -4 -14 -6 28 -15 -42 -6 -41 -4 -9 -9 -33 
-10 147 -10 -44 -9 5 -11 -132 -10 38 -15 6 -10 49 -13 -92 
-9 73 -14 -22 -16 -13 -10 -65 -10 12 -10 73 -15 70 -11 19 
-13 26 -15 -1 -10 -37 -12 -5 -14 36 -14 -5 -11 -50 -14 25 
-13 -11 -10 -12 -13 -33 -13 18 -15 41 -11 7 -12 -5 -13 -3 
-13 -16 -13 -16 -10 -36 -12 -70 -10 41 -12 -13 -10 47 -12 -5 
-10 52 -10 37 -10 2 2506 3166 100 MP stroke
-11 -54 -9 -3 -11 -75 -10 17 -9 -2 -11 0 -7 -13 -8 13 
-11 36 -5 35 -15 -29 -13 0 -2 -66 -9 80 -8 -55 -10 42 
-6 45 -10 77 -5 -46 -8 41 -6 17 -8 -38 -7 0 -7 -60 
-6 141 -10 68 -5 47 -6 -26 -6 26 -6 -78 -5 -60 -7 -58 
-6 9 -4 79 -6 -17 -4 -6 -6 40 -4 -14 -5 -20 -5 63 
-2 -29 -4 12 -3 57 -4 -55 -4 43 -3 -29 -1 -43 -4 19 
-2 24 -4 43 -2 36 0 18 -3 -40 -2 4 0 -84 -4 -40 
2 35 -1 -22 -1 -29 -2 -71 1 -58 0 115 -1 -16 1 49 
-1 2 0 60 1 45 0 76 0 -62 1 -9 0 -14 0 44 
1 53 1 17 0 -40 2 21 0 18 2 -2 0 53 2 -56 
2 -78 3 -58 1 24 1 49 4 11 2 -49 3 -46 3 -12 
3 31 3 -43 5 -6 3 34 5 -43 5 18 4 -2 5 16 
6 -97 5 -42 5 -71 2769 3229 100 MP stroke
6 -33 6 34 6 -58 3 -430 9 191 4 68 5 -21 7 119 
5 -85 6 128 6 130 5 85 6 114 5 46 5 47 5 4 
4 59 4 81 3 -40 3 -34 2 -36 3 -27 3 -57 1 63 
0 -17 2 -31 1 -90 -2 -81 0 89 -5 95 0 -36 -5 -8 
-3 70 -6 -12 -3 3 -1 -21 -6 44 -5 49 -7 -115 -8 -77 
-7 40 -9 18 -7 -72 -9 17 -9 0 -10 -19 -9 27 -9 28 
-9 -29 -10 -106 -10 -16 -9 2 -9 144 -10 62 -9 -24 -10 -16 
-9 66 -9 -31 -9 -15 -9 -3 -9 -61 -9 17 -8 13 -9 -5 
-8 -18 -8 7 -9 16 -7 30 -8 -38 -7 -5 -7 -18 -7 24 
-7 15 -6 8 -6 13 -7 -64 -6 -48 -6 88 -5 -24 -5 30 
-5 -9 -6 -73 -4 -27 -5 141 -4 37 -5 45 -4 -12 -5 39 
-4 30 -4 -45 -3 38 -4 51 -3 -24 -4 -7 -3 13 -3 -44 
-2 -28 -4 17 -1 -36 3103 2860 100 MP stroke
-4 -34 0 -107 -3 39 -2 -22 -1 18 -2 138 0 -132 -3 77 
-2 -70 0 -97 -1 89 -2 -84 0 -119 -1 95 -1 29 -1 83 
0 20 0 -221 -1 -28 -1 -119 0 449 -1 83 0 -79 -1 -8 
-1 -21 -1 64 -1 -102 -1 72 -1 -26 -1 86 0 16 -1 -8 
-1 25 0 -11 3 -43 -6 -38 4 -175 1 -149 -6 168 5 34 
3 18 -5 -15 6 -39 1 87 0 -13 1 -51 2 -188 0 7 
1 -125 1 78 0 -35 2 -119 -1 166 2 -24 2 -244 2 164 
1 65 2 98 3 10 1 170 2 -51 5 -66 -7 1 -3 10 
7 40 0 -150 3 -181 2 157 3 -8 3 -28 3 17 2 21 
2 43 4 -35 4 82 2 52 5 83 3 -60 4 34 3 -3 
4 -55 4 53 4 -3 3 -108 4 -10 4 23 3 58 6 -2 
2 67 4 -2 4 54 4 46 2 19 2 66 7 -1 -1 22 
6 -9 4 -7 4 -5 2996 2794 100 MP stroke
4 5 5 12 4 0 5 10 7 -19 4 -19 6 -27 5 -1 
6 -4 6 -27 4 -23 6 -19 6 36 5 2 5 7 6 -78 
5 -9 5 -23 6 -12 4 -19 5 18 6 -92 6 -16 5 -183 
7 -222 4 -138 5 221 6 47 5 -200 4 153 6 108 5 158 
5 -1 6 -23 4 -100 5 -121 5 -126 5 31 5 288 4 -33 
4 -357 4 199 4 120 3 -85 4 2 3 9 3 51 3 -335 
3 253 1 69 2 88 1 16 2 7 1 -107 1 0 0 -289 
0 217 1 266 -1 55 0 -16 -2 -284 0 -293 -1 33 0 45 
-1 247 -2 -18 -1 183 -2 -31 -1 104 -1 -242 -3 -690 -1 503 
-1 -11 -4 109 -2 269 -2 -39 -2 -180 -3 54 -2 83 -3 -53 
-3 20 -3 -253 -4 -148 -2 63 -4 251 -3 95 -3 -9 -4 -133 
-3 215 -3 20 -4 44 -3 80 -4 151 -3 94 -4 85 -4 56 
-4 76 -4 50 -5 17 2851 2507 100 MP stroke
-4 10 -4 5 -4 1 -4 3 -4 -4 -4 -4 -4 2 -3 -13 
-4 1 -3 -6 -4 -3 -3 -4 -3 -13 -3 -8 -3 0 -4 4 
-2 -5 -3 0 -2 -5 -3 -13 -2 -5 -3 -3 -2 -13 -3 -9 
-3 -5 -2 -3 -3 -5 -3 -5 -2 -5 -3 -6 -4 -12 -2 -17 
-4 -16 -3 -12 -3 -9 -3 -12 -3 -11 -3 -6 -3 -2 -3 -4 
-3 2 -1 -11 -3 -4 -3 -12 -2 -16 -2 -14 -3 -4 -2 1 
-3 2 -2 19 -2 7 -2 2 -3 10 -1 8 -2 -5 -2 6 
-2 1 -1 1 -2 -5 -1 6 -2 5 -1 3 0 20 -1 12 
-1 6 -1 5 -1 -3 -1 7 -1 -1 0 5 -1 2 0 2 
-1 -5 0 -8 -1 0 0 5 -1 -17 -1 -8 -1 -7 -2 -10 
-1 -7 -1 -7 -2 0 -1 -26 -1 -4 -2 -15 -2 -9 -1 -16 
-2 -20 -2 -12 -2 3 -2 -22 -2 -15 -3 -60 -3 -29 -3 -35 
-3 -3 -4 -54 -3 -33 3075 3076 100 MP stroke
-3 -29 -4 -127 -4 36 -4 112 -4 -10 -3 58 -4 -22 -4 -32 
-4 -12 -4 -115 -4 128 -4 125 -3 -17 -3 -45 -3 32 -4 7 
-3 -45 -4 -154 -2 43 -4 62 -5 -43 -2 -138 -3 178 -4 109 
-3 -21 -3 -26 -4 38 -2 31 -3 -11 -3 -64 -4 -123 -3 66 
-3 87 -3 -9 -4 5 -3 27 -3 -48 -2 64 -2 77 -2 -19 
-1 8 -1 -24 0 -199 0 4 1 -88 1 18 2 115 2 -157 
2 52 2 -83 3 155 4 1 4 19 4 -318 5 224 6 -79 
5 -31 7 -48 8 74 7 0 7 5 9 46 10 179 10 25 
9 60 10 -34 10 -45 11 -57 13 -73 12 68 11 43 13 -51 
11 83 13 -46 12 54 11 27 8 -42 9 -41 11 -30 10 60 
10 38 9 39 9 33 9 -12 8 -10 8 -24 7 -27 9 -13 
3 -11 9 6 9 13 5 -13 4 -20 0 -8 2 44 0 -50 
1 -36 0 -15 -1 18 2836 3075 100 MP stroke
-1 41 -2 5 -1 48 -3 71 -2 -25 -1 -118 -2 10 -1 51 
-3 64 0 -80 2 69 -3 20 -2 11 -1 3 1 -29 0 -39 
1 -50 0 3 1 -33 1 -31 1 -13 1 71 2 -39 4 -36 
6 57 2 42 5 24 3 -27 5 65 6 -64 6 -9 6 67 
8 -32 7 36 7 -3 8 -51 9 -60 9 -21 9 -25 8 22 
10 44 10 0 10 -21 11 62 11 -31 11 -82 13 -35 10 15 
13 41 13 15 14 82 13 -13 15 -35 14 -57 15 -85 14 32 
15 106 16 -18 15 33 15 -29 16 46 15 69 15 51 15 6 
15 29 14 -89 15 -34 15 -73 14 46 16 2 14 -75 15 -11 
12 9 14 73 13 42 16 9 17 -8 6 37 14 -68 4 -11 
7 -24 14 -19 3 35 13 -49 12 -59 4 86 8 -41 8 21 
8 23 7 55 5 36 6 -4 5 -5 4 -20 4 -28 4 -22 
2 -10 3 -15 2 -16 2088 3062 100 MP stroke
1 -10 2 4 2 -12 0 24 1 3 0 7 -2 17 -1 1 
-3 -25 -4 20 -4 21 -3 5 -5 52 -4 -39 -6 48 -7 -7 
-10 19 -4 48 -8 -29 -7 -70 -9 -39 -9 -73 -10 -29 -9 63 
-9 5 -5 31 -8 -17 -9 68 -9 -3 -6 58 -6 19 -5 -29 
-7 25 -6 -21 -6 1 -1 -35 -2 9 -2 -6 -3 -9 0 -8 
2 15 1 17 2 27 3 -66 4 -28 3 28 5 -64 7 84 
6 -20 7 -2 8 -41 11 0 9 85 10 37 10 -45 11 49 
12 23 11 46 13 -6 12 -44 11 -19 13 -30 12 -1 12 8 
12 7 11 -7 12 -64 11 -65 13 -23 10 67 8 97 10 2 
10 -45 7 -26 7 -27 11 -43 4 51 5 -9 5 1 5 28 
5 10 4 23 4 -36 4 -20 2 -27 4 10 4 5 2 3 
2 -13 -1 -34 1 -9 0 100 -3 -14 0 -2 -2 -14 -4 11 
-2 -36 -3 -50 -4 20 1922 3051 100 MP stroke
-5 31 -5 40 -4 53 -7 6 -7 26 -2 -69 -6 38 -6 -9 
-6 -76 -4 2 -6 -6 -8 9 -5 -20 -6 -18 -5 0 -4 -14 
-5 11 -5 46 -4 -13 -3 -45 -3 44 -3 -30 2 3 -3 -33 
2 2 -1 7 -1 -13 -4 25 23 -108 3 -9 0 47 1 -11 
1 67 1 54 3 -33 4 -44 3 -21 4 26 5 2 7 0 
6 -80 5 -21 7 17 6 -14 7 -38 5 20 6 -17 5 24 
6 -54 5 -69 5 -84 4 -65 7 32 2 126 2 40 2 8 
3 -38 3 1 1 -29 2 10 0 12 2 -39 0 -109 -1 -17 
-2 58 -1 -75 -4 25 -1 -46 -3 -8 -3 -33 -5 56 -4 -7 
-5 -54 -6 -21 -3 -29 -5 12 -6 -16 -6 18 -7 46 -7 18 
-7 8 -6 -1 -8 76 -7 -1 -6 -117 -5 48 -7 77 -6 -35 
-6 52 -7 1 -5 -29 -4 -55 -6 -100 -4 94 -6 5 -4 86 
-4 -28 -3 -53 -4 26 2064 3470 100 MP stroke
-3 34 -4 14 -2 -13 2 27 -5 78 0 -39 -4 21 0 29 
1 -13 1 -25 0 64 2 1 3 -4 2 26 2 69 3 49 
4 -74 3 6 4 14 5 55 5 41 5 16 5 -85 6 -1 
6 37 5 20 6 -40 5 -12 6 -4 6 43 5 -5 6 43 
6 -21 5 -12 5 -10 4 -10 5 34 4 10 4 50 4 1 
3 -30 2 0 2 54 1 -38 1 14 1 -40 0 92 -1 20 
-1 63 1 56 -2 55 -2 27 -1 19 0 4 -2 9 -2 8 
-2 1 -1 3 -1 3 -3 1 1 7 6 4 -3 -1 -1 5 
-2 3 1 -7 -4 -6 4 -25 -1 -8 0 -17 -1 -2 0 -48 
1 -36 2 -27 2 -25 3 -19 1 17 2 3 3 -11 1 15 
4 -19 4 14 3 -63 2 -16 2 -2 3 -20 5 -14 3 2 
4 -9 5 -17 4 -12 4 -1 4 12 3 -6 4 26 0 -4 
3 -40 3 -12 4 5 1875 3089 100 MP stroke
4 49 3 -42 4 -83 2 65 3 -1 -5 5 -4 13 3 -51 
11 51 7 -40 -3 20 1 78 0 15 -1 -62 -1 11 -1 -18 
3 -10 -2 18 -4 36 -1 12 -2 -53 0 -77 -3 -34 -5 -4 
-5 20 -2 44 -3 24 -3 37 -7 13 -1 -67 -7 56 -7 -37 
-7 -58 -2 -55 -8 79 -6 34 -3 -91 -9 -25 -6 -29 -6 -20 
-13 81 -8 -7 -11 -11 -10 -26 -11 -43 -11 60 -13 -44 -12 3 
-13 5 -11 5 -14 18 -15 14 -11 -32 -15 56 -14 -1 -13 -113 
-13 -16 -13 11 -13 -22 -13 26 -13 17 -12 -26 -14 12 -12 48 
-12 -30 -13 -98 -11 54 -13 29 -13 40 -11 33 -13 54 -11 17 
-12 21 -12 -44 -11 -25 -11 -45 -12 15 -11 31 -10 50 -11 68 
-10 0 -10 18 -9 -33 -9 27 -9 18 -8 45 -8 1 -8 2 
-7 6 -8 6 -24 66 -5 1 -6 0 -4 4 -5 10 -4 3 
-3 -9 17 -33 -1 -5 2554 2954 100 MP stroke
-2 -12 -2 -4 0 -3 1 1 1 -5 1 -9 3 -2 3 4 
3 -9 3 1 3 -9 5 -3 5 -14 5 -19 6 -20 8 27 
7 -28 7 -5 7 -35 10 7 9 13 11 16 10 32 12 -27 
11 -20 14 16 12 30 15 22 14 -72 14 -58 15 -50 16 29 
16 0 16 2 18 -42 17 -59 16 -9 16 2 18 -23 18 42 
19 -29 15 -42 20 -8 16 31 16 -27 19 -56 15 -63 13 19 
18 29 14 107 14 -2 13 -140 15 62 14 38 12 -31 9 -19 
11 -62 9 22 7 35 10 14 7 -21 7 -1 4 50 6 -18 
2 -13 4 -4 2 73 1 42 1 -51 0 -26 -2 -42 0 -104 
-3 15 -3 66 -2 -50 -3 46 -5 95 -6 31 -4 -6 -6 -91 
-6 -60 -8 19 -8 -25 -9 28 -7 -15 -5 34 -14 -49 -5 38 
-10 -88 -9 31 -7 20 -15 -30 -9 -69 -10 72 -12 -116 -10 -10 
-10 -118 -11 -308 -12 170 2090 3854 100 MP stroke
-10 160 -11 -1 -12 -55 -12 -146 -10 174 -13 62 -11 -103 -12 -30 
-10 -33 -10 -172 -11 355 -12 -58 -9 -129 -8 30 -10 91 -10 -85 
-8 106 -8 92 -5 101 -10 3 -7 -65 -5 -273 -5 137 -5 -6 
-3 109 -3 96 -4 -3 -1 -109 1 -66 0 48 1 -168 2 -70 
3 34 3 75 5 -22 7 -82 6 65 6 -330 7 391 10 20 
9 -110 7 125 9 183 12 54 11 -109 10 39 13 -140 12 70 
13 101 13 10 12 15 13 77 14 43 13 -43 14 -14 13 -19 
14 8 14 8 13 -76 12 -7 14 -2 13 33 12 58 13 -38 
12 86 13 62 11 -1 10 -30 12 23 11 -117 11 75 8 25 
9 -1 10 -10 9 -41 7 -89 6 113 7 36 5 36 3 0 
4 16 4 42 5 -3 -1 7 1 52 1 -107 0 2 -3 46 
-2 -22 -4 11 -5 3 -2 25 -5 -46 -8 35 -7 -28 -7 39 
-7 17 -8 -8 -7 -44 1888 3241 100 MP stroke
-5 -2 -5 61 -8 -1 -7 21 -4 -25 -7 3 -5 19 -4 -14 
-2 -109 -5 -10 -1 -82 -4 17 -1 -68 0 109 -2 -57 -1 60 
0 63 3 40 -3 14 3 59 6 -98 1 55 3 32 2 58 
3 64 3 -63 6 -15 2 115 4 30 2 0 3 7 1 3 
5 -28 1 13 1 -11 1 4 0 -31 -2 -17 -3 10 -4 23 
-4 -50 -5 -7 -6 -27 -7 26 -9 1 -8 -14 -9 -21 -9 -6 
-12 44 -12 -14 -13 -63 -13 65 -13 49 -14 21 -15 9 -15 -12 
-16 36 -16 -14 -17 -17 -18 -32 -18 24 -18 -4 -19 0 -19 6 
-18 -95 -18 24 -20 70 -20 81 -18 21 -18 17 -19 54 -18 11 
-19 -22 -17 -12 -18 -39 -16 -48 -17 56 -16 -75 -16 -2 -15 91 
-17 22 -15 -47 -14 -14 -15 -56 -13 -6 -13 -12 -12 -20 -12 46 
-18 2 -13 31 -10 -40 -11 39 -9 0 -10 -24 -10 -42 -8 -6 
-7 -18 -8 39 -7 76 2721 2890 100 MP stroke
-8 31 -7 -3 -6 -1 -6 -35 -6 5 -6 -22 -6 -38 -5 -45 
-5 17 -5 -47 -5 -54 -5 59 -5 53 -4 51 -4 -20 -4 20 
-4 5 -4 -43 -4 4 -3 -22 -5 -8 -2 31 1 -6 -5 -8 
-1 -62 -5 -27 -4 12 -4 10 -2 69 -6 -7 -1 -44 -1 57 
-6 16 -3 2 -5 -28 -5 -62 -5 58 -4 12 -5 34 -3 -3 
-5 -46 -3 -41 -5 -73 -1 -5 -4 55 -2 -27 -3 -6 0 -58 
-2 -17 -2 -25 -2 -5 1 65 -1 14 2 -39 0 -20 1 -63 
0 24 6 73 1 -15 3 -28 2 48 4 -11 3 29 4 108 
7 -105 4 -17 7 83 7 -59 3 44 8 6 8 24 9 17 
5 -20 7 -38 8 -47 8 -102 8 -61 7 42 8 36 8 11 
7 56 8 48 7 40 8 45 8 2 7 -8 8 -35 7 -55 
6 -23 8 8 6 -23 5 69 6 65 7 43 5 -67 6 -11 
5 20 4 -57 4 15 2663 3046 100 MP stroke
5 -52 4 79 3 26 4 -53 5 -54 4 -38 4 -104 4 111 
5 -16 4 -20 4 35 5 -16 5 -15 6 17 5 3 4 60 
6 48 5 4 6 -57 5 -18 6 19 6 11 6 28 7 -14 
5 65 6 -58 8 -120 7 -55 7 -69 8 60 7 11 8 -15 
7 90 8 29 8 -49 9 -23 8 -120 8 129 10 -11 8 -12 
10 3 10 0 8 -120 9 54 8 -59 10 35 14 -109 1 5 
9 59 6 66 10 74 7 -58 7 -43 7 -65 8 -1 8 96 
8 -20 6 -36 8 -148 8 -107 11 152 8 -40 6 83 7 127 
8 103 4 51 8 -29 4 31 5 13 5 9 3 18 3 -77 
5 28 2 38 1 0 3 0 3 -31 2 -78 3 -5 1 30 
0 -37 1 -85 0 -48 0 60 -2 -4 2 86 -2 62 1 35 
-2 53 -1 -12 -2 -41 -2 32 -2 -38 -1 -35 -2 0 -3 -81 
-3 56 -3 -21 -4 51 2194 3128 100 MP stroke
-2 7 -3 -104 -4 -34 -3 148 -5 43 -5 34 -5 29 -4 19 
-3 15 -4 -6 -6 0 -3 11 -6 24 -4 8 -6 5 -5 2 
-5 19 -5 13 -5 4 -10 6 -6 20 -5 3 -5 5 -6 8 
-5 30 -5 16 -6 9 -5 17 -5 19 -5 14 -5 22 -4 16 
-5 12 -4 5 -4 9 -4 11 -3 11 -4 8 -3 7 -2 2 
-3 7 -1 19 -3 7 -1 11 -1 4 -1 3 -1 -2 0 3 
-1 2 1 2 0 -3 1 -1 2388 2589 53 MP stroke
gr

c8
0 sg
%%IncludeResource: font Helvetica
/Helvetica /WindowsLatin1Encoding 120 FMSR

1402  294 mt 
(Experiment 3b - Digital magnetometers - RMSE of position - \
function of distance) s
2502 4939 mt 
(Distance to center of sensor network [m]) s
 558 2825 mt  -90 rotate
(RMSE [mm]) s
90 rotate

end %%Color Dict

eplot
%%EndObject

epage
end

showpage

%%Trailer
%%EOF
