%!PS-Adobe-2.0 EPSF-1.2
%%Creator: MATLAB, The MathWorks, Inc. Version 7.13.0.564 (R2011b). Operating System: Microsoft Windows 7.
%%Title: ..\figures\_orianalog_par_std.eps
%%CreationDate: 11/13/2012  17:43:26
%%DocumentNeededFonts: Helvetica
%%DocumentProcessColors: Cyan Magenta Yellow Black
%%Extensions: CMYK
%%Pages: 1
%%BoundingBox:    52   199   552   602
%%EndComments

%%BeginProlog
% MathWorks dictionary
/MathWorks 160 dict begin
% definition operators
/bdef {bind def} bind def
/ldef {load def} bind def
/xdef {exch def} bdef
/xstore {exch store} bdef
% operator abbreviations
/c  /clip ldef
/cc /concat ldef
/cp /closepath ldef
/gr /grestore ldef
/gs /gsave ldef
/mt /moveto ldef
/np /newpath ldef
/cm /currentmatrix ldef
/sm /setmatrix ldef
/rm /rmoveto ldef
/rl /rlineto ldef
/s {show newpath} bdef
/sc {setcmykcolor} bdef
/sr /setrgbcolor ldef
/sg /setgray ldef
/w /setlinewidth ldef
/j /setlinejoin ldef
/cap /setlinecap ldef
/rc {rectclip} bdef
/rf {rectfill} bdef
% page state control
/pgsv () def
/bpage {/pgsv save def} bdef
/epage {pgsv restore} bdef
/bplot /gsave ldef
/eplot {stroke grestore} bdef
% orientation switch
/portraitMode 0 def /landscapeMode 1 def /rotateMode 2 def
% coordinate system mappings
/dpi2point 0 def
% font control
/FontSize 0 def
/FMS {/FontSize xstore findfont [FontSize 0 0 FontSize neg 0 0]
  makefont setfont} bdef
/ISOLatin1Encoding where {pop /WindowsLatin1Encoding 256 array bdef
ISOLatin1Encoding WindowsLatin1Encoding copy pop
/.notdef/.notdef/quotesinglbase/florin/quotedblbase/ellipsis/dagger
/daggerdbl/circumflex/perthousand/Scaron/guilsinglleft/OE/.notdef/.notdef
/.notdef/.notdef/quoteleft/quoteright/quotedblleft/quotedblright/bullet
/endash/emdash/tilde/trademark/scaron/guilsinglright/oe/.notdef/.notdef
/Ydieresis WindowsLatin1Encoding 128 32 getinterval astore pop}
{/WindowsLatin1Encoding StandardEncoding bdef} ifelse
/reencode {exch dup where {pop load} {pop StandardEncoding} ifelse
  exch dup 3 1 roll findfont dup length dict begin
  { 1 index /FID ne {def}{pop pop} ifelse } forall
  /Encoding exch def currentdict end definefont pop} bdef
/isroman {findfont /CharStrings get /Agrave known} bdef
/FMSR {3 1 roll 1 index dup isroman {reencode} {pop pop} ifelse
  exch FMS} bdef
/csm {1 dpi2point div -1 dpi2point div scale neg translate
 dup landscapeMode eq {pop -90 rotate}
  {rotateMode eq {90 rotate} if} ifelse} bdef
% line types: solid, dotted, dashed, dotdash
/SO { [] 0 setdash } bdef
/DO { [.5 dpi2point mul 4 dpi2point mul] 0 setdash } bdef
/DA { [6 dpi2point mul] 0 setdash } bdef
/DD { [.5 dpi2point mul 4 dpi2point mul 6 dpi2point mul 4
  dpi2point mul] 0 setdash } bdef
% macros for lines and objects
/L {lineto stroke} bdef
/MP {3 1 roll moveto 1 sub {rlineto} repeat} bdef
/AP {{rlineto} repeat} bdef
/PDlw -1 def
/W {/PDlw currentlinewidth def setlinewidth} def
/PP {closepath eofill} bdef
/DP {closepath stroke} bdef
/MR {4 -2 roll moveto dup  0 exch rlineto exch 0 rlineto
  neg 0 exch rlineto closepath} bdef
/FR {MR stroke} bdef
/PR {MR fill} bdef
/L1i {{currentfile picstr readhexstring pop} image} bdef
/tMatrix matrix def
/MakeOval {newpath tMatrix currentmatrix pop translate scale
0 0 1 0 360 arc tMatrix setmatrix} bdef
/FO {MakeOval stroke} bdef
/PO {MakeOval fill} bdef
/PD {currentlinewidth 2 div 0 360 arc fill
   PDlw -1 eq not {PDlw w /PDlw -1 def} if} def
/FA {newpath tMatrix currentmatrix pop translate scale
  0 0 1 5 -2 roll arc tMatrix setmatrix stroke} bdef
/PA {newpath tMatrix currentmatrix pop	translate 0 0 moveto scale
  0 0 1 5 -2 roll arc closepath tMatrix setmatrix fill} bdef
/FAn {newpath tMatrix currentmatrix pop translate scale
  0 0 1 5 -2 roll arcn tMatrix setmatrix stroke} bdef
/PAn {newpath tMatrix currentmatrix pop translate 0 0 moveto scale
  0 0 1 5 -2 roll arcn closepath tMatrix setmatrix fill} bdef
/vradius 0 def /hradius 0 def /lry 0 def
/lrx 0 def /uly 0 def /ulx 0 def /rad 0 def
/MRR {/vradius xdef /hradius xdef /lry xdef /lrx xdef /uly xdef
  /ulx xdef newpath tMatrix currentmatrix pop ulx hradius add uly
  vradius add translate hradius vradius scale 0 0 1 180 270 arc 
  tMatrix setmatrix lrx hradius sub uly vradius add translate
  hradius vradius scale 0 0 1 270 360 arc tMatrix setmatrix
  lrx hradius sub lry vradius sub translate hradius vradius scale
  0 0 1 0 90 arc tMatrix setmatrix ulx hradius add lry vradius sub
  translate hradius vradius scale 0 0 1 90 180 arc tMatrix setmatrix
  closepath} bdef
/FRR {MRR stroke } bdef
/PRR {MRR fill } bdef
/MlrRR {/lry xdef /lrx xdef /uly xdef /ulx xdef /rad lry uly sub 2 div def
  newpath tMatrix currentmatrix pop ulx rad add uly rad add translate
  rad rad scale 0 0 1 90 270 arc tMatrix setmatrix lrx rad sub lry rad
  sub translate rad rad scale 0 0 1 270 90 arc tMatrix setmatrix
  closepath} bdef
/FlrRR {MlrRR stroke } bdef
/PlrRR {MlrRR fill } bdef
/MtbRR {/lry xdef /lrx xdef /uly xdef /ulx xdef /rad lrx ulx sub 2 div def
  newpath tMatrix currentmatrix pop ulx rad add uly rad add translate
  rad rad scale 0 0 1 180 360 arc tMatrix setmatrix lrx rad sub lry rad
  sub translate rad rad scale 0 0 1 0 180 arc tMatrix setmatrix
  closepath} bdef
/FtbRR {MtbRR stroke } bdef
/PtbRR {MtbRR fill } bdef
/stri 6 array def /dtri 6 array def
/smat 6 array def /dmat 6 array def
/tmat1 6 array def /tmat2 6 array def /dif 3 array def
/asub {/ind2 exch def /ind1 exch def dup dup
  ind1 get exch ind2 get sub exch } bdef
/tri_to_matrix {
  2 0 asub 3 1 asub 4 0 asub 5 1 asub
  dup 0 get exch 1 get 7 -1 roll astore } bdef
/compute_transform {
  dmat dtri tri_to_matrix tmat1 invertmatrix 
  smat stri tri_to_matrix tmat2 concatmatrix } bdef
/ds {stri astore pop} bdef
/dt {dtri astore pop} bdef
/db {2 copy /cols xdef /rows xdef mul dup 3 mul string
  currentfile exch readhexstring pop
  dup 0 3 index getinterval /rbmap xdef
  dup 2 index dup getinterval /gbmap xdef
  1 index dup 2 mul exch getinterval /bbmap xdef pop pop}bdef
/it {gs np dtri aload pop moveto lineto lineto cp c
  cols rows 8 compute_transform 
  rbmap gbmap bbmap true 3 colorimage gr}bdef
/il {newpath moveto lineto stroke}bdef
currentdict end def
%%EndProlog

%%BeginSetup
MathWorks begin

0 cap

end
%%EndSetup

%%Page: 1 1
%%BeginPageSetup
%%PageBoundingBox:    52   199   552   602
MathWorks begin
bpage
%%EndPageSetup

%%BeginObject: obj1
bplot

/dpi2point 12 def
portraitMode 0204 7344 csm

  422   110  5999  4844 MR c np
85 dict begin %Colortable dictionary
/c0 { 0.000000 0.000000 0.000000 sr} bdef
/c1 { 1.000000 1.000000 1.000000 sr} bdef
/c2 { 0.900000 0.000000 0.000000 sr} bdef
/c3 { 0.000000 0.820000 0.000000 sr} bdef
/c4 { 0.000000 0.000000 0.800000 sr} bdef
/c5 { 0.910000 0.820000 0.320000 sr} bdef
/c6 { 1.000000 0.260000 0.820000 sr} bdef
/c7 { 0.000000 0.820000 0.820000 sr} bdef
c0
1 j
1 sg
   0    0 6913 5185 PR
6 w
0 4225 5356 0 0 -4225 899 4614 4 MP
PP
-5356 0 0 4225 5356 0 0 -4225 899 4614 5 MP stroke
4 w
DO
SO
6 w
0 sg
 899  389 mt 6255  389 L
 899 4614 mt 6255 4614 L
6255 4614 mt 6255  389 L
 899 4614 mt  899  389 L
 899 4614 mt 6255 4614 L
 899 4614 mt  899  389 L
 899 4614 mt  899 4560 L
 899  389 mt  899  442 L
%%IncludeResource: font Helvetica
/Helvetica /WindowsLatin1Encoding 120 FMSR

 816 4759 mt 
(0.1) s
1970 4614 mt 1970 4560 L
1970  389 mt 1970  442 L
1854 4759 mt 
(0.15) s
3041 4614 mt 3041 4560 L
3041  389 mt 3041  442 L
2958 4759 mt 
(0.2) s
4112 4614 mt 4112 4560 L
4112  389 mt 4112  442 L
3996 4759 mt 
(0.25) s
5183 4614 mt 5183 4560 L
5183  389 mt 5183  442 L
5100 4759 mt 
(0.3) s
6255 4614 mt 6255 4560 L
6255  389 mt 6255  442 L
6139 4759 mt 
(0.35) s
 899 4614 mt  925 4614 L
6255 4614 mt 6228 4614 L
 899 4614 mt  952 4614 L
6255 4614 mt 6201 4614 L
 640 4658 mt 
(10) s
%%IncludeResource: font Helvetica
/Helvetica /WindowsLatin1Encoding 80 FMSR

 773 4584 mt 
(-3) s
 899 4296 mt  925 4296 L
6255 4296 mt 6228 4296 L
 899 4110 mt  925 4110 L
6255 4110 mt 6228 4110 L
 899 3978 mt  925 3978 L
6255 3978 mt 6228 3978 L
 899 3875 mt  925 3875 L
6255 3875 mt 6228 3875 L
 899 3792 mt  925 3792 L
6255 3792 mt 6228 3792 L
 899 3721 mt  925 3721 L
6255 3721 mt 6228 3721 L
 899 3660 mt  925 3660 L
6255 3660 mt 6228 3660 L
 899 3606 mt  925 3606 L
6255 3606 mt 6228 3606 L
 899 3557 mt  925 3557 L
6255 3557 mt 6228 3557 L
 899 3557 mt  952 3557 L
6255 3557 mt 6201 3557 L
%%IncludeResource: font Helvetica
/Helvetica /WindowsLatin1Encoding 120 FMSR

 640 3601 mt 
(10) s
%%IncludeResource: font Helvetica
/Helvetica /WindowsLatin1Encoding 80 FMSR

 773 3527 mt 
(-2) s
 899 3239 mt  925 3239 L
6255 3239 mt 6228 3239 L
 899 3053 mt  925 3053 L
6255 3053 mt 6228 3053 L
 899 2921 mt  925 2921 L
6255 2921 mt 6228 2921 L
 899 2819 mt  925 2819 L
6255 2819 mt 6228 2819 L
 899 2735 mt  925 2735 L
6255 2735 mt 6228 2735 L
 899 2665 mt  925 2665 L
6255 2665 mt 6228 2665 L
 899 2603 mt  925 2603 L
6255 2603 mt 6228 2603 L
 899 2549 mt  925 2549 L
6255 2549 mt 6228 2549 L
 899 2501 mt  925 2501 L
6255 2501 mt 6228 2501 L
 899 2501 mt  952 2501 L
6255 2501 mt 6201 2501 L
%%IncludeResource: font Helvetica
/Helvetica /WindowsLatin1Encoding 120 FMSR

 640 2545 mt 
(10) s
%%IncludeResource: font Helvetica
/Helvetica /WindowsLatin1Encoding 80 FMSR

 773 2471 mt 
(-1) s
 899 2183 mt  925 2183 L
6255 2183 mt 6228 2183 L
 899 1997 mt  925 1997 L
6255 1997 mt 6228 1997 L
 899 1865 mt  925 1865 L
6255 1865 mt 6228 1865 L
 899 1763 mt  925 1763 L
6255 1763 mt 6228 1763 L
 899 1679 mt  925 1679 L
6255 1679 mt 6228 1679 L
 899 1608 mt  925 1608 L
6255 1608 mt 6228 1608 L
 899 1547 mt  925 1547 L
6255 1547 mt 6228 1547 L
 899 1493 mt  925 1493 L
6255 1493 mt 6228 1493 L
 899 1445 mt  925 1445 L
6255 1445 mt 6228 1445 L
 899 1445 mt  952 1445 L
6255 1445 mt 6201 1445 L
%%IncludeResource: font Helvetica
/Helvetica /WindowsLatin1Encoding 120 FMSR

 640 1489 mt 
(10) s
%%IncludeResource: font Helvetica
/Helvetica /WindowsLatin1Encoding 80 FMSR

 773 1415 mt 
(0) s
 899 1127 mt  925 1127 L
6255 1127 mt 6228 1127 L
 899  941 mt  925  941 L
6255  941 mt 6228  941 L
 899  809 mt  925  809 L
6255  809 mt 6228  809 L
 899  706 mt  925  706 L
6255  706 mt 6228  706 L
 899  623 mt  925  623 L
6255  623 mt 6228  623 L
 899  552 mt  925  552 L
6255  552 mt 6228  552 L
 899  491 mt  925  491 L
6255  491 mt 6228  491 L
 899  437 mt  925  437 L
6255  437 mt 6228  437 L
 899  389 mt  925  389 L
6255  389 mt 6228  389 L
 899  389 mt  952  389 L
6255  389 mt 6201  389 L
%%IncludeResource: font Helvetica
/Helvetica /WindowsLatin1Encoding 120 FMSR

 640  433 mt 
(10) s
%%IncludeResource: font Helvetica
/Helvetica /WindowsLatin1Encoding 80 FMSR

 773  359 mt 
(1) s
 899  389 mt 6255  389 L
 899 4614 mt 6255 4614 L
6255 4614 mt 6255  389 L
 899 4614 mt  899  389 L
gs 899 389 5357 4226 MR c np
/c8 { 0.000000 0.000000 1.000000 sr} bdef
c8
26 4 29 -51 27 -35 27 35 29 -28 27 -17 26 17 28 -43 
27 -52 27 -19 26 32 27 -37 26 -82 26 -51 26 -185 25 -158 
26 1 25 -110 25 -738 25 -1068 24 1039 25 488 24 -54 25 -483 
24 218 22 17 25 553 23 100 22 -214 22 -17 24 -159 23 -207 
22 135 23 -370 22 -275 24 408 23 -455 21 461 23 -265 21 70 
23 492 21 -160 22 -444 22 205 20 -133 22 463 22 125 22 -380 
19 -135 20 53 22 159 20 -1057 22 835 21 104 20 52 21 59 
19 -22 21 -691 19 650 21 -261 21 109 19 -11 20 -54 16 -126 
18 227 19 -400 19 177 17 10 17 -79 19 204 18 232 19 -209 
18 -144 17 68 17 -29 16 -544 19 790 19 152 13 -201 16 -1158 
18 1316 17 -79 17 -364 17 186 14 172 16 103 18 -884 16 679 
17 86 16 468 13 -125 16 -133 17 25 17 105 15 -159 15 -203 
14 -97 14 721 17 -31 4115 1820 100 MP stroke
15 -671 16 264 13 -322 15 67 14 -97 14 -790 16 917 12 36 
14 -17 15 201 11 -18 14 -312 14 18 14 245 12 -187 13 376 
14 140 11 120 13 -50 11 -501 14 533 12 -218 11 -544 13 -218 
10 -243 13 593 12 452 12 -65 11 -486 10 126 13 601 9 -126 
10 -373 12 51 11 226 11 -127 10 -155 13 -128 10 410 11 -717 
12 501 8 112 14 64 6 50 14 -170 21 -66 1 -86 5 -51 
13 -804 7 1116 12 -56 8 -45 7 -251 20 -101 8 149 -1 -99 
12 -93 8 56 8 -77 10 -124 7 122 10 128 7 -71 8 -43 
10 219 7 412 10 -282 6 -547 9 376 8 85 7 346 8 -396 
7 312 9 -40 7 -577 9 -19 10 182 4 107 17 176 10 81 
-1 -221 8 -101 9 -138 6 -153 8 220 7 -630 7 945 8 58 
7 -629 8 208 8 472 7 -117 7 -414 8 299 7 -17 6 -322 
8 -37 7 -169 7 439 3121 2520 100 MP stroke
8 107 7 69 9 -185 5 -82 12 -473 14 595 -2 -189 7 72 
10 -28 5 172 10 -2 6 -53 8 139 8 4 6 -317 9 198 
7 -36 8 196 9 -320 7 302 8 133 8 7 7 -182 8 -133 
7 70 7 156 16 -195 7 -220 -1 308 11 164 6 -465 6 13 
9 408 5 -62 9 -33 5 -401 7 94 9 148 6 -19 8 -104 
6 185 9 -553 7 545 6 -70 8 229 5 -234 10 -58 8 107 
8 -294 7 -360 7 376 9 298 6 -441 9 497 7 216 7 -291 
8 14 5 -114 9 -188 7 146 8 -245 7 450 6 -167 7 -141 
6 63 8 67 8 28 7 -65 7 52 5 -376 8 51 8 356 
8 191 6 -329 6 -403 8 877 6 31 9 -669 7 329 7 70 
8 -265 5 -344 8 354 7 58 7 -335 6 128 6 -204 7 353 
6 29 8 -214 7 168 5 175 6 12 7 -421 5 311 9 -136 
12 139 1 -147 2 315 2408 2508 100 MP stroke
9 -285 4 -294 8 -183 6 289 5 13 8 74 4 229 8 -50 
6 -88 6 161 6 82 5 -157 8 -45 4 -402 7 345 6 -105 
6 -391 7 615 4 -240 7 -102 3 264 5 110 5 275 5 -277 
7 -34 3 -9 5 -101 4 172 4 -70 6 -21 3 173 5 -297 
3 179 4 -273 4 -464 2 51 4 505 3 -70 3 200 3 217 
3 93 2 50 8 -268 7 189 -7 415 4 -140 12 -257 2 125 
3 75 2 -32 3 11 1 -36 4 138 6 -7 -6 -369 -3 415 
4 -92 2 2 3 -33 1 -74 2 132 0 216 3 -300 7 184 
0 -171 2 3 -2 -701 1 573 1 137 0 19 -1 229 -7 -657 
-6 227 0 -297 -1 450 -3 -120 -2 -126 -4 83 -1 -837 -3 300 
-3 539 -2 -66 -3 206 -3 40 -2 80 -3 56 -4 -174 3 130 
-1 119 -5 -263 -3 72 -4 -356 0 554 -3 35 -5 -356 -1 354 
-8 -582 -9 544 -3 -218 2225 2249 100 MP stroke
-3 -23 -3 -162 -4 25 -2 -98 -4 15 -5 218 -3 -193 -4 -207 
-4 -48 -5 -598 -3 915 -4 154 -5 -163 -3 -391 -5 -324 -3 275 
-5 28 -5 -333 -3 615 -5 -15 -4 14 -4 -305 -4 14 -4 242 
-4 228 -4 14 -4 -237 -2 508 -5 -130 -4 -106 -6 37 -6 130 
-3 -203 -4 100 -2 -279 -3 369 -4 11 -6 -627 -6 546 -2 -320 
-5 -446 -6 651 -3 324 -4 39 -1 -935 -3 598 -4 239 -6 -296 
-3 -260 -2 175 -5 29 -1 117 -6 -91 -4 353 0 -76 -5 35 
-3 -619 -1 706 -5 -1618 -3 508 -3 375 -3 186 -4 304 -2 -92 
-1 287 -5 67 -4 105 -4 -667 -5 718 -3 -386 -4 119 -3 41 
-3 147 -2 -637 -2 676 -4 -499 -1 81 -4 47 -3 -168 -3 -90 
-4 488 -3 -94 -3 121 -3 -227 -2 104 -2 -116 -3 239 -3 18 
-3 13 -3 61 -3 -175 -3 29 -3 -578 -2 185 -3 -33 -2 267 
-3 -84 -2 -361 -1 199 2568 2450 100 MP stroke
-3 -244 -2 230 -3 -359 -2 72 -2 185 -3 -101 -2 53 -2 -325 
-2 225 -2 184 -4 810 -1 -134 -3 -369 -3 -608 0 307 -2 62 
-2 -470 -2 -492 -2 981 -3 -408 -3 -771 0 615 -1 471 -4 -307 
-1 -200 -3 -240 -1 587 -2 213 -3 -27 -1 118 -3 -32 -1 -28 
-2 -414 -2 -88 -1 349 -2 -10 -1 235 -2 152 -3 -190 0 -376 
-2 219 -3 123 2 -839 -2 376 -2 -133 1 171 -3 -28 0 303 
-2 -440 -3 276 1 -25 -2 -44 -2 -5 -3 294 -2 -242 0 -208 
-3 98 -1 435 0 -26 -5 -60 -1 -233 0 -99 -2 -21 -4 -445 
-1 -119 1 116 -5 860 -3 -88 0 -693 -3 332 -1 499 -3 -49 
-3 -15 -1 -77 -4 -336 -7 505 -2 -152 2 -28 -2 -613 -2 585 
-3 -141 -4 155 -1 275 -1 101 -3 -61 -2 -228 -5 -569 0 192 
-5 294 -6 104 4 -856 -3 438 -4 231 0 242 -2 72 -4 -264 
-4 -115 2 -269 -4 80 2766 2939 100 MP stroke
-9 321 -1 218 0 -15 1 81 -2 -53 -7 -484 -1 332 1 -48 
0 75 -2 -479 -3 142 0 -226 -4 502 -1 74 -3 -233 -5 -83 
1 -258 -6 405 -1 -374 1 163 -10 450 1 -79 -4 -99 -12 62 
-1 -255 1 -21 -1 -114 1 277 -1 -187 -7 56 -1 39 3 67 
-5 271 -1 -79 -1 -25 -4 16 0 -260 -1 0 -3 56 -2 -611 
-2 709 -3 -154 -3 425 -1 88 -4 -227 -2 -297 -3 95 -2 -142 
-3 248 -3 -232 -1 -1206 -6 1365 -3 122 0 -499 -6 -28 0 -266 
-4 691 -3 374 -1 -396 -6 -68 1 92 -11 -64 -9 369 5 -913 
-3 924 1 -207 1 125 -4 -405 -4 295 -7 -68 3 204 -1 -135 
-8 -545 -1 -18 1 502 -2 314 -2 -639 -2 -356 -7 591 -3 202 
3 -122 -2 -310 -3 483 -7 -136 -1 -440 2 555 -6 -1044 -3 1008 
1 -138 0 -270 -6 501 -3 -534 3 519 -4 -531 -2 548 0 -59 
-4 -191 1 185 -3 -117 2997 2538 100 MP stroke
-1 414 0 -533 -4 -203 0 305 1 115 -2 -3 -1 -877 1 643 
-2 -296 -2 515 1 -277 -1 573 -1 -332 0 263 -1 -219 1 -222 
-1 410 0 180 0 -637 0 113 -1 -107 0 116 0 -416 1 529 
0 -127 1 -741 0 1209 1 -601 1 -285 -1 362 2 187 0 -77 
1 -838 1 1007 0 -200 2 -311 1 518 1 -288 1 -385 0 561 
2 -114 1 -174 2 299 2 -625 1 736 2 -49 1 163 3 -335 
1 219 2 -621 2 56 1 497 3 -16 2 103 2 -155 1 500 
1 -216 2 -10 1 225 3 158 0 -457 -3 93 1 -44 2 13 
1 154 2 -44 1 -142 2 112 2 -136 1 333 7 -359 8 380 
1 15 2 -374 2 -17 2 143 3 170 1 -380 2 228 2 -46 
2 -489 2 225 1 -124 3 113 2 -75 2 55 1 -61 1 59 
1 117 1 222 2 76 0 -949 1 166 0 451 2 -376 -1 -195 
1 155 -1 -32 0 598 2904 2274 100 MP stroke
0 -205 -1 -146 0 65 -1 -71 0 237 -1 -236 -2 -330 0 439 
-1 370 -2 54 -10 -148 -7 292 6 -464 3 489 -5 -369 -12 330 
-3 156 -1 -79 -7 168 3 -512 4 229 -5 -118 -3 -50 -4 107 
-4 65 -4 -529 -3 -345 -4 -16 -4 -317 -3 946 -5 -186 -3 -98 
-4 49 -3 303 -4 -123 -5 -390 -3 442 -5 -251 -3 8 -4 150 
-5 -25 -4 -48 -5 6 -4 217 -5 -176 -4 -73 -3 -421 -5 201 
-4 469 -6 -12 -4 71 -6 -97 -14 401 -9 129 4 -1106 2 811 
-7 -103 -5 -367 -4 -183 -5 -1394 -4 1187 -6 -12 -3 551 -6 -101 
-5 -698 -4 236 -6 46 -4 251 -6 -122 -5 -323 -6 482 -6 -106 
-4 -10 -7 276 -5 -293 -6 237 -6 -303 -5 -86 -7 81 -5 113 
-6 -556 -7 394 -6 137 -6 -247 -5 -61 -7 338 -6 -263 -7 127 
-7 -307 -6 351 -6 -1316 -6 1636 -8 141 -7 -274 -8 -314 -8 212 
-6 -122 -9 306 -8 -52 3342 2522 100 MP stroke
-8 137 -9 175 -7 -103 -8 8 -8 -279 -9 27 -8 -274 -8 456 
-8 77 -8 39 -9 -139 -8 13 -9 -452 -8 361 -8 -335 -9 231 
-8 -648 -10 770 -8 -157 -8 7 -9 67 -7 -690 -9 705 -8 145 
-8 -436 -8 266 -8 -495 -8 481 -7 149 -8 -55 -7 -236 -8 24 
-6 32 -7 -324 -7 576 -6 -347 -7 -106 -6 309 -7 -386 -3 883 
-11 -1457 -14 1668 -4 -23 -6 67 5 -719 3 348 -9 -584 -2 414 
-6 -50 -5 53 -2 143 -6 -352 -2 -361 -5 -61 -3 -54 -3 111 
-5 111 -1 266 -5 36 -1 60 -3 -257 -3 -151 -1 95 -3 203 
-1 157 -3 25 -1 -252 -1 166 -3 -552 0 439 -2 -68 1 114 
-1 17 -2 -825 1 990 -2 -107 1 57 0 -275 1 24 -1 6 
1 -426 -1 578 2 -161 0 -646 2 275 0 573 2 -41 1 3 
3 126 2 -62 1 -38 4 175 0 -13 5 -165 5 -758 -1 598 
3 375 3 -8 3 -378 3722 2617 100 MP stroke
4 -371 3 -47 4 519 4 195 5 -129 3 -192 5 -253 5 385 
4 -152 5 309 5 -261 5 -356 5 502 5 -70 6 -222 6 44 
6 155 7 -610 5 349 7 292 12 -237 4 327 -1 -127 13 270 
1 -824 -1 1352 25 -813 10 553 -11 -91 11 200 14 -496 -1 -78 
13 446 12 195 1 -441 7 -77 7 63 6 76 8 -317 7 246 
8 23 8 -46 8 -226 8 74 17 187 4 -129 0 288 14 -134 
7 -217 9 -549 8 154 5 203 14 337 10 408 9 -34 7 -105 
0 -304 8 80 6 -163 9 -3 5 -202 6 127 16 -61 3 185 
2 217 8 -431 7 132 14 74 0 12 4 -269 11 489 3 -182 
11 -70 12 -175 0 98 3 -382 13 223 10 -189 -2 -345 8 -130 
15 1091 1 130 4 -89 7 -156 6 -46 8 -816 6 544 13 359 
6 197 -2 16 11 -226 13 270 7 32 8 -375 5 355 11 -19 
12 100 -2 -47 8 -400 3056 2418 100 MP stroke
4 161 -2 27 14 182 2 -229 10 17 15 -171 -3 -296 16 32 
15 270 -4 -95 1 -391 19 435 9 64 -11 123 16 -824 13 979 
0 -27 14 -76 0 37 10 -210 7 -172 2 230 13 95 0 -461 
11 -651 5 403 3 -145 13 420 -2 -594 13 364 3 112 5 -179 
11 527 -1 -19 13 43 0 -12 8 -516 7 -37 0 560 13 -208 
-1 -391 9 -345 4 172 6 220 23 536 -9 -297 2 73 2 42 
-2 157 12 -44 0 23 13 83 -3 13 1 -187 16 89 -5 -116 
9 -157 -1 748 2 -69 9 -117 -3 328 10 -897 2 28 2 698 
9 -116 3 104 13 -498 6 278 -3 -514 2 355 9 -547 1 -77 
0 176 9 449 0 -141 10 -395 8 554 -2 -215 10 233 2 1 
4 -173 8 -327 -1 -23 4 289 7 -213 2 309 9 38 7 -339 
0 -429 9 740 3 -626 -1 358 9 -162 2 488 6 -122 6 -32 
3 -74 7 195 2 -140 2533 2656 100 MP stroke
7 -217 4 222 4 92 7 -28 3 -38 7 -525 3 -274 5 279 
5 648 2 110 11 -302 2 -219 3 -16 9 247 0 -116 2 -165 
6 243 4 -199 5 -569 4 936 5 13 5 -297 4 519 6 12 
9 -211 -1 -244 3 -59 7 -280 2 428 8 -514 2 20 5 -110 
10 320 1 411 2 -553 6 86 5 211 4 84 5 -121 6 -198 
4 214 6 -23 3 100 5 -331 5 -14 5 504 5 244 4 -447 
4 231 6 -65 5 332 1 290 5 -270 9 40 3 -761 6 -75 
5 -74 4 -10 7 474 3 -392 7 196 5 -192 4 327 7 -106 
3 -123 7 203 4 141 5 -399 7 -19 2 103 11 266 5 49 
0 -401 6 581 5 173 6 235 3 -337 3 28 5 -56 6 0 
6 31 6 -905 6 519 4 -39 6 34 6 148 6 16 7 -454 
5 52 6 434 6 -220 6 -535 6 140 5 372 6 -655 4 530 
5 213 5 74 5 -9 2044 2648 100 MP stroke
6 -23 4 -8 6 -539 3 401 5 -515 4 -14 4 482 7 -351 
4 -68 4 -853 4 1111 4 -523 5 339 4 -87 6 300 3 192 
4 -320 4 51 3 86 6 481 3 388 4 -325 3 -439 3 -642 
5 1010 3 -84 4 96 3 -287 4 263 5 708 2 -698 3 176 
2 -764 3 646 3 -154 2 -44 4 77 2 -86 4 -488 2 210 
3 -213 3 478 3 99 4 142 1 167 3 -174 3 153 1 133 
4 -59 1 346 3 -170 2 -51 1 -218 3 239 0 -292 2 289 
3 -143 1 -214 3 -240 2 -13 2 392 1 -260 3 39 1 535 
2 -139 1 -16 1 201 2 -1148 2 1092 2 -70 0 -21 2 5 
1 5 1 -129 2 117 2 -137 2 97 1 -6 1 -206 2 233 
1 -149 1 -61 1 -476 1 -117 2 50 1 204 1 -71 1 144 
2 -230 1 106 0 -339 2 362 0 268 1 10 0 259 0 -962 
0 500 -1 31 0 392 1799 2179 100 MP stroke
1 -192 -1 -353 1 69 0 173 0 -207 1 -488 0 -112 1 561 
0 -96 1 30 1 90 1 -211 2 749 1 13 1 122 1 -20 
0 -284 1 207 1 -213 1 -4 0 95 -1 213 2 -722 0 763 
-2 -575 -1 270 0 -739 0 376 -1 -131 0 -24 -1 324 -1 -103 
0 45 -1 -385 0 -32 0 800 1 404 -3 -458 -3 -588 -1 258 
-2 213 -2 -18 -3 -357 -2 -130 -2 533 -3 -105 -3 -61 -3 89 
-2 -520 -3 338 -3 43 -3 20 -3 14 0 289 -2 280 -4 121 
-4 -129 -7 -848 -3 165 -3 125 -4 197 -3 -138 -5 84 -3 -496 
-4 -9 -5 -261 -4 -85 -5 259 -5 -157 -5 217 -4 -91 -5 245 
-5 -23 -4 -267 -5 -90 -5 -359 -4 245 -5 169 -3 592 -5 -368 
-4 372 -4 -94 -5 72 -3 -251 -4 -370 -4 386 -4 -206 -3 269 
-4 -1 -4 26 -3 -91 -4 93 -3 -651 -3 220 -7 407 -1 7 
-1 -128 -4 -276 -3 340 2010 2704 100 MP stroke
-3 245 -4 31 -3 -322 -3 -27 -3 195 -3 -414 -3 301 -4 -263 
-2 -208 -6 145 -4 -236 1 356 -4 419 -7 -73 -1 86 0 -339 
-6 -207 -5 363 1 -458 -2 240 -6 -166 -2 259 0 42 -2 51 
-2 -37 -2 -67 -1 -167 -1 67 -1 -74 -2 143 -1 5 -1 -147 
-1 387 -2 -435 -1 94 -2 329 -2 112 -1 191 -2 -172 -1 320 
-2 -517 3 579 -1 -375 -5 31 0 311 -4 -524 -7 681 0 -113 
3 -637 -1 264 -4 -13 0 203 -1 -259 -4 284 0 -10 -2 -170 
-2 168 -3 -283 -8 401 -2 -265 0 -154 -2 -126 -1 80 -2 -381 
-2 -368 -2 301 -1 558 -4 16 -1 -82 0 338 -4 -318 -3 -340 
0 362 4 182 -1 245 -3 -129 -1 92 -4 -182 -3 -8 -1 -28 
-3 -261 -1 47 -7 -48 -7 563 0 -134 -1 -24 -5 85 -1 -27 
2 -146 3 92 -3 -36 -2 -85 3 292 -8 -487 -2 -576 5 976 
-8 -334 -5 -66 2 -1306 2213 3796 100 MP stroke
-3 874 0 -121 -2 221 -2 -125 1 72 -2 265 0 34 -2 -290 
-1 -331 0 590 -2 -276 -1 545 -1 -15 1 -255 0 -104 -1 -534 
0 343 -1 344 0 75 -1 2 0 66 0 -1883 -1 1415 0 449 
0 -31 -1 -135 1 109 -2 -158 -2 -182 0 -752 -1 948 -1 153 
0 -43 -1 53 0 21 -1 -496 -2 285 0 -788 -2 706 -1 153 
-1 -138 0 -73 -1 81 -3 34 -1 -161 -2 -58 -2 379 -2 -288 
-1 70 -3 365 -1 -325 -1 -533 -3 213 -1 151 -2 248 -3 -16 
-2 -79 -2 161 -1 -609 -2 316 -3 11 -2 45 -2 -118 -2 112 
-2 241 -2 -20 -3 -916 -3 889 -2 -184 -2 -240 -2 438 -2 -42 
-3 -39 -1 -364 -2 -245 -2 152 -1 334 -2 -534 -2 250 -1 -92 
-1 407 -2 -90 -1 -2 -1 -494 -1 201 0 243 -1 -200 0 425 
0 -658 0 622 1 -410 0 -179 1 442 0 -89 1 -638 1 850 
0 -99 1 -663 0 269 2321 3239 100 MP stroke
1 -150 1 298 -1 98 2 222 0 -794 1 940 2 -398 1 -486 
2 566 1 -62 3 78 3 248 1 96 1 -331 3 -538 1 460 
3 229 3 21 0 -713 3 430 2 137 -1 -245 3 180 1 161 
3 -92 1 122 0 56 2 -72 1 6 2 -263 1 -251 1 548 
3 -514 1 146 2 228 1 74 2 -87 2 -519 1 142 3 140 
2 -310 2 450 2 -17 2 112 2 -751 1 64 2 801 2 -698 
1 697 1 26 1 -474 2 81 1 -119 2 468 1 -642 1 339 
1 129 1 198 1 57 0 -17 1 -62 1 -109 0 152 1 -181 
1 106 1 -120 1 -130 0 -331 1 361 0 625 1 -64 1 -652 
1 -353 2 321 1 336 0 -161 1 220 1 92 1 -104 0 -350 
2 260 1 208 1 28 1 -93 1 169 1 -221 1 -532 2 683 
0 245 0 -298 1 -215 0 59 1 -486 0 495 1 -1055 1 1440 
-1 10 0 -807 -1 112 2203 3136 100 MP stroke
-1 633 -1 224 0 -298 -1 -489 0 410 -1 -238 -1 -833 -1 -127 
-1 891 -1 255 0 60 0 -182 -1 -336 0 207 0 -167 -1 -545 
0 613 -1 200 -1 186 -1 -133 -1 303 -2 51 -2 -415 -2 62 
-3 -292 -2 9 -3 -10 -4 341 -3 22 -3 -387 -2 198 -4 203 
-5 -15 -3 -221 -5 311 -5 -36 -3 -181 -4 264 -4 -223 -3 496 
-5 -167 -4 -707 -5 466 -3 211 -5 -517 -4 270 -5 423 -5 -339 
-4 406 -4 -594 -4 26 -4 628 -4 -14 -4 -373 -4 -541 -3 732 
-3 -312 -4 266 -4 -393 -2 130 -5 34 -3 -34 -4 -113 -4 401 
-2 -339 -4 -278 -4 641 -2 -209 -4 -654 -3 737 -3 96 -3 92 
-3 11 -3 -467 -3 152 -2 474 -3 -905 -2 -206 -2 309 -2 570 
-2 21 -2 199 -1 -435 -2 243 0 -84 -2 45 -1 12 -1 -510 
-1 297 0 307 -1 -254 0 244 -1 -161 -1 -673 0 757 0 -160 
-2 56 0 -451 -1 362 2438 2597 100 MP stroke
-1 25 1 145 -1 -173 -1 312 0 -281 -1 308 0 -559 0 764 
-1 -822 0 13 -2 166 0 -291 -2 -37 0 151 0 -584 -1 952 
0 -43 -1 16 0 288 -2 -125 -2 187 -1 -753 -1 193 -2 2 
-2 -199 -2 -406 -3 342 -1 36 -3 0 -3 474 -2 80 -3 -170 
-2 -258 -2 273 -3 -92 -3 -364 -3 180 -2 -115 -3 292 -3 168 
-4 -384 -2 183 -3 -352 -3 -12 -4 329 -4 255 -4 -277 -3 -803 
-4 629 -4 175 -5 199 -4 117 -4 -341 -5 -147 -5 574 -5 -233 
-6 29 -6 -106 -5 -287 -5 503 -6 -324 -5 181 -6 268 -6 -438 
-6 -458 -5 700 -7 -279 -7 -51 -6 -33 -6 142 -7 368 -6 -59 
-7 -131 -6 297 -5 -1 -6 -708 -7 714 -6 -278 -7 -128 -6 205 
-7 -510 -7 136 -6 477 -7 -248 -6 -586 -6 428 -6 -416 -6 343 
-8 -94 -6 -416 -6 587 -7 42 -7 209 -6 74 -7 -460 -7 -9 
-7 -8 -7 -110 -7 528 2830 2497 100 MP stroke
-7 -187 -7 -9 -8 -345 -7 245 -7 189 -7 -278 -7 436 -7 -139 
-9 -38 -7 -322 -8 530 -8 -283 -6 -1067 -8 1222 -7 356 -8 -154 
-7 -22 -6 -165 -10 96 -8 341 -9 -462 -8 114 -8 -73 -7 118 
-7 106 -9 -145 -8 -407 -9 187 -8 -451 -8 329 -9 -161 -8 282 
-9 246 -8 -409 -10 -143 -9 187 -8 153 -9 -114 -9 -222 -8 -509 
-9 365 -8 671 -9 -185 -8 -504 -9 511 -8 170 -8 -253 -10 -542 
-9 767 -9 42 -8 -54 -8 -47 -7 -416 -9 456 -11 129 -8 54 
-7 -724 -8 175 -9 -446 -8 691 -9 -322 -9 359 -8 -456 -9 36 
-8 -65 -9 553 -8 420 -7 -130 -9 -260 -8 -88 -8 -277 -8 94 
-8 -148 -9 502 -7 -285 -7 -485 -7 290 -7 -64 -8 298 -7 -179 
-7 301 -7 -729 -7 492 -7 219 -7 -184 -7 -355 -5 324 -7 -115 
-7 503 -6 -521 -8 -2 -6 516 -7 -6 -6 -696 -5 807 -5 -310 
-7 148 -6 -139 -5 -665 3599 3224 100 MP stroke
-6 808 -7 570 -6 -230 -6 -213 -7 26 -6 -319 -6 356 -6 1 
-6 -155 -5 -27 -5 -575 -7 140 -6 -320 -4 357 -11 220 -4 -111 
0 -207 -7 432 -5 -160 -4 -348 -6 -74 -3 593 -5 50 -4 -5 
-5 -524 -4 255 -3 -415 -6 -37 -4 440 -5 264 -4 -128 -3 -247 
-11 80 -3 26 0 153 -7 291 -4 -313 -3 -35 -9 -702 -3 -210 
0 1174 -6 35 -4 -814 -2 622 -5 149 -4 39 -4 196 -4 -272 
-5 20 -4 74 -3 -411 -8 -313 -6 689 1 -135 -4 -620 -10 24 
-1 -160 -2 441 -5 300 -6 175 -8 -377 0 357 -6 -395 -6 65 
3 220 -8 -137 -6 -532 0 415 -2 63 -7 27 -7 239 2 204 
-6 -455 -16 -22 -4 428 3 -222 -3 335 -4 -500 -6 350 -2 -158 
-4 330 -6 49 -4 -48 -5 -357 -3 223 -4 430 -12 -319 -5 -90 
2 242 -1 -177 -5 -54 -8 -83 -1 76 -4 322 -5 -163 0 -280 
-9 341 -1 -262 -1 108 4046 2111 100 MP stroke
-6 168 -4 -227 -7 157 1 54 -7 92 -4 -374 3 718 -8 7 
-1 120 -4 -330 -8 -237 1 -148 -5 84 -3 -103 -3 -245 -4 409 
-4 18 -6 -106 -1 -2 -1 -849 -2 342 -2 10 -2 206 -2 -53 
-5 -313 -3 295 1 222 -3 133 -2 -114 0 -232 -5 -30 -4 34 
1 190 -2 162 -4 -439 -1 -177 -3 709 -2 -1039 -4 629 1 338 
-1 -412 -6 -222 -3 458 1 213 0 -627 0 424 -1 154 -3 -156 
-1 -267 -1 249 -3 305 0 -105 -2 -461 -1 649 1 -303 -1 -949 
-1 961 -2 228 0 -1011 -1 558 1 244 -1 354 0 -261 -1 -70 
-1 258 1 -175 -2 417 0 250 0 -407 1 -563 -1 372 1 284 
1 -480 1 38 1 93 0 -18 1 -375 0 -539 2 765 0 162 
0 -590 1 106 3 376 1 16 1 -591 2 443 1 498 0 -127 
3 -468 1 -27 3 197 4 244 0 -1568 0 1564 3 -873 2 628 
1 336 2 -835 2 598 4151 2070 100 MP stroke
3 100 2 37 5 -174 7 -427 -1 317 2 -31 4 726 2 141 
4 -235 2 -654 4 380 4 -660 3 563 3 158 2 -538 5 135 
4 5 4 76 3 -405 3 70 5 363 1 -362 4 552 5 -776 
2 289 6 78 3 304 3 -139 5 -41 2 34 5 409 4 -1123 
4 864 4 -425 4 -140 4 240 3 240 5 312 3 -490 5 380 
4 -833 4 348 5 203 3 34 5 -333 4 158 4 351 6 18 
5 -49 4 -179 3 71 5 -29 3 -7 4 -615 5 476 3 -58 
4 301 4 -345 3 -93 4 157 3 -129 4 317 4 64 3 -55 
3 -495 3 621 3 -541 2 274 4 -89 3 -134 3 -1625 3 1533 
3 380 4 -493 3 670 5 -343 3 375 2 168 5 -930 4 -96 
3 693 4 136 4 85 3 -210 3 109 3 660 3 -99 3 -535 
3 -227 4 319 3 11 2 -47 4 -174 3 479 4 -208 3 -507 
4 289 3 106 4 17 3797 1972 100 MP stroke
3 -96 4 -949 4 580 3 -68 4 -223 3 299 4 289 5 -492 
3 192 3 -195 5 -687 3 989 4 293 4 30 4 220 4 -123 
5 -431 3 -47 3 1 4 -142 4 -178 5 6 4 -195 2 -498 
4 691 2 329 3 291 4 -14 4 -1712 3 842 2 230 3 252 
3 244 1 -3 4 -24 3 -242 3 -514 2 274 3 195 3 -95 
2 -140 3 -93 2 135 4 -44 3 254 0 -205 3 -342 4 470 
2 22 3 104 2 -61 2 36 2 -41 2 -204 1 -186 2 -152 
2 338 2 363 1 -26 1 -281 2 666 2 -107 2 -335 1 -170 
2 609 2 -246 1 251 2 -138 2 -78 2 -344 3 115 1 140 
2 470 2 -147 2 -1239 2 504 2 461 3 -245 1 144 1 -152 
3 667 3 -91 1 -184 1 45 2 13 1 -60 1 -256 1 -42 
1 -173 1 -103 1 867 0 -66 1 -1121 0 232 1 39 0 -718 
1 416 0 341 0 -127 3561 2868 100 MP stroke
1 -170 0 -1165 1 621 1 585 1 101 1 314 0 -1664 2 1043 
1 372 0 -113 1 183 1 357 1 19 1 -13 1 -194 1 -230 
1 155 1 221 1 -397 1 359 0 642 1 -106 0 -419 1 -391 
0 114 1 -60 0 54 0 -392 1 -291 0 791 0 -47 1 -14 
0 11 0 -100 -1 -113 0 -242 0 131 -1 699 0 48 0 -630 
1 99 0 -38 -1 -951 0 832 -1 -56 0 516 0 -1208 0 287 
-1 437 0 254 0 -87 1 752 -1 -48 0 -1645 -1 525 0 81 
-1 393 -1 -67 0 126 0 -252 0 29 1 663 -1 -239 1 279 
1 -12 0 -363 1 -91 0 564 0 -662 0 43 -1 1 0 451 
-1 -116 -1 -88 -2 -44 -1 -135 -1 -424 -1 -232 -1 384 -1 -117 
-2 -134 -2 64 -1 394 -1 390 -1 -161 -1 -196 -1 -54 -1 -27 
-1 -154 0 396 -1 88 0 40 -1 43 -1 44 0 -87 -1 -157 
1 -162 0 118 0 -44 3566 2557 100 MP stroke
1 99 0 179 0 -89 1 68 0 302 0 -675 1 262 -1 -225 
1 -36 -1 195 -1 246 1 -39 0 150 0 -481 0 30 -1 76 
1 -279 -1 292 -1 110 1 112 -1 -70 -1 259 0 19 0 -386 
0 190 1 -538 0 114 1 533 0 -484 1 507 0 -201 1 -41 
1 -216 1 9 2 174 1 73 2 0 2 -166 1 -758 2 88 
5 622 1 -161 0 255 4 -445 2 460 3 -288 4 350 3 148 
4 275 4 -56 5 -242 4 -121 4 126 5 -6 5 205 5 -101 
4 -164 5 -3 5 -1133 4 504 5 359 5 47 4 305 5 -152 
5 -244 5 161 5 471 5 -85 6 -627 5 100 5 197 7 101 
4 217 10 2 10 -210 -1 81 6 83 6 -21 11 -8 11 39 
-3 -161 9 -123 8 273 4 13 10 -727 3 -28 9 658 8 -632 
5 165 8 66 4 -69 9 86 5 262 7 -152 7 -53 4 304 
8 -104 3 40 9 59 3239 2236 100 MP stroke
5 148 5 -168 9 -84 0 -164 14 -146 8 414 0 15 8 46 
3 -50 15 -683 4 402 3 278 12 -49 -1 -2 16 -324 11 216 
-5 -536 3 332 8 107 14 -390 1 466 7 -313 11 259 -3 97 
8 82 4 -125 9 -251 9 74 -4 -234 10 106 3 -10 4 -1089 
13 1163 1 -82 3 36 4 20 6 142 4 44 4 -44 8 325 
3 -13 8 -137 5 52 2 -386 14 66 4 233 1 -429 7 -140 
5 286 6 16 6 -267 6 103 5 -100 6 134 6 -275 6 -30 
5 -460 5 748 6 91 4 -146 5 -271 9 563 1 -60 1 -226 
7 -492 3 735 5 199 9 -34 2 91 0 -545 9 -423 7 453 
-1 -112 4 145 9 338 3 -255 0 223 5 -260 4 -363 4 -164 
4 226 2 -432 7 705 7 -473 -1 375 3 -188 4 563 2 -44 
4 -273 4 -255 2 -260 4 427 2 -660 3 827 3 -244 3 -491 
5 735 0 173 1 178 2750 2431 100 MP stroke
4 -1009 1 313 3 283 2 55 2 132 3 76 2 -70 3 -390 
2 367 2 56 2 -5 1 4 3 -36 1 12 3 18 1 -58 
2 319 2 51 3 -1028 2 -18 2 399 3 223 2 158 4 -124 
3 137 -2 -62 5 -246 4 24 0 343 2 -135 3 -563 4 308 
2 -21 4 240 3 -170 2 -112 6 -3 3 129 0 -125 3 -259 
3 70 2 -54 3 201 3 134 2 113 3 -390 3 340 4 225 
3 -143 2 -431 4 445 4 149 3 109 4 -325 2 -1124 4 913 
3 -196 4 79 8 53 1 346 1 -31 5 -13 3 72 4 153 
3 86 5 -315 5 67 4 239 5 -28 4 11 5 -188 4 -240 
5 111 5 -124 5 -256 7 256 5 136 5 253 6 -120 5 -54 
6 -148 6 -110 6 10 6 40 6 42 6 -335 6 328 7 -65 
6 278 7 -398 8 475 5 -578 7 -2 6 229 6 250 9 -15 
4 -218 11 178 11 179 2368 2549 100 MP stroke
-1 -330 6 -761 8 930 6 -75 8 -35 5 -10 7 186 7 37 
6 -709 8 582 5 -190 7 208 6 140 7 31 8 -233 6 -63 
7 66 6 79 6 -15 6 182 7 -460 8 -158 7 -94 7 241 
6 -103 6 148 7 115 6 -561 7 172 6 110 7 292 6 246 
6 -229 7 -25 6 -247 6 252 6 -267 6 278 6 -49 5 102 
7 -82 4 49 6 -444 6 -586 5 577 6 420 4 37 7 133 
5 -9 5 52 13 -122 4 343 0 -239 7 103 3 -413 5 -125 
6 459 4 -240 5 -114 5 224 4 -80 4 -177 4 498 6 -79 
4 193 6 -273 9 187 0 -323 3 233 6 258 3 -249 5 -87 
3 182 5 -145 5 -383 3 338 5 -294 2 -501 4 876 4 -334 
3 55 5 -119 1 432 5 8 5 244 1 -179 3 -452 2 792 
7 -715 8 260 2 -183 4 316 3 -152 2 68 3 -162 3 -363 
3 282 2 282 3 -14 1859 2503 100 MP stroke
1 7 2 -291 2 -330 2 326 2 -100 -1 387 2 -221 1 389 
-1 -787 1 442 1 -148 0 -514 2 811 1 92 -1 -90 0 -473 
0 823 -5 175 3 -210 3 -746 0 820 -6 -355 1 -379 3 802 
-5 -690 -1 463 0 -637 -3 352 0 -89 -3 115 -1 82 -2 -15 
-2 -230 -1 248 -2 -155 -3 4 -2 -462 -3 592 -3 44 -4 -213 
-3 -384 -3 70 -4 198 -2 -119 -4 208 -3 165 -5 -353 -5 497 
1 -51 -1 316 -7 -107 -4 -197 -3 56 -3 -154 -4 45 -4 -342 
-3 150 -8 -243 -6 785 2 -415 -3 759 -9 -1155 -7 785 -4 -483 
-6 398 -5 -173 -7 -16 -5 37 -5 -70 -7 465 -2 -688 -3 741 
-6 41 -5 -20 -7 -555 -7 111 -3 -351 -4 244 -5 -47 -4 297 
-4 14 -5 67 -3 -306 -2 586 -5 6 -5 -33 -5 -122 -11 -348 
-6 -73 1 248 -5 78 -6 -451 -3 303 -9 139 -5 182 0 -137 
-4 -68 -6 183 -5 -139 2142 2090 100 MP stroke
-5 159 -7 -324 -4 -509 -6 39 -6 794 -6 39 -5 -32 -5 -117 
-3 -172 -6 -7 -5 79 -5 143 -5 -294 -5 306 -4 -205 -6 -522 
-5 153 -4 194 -6 283 -4 -12 -6 12 -4 -87 -4 152 -6 127 
-4 -1246 -7 1242 -4 -105 -7 49 -6 0 -3 -17 -13 -380 -6 361 
0 -403 -6 175 -5 -5 -12 -519 -5 849 0 -696 -8 511 -4 14 
-6 -66 -7 56 -5 -282 -7 633 -5 -136 -5 -28 -6 -753 -5 556 
-6 -366 -5 393 -7 -61 -5 91 -6 20 -7 -216 -6 329 -6 -227 
-6 -6 -6 -179 -6 -19 -6 370 -5 -818 -4 873 -9 -246 -11 128 
-1 -63 -1 -191 -9 14 -1 168 -9 2 -13 92 0 88 -4 -241 
-6 258 -9 -318 -10 219 1 52 -2 -228 -7 11 -6 -128 -7 -49 
-6 6 -6 -173 -5 -14 -13 321 -6 -424 2 218 -9 -298 -6 38 
-5 303 -11 611 -4 -101 -3 -392 -7 -320 -5 -138 -5 130 -6 -151 
-4 -44 -9 -349 -9 250 2702 2856 100 MP stroke
1 449 -6 -201 -4 50 -11 -78 -15 3 6 -304 -2 -25 -11 217 
0 -7 -3 252 -5 -25 -5 -733 -4 271 -4 -288 -5 485 -3 -751 
-5 382 -4 205 -4 -3 -4 239 -4 130 -5 156 -3 8 -5 -54 
-3 -62 -6 8 -3 60 1 -410 -8 104 -6 -233 0 331 -3 127 
-7 -267 -4 -45 1 230 -6 -10 -3 -205 -3 -5 -10 35 -1 16 
-2 42 -5 -17 -4 -34 -8 177 -2 23 0 -123 -5 218 -7 262 
1 -102 -3 -211 -8 281 -1 -658 -1 602 -5 -835 -10 1369 -7 -24 
0 106 -2 -454 -1 147 0 -258 -4 37 -3 -74 -4 -239 -2 163 
-5 -111 -2 218 -3 -222 -6 -621 0 113 -4 -179 -4 92 0 449 
-3 -181 -3 25 -3 171 -3 -266 -4 102 -3 -117 -3 542 -3 -26 
-3 -1524 -4 1205 -2 323 -4 -348 -2 -233 -2 76 -7 -131 0 84 
-3 176 -3 387 0 -284 -6 -168 0 41 -3 -158 -3 201 0 8 
-5 307 0 -78 -4 -600 3051 3133 100 MP stroke
-2 500 -1 108 -4 -448 1 -51 -5 307 -1 -221 -1 -36 -4 -57 
1 402 -5 -339 0 -193 -2 43 -4 -103 3 900 -2 70 -2 -303 
0 -171 -1 101 0 -40 -2 106 1 -13 0 -416 -1 243 1 95 
-1 336 -1 -101 0 -290 0 88 -1 -189 -4 452 2 -509 -1 -45 
0 275 1 -60 -1 -489 1 754 -1 -34 -3 -225 0 -1130 0 1336 
1 42 -1 154 1 -172 -1 155 0 44 0 -154 -1 -826 1 734 
-1 24 0 -61 1 -354 -1 -197 1 532 0 -557 0 566 1 -446 
-1 -2 1 245 0 274 0 -20 -1 -225 -1 -299 0 132 -3 -1026 
2 1305 -1 -20 -1 148 1 146 -3 -225 -2 -262 0 170 0 -275 
0 5 -2 248 1 76 -1 104 -1 -8 0 -135 -2 -338 1 -71 
-2 -117 0 294 0 -144 -2 330 0 -75 -1 -261 -1 142 0 -464 
-2 611 1 125 -1 -257 0 472 0 -172 -1 -373 -1 -352 -1 -262 
-1 237 0 736 0 -308 3114 2887 100 MP stroke
-1 -508 0 358 -1 4 0 728 0 -1097 1 443 0 165 0 -20 
1 -77 0 145 1 -74 0 -114 1 211 0 -224 1 -167 1 174 
0 346 1 -1355 0 1356 2 -311 0 -200 1 587 0 -356 2 -108 
0 649 1 70 0 -188 2 -235 0 -64 1 323 0 67 1 -183 
2 337 -2 -257 3 375 -3 -1117 -8 1480 0 112 5 -408 7 -152 
-2 -260 1 190 0 78 1 61 -1 -279 0 96 0 -132 -1 -445 
0 -217 0 304 -1 -449 -1 575 0 -495 -1 398 0 68 0 -270 
-1 204 0 -184 0 403 -1 95 0 97 -1 -28 -1 -797 0 800 
-1 -25 -1 -404 -2 249 -1 66 -2 -205 -1 -268 -1 -76 -1 -136 
-2 -365 -2 575 -1 614 -2 -119 -2 -483 -1 231 -4 -14 2 397 
-6 -217 -11 934 8 -841 3 282 -6 -942 1 730 -3 -183 -2 -187 
-1 97 -2 -53 -1 -317 -2 431 -2 -62 -3 -850 -2 725 -2 -330 
-3 387 -2 -152 -3 -519 3165 3389 100 MP stroke
-3 350 -3 42 -2 -118 -2 512 -4 -26 -3 210 -3 -918 -3 833 
-1 -126 -3 122 -2 -696 -4 558 -2 141 -3 -460 -4 328 -2 58 
-3 -132 -4 175 -3 -521 -3 -357 -3 389 -3 -1292 -3 1686 -4 77 
-3 -632 -3 -310 -3 42 -3 303 -3 582 -3 -359 -3 -272 -4 384 
-3 43 -3 -381 -3 -75 -4 -55 -3 250 -3 397 -4 206 -3 -60 
-4 -418 -3 -56 -4 277 -3 362 -3 -204 -4 -24 -3 -45 -4 -813 
-4 954 -2 -150 -3 -33 -4 139 -3 13 -4 233 -4 68 -2 -315 
-5 36 -2 88 -2 -561 -4 246 -3 196 -4 -222 -3 -162 -3 -34 
-3 285 -3 -17 -3 1 -4 1 -3 -54 -4 -148 -3 102 -4 -66 
-3 -66 -4 136 -4 299 -3 77 -4 -60 -3 41 -3 -98 -4 -177 
-3 -154 -4 -99 -3 268 -4 356 -3 8 -4 -81 -3 75 -4 67 
-4 -213 -4 -256 -4 151 -4 -296 -3 -722 -4 972 -3 150 -5 -12 
-4 58 -4 -264 -4 72 3492 2580 100 MP stroke
-3 -301 -3 -247 -4 391 -4 -397 -5 -75 -4 718 -4 89 -4 -42 
-4 -798 -4 826 -5 -128 -5 -234 -5 301 -5 66 -5 -290 -5 -242 
-4 148 -6 19 -6 64 -5 197 -6 127 -5 -108 -5 -88 -5 -232 
-5 223 -6 -235 -6 -41 -6 477 -5 -166 -6 12 -6 59 -5 -143 
-6 -462 -6 394 -6 159 -5 160 -6 -49 -5 -244 -6 21 -7 -232 
-5 -280 -5 15 -6 -39 -5 351 -5 230 -5 213 -6 -35 -5 -274 
-5 -644 -6 1096 -4 -151 -5 -337 -5 -308 -6 -104 -5 183 -5 -183 
-6 85 -5 397 -5 -470 -5 733 -5 21 -6 -586 -4 274 -6 132 
-5 4 -4 -1207 -5 1017 -4 179 -5 -145 -5 -716 -4 136 -6 203 
-2 380 -8 140 -8 25 1 -124 -4 313 -6 -1045 -3 460 -6 85 
-3 -62 -5 826 -5 -101 -3 -406 -6 -195 -2 286 -8 -315 -9 119 
1 -61 -7 173 -5 -319 1 626 -5 -357 -4 -203 -4 -49 -5 340 
-4 66 -6 -509 -3 96 3976 2904 100 MP stroke
-5 434 -5 -58 -5 -120 -5 187 -4 65 -6 -61 -5 -672 -5 266 
-5 164 -4 98 -6 131 -4 -110 -5 -318 -6 -585 -4 676 -6 132 
-4 -254 -5 539 -5 -774 -4 -149 -5 565 -4 197 -4 -71 -4 -473 
-4 214 -5 -514 -4 978 -4 287 -3 -315 -5 -397 -4 338 -4 -247 
-5 59 -2 -78 -6 109 -5 111 0 -89 -3 165 -4 -98 -2 170 
-3 -192 -3 362 -3 -648 -2 580 -3 -114 -2 -90 -4 341 -3 -51 
0 -412 -1 -87 -3 88 -1 432 -1 -155 -1 -343 -1 -37 -1 -213 
-2 109 0 460 -1 -309 -1 353 0 113 0 -663 -1 -72 0 649 
0 -1566 1 421 1 729 0 84 1 -392 2 5 0 340 1 128 
2 243 1 -83 2 -152 1 15 1 -289 2 440 2 172 2 -304 
1 -340 2 -62 3 282 2 109 2 -91 3 473 3 -313 2 -326 
3 439 3 359 2 -316 3 -606 2 644 4 -510 3 -89 3 -143 
4 -190 3 405 4 70 4117 2715 100 MP stroke
4 -143 4 549 5 -6 4 -281 4 -275 4 -47 5 -1027 4 812 
4 649 5 284 4 -254 5 -354 5 593 4 -136 6 -603 3 262 
11 246 8 48 -1 -85 6 -27 5 79 9 -233 8 -107 -2 125 
7 -5 6 2 5 151 8 -385 4 148 7 279 6 27 5 190 
8 71 3 -529 11 280 11 -182 -1 200 5 -71 15 28 4 309 
1 154 8 -93 6 -86 6 9 7 99 5 -287 10 312 3 -500 
0 231 6 130 6 -55 9 171 6 230 9 -501 15 258 0 -256 
2 466 16 -395 8 411 9 -3 14 -285 1 4 -2 -1220 7 1130 
7 -224 7 -591 7 586 7 172 7 161 5 67 10 -291 12 247 
6 -25 7 -202 7 275 7 137 5 -200 0 15 7 10 7 -40 
5 167 8 -54 4 72 8 75 11 -126 7 -209 6 -111 6 -36 
5 -45 6 130 5 58 5 260 6 -27 3 -391 2 262 6 -193 
5 256 4 -285 6 -44 3531 2353 100 MP stroke
4 -8 5 -749 4 -280 5 498 4 308 4 210 5 -35 4 -236 
4 80 4 -574 4 787 4 51 4 -295 6 174 3 218 4 -220 
4 318 3 48 4 -245 4 135 4 -121 8 160 4 -93 3 -445 
3 122 4 265 3 -138 4 -254 3 305 3 22 3 45 3 -7 
3 -243 3 67 3 285 4 -207 2 -335 3 468 3 44 3 -266 
4 -20 3 -131 3 -623 3 659 4 -516 3 739 2 -363 3 615 
2 130 3 -515 3 191 1 -21 2 -287 2 286 1 -667 0 682 
1 80 1 -88 0 105 1 -78 1 49 0 -141 0 180 -1 -135 
0 77 -1 360 0 -28 -2 -103 -1 -138 0 -249 -2 -439 -1 331 
-1 105 -1 150 -3 86 -2 182 -2 -146 -2 -377 -3 -597 -3 835 
-2 107 -4 119 -4 -620 -3 -1030 -3 1373 -3 -264 -4 692 -3 -494 
-4 -46 -6 241 -3 -1116 -4 887 -5 -196 -4 154 -4 -151 -5 464 
-5 174 -5 -218 -4 217 3436 2021 100 MP stroke
-5 166 -5 -313 -4 -171 -6 64 -7 60 -5 -746 -4 598 -5 -140 
-6 -55 -6 -1526 -5 1312 -6 284 -6 511 -4 -98 -6 -277 -6 -355 
-5 77 -7 -302 -5 278 -6 506 -7 74 -7 -23 -6 -73 -7 -751 
-7 468 -8 11 -7 -134 -8 -59 -7 -712 -7 744 -7 377 -7 -54 
-7 22 -6 192 -8 -955 -9 624 -7 -51 -9 258 -8 -103 -7 -557 
-7 -255 -9 63 -9 595 -9 167 -8 -189 -9 -26 -8 -253 -10 -57 
-9 520 -8 -15 -11 -564 -9 402 -8 -348 -10 351 -10 -50 -10 -57 
-11 112 -10 -6 -9 240 -11 -83 -11 -78 -10 -651 -9 434 -11 -91 
-10 245 -10 -98 -11 -97 -9 341 -11 24 -11 -195 -10 -514 -11 239 
-12 547 -11 -213 -10 -486 -9 420 -10 -236 -11 -682 -12 830 -9 -32 
-10 -309 -10 47 -9 562 -11 -163 -9 246 -10 -43 -11 -916 -9 193 
-9 208 -11 808 -9 63 -9 -103 -11 -798 -12 213 -10 80 -10 262 
-10 117 -8 -461 -8 344 4270 2246 100 MP stroke
-11 -188 -11 -585 -8 458 -9 240 -8 -43 -9 -169 -5 385 -15 134 
-16 193 2 -231 -6 224 -10 152 -5 56 -9 -225 -6 -470 -7 265 
-7 185 -7 -76 -11 -318 -5 295 -6 201 -4 -893 -6 343 -5 290 
-3 258 -8 -621 -3 61 -4 223 -5 148 -3 165 -9 -26 -4 -358 
0 509 -2 24 -3 -123 -7 -170 -2 -158 1 -158 -3 465 -4 111 
0 -1402 0 578 -4 483 -1 -329 0 272 -1 214 0 -900 0 214 
2 85 0 632 0 -438 3 -76 2 434 -1 -699 1 700 1 -601 
4 102 3 262 0 98 6 -221 -1 186 -1 94 6 -145 1 -201 
0 492 5 -807 13 741 2 -218 -4 -136 5 397 -5 -545 7 10 
7 -73 -1 693 5 -582 0 222 9 -295 4 45 0 186 11 217 
-1 -695 7 554 6 64 0 -422 4 253 3 183 11 -257 1 25 
4 217 8 72 -1 -248 5 -451 5 849 6 -680 2 429 8 17 
10 -1283 -1 1312 9 -192 4349 2237 100 MP stroke
5 89 1 60 6 118 5 -273 12 106 0 -3 7 -374 9 333 
-2 173 8 -609 5 589 11 29 9 -10 -3 -142 9 48 4 -59 
5 308 8 -201 3 -229 8 -7 5 290 6 -913 6 776 10 152 
6 -1239 -2 846 10 312 4 -31 5 -453 8 362 2 261 10 -513 
3 166 6 50 15 -322 2 484 2 -225 8 -75 5 399 6 -347 
7 -272 5 211 5 432 6 -1154 4 1158 6 -498 6 223 8 17 
7 185 4 -382 8 365 8 168 6 -275 6 -296 6 215 7 -1486 
6 1578 7 -123 6 -151 7 403 8 -229 10 -227 5 326 7 -19 
15 -16 3 -242 1 395 11 -1174 4 411 8 698 9 -654 6 -56 
8 713 6 -449 9 -268 6 738 7 -601 9 263 6 83 9 -246 
7 -310 7 609 8 -227 6 401 10 -54 7 1 8 -155 10 -268 
7 547 8 -543 7 -616 7 1022 8 -305 7 147 7 75 7 -167 
9 -452 6 343 8 -45 3706 2544 100 MP stroke
7 -319 8 476 8 355 7 -411 9 198 7 -168 8 -544 7 475 
7 53 9 -131 6 -85 10 11 9 185 9 -370 9 676 7 -125 
10 -622 6 499 9 -456 9 -237 7 666 11 -434 7 -425 10 410 
7 386 7 243 21 -559 7 423 0 19 9 -512 7 464 9 -248 
9 14 8 -229 8 310 8 -65 7 142 9 -195 8 -294 6 361 
10 -240 8 -228 9 828 8 -1406 4 1354 18 -243 10 247 -1 -379 
7 -180 8 62 6 301 7 14 8 -168 6 71 9 210 16 -151 
4 -22 1 -34 13 -286 5 255 6 194 8 -669 5 169 8 183 
5 -1 9 219 8 84 7 -90 6 -616 5 476 7 512 5 -148 
8 -313 16 409 2 -193 1 -383 9 287 4 185 6 -124 6 -7 
6 -536 5 655 4 -58 6 42 8 -297 6 359 4 -233 5 -356 
5 143 4 217 6 -323 3 303 5 14 5 174 4 -495 6 477 
3 -93 5 -182 5 -102 2998 2719 100 MP stroke
3 -195 5 815 3 -55 3 -418 6 195 7 -229 5 -162 3 297 
6 -49 3 -234 4 83 7 427 1 -407 5 461 4 -474 6 -139 
10 102 -1 90 7 -389 8 809 -2 -183 5 254 4 160 2 -570 
5 610 6 -316 4 -173 5 -64 4 -140 4 85 3 200 2 -67 
2 -36 5 -32 4 333 3 45 3 -335 4 120 2 -104 2 -346 
3 330 1 -178 3 175 4 -282 2 -7 4 338 3 109 3 -376 
2 -95 4 -153 4 454 0 -686 2 -574 4 1110 2 -251 4 231 
1 -414 4 590 2 -89 1 -8 2 -257 1 361 2 -99 3 -104 
2 -143 2 306 2 293 1 -43 1 -376 1 165 1 -74 2 -728 
0 793 1 190 1 -313 1 -62 1 282 0 -265 0 163 1 284 
0 102 -1 -454 1 226 0 104 0 -748 0 435 -1 -55 -1 38 
0 -339 -1 276 -1 254 0 -750 -1 468 -1 -415 -2 -324 -1 716 
-2 507 -1 -362 -1 12 2771 2462 100 MP stroke
-1 7 -1 -749 -2 296 -1 136 -2 34 0 262 -1 -576 -2 461 
-1 172 -2 -504 0 104 -2 -715 -1 1016 -2 186 -1 -53 -2 -179 
-1 105 -2 64 0 -721 -2 301 -2 100 -2 87 -1 -98 -2 -364 
-2 99 -1 387 -2 270 -2 -2 -1 103 -3 -233 -5 186 -1 81 
-2 146 -3 136 1 -1332 0 1178 -2 -152 -2 -94 -5 -216 -3 259 
0 -160 -3 20 -1 24 -2 63 -2 -30 1 -143 0 410 -4 -112 
-2 92 -4 -41 -6 -326 -4 -333 -3 -199 -3 -341 -3 724 -4 28 
-4 -466 -4 -5 -4 252 -4 322 -4 -125 -4 -22 -5 -23 -3 -307 
-5 574 -5 169 -5 85 -5 -72 1 -10 -2 70 -9 -94 -5 99 
1 -93 -6 47 -9 -152 -5 217 -5 -195 -5 453 -5 -173 2 -422 
-3 -76 -12 155 -2 252 -1 -30 -6 -243 -12 232 -6 81 2 -596 
-10 335 -5 279 -2 -82 -12 -73 -5 -21 -9 -760 -6 701 2 -189 
-8 -131 -4 -56 -6 -428 3081 3119 100 MP stroke
-6 581 -3 -199 -6 -192 -4 -20 -6 475 -5 190 -4 -83 -7 79 
-4 -693 -4 490 -5 -109 -11 -52 -4 -138 2 200 -12 172 0 -379 
0 856 -19 -789 -4 497 3 -59 -2 475 -8 -149 -12 -387 -6 132 
-4 -362 -6 456 -4 -66 -6 14 -4 -88 3 79 -2 366 -12 -1269 
-9 1053 -3 -63 -6 25 -3 -244 1 444 -6 -675 -16 441 -6 -252 
0 -188 -10 -263 -2 651 -3 -628 -4 637 2 366 -15 -734 -8 -135 
0 -54 -14 200 -2 -219 -2 514 -6 -138 -4 -101 -12 -4 -2 -359 
-2 717 -5 -93 -5 171 -6 -22 4 -231 -6 260 -10 -236 2 76 
-5 -81 -6 -31 -5 46 -5 94 -5 -222 -4 53 -7 -195 -20 505 
-5 244 4 -415 -4 -184 1 -220 -6 45 -5 134 -3 -156 -7 40 
-2 -102 -8 -317 -9 451 0 137 -2 -447 -10 117 -5 -134 1 257 
-5 41 -3 115 -4 34 -4 299 -8 -150 -13 289 8 -438 -2 -41 
-14 -242 3 -67 -7 -603 3567 3319 100 MP stroke
-6 873 0 96 -9 -112 0 -325 -5 -321 -7 414 1 -244 -5 278 
-4 7 -8 407 -9 19 7 227 -7 -791 -13 1007 6 -652 -8 74 
-14 634 6 -900 4 346 -4 150 -7 37 -2 -520 0 -867 -5 949 
-2 -338 -3 170 -4 -345 -2 334 -6 -82 -3 512 0 -515 -3 174 
-6 13 -2 -556 0 629 -5 225 -2 -138 -2 -533 -4 -259 -1 433 
-6 -196 -4 299 1 52 -4 141 -6 -675 0 234 -4 181 -4 -64 
0 -506 -10 322 -1 226 4 -266 -8 98 0 409 -2 24 -5 -172 
1 36 -5 -322 -1 339 -1 87 -5 248 0 -305 -2 -186 -5 -70 
-2 133 0 -148 -3 -245 -4 580 0 295 -3 -212 -3 -315 1 514 
-4 -205 -3 -250 1 -33 -4 54 0 274 -2 29 -2 -375 0 167 
-3 34 0 -501 -2 257 -3 -577 1 646 0 171 -1 -282 0 -363 
-2 367 1 222 -1 210 0 25 0 -1115 2 746 -1 193 0 55 
1 17 0 27 1 -40 3803 2520 100 MP stroke
0 -706 2 688 -1 16 2 -71 1 -4 0 -276 0 160 2 376 
1 -206 -2 -607 2 621 3 147 -1 62 1 -117 -1 -542 2 487 
2 -212 -1 -43 0 -1381 1 1455 0 178 1 44 2 9 0 16 
1 3 1 -65 0 -156 2 -339 1 148 0 54 2 341 0 91 
1 -371 1 20 0 -20 2 -755 0 -531 2 1651 2 -89 -1 -132 
1 -130 1 -136 4 423 1 58 -1 -395 1 -18 0 92 5 2 
0 117 -2 247 6 -345 4 81 -1 308 0 32 0 -4 3 -444 
3 -276 -1 50 4 173 3 234 0 57 4 21 2 12 0 -286 
4 -78 0 -33 1 391 4 -171 0 128 5 -61 2 -72 0 -429 
5 619 1 200 2 -125 4 94 -1 75 4 -62 6 -296 -1 -345 
5 365 4 79 1 -99 7 -323 0 472 2 162 5 8 5 -70 
6 23 0 -109 7 -14 3 -338 -1 -45 7 0 3 -51 9 18 
2 5 -2 379 13 -115 3624 2521 100 MP stroke
1 29 3 -8 9 -71 -1 -177 4 -208 4 177 5 236 3 -188 
5 160 10 -286 1 239 1 -147 8 265 7 -264 0 -731 7 1097 
4 12 -2 -341 10 53 0 -543 6 899 10 -439 -2 -1206 9 1095 
2 -245 2 -1135 8 1530 -1 253 9 219 1 -86 5 -239 8 -195 
-1 94 10 -226 1 302 6 6 13 -27 -5 171 1 -65 10 -200 
2 233 0 -328 10 360 6 -137 0 -149 9 234 1 -177 6 -272 
7 80 -1 9 6 119 5 0 10 112 4 -15 2 183 11 -529 
-2 394 11 -36 5 -543 1 277 15 -182 -7 450 9 98 14 -438 
-5 -46 13 251 4 160 2 -275 6 121 5 262 14 -182 1 -848 
8 367 18 134 -3 592 -2 -79 14 -325 4 61 2 332 15 117 
-3 82 4 -297 17 -470 0 689 5 -189 5 -97 7 209 15 -422 
-2 -203 10 364 7 368 0 -129 7 -200 4 -179 13 13 3 2 
4 -534 11 614 -1 -140 3127 2845 100 MP stroke
5 -888 6 862 5 307 5 41 7 -448 5 -26 4 -568 13 688 
2 258 5 144 9 -163 0 -308 4 304 5 -188 10 106 6 -352 
1 -348 10 442 0 44 7 -242 5 364 1 3 10 -293 -1 702 
8 -49 3 -434 5 196 15 -424 -6 -428 2 819 6 -136 1 -401 
9 354 1 3 8 -56 4 346 4 239 7 -125 1 -57 7 76 
3 -544 5 316 5 85 2 -40 6 -426 2 547 6 -117 3 155 
3 173 5 -205 3 82 2 208 -2 346 11 -1064 9 170 -1 279 
4 144 2 -275 6 -139 3 143 3 -100 6 -66 1 72 8 -407 
1 691 6 132 9 -359 -3 213 9 -232 2 -113 2 96 7 -427 
-1 376 8 -677 1 266 4 -458 5 752 0 -359 19 551 7 -483 
-5 760 3 -189 -2 16 1 -324 3 -177 7 -470 4 687 1 187 
8 -41 -1 -146 2 -28 7 -264 0 181 7 565 4 7 0 -460 
11 151 4 -36 -4 -894 2707 3650 100 MP stroke
6 688 8 -41 -1 94 -1 387 6 -42 4 -493 -1 495 6 -68 
5 -913 0 623 3 45 3 260 3 -578 3 516 4 26 8 -199 
1 317 4 -89 8 -204 -3 36 5 113 8 -611 -1 227 7 -3 
10 -103 -4 339 2 70 13 -125 4 -282 -4 -67 4 683 3 -481 
4 578 10 -114 3 -92 -2 -197 16 -117 23 398 -3 227 -1 -25 
4 -515 -7 204 13 -2 19 445 -2 -318 0 -9 1 282 0 -223 
10 -309 15 163 -2 221 -2 -103 12 -247 1 -206 5 174 9 191 
-1 195 16 -671 7 458 -8 -37 11 -174 16 -87 -2 279 -2 -319 
12 -170 3 401 5 100 20 -302 -3 206 -3 -64 15 -80 1 -87 
5 109 11 223 -1 -102 4 124 14 -193 1 161 6 -164 17 125 
-2 234 -3 -446 14 178 0 -212 6 396 9 -449 -1 421 12 113 
4 139 0 166 8 -973 1 1196 7 -127 7 -289 1 140 12 -319 
3 98 6 48 10 -390 2230 2769 100 MP stroke
-1 28 11 323 8 358 -2 -88 9 21 4 17 3 -299 5 375 
6 -125 5 113 6 -51 7 -349 5 -184 5 -497 6 528 5 -95 
6 -35 5 78 6 197 5 42 6 -316 5 -28 7 178 12 313 
1 -190 1 -157 8 -52 3 -326 7 -160 4 281 5 74 6 272 
4 -180 6 -331 4 600 5 60 5 -314 3 -27 6 93 3 353 
6 -236 9 46 0 -392 3 241 5 296 2 -657 5 726 5 -76 
3 -174 4 159 4 -730 3 621 4 -897 3 421 2 73 4 488 
3 -336 3 181 3 -237 2 -32 2 -637 2 511 1 111 2 -317 
1 326 1 382 1 -2 2 -152 0 455 1 -595 1 512 1 -29 
1 -58 0 86 0 -694 1 -288 0 -113 -1 348 -1 -278 -2 254 
-1 72 -1 125 0 405 -1 -631 -2 -609 -2 551 -2 -102 -1 137 
-2 -386 -4 581 -2 -267 -3 -152 -3 30 -4 396 -4 110 -4 143 
-3 -83 -3 -332 -4 -222 1985 3196 100 MP stroke
-4 297 -3 -37 -4 -613 -5 426 -4 -339 -4 672 -4 -834 -4 564 
-4 171 -4 154 -5 193 -4 -250 -6 1 -6 229 -5 -53 -5 -46 
-5 -303 -6 375 -6 -1044 -7 1173 -5 -498 -5 343 -8 -99 -7 264 
-4 -127 -8 -1327 -7 575 -7 620 -7 -6 -6 123 -8 -6 -7 222 
-8 -303 -8 -685 -7 549 -7 420 -9 -1108 -8 659 -8 -8 -7 180 
-8 -31 -7 -115 -7 -270 -8 526 -9 -270 -8 177 -7 -171 -8 179 
-8 153 -10 -368 -8 374 -7 15 -9 -134 -8 -617 -8 178 -9 353 
-8 319 -9 -1 -9 -208 -8 -66 -9 349 -9 -455 -9 55 -8 256 
-8 -311 -10 312 -9 -373 -8 274 -9 -377 -8 -362 -9 128 -9 379 
-9 -51 -9 483 -11 70 -8 -749 -9 420 -11 167 -8 11 -11 -333 
-10 294 -10 2 -11 -69 -9 86 -11 108 -9 -250 -8 230 -10 -1077 
-10 4 -9 998 -10 243 -8 -382 -10 -21 -11 -360 -9 -1 -12 109 
-11 298 -8 326 -10 -47 2751 2265 100 MP stroke
-9 -408 -9 221 -10 437 -9 -219 -10 -51 -10 53 -11 -145 -9 211 
-8 -4 -9 -649 -10 -97 -10 316 -9 351 -12 146 -11 9 -9 -331 
-9 -123 -9 262 -11 103 -9 18 -9 97 -9 -248 -10 -486 -12 384 
-9 196 -11 -61 -10 -133 -8 -661 -10 133 -9 -126 -10 -266 -9 529 
-10 -51 -11 -37 -8 449 -10 -327 -8 274 -10 29 -10 -199 -6 51 
-19 -81 -12 382 2 -649 -11 -132 -12 -118 -8 339 -10 303 -8 -396 
-9 -245 -9 204 -8 398 -9 68 -9 89 -9 -72 -8 -125 -8 -610 
-9 268 -8 402 -8 -43 -7 -63 -8 135 -8 -653 -7 340 -7 -26 
-8 378 -7 -1020 -7 971 -7 165 -6 100 -6 -164 -7 -93 -6 10 
-6 -21 -7 -63 -6 -170 -7 15 -6 357 -5 164 -6 546 -6 -156 
-6 -770 -6 50 -6 102 -5 26 -5 -67 -5 -395 -5 65 -6 246 
-3 -328 -7 242 -8 455 1 -21 -14 -166 -6 -42 7 -902 -8 633 
-1 294 -5 -455 -11 299 3544 2618 100 MP stroke
1 97 -7 -332 -4 192 -1 -368 -8 188 0 88 -5 257 -2 75 
-1 -250 -5 159 0 49 -5 -550 -3 281 1 -291 -6 423 -2 88 
0 -171 -2 99 -4 -169 -3 135 1 -162 0 45 -1 80 -2 -729 
-1 584 1 -242 -1 327 0 388 -3 -31 0 -473 0 57 1 66 
2 -170 1 -120 -1 131 1 224 -1 11 0 10 0 -195 2 -176 
0 571 1 -229 1 -231 0 372 2 -106 1 -115 0 -246 3 -222 
-1 369 0 -74 3 110 0 -138 3 355 1 228 0 -148 4 68 
0 8 2 -405 3 346 0 -252 2 29 2 -100 1 -78 1 -172 
3 107 1 -339 0 400 4 -55 0 218 1 207 2 317 4 108 
3 -54 -1 -285 5 332 2 -58 -2 56 4 -466 1 232 1 -277 
5 294 -1 8 3 -39 1 -486 0 874 4 -126 0 -138 0 255 
2 -244 1 63 0 -20 3 -514 0 728 0 -939 0 118 -1 727 
0 -513 0 314 -1 -64 3528 2312 100 MP stroke
-1 -249 0 597 -1 -199 -1 16 -1 -59 -1 -376 0 402 -1 -587 
-1 555 -1 -490 -1 641 -1 -875 0 819 -1 -183 0 -146 -1 -298 
0 726 0 -416 1 33 -1 -189 1 -254 1 464 1 -98 1 274 
1 -247 2 490 1 -15 1 31 1 -18 1 -81 1 -204 1 153 
1 -15 1 29 0 -108 2 -263 0 130 1 306 1 -22 0 -40 
2 -100 0 -145 1 -434 1 -29 2 452 1 549 1 -24 2 -178 
1 -113 1 54 2 -325 2 244 2 -205 2 -19 2 -559 2 954 
2 -7 2 -35 2 -184 3 -193 2 -283 3 -77 3 -108 2 762 
4 -241 0 -265 2 -405 3 1124 -1 -142 4 -365 1 -16 1 307 
2 -228 -1 86 2 22 1 -5 1 -47 1 146 0 -26 2 -941 
1 -582 2 848 2 -124 0 579 2 -70 0 -439 1 626 1 -238 
-1 -477 0 1007 1 -221 0 6 0 -1332 0 1031 2 -92 0 430 
0 -660 1 123 0 675 3444 1987 100 MP stroke
0 -561 -1 299 0 -66 -1 -169 -1 -463 0 464 -1 607 0 -82 
-2 -1495 -1 771 0 234 -1 375 0 -289 -1 106 0 156 1 -16 
-1 -248 1 127 0 -393 1 -24 0 198 1 38 1 280 0 -224 
1 46 1 -226 1 -169 1 217 2 155 1 98 1 219 1 -119 
1 -6 1 -181 0 7 1 -10 2 134 2 73 0 74 0 -74 
1 -155 1 -212 0 5 0 -156 1 -66 0 -88 0 707 1 -358 
0 25 1 285 1 -89 0 -270 0 95 1 186 1 -43 0 -136 
1 -176 1 -88 1 324 1 409 1 -55 1 -30 1 -196 0 -160 
1 -221 1 -112 1 -135 -1 230 -1 56 1 -42 1 -5 0 -262 
1 143 0 171 1 175 0 122 2 -168 2 -563 0 -505 2 938 
1 702 1 -18 2 -250 1 -226 2 -415 3 298 2 223 2 -324 
1 195 4 -11 2 147 3 112 4 -33 2 -394 5 -425 1 -157 
6 -239 8 274 0 11 3357 3074 100 MP stroke
3 238 4 -94 3 -273 5 637 5 122 4 -193 5 -390 5 1063 
5 -90 5 -519 6 141 5 55 7 -94 6 -17 6 -251 6 172 
6 -151 6 -473 7 380 8 876 8 -73 8 -824 8 399 8 5 
8 -520 9 -19 8 120 9 234 9 -13 8 -12 10 102 9 -109 
8 79 9 306 9 -46 10 -429 9 135 10 289 9 83 10 16 
10 157 9 -651 10 206 11 -740 9 567 11 287 10 -81 9 -101 
22 -819 11 460 -3 477 16 -955 10 507 7 64 24 358 7 69 
1 -245 13 413 9 -506 10 92 11 -503 10 1018 11 35 10 -478 
10 -125 11 334 9 165 10 -750 10 363 10 -162 10 323 11 -755 
10 428 10 -90 9 -69 10 560 10 -341 9 -670 9 1126 9 -485 
9 -173 9 -241 9 686 9 -1204 9 798 9 634 10 44 8 -613 
9 -191 9 339 8 298 11 -228 10 -4 8 10 10 -126 8 13 
9 -136 10 -122 7 -683 2498 3628 100 MP stroke
9 65 9 599 8 -3 9 -128 8 390 9 -11 7 69 8 51 
8 -394 8 -285 10 615 7 -496 9 -133 8 545 7 246 10 -212 
5 -257 13 4 10 -11 0 -24 7 356 7 -20 12 -369 10 315 
-2 -444 8 -119 6 541 5 158 8 121 5 61 6 -620 6 309 
6 -132 6 300 6 -103 7 -602 5 306 6 -112 5 162 6 65 
8 405 5 -519 6 -210 6 302 6 -217 6 -84 6 -380 6 276 
5 463 7 -1094 5 863 5 111 6 167 4 19 6 91 6 -396 
5 186 4 12 5 272 3 -211 4 -74 5 254 3 -31 7 -343 
3 334 0 68 3 190 3 -99 3 -1117 4 659 3 381 3 -69 
2 -142 3 145 3 -13 2 41 4 -132 3 -248 1 127 3 -182 
3 366 4 -459 2 312 3 -146 3 -21 3 -345 2 266 2 -179 
2 973 2 -127 3 -735 2 328 1 149 2 -32 1 -205 2 168 
2 213 2 -301 1 21 1997 2774 100 MP stroke
0 83 2 -261 1 315 1 -492 2 312 0 192 1 -264 1 -358 
1 169 1 -193 1 118 0 595 1 299 2 -1098 2 808 0 -262 
1 560 1 -28 1 -1056 1 261 0 273 1 408 0 32 0 -593 
0 130 -1 296 -1 98 0 -334 -1 -51 -2 -231 -1 446 -2 -327 
-1 496 -1 -305 -2 56 -1 203 -2 13 -1 -392 -1 -486 -1 397 
-2 -163 -1 130 -2 -291 -2 384 -1 -327 -1 762 -2 -280 -2 97 
-2 -363 -2 377 -2 -127 -2 -260 -3 288 -2 262 -2 -143 -3 -24 
-2 -533 -3 488 -3 -543 -3 880 -3 -522 -2 562 -3 -143 -3 -95 
-4 68 -3 -287 -3 -197 -3 147 -3 -225 -3 -77 -2 759 -2 -319 
-3 -202 -2 273 -3 34 -3 -673 -2 613 -3 146 -2 -124 -2 -81 
-2 -518 -3 -52 -3 480 -2 -198 -4 -2 -2 434 -3 -367 -3 283 
-3 221 -2 -494 -3 458 -3 -20 -3 -5 -4 -125 -2 -260 -3 313 
-2 -55 -3 -336 -3 226 2143 2691 100 MP stroke
-2 349 -3 -137 -3 -25 -3 -448 -3 553 -4 -142 -5 -228 -1 -399 
-1 157 -5 -588 -2 512 -3 65 -3 135 -3 66 -4 100 -2 -118 
-3 171 -4 -403 -3 433 -4 -306 -4 158 -4 372 -4 -190 -3 -555 
-4 714 -5 -152 -3 -38 -3 -301 -4 166 -3 88 -4 -494 -4 364 
-4 -92 -2 565 -4 -211 -3 -580 -3 473 -7 -235 -2 -92 -1 233 
-5 284 -2 -202 -4 -180 -4 -538 -4 -16 -4 -221 -3 251 -5 705 
-5 42 -5 -194 -5 115 -4 -53 -5 -358 -5 -146 -4 484 -5 -38 
-4 84 -5 -56 -4 14 -4 93 -4 76 -4 -50 -3 -369 -3 140 
-4 227 -3 -336 -3 331 -4 -851 -4 874 -1 210 -7 -529 -5 312 
0 -295 -4 388 -3 195 -4 -227 -6 466 -2 -97 -5 -68 -5 32 
-4 -58 -2 -119 -2 452 -5 -329 -3 28 -9 136 -3 -354 0 411 
-9 -876 -6 874 -5 -13 -5 18 -5 -83 -7 171 -1 -419 -3 176 
-5 -40 -4 -98 -9 138 2522 2237 100 MP stroke
-4 189 0 -64 -7 -47 -4 -181 -8 237 -13 -21 -2 -168 -2 152 
-7 -5 -4 13 -2 -269 -4 300 -8 -509 -1 9 -9 39 -10 314 
1 -51 -11 -273 -4 298 -2 -586 -11 921 -6 -144 -13 -206 -3 237 
-2 -720 -9 602 2 -538 -15 397 -2 -50 2 -283 -20 251 0 -226 
-5 -330 -12 339 1 288 -12 -217 -5 84 -2 6 -14 -463 2 274 
-4 340 -17 -437 1 -251 -7 192 -9 -394 0 -55 -12 523 -3 49 
-5 -119 -9 60 1 -606 -19 947 -3 -270 8 -518 -15 463 -1 208 
-4 -346 -9 -332 1 664 -9 52 -2 -381 -4 -317 -7 221 0 -391 
-8 -72 -3 943 2 -63 -5 195 -4 14 -9 81 -1 -34 4 52 
-10 -141 -5 421 -1 -128 -7 -53 0 132 -1 -934 -1 549 -2 -150 
-7 290 1 -42 -9 -184 -5 -42 6 -61 -6 -116 -3 -397 0 384 
-3 129 -3 -196 -4 -251 -1 553 -3 193 -3 -11 -5 -598 -3 57 
3 -110 -9 302 -3 88 2983 2536 100 MP stroke
-1 -228 -6 -180 0 253 -4 -78 -4 80 0 218 -3 -138 -6 63 
-1 -300 0 -552 -6 581 -5 -111 1 166 -3 78 -6 -44 -3 -256 
1 -150 -5 154 -4 505 1 -172 -4 -340 -2 275 0 -405 -4 -53 
-4 -223 0 360 0 -7 -7 324 -4 -395 1 369 -4 -486 -4 266 
-3 246 -4 -153 -4 477 -4 -14 -4 -321 -5 -59 -4 109 -4 -222 
-5 278 -5 -31 -3 125 -4 134 -4 -90 -4 -360 -5 321 -4 -367 
-5 -435 -5 458 -4 493 -5 183 -5 -426 -4 439 -4 -371 -4 266 
-4 -245 -6 -683 -3 870 -7 327 -9 224 0 -598 -7 100 -10 358 
-4 -175 -6 -234 0 257 -4 71 -8 15 -4 -215 -7 -148 -5 -457 
-6 394 -6 -84 -4 -95 -7 -139 -5 182 -6 171 -7 50 -6 232 
-6 -285 -5 93 -8 104 -6 -62 -7 -137 -7 73 -6 -16 -9 218 
-5 124 -8 -36 -7 -307 -6 162 -7 107 -6 -162 -7 -25 -6 -150 
-6 -323 -8 -115 -6 75 3428 2766 100 MP stroke
-7 582 -7 289 -8 -92 -6 130 -7 245 -8 95 -7 23 -9 70 
3487 1424 9 MP stroke
gr

c8
0 sg
%%IncludeResource: font Helvetica
/Helvetica /WindowsLatin1Encoding 120 FMSR

1568  294 mt 
(Experiment 2a - Analog magnetometers - Standard deviation o\
f orientation) s
2502 4902 mt 
(Distance to center of sensor network [m]) s
 558 3114 mt  -90 rotate
(sqrt\(Variance\) [degree]) s
90 rotate

end %%Color Dict

eplot
%%EndObject

epage
end

showpage

%%Trailer
%%EOF
