%!PS-Adobe-2.0 EPSF-1.2
%%Creator: MATLAB, The MathWorks, Inc. Version 7.13.0.564 (R2011b). Operating System: Microsoft Windows 7.
%%Title: ..\figures\_posanalog_par_std.eps
%%CreationDate: 11/13/2012  17:43:24
%%DocumentNeededFonts: Helvetica
%%DocumentProcessColors: Cyan Magenta Yellow Black
%%Extensions: CMYK
%%Pages: 1
%%BoundingBox:    52   199   552   602
%%EndComments

%%BeginProlog
% MathWorks dictionary
/MathWorks 160 dict begin
% definition operators
/bdef {bind def} bind def
/ldef {load def} bind def
/xdef {exch def} bdef
/xstore {exch store} bdef
% operator abbreviations
/c  /clip ldef
/cc /concat ldef
/cp /closepath ldef
/gr /grestore ldef
/gs /gsave ldef
/mt /moveto ldef
/np /newpath ldef
/cm /currentmatrix ldef
/sm /setmatrix ldef
/rm /rmoveto ldef
/rl /rlineto ldef
/s {show newpath} bdef
/sc {setcmykcolor} bdef
/sr /setrgbcolor ldef
/sg /setgray ldef
/w /setlinewidth ldef
/j /setlinejoin ldef
/cap /setlinecap ldef
/rc {rectclip} bdef
/rf {rectfill} bdef
% page state control
/pgsv () def
/bpage {/pgsv save def} bdef
/epage {pgsv restore} bdef
/bplot /gsave ldef
/eplot {stroke grestore} bdef
% orientation switch
/portraitMode 0 def /landscapeMode 1 def /rotateMode 2 def
% coordinate system mappings
/dpi2point 0 def
% font control
/FontSize 0 def
/FMS {/FontSize xstore findfont [FontSize 0 0 FontSize neg 0 0]
  makefont setfont} bdef
/ISOLatin1Encoding where {pop /WindowsLatin1Encoding 256 array bdef
ISOLatin1Encoding WindowsLatin1Encoding copy pop
/.notdef/.notdef/quotesinglbase/florin/quotedblbase/ellipsis/dagger
/daggerdbl/circumflex/perthousand/Scaron/guilsinglleft/OE/.notdef/.notdef
/.notdef/.notdef/quoteleft/quoteright/quotedblleft/quotedblright/bullet
/endash/emdash/tilde/trademark/scaron/guilsinglright/oe/.notdef/.notdef
/Ydieresis WindowsLatin1Encoding 128 32 getinterval astore pop}
{/WindowsLatin1Encoding StandardEncoding bdef} ifelse
/reencode {exch dup where {pop load} {pop StandardEncoding} ifelse
  exch dup 3 1 roll findfont dup length dict begin
  { 1 index /FID ne {def}{pop pop} ifelse } forall
  /Encoding exch def currentdict end definefont pop} bdef
/isroman {findfont /CharStrings get /Agrave known} bdef
/FMSR {3 1 roll 1 index dup isroman {reencode} {pop pop} ifelse
  exch FMS} bdef
/csm {1 dpi2point div -1 dpi2point div scale neg translate
 dup landscapeMode eq {pop -90 rotate}
  {rotateMode eq {90 rotate} if} ifelse} bdef
% line types: solid, dotted, dashed, dotdash
/SO { [] 0 setdash } bdef
/DO { [.5 dpi2point mul 4 dpi2point mul] 0 setdash } bdef
/DA { [6 dpi2point mul] 0 setdash } bdef
/DD { [.5 dpi2point mul 4 dpi2point mul 6 dpi2point mul 4
  dpi2point mul] 0 setdash } bdef
% macros for lines and objects
/L {lineto stroke} bdef
/MP {3 1 roll moveto 1 sub {rlineto} repeat} bdef
/AP {{rlineto} repeat} bdef
/PDlw -1 def
/W {/PDlw currentlinewidth def setlinewidth} def
/PP {closepath eofill} bdef
/DP {closepath stroke} bdef
/MR {4 -2 roll moveto dup  0 exch rlineto exch 0 rlineto
  neg 0 exch rlineto closepath} bdef
/FR {MR stroke} bdef
/PR {MR fill} bdef
/L1i {{currentfile picstr readhexstring pop} image} bdef
/tMatrix matrix def
/MakeOval {newpath tMatrix currentmatrix pop translate scale
0 0 1 0 360 arc tMatrix setmatrix} bdef
/FO {MakeOval stroke} bdef
/PO {MakeOval fill} bdef
/PD {currentlinewidth 2 div 0 360 arc fill
   PDlw -1 eq not {PDlw w /PDlw -1 def} if} def
/FA {newpath tMatrix currentmatrix pop translate scale
  0 0 1 5 -2 roll arc tMatrix setmatrix stroke} bdef
/PA {newpath tMatrix currentmatrix pop	translate 0 0 moveto scale
  0 0 1 5 -2 roll arc closepath tMatrix setmatrix fill} bdef
/FAn {newpath tMatrix currentmatrix pop translate scale
  0 0 1 5 -2 roll arcn tMatrix setmatrix stroke} bdef
/PAn {newpath tMatrix currentmatrix pop translate 0 0 moveto scale
  0 0 1 5 -2 roll arcn closepath tMatrix setmatrix fill} bdef
/vradius 0 def /hradius 0 def /lry 0 def
/lrx 0 def /uly 0 def /ulx 0 def /rad 0 def
/MRR {/vradius xdef /hradius xdef /lry xdef /lrx xdef /uly xdef
  /ulx xdef newpath tMatrix currentmatrix pop ulx hradius add uly
  vradius add translate hradius vradius scale 0 0 1 180 270 arc 
  tMatrix setmatrix lrx hradius sub uly vradius add translate
  hradius vradius scale 0 0 1 270 360 arc tMatrix setmatrix
  lrx hradius sub lry vradius sub translate hradius vradius scale
  0 0 1 0 90 arc tMatrix setmatrix ulx hradius add lry vradius sub
  translate hradius vradius scale 0 0 1 90 180 arc tMatrix setmatrix
  closepath} bdef
/FRR {MRR stroke } bdef
/PRR {MRR fill } bdef
/MlrRR {/lry xdef /lrx xdef /uly xdef /ulx xdef /rad lry uly sub 2 div def
  newpath tMatrix currentmatrix pop ulx rad add uly rad add translate
  rad rad scale 0 0 1 90 270 arc tMatrix setmatrix lrx rad sub lry rad
  sub translate rad rad scale 0 0 1 270 90 arc tMatrix setmatrix
  closepath} bdef
/FlrRR {MlrRR stroke } bdef
/PlrRR {MlrRR fill } bdef
/MtbRR {/lry xdef /lrx xdef /uly xdef /ulx xdef /rad lrx ulx sub 2 div def
  newpath tMatrix currentmatrix pop ulx rad add uly rad add translate
  rad rad scale 0 0 1 180 360 arc tMatrix setmatrix lrx rad sub lry rad
  sub translate rad rad scale 0 0 1 0 180 arc tMatrix setmatrix
  closepath} bdef
/FtbRR {MtbRR stroke } bdef
/PtbRR {MtbRR fill } bdef
/stri 6 array def /dtri 6 array def
/smat 6 array def /dmat 6 array def
/tmat1 6 array def /tmat2 6 array def /dif 3 array def
/asub {/ind2 exch def /ind1 exch def dup dup
  ind1 get exch ind2 get sub exch } bdef
/tri_to_matrix {
  2 0 asub 3 1 asub 4 0 asub 5 1 asub
  dup 0 get exch 1 get 7 -1 roll astore } bdef
/compute_transform {
  dmat dtri tri_to_matrix tmat1 invertmatrix 
  smat stri tri_to_matrix tmat2 concatmatrix } bdef
/ds {stri astore pop} bdef
/dt {dtri astore pop} bdef
/db {2 copy /cols xdef /rows xdef mul dup 3 mul string
  currentfile exch readhexstring pop
  dup 0 3 index getinterval /rbmap xdef
  dup 2 index dup getinterval /gbmap xdef
  1 index dup 2 mul exch getinterval /bbmap xdef pop pop}bdef
/it {gs np dtri aload pop moveto lineto lineto cp c
  cols rows 8 compute_transform 
  rbmap gbmap bbmap true 3 colorimage gr}bdef
/il {newpath moveto lineto stroke}bdef
currentdict end def
%%EndProlog

%%BeginSetup
MathWorks begin

0 cap

end
%%EndSetup

%%Page: 1 1
%%BeginPageSetup
%%PageBoundingBox:    52   199   552   602
MathWorks begin
bpage
%%EndPageSetup

%%BeginObject: obj1
bplot

/dpi2point 12 def
portraitMode 0204 7344 csm

  422   110  5999  4844 MR c np
85 dict begin %Colortable dictionary
/c0 { 0.000000 0.000000 0.000000 sr} bdef
/c1 { 1.000000 1.000000 1.000000 sr} bdef
/c2 { 0.900000 0.000000 0.000000 sr} bdef
/c3 { 0.000000 0.820000 0.000000 sr} bdef
/c4 { 0.000000 0.000000 0.800000 sr} bdef
/c5 { 0.910000 0.820000 0.320000 sr} bdef
/c6 { 1.000000 0.260000 0.820000 sr} bdef
/c7 { 0.000000 0.820000 0.820000 sr} bdef
c0
1 j
1 sg
   0    0 6913 5185 PR
6 w
0 4225 5356 0 0 -4225 899 4614 4 MP
PP
-5356 0 0 4225 5356 0 0 -4225 899 4614 5 MP stroke
4 w
DO
SO
6 w
0 sg
 899  389 mt 6255  389 L
 899 4614 mt 6255 4614 L
6255 4614 mt 6255  389 L
 899 4614 mt  899  389 L
 899 4614 mt 6255 4614 L
 899 4614 mt  899  389 L
 899 4614 mt  899 4560 L
 899  389 mt  899  442 L
%%IncludeResource: font Helvetica
/Helvetica /WindowsLatin1Encoding 120 FMSR

 816 4759 mt 
(0.1) s
1970 4614 mt 1970 4560 L
1970  389 mt 1970  442 L
1854 4759 mt 
(0.15) s
3041 4614 mt 3041 4560 L
3041  389 mt 3041  442 L
2958 4759 mt 
(0.2) s
4112 4614 mt 4112 4560 L
4112  389 mt 4112  442 L
3996 4759 mt 
(0.25) s
5183 4614 mt 5183 4560 L
5183  389 mt 5183  442 L
5100 4759 mt 
(0.3) s
6255 4614 mt 6255 4560 L
6255  389 mt 6255  442 L
6139 4759 mt 
(0.35) s
 899 4614 mt  925 4614 L
6255 4614 mt 6228 4614 L
 899 4614 mt  952 4614 L
6255 4614 mt 6201 4614 L
 640 4658 mt 
(10) s
%%IncludeResource: font Helvetica
/Helvetica /WindowsLatin1Encoding 80 FMSR

 773 4584 mt 
(-3) s
 899 4359 mt  925 4359 L
6255 4359 mt 6228 4359 L
 899 4210 mt  925 4210 L
6255 4210 mt 6228 4210 L
 899 4105 mt  925 4105 L
6255 4105 mt 6228 4105 L
 899 4023 mt  925 4023 L
6255 4023 mt 6228 4023 L
 899 3956 mt  925 3956 L
6255 3956 mt 6228 3956 L
 899 3899 mt  925 3899 L
6255 3899 mt 6228 3899 L
 899 3850 mt  925 3850 L
6255 3850 mt 6228 3850 L
 899 3807 mt  925 3807 L
6255 3807 mt 6228 3807 L
 899 3769 mt  925 3769 L
6255 3769 mt 6228 3769 L
 899 3769 mt  952 3769 L
6255 3769 mt 6201 3769 L
%%IncludeResource: font Helvetica
/Helvetica /WindowsLatin1Encoding 120 FMSR

 640 3813 mt 
(10) s
%%IncludeResource: font Helvetica
/Helvetica /WindowsLatin1Encoding 80 FMSR

 773 3739 mt 
(-2) s
 899 3514 mt  925 3514 L
6255 3514 mt 6228 3514 L
 899 3365 mt  925 3365 L
6255 3365 mt 6228 3365 L
 899 3260 mt  925 3260 L
6255 3260 mt 6228 3260 L
 899 3178 mt  925 3178 L
6255 3178 mt 6228 3178 L
 899 3111 mt  925 3111 L
6255 3111 mt 6228 3111 L
 899 3054 mt  925 3054 L
6255 3054 mt 6228 3054 L
 899 3005 mt  925 3005 L
6255 3005 mt 6228 3005 L
 899 2962 mt  925 2962 L
6255 2962 mt 6228 2962 L
 899 2924 mt  925 2924 L
6255 2924 mt 6228 2924 L
 899 2924 mt  952 2924 L
6255 2924 mt 6201 2924 L
%%IncludeResource: font Helvetica
/Helvetica /WindowsLatin1Encoding 120 FMSR

 640 2968 mt 
(10) s
%%IncludeResource: font Helvetica
/Helvetica /WindowsLatin1Encoding 80 FMSR

 773 2894 mt 
(-1) s
 899 2669 mt  925 2669 L
6255 2669 mt 6228 2669 L
 899 2520 mt  925 2520 L
6255 2520 mt 6228 2520 L
 899 2415 mt  925 2415 L
6255 2415 mt 6228 2415 L
 899 2333 mt  925 2333 L
6255 2333 mt 6228 2333 L
 899 2266 mt  925 2266 L
6255 2266 mt 6228 2266 L
 899 2209 mt  925 2209 L
6255 2209 mt 6228 2209 L
 899 2160 mt  925 2160 L
6255 2160 mt 6228 2160 L
 899 2117 mt  925 2117 L
6255 2117 mt 6228 2117 L
 899 2079 mt  925 2079 L
6255 2079 mt 6228 2079 L
 899 2079 mt  952 2079 L
6255 2079 mt 6201 2079 L
%%IncludeResource: font Helvetica
/Helvetica /WindowsLatin1Encoding 120 FMSR

 640 2123 mt 
(10) s
%%IncludeResource: font Helvetica
/Helvetica /WindowsLatin1Encoding 80 FMSR

 773 2049 mt 
(0) s
 899 1824 mt  925 1824 L
6255 1824 mt 6228 1824 L
 899 1675 mt  925 1675 L
6255 1675 mt 6228 1675 L
 899 1570 mt  925 1570 L
6255 1570 mt 6228 1570 L
 899 1488 mt  925 1488 L
6255 1488 mt 6228 1488 L
 899 1421 mt  925 1421 L
6255 1421 mt 6228 1421 L
 899 1364 mt  925 1364 L
6255 1364 mt 6228 1364 L
 899 1315 mt  925 1315 L
6255 1315 mt 6228 1315 L
 899 1272 mt  925 1272 L
6255 1272 mt 6228 1272 L
 899 1234 mt  925 1234 L
6255 1234 mt 6228 1234 L
 899 1234 mt  952 1234 L
6255 1234 mt 6201 1234 L
%%IncludeResource: font Helvetica
/Helvetica /WindowsLatin1Encoding 120 FMSR

 640 1278 mt 
(10) s
%%IncludeResource: font Helvetica
/Helvetica /WindowsLatin1Encoding 80 FMSR

 773 1204 mt 
(1) s
 899  979 mt  925  979 L
6255  979 mt 6228  979 L
 899  830 mt  925  830 L
6255  830 mt 6228  830 L
 899  725 mt  925  725 L
6255  725 mt 6228  725 L
 899  643 mt  925  643 L
6255  643 mt 6228  643 L
 899  576 mt  925  576 L
6255  576 mt 6228  576 L
 899  519 mt  925  519 L
6255  519 mt 6228  519 L
 899  470 mt  925  470 L
6255  470 mt 6228  470 L
 899  427 mt  925  427 L
6255  427 mt 6228  427 L
 899  389 mt  925  389 L
6255  389 mt 6228  389 L
 899  389 mt  952  389 L
6255  389 mt 6201  389 L
%%IncludeResource: font Helvetica
/Helvetica /WindowsLatin1Encoding 120 FMSR

 640  433 mt 
(10) s
%%IncludeResource: font Helvetica
/Helvetica /WindowsLatin1Encoding 80 FMSR

 773  359 mt 
(2) s
 899  389 mt 6255  389 L
 899 4614 mt 6255 4614 L
6255 4614 mt 6255  389 L
 899 4614 mt  899  389 L
gs 899 389 5357 4226 MR c np
/c8 { 0.000000 0.000000 1.000000 sr} bdef
c8
26 -36 29 -28 27 -14 27 -3 29 -11 27 -2 26 3 28 -33 
27 -63 27 -63 26 -55 27 -50 26 -23 26 -50 26 -73 25 -63 
26 -98 25 -125 25 -287 25 -226 24 142 25 4 24 -186 25 -8 
24 175 22 67 25 203 23 116 22 19 22 -3 24 -162 23 22 
22 112 23 -40 22 -50 24 -201 23 -139 21 -153 23 90 21 286 
23 36 21 42 22 76 22 -88 20 -130 22 -47 22 -113 22 -155 
19 40 20 -12 22 198 20 191 22 123 21 -166 20 -432 21 -303 
19 436 21 -262 19 148 21 383 21 -33 19 -347 20 88 16 224 
18 -182 19 -63 19 333 17 -177 17 -467 19 459 18 -20 19 -135 
18 70 17 103 17 -180 16 -325 19 346 19 80 13 -74 16 65 
18 -59 17 -6 17 97 17 -252 14 363 16 118 18 -21 16 -304 
17 158 16 393 13 -145 16 -275 17 196 17 79 15 -19 15 -417 
14 418 14 353 17 -229 4115 1938 100 MP stroke
15 -251 16 90 13 -153 15 -577 14 -207 14 219 16 209 12 -365 
14 436 15 -30 11 123 14 -162 14 27 14 72 12 -274 13 632 
14 137 11 75 13 -132 11 -580 14 665 12 -120 11 -983 13 655 
10 -190 13 -260 12 626 12 -131 11 -105 10 238 13 173 9 -158 
10 -73 12 -56 11 -60 11 -117 10 -349 13 264 10 397 11 -225 
12 195 8 -666 14 846 6 -132 14 -118 21 157 1 -597 5 321 
13 -323 7 165 12 234 8 124 7 -38 20 -2 8 -167 -1 -35 
12 -241 8 -201 8 431 10 -136 7 41 10 -455 7 145 8 337 
10 218 7 -8 10 -190 6 -402 9 80 8 182 7 144 8 -162 
7 339 9 -146 7 2 9 -82 10 -251 4 -57 17 610 10 53 
-1 -259 8 -388 9 98 6 120 8 -227 7 339 7 -19 8 -197 
7 -69 8 323 8 22 7 -98 7 -440 8 30 7 151 6 178 
8 -127 7 -63 7 118 3121 2751 100 MP stroke
8 282 7 -3 9 -204 5 178 12 -34 14 320 -2 -977 7 423 
10 100 5 291 10 -125 6 -206 8 3 8 -172 6 99 9 126 
7 165 8 114 9 -524 7 396 8 -416 8 31 7 642 8 -50 
7 -372 7 385 16 125 7 -97 -1 -307 11 112 6 -142 6 -158 
9 11 5 117 9 127 5 -249 7 157 9 66 6 -669 8 179 
6 397 9 -425 7 371 6 295 8 -282 5 134 10 -292 8 49 
8 -168 7 78 7 145 9 105 6 10 9 259 7 -457 7 510 
8 -408 5 77 9 -275 7 176 8 -193 7 544 6 65 7 -76 
6 -302 8 -705 8 537 7 239 7 -69 5 -46 8 -31 8 69 
8 39 6 -34 6 -312 8 371 6 -184 9 -71 7 -61 7 26 
8 138 5 -82 8 -130 7 282 7 4 6 77 6 -109 7 -56 
6 -64 8 198 7 -81 5 39 6 103 7 -206 5 243 9 -252 
12 717 1 -523 2 -35 2408 2639 100 MP stroke
9 -188 4 283 8 -690 6 316 5 158 8 -215 4 334 8 -368 
6 -74 6 165 6 123 5 152 8 -139 4 -75 7 96 6 -762 
6 710 7 145 4 -200 7 130 3 34 5 -388 5 -13 5 111 
7 324 3 -162 5 -120 4 254 4 -192 6 -83 3 278 5 -332 
3 297 4 -169 4 56 2 -82 4 269 3 92 3 -160 3 46 
3 -266 2 373 8 -200 7 367 -7 -51 4 -74 12 192 2 -9 
3 -57 2 -468 3 -27 1 -332 4 460 6 545 -6 -705 -3 567 
4 -55 2 -55 3 -103 1 122 2 17 0 233 3 -185 7 -88 
0 -214 2 42 -2 29 1 227 1 199 0 -47 -1 -125 -7 -616 
-6 578 0 -108 -1 -245 -3 -499 -2 589 -4 -12 -1 -482 -3 487 
-3 152 -2 -170 -3 10 -3 170 -2 47 -3 -29 -4 101 3 -235 
-1 302 -5 -290 -3 61 -4 -215 0 379 -3 74 -5 -162 -1 281 
-8 -699 -9 606 -3 -21 2225 2312 100 MP stroke
-3 -337 -3 -228 -4 258 -2 -501 -4 415 -5 6 -3 -8 -4 5 
-4 -150 -5 154 -3 -178 -4 236 -5 -80 -3 42 -5 -214 -3 206 
-5 -679 -5 588 -3 214 -5 27 -4 -92 -4 -173 -4 -252 -4 92 
-4 120 -4 272 -4 -467 -2 665 -5 -300 -4 -118 -6 -71 -6 425 
-3 -507 -4 403 -2 26 -3 214 -4 -32 -6 -136 -6 -4 -2 -494 
-5 216 -6 429 -3 51 -4 -59 -1 -163 -3 68 -4 -106 -6 103 
-3 -228 -2 -97 -5 81 -1 427 -6 -449 -4 122 0 460 -5 -355 
-3 84 -1 9 -5 -285 -3 -290 -3 171 -3 -211 -4 611 -2 -331 
-1 522 -5 -186 -4 92 -4 -266 -5 319 -3 -248 -4 262 -3 27 
-3 -18 -2 -296 -2 262 -4 -63 -1 192 -4 -65 -3 -105 -3 -412 
-4 479 -3 -14 -3 11 -3 -75 -2 -253 -2 288 -3 -133 -3 49 
-3 167 -3 -104 -3 -202 -3 226 -3 -485 -2 396 -3 -209 -2 -107 
-3 -221 -2 21 -1 256 2568 2600 100 MP stroke
-3 -168 -2 133 -3 -289 -2 -214 -2 291 -3 134 -2 155 -2 -461 
-2 87 -2 352 -4 542 -1 -230 -3 -640 -3 530 0 -135 -2 30 
-2 -142 -2 129 -2 -254 -3 70 -3 361 0 -254 -1 71 -4 -337 
-1 -539 -3 128 -1 126 -2 334 -3 77 -1 125 -3 105 -1 11 
-2 -159 -2 -209 -1 100 -2 -101 -1 290 -2 -15 -3 161 0 -232 
-2 37 -3 395 2 -293 -2 -134 -2 -133 1 329 -3 -279 0 -240 
-2 -128 -3 499 1 -14 -2 -30 -2 -13 -3 -241 -2 210 0 -45 
-3 145 -1 -435 0 398 -5 6 -1 -89 0 -23 -2 43 -4 119 
-1 -107 1 229 -5 -126 -3 -139 0 18 -3 -144 -1 365 -3 -18 
-3 -104 -1 -133 -4 30 -7 292 -2 -68 2 -535 -2 123 -2 74 
-3 146 -4 100 -1 -113 -1 -373 -3 94 -2 145 -5 -43 0 140 
-5 -320 -6 681 4 -309 -3 -159 -4 -286 0 580 -2 66 -4 -184 
-4 -196 2 300 -4 -143 2766 2670 100 MP stroke
-9 355 -1 -67 0 -103 1 -450 -2 -249 -7 813 -1 -213 1 -316 
0 237 -2 -145 -3 -282 0 495 -4 -386 -1 274 -3 -37 -5 -255 
1 361 -6 -370 -1 247 1 368 -10 -889 1 649 -4 -246 -12 722 
-1 -103 1 -353 -1 -20 1 -36 -1 -115 -7 235 -1 -121 3 268 
-5 -95 -1 -38 -1 -42 -4 -388 0 248 -1 116 -3 -117 -2 21 
-2 18 -3 121 -3 135 -1 -22 -4 -138 -2 -295 -3 39 -2 -626 
-3 544 -3 26 -1 377 -6 -59 -3 137 0 83 -6 -149 0 27 
-4 -66 -3 -32 -1 119 -6 -218 1 366 -11 -87 -9 440 5 -681 
-3 320 1 -201 1 143 -4 -9 -4 -46 -7 89 3 -187 -1 238 
-8 -170 -1 -18 1 -119 -2 416 -2 -396 -2 278 -7 -197 -3 139 
3 -83 -2 -122 -3 344 -7 -291 -1 122 2 178 -6 -421 -3 230 
1 -3 0 -108 -6 248 -3 -32 3 1 -4 -859 -2 864 0 -57 
-4 -449 1 576 -3 -349 2997 2569 100 MP stroke
-1 320 0 -163 -4 170 0 -115 1 -105 -2 92 -1 -66 1 51 
-2 169 -2 -271 1 -35 -1 404 -1 -425 0 367 -1 -201 1 -375 
-1 508 0 -287 0 57 -1 -138 0 266 0 -117 1 -70 0 228 
0 -200 1 172 0 120 1 -372 1 -100 -1 387 2 -104 0 -139 
1 -198 1 381 0 -175 2 -62 1 279 1 -282 1 -367 0 566 
2 -305 1 287 2 2 2 -279 1 479 2 -259 1 305 3 -842 
1 811 2 -668 2 472 1 105 3 127 2 -165 2 -288 1 724 
1 -114 2 -276 1 -43 3 210 0 -127 -3 -92 1 232 2 -289 
1 280 2 -332 1 234 2 -262 2 275 1 144 7 -236 8 1 
1 59 2 -19 2 -82 2 -91 3 154 1 171 2 12 2 -76 
2 -290 2 -214 1 141 3 -81 2 103 2 26 1 -130 1 4 
1 322 1 212 2 90 0 -745 1 -30 0 107 2 -345 -1 -376 
1 676 -1 225 0 291 2904 2174 100 MP stroke
0 -170 -1 -673 0 167 -1 311 0 57 -1 -56 -2 111 0 -150 
-1 218 -2 40 -10 -47 -7 271 6 -631 3 517 -5 -257 -12 277 
-3 35 -1 -86 -7 193 3 -495 4 321 -5 -106 -3 -115 -4 121 
-4 174 -4 -578 -3 91 -4 -99 -4 -384 -3 622 -5 -91 -3 -326 
-4 426 -3 183 -4 -186 -5 -447 -3 413 -5 -22 -3 -75 -4 250 
-5 74 -4 88 -5 -612 -4 423 -5 104 -4 33 -3 -129 -5 -306 
-4 182 -6 58 -4 96 -6 -48 -14 221 -9 197 4 -497 2 78 
-7 -152 -5 -103 -4 -99 -5 -19 -4 16 -6 119 -3 138 -6 -144 
-5 -272 -4 2 -6 36 -4 26 -6 3 -5 -16 -6 -13 -6 3 
-4 -27 -7 79 -5 -310 -6 473 -6 -205 -5 54 -7 -13 -5 124 
-6 -192 -7 -32 -6 69 -6 -474 -5 332 -7 41 -6 53 -7 -192 
-7 -369 -6 556 -6 156 -6 -157 -8 -1 -7 163 -8 14 -8 -117 
-6 -66 -9 -101 -8 132 3342 2893 100 MP stroke
-8 -22 -9 188 -7 47 -8 -52 -8 138 -9 -244 -8 -238 -8 39 
-8 183 -8 -88 -9 214 -8 60 -9 -52 -8 -161 -8 -67 -9 130 
-8 -484 -10 593 -8 55 -8 -506 -9 271 -7 119 -9 -114 -8 75 
-8 -102 -8 -149 -8 196 -8 173 -7 192 -8 -26 -7 -40 -8 -50 
-6 -472 -7 498 -7 47 -6 -70 -7 36 -6 22 -7 -155 -3 336 
-11 -591 -14 860 -4 -26 -6 13 5 -654 3 474 -9 -332 -2 246 
-6 -80 -5 -162 -2 27 -6 -156 -2 83 -5 -281 -3 -256 -3 441 
-5 -71 -1 253 -5 -156 -1 -511 -3 303 -3 -114 -1 -136 -3 590 
-1 -190 -3 58 -1 -102 -1 92 -3 25 0 -105 -2 104 1 8 
-1 -255 -2 44 1 13 -2 407 1 89 0 -404 0 112 1 59 
-1 19 1 -113 -1 18 2 -219 0 220 2 -123 0 263 2 -40 
1 20 3 -231 2 243 1 -225 4 229 0 -297 5 269 5 282 
-1 -443 3 321 3 -431 3725 2892 100 MP stroke
3 -58 4 139 3 99 4 1 4 -81 5 -103 3 123 5 129 
5 65 4 1 5 -109 5 28 5 -183 5 53 5 56 6 -13 
6 -12 6 -278 7 444 5 -243 7 -51 12 641 4 -147 -1 -112 
13 -97 1 55 -1 465 25 -191 10 186 -11 -117 11 -186 14 -107 
-1 -69 13 78 12 283 1 -685 7 118 7 142 6 224 8 -180 
7 1 8 82 8 -69 8 -21 8 -4 17 153 4 -505 0 654 
14 -274 7 -50 9 -271 8 -180 5 440 14 234 10 161 9 -2 
7 -61 0 -365 8 130 6 -15 9 -336 5 214 6 181 16 68 
3 -532 2 579 8 -163 7 -64 14 230 0 -555 4 347 11 62 
3 -45 11 -47 12 314 0 -865 3 665 13 -247 10 331 -2 13 
8 -156 15 214 1 -616 4 320 7 78 6 20 8 -166 6 107 
13 -225 6 -26 -2 651 11 -132 13 -144 7 -54 8 61 5 60 
11 119 12 204 -2 -260 3064 2341 100 MP stroke
8 -168 4 -35 -2 312 14 -279 2 248 10 -185 15 -266 -3 396 
16 -770 15 761 -4 -361 1 364 19 -171 9 112 -11 279 16 -575 
13 357 0 -251 14 195 0 -586 10 218 7 141 2 -306 13 498 
0 -597 11 302 5 -195 3 134 13 193 -2 26 13 -236 3 -94 
5 166 11 1 -1 295 13 -486 0 396 8 -141 7 -217 0 327 
13 49 -1 -344 9 167 4 -301 6 100 23 844 -9 -832 2 102 
2 309 -2 239 12 -461 0 219 13 112 -3 -264 1 25 16 315 
-5 -443 9 269 -1 21 2 -14 9 41 -3 289 10 -585 2 96 
2 308 9 -222 3 28 13 210 6 115 -3 -789 2 206 9 154 
1 -461 0 570 9 -635 0 607 10 -519 8 535 -2 -315 10 277 
2 -187 4 -70 8 202 -1 100 4 125 7 -213 2 250 9 -549 
7 422 0 -575 9 626 3 -96 -1 -461 9 301 2 -316 6 66 
6 127 3 156 7 -181 2535 2790 100 MP stroke
2 -20 7 3 4 -46 4 93 7 64 3 -75 7 -163 3 288 
5 -41 5 -102 2 289 11 4 2 -308 3 146 9 96 0 -537 
2 496 6 -344 4 -100 5 228 4 127 5 -262 5 73 4 24 
6 102 9 362 -1 -400 3 52 7 -244 2 128 8 -101 2 160 
5 -24 10 392 1 -883 2 749 6 -83 5 56 4 -105 5 -260 
6 -209 4 400 6 95 3 -116 5 -86 5 -117 5 140 5 47 
4 -141 4 37 6 92 5 230 1 326 5 -114 9 -114 3 -295 
6 -8 5 76 4 -68 7 32 3 -63 7 -133 5 2 4 264 
7 -35 3 107 7 -285 4 145 5 -120 7 -138 2 545 11 -50 
5 161 0 -913 6 445 5 100 6 275 3 -460 3 368 5 -280 
6 -114 6 -409 6 476 6 -88 4 193 6 -192 6 236 6 4 
7 -222 5 140 6 -43 6 -46 6 -101 6 -60 5 51 6 316 
4 -199 5 56 5 -382 2049 3198 100 MP stroke
5 142 6 196 4 -263 6 105 3 170 5 3 4 -138 4 127 
7 -70 4 -217 4 294 4 193 4 -79 5 -310 4 0 6 313 
3 -36 4 24 4 13 3 -392 6 108 3 365 4 -282 3 136 
3 74 5 -337 3 326 4 -243 3 253 4 -118 5 692 2 -371 
3 -214 2 -17 3 -173 3 0 2 -228 4 -40 2 280 4 -193 
2 258 3 49 3 101 3 173 4 -57 1 88 3 -128 3 -121 
1 205 4 94 1 242 3 -113 2 -7 1 -55 3 83 0 -359 
2 268 3 -67 1 -17 3 -47 2 -115 2 100 1 -232 3 -18 
1 469 2 -82 1 -31 1 180 2 -373 2 267 2 -20 0 54 
2 -12 1 -1 1 -74 2 83 2 -228 2 218 1 -19 1 -170 
2 107 1 -46 1 -76 1 -587 1 103 2 -49 1 387 1 -91 
1 172 2 -122 1 -361 0 139 2 260 0 134 1 -10 0 214 
0 -500 0 190 -1 51 1799 2604 100 MP stroke
0 254 1 -325 -1 -88 1 -239 0 648 1 -315 0 169 1 -337 
0 184 1 -193 1 -420 1 447 2 111 1 304 1 43 1 10 
0 -232 1 273 1 -194 1 263 0 75 0 -592 -1 221 2 120 
0 268 0 -64 -2 -729 -1 409 0 -374 0 259 -1 9 0 -175 
-1 54 -1 -106 0 191 -1 -146 0 242 0 -40 1 521 -3 -438 
-3 -521 -1 205 -2 126 -2 -67 -3 -181 -2 -95 -2 333 -3 -58 
-3 -71 -3 145 -2 -89 -3 222 -3 -141 -3 111 -3 125 0 94 
-2 67 -4 54 -4 -107 -7 -75 -3 -18 -3 -220 -4 82 -3 -156 
-5 -198 -3 -254 -4 217 -5 9 -4 -114 -5 -69 -5 169 -5 158 
-4 19 -5 107 -5 -196 -4 -252 -5 96 -5 104 -4 61 -5 16 
-3 -32 -5 55 -4 -373 -4 144 -5 -165 -3 -331 -4 523 -4 245 
-4 -148 -3 -6 -4 23 -4 56 -3 105 -4 -79 -3 -476 -3 144 
-7 797 -1 -276 -1 -52 2003 2744 100 MP stroke
-4 -187 -3 308 -3 -228 -4 96 -3 -189 -3 -175 -3 383 -3 -163 
-3 73 -4 -9 -2 134 -6 84 -4 226 1 -362 -4 -182 -7 480 
-1 -744 0 699 -6 -602 -5 575 1 -257 -2 220 -6 86 -2 -199 
0 -142 -2 -47 -2 -83 -2 78 -1 24 -1 -4 -1 -175 -2 -121 
-1 269 -1 35 -1 -462 -2 344 -1 84 -2 122 -2 -82 -1 78 
-2 36 -1 -10 -2 16 3 67 -1 163 -5 -278 0 50 -4 -167 
-7 757 0 -241 3 -131 -1 117 -4 -449 0 287 -1 178 -4 -477 
0 520 -2 -1 -2 -89 -3 -38 -8 157 -2 12 0 -341 -2 28 
-1 -19 -2 74 -2 -43 -2 -110 -1 -252 -4 374 -1 -53 0 -14 
-4 168 -3 174 0 -354 4 251 -1 176 -3 -239 -1 132 -4 -243 
-3 -157 -1 149 -3 -222 -1 433 -7 -366 -7 561 0 -480 -1 -160 
-5 560 -1 17 2 -651 3 353 -3 -175 -2 12 3 341 -8 -674 
-2 205 5 631 -8 -896 2210 3090 100 MP stroke
-5 814 2 -711 -3 -209 0 558 -2 -342 -2 565 1 -531 -2 209 
0 186 -2 -335 -1 355 0 -229 -2 60 -1 487 -1 99 1 -714 
0 273 -1 154 0 124 -1 -546 0 16 -1 230 0 -471 0 173 
-1 497 0 -430 -1 189 1 8 -2 -591 -2 790 0 -191 -1 25 
-1 -153 0 -34 -1 412 0 -222 -1 -333 -2 563 0 -509 0 214 
-2 -64 -1 -37 -1 -65 0 -140 -1 -112 -3 -215 -1 422 -2 57 
-2 -73 -2 -17 -1 89 -3 187 -1 -245 -1 -115 -3 -45 -1 223 
-2 9 -3 188 -2 -103 -2 -53 -1 -4 -2 -156 -3 -133 -2 246 
-2 -159 -2 146 -2 -64 -2 -41 -3 221 -3 111 -2 -57 -2 -77 
-2 -487 -2 324 -3 161 -1 109 -2 -97 -2 -310 -1 -322 -2 485 
-2 45 -1 -7 -1 44 -2 -86 -1 94 -1 -39 -1 35 0 -93 
-1 24 0 162 0 -672 0 504 1 -55 0 -81 1 131 0 -102 
1 1 1 83 0 180 2322 2685 100 MP stroke
1 21 0 -130 1 -78 1 -144 -1 44 2 -163 0 212 1 -130 
2 85 1 111 2 -199 1 227 3 63 3 211 1 -197 1 200 
3 -565 1 553 3 -322 3 324 0 -317 3 194 2 -1 -1 -95 
3 -206 1 157 3 284 1 -119 0 -58 2 -397 1 278 2 12 
1 -117 1 56 3 -97 1 69 2 -190 1 126 2 63 2 78 
1 55 3 70 2 -271 2 -69 2 4 2 169 2 -603 1 649 
2 -17 2 -83 1 -55 1 23 1 45 2 -437 1 178 2 -53 
1 280 1 -303 1 -232 1 339 1 -44 0 220 1 116 1 158 
0 -43 1 -291 1 -6 1 5 1 37 0 24 1 33 0 -46 
1 48 1 -15 1 -262 2 -47 1 235 0 -143 1 216 1 -37 
1 -16 0 57 2 -212 1 236 1 70 1 156 1 51 1 -152 
1 -286 2 23 0 213 0 -357 1 201 0 -189 1 319 0 -17 
1 -8 1 199 -1 -107 2202 2814 100 MP stroke
0 -102 0 132 -1 -16 -1 29 -1 -291 0 -282 -1 454 0 -13 
-1 -256 -1 -108 -1 200 -1 183 -1 56 0 -287 0 235 -1 130 
0 123 0 -29 -1 70 0 -78 -1 -436 -1 179 -1 232 -1 31 
-2 -321 -2 344 -2 44 -3 -243 -2 187 -3 143 -4 65 -3 2 
-3 -124 -2 -354 -4 390 -5 -183 -3 125 -5 -38 -5 -17 -3 190 
-4 -440 -4 156 -3 593 -5 -144 -4 -700 -5 302 -3 461 -5 -213 
-4 -366 -5 566 -5 -67 -4 242 -4 -428 -4 106 -4 217 -4 74 
-4 -126 -4 -611 -3 565 -3 -387 -4 338 -4 -509 -2 335 -5 377 
-3 8 -4 -188 -4 -187 -2 449 -4 -262 -4 44 -2 -310 -4 -46 
-3 314 -3 52 -3 129 -3 -49 -3 -732 -3 676 -2 75 -3 -152 
-2 53 -2 -159 -2 -155 -2 437 -2 -385 -1 -237 -2 430 0 140 
-2 -13 -1 -21 -1 -216 -1 -115 0 518 -1 -144 0 129 -1 -165 
-1 -495 0 526 -2 59 2437 2099 100 MP stroke
0 14 -1 -131 -1 -798 1 894 -1 126 -1 -659 0 12 -1 479 
0 213 0 -394 -1 85 0 -138 -2 -11 0 99 -2 179 0 94 
0 -136 -1 -612 0 664 -1 164 0 -307 0 10 -2 132 -2 -127 
-1 -82 -1 -160 -2 61 -2 66 -2 -202 -3 -120 -1 177 -3 -115 
-3 -126 -2 236 -3 -378 -2 -216 -2 202 -3 110 -3 234 -3 -110 
-2 -417 -3 554 -3 112 -4 -92 -2 -37 -3 -75 -3 -196 -4 202 
-4 -215 -4 40 -3 -227 -4 140 -4 -126 -5 294 -4 -284 -4 94 
-5 163 -5 0 -5 -36 -6 207 -6 -179 -5 -16 -5 276 -6 -341 
-5 253 -6 290 -6 -548 -6 394 -5 73 -7 53 -7 -220 -6 176 
-6 161 -7 -1 -6 -6 -7 -87 -6 -565 -5 -698 -6 1127 -7 139 
-6 -296 -7 103 -6 127 -7 3 -7 -521 -6 603 -7 -355 -6 -503 
-6 311 -6 -46 -6 -78 -8 -170 -6 253 -6 -183 -7 362 -7 184 
-6 37 -7 -397 -7 -40 2809 2894 100 MP stroke
-7 253 -7 245 -7 135 -7 -406 -7 -399 -8 300 -7 -289 -7 215 
-7 353 -7 192 -7 -533 -9 426 -7 50 -8 -225 -8 -152 -6 114 
-8 215 -7 146 -8 -222 -7 -115 -6 -135 -10 116 -8 85 -9 214 
-8 -4 -8 -23 -7 -61 -7 -97 -9 -170 -8 -71 -9 99 -8 -76 
-8 66 -9 149 -8 -340 -9 59 -8 -108 -10 128 -9 -83 -8 -73 
-9 -343 -9 309 -8 -320 -9 84 -8 383 -9 10 -8 35 -9 -102 
-8 72 -8 -94 -10 -52 -9 81 -9 101 -8 -162 -8 172 -7 -46 
-9 -62 -11 384 -8 4 -7 -68 -8 -16 -9 82 -8 2 -9 -71 
-9 -166 -8 -162 -9 242 -8 228 -9 122 -8 89 -7 -297 -9 -212 
-8 -1 -8 -14 -8 -30 -8 122 -9 -106 -7 95 -7 -181 -7 80 
-7 84 -8 77 -7 -49 -7 -180 -7 41 -7 141 -7 -11 -7 -36 
-7 88 -5 48 -7 -25 -7 -213 -6 47 -8 -59 -6 346 -7 178 
-6 -857 -5 843 -5 -95 3581 2356 100 MP stroke
-7 -188 -6 -360 -5 441 -6 276 -7 182 -6 -98 -6 -220 -7 -595 
-6 650 -6 -20 -6 -76 -6 -57 -5 18 -5 -32 -7 -73 -6 -118 
-4 -227 -11 329 -4 -85 0 -42 -7 -24 -5 -67 -4 -169 -6 108 
-3 32 -5 138 -4 -65 -5 -7 -4 -174 -3 223 -6 -14 -4 144 
-5 -71 -4 -65 -3 -117 -11 194 -3 43 0 -48 -7 -144 -4 99 
-3 53 -9 159 -3 -120 0 -285 -6 85 -4 184 -2 -40 -5 -56 
-4 -1 -4 65 -4 -84 -5 10 -4 -6 -3 -32 -8 -161 -6 463 
1 -75 -4 -69 -10 56 -1 36 -2 -108 -5 -178 -6 129 -8 328 
0 -436 -6 124 -6 238 3 -152 -8 105 -6 20 0 -348 -2 390 
-7 -115 -7 -35 2 208 -6 -25 -16 143 -4 13 3 -525 -3 549 
-4 -238 -6 185 -2 -503 -4 125 -6 241 -4 213 -5 -106 -3 171 
-4 177 -12 -101 -5 -120 2 76 -1 -211 -5 87 -8 -134 -1 396 
-4 11 -5 -344 0 137 4035 2066 100 MP stroke
-9 107 -1 -311 -1 318 -6 86 -4 -426 -7 201 1 156 -7 -14 
-4 -446 3 809 -8 -3 -1 -13 -4 -353 -8 -2 1 -278 -5 262 
-3 -656 -3 375 -4 325 -4 -419 -6 202 -1 110 -1 -93 -2 -249 
-2 -837 -2 886 -2 252 -5 -395 -3 307 1 44 -3 -282 -2 -245 
0 546 -5 -444 -4 321 1 127 -2 122 -4 -536 -1 185 -3 397 
-2 -596 -4 248 1 184 -1 159 -6 -196 -3 327 1 -153 0 -447 
0 227 -1 172 -3 -162 -1 -292 -1 368 -3 227 0 -149 -2 -460 
-1 452 1 63 -1 -478 -1 461 -2 153 0 -454 -1 173 1 50 
-1 218 0 -336 -1 170 -1 175 1 -178 -2 395 0 95 0 -435 
1 -637 -1 544 1 188 1 -600 1 357 1 212 0 -262 1 -643 
0 555 2 194 0 63 0 -259 1 -176 3 398 1 -154 1 -456 
2 562 1 216 0 -107 3 -340 1 56 3 -68 4 277 0 -701 
0 663 3 -645 2 672 4156 2040 100 MP stroke
1 168 2 -676 2 137 3 330 2 -65 5 115 7 -142 -1 0 
2 -99 4 577 2 70 4 -244 2 -395 4 300 4 -536 3 378 
3 120 2 -338 5 -743 4 740 4 213 3 -570 3 488 5 -329 
1 296 4 254 5 -482 2 -802 6 902 3 114 3 189 5 -191 
2 -124 5 371 4 -258 4 271 4 -286 4 -87 4 -215 3 211 
5 489 3 -625 5 495 4 -774 4 501 5 161 3 -56 5 -579 
4 476 4 225 6 -147 5 -59 4 -73 3 78 5 116 3 32 
4 -561 5 387 3 24 4 92 4 -364 3 80 4 89 3 -331 
4 440 4 -9 3 -364 3 140 3 338 3 -666 2 412 4 166 
3 -236 3 -436 3 343 3 352 4 -686 3 613 5 -327 3 458 
2 75 5 -856 4 411 3 210 4 170 4 65 3 -235 3 197 
3 410 3 -116 3 -467 3 -414 4 546 3 -36 2 -65 4 -519 
3 833 4 -276 3 -209 3808 2440 100 MP stroke
4 109 3 20 4 84 3 74 4 -1397 4 920 3 233 4 -277 
3 111 4 163 5 -46 3 -95 3 -25 5 -354 3 238 4 343 
4 157 4 64 4 -306 5 -208 3 3 3 -166 4 -36 4 -130 
5 65 4 87 2 -117 4 -21 2 316 3 229 4 -334 4 11 
3 111 2 -110 3 85 3 134 1 -50 4 -70 3 -110 3 -91 
2 135 3 157 3 65 2 -45 3 -212 2 9 4 -37 3 32 
0 129 3 -40 4 -1 2 -87 3 25 2 55 2 37 2 -7 
2 -152 1 -195 2 -172 2 85 2 20 1 100 1 371 2 208 
2 -250 2 -257 1 -415 2 687 2 -71 1 361 2 -196 2 -412 
2 -87 3 247 1 274 2 237 2 -237 2 -816 2 410 2 256 
3 -40 1 -329 1 279 3 329 3 -392 1 386 1 15 2 -19 
1 -83 1 -59 1 -196 1 -237 1 434 1 285 0 -172 1 -623 
0 -43 1 162 0 -262 3562 3180 100 MP stroke
1 48 0 244 0 -309 0 103 1 178 0 -224 1 -449 1 349 
1 -225 1 654 0 158 0 -59 2 -116 1 -102 0 -232 1 309 
1 47 1 2 1 11 1 69 1 -99 1 -157 1 399 1 101 
1 154 0 156 1 -164 0 -509 1 47 0 361 1 -62 0 -67 
0 74 1 44 0 -294 0 28 1 -14 0 132 -1 102 0 154 
-1 51 0 -696 1 637 0 -507 -1 233 0 11 0 -62 -1 -64 
0 -658 0 653 -1 107 0 194 1 146 -1 -318 0 62 -1 94 
0 -40 -1 -95 -1 -119 0 -235 0 21 1 437 -1 -648 1 679 
1 14 0 -188 1 -649 0 1074 0 -557 -1 -51 0 218 -1 -468 
-1 700 -2 -70 -1 -76 -1 -37 -1 -50 -1 -49 -1 -227 -2 -49 
-2 280 -1 174 -1 128 -1 -86 -1 -86 -1 -58 -1 -209 -1 -344 
0 54 -1 334 0 428 -1 -44 -1 -108 0 21 -1 -186 1 -347 
0 338 0 -284 1 450 3565 2465 100 MP stroke
0 43 0 -177 1 246 0 119 0 -745 1 333 -1 -346 1 -202 
-1 538 -1 393 1 -64 0 34 0 -419 0 3 -1 -399 1 621 
-1 -82 -1 -261 1 -56 -1 403 -1 257 0 11 0 -807 0 388 
1 102 0 -138 1 86 0 29 0 -9 1 -154 0 411 1 -120 
1 -23 1 -121 2 -253 1 38 2 111 2 -52 1 -194 2 181 
5 242 1 -319 0 102 4 -403 2 141 3 422 4 227 3 139 
4 96 4 -126 5 -239 4 -248 4 -57 5 351 5 185 5 -147 
4 -281 5 -84 5 -70 4 234 5 91 5 41 4 43 5 -146 
5 -521 5 599 5 205 5 -282 6 -219 5 -135 5 204 7 140 
4 260 10 -187 10 -30 -1 -140 6 -117 6 200 11 282 11 71 
-3 -494 9 -301 8 517 4 60 10 -545 3 255 9 -76 8 280 
5 -49 8 -226 4 -47 9 -205 5 430 7 -227 7 131 4 207 
8 -670 3 553 9 37 3239 2586 100 MP stroke
5 -273 5 -386 9 317 0 375 14 21 8 147 0 -374 8 176 
3 -104 15 115 4 -330 3 355 12 -263 -1 340 16 -42 11 232 
-5 -283 3 262 8 -140 14 -243 1 -170 7 4 11 240 -3 -82 
8 -333 4 177 9 103 9 264 -4 -72 10 -378 3 187 4 281 
13 31 1 -176 3 -342 4 -189 6 233 4 127 4 114 8 68 
3 -67 8 -43 5 168 2 78 14 42 4 -76 1 -444 7 195 
5 44 6 126 6 116 6 -35 5 -136 6 -172 6 -126 6 -24 
5 37 5 37 6 229 4 -26 5 -182 9 372 1 -378 1 387 
7 -438 3 295 5 -56 9 284 2 -672 0 668 9 -187 7 219 
-1 -345 4 138 9 93 3 -46 0 32 5 -362 4 86 4 46 
4 -124 2 347 7 -281 7 463 -1 -696 3 -138 4 421 2 192 
4 -115 4 -200 2 -84 4 -265 2 347 3 -483 3 608 3 -235 
5 614 0 -296 1 35 2750 2610 100 MP stroke
4 -748 1 545 3 -228 2 -77 2 97 3 -18 2 -82 3 334 
2 28 2 16 2 -447 1 -37 3 364 1 1 3 -245 1 329 
2 106 2 -382 3 320 2 -200 2 -55 3 56 2 205 4 173 
3 58 -2 86 5 -697 4 745 0 -583 2 261 3 41 4 -64 
2 -6 4 -120 3 21 2 -122 6 488 3 97 0 -372 3 20 
3 -53 2 106 3 -85 3 -2 2 -191 3 82 3 110 4 -65 
3 70 2 -117 4 -320 4 182 3 214 4 -106 2 -325 4 193 
3 -239 4 114 8 747 1 -262 1 -123 5 -245 3 10 4 -276 
3 272 5 148 5 -62 4 93 5 1 4 70 5 -48 4 -178 
5 105 5 103 5 27 7 -37 5 82 5 -154 6 103 5 -329 
6 245 6 109 6 -97 6 -275 6 163 6 147 6 -59 7 -154 
6 172 7 -4 8 56 5 -209 7 -257 6 -123 6 -460 9 989 
4 220 11 -107 11 364 2368 2367 100 MP stroke
-1 -436 6 49 8 -336 6 83 8 -169 5 172 7 -79 7 110 
6 -51 8 6 5 172 7 4 6 -38 7 -96 8 123 6 27 
7 0 6 59 6 -179 6 -219 7 85 8 106 7 221 7 -156 
6 -345 6 222 7 110 6 -236 7 56 6 -54 7 120 6 194 
6 36 7 -233 6 -226 6 195 6 -14 6 -60 6 49 5 264 
7 200 4 -3 6 -196 6 -222 5 76 6 -24 4 405 7 -83 
5 91 5 95 13 168 4 -75 0 -357 7 -5 3 -184 5 -43 
6 -759 4 991 5 -302 5 280 4 40 4 -132 4 253 6 -569 
4 639 6 -248 9 634 0 -621 3 192 6 87 3 -657 5 420 
3 225 5 -506 5 452 3 -37 5 -68 2 -383 4 535 4 -196 
3 -240 5 311 1 175 5 -245 5 4 1 154 3 -74 2 174 
7 -302 8 339 2 -217 4 65 3 60 2 -127 3 11 3 -211 
3 275 2 41 3 -138 1859 2663 100 MP stroke
1 -465 2 268 2 11 2 171 2 -88 -1 136 2 42 1 -240 
-1 358 1 -53 1 -567 0 235 2 -478 1 641 -1 -148 0 289 
-5 293 3 -643 3 486 0 157 -6 -346 1 -376 3 729 -5 -406 
-1 -184 0 -171 -3 203 0 -200 -3 597 -1 -302 -2 -338 -2 337 
-1 -25 -2 -17 -3 -137 -2 -793 -3 727 -3 -149 -4 -6 -3 55 
-3 59 -4 44 -2 214 -4 -166 -3 -15 -5 333 -5 212 1 -223 
-1 187 -7 -56 -4 -46 -3 -422 -3 492 -4 -43 -4 -335 -3 306 
-8 175 -6 -206 2 -298 -3 678 -9 -1110 -7 799 -4 -421 -6 407 
-5 -129 -7 76 -5 95 -5 -214 -7 337 -2 -581 -3 712 -6 -24 
-5 49 -7 -592 -7 321 -3 -307 -4 232 -5 42 -4 -39 -4 4 
-5 100 -3 -350 -2 544 -5 -30 -5 31 -5 -169 -11 -250 -6 156 
1 246 -5 -77 -6 -42 -3 151 -9 -475 -5 187 0 145 -4 60 
-6 42 -5 -168 -5 109 2147 2303 100 MP stroke
-7 -411 -4 -85 -6 -18 -6 443 -6 52 -5 40 -5 -233 -3 270 
-6 -106 -5 -122 -5 156 -5 -289 -5 266 -4 -216 -6 24 -5 -44 
-4 254 -6 42 -4 -166 -6 27 -4 11 -4 40 -6 130 -4 -601 
-7 678 -4 -150 -7 85 -6 25 -3 -100 -13 42 -6 -246 0 -63 
-6 155 -5 146 -12 -270 -5 118 0 -179 -8 301 -4 44 -6 -49 
-7 1 -5 -629 -7 817 -5 -128 -5 31 -6 -379 -5 340 -6 -429 
-5 394 -7 -121 -5 63 -6 58 -7 -118 -6 260 -6 -99 -6 59 
-6 -46 -6 -76 -6 68 -5 -528 -4 673 -9 -187 -11 -103 -1 159 
-1 76 -9 -127 -1 174 -9 -168 -13 194 0 -92 -4 -180 -6 179 
-9 -72 -10 225 1 -180 -2 -212 -7 76 -6 -68 -7 -55 -6 41 
-6 -35 -5 -13 -13 -378 -6 225 2 214 -9 -366 -6 120 -5 156 
-11 411 -4 -124 -3 -263 -7 -427 -5 156 -5 108 -6 -23 -4 67 
-9 -181 -9 85 1 130 2701 2549 100 MP stroke
-6 15 -4 71 -11 -280 -15 610 6 -883 -2 272 -11 261 0 -414 
-3 148 -5 -31 -5 -8 -4 36 -4 -30 -5 -131 -3 157 -5 -47 
-4 -59 -4 -244 -4 162 -4 263 -5 110 -3 -163 -5 -66 -3 -129 
-6 366 -3 -182 1 235 -8 -220 -6 216 0 -346 -3 262 -7 -56 
-4 -8 1 98 -6 -576 -3 -1 -3 479 -10 103 -1 -379 -2 192 
-5 -38 -4 7 -8 259 -2 -202 0 221 -5 -410 -7 40 1 451 
-3 61 -8 -81 -1 -124 -1 307 -5 -279 -10 391 -7 112 0 -87 
-2 -282 -1 -63 0 48 -4 -112 -3 -42 -4 -130 -2 191 -5 -180 
-2 104 -3 -246 -6 270 0 -341 -4 56 -4 288 0 -432 -3 33 
-3 -225 -3 -108 -3 67 -4 231 -3 -204 -3 -293 -3 378 -3 321 
-4 -65 -2 185 -4 -246 -2 -170 -2 302 -7 198 0 -486 -3 314 
-3 129 0 75 -6 -254 0 -925 -3 673 -3 361 0 54 -5 -56 
0 -236 -4 170 -2 50 3053 2716 100 MP stroke
-1 -471 -4 283 1 120 -5 -38 -1 36 -1 17 -4 -273 1 330 
-5 -283 0 119 -2 -16 -4 391 3 -29 -2 -107 -2 93 0 -216 
-1 56 0 -158 -2 537 1 -470 0 274 0 -586 0 360 -1 -69 
1 444 -1 -51 -1 -573 0 761 -1 -673 -4 838 2 -345 -1 -145 
0 -246 1 370 -1 -234 1 506 -1 -187 -3 200 0 -186 1 -36 
-1 -375 1 -264 -1 589 0 203 0 -295 -1 77 1 -563 -1 73 
0 373 1 -642 -1 357 1 220 0 -37 0 193 1 -228 -1 -140 
1 52 0 231 -1 -126 -1 -325 0 -63 -3 755 2 -472 -1 217 
-1 -109 1 373 -3 -101 -2 167 0 -938 0 721 -2 -357 1 208 
-1 -159 -1 -22 0 222 -2 -171 1 16 -2 -487 0 564 -2 139 
0 -209 -1 -111 -1 203 0 -97 -2 299 1 -505 -1 305 0 87 
0 -12 -1 -284 -1 85 -1 -186 -1 417 0 -222 0 207 -1 -229 
0 77 -1 -183 0 445 3116 2410 100 MP stroke
0 -521 1 354 0 -250 1 -53 0 225 0 -75 1 -532 0 474 
1 -212 0 198 1 -151 1 8 0 -56 1 229 0 93 2 -256 
0 -64 0 200 1 -80 0 196 2 -84 0 154 1 17 0 -325 
2 240 0 -56 1 140 0 -84 1 -74 2 308 -2 -403 3 497 
-3 -688 -8 989 0 -3 0 33 5 -390 7 111 -2 -312 1 61 
0 41 1 11 -1 -241 0 108 0 -149 -1 -202 0 -34 0 187 
-1 -11 -1 136 0 -197 -1 -50 0 207 0 -285 -1 271 0 -167 
0 207 -1 116 0 53 -1 -42 -1 -635 0 388 -1 -140 -1 3 
-2 163 -1 112 -2 101 -1 -122 -1 -139 -1 19 -2 57 -2 -148 
-1 197 -2 -59 -2 -49 -1 201 -4 -188 2 338 -6 -275 -11 774 
8 -828 3 412 -6 -328 1 69 -3 -263 -2 -108 -1 216 -2 -649 
-1 643 -2 -3 -2 -10 -3 -165 -2 -25 -2 228 -3 72 -2 118 
-3 -60 -3 -175 -3 -47 3171 2898 100 MP stroke
-2 -133 -2 243 -4 -46 -3 227 -3 -171 -3 12 -1 -248 -3 -234 
-2 249 -4 66 -2 -38 -3 3 -4 87 -2 -96 -3 118 -4 -44 
-3 -34 -3 241 -3 51 -3 -81 -3 -110 -4 -113 -3 -249 -3 148 
-3 -68 -3 -848 -3 789 -3 257 -3 -825 -4 771 -3 113 -3 -147 
-3 -33 -4 -146 -3 124 -3 180 -4 143 -3 -46 -4 -273 -3 -26 
-4 37 -3 -394 -3 528 -4 59 -3 21 -4 235 -4 94 -2 -199 
-3 -318 -4 135 -3 40 -4 159 -4 147 -2 -64 -5 -359 -2 157 
-2 39 -4 96 -3 -18 -4 -293 -3 227 -3 68 -3 -143 -3 18 
-3 -92 -4 77 -3 15 -4 -50 -3 67 -4 83 -3 148 -4 -81 
-4 54 -3 42 -4 -30 -3 -76 -3 -117 -4 -737 -3 660 -4 107 
-3 68 -4 53 -3 58 -4 -24 -3 -44 -4 -110 -4 -145 -4 -135 
-4 10 -4 206 -3 -51 -4 -97 -3 288 -5 107 -4 -57 -4 -141 
-4 -49 -3 -342 -3 62 3498 3086 100 MP stroke
-4 3 -4 213 -5 -224 -4 -166 -4 -145 -4 197 -4 155 -4 24 
-5 -258 -5 520 -5 32 -5 -189 -5 -145 -5 183 -4 -280 -6 -58 
-6 243 -5 301 -6 -201 -5 -410 -5 186 -5 109 -5 115 -6 -77 
-6 -78 -6 473 -5 33 -6 -162 -6 14 -5 -177 -6 -54 -6 -109 
-6 60 -5 375 -6 -54 -5 -152 -6 -68 -7 -198 -5 77 -5 -138 
-6 -216 -5 143 -5 -10 -5 -152 -6 246 -5 -73 -5 32 -6 248 
-4 -231 -5 -106 -5 335 -6 -178 -5 -57 -5 358 -6 25 -5 -105 
-5 -235 -5 138 -5 71 -6 -358 -4 350 -6 -111 -5 -106 -4 222 
-5 107 -4 -159 -5 -43 -5 -66 -4 -225 -6 262 -2 438 -8 -225 
-8 330 1 -179 -4 -3 -6 -403 -3 -43 -6 418 -3 -69 -5 143 
-5 26 -3 -512 -6 79 -2 624 -8 -248 -9 -51 1 -38 -7 -30 
-5 136 1 51 -5 -783 -4 62 -4 264 -5 62 -4 -10 -6 -286 
-3 381 -5 -99 -5 86 3986 2889 100 MP stroke
-5 -30 -5 165 -4 -77 -6 -125 -5 194 -5 166 -5 12 -4 73 
-6 14 -4 -2 -5 -233 -6 -212 -4 324 -6 143 -4 81 -5 70 
-5 101 -4 -343 -5 -11 -4 13 -4 -67 -4 -27 -4 -129 -5 68 
-4 91 -4 16 -3 -562 -5 567 -4 167 -4 -18 -5 -36 -2 67 
-6 -440 -5 82 0 -115 -3 -48 -4 261 -2 59 -3 76 -3 -48 
-3 -30 -2 -81 -3 105 -2 -311 -4 134 -3 271 0 -474 -1 171 
-3 47 -1 141 -1 -67 -1 -21 -1 61 -1 91 -2 -54 0 89 
-1 -152 -1 68 0 148 0 -651 0 565 -1 -48 0 -372 0 288 
1 41 1 -154 0 4 1 28 2 295 0 -212 1 119 2 -432 
1 197 2 59 1 8 1 73 2 26 2 -156 2 -16 1 44 
2 -59 3 179 2 43 2 -92 3 -222 3 7 2 93 3 71 
3 131 2 -73 3 25 2 -115 4 21 3 45 3 -143 4 -20 
3 33 4 93 4 156 4113 2587 100 MP stroke
4 -85 5 -512 4 548 4 85 4 67 5 98 4 -4 4 -148 
5 -182 4 -29 5 178 5 31 4 -195 6 144 3 277 11 8 
8 174 -1 -304 6 83 5 -111 9 -90 8 431 -2 -311 7 -183 
6 58 5 247 8 -165 4 -100 7 165 6 57 5 -377 8 -42 
3 386 11 192 11 24 -1 -371 5 282 15 93 4 -24 1 -360 
8 97 6 295 6 -73 7 -230 5 -61 10 229 3 -391 0 433 
6 -80 6 33 9 -68 6 70 9 -362 15 429 0 -193 2 264 
16 -242 8 234 9 20 14 156 1 -229 -2 -111 7 -11 7 -155 
7 152 7 47 7 -44 7 -82 5 64 10 -22 12 325 6 -53 
7 -230 7 -25 7 33 5 -501 0 492 7 20 7 192 5 20 
8 -177 4 125 8 -294 11 326 7 -60 6 -433 6 130 5 164 
6 -128 5 175 5 25 6 70 3 -256 2 140 6 -82 5 -33 
4 1 6 -45 4 -271 3527 2733 100 MP stroke
5 34 4 133 5 -20 4 89 4 190 5 -281 4 -28 4 -63 
4 -144 4 420 4 8 4 -341 6 35 3 103 4 -306 4 50 
3 273 4 46 4 304 4 -174 8 38 4 -15 3 -89 3 125 
4 20 3 -674 4 513 3 40 3 -209 3 -145 3 26 3 303 
3 183 3 -107 4 11 2 -40 3 -75 3 -128 3 -213 4 88 
3 -232 3 308 3 75 4 -191 3 -311 2 -29 3 131 2 14 
3 563 3 158 1 -15 2 -42 2 39 1 -146 0 -412 1 298 
1 264 0 -21 1 -92 1 197 0 145 0 -154 -1 -590 0 440 
-1 89 0 -36 -2 -87 -1 -748 0 354 -2 295 -1 223 -1 -85 
-1 -650 -3 503 -2 16 -2 -49 -2 -288 -3 260 -3 82 -2 -90 
-4 107 -4 43 -3 -231 -3 121 -3 147 -4 31 -3 -194 -4 293 
-6 -18 -3 -285 -4 37 -5 -40 -4 150 -4 -152 -5 -86 -5 283 
-5 22 -4 -79 -5 -358 3441 2776 100 MP stroke
-5 232 -4 -445 -6 134 -7 129 -5 37 -4 -429 -5 519 -6 168 
-6 -216 -5 71 -6 52 -6 44 -4 -503 -6 594 -6 -221 -5 152 
-7 -19 -5 -10 -6 -163 -7 -123 -7 273 -6 121 -7 -366 -7 -242 
-8 102 -7 359 -8 50 -7 -25 -7 -3 -7 -64 -7 181 -7 -64 
-6 70 -8 -85 -9 -99 -7 89 -9 51 -8 -61 -7 -355 -7 120 
-9 60 -9 285 -9 81 -8 47 -9 -156 -8 -365 -10 144 -9 230 
-8 71 -11 -156 -9 -9 -8 -592 -10 309 -10 -505 -10 368 -11 107 
-10 268 -9 116 -11 98 -11 118 -10 -200 -9 232 -11 -179 -10 99 
-10 -342 -11 130 -9 -145 -11 80 -11 -310 -10 122 -11 -248 -12 314 
-11 100 -10 -61 -9 -126 -10 344 -11 -369 -12 192 -9 -204 -10 71 
-10 241 -9 282 -11 53 -9 -115 -10 -181 -11 -159 -9 314 -9 261 
-11 173 -9 59 -9 -16 -11 -440 -12 -52 -10 118 -10 184 -10 -69 
-8 -190 -8 95 -11 38 4281 2106 100 MP stroke
-11 -89 -8 -685 -9 407 -8 169 -9 249 -5 220 -15 43 -16 -7 
2 -115 -6 159 -10 102 -5 -17 -9 -178 -6 -682 -7 411 -7 205 
-7 106 -11 -997 -5 870 -6 107 -4 -314 -6 -117 -5 292 -3 154 
-8 -499 -3 -60 -4 306 -5 72 -3 105 -9 -44 -4 -239 0 506 
-2 -43 -3 -59 -7 -151 -2 -420 1 258 -3 210 -4 55 0 -533 
0 208 -4 182 -1 -337 0 241 -1 126 0 -626 2 464 0 163 
0 -326 3 -14 2 176 -1 -342 1 338 1 -9 4 -424 3 418 
0 149 6 -599 -1 416 -1 123 6 -849 1 480 0 477 5 -703 
13 753 2 -381 -4 -13 5 325 -5 -143 7 -494 7 341 -1 294 
5 -372 0 -104 9 154 4 -223 0 254 11 -207 -1 135 7 265 
6 -82 0 -952 4 610 3 193 11 101 1 -288 4 314 8 -56 
-1 -300 5 304 5 161 6 -410 2 -236 8 607 10 -360 -1 244 
9 -77 5 22 1 157 4343 2081 100 MP stroke
6 -43 5 -512 12 540 0 61 7 -609 9 556 -2 38 8 -531 
5 416 11 -63 9 13 -3 115 9 -156 4 -208 5 368 8 17 
3 -290 8 -47 5 442 6 -610 6 364 10 99 6 -419 -2 243 
10 252 4 -67 5 -216 8 -164 2 540 10 -765 3 545 6 -83 
15 60 2 208 2 -320 8 -252 5 432 6 -115 7 -316 5 305 
5 257 6 -271 4 -32 6 -64 6 -181 8 418 7 -187 4 -222 
8 299 8 183 6 -342 6 -70 6 264 7 -643 6 501 7 177 
6 -753 7 606 8 60 10 -16 5 192 7 -194 15 -214 3 -51 
1 393 11 -275 4 -6 8 168 9 -122 6 -128 8 333 6 -39 
9 -347 6 196 7 57 9 -217 6 310 9 -66 7 -514 7 539 
8 -33 6 -430 10 295 7 137 8 -431 10 446 7 -154 8 -245 
7 311 7 73 8 -322 7 90 7 331 7 -258 9 141 6 -358 
8 282 7 -175 8 -129 3691 2683 100 MP stroke
8 344 7 -269 9 1 7 232 8 -106 7 -251 7 345 9 -337 
6 209 10 34 9 -61 9 195 9 -251 7 20 10 13 6 171 
9 -303 9 121 7 126 11 -386 7 354 10 -26 7 74 7 -219 
21 485 7 -128 0 -25 9 -639 7 446 9 133 9 -239 8 244 
8 111 8 -468 7 143 9 212 8 -482 6 156 10 46 8 285 
9 -20 8 14 4 101 18 29 10 67 -1 -724 7 556 8 -635 
6 262 7 165 8 67 6 34 9 -36 16 317 4 -138 1 30 
13 -89 5 -182 6 -59 8 -18 5 20 8 -81 5 88 9 121 
8 -125 7 122 6 -710 5 745 7 -155 5 210 8 -4 16 257 
2 -226 1 18 9 -23 4 -109 6 -58 6 -239 6 201 5 212 
4 72 6 -416 8 239 6 9 4 -278 5 -49 5 29 4 -111 
6 511 3 -108 5 -606 5 590 4 185 6 -440 3 -304 5 96 
5 398 3 64 5 -532 2990 3019 100 MP stroke
3 557 3 179 6 -300 7 -217 5 -31 3 87 6 -42 3 122 
4 -166 7 215 1 -78 5 82 4 392 6 -20 10 92 -1 -499 
7 308 8 261 -2 -347 5 -52 4 -366 2 631 5 54 6 -339 
4 -651 5 254 4 258 4 -3 3 -84 2 353 2 -230 5 105 
4 259 3 -108 3 -146 4 42 2 104 2 29 3 -25 1 -30 
3 -194 4 21 2 35 4 58 3 -323 3 -320 2 488 4 114 
4 299 0 -439 2 105 4 -375 2 376 4 40 1 -14 4 -507 
2 339 1 96 2 -165 1 138 2 -308 3 149 2 -217 2 224 
2 160 1 -113 1 130 1 -223 1 284 2 17 0 6 1 -251 
1 -88 1 -261 1 188 0 -137 0 428 1 -186 0 353 -1 -25 
1 229 0 -728 0 678 -1 -435 -1 417 0 -354 -1 0 -1 -133 
0 104 -1 -559 -1 481 -2 63 -1 -37 -2 71 -1 -17 -1 -90 
-1 -158 -1 -346 -2 299 2775 2982 100 MP stroke
-1 325 -2 -121 0 -506 -1 113 -2 -203 -1 140 -2 -10 0 320 
-2 -264 -1 -41 -2 263 -1 -50 -2 221 -1 -132 -2 -115 0 191 
-2 -301 -2 104 -2 135 -1 149 -2 -88 -2 67 -1 85 -2 -32 
-2 60 -1 144 -3 -97 -5 232 -1 28 -2 -109 -3 173 1 -461 
0 200 -2 -2 -2 77 -5 -575 -3 238 0 -397 -3 607 -1 -2 
-2 10 -2 68 1 128 0 194 -4 -203 -2 114 -4 -65 -6 -375 
-4 199 -3 -49 -3 71 -3 -12 -4 -94 -4 -21 -4 38 -4 -54 
-4 -43 -4 -202 -4 -81 -5 2 -3 99 -5 124 -5 142 -5 -36 
-5 -49 1 393 -2 129 -9 -599 -5 376 1 -53 -6 -133 -9 80 
-5 -40 -5 110 -5 126 -5 -108 2 53 -3 108 -12 -202 -2 -437 
-1 576 -6 -153 -12 124 -6 58 2 -202 -10 -147 -5 -12 -2 341 
-12 -181 -5 -72 -9 284 -6 69 2 -317 -8 -132 -4 -16 -6 -53 
-6 138 -3 146 -6 -160 3096 2617 100 MP stroke
-4 32 -6 -232 -5 -100 -4 2 -7 143 -4 -366 -4 284 -5 78 
-11 490 -4 -81 2 -142 -12 97 0 -166 0 371 -19 -153 -4 -10 
3 -122 -2 280 -8 -33 -12 -311 -6 86 -4 -85 -6 119 -4 -181 
-6 52 -4 -25 3 278 -2 227 -12 -652 -9 329 -3 -70 -6 56 
-3 -106 1 356 -6 -164 -16 45 -6 -26 0 -643 -10 720 -2 -107 
-3 -186 -4 94 2 419 -15 -503 -8 -237 0 390 -14 -36 -2 -192 
-2 -470 -6 35 -4 180 -12 572 -2 -123 -2 -223 -5 47 -5 119 
-6 117 4 -50 -6 -50 -10 -220 2 290 -5 -35 -6 -73 -5 25 
-5 37 -5 -67 -4 55 -7 -85 -20 446 -5 38 4 -367 -4 -88 
1 -67 -6 -142 -5 -106 -3 290 -7 -273 -2 262 -8 -162 -9 308 
0 -404 -2 186 -10 113 -5 35 1 -277 -5 -63 -3 361 -4 111 
-4 -3 -8 -392 -13 566 8 -363 -2 146 -14 -26 3 -374 -7 -73 
-6 155 0 114 -9 -63 3582 2629 100 MP stroke
0 59 -5 48 -7 97 1 -143 -5 -36 -4 37 -8 -4 -9 216 
7 89 -7 -360 -13 496 6 -560 -8 37 -14 600 6 -480 4 173 
-4 -40 -7 -117 -2 -228 0 212 -5 4 -2 -278 -3 160 -4 -118 
-2 191 -6 -10 -3 115 0 -67 -3 -246 -6 236 -2 -135 0 126 
-5 94 -2 -184 -2 -105 -4 155 -1 38 -6 64 -4 -56 1 105 
-4 -242 -6 168 0 -21 -4 14 -4 -205 0 138 -10 271 -1 -121 
4 -51 -8 -26 0 -130 -2 -554 -5 481 1 -63 -5 88 -1 86 
-1 180 -5 -473 0 348 -2 -52 -5 -320 -2 -98 0 324 -3 -354 
-4 536 0 -212 -3 109 -3 146 1 17 -4 -211 -3 73 1 -491 
-4 395 0 40 -2 89 -2 -81 0 165 -3 -185 0 75 -2 -587 
-3 757 1 -251 0 37 -1 -100 0 -493 -2 582 1 32 -1 143 
0 -570 2 651 -1 -27 0 -65 1 30 0 -168 1 -17 0 -148 
0 14 2 177 -1 245 3802 2349 100 MP stroke
2 -95 1 -72 0 -92 0 156 2 -246 1 -204 -2 366 2 37 
3 210 -1 -179 1 -161 -1 -131 2 -42 2 333 -1 -752 0 534 
1 -21 0 -2 1 79 2 99 0 30 1 -160 1 -192 0 313 
2 15 1 -58 0 -150 2 191 0 -9 1 -113 1 -105 0 58 
2 -386 0 538 2 -55 2 26 -1 -28 1 252 1 -22 4 -59 
1 69 -1 -473 1 162 0 229 5 -128 0 -256 -2 500 6 -59 
4 267 -1 -145 0 -182 3 -271 3 -352 -1 715 4 -95 3 -22 
0 103 4 -247 2 -101 0 -102 4 226 0 -154 1 81 4 -290 
0 562 5 -322 2 64 0 -14 5 -36 1 41 2 126 4 246 
-1 -205 4 -87 6 211 -1 -600 5 451 4 41 1 -334 7 109 
0 265 2 176 5 -57 5 -131 6 -71 0 140 7 -157 3 -111 
-1 242 7 -553 3 89 9 512 2 -276 -2 173 13 175 1 -202 
3 -282 9 300 -1 -546 3612 3032 100 MP stroke
4 27 4 315 5 21 3 -182 5 -106 10 579 1 -452 1 446 
8 -145 7 -191 0 254 7 -229 4 -21 -2 427 10 -884 0 639 
6 -454 10 615 -2 -306 9 141 2 -259 2 -83 8 553 -1 -333 
9 88 1 -201 5 234 8 -366 -1 319 10 -145 1 111 6 -139 
13 514 -5 -476 1 191 10 -247 2 17 0 382 10 -175 6 75 
0 -482 9 508 1 -609 6 -414 7 875 -1 72 6 -52 5 119 
10 -87 4 -78 2 67 11 9 -2 -70 11 -136 5 30 1 50 
15 361 -7 -151 9 -367 14 493 -5 -217 13 27 4 -217 2 57 
6 46 5 142 14 14 1 -198 8 -232 18 751 -3 -471 -2 96 
14 -36 4 -474 2 626 15 -250 -3 315 4 44 17 -173 0 -280 
5 208 5 199 7 -73 15 -35 -2 -562 10 465 7 192 0 -257 
7 -90 4 -22 13 303 3 -271 4 -289 11 597 -1 -1095 5 571 
6 -353 5 110 5 276 3106 2896 100 MP stroke
7 -48 5 147 4 185 13 132 2 -347 5 -35 9 199 0 61 
4 9 5 80 10 -352 6 -125 1 306 10 5 0 27 7 -161 
5 16 1 50 10 175 -1 -115 8 -3 3 -376 5 -107 15 1043 
-6 -826 2 368 6 -302 1 251 9 -217 1 132 8 -337 4 204 
4 264 7 -296 1 254 7 -308 3 0 5 -84 5 149 2 -190 
6 254 2 -217 6 411 3 24 3 29 5 4 3 -91 2 9 
-2 504 11 -575 9 400 -1 -224 4 -20 2 -70 6 -98 3 -42 
3 -99 6 -11 1 228 8 -39 1 167 6 -87 9 246 -3 -193 
9 -34 2 -180 2 174 7 -108 -1 208 8 -511 1 484 4 -25 
5 -239 0 408 19 238 7 93 -5 -400 3 10 -2 -420 1 365 
3 90 7 -247 4 -118 1 364 8 -561 -1 456 2 107 7 -593 
0 548 7 -369 4 131 0 91 11 243 4 15 -4 -244 6 -168 
8 505 -1 -306 -1 -77 2695 2628 100 MP stroke
6 -94 4 -152 -1 327 6 -205 5 183 0 8 3 43 3 -92 
3 47 3 -38 4 -277 8 218 1 -206 4 -52 8 559 -3 -245 
5 24 8 93 -1 -203 7 -27 10 463 -4 -777 2 505 13 148 
4 -33 -4 -124 4 -41 3 203 4 155 10 -389 3 141 -2 381 
16 -801 23 948 -3 -189 -1 -346 4 -62 -7 352 13 -455 19 512 
-2 -362 0 -443 1 501 0 233 10 -449 15 389 -2 -497 -2 421 
12 -990 1 781 5 -54 9 -429 -1 557 16 66 7 100 -8 -73 
11 -877 16 1022 -2 -528 -2 351 12 -515 3 238 5 197 20 290 
-3 -479 -3 229 15 -121 1 -287 5 299 11 -318 -1 437 4 63 
14 -386 1 53 6 38 17 501 -2 -527 -3 287 14 -117 0 -496 
6 68 9 555 -1 -327 12 406 4 -113 0 -581 8 65 1 828 
7 -108 7 -335 1 311 12 -242 3 -72 6 57 10 100 -1 -133 
11 249 8 171 -2 -487 2214 2609 100 MP stroke
9 225 4 -54 3 -366 5 427 6 74 5 29 6 -66 7 -385 
5 110 5 -501 6 386 5 113 6 -44 5 -58 6 -229 5 -397 
6 127 5 717 7 -128 12 432 1 -523 1 260 8 104 3 -102 
7 -423 4 305 5 173 6 -108 4 29 6 -207 4 -215 5 -96 
5 58 3 157 6 -53 3 220 6 -356 9 860 0 -267 3 -386 
5 423 2 -713 5 372 5 53 3 225 4 47 4 -530 3 106 
4 -6 3 206 2 -421 4 382 3 -361 3 269 3 -13 2 -190 
2 -42 2 27 1 245 2 -282 1 227 1 297 1 -60 2 -31 
0 52 1 -552 1 664 1 -235 1 -50 0 556 0 -1107 0 476 
1 -229 0 477 -1 -563 -1 301 -2 -435 -1 158 -1 448 0 -202 
-1 9 -2 -196 -2 171 -2 -18 -1 -40 -2 84 -4 -332 -2 222 
-3 44 -3 106 -4 -112 -4 241 -4 72 -3 -166 -3 -183 -4 148 
-4 -206 -3 -121 -4 197 1996 2858 100 MP stroke
-5 -299 -4 374 -4 252 -4 9 -4 -282 -4 8 -4 245 -5 71 
-4 -77 -6 -288 -6 72 -5 264 -5 -50 -5 -176 -6 -283 -6 -38 
-7 361 -5 -132 -5 -89 -8 -65 -7 248 -4 73 -8 51 -7 -24 
-7 -114 -7 5 -6 246 -8 -32 -7 -260 -8 -443 -8 535 -7 -64 
-7 174 -9 2 -8 -341 -8 -72 -7 383 -8 -40 -7 -138 -7 14 
-8 -221 -9 337 -8 -91 -7 102 -8 -68 -8 -232 -10 389 -8 -167 
-7 110 -9 -23 -8 -230 -8 295 -9 117 -8 72 -9 -27 -9 -541 
-8 485 -9 166 -9 15 -9 -216 -8 -423 -8 449 -10 55 -9 -29 
-8 -333 -9 46 -8 135 -9 -338 -9 -30 -9 -63 -9 -112 -11 499 
-8 95 -9 -191 -11 130 -8 -21 -11 179 -10 -67 -10 -347 -11 254 
-9 -11 -11 -204 -9 139 -8 -181 -10 268 -10 -392 -9 456 -10 203 
-8 -260 -10 -66 -11 -152 -9 -263 -12 504 -11 381 -8 43 -10 -136 
-9 -513 -9 677 -10 239 2779 1886 100 MP stroke
-9 -246 -10 155 -10 -6 -11 -129 -9 89 -8 -21 -9 -256 -10 -330 
-10 -146 -9 414 -12 261 -11 157 -9 -579 -9 -50 -9 317 -11 223 
-9 90 -9 -43 -9 -291 -10 -161 -12 260 -9 16 -11 -71 -10 -105 
-8 -83 -10 -228 -9 -226 -10 -148 -9 93 -10 76 -11 196 -8 -62 
-10 25 -8 73 -10 78 -10 -208 -6 351 -19 -108 -12 155 2 -217 
-11 -222 -12 166 -8 -46 -10 73 -8 -754 -9 381 -9 73 -8 -53 
-9 2 -9 73 -9 58 -8 -200 -8 -210 -9 39 -8 219 -8 101 
-7 -63 -8 56 -8 -146 -7 55 -7 46 -8 61 -7 82 -7 98 
-7 -1 -6 106 -6 19 -7 12 -6 -107 -6 -516 -7 150 -6 160 
-7 170 -6 271 -5 147 -6 169 -6 -268 -6 -220 -6 -52 -6 -300 
-5 88 -5 180 -5 72 -5 -13 -6 -74 -3 221 -7 -360 -8 -145 
1 606 -14 -10 -6 185 7 -376 -8 -125 -1 135 -5 -158 -11 326 
1 -378 -7 60 -4 -309 3554 3017 100 MP stroke
-1 306 -8 148 0 26 -5 -67 -2 -315 -1 279 -5 128 0 -150 
-5 32 -3 -76 1 381 -6 -343 -2 -117 0 249 -2 -5 -4 78 
-3 162 1 -283 0 225 -1 8 -2 -360 -1 223 1 87 -1 -689 
0 467 -3 312 0 -444 0 401 1 -24 2 294 1 -55 -1 -407 
1 95 -1 -508 0 631 2 -406 0 218 1 -102 1 -143 0 257 
2 -172 1 -31 0 48 3 -182 -1 172 0 -88 3 96 0 -139 
3 -71 1 45 0 -6 4 255 0 -363 2 240 3 139 0 -6 
2 31 2 36 1 -51 1 -293 3 -27 1 -234 0 425 4 62 
0 168 1 150 2 115 4 -51 3 -43 -1 -245 5 277 2 3 
-2 -147 4 -159 1 -188 1 90 5 340 -1 -191 3 -288 1 90 
0 309 4 -159 0 197 0 -193 2 247 1 -120 0 -439 3 272 
0 196 0 -436 0 124 -1 223 0 -241 0 367 -1 -217 -1 -467 
0 606 -1 -683 -1 712 3531 2399 100 MP stroke
-1 -182 -1 -336 0 495 -1 -300 -1 -420 -1 677 -1 -56 -1 -145 
0 247 -1 -286 0 -467 -1 685 0 185 0 -345 1 -492 -1 523 
1 46 1 61 1 -239 1 -119 1 491 2 312 1 8 1 -22 
1 -114 1 -235 1 -618 1 757 1 -78 1 -79 0 -49 2 -63 
0 210 1 160 1 -52 0 -34 2 -19 0 -148 1 -307 1 -58 
2 433 1 246 1 -57 2 -128 1 8 1 -28 2 -637 2 534 
2 -467 2 251 2 -55 2 437 2 -148 2 -345 2 219 3 251 
2 -110 3 -511 3 488 2 218 4 -142 0 -929 2 699 3 339 
-1 -307 4 93 1 -348 1 44 2 316 -1 109 2 -359 1 -8 
1 162 1 190 0 -221 2 -107 1 114 2 -5 2 94 0 89 
2 -186 0 -612 1 346 1 214 -1 210 0 117 1 -379 0 300 
0 -505 0 186 2 221 0 203 0 -513 1 87 0 523 0 -572 
0 378 -1 71 0 -423 3445 2717 100 MP stroke
-1 -134 -1 -146 0 611 -1 238 0 -133 -2 -318 -1 261 0 25 
-1 -75 0 -484 0 474 -1 124 0 5 1 -60 -1 11 1 -4 
0 -228 1 -393 0 309 1 250 1 70 0 -227 1 -247 1 -87 
1 174 1 49 2 238 1 135 1 55 1 -154 1 -407 1 121 
0 348 1 -14 2 -7 2 83 0 -174 1 -111 1 118 0 -535 
1 148 0 547 0 -108 1 -329 0 -136 1 459 1 -421 0 154 
0 -583 1 769 1 -79 0 -249 1 -161 1 218 1 346 1 245 
1 -39 1 -143 1 -384 0 240 1 -113 1 -9 1 -95 -1 -138 
-1 22 1 161 1 1 0 -94 1 -377 0 43 1 365 0 155 
2 6 2 -58 0 -410 2 598 1 245 1 -87 2 -310 1 -194 
2 -752 3 828 2 323 2 -127 1 -352 4 197 2 130 3 156 
4 -80 2 -287 5 -122 1 -65 6 26 8 490 0 -105 3 41 
4 -335 3 192 5 13 3342 2580 100 MP stroke
5 88 4 5 5 105 5 64 5 -395 5 238 6 25 5 -68 
7 -32 6 -230 6 -176 6 -48 6 -31 6 464 7 133 8 78 
8 -349 8 93 8 -1 8 -22 8 -171 9 -162 8 180 9 153 
9 -11 8 -229 10 16 9 278 8 303 9 -40 9 -161 10 -398 
9 149 10 262 9 259 10 -34 10 -279 9 -210 10 54 11 78 
9 -177 11 -525 10 507 9 426 22 40 11 56 -3 -198 16 -126 
10 -316 7 465 24 223 7 -178 1 -106 13 -117 9 -52 10 -609 
11 -276 10 1182 11 -140 10 -142 10 -276 11 480 9 151 10 -86 
10 -479 10 -119 10 420 11 145 10 -284 10 100 9 152 10 195 
10 -199 9 -336 9 550 9 -483 9 203 9 -310 9 220 9 133 
9 44 9 -40 10 -509 8 399 9 9 9 -177 8 -325 11 206 
10 26 8 -27 10 71 8 -120 9 -1 10 287 7 -69 9 -162 
9 -262 8 -74 9 198 2463 3014 100 MP stroke
8 30 9 141 7 125 8 61 8 27 8 -91 10 -73 7 -120 
9 -318 8 350 7 141 10 -91 5 332 13 -99 10 292 0 -450 
7 79 7 55 12 141 10 228 -2 -483 8 -136 6 15 5 268 
8 -114 5 -172 6 -114 6 -456 6 559 6 51 6 134 7 -209 
5 -340 6 -14 5 295 6 -256 8 320 5 61 6 1 6 -99 
6 -43 6 164 6 -125 6 128 5 -116 7 -17 5 87 5 130 
6 -113 4 -43 6 38 6 -79 5 -5 4 278 5 18 3 127 
4 -253 5 -128 3 52 7 571 3 -74 0 -217 3 -226 3 -33 
3 -43 4 59 3 -193 3 147 2 -307 3 180 3 218 2 16 
4 -52 3 204 1 -100 3 -133 3 -8 4 -1255 2 1091 3 343 
3 -13 3 -19 2 0 2 161 2 49 2 151 3 -68 2 -440 
1 222 2 63 1 -66 2 -16 2 101 2 -152 1 -91 0 -26 
2 127 1 -256 1 41 1993 2887 100 MP stroke
2 -101 0 414 1 -84 1 -274 1 386 1 -158 1 130 0 34 
1 -388 2 444 2 32 0 14 1 -97 1 -215 1 172 1 136 
0 8 1 -240 0 196 0 -118 -1 -221 -1 33 0 258 -1 -452 
-2 457 -1 101 -2 -292 -1 -320 -1 269 -2 -483 -1 303 -2 209 
-1 -79 -1 36 -1 -39 -2 206 -1 -438 -2 188 -2 92 -1 -241 
-1 153 -2 4 -2 -181 -2 212 -2 35 -2 110 -2 -68 -3 158 
-2 112 -2 -74 -3 -502 -2 413 -3 -31 -3 -329 -3 404 -3 -195 
-2 10 -3 65 -3 -377 -4 208 -3 -273 -3 370 -3 191 -3 -331 
-3 82 -2 -5 -2 -97 -3 -123 -2 122 -3 193 -3 -45 -2 55 
-3 -87 -2 -54 -2 65 -2 70 -3 8 -3 -448 -2 212 -4 -256 
-2 503 -3 108 -3 -23 -3 10 -2 -171 -3 -157 -3 -1 -3 204 
-4 25 -2 -329 -3 485 -2 -109 -3 -285 -3 189 -2 24 -3 260 
-3 -81 -3 100 -3 87 2157 2394 100 MP stroke
-4 -395 -5 631 -1 -759 -1 404 -5 -387 -2 -149 -3 51 -3 312 
-3 -240 -4 263 -2 -31 -3 -82 -4 -67 -3 -85 -4 137 -4 103 
-4 86 -4 -102 -3 -5 -4 -147 -5 280 -3 -138 -3 13 -4 152 
-3 128 -4 -281 -4 -93 -4 -609 -2 1119 -4 -477 -3 219 -3 -227 
-7 525 -2 -447 -1 206 -5 -234 -2 184 -4 -147 -4 -370 -4 20 
-4 85 -3 -81 -5 288 -5 110 -5 29 -5 -118 -4 -361 -5 10 
-5 100 -4 -105 -5 -51 -4 194 -5 -88 -4 -116 -4 -61 -4 212 
-4 -49 -3 180 -3 -211 -4 266 -3 36 -3 -33 -4 86 -4 -131 
-1 372 -7 -349 -5 471 0 -423 -4 78 -3 183 -4 -300 -6 537 
-2 -185 -5 38 -5 -7 -4 -12 -2 -387 -2 552 -5 -144 -3 78 
-9 -164 -3 -148 0 499 -9 -1076 -6 814 -5 -20 -5 -7 -5 -120 
-7 311 -1 -467 -3 134 -5 51 -4 107 -9 -321 -4 102 0 353 
-7 -100 -4 15 -8 -192 2545 2569 100 MP stroke
-13 459 -2 -118 -2 -287 -7 103 -4 -39 -2 -14 -4 165 -8 -211 
-1 261 -9 -267 -10 -77 1 223 -11 -236 -4 107 -2 27 -11 174 
-6 -43 -13 181 -3 24 -2 -319 -9 -359 2 427 -15 -342 -2 -43 
2 510 -20 -245 0 -122 -5 -57 -12 162 1 -146 -12 101 -5 -114 
-2 -131 -14 277 2 4 -4 146 -17 -270 1 -249 -7 50 -9 118 
0 195 -12 -314 -3 10 -5 -105 -9 354 1 -121 -19 471 -3 -91 
8 -124 -15 -91 -1 -319 -4 135 -9 -154 1 390 -9 -387 -2 48 
-4 -32 -7 -96 0 379 -8 -161 -3 146 2 50 -5 -108 -4 38 
-9 86 -1 -99 4 356 -10 -572 -5 529 -1 -159 -7 216 0 -54 
-1 -810 -1 553 -2 140 -7 -262 1 160 -9 -4 -5 201 6 -131 
-6 -677 -3 426 0 73 -3 -4 -3 -33 -4 -245 -1 267 -3 142 
-3 -111 -5 -36 -3 -87 3 416 -9 -394 -3 -28 -1 64 -6 185 
0 -237 -4 -1 -4 128 2998 2628 100 MP stroke
0 233 -3 -59 -6 -176 -1 -527 0 630 -6 -198 -5 302 1 -326 
-3 80 -6 68 -3 16 1 150 -5 -385 -4 401 1 -245 -4 -194 
-2 120 0 360 -4 -479 -4 412 0 -557 0 539 -7 -76 -4 47 
1 -246 -4 -80 -4 -34 -3 79 -4 -298 -4 -10 -4 57 -4 138 
-5 -11 -4 -73 -4 156 -5 163 -5 242 -3 16 -4 -69 -4 39 
-4 -212 -5 -144 -4 -194 -5 148 -5 430 -4 132 -5 -74 -5 -392 
-4 488 -4 -232 -4 303 -4 -281 -6 -30 -3 478 -7 26 -9 -12 
0 -190 -7 -135 -10 79 -4 -145 -6 83 0 277 -4 3 -8 28 
-4 -378 -7 181 -5 -396 -6 43 -6 90 -4 109 -7 -31 -5 2 
-6 200 -7 147 -6 -98 -6 -437 -5 304 -8 189 -6 33 -7 -215 
-7 189 -6 -760 -9 524 -5 -23 -8 -115 -7 -153 -6 255 -7 -151 
-6 -39 -7 74 -6 -88 -6 -398 -8 101 -6 114 -7 214 -7 322 
-8 -48 -6 204 -7 82 3463 1942 100 MP stroke
-8 50 -7 49 -9 64 3487 1779 4 MP stroke
gr

c8
0 sg
%%IncludeResource: font Helvetica
/Helvetica /WindowsLatin1Encoding 120 FMSR

1643  294 mt 
(Experiment 2a - Analog magnetometers - Standard deviation o\
f position) s
2502 4902 mt 
(Distance to center of sensor network [m]) s
 558 3028 mt  -90 rotate
(sqrt\(Variance\) [mm]) s
90 rotate

end %%Color Dict

eplot
%%EndObject

epage
end

showpage

%%Trailer
%%EOF
