%!PS-Adobe-2.0 EPSF-1.2
%%Creator: MATLAB, The MathWorks, Inc. Version 7.13.0.564 (R2011b). Operating System: Microsoft Windows 7.
%%Title: ..\figures\analog_ort_ori_bias.eps
%%CreationDate: 11/13/2012  17:43:17
%%DocumentNeededFonts: Helvetica
%%DocumentProcessColors: Cyan Magenta Yellow Black
%%Extensions: CMYK
%%Pages: 1
%%BoundingBox:    52   199   549   602
%%EndComments

%%BeginProlog
% MathWorks dictionary
/MathWorks 160 dict begin
% definition operators
/bdef {bind def} bind def
/ldef {load def} bind def
/xdef {exch def} bdef
/xstore {exch store} bdef
% operator abbreviations
/c  /clip ldef
/cc /concat ldef
/cp /closepath ldef
/gr /grestore ldef
/gs /gsave ldef
/mt /moveto ldef
/np /newpath ldef
/cm /currentmatrix ldef
/sm /setmatrix ldef
/rm /rmoveto ldef
/rl /rlineto ldef
/s {show newpath} bdef
/sc {setcmykcolor} bdef
/sr /setrgbcolor ldef
/sg /setgray ldef
/w /setlinewidth ldef
/j /setlinejoin ldef
/cap /setlinecap ldef
/rc {rectclip} bdef
/rf {rectfill} bdef
% page state control
/pgsv () def
/bpage {/pgsv save def} bdef
/epage {pgsv restore} bdef
/bplot /gsave ldef
/eplot {stroke grestore} bdef
% orientation switch
/portraitMode 0 def /landscapeMode 1 def /rotateMode 2 def
% coordinate system mappings
/dpi2point 0 def
% font control
/FontSize 0 def
/FMS {/FontSize xstore findfont [FontSize 0 0 FontSize neg 0 0]
  makefont setfont} bdef
/ISOLatin1Encoding where {pop /WindowsLatin1Encoding 256 array bdef
ISOLatin1Encoding WindowsLatin1Encoding copy pop
/.notdef/.notdef/quotesinglbase/florin/quotedblbase/ellipsis/dagger
/daggerdbl/circumflex/perthousand/Scaron/guilsinglleft/OE/.notdef/.notdef
/.notdef/.notdef/quoteleft/quoteright/quotedblleft/quotedblright/bullet
/endash/emdash/tilde/trademark/scaron/guilsinglright/oe/.notdef/.notdef
/Ydieresis WindowsLatin1Encoding 128 32 getinterval astore pop}
{/WindowsLatin1Encoding StandardEncoding bdef} ifelse
/reencode {exch dup where {pop load} {pop StandardEncoding} ifelse
  exch dup 3 1 roll findfont dup length dict begin
  { 1 index /FID ne {def}{pop pop} ifelse } forall
  /Encoding exch def currentdict end definefont pop} bdef
/isroman {findfont /CharStrings get /Agrave known} bdef
/FMSR {3 1 roll 1 index dup isroman {reencode} {pop pop} ifelse
  exch FMS} bdef
/csm {1 dpi2point div -1 dpi2point div scale neg translate
 dup landscapeMode eq {pop -90 rotate}
  {rotateMode eq {90 rotate} if} ifelse} bdef
% line types: solid, dotted, dashed, dotdash
/SO { [] 0 setdash } bdef
/DO { [.5 dpi2point mul 4 dpi2point mul] 0 setdash } bdef
/DA { [6 dpi2point mul] 0 setdash } bdef
/DD { [.5 dpi2point mul 4 dpi2point mul 6 dpi2point mul 4
  dpi2point mul] 0 setdash } bdef
% macros for lines and objects
/L {lineto stroke} bdef
/MP {3 1 roll moveto 1 sub {rlineto} repeat} bdef
/AP {{rlineto} repeat} bdef
/PDlw -1 def
/W {/PDlw currentlinewidth def setlinewidth} def
/PP {closepath eofill} bdef
/DP {closepath stroke} bdef
/MR {4 -2 roll moveto dup  0 exch rlineto exch 0 rlineto
  neg 0 exch rlineto closepath} bdef
/FR {MR stroke} bdef
/PR {MR fill} bdef
/L1i {{currentfile picstr readhexstring pop} image} bdef
/tMatrix matrix def
/MakeOval {newpath tMatrix currentmatrix pop translate scale
0 0 1 0 360 arc tMatrix setmatrix} bdef
/FO {MakeOval stroke} bdef
/PO {MakeOval fill} bdef
/PD {currentlinewidth 2 div 0 360 arc fill
   PDlw -1 eq not {PDlw w /PDlw -1 def} if} def
/FA {newpath tMatrix currentmatrix pop translate scale
  0 0 1 5 -2 roll arc tMatrix setmatrix stroke} bdef
/PA {newpath tMatrix currentmatrix pop	translate 0 0 moveto scale
  0 0 1 5 -2 roll arc closepath tMatrix setmatrix fill} bdef
/FAn {newpath tMatrix currentmatrix pop translate scale
  0 0 1 5 -2 roll arcn tMatrix setmatrix stroke} bdef
/PAn {newpath tMatrix currentmatrix pop translate 0 0 moveto scale
  0 0 1 5 -2 roll arcn closepath tMatrix setmatrix fill} bdef
/vradius 0 def /hradius 0 def /lry 0 def
/lrx 0 def /uly 0 def /ulx 0 def /rad 0 def
/MRR {/vradius xdef /hradius xdef /lry xdef /lrx xdef /uly xdef
  /ulx xdef newpath tMatrix currentmatrix pop ulx hradius add uly
  vradius add translate hradius vradius scale 0 0 1 180 270 arc 
  tMatrix setmatrix lrx hradius sub uly vradius add translate
  hradius vradius scale 0 0 1 270 360 arc tMatrix setmatrix
  lrx hradius sub lry vradius sub translate hradius vradius scale
  0 0 1 0 90 arc tMatrix setmatrix ulx hradius add lry vradius sub
  translate hradius vradius scale 0 0 1 90 180 arc tMatrix setmatrix
  closepath} bdef
/FRR {MRR stroke } bdef
/PRR {MRR fill } bdef
/MlrRR {/lry xdef /lrx xdef /uly xdef /ulx xdef /rad lry uly sub 2 div def
  newpath tMatrix currentmatrix pop ulx rad add uly rad add translate
  rad rad scale 0 0 1 90 270 arc tMatrix setmatrix lrx rad sub lry rad
  sub translate rad rad scale 0 0 1 270 90 arc tMatrix setmatrix
  closepath} bdef
/FlrRR {MlrRR stroke } bdef
/PlrRR {MlrRR fill } bdef
/MtbRR {/lry xdef /lrx xdef /uly xdef /ulx xdef /rad lrx ulx sub 2 div def
  newpath tMatrix currentmatrix pop ulx rad add uly rad add translate
  rad rad scale 0 0 1 180 360 arc tMatrix setmatrix lrx rad sub lry rad
  sub translate rad rad scale 0 0 1 0 180 arc tMatrix setmatrix
  closepath} bdef
/FtbRR {MtbRR stroke } bdef
/PtbRR {MtbRR fill } bdef
/stri 6 array def /dtri 6 array def
/smat 6 array def /dmat 6 array def
/tmat1 6 array def /tmat2 6 array def /dif 3 array def
/asub {/ind2 exch def /ind1 exch def dup dup
  ind1 get exch ind2 get sub exch } bdef
/tri_to_matrix {
  2 0 asub 3 1 asub 4 0 asub 5 1 asub
  dup 0 get exch 1 get 7 -1 roll astore } bdef
/compute_transform {
  dmat dtri tri_to_matrix tmat1 invertmatrix 
  smat stri tri_to_matrix tmat2 concatmatrix } bdef
/ds {stri astore pop} bdef
/dt {dtri astore pop} bdef
/db {2 copy /cols xdef /rows xdef mul dup 3 mul string
  currentfile exch readhexstring pop
  dup 0 3 index getinterval /rbmap xdef
  dup 2 index dup getinterval /gbmap xdef
  1 index dup 2 mul exch getinterval /bbmap xdef pop pop}bdef
/it {gs np dtri aload pop moveto lineto lineto cp c
  cols rows 8 compute_transform 
  rbmap gbmap bbmap true 3 colorimage gr}bdef
/il {newpath moveto lineto stroke}bdef
currentdict end def
%%EndProlog

%%BeginSetup
MathWorks begin

0 cap

end
%%EndSetup

%%Page: 1 1
%%BeginPageSetup
%%PageBoundingBox:    52   199   549   602
MathWorks begin
bpage
%%EndPageSetup

%%BeginObject: obj1
bplot

/dpi2point 12 def
portraitMode 0204 7344 csm

  422   109  5965  4845 MR c np
85 dict begin %Colortable dictionary
/c0 { 0.000000 0.000000 0.000000 sr} bdef
/c1 { 1.000000 1.000000 1.000000 sr} bdef
/c2 { 0.900000 0.000000 0.000000 sr} bdef
/c3 { 0.000000 0.820000 0.000000 sr} bdef
/c4 { 0.000000 0.000000 0.800000 sr} bdef
/c5 { 0.910000 0.820000 0.320000 sr} bdef
/c6 { 1.000000 0.260000 0.820000 sr} bdef
/c7 { 0.000000 0.820000 0.820000 sr} bdef
c0
1 j
1 sg
   0    0 6913 5185 PR
6 w
0 4225 5356 0 0 -4225 899 4614 4 MP
PP
-5356 0 0 4225 5356 0 0 -4225 899 4614 5 MP stroke
4 w
DO
SO
6 w
0 sg
 899  389 mt 6255  389 L
 899 4614 mt 6255 4614 L
6255 4614 mt 6255  389 L
 899 4614 mt  899  389 L
 899 4614 mt 6255 4614 L
 899 4614 mt  899  389 L
 899 4614 mt  899 4560 L
 899  389 mt  899  442 L
%%IncludeResource: font Helvetica
/Helvetica /WindowsLatin1Encoding 120 FMSR

 783 4759 mt 
(0.12) s
1494 4614 mt 1494 4560 L
1494  389 mt 1494  442 L
1378 4759 mt 
(0.14) s
2089 4614 mt 2089 4560 L
2089  389 mt 2089  442 L
1973 4759 mt 
(0.16) s
2684 4614 mt 2684 4560 L
2684  389 mt 2684  442 L
2568 4759 mt 
(0.18) s
3279 4614 mt 3279 4560 L
3279  389 mt 3279  442 L
3196 4759 mt 
(0.2) s
3874 4614 mt 3874 4560 L
3874  389 mt 3874  442 L
3758 4759 mt 
(0.22) s
4469 4614 mt 4469 4560 L
4469  389 mt 4469  442 L
4353 4759 mt 
(0.24) s
5064 4614 mt 5064 4560 L
5064  389 mt 5064  442 L
4948 4759 mt 
(0.26) s
5659 4614 mt 5659 4560 L
5659  389 mt 5659  442 L
5543 4759 mt 
(0.28) s
6255 4614 mt 6255 4560 L
6255  389 mt 6255  442 L
6172 4759 mt 
(0.3) s
 899 4614 mt  925 4614 L
6255 4614 mt 6228 4614 L
 899 4614 mt  952 4614 L
6255 4614 mt 6201 4614 L
 640 4658 mt 
(10) s
%%IncludeResource: font Helvetica
/Helvetica /WindowsLatin1Encoding 80 FMSR

 773 4584 mt 
(-1) s
 899 4190 mt  925 4190 L
6255 4190 mt 6228 4190 L
 899 3942 mt  925 3942 L
6255 3942 mt 6228 3942 L
 899 3766 mt  925 3766 L
6255 3766 mt 6228 3766 L
 899 3629 mt  925 3629 L
6255 3629 mt 6228 3629 L
 899 3518 mt  925 3518 L
6255 3518 mt 6228 3518 L
 899 3423 mt  925 3423 L
6255 3423 mt 6228 3423 L
 899 3342 mt  925 3342 L
6255 3342 mt 6228 3342 L
 899 3270 mt  925 3270 L
6255 3270 mt 6228 3270 L
 899 3205 mt  925 3205 L
6255 3205 mt 6228 3205 L
 899 3205 mt  952 3205 L
6255 3205 mt 6201 3205 L
%%IncludeResource: font Helvetica
/Helvetica /WindowsLatin1Encoding 120 FMSR

 640 3249 mt 
(10) s
%%IncludeResource: font Helvetica
/Helvetica /WindowsLatin1Encoding 80 FMSR

 773 3175 mt 
(0) s
 899 2781 mt  925 2781 L
6255 2781 mt 6228 2781 L
 899 2533 mt  925 2533 L
6255 2533 mt 6228 2533 L
 899 2357 mt  925 2357 L
6255 2357 mt 6228 2357 L
 899 2221 mt  925 2221 L
6255 2221 mt 6228 2221 L
 899 2109 mt  925 2109 L
6255 2109 mt 6228 2109 L
 899 2015 mt  925 2015 L
6255 2015 mt 6228 2015 L
 899 1933 mt  925 1933 L
6255 1933 mt 6228 1933 L
 899 1861 mt  925 1861 L
6255 1861 mt 6228 1861 L
 899 1797 mt  925 1797 L
6255 1797 mt 6228 1797 L
 899 1797 mt  952 1797 L
6255 1797 mt 6201 1797 L
%%IncludeResource: font Helvetica
/Helvetica /WindowsLatin1Encoding 120 FMSR

 640 1841 mt 
(10) s
%%IncludeResource: font Helvetica
/Helvetica /WindowsLatin1Encoding 80 FMSR

 773 1767 mt 
(1) s
 899 1373 mt  925 1373 L
6255 1373 mt 6228 1373 L
 899 1125 mt  925 1125 L
6255 1125 mt 6228 1125 L
 899  949 mt  925  949 L
6255  949 mt 6228  949 L
 899  812 mt  925  812 L
6255  812 mt 6228  812 L
 899  701 mt  925  701 L
6255  701 mt 6228  701 L
 899  607 mt  925  607 L
6255  607 mt 6228  607 L
 899  525 mt  925  525 L
6255  525 mt 6228  525 L
 899  453 mt  925  453 L
6255  453 mt 6228  453 L
 899  389 mt  925  389 L
6255  389 mt 6228  389 L
 899  389 mt  952  389 L
6255  389 mt 6201  389 L
%%IncludeResource: font Helvetica
/Helvetica /WindowsLatin1Encoding 120 FMSR

 640  433 mt 
(10) s
%%IncludeResource: font Helvetica
/Helvetica /WindowsLatin1Encoding 80 FMSR

 773  359 mt 
(2) s
 899  389 mt 6255  389 L
 899 4614 mt 6255 4614 L
6255 4614 mt 6255  389 L
 899 4614 mt  899  389 L
gs 899 388 5357 4227 MR c np
/c8 { 0.000000 0.000000 1.000000 sr} bdef
c8
14 274 8 185 10 128 8 101 19 83 4 67 0 57 11 47 
3 39 10 31 7 25 2 19 16 14 5 9 1 6 12 2 
11 -1 7 -3 9 -5 20 -6 5 -6 1 -7 15 -7 2 -7 
5 -6 8 -5 -1 -3 10 -3 5 -1 11 0 7 1 0 2 
13 2 1 4 4 3 10 4 2 4 10 4 4 4 7 4 
-4 3 -2 3 17 2 2 1 14 2 21 1 11 0 9 1 
2 -1 8 0 6 0 15 0 6 0 8 1 5 1 10 1 
2 2 6 2 22 3 3 3 5 4 12 4 -1 4 7 5 
10 4 10 5 7 4 7 5 5 4 6 4 9 3 4 3 
10 3 10 2 6 1 11 1 6 0 4 0 5 0 8 -2 
7 -2 -2 -2 10 -2 15 -4 4 -3 11 -4 10 -3 0 -5 
3 -4 8 -4 6 -5 6 -4 8 -5 11 -5 15 -5 5 -4 
-1 -5 10 -5 6 -5 2889 2031 100 MP stroke
7 -5 11 -5 -6 -5 13 -6 22 -5 -5 -5 5 -6 9 -5 
0 -6 5 -6 2 -6 9 -6 4 -6 7 -7 13 -6 2 -8 
6 -7 4 -8 4 -7 7 -9 0 -8 7 -8 8 -8 6 -8 
6 -8 0 -8 -1 -7 -1 -7 2 -6 1 -6 -4 -5 2 -4 
4 -4 3 -3 6 -2 -1 -1 0 -2 1 0 -1 -1 4 0 
-2 0 -2 0 8 1 -12 0 -9 -1 5 0 -2 -1 -2 -2 
-3 -1 2 -2 -3 -2 -3 -2 -3 -2 -3 -2 -8 -3 -4 -3 
5 -2 -8 -3 -4 -2 -1 -3 -6 -2 0 -3 -5 -2 -3 -2 
-5 -2 -7 -1 5 -2 -9 -1 -13 -1 -1 -1 -5 0 -4 0 
-3 0 -6 0 -6 0 -4 1 -5 1 -4 1 1 1 -6 1 
-14 1 -4 2 -6 1 -12 2 -6 2 -3 1 -4 2 -7 2 
-4 2 -5 2 -9 2 -3 2 -7 3 -15 2 -8 3 -7 2 
-12 3 -11 3 -5 3 3005 2253 100 MP stroke
-6 3 -7 3 -8 2 -11 3 -4 3 -7 2 -22 3 -16 2 
-5 2 -9 1 -13 2 -7 1 -10 1 -13 0 -10 0 -16 0 
-8 0 -10 0 -7 -1 -3 -1 -24 -1 -21 -1 -11 -2 -14 -1 
-6 -1 -13 -2 -16 -1 -9 -1 -12 -1 -13 -1 -5 -1 -13 0 
-27 -1 -15 0 -9 1 -11 1 -10 0 -14 2 -13 1 -14 1 
-11 2 -11 1 -15 2 -20 1 -17 1 -11 2 -20 0 -6 0 
-23 0 -34 -1 1 -1 -18 -3 -15 -3 5 -4 -19 -4 -12 -5 
-14 -6 -27 -7 -20 -7 -15 -7 -14 -8 -15 -8 -13 -8 -31 -8 
-14 -8 3 -7 -21 -8 -13 -7 -13 -6 -17 -6 -12 -5 -14 -5 
-11 -4 -16 -4 -12 -3 -24 -2 -16 -1 6 -1 -19 0 -9 1 
-8 1 -18 2 -2 2 -24 3 -14 3 0 2 -11 3 0 4 
-4 3 -10 2 -8 3 -10 2 -6 1 -10 1 -11 0 -5 0 
-9 -2 -7 -1 -6 -2 4207 2345 100 MP stroke
-12 -3 -6 -3 -1 -3 -15 -4 2 -3 1 -3 -29 -4 -15 -4 
-5 -2 2 -3 6 -1 -9 -2 3 -2 1 -3 -16 -1 -10 -3 
-15 -2 -1 -2 -1 -3 -22 -4 -1 -3 -5 -4 -13 -4 2 -5 
-14 -5 0 -5 -8 -5 -25 -5 4 -6 -17 -5 -11 -5 13 -5 
-14 -5 -6 -4 0 -5 -8 -4 -3 -4 -8 -3 -3 -4 -8 -3 
-9 -2 0 -3 -4 -2 -5 -2 -4 -1 -4 -1 -6 -1 -4 0 
-4 1 -10 1 2 1 0 1 -8 1 3 1 -5 0 -1 0 
-3 0 2 -1 -1 -1 2 -1 -2 -2 0 -2 1 -3 -2 -3 
3 -2 -2 -3 3 -3 1 -3 -1 -2 7 -3 0 -2 2 -2 
-2 -1 2 -1 14 -1 -3 0 -3 -1 6 0 9 1 -3 1 
20 0 10 1 -4 0 1 0 -2 -1 10 -1 12 -1 -4 -2 
1 -2 0 -2 4 -2 6 -3 -6 -3 1 -3 6 -4 -2 -3 
17 -3 13 -3 -4 -3 4424 2565 100 MP stroke
4 -2 -1 -2 2 -2 10 -1 1 0 6 0 3 0 3 1 
4 1 1 2 9 2 1 2 3 2 16 1 1 2 -3 1 
5 1 2 0 8 -1 7 0 0 -2 6 -2 6 -2 -3 -3 
7 -4 5 -3 4 -4 10 -4 -1 -4 4 -4 7 -4 6 -4 
6 -3 1 -3 23 -2 18 -3 -4 -1 1 -2 0 -1 4 -1 
6 0 10 -1 13 0 -2 0 5 -1 20 0 6 0 1 -1 
13 0 4 -1 6 0 25 -1 10 0 -4 -1 2 0 7 0 
17 0 2 0 4 1 19 1 4 2 11 2 30 2 6 2 
-4 3 3 3 11 3 25 3 2 3 0 4 28 3 6 4 
5 4 18 3 0 4 8 4 11 4 15 4 20 5 -2 4 
8 5 18 4 2 5 20 5 20 4 -2 5 8 5 12 5 
9 5 16 6 10 5 15 5 15 6 13 5 23 6 7 6 
1 6 14 6 13 6 3659 2452 100 MP stroke
14 7 11 7 20 7 18 7 7 8 12 8 15 7 18 8 
6 9 18 8 24 8 -1 9 14 8 22 9 14 8 19 8 
10 8 13 8 14 7 11 8 15 7 20 6 25 7 14 6 
11 6 13 5 11 5 12 5 14 5 11 5 10 4 20 5 
22 4 16 4 7 5 12 4 22 5 -7 5 13 5 30 5 
11 4 36 6 9 5 2 5 28 5 3 6 13 5 15 5 
10 5 22 5 7 5 12 4 20 5 20 4 9 4 8 4 
16 4 15 4 27 4 2 4 1 3 24 4 6 3 22 4 
17 3 10 4 25 3 2 3 6 3 12 4 9 3 9 3 
6 3 28 2 12 3 8 3 13 2 -8 2 18 2 24 2 
-4 2 18 2 22 1 0 2 7 1 12 1 4 1 10 1 
6 1 4 1 13 1 -8 1 2 1 15 1 1 1 13 1 
10 2 1 1 12 1 2422 2017 100 MP stroke
6 2 5 1 8 2 6 2 2 1 1 2 5 2 0 2 
5 2 9 2 4 3 6 2 3 3 2 2 5 3 3 3 
2 2 2 3 2 3 3 3 2 2 0 3 2 2 5 3 
1 2 0 2 1 2 7 2 5 2 -5 1 -1 1 0 1 
-2 1 1 1 -3 0 1 0 -4 0 -1 0 1 -1 -1 0 
-1 -1 3 -1 -3 -1 -12 -1 -6 -1 -3 -1 -4 -1 -5 -1 
-5 -2 -8 -1 -6 -1 -2 -1 -11 -1 -9 -1 0 -1 -5 -1 
-9 -1 -10 -2 -8 -1 -9 -1 -8 -2 -5 -2 -13 -1 -12 -2 
-13 -2 -19 -3 -2 -2 -7 -3 -17 -3 -7 -3 -11 -3 -11 -3 
-13 -3 -10 -3 -9 -2 -32 -3 -13 -3 0 -2 -14 -3 -5 -2 
-16 -1 -15 -2 -10 -1 -19 -1 -10 -1 -15 0 -17 0 -11 0 
-16 0 -14 0 -15 1 -12 1 -14 0 -16 1 -11 0 -16 1 
-15 0 -14 0 -13 -1 2937 2023 100 MP stroke
-13 0 -18 -1 -13 -2 -16 -2 -14 -2 -13 -2 -13 -3 -11 -3 
-21 -4 -17 -4 -14 -4 -14 -5 -16 -4 -12 -5 -12 -6 -26 -5 
-12 -5 -10 -6 -22 -6 -7 -5 -19 -6 -19 -6 -9 -6 -16 -6 
-15 -5 -13 -6 -11 -6 -20 -6 -16 -6 -11 -6 -17 -6 -10 -6 
-16 -6 -17 -6 -15 -7 -18 -6 -10 -7 -16 -6 -10 -7 -14 -6 
-21 -7 -13 -7 -14 -6 -11 -7 -17 -6 -14 -6 -11 -6 -26 -6 
-13 -5 -7 -5 -13 -5 -15 -5 -13 -4 -9 -4 -28 -3 -13 -4 
-13 -3 -27 -2 -1 -3 -6 -2 -18 -2 -4 -2 -16 -2 -24 -3 
-10 -1 -12 -2 -17 -3 -12 -2 -16 -2 -12 -2 -7 -2 -24 -2 
-19 -2 -9 -1 -12 -2 -12 -1 -16 -1 -17 -1 -15 -1 -17 0 
-17 0 -11 0 -12 0 -13 0 -17 1 -16 0 -13 0 -18 1 
-15 0 -15 0 -15 0 -9 0 -17 1 -12 0 -12 0 -22 0 
-15 1 -14 1 -14 1 4374 2343 100 MP stroke
-16 1 -13 2 -5 2 -17 4 -14 3 -13 5 -17 4 -12 6 
-15 6 -12 6 -13 7 -12 7 -7 8 -12 7 -14 8 -11 7 
-11 7 -11 7 -11 6 -10 6 -12 6 -14 5 -11 5 -8 4 
-13 4 -10 3 -9 3 -12 3 -9 2 -12 2 -10 2 -4 1 
-10 1 -12 1 -8 1 -8 0 -12 1 -10 -1 -9 -1 -13 -1 
-8 -1 -6 -3 -9 -2 -5 -4 -9 -3 -12 -5 -10 -4 -7 -5 
-9 -6 -14 -5 -8 -6 -8 -5 -13 -5 -6 -5 -8 -5 -7 -4 
-6 -3 -14 -2 1 -2 -13 -2 -25 -1 12 0 2 1 -21 1 
-3 1 -2 1 -10 1 -9 1 -6 2 -11 1 -9 1 2 0 
-9 1 -9 0 -3 0 -10 -1 -5 -1 -5 -1 -6 -1 -7 -1 
-9 -2 -6 -2 -5 -2 -5 -2 -7 -2 -5 -2 -4 -2 -6 -2 
-5 -2 -5 -1 -6 -2 -8 -1 -6 -2 -4 -1 -5 -1 -4 0 
-6 -1 -2 0 -8 -1 5237 2293 100 MP stroke
5 0 11 0 -12 -1 3 0 -5 0 -11 0 12 -1 1 0 
-2 -1 -2 -1 -3 -1 2 -1 -1 -1 2 -2 0 -3 1 -3 
7 -2 15 -3 -13 -2 -10 -3 18 -3 10 -2 0 -6 8 -3 
5 -3 -7 -2 2 -3 8 -2 4 -2 6 -2 7 -2 -1 -1 
4 -1 14 -2 8 -1 9 -1 17 -1 4 0 4 -1 9 -1 
0 -1 11 -1 18 -1 6 -1 7 -1 6 -2 5 -1 7 -2 
9 -2 20 -3 7 -2 4 -3 12 -3 7 -3 8 -4 6 -4 
19 -5 14 -4 1 -5 15 -5 8 -6 12 -5 10 -6 2 -5 
21 -6 -1 -5 -1 -6 20 -4 9 -5 11 -4 12 -3 12 -3 
5 -1 2 -2 23 0 13 0 9 1 13 1 8 1 13 2 
13 3 12 2 10 2 9 1 15 2 10 1 14 0 14 0 
6 -1 16 -1 20 -3 8 -3 9 -3 14 -4 9 -5 18 -5 
18 -6 11 -5 16 -6 4483 2497 100 MP stroke
10 -6 4 -6 9 -6 15 -6 20 -5 16 -5 13 -5 12 -4 
18 -4 16 -4 8 -4 13 -4 14 -4 12 -4 18 -4 12 -4 
15 -5 14 -4 11 -4 16 -4 13 -4 18 -3 17 -4 8 0 
19 -2 14 -1 6 2 18 1 13 2 10 3 18 3 13 4 
13 4 15 3 14 4 11 3 13 2 21 3 20 1 8 1 
10 0 15 -1 11 -2 22 -2 23 -3 7 -3 10 -3 13 -4 
7 -4 20 -4 18 -3 5 -3 15 -2 15 -2 9 -2 24 0 
16 0 5 1 13 2 14 3 14 3 10 3 14 4 14 4 
13 4 16 4 10 4 22 3 17 3 -3 2 17 2 19 1 
13 0 13 0 9 -2 6 -2 10 -3 27 -2 16 -4 5 -4 
19 -5 11 -5 13 -5 17 -5 13 -6 16 -6 10 -5 13 -6 
13 -6 15 -6 18 -6 15 -7 14 -7 12 -8 11 -8 9 -8 
14 -10 18 -10 7 -12 3143 2710 100 MP stroke
23 -12 26 -13 1 -15 7 -15 16 -17 4 -18 16 -21 24 -19 
10 -22 11 -23 16 -24 12 -25 13 -25 13 -27 15 -28 14 -28 
13 -29 10 -30 10 -28 20 -30 16 -29 9 -29 10 -29 14 -29 
18 -27 12 -26 14 -29 14 -20 13 -25 11 -21 9 -24 22 -16 
14 -19 11 -18 16 -18 9 -15 18 -17 15 -16 13 -16 18 -14 
7 -17 15 -17 16 -10 10 -20 14 -11 17 -18 19 -21 10 -8 
14 -13 16 -16 13 -15 14 -9 14 -19 17 -17 13 -4 22 0 
27 -4 3 -8 5 1 17 3 11 5 17 5 15 4 14 -17 
18 12 12 15 8 -4 15 24 15 1 14 39 19 0 2 46 
0 -222 37 343 27 47 0 56 8 48 11 48 13 42 21 36 
14 30 13 25 16 13 11 13 8 1 13 -5 14 -16 14 -13 
14 -22 7 -21 11 -21 13 -21 11 -17 15 -25 -2 46 -1 -11 
18 61 11 36 12 45 1821 3193 100 MP stroke
10 41 8 32 13 27 10 21 11 17 14 12 13 8 13 3 
10 -1 11 -3 11 -6 11 -9 11 -11 10 -10 10 -12 10 -12 
10 -13 10 -12 11 -12 10 -13 11 -13 6 -11 8 -13 15 -12 
10 -13 6 -13 10 -14 8 -15 7 -18 8 -19 7 -12 8 -14 
5 -13 4 -13 6 -4 10 4 7 14 4 28 6 43 6 55 
6 63 4 69 3 73 2 74 4 75 -1 72 4 69 8 67 
3 64 0 60 -4 58 9 54 12 51 -13 48 -4 45 6 41 
-3 39 2 36 -2 32 0 30 -1 27 -5 25 -2 21 -7 20 
-2 17 3 15 -6 12 -1 11 0 9 -3 7 -8 5 -13 5 
-2 3 -2 1 -7 1 -3 0 -5 0 -7 -2 -4 -1 -7 -3 
-7 -2 -7 -3 -5 -3 -7 -3 -7 -3 -3 -3 -7 -3 -12 -3 
-11 -4 -3 -3 -7 -4 -7 -3 -6 -3 -7 -4 -5 -3 -11 -3 
-11 -3 -8 -2 -12 -3 1641 1964 100 MP stroke
-4 -2 -8 -1 -8 -2 -7 -1 -13 0 -4 0 -13 0 -13 1 
-5 1 -11 2 -6 2 -10 2 -8 2 -8 2 -11 2 -8 3 
-21 2 -8 2 -1 1 -10 2 -9 1 -14 1 -7 0 -14 0 
-23 0 -9 -1 -9 -1 -10 -2 -13 -1 -9 -3 -7 -3 -18 -3 
-14 -3 -12 -4 -13 -4 -13 -5 -13 -5 -11 -5 -16 -5 -9 -6 
-14 -6 -22 -6 -13 -6 -13 -6 -14 -7 -17 -6 -11 -7 -13 -7 
-18 -7 -16 -6 -16 -7 -7 -7 -6 -7 -22 -7 -16 -7 -15 -8 
-16 -7 -13 -8 -21 -7 -17 -8 -12 -8 -17 -8 -19 -9 -17 -8 
-8 -9 -19 -9 -30 -8 -13 -9 -14 -9 -18 -9 -15 -9 -13 -9 
-16 -9 -23 -9 -18 -9 -19 -9 -22 -9 -14 -8 -21 -8 -19 -7 
-15 -7 -19 -7 -19 -7 -15 -6 -17 -5 -37 -5 -15 -5 -10 -5 
-26 -4 -8 -3 -27 -4 -15 -3 -11 -3 -47 -2 -11 -2 -6 -3 
-22 -2 -17 -2 -21 -1 3066 2380 100 MP stroke
-13 -2 -38 -2 -23 -1 2 -1 -21 -2 -17 -1 -19 -1 -13 -1 
-19 -1 -34 -1 -9 0 -20 -1 -21 -1 -4 0 -33 -1 -29 -1 
3 -1 -17 -1 -22 -1 -12 -1 -27 -1 -10 -2 -21 -1 -33 -2 
3 -1 -22 -1 -13 -2 -4 -1 -34 0 -9 -1 -29 0 -24 1 
11 1 -20 1 -12 2 -12 3 -19 3 -10 4 -17 4 -9 4 
-16 5 -16 5 -13 6 -18 5 -7 6 -15 6 -15 6 -9 6 
-12 5 -10 6 -15 5 -9 6 -12 5 -13 5 -9 5 -25 4 
-14 5 2 4 -15 4 -17 4 -11 4 -7 4 -5 4 -13 4 
-10 4 -8 4 -12 4 -5 4 -17 3 -17 4 2 4 -10 4 
-12 4 -6 4 -15 4 -7 4 -4 4 -15 4 -10 4 -9 4 
-9 4 -8 4 -10 4 -9 4 -9 4 -12 5 -6 5 -10 4 
-8 5 -1 6 -8 5 -1 5 1 6 -8 6 -13 5 -14 6 
-1 6 -2 5 -7 6 4320 2113 100 MP stroke
-7 6 -7 5 0 5 -9 6 -10 5 7 5 -5 5 -6 4 
0 5 -2 5 -3 4 -6 5 -3 5 0 4 -4 5 -3 5 
-4 5 -3 4 -4 5 -5 5 -2 6 -4 5 2 5 6 6 
-6 6 -6 6 -2 6 -5 6 -2 6 0 6 -4 7 -4 6 
-5 7 0 6 -2 6 -5 6 3 6 5 6 -8 6 -6 5 
3 5 -4 5 -3 5 0 4 -5 5 -4 3 -2 4 1 3 
-6 3 0 3 8 3 -7 2 -5 2 1 2 -3 2 0 1 
-7 1 -2 1 1 1 -6 0 -1 0 -2 0 -1 0 1 -1 
-2 -1 1 -1 -2 -2 -4 -1 -3 -2 -2 -1 -1 -2 -5 -2 
3 -2 7 -2 -6 -2 -3 -2 2 -2 -1 -2 0 -3 -5 -1 
-2 -2 -1 -2 -4 -2 5 -2 4 -2 0 -2 -1 -2 -1 -1 
-2 -2 -2 -2 2 -2 -3 -1 -1 -2 6 -2 2 -2 1 -2 
0 -2 -1 -2 1 -2 4500 1906 100 MP stroke
1 -2 2 -2 0 -2 1 -2 4 -3 5 -2 2 -2 -1 -2 
3 -2 3 -2 8 -2 1 -1 -3 -2 9 -1 5 -1 1 -1 
4 -1 2 -1 4 0 5 0 3 0 8 0 10 1 5 0 
4 0 -2 1 -1 0 5 0 3 1 4 0 4 0 3 -1 
3 0 9 0 1 -1 -1 -1 10 0 3 -1 8 -1 7 -1 
-1 0 9 -1 1 -1 3 0 5 0 0 -1 9 0 3 0 
0 -1 5 0 4 0 9 -1 1 0 9 -1 3 -1 5 -1 
3 -1 5 -1 7 -1 3 -2 6 -1 4 -1 2 -2 10 -1 
2 -2 2 -1 7 -2 -1 -1 5 -2 6 -2 0 -2 12 -1 
14 -2 2 -2 3 -2 3 -2 4 -2 7 -2 -2 -2 6 -2 
6 -2 1 -2 13 -2 3 -2 3 -2 9 -1 0 -2 7 -1 
4 -2 0 -1 6 -1 7 0 5 -1 5 0 15 0 10 0 
-3 1 1 1 4 1 4087 2003 100 MP stroke
13 1 4 1 1 1 6 2 -1 1 15 1 7 1 -5 1 
15 1 5 1 1 1 11 1 5 0 5 0 12 0 11 -1 
1 0 2 -1 8 0 3 -1 6 -1 11 -1 -1 0 11 -1 
15 -1 -4 -1 1 -1 10 -1 20 -1 -4 0 6 -1 10 0 
-2 0 12 -1 6 0 -2 0 1 0 4 1 11 0 3 0 
-4 1 7 0 15 1 -2 1 2 0 13 1 -3 1 8 1 
5 1 0 1 19 1 4 0 -1 1 -1 1 2 1 9 0 
-1 1 14 0 11 1 -5 0 2 0 1 0 11 1 5 0 
-3 0 11 1 11 0 10 0 8 1 6 1 3 0 5 1 
14 1 -2 1 4 1 17 1 1 0 3 1 6 1 7 0 
16 0 5 0 -4 0 5 0 10 0 7 -1 6 0 9 -1 
-1 -1 13 0 32 -1 -5 0 -3 -1 18 0 5 0 4 0 
5 0 16 0 1 0 3503 1982 100 MP stroke
6 1 5 0 12 1 30 0 2 1 -4 0 3 1 -1 0 
12 0 10 0 8 0 9 0 6 0 15 -1 8 0 8 -1 
24 0 8 -1 -9 -1 12 -1 13 -1 -1 -1 9 -1 9 -2 
9 -1 10 -1 8 -2 7 -1 7 -1 18 -2 12 -1 2 -1 
12 -1 9 -1 12 0 11 -1 16 0 15 0 -4 0 11 1 
14 0 4 1 24 1 11 0 0 1 16 0 15 1 12 0 
10 0 7 0 11 -1 10 0 9 -1 10 -1 9 -1 11 -2 
14 -1 11 -2 12 -1 9 -2 10 -1 9 -2 13 -2 22 -1 
1 -2 5 -2 17 -2 5 -2 15 -2 12 -2 10 -3 19 -2 
7 -3 8 -3 10 -3 11 -3 12 -3 8 -3 11 -3 9 -2 
11 -3 12 -3 10 -3 13 -3 9 -3 12 -3 12 -4 11 -3 
12 -4 6 -3 21 -4 14 -4 -2 -4 12 -4 7 -4 15 -4 
16 -4 2 -4 15 -3 2513 2121 100 MP stroke
8 -4 6 -2 21 -3 5 -2 2 -2 12 -2 9 -2 11 -1 
9 -2 8 -1 11 -1 9 -2 6 -1 5 -2 9 -1 8 -2 
6 -3 6 -2 8 -3 6 -2 4 -4 12 -3 9 -3 -3 -4 
7 -4 10 -3 0 -4 3 -3 7 -4 9 -3 2 -3 5 -3 
15 -3 4 -3 1 -3 4 -3 2 -3 3 -4 3 -5 6 -5 
2 -6 3 -7 8 -8 3 -9 8 -12 3 -13 0 -15 6 -16 
3 -20 3 -21 4 -24 1 -27 3 -29 4 -32 3 -35 -1 -37 
3 -39 5 -42 -1 -43 3 -43 3 -43 0 -43 3 -38 2 -35 
1 -27 3 -21 -1 -12 1 -6 2 2 -1 8 -2 13 -1 14 
0 51 -1 17 0 16 -1 15 0 16 1 15 -1 14 -1 13 
0 12 -2 12 -4 11 -2 11 -2 10 -3 9 -3 9 -3 8 
-2 8 -3 7 -3 7 -5 6 -1 6 -2 6 -7 5 -6 5 
-4 5 -3 4 -6 4 2236 2595 100 MP stroke
-5 3 -7 3 -6 2 -4 2 -5 2 -7 1 -8 1 -9 0 
-6 0 -6 0 -7 -1 -7 -2 -8 -2 -6 -3 -7 -2 -10 -3 
-8 -4 -6 -4 -9 -4 -7 -4 -8 -4 -10 -5 -9 -5 -9 -5 
-8 -5 -12 -4 -11 -5 -9 -5 -9 -4 -6 -5 -10 -4 -11 -5 
-9 -4 -10 -5 -7 -4 -10 -5 -16 -3 -12 -4 -8 -4 -8 -4 
-11 -4 -9 -3 -13 -4 -11 -3 -6 -4 -13 -3 -13 -3 -9 -4 
-10 -3 -10 -4 -9 -3 -13 -4 -11 -5 -10 -5 -11 -5 -10 -6 
-10 -7 -11 -7 -8 -8 -11 -9 -12 -9 -10 -11 -8 -10 -12 -11 
-14 -11 -10 -10 -11 -10 -11 -8 -12 -6 -10 -3 -9 1 -16 5 
-9 9 -12 14 -21 18 -3 22 -4 25 -16 30 -4 31 -12 32 
-22 29 -11 31 -17 30 2 34 19 27 -16 25 -11 21 -5 15 
-18 14 -4 8 -16 4 -18 0 -8 -5 -12 -9 -8 -14 -16 -17 
-6 -23 -14 -25 -43 -24 3215 2574 100 MP stroke
-20 -32 -8 -27 -14 -31 -10 -27 -13 -27 -10 -23 -10 -21 -12 -17 
-11 -13 -12 -8 -11 -6 -12 0 -12 4 -10 6 -10 10 -14 13 
-9 15 -10 16 -14 19 -9 19 -15 19 -10 20 -11 19 -13 18 
1 18 -10 16 -12 15 -9 12 -16 11 -15 9 -13 6 -7 5 
-20 2 -17 1 1 -1 -11 -3 -12 -4 -5 -5 -15 -6 -20 -8 
-8 -8 -10 -8 -25 -9 -8 -9 0 -9 -14 -9 -10 -9 -10 -8 
-11 -8 -11 -7 -10 -7 -14 -6 -11 -6 -9 -5 -15 -5 -6 -4 
-18 -3 -15 -3 1 -3 -10 -2 -10 -2 -17 -2 -13 -2 3 -2 
-10 -2 -16 -3 -21 -3 -4 -4 -11 -2 -29 -5 4 -5 1 -6 
-4 -6 2 -7 -18 -8 -12 -9 -4 -10 -4 -10 -13 -10 -14 -11 
1 -11 -14 -12 -13 -11 1 -12 -13 -10 -12 -11 -5 -10 -10 -9 
-4 -8 5 -7 -12 -6 -16 -5 1 -4 -6 -3 -6 -2 -5 -1 
-15 -1 -4 0 1 1 4205 2919 100 MP stroke
3 0 -6 1 -17 1 -4 1 -7 0 3 -1 3 -2 -24 2 
-4 -2 12 -2 -12 -3 -9 -3 -4 -3 -5 -3 1 -3 -3 -4 
-5 -3 -4 -3 -4 -2 -4 -2 -6 -1 -2 0 3 0 -1 1 
1 1 0 2 -12 3 -7 3 6 4 -6 4 -10 3 4 5 
-3 4 -3 4 6 3 -4 5 -9 4 0 7 -2 4 -1 4 
-3 3 1 4 0 4 3 4 -4 4 -8 4 5 5 -2 5 
-1 5 6 5 -6 6 -4 6 1 6 -6 8 -1 7 -1 9 
0 10 -1 10 -4 11 2 12 2 12 -1 13 -1 14 -2 15 
2 15 1 15 -1 16 4 16 0 16 -3 17 1 16 1 16 
3 17 2 16 3 16 1 17 -3 16 2 16 1 16 3 16 
2 15 3 16 6 15 -4 15 2 14 7 14 0 14 3 13 
3 12 0 12 2 12 4 11 3 10 1 10 3 9 1 9 
4 8 3 7 0 7 4306 2228 100 MP stroke
7 6 2 5 5 5 3 4 3 4 6 3 1 2 6 2 
4 2 4 0 10 1 3 -1 5 -1 3 -1 6 -2 8 -3 
10 -2 2 -4 3 -3 7 -4 5 -4 8 -5 8 -4 3 -6 
7 -5 8 -5 4 -6 4 -6 7 -6 7 -6 6 -6 7 -6 
11 -6 6 -6 2 -7 14 -6 3 -6 2 -6 17 -7 8 -6 
-1 -6 3 -7 13 -7 4 -6 5 -7 16 -7 -2 -7 1 -8 
8 -7 6 -7 16 -8 8 -7 5 -8 -3 -7 -2 -7 21 -7 
9 -7 -1 -7 7 -6 5 -5 4 -6 4 -5 5 -4 2 -4 
3 -4 4 -3 3 -3 3 -2 1 -2 4 -1 8 -2 4 -1 
1 0 2 -1 -2 0 0 -1 11 -1 3 -1 -4 -1 9 -1 
6 -2 -6 -1 -2 -3 3 -2 0 -3 -4 -3 1 -2 5 -3 
1 -3 0 -2 3 -3 1 -1 -2 -2 -4 0 2 1 -2 2 
0 2 -2 3 1 3 3887 2530 100 MP stroke
2 3 -3 4 0 4 -2 4 0 4 3 3 -6 4 -7 3 
2 3 -2 2 -1 2 4 2 -1 1 2 1 0 1 -10 0 
-5 0 1 0 -1 0 -3 0 -1 1 -3 0 -4 1 -2 2 
2 1 1 3 -6 3 -1 3 -1 4 0 4 9 4 -7 6 
-13 5 1 6 -1 5 -1 6 -4 6 -3 5 0 9 -1 5 
-5 3 -4 4 0 5 -4 1 -6 2 2 1 1 1 -1 1 
-1 1 -11 0 -4 1 1 1 -5 1 0 2 -2 1 -2 2 
1 2 -3 3 -3 3 -6 3 -11 3 3 3 8 4 -4 4 
-4 4 -1 4 -3 3 0 4 -1 4 -1 3 -1 3 -2 3 
1 3 -4 2 -9 1 1 2 2 1 -4 0 1 1 4 0 
-2 0 -2 -1 0 -1 -2 0 -1 0 2 -1 -2 0 2 0 
-3 0 -4 0 1 0 -9 0 -2 0 4 -1 -4 0 1 -1 
1 -1 -1 -1 2 -2 4045 2329 100 MP stroke
1 -1 2 -1 0 -2 1 -1 2 -1 -1 0 2 0 1 0 
1 2 2 2 -1 2 -1 3 5 4 1 5 -10 5 -1 5 
2 6 -2 5 4 6 -4 6 -3 5 1 5 -6 5 0 4 
3 4 1 3 3 2 4 2 4 2 0 1 4 1 2 0 
2 0 0 -1 4 -1 2 0 0 -1 3 -1 0 -1 1 -1 
1 0 1 -1 3 0 1 0 1 0 2 0 3 0 3 1 
3 1 0 1 2 1 2 1 1 2 3 2 4 2 2 2 
2 2 2 2 0 2 3 2 7 3 0 4 6 1 2 2 
5 2 3 1 7 2 5 1 2 2 12 1 4 1 2 2 
12 1 0 1 6 2 12 2 5 1 10 2 7 3 5 2 
10 2 5 3 6 2 6 3 7 2 6 3 5 2 12 3 
6 2 11 3 22 2 1 2 3 2 11 2 3 1 14 2 
8 2 8 2 11 2 3710 2158 100 MP stroke
4 1 14 2 3 3 11 2 13 2 3 2 22 2 7 3 
3 2 19 1 1 2 6 2 12 1 8 1 17 0 7 1 
6 0 13 0 5 0 8 0 13 0 9 0 7 0 9 0 
8 0 13 1 9 1 4 1 16 1 10 1 7 2 13 1 
5 2 3 2 6 2 3 2 9 2 15 3 12 2 5 2 
8 2 9 3 1 2 2 3 6 2 3 3 6 3 5 3 
2 3 10 3 6 3 -1 3 5 3 4 4 2 3 5 4 
1 4 1 4 3 4 4 5 7 4 1 5 0 5 5 5 
3 5 0 6 2 5 0 6 1 5 2 6 -4 5 -2 6 
3 5 6 5 4 6 -2 4 3 5 2 4 -5 5 2 3 
-1 4 -5 3 -2 2 1 3 7 2 -1 1 -1 1 2 1 
-4 1 5 0 -5 0 -11 -1 4 -1 0 -1 -3 -1 2 -2 
2 -2 1 -2 -5 -3 3256 1937 100 MP stroke
-2 -2 -4 -3 -5 -3 3 -3 -1 -4 -2 -3 1 -4 -2 -3 
-3 -4 -2 -4 -7 -3 -6 -4 1 -3 2 -4 -3 -3 -6 -3 
3 -3 -3 -3 -15 -3 2 -2 -5 -3 -9 -2 5 -2 -7 -2 
-4 -2 -2 -2 -5 -2 -3 -3 -10 -2 -3 -2 -5 -2 -6 -2 
-4 -2 -9 -3 0 -2 -12 -2 -17 -2 0 -2 -2 -2 -4 -1 
-13 -2 -6 -1 3 0 -18 0 -14 0 -5 0 -10 1 -6 1 
-12 1 -7 2 -4 2 -12 1 -14 2 -14 2 -3 2 -8 1 
-14 2 0 1 -18 0 -20 1 -3 0 -14 0 -10 -1 -9 -1 
-9 -1 -4 -1 -21 -2 -18 -2 -10 -2 -15 -3 -11 -2 -14 -3 
-11 -2 -13 -3 -31 -2 -12 -2 1 -1 -19 -2 -11 -1 -12 -1 
-27 -1 -15 0 -12 -1 -10 0 -15 0 -17 -1 -5 0 -24 -1 
-26 0 -7 -2 -17 -1 -16 -2 -14 -2 -20 -2 -16 -3 -17 -3 
-17 -4 -15 -4 -17 -4 4155 2090 100 MP stroke
-20 -4 -20 -5 -18 -4 -15 -5 -15 -5 -18 -5 -15 -5 -21 -5 
-14 -5 -17 -5 -19 -5 -12 -4 -34 -4 -20 -4 3 -4 -20 -3 
-16 -3 -14 -3 -23 -2 -19 -2 -12 -1 -12 -1 -14 -1 -14 -1 
-19 0 -12 0 -20 0 -32 0 -10 0 -13 1 -20 -1 -13 0 
-15 0 -12 -2 -22 -1 -19 -2 -15 -2 -19 -2 -13 -3 -21 -4 
-17 -3 -17 -4 -18 -4 -12 -4 -24 -4 -18 -3 -21 -4 -23 -3 
-11 -2 -18 -3 -14 -1 -19 -1 -19 -1 -5 0 -26 0 -23 0 
-5 1 -17 1 -16 1 -12 1 -16 2 -13 1 -23 2 -17 2 
-12 1 -30 2 -11 1 0 1 -19 1 -11 1 -10 1 -27 1 
-12 0 3 1 -26 0 -21 0 2 -1 -21 0 -11 0 1 -1 
-14 -1 -9 -1 -10 -1 -9 -1 -19 -1 -16 -1 4 -1 -12 -1 
-11 -1 -7 -1 -11 -1 -6 -1 -10 -2 -8 -1 -7 -1 -7 0 
-7 -1 -8 -1 -7 -1 5612 2229 100 MP stroke
-10 0 -2 -1 -4 0 -7 -1 -6 0 -9 0 -4 -1 -6 0 
-5 0 -6 -1 -7 0 1 -1 -8 -1 -1 -1 2 -1 -12 -1 
-2 -1 -1 -1 0 -3 -1 -2 1 -1 -13 -1 -10 -2 3 -1 
-2 -1 0 -1 -4 0 -1 0 1 0 -3 -1 1 0 -2 1 
-3 0 1 0 -3 0 -1 0 -2 0 -3 -1 2 0 -1 -1 
-1 0 -4 -1 -3 -1 4 -1 -3 -1 2 -1 -1 -1 -4 -1 
3 0 -6 -1 3 -1 -5 0 -6 -1 16 0 -5 -1 -9 0 
4 0 -5 0 1 0 1 0 -1 0 1 0 -1 0 2 0 
-1 0 2 -1 1 -1 0 -1 4 -1 -2 -2 2 -2 -2 -2 
-3 -3 7 -3 2 -3 1 -3 5 -4 -1 -4 3 -4 3 -3 
3 -4 4 -4 3 -4 2 -4 5 -4 4 -4 1 -3 3 -4 
2 -3 6 -3 12 -3 -1 -4 7 -3 13 -3 -2 -3 6 -4 
13 -3 5 -4 6 -4 5643 2370 100 MP stroke
2 -4 9 -4 15 -5 2 -5 4 -5 14 -6 5 -5 10 -6 
12 -6 10 -7 7 -6 13 -6 23 -6 -3 -7 6 -6 28 -6 
1 -6 7 -6 10 -5 9 -5 18 -5 4 -5 22 -5 19 -4 
6 -4 14 -4 11 -3 12 -4 4 -4 28 -3 34 -3 -3 -4 
7 -3 16 -3 11 -4 14 -3 8 -4 14 -4 15 -3 27 -4 
9 -4 5 -4 29 -5 -4 -4 5 -5 37 -4 6 -5 4 -5 
17 -4 17 -5 10 -5 10 -4 13 -5 8 -4 13 -4 10 -4 
19 -3 35 -3 10 -3 -1 -3 15 -2 16 -3 12 -2 6 -2 
21 -2 31 -1 3 -2 12 -2 41 -2 10 -2 -8 -2 8 -2 
15 -2 30 -2 25 -2 1 -2 7 -2 16 -1 15 -2 11 0 
11 -1 27 1 21 2 8 2 14 3 12 4 12 4 13 6 
12 5 19 7 14 7 17 8 14 8 7 8 28 8 18 8 
-3 9 14 8 13 7 4368 2574 100 MP stroke
15 8 27 7 12 7 15 7 22 6 1 5 8 5 21 5 
7 4 18 4 10 4 5 4 27 3 20 3 8 3 14 3 
15 4 11 3 12 3 14 3 9 3 14 3 17 4 14 3 
15 4 12 3 17 4 11 4 15 5 14 4 6 5 25 5 
7 5 5 6 31 7 11 6 12 7 17 7 6 7 10 7 
12 7 13 8 13 7 17 7 13 7 15 6 15 7 13 6 
15 5 12 6 13 5 11 4 16 5 15 4 7 4 25 3 
5 4 12 3 29 3 7 4 29 3 11 4 6 3 31 4 
-4 5 9 4 14 5 6 5 19 5 14 6 31 6 13 5 
8 6 20 6 2 6 15 6 12 5 11 5 31 6 9 5 
0 4 17 5 20 4 11 4 8 4 12 4 11 4 9 4 
12 3 12 4 6 3 19 4 14 3 -2 4 12 3 12 4 
22 3 15 4 -2 3 3045 2108 100 MP stroke
13 3 9 3 11 3 14 3 9 2 12 3 6 2 13 1 
9 2 3 1 3 1 3 1 24 1 14 1 2 2 7 1 
9 2 5 2 -7 2 7 3 6 3 2 4 20 4 7 4 
1 5 7 5 15 5 15 4 2 5 8 4 9 4 6 4 
9 3 6 3 6 3 1 1 5 2 6 1 0 1 6 0 
-1 1 -2 0 5 0 5 0 5 1 -2 0 5 0 14 1 
5 1 1 1 3 1 3 1 6 2 2 1 2 1 4 2 
0 1 6 2 1 1 -1 2 7 2 2 2 2 2 2 2 
-1 2 4 2 6 2 0 4 2 3 0 4 -1 3 -1 2 
0 2 -2 2 3 3 -5 2 -5 1 9 2 -2 2 -7 2 
0 1 -2 1 2 1 -4 2 -3 0 3 1 -6 1 -7 0 
-1 1 -1 0 1 0 -2 -1 -4 0 -1 0 -3 -1 -8 -1 
-5 -1 1 -1 1 -1 2707 1937 100 MP stroke
-6 -1 1 -2 0 -1 -9 -2 -2 -1 -4 -2 -5 -2 -4 -2 
-4 -2 -1 -2 -6 -2 -1 -2 0 -3 -8 -2 -6 -3 -4 -2 
-7 -3 -4 -2 -3 -3 -4 -3 -3 -2 -1 -2 -4 -2 -10 -2 
-6 -2 -3 -1 -6 -1 -3 -1 0 -1 -7 -1 -8 -1 -2 0 
-10 -1 -10 -1 -2 -1 -6 -1 -2 -1 -7 -2 -10 -1 -4 -2 
-14 -3 -7 -2 -1 -3 -17 -2 -4 -3 -1 -3 -14 -2 -7 -3 
-5 -2 -8 -2 -10 -2 -12 -2 -8 -2 -9 -1 -3 -1 -8 -1 
-11 -1 -7 -1 -14 -1 -15 0 -10 -1 -11 -1 -8 -1 -9 0 
-12 -2 -15 -1 -14 -1 -12 -2 -11 -1 -11 -2 -11 -2 -12 -2 
-15 -2 -15 -2 -12 -2 -12 -2 -11 -3 -15 -2 -14 -3 -11 -2 
-17 -3 -16 -3 -14 -2 -13 -4 -13 -3 -14 -3 -14 -4 -14 -3 
-15 -4 -17 -5 -14 -4 -14 -5 -16 -5 -16 -5 -16 -5 -10 -6 
-13 -6 -20 -6 -14 -6 3584 2158 100 MP stroke
-15 -6 -15 -6 -17 -6 -15 -6 -9 -7 -23 -5 -17 -7 -6 -5 
-20 -6 -16 -6 -13 -5 -18 -6 -8 -5 -18 -5 -24 -5 -13 -4 
-12 -4 -14 -4 -16 -4 -10 -4 -15 -3 -13 -4 -6 -3 -27 -3 
-17 -3 -7 -3 -16 -2 -13 -4 -27 -3 -8 -3 4 -4 -24 -3 
-24 -4 -9 -5 -9 -4 -25 -5 -13 -6 3 -5 -21 -5 -8 -6 
-9 -5 -28 -6 -13 -5 -10 -5 -11 -5 -14 -4 -16 -3 -12 -3 
-15 -3 -9 -2 -15 -1 -24 -1 -9 -1 -9 0 -17 1 -12 0 
-14 2 -16 1 -9 1 -14 1 -10 1 -11 2 -20 1 -10 1 
-13 1 -16 2 -13 1 -15 1 -11 1 -14 1 -10 1 -8 1 
-21 2 -19 2 -13 1 -8 2 -13 2 -14 2 -11 2 -11 2 
-7 2 -12 2 -11 2 -13 1 -14 2 -12 0 -23 1 -10 0 
-10 0 -12 0 -5 -1 -28 0 -15 -1 0 -1 -12 -1 -10 -1 
-10 0 -6 -1 -11 0 4916 2347 100 MP stroke
-9 0 -9 -1 -23 1 -16 0 -11 1 -9 1 -7 0 -12 1 
-11 1 -13 1 -9 0 -12 1 -13 1 -8 0 -11 1 -6 0 
-11 1 -12 1 -6 0 -10 1 -8 1 -17 1 -18 1 -6 0 
-9 1 -11 1 -4 0 -8 0 -14 0 -8 0 -8 -1 -13 -1 
-9 -1 -20 -1 -17 -1 6 -2 -2 -1 -17 -2 -2 -1 -4 -1 
-10 -1 -4 0 -7 -1 -7 1 -15 0 -19 1 -2 1 -2 1 
-9 1 -8 1 -2 2 0 1 -6 1 -8 1 -15 1 -8 1 
-1 0 -15 0 -7 1 0 -1 -7 0 -3 -1 -5 0 -6 -1 
-5 -1 -10 -1 -8 -1 -3 -1 -6 -1 -7 0 -11 -1 2 0 
1 0 -5 -1 -2 0 -8 0 -7 -1 -4 -1 -8 -1 -1 0 
-2 -1 -6 -1 0 -1 -5 -1 -5 -1 -1 -1 -4 -1 -1 0 
-6 0 -3 0 1 0 -5 1 3 1 -4 2 -4 1 0 2 
-1 3 2 2 -2 3 5614 2336 100 MP stroke
3 2 1 3 -1 2 5 2 -2 2 4 2 -1 1 -1 1 
3 0 -4 0 12 -1 6 -1 1 -2 8 -3 -1 -3 6 -3 
2 -4 3 -4 7 -5 0 -5 8 -5 2 -5 1 -5 6 -5 
3 -4 7 -5 5 -3 0 -3 3 -3 6 -1 6 -1 4 0 
8 1 1 1 7 2 24 3 14 3 -1 3 -1 4 4 4 
15 4 16 3 -6 4 2 4 20 3 7 3 5 3 7 2 
6 2 7 2 5 1 7 0 5 0 13 0 10 -1 -1 -1 
15 -2 12 -3 3 -2 10 -4 7 -3 9 -4 5 -5 3 -4 
5 -5 6 -5 19 -5 13 -6 5 -5 4 -5 3 -4 9 -5 
6 -4 10 -4 17 -4 8 -3 4 -1 2 -2 10 -2 17 -1 
-1 0 3 0 16 0 11 0 6 1 3 0 11 1 8 1 
1 0 12 1 2 0 6 0 19 1 6 0 9 0 8 1 
-1 0 8 0 7 0 5002 2424 100 MP stroke
5 1 12 0 10 0 6 0 9 0 1 0 2 0 13 0 
0 -1 7 -1 18 -1 5 -1 3 -2 4 -2 8 -2 4 -2 
5 -3 18 -2 8 -2 4 -2 4 -2 9 -2 10 -1 -3 -1 
14 0 14 -1 -1 1 10 0 6 1 2 0 3 1 11 1 
15 1 1 2 6 1 6 0 5 1 4 0 7 0 15 0 
1 -1 4 -1 9 -1 -1 -2 14 -3 13 -3 2 -3 2 -3 
3 -4 1 -4 -2 -6 13 -4 14 -5 3 -5 4 -5 2 -5 
7 -5 -2 -5 -1 -4 14 -4 2 -4 2 -3 5 -2 -1 -2 
3 -1 1 0 3 0 3 2 6 1 0 4 1 2 0 2 
3 3 -2 2 1 2 3 1 -2 2 1 1 2 0 -6 0 
-2 0 13 0 7 -1 -5 -2 1 -1 -2 -2 -1 -1 -2 -2 
-9 -1 11 0 12 -1 -9 1 2 0 2 1 -8 3 -2 3 
-1 3 3 4 2 5 4585 2496 100 MP stroke
1 5 5 6 -3 5 3 6 3 6 -5 6 -3 5 -6 6 
13 6 15 5 -6 4 1 5 -1 4 -2 4 3 3 -3 4 
4 3 9 3 0 6 5 3 2 3 3 3 3 4 1 3 
4 4 1 4 3 3 11 4 2 5 2 4 9 4 2 4 
2 5 8 4 4 5 6 4 9 5 1 5 3 5 7 4 
4 5 4 5 5 5 11 5 4 6 8 5 20 5 1 4 
-3 5 6 5 8 4 5 4 5 4 6 4 3 3 13 3 
15 3 1 2 8 3 7 2 6 2 9 2 8 2 9 2 
9 3 14 2 11 3 5 2 9 4 6 3 9 3 11 4 
11 4 9 4 8 5 11 4 9 4 12 5 6 4 14 4 
14 3 -3 3 11 3 10 2 14 2 13 1 -6 0 21 0 
10 -1 7 -2 27 -2 -2 -3 15 -3 24 -5 -2 -4 9 -6 
14 -5 11 -7 11 -6 3954 2201 100 MP stroke
13 -8 15 -8 8 -8 14 -9 13 -10 6 -10 13 -11 13 -11 
11 -13 16 -13 16 -14 10 -14 13 -15 13 -16 12 -16 13 -17 
11 -17 13 -16 14 -17 21 -16 20 -15 12 -14 16 -13 15 -12 
13 -10 12 -8 13 -6 19 -5 16 -3 17 0 19 1 21 3 
12 4 12 4 20 6 11 6 21 6 13 6 12 5 42 6 
14 5 1 4 21 3 14 2 14 2 16 0 18 0 16 -2 
16 -2 31 -3 15 -4 15 -5 21 -6 13 -7 17 -7 15 -8 
20 -9 26 -9 20 -9 18 -10 16 -10 16 -11 15 -11 16 -11 
18 -11 20 -11 27 -11 20 -11 16 -11 18 -11 17 -10 19 -11 
18 -10 20 -10 21 -9 19 -10 21 -9 21 -10 14 -9 17 -9 
20 -9 16 -9 20 -9 20 -10 16 -9 16 -9 20 -9 20 -9 
18 -8 17 -9 15 -8 16 -7 21 -8 16 -6 11 -6 18 -5 
23 -5 13 -4 15 -4 2319 2913 100 MP stroke
20 -3 11 -3 18 -1 20 -3 12 -1 18 -1 14 -2 16 -1 
16 -3 11 -5 16 -1 17 -1 17 -4 13 -4 14 -4 12 -4 
15 -4 16 -5 10 -4 33 -4 24 -3 -5 -4 17 -3 14 -3 
10 -2 18 -2 7 -3 20 -1 14 -1 11 -1 20 -1 7 -1 
29 0 21 0 -1 0 29 -1 10 0 -2 0 26 0 6 0 
16 0 29 0 16 1 18 1 -4 1 13 1 12 3 7 2 
15 3 8 4 15 2 11 5 5 4 12 5 11 5 10 5 
10 5 11 5 9 5 9 6 10 5 5 5 9 6 7 6 
7 4 12 8 10 8 7 8 6 7 9 8 8 9 2 8 
6 8 7 8 5 8 7 8 5 7 8 7 7 7 7 6 
-2 5 -5 3 7 1 4 5 -2 -1 7 -1 -1 -6 6 -8 
17 -11 3 -19 5 -20 1 -28 -5 -39 4 -47 -13 -47 -5 -66 
6 -70 -6 -77 3 -65 1324 3284 100 MP stroke
0 -25 -3 38 2 91 -5 117 2 118 -1 110 1 100 -3 90 
-7 80 12 75 7 65 -3 60 -1 53 0 49 2 43 -7 39 
0 35 -8 32 -25 28 -5 25 -2 21 -4 19 -5 16 -2 14 
8 12 -2 9 -10 8 -1 5 -1 5 -4 2 -4 2 -5 1 
-4 0 -5 -1 -6 -1 -3 -2 -2 -2 -1 -2 -5 -3 -6 -2 
-4 -2 -7 -2 -6 -2 -2 -2 -4 -2 -3 -2 -10 -1 -2 -1 
0 -1 -19 -1 -8 -1 1 -1 -7 -1 -3 -1 -8 0 -10 -1 
1 0 -11 -1 -14 0 -6 -1 -7 0 -6 -1 -7 0 -3 0 
-12 0 -20 -1 -1 0 -7 0 -12 1 -4 0 -12 0 -7 1 
-11 0 -18 1 -6 1 -11 1 -11 1 -9 1 -10 2 -9 1 
-24 2 -19 1 -6 2 -13 1 -14 2 -15 2 -18 1 -15 2 
-13 2 -16 1 -15 2 -15 1 -15 1 -14 1 -15 1 -12 1 
-16 0 -16 1 -16 -1 2022 1952 100 MP stroke
-13 0 -11 -1 -14 -1 -14 -1 -14 -2 -15 -1 -24 -2 -22 -3 
-11 -2 -12 -3 -12 -3 -32 -3 -16 -3 4 -3 -23 -4 -13 -3 
-14 -3 -22 -3 -7 -4 -21 -3 -9 -3 -18 -3 -30 -4 -1 -3 
-10 -4 -18 -3 -13 -4 -15 -4 -13 -4 -18 -4 -10 -4 -13 -5 
-18 -5 -16 -5 -15 -5 -14 -5 -18 -5 -15 -5 -17 -6 -10 -5 
-13 -6 -20 -6 -12 -5 -18 -6 -15 -6 -12 -6 -14 -5 -12 -6 
-15 -6 -12 -5 -18 -6 -17 -6 -17 -5 -15 -6 -6 -6 -14 -5 
-7 -6 -18 -5 -15 -6 -4 -5 -20 -6 -7 -5 -20 -4 -10 -5 
-7 -4 -23 -4 5 -4 -35 -3 0 -3 24 -3 -42 0 4 -2 
-8 0 -37 0 -5 0 -24 1 -12 1 -15 1 15 4 22 1 
-23 3 -1 2 -22 3 -17 2 9 1 -24 2 6 0 -4 0 
-63 -2 -23 -3 40 1 23 -3 -15 -4 -11 -5 -6 -6 -9 -7 
-9 -8 -6 -9 -12 -9 3255 2276 100 MP stroke
-4 -10 -1 -11 -47 -11 -11 -11 12 -10 -23 -11 6 -10 -12 -10 
-11 -9 8 -9 -19 -7 2 -7 -12 -6 -17 -5 5 -4 -15 -4 
-8 -3 0 -3 -5 -2 -12 -2 -5 -2 2 -2 -14 -2 -2 -2 
-8 -2 -7 -2 -7 -2 -17 -2 3 -3 -15 -3 -14 -2 -1 -3 
-16 -2 -2 -3 -4 -2 -5 -2 -6 -2 -12 -2 -6 -2 -18 -2 
-5 -2 -2 -1 -14 -2 -6 -1 -11 -1 6 -1 4 -1 -13 -1 
-7 -1 -12 0 -5 0 -2 -1 -10 0 -5 0 -6 1 -7 0 
-7 1 -6 1 -8 1 -8 1 1 1 -5 2 -7 1 -3 2 
-5 2 -4 2 -4 3 -5 2 -9 3 -3 3 0 3 -4 4 
6 4 -1 4 -7 5 2 6 -5 6 -6 7 1 8 -2 10 
-2 10 0 12 -1 14 -2 15 -3 17 0 40 -3 23 -1 25 
1 27 -1 29 -5 32 5 33 6 35 -7 36 1 37 0 38 
-1 39 5 39 -6 39 3771 1854 100 MP stroke
0 38 9 38 0 36 -4 36 -2 34 1 33 0 31 1 29 
2 27 2 25 0 23 -3 21 0 18 1 17 0 14 3 12 
0 10 3 8 1 6 -1 4 -2 2 -4 1 8 -2 4 -2 
1 -5 5 -5 -1 -7 3 -8 4 -9 2 -10 4 -10 3 -11 
3 -11 2 -12 3 -11 3 -12 6 -12 5 -11 1 -12 3 -11 
5 -11 1 -11 1 -10 7 -10 3 -10 3 -9 3 -9 -1 -9 
1 -8 -4 -8 1 -8 15 -8 0 -8 -1 -7 7 -7 -2 -7 
2 -6 3 -7 1 -6 6 -5 2 -6 -2 -5 1 -4 3 -5 
1 -4 0 -3 4 -4 3 -3 0 -5 -2 -2 -3 -2 0 -2 
-1 -1 -2 -2 1 -1 0 -3 -2 -1 -3 -1 0 -2 -5 -1 
-5 -1 -2 -1 -8 -1 0 -1 6 -1 -2 -1 -1 -1 -4 -1 
-2 0 -5 -1 -7 0 -3 -1 -6 0 2 0 10 0 -6 0 
-3 0 -1 0 -7 0 3703 1783 100 MP stroke
-6 0 -4 1 -5 0 -10 1 9 0 2 1 -8 0 2 1 
-2 0 -6 0 -3 1 -3 0 -3 0 -3 0 -2 0 -4 0 
-4 0 -1 -1 -4 -1 -1 0 5 0 -5 -1 -6 0 2 0 
0 -1 -4 0 -3 0 -5 0 2 1 -1 0 -6 0 -1 1 
0 1 -1 1 -3 1 1 1 -4 1 -3 1 1 1 0 4 
-2 1 -2 1 2 1 -2 0 -1 1 1 1 -4 0 5 1 
-3 0 -2 0 5 1 -13 0 -2 0 6 -1 -4 0 2 0 
1 -1 1 0 -1 0 5 -1 2 0 3 -1 2 0 6 0 
3 -1 4 0 -8 0 2 0 10 0 1 0 7 -1 6 0 
4 0 5 0 4 0 3 -1 4 0 4 0 7 -1 5 0 
9 0 7 -1 -1 0 11 0 1 -1 -2 0 16 0 8 0 
-1 0 -1 1 4 0 5 0 5 0 8 1 15 0 1 0 
-4 0 11 0 9 0 3623 1770 100 MP stroke
-3 0 1 0 10 -1 3 0 -1 -1 12 0 6 -1 0 -1 
2 -1 8 -1 12 -1 -1 -1 4 -2 10 -1 0 -1 7 -1 
5 -1 -1 0 7 -1 4 -1 -1 0 8 -1 7 0 6 -1 
9 0 -1 0 4 -1 7 0 1 0 9 -1 2 0 7 -1 
18 -1 3 -1 -1 -1 0 -2 1 -1 5 -2 5 -2 5 -2 
7 -2 6 -3 5 -2 7 -2 7 -2 4 -3 8 -2 9 -1 
5 -2 6 -1 7 -1 5 -1 12 0 8 0 -1 0 8 1 
9 1 6 1 9 1 5 1 10 1 8 1 7 1 7 1 
19 1 19 1 -7 0 2 0 9 0 8 0 15 0 3 -1 
16 -1 12 -1 8 -1 15 -1 -2 -1 20 -2 13 -1 0 -1 
23 -2 4 -1 4 -1 11 -2 11 -1 13 -1 9 -1 25 -1 
8 -1 1 -1 10 -1 11 -1 25 -1 4 -1 4 -1 14 -1 
10 0 13 -1 10 -1 2920 1844 100 MP stroke
25 -1 7 -1 6 -1 21 -1 -3 -1 22 -2 11 -1 -8 -1 
22 -1 11 -1 18 -2 25 -1 1 -1 4 -1 8 -2 11 -1 
10 -1 11 -2 13 -2 9 -1 11 -2 9 -2 12 -2 10 -2 
10 -3 13 -2 16 -3 17 -2 -2 -3 6 -2 15 -3 6 -2 
17 -2 5 -2 14 -2 23 -1 -1 -1 13 0 14 0 -3 1 
10 2 11 1 8 3 7 2 9 3 14 3 12 2 22 3 
8 2 -13 1 2 1 9 0 10 -1 10 -2 8 -4 10 -4 
7 -6 7 -7 8 -8 11 -10 11 -10 3 -11 21 -11 32 -13 
12 -12 0 -12 1 -12 15 -11 12 -11 -2 -11 6 -9 9 -9 
11 -8 10 -7 1 -6 3 -6 6 -4 6 -5 4 -4 8 -4 
7 -4 -1 -4 5 -4 4 -5 6 -5 6 -5 2 -6 5 -7 
2 -8 3 -8 5 -10 1 -10 3 -12 1 -13 3 -15 3 -16 
3 -17 2 -20 2 -21 2090 2289 100 MP stroke
1 -24 -2 -26 1 -28 3 -31 -1 -33 3 -36 -2 -39 0 -41 
4 -43 0 -90 -4 -45 -1 -43 2 -39 -2 -34 0 -36 -3 -3 
-4 6 0 14 -2 19 -2 23 -1 24 -4 24 1 24 0 24 
-4 23 -2 20 -4 19 -3 18 -4 15 -3 14 1 13 -4 11 
-2 10 -2 8 -5 8 -6 6 -4 5 -5 4 -6 4 0 2 
-3 2 -8 2 1 0 -6 0 -8 0 -3 -1 -6 -1 -4 -2 
-8 -3 -3 -2 -5 -4 -11 -2 -3 -4 -7 -4 -10 -4 -3 -3 
-9 -4 -4 -4 -9 -4 -9 -3 -4 -4 -9 -3 -6 -3 -13 -3 
-12 -2 1 -3 -10 -2 -10 -2 -7 -2 -12 -1 -11 -2 -10 -2 
-10 -1 -11 -2 -12 -1 -10 -2 -12 -2 -9 -2 -9 -3 -12 -2 
-12 -4 -13 -3 -11 -4 -11 -4 -13 -5 -10 -5 -10 -6 -14 -6 
-10 -6 -15 -7 -14 -7 -8 -7 -26 -7 -16 -8 2 -7 -16 -8 
-12 -7 -11 -7 -17 -6 2699 2741 100 MP stroke
-10 -6 -16 -5 -13 -5 -12 -5 -14 -3 -12 -4 -15 -2 -11 -3 
-16 -1 -14 -2 -10 -1 -13 -1 -8 -1 -14 0 -13 -1 -13 -1 
-13 -1 -8 0 -18 -1 -9 0 -15 -1 -26 0 -1 -1 -8 0 
-13 -1 -15 0 -23 0 -1 -1 -7 0 -13 0 -21 0 -32 0 
4 0 3 0 -13 0 -6 0 -15 1 -7 1 -9 2 -15 3 
-8 3 -9 4 -4 6 -18 6 -23 7 -1 8 -5 10 -13 10 
-6 11 -10 11 -7 11 -9 12 -22 9 -6 10 -1 9 -14 8 
-6 7 -6 5 -9 5 -10 4 -7 3 -3 2 -8 2 -8 1 
-8 1 -8 1 -7 0 -9 1 -7 2 -8 1 -8 2 -5 2 
-8 2 -7 3 -6 3 -12 3 -8 4 -5 3 -9 4 -8 4 
-9 4 -9 4 -6 4 -16 5 -8 5 -1 6 -14 5 -7 6 
-3 7 -7 7 -6 7 -8 7 -7 8 -14 9 -3 8 0 8 
-12 9 -3 9 -8 8 3661 2455 100 MP stroke
-9 8 -2 8 -10 8 -7 7 -12 6 -12 6 1 5 -12 5 
-7 3 2 4 -13 2 -6 2 -5 1 -19 1 -7 0 -10 -1 
-14 -1 1 -1 -9 -1 -10 -2 -14 -3 -14 -3 4 -3 -10 -3 
-11 -4 -7 -3 -15 -4 -5 -5 -13 -4 -10 -4 -8 -5 -15 -5 
-8 -4 -13 -5 -5 -4 -11 -5 -22 -5 -2 -4 -4 -5 -9 -4 
-10 -5 -19 -5 -11 -5 -11 -5 -19 -5 -10 -5 1 -6 -14 -5 
-12 -7 -6 -6 -22 -7 -9 -7 -1 -8 -13 -9 -10 -9 -14 -9 
-14 -10 -10 -11 -14 -11 -12 -12 -11 -12 -11 -13 -12 -12 -12 -13 
-13 -13 -12 -12 -10 -13 -15 -12 -16 -11 -12 -12 -13 -10 -11 -10 
-14 -10 -17 -9 -7 -9 -25 -8 -33 -8 4 -8 2 -7 -12 -8 
-12 -7 -16 -7 -9 -7 -17 -8 -13 -7 -10 -8 -20 -8 -5 -7 
-20 -9 -23 -8 1 -8 -12 -10 -16 -9 -12 -9 -11 -10 -11 -11 
-12 -12 -13 -11 -17 -13 4741 3003 100 MP stroke
-10 -14 -17 -14 -11 -15 -11 -16 -29 -17 -6 -17 -4 -18 -12 -18 
-11 -19 -23 -19 -4 -18 -2 -18 -13 -18 -9 -17 -16 -15 -12 -14 
-11 -14 -8 -13 -16 -12 -19 -11 2 -11 -6 -10 -11 -10 -4 -10 
-9 -11 -8 -11 -8 -14 -11 -14 -17 -15 -6 -17 -1 -17 -16 -21 
-6 -21 -10 -23 -13 -25 -2 -26 -17 -26 -10 -25 0 -26 -7 -27 
-8 -26 -20 -22 -19 -21 6 -16 -2 -15 -10 -10 -5 -5 -25 -5 
-17 0 4 7 -1 6 -1 13 -9 10 -8 4 -8 16 -13 11 
2 9 -5 8 -9 7 0 3 -10 5 -2 2 -5 3 -5 1 
3 -5 -11 4 -2 0 -10 4 -20 -5 0 1 -4 5 -6 5 
-5 21 -11 14 1 14 -4 17 -6 18 -2 22 -11 22 -6 23 
0 23 -4 23 -7 23 -5 23 2 22 -7 21 -3 21 -3 20 
-17 21 -6 19 1 19 -8 18 -10 18 -1 19 -2 17 -8 18 
-2 17 -8 16 -12 15 5509 3162 100 MP stroke
1 14 -5 13 -5 11 -8 9 -10 8 1 7 -5 4 -5 3 
-9 1 -6 0 -1 -1 -21 -2 -2 -2 2 -3 -19 -3 1 -2 
-6 -2 -9 0 1 1 -11 2 1 3 -9 6 -18 6 2 7 
0 9 1 8 -9 10 -11 9 3 8 -1 8 -5 8 -9 6 
-4 5 0 3 -9 1 1 0 2 -2 -12 -2 -12 -5 -1 -6 
-2 -7 -5 -8 0 -9 -2 -9 -3 -11 -2 -7 -2 -10 0 -9 
-9 -9 -4 -8 5 -9 -7 -8 -11 -10 1 -10 2 -11 -9 -11 
-3 -12 -3 -13 -9 -13 1 -14 0 -14 -2 -14 -6 -13 -6 -12 
2 -10 -6 -9 -5 -7 -6 -4 -6 -2 5 2 -6 3 -9 6 
0 15 -3 13 -11 5 -2 12 -1 8 -7 6 0 6 -3 1 
-5 0 -5 -3 -4 -6 0 -19 -2 -21 -8 5 -3 -15 -5 -16 
-9 -20 0 -18 -6 -11 -6 -18 3 10 -6 -1 -1 9 -4 12 
-12 15 1 18 -6 18 5927 3289 100 MP stroke
-9 18 1 17 -7 14 -7 12 -1 10 -2 6 -7 5 -9 3 
0 1 -3 -1 -8 -3 -3 -4 -7 -6 -7 -7 -6 -5 -19 -10 
-10 -4 5 -7 -3 -7 -6 -9 -3 -9 -7 -8 -4 0 -3 -13 
-8 1 -3 -2 2 1 -6 3 -11 2 -5 3 1 1 -7 1 
-8 0 1 -3 -6 -3 -5 -7 0 -10 -6 -11 -1 -15 1 -15 
-2 -18 1 -19 -2 -23 1 -19 0 -19 -1 -16 3 -12 1 -9 
0 1 -2 5 5 6 2 16 -2 10 5 33 3 5 2 25 
5 18 2 9 9 8 5 1 0 -2 6 -4 7 -9 7 0 
8 -15 4 5 6 0 5 4 4 9 12 10 10 17 8 19 
4 23 -1 24 8 22 11 21 6 20 9 17 7 16 8 13 
7 11 6 9 9 8 6 6 6 5 8 4 7 3 6 4 
9 3 10 4 6 4 5 6 6 5 6 7 6 11 6 11 
3 12 2 15 9 19 5826 3011 100 MP stroke
8 17 5 20 7 21 6 22 6 22 6 21 5 21 5 21 
5 19 6 18 4 16 3 15 5 13 5 12 4 9 8 9 
3 6 5 5 6 4 2 2 10 2 4 0 6 -2 0 -1 
5 -2 2 -2 1 -2 3 -2 -6 -1 4 -1 2 1 3 1 
9 2 -1 3 10 4 11 5 -1 6 3 7 5 7 -1 8 
-6 10 2 9 2 10 2 9 6 10 0 11 9 10 4 10 
-2 10 7 10 0 8 3 9 1 7 -2 7 3 6 0 11 
-3 5 4 4 4 3 -5 4 1 3 -1 3 1 2 4 3 
0 3 1 2 0 3 -1 3 -6 3 -2 3 6 3 1 3 
-1 2 1 3 4 2 0 2 -4 1 -3 1 -5 1 1 0 
3 0 -1 -1 -3 -1 -2 -1 2 -1 -2 -2 -2 -1 -4 0 
-2 0 4 1 -9 2 -14 2 -6 4 -8 4 -6 5 -2 6 
-7 5 -2 6 -9 7 5697 2441 100 MP stroke
-8 5 -8 6 -17 4 -12 4 -9 1 -7 -1 -10 -1 -9 -5 
-8 -8 -14 -12 -4 -16 -11 -21 -13 -25 -8 -32 -22 -40 -8 -45 
-6 -49 -18 -69 -13 -81 5902 2826 20 MP stroke
gr

c8
0 sg
%%IncludeResource: font Helvetica
/Helvetica /WindowsLatin1Encoding 120 FMSR

1950  293 mt 
(Experiment 1a - Analog magnetometers - Bias of orientation) s
2502 4902 mt 
(Distance to center of sensor network [m]) s
 558 2855 mt  -90 rotate
(Bias [degree]) s
90 rotate

end %%Color Dict

eplot
%%EndObject

epage
end

showpage

%%Trailer
%%EOF
