%!PS-Adobe-2.0 EPSF-1.2
%%Creator: MATLAB, The MathWorks, Inc. Version 7.13.0.564 (R2011b). Operating System: Microsoft Windows 7.
%%Title: ..\figures\analog_par_pos_bias.eps
%%CreationDate: 11/13/2012  17:43:23
%%DocumentNeededFonts: Helvetica
%%DocumentProcessColors: Cyan Magenta Yellow Black
%%Extensions: CMYK
%%Pages: 1
%%BoundingBox:    52   199   552   602
%%EndComments

%%BeginProlog
% MathWorks dictionary
/MathWorks 160 dict begin
% definition operators
/bdef {bind def} bind def
/ldef {load def} bind def
/xdef {exch def} bdef
/xstore {exch store} bdef
% operator abbreviations
/c  /clip ldef
/cc /concat ldef
/cp /closepath ldef
/gr /grestore ldef
/gs /gsave ldef
/mt /moveto ldef
/np /newpath ldef
/cm /currentmatrix ldef
/sm /setmatrix ldef
/rm /rmoveto ldef
/rl /rlineto ldef
/s {show newpath} bdef
/sc {setcmykcolor} bdef
/sr /setrgbcolor ldef
/sg /setgray ldef
/w /setlinewidth ldef
/j /setlinejoin ldef
/cap /setlinecap ldef
/rc {rectclip} bdef
/rf {rectfill} bdef
% page state control
/pgsv () def
/bpage {/pgsv save def} bdef
/epage {pgsv restore} bdef
/bplot /gsave ldef
/eplot {stroke grestore} bdef
% orientation switch
/portraitMode 0 def /landscapeMode 1 def /rotateMode 2 def
% coordinate system mappings
/dpi2point 0 def
% font control
/FontSize 0 def
/FMS {/FontSize xstore findfont [FontSize 0 0 FontSize neg 0 0]
  makefont setfont} bdef
/ISOLatin1Encoding where {pop /WindowsLatin1Encoding 256 array bdef
ISOLatin1Encoding WindowsLatin1Encoding copy pop
/.notdef/.notdef/quotesinglbase/florin/quotedblbase/ellipsis/dagger
/daggerdbl/circumflex/perthousand/Scaron/guilsinglleft/OE/.notdef/.notdef
/.notdef/.notdef/quoteleft/quoteright/quotedblleft/quotedblright/bullet
/endash/emdash/tilde/trademark/scaron/guilsinglright/oe/.notdef/.notdef
/Ydieresis WindowsLatin1Encoding 128 32 getinterval astore pop}
{/WindowsLatin1Encoding StandardEncoding bdef} ifelse
/reencode {exch dup where {pop load} {pop StandardEncoding} ifelse
  exch dup 3 1 roll findfont dup length dict begin
  { 1 index /FID ne {def}{pop pop} ifelse } forall
  /Encoding exch def currentdict end definefont pop} bdef
/isroman {findfont /CharStrings get /Agrave known} bdef
/FMSR {3 1 roll 1 index dup isroman {reencode} {pop pop} ifelse
  exch FMS} bdef
/csm {1 dpi2point div -1 dpi2point div scale neg translate
 dup landscapeMode eq {pop -90 rotate}
  {rotateMode eq {90 rotate} if} ifelse} bdef
% line types: solid, dotted, dashed, dotdash
/SO { [] 0 setdash } bdef
/DO { [.5 dpi2point mul 4 dpi2point mul] 0 setdash } bdef
/DA { [6 dpi2point mul] 0 setdash } bdef
/DD { [.5 dpi2point mul 4 dpi2point mul 6 dpi2point mul 4
  dpi2point mul] 0 setdash } bdef
% macros for lines and objects
/L {lineto stroke} bdef
/MP {3 1 roll moveto 1 sub {rlineto} repeat} bdef
/AP {{rlineto} repeat} bdef
/PDlw -1 def
/W {/PDlw currentlinewidth def setlinewidth} def
/PP {closepath eofill} bdef
/DP {closepath stroke} bdef
/MR {4 -2 roll moveto dup  0 exch rlineto exch 0 rlineto
  neg 0 exch rlineto closepath} bdef
/FR {MR stroke} bdef
/PR {MR fill} bdef
/L1i {{currentfile picstr readhexstring pop} image} bdef
/tMatrix matrix def
/MakeOval {newpath tMatrix currentmatrix pop translate scale
0 0 1 0 360 arc tMatrix setmatrix} bdef
/FO {MakeOval stroke} bdef
/PO {MakeOval fill} bdef
/PD {currentlinewidth 2 div 0 360 arc fill
   PDlw -1 eq not {PDlw w /PDlw -1 def} if} def
/FA {newpath tMatrix currentmatrix pop translate scale
  0 0 1 5 -2 roll arc tMatrix setmatrix stroke} bdef
/PA {newpath tMatrix currentmatrix pop	translate 0 0 moveto scale
  0 0 1 5 -2 roll arc closepath tMatrix setmatrix fill} bdef
/FAn {newpath tMatrix currentmatrix pop translate scale
  0 0 1 5 -2 roll arcn tMatrix setmatrix stroke} bdef
/PAn {newpath tMatrix currentmatrix pop translate 0 0 moveto scale
  0 0 1 5 -2 roll arcn closepath tMatrix setmatrix fill} bdef
/vradius 0 def /hradius 0 def /lry 0 def
/lrx 0 def /uly 0 def /ulx 0 def /rad 0 def
/MRR {/vradius xdef /hradius xdef /lry xdef /lrx xdef /uly xdef
  /ulx xdef newpath tMatrix currentmatrix pop ulx hradius add uly
  vradius add translate hradius vradius scale 0 0 1 180 270 arc 
  tMatrix setmatrix lrx hradius sub uly vradius add translate
  hradius vradius scale 0 0 1 270 360 arc tMatrix setmatrix
  lrx hradius sub lry vradius sub translate hradius vradius scale
  0 0 1 0 90 arc tMatrix setmatrix ulx hradius add lry vradius sub
  translate hradius vradius scale 0 0 1 90 180 arc tMatrix setmatrix
  closepath} bdef
/FRR {MRR stroke } bdef
/PRR {MRR fill } bdef
/MlrRR {/lry xdef /lrx xdef /uly xdef /ulx xdef /rad lry uly sub 2 div def
  newpath tMatrix currentmatrix pop ulx rad add uly rad add translate
  rad rad scale 0 0 1 90 270 arc tMatrix setmatrix lrx rad sub lry rad
  sub translate rad rad scale 0 0 1 270 90 arc tMatrix setmatrix
  closepath} bdef
/FlrRR {MlrRR stroke } bdef
/PlrRR {MlrRR fill } bdef
/MtbRR {/lry xdef /lrx xdef /uly xdef /ulx xdef /rad lrx ulx sub 2 div def
  newpath tMatrix currentmatrix pop ulx rad add uly rad add translate
  rad rad scale 0 0 1 180 360 arc tMatrix setmatrix lrx rad sub lry rad
  sub translate rad rad scale 0 0 1 0 180 arc tMatrix setmatrix
  closepath} bdef
/FtbRR {MtbRR stroke } bdef
/PtbRR {MtbRR fill } bdef
/stri 6 array def /dtri 6 array def
/smat 6 array def /dmat 6 array def
/tmat1 6 array def /tmat2 6 array def /dif 3 array def
/asub {/ind2 exch def /ind1 exch def dup dup
  ind1 get exch ind2 get sub exch } bdef
/tri_to_matrix {
  2 0 asub 3 1 asub 4 0 asub 5 1 asub
  dup 0 get exch 1 get 7 -1 roll astore } bdef
/compute_transform {
  dmat dtri tri_to_matrix tmat1 invertmatrix 
  smat stri tri_to_matrix tmat2 concatmatrix } bdef
/ds {stri astore pop} bdef
/dt {dtri astore pop} bdef
/db {2 copy /cols xdef /rows xdef mul dup 3 mul string
  currentfile exch readhexstring pop
  dup 0 3 index getinterval /rbmap xdef
  dup 2 index dup getinterval /gbmap xdef
  1 index dup 2 mul exch getinterval /bbmap xdef pop pop}bdef
/it {gs np dtri aload pop moveto lineto lineto cp c
  cols rows 8 compute_transform 
  rbmap gbmap bbmap true 3 colorimage gr}bdef
/il {newpath moveto lineto stroke}bdef
currentdict end def
%%EndProlog

%%BeginSetup
MathWorks begin

0 cap

end
%%EndSetup

%%Page: 1 1
%%BeginPageSetup
%%PageBoundingBox:    52   199   552   602
MathWorks begin
bpage
%%EndPageSetup

%%BeginObject: obj1
bplot

/dpi2point 12 def
portraitMode 0204 7344 csm

  422   109  5998  4845 MR c np
85 dict begin %Colortable dictionary
/c0 { 0.000000 0.000000 0.000000 sr} bdef
/c1 { 1.000000 1.000000 1.000000 sr} bdef
/c2 { 0.900000 0.000000 0.000000 sr} bdef
/c3 { 0.000000 0.820000 0.000000 sr} bdef
/c4 { 0.000000 0.000000 0.800000 sr} bdef
/c5 { 0.910000 0.820000 0.320000 sr} bdef
/c6 { 1.000000 0.260000 0.820000 sr} bdef
/c7 { 0.000000 0.820000 0.820000 sr} bdef
c0
1 j
1 sg
   0    0 6913 5185 PR
6 w
0 4225 5356 0 0 -4225 899 4614 4 MP
PP
-5356 0 0 4225 5356 0 0 -4225 899 4614 5 MP stroke
4 w
DO
SO
6 w
0 sg
 899  389 mt 6255  389 L
 899 4614 mt 6255 4614 L
6255 4614 mt 6255  389 L
 899 4614 mt  899  389 L
 899 4614 mt 6255 4614 L
 899 4614 mt  899  389 L
1434 4614 mt 1434 4560 L
1434  389 mt 1434  442 L
%%IncludeResource: font Helvetica
/Helvetica /WindowsLatin1Encoding 120 FMSR

1318 4759 mt 
(0.16) s
1970 4614 mt 1970 4560 L
1970  389 mt 1970  442 L
1854 4759 mt 
(0.18) s
2505 4614 mt 2505 4560 L
2505  389 mt 2505  442 L
2422 4759 mt 
(0.2) s
3041 4614 mt 3041 4560 L
3041  389 mt 3041  442 L
2925 4759 mt 
(0.22) s
3576 4614 mt 3576 4560 L
3576  389 mt 3576  442 L
3460 4759 mt 
(0.24) s
4112 4614 mt 4112 4560 L
4112  389 mt 4112  442 L
3996 4759 mt 
(0.26) s
4648 4614 mt 4648 4560 L
4648  389 mt 4648  442 L
4532 4759 mt 
(0.28) s
5183 4614 mt 5183 4560 L
5183  389 mt 5183  442 L
5100 4759 mt 
(0.3) s
5719 4614 mt 5719 4560 L
5719  389 mt 5719  442 L
5603 4759 mt 
(0.32) s
6254 4614 mt 6254 4560 L
6254  389 mt 6254  442 L
6138 4759 mt 
(0.34) s
 899 4614 mt  925 4614 L
6255 4614 mt 6228 4614 L
 899 4614 mt  952 4614 L
6255 4614 mt 6201 4614 L
 640 4658 mt 
(10) s
%%IncludeResource: font Helvetica
/Helvetica /WindowsLatin1Encoding 80 FMSR

 773 4584 mt 
(-1) s
 899 4190 mt  925 4190 L
6255 4190 mt 6228 4190 L
 899 3942 mt  925 3942 L
6255 3942 mt 6228 3942 L
 899 3766 mt  925 3766 L
6255 3766 mt 6228 3766 L
 899 3629 mt  925 3629 L
6255 3629 mt 6228 3629 L
 899 3518 mt  925 3518 L
6255 3518 mt 6228 3518 L
 899 3423 mt  925 3423 L
6255 3423 mt 6228 3423 L
 899 3342 mt  925 3342 L
6255 3342 mt 6228 3342 L
 899 3270 mt  925 3270 L
6255 3270 mt 6228 3270 L
 899 3205 mt  925 3205 L
6255 3205 mt 6228 3205 L
 899 3205 mt  952 3205 L
6255 3205 mt 6201 3205 L
%%IncludeResource: font Helvetica
/Helvetica /WindowsLatin1Encoding 120 FMSR

 640 3249 mt 
(10) s
%%IncludeResource: font Helvetica
/Helvetica /WindowsLatin1Encoding 80 FMSR

 773 3175 mt 
(0) s
 899 2781 mt  925 2781 L
6255 2781 mt 6228 2781 L
 899 2533 mt  925 2533 L
6255 2533 mt 6228 2533 L
 899 2357 mt  925 2357 L
6255 2357 mt 6228 2357 L
 899 2221 mt  925 2221 L
6255 2221 mt 6228 2221 L
 899 2109 mt  925 2109 L
6255 2109 mt 6228 2109 L
 899 2015 mt  925 2015 L
6255 2015 mt 6228 2015 L
 899 1933 mt  925 1933 L
6255 1933 mt 6228 1933 L
 899 1861 mt  925 1861 L
6255 1861 mt 6228 1861 L
 899 1797 mt  925 1797 L
6255 1797 mt 6228 1797 L
 899 1797 mt  952 1797 L
6255 1797 mt 6201 1797 L
%%IncludeResource: font Helvetica
/Helvetica /WindowsLatin1Encoding 120 FMSR

 640 1841 mt 
(10) s
%%IncludeResource: font Helvetica
/Helvetica /WindowsLatin1Encoding 80 FMSR

 773 1767 mt 
(1) s
 899 1373 mt  925 1373 L
6255 1373 mt 6228 1373 L
 899 1125 mt  925 1125 L
6255 1125 mt 6228 1125 L
 899  949 mt  925  949 L
6255  949 mt 6228  949 L
 899  812 mt  925  812 L
6255  812 mt 6228  812 L
 899  701 mt  925  701 L
6255  701 mt 6228  701 L
 899  607 mt  925  607 L
6255  607 mt 6228  607 L
 899  525 mt  925  525 L
6255  525 mt 6228  525 L
 899  453 mt  925  453 L
6255  453 mt 6228  453 L
 899  389 mt  925  389 L
6255  389 mt 6228  389 L
 899  389 mt  952  389 L
6255  389 mt 6201  389 L
%%IncludeResource: font Helvetica
/Helvetica /WindowsLatin1Encoding 120 FMSR

 640  433 mt 
(10) s
%%IncludeResource: font Helvetica
/Helvetica /WindowsLatin1Encoding 80 FMSR

 773  359 mt 
(2) s
 899  389 mt 6255  389 L
 899 4614 mt 6255 4614 L
6255 4614 mt 6255  389 L
 899 4614 mt  899  389 L
gs 899 388 5357 4227 MR c np
/c8 { 0.000000 0.000000 1.000000 sr} bdef
c8
34 672 32 222 34 151 32 114 32 97 33 81 32 67 32 55 
31 46 32 36 31 28 30 20 31 14 30 8 31 1 30 -4 
28 -8 31 -14 28 -18 28 -21 28 -25 29 -27 30 -30 27 -32 
29 -33 27 -34 30 -34 28 -35 28 -34 28 -34 26 -33 28 -32 
27 -30 27 -29 29 -27 24 -25 27 -24 29 -22 27 -21 23 -20 
26 -19 27 -19 25 -18 28 -18 25 -15 26 -14 26 -16 24 -15 
26 -15 24 -15 26 -16 27 -14 23 -12 25 -12 20 -12 22 -9 
25 -9 22 -8 22 -4 22 -3 24 -3 22 0 23 1 23 1 
21 2 21 3 20 3 24 3 24 2 16 2 20 1 23 0 
21 -1 21 -2 21 -3 18 -5 19 -7 23 -6 20 -6 21 -8 
20 -17 17 -3 20 -4 21 -9 21 -7 19 -4 19 1 17 -4 
18 -23 21 27 19 13 19 8 17 13 19 14 18 13 17 12 
20 13 15 11 18 10 3686 2596 100 MP stroke
18 9 14 6 17 4 17 2 18 -1 15 -2 17 -7 17 -9 
14 -12 16 -7 14 -8 17 -17 15 -9 14 -8 16 -10 13 -8 
16 -6 15 -5 15 0 14 3 12 3 16 6 12 11 13 13 
14 13 14 15 14 15 12 15 17 15 12 13 14 14 14 11 
11 11 17 6 8 8 17 6 27 3 0 5 7 2 17 2 
8 2 15 2 11 2 8 4 25 5 10 6 -1 8 15 9 
9 10 10 12 13 13 9 13 13 14 8 15 10 15 12 15 
9 15 12 15 8 14 11 14 11 13 8 12 11 11 8 11 
12 10 8 9 11 8 12 8 6 7 21 6 13 5 -2 5 
11 4 11 3 7 2 10 2 8 1 9 1 10 0 10 -1 
10 -2 9 -2 9 -3 9 -4 9 -4 9 -6 8 -6 10 -7 
8 -8 10 -9 9 -10 10 -12 11 -11 6 -13 15 -14 17 -15 
-2 -15 8 -16 13 -16 2518 2347 100 MP stroke
6 -17 13 -16 8 -17 10 -16 10 -16 7 -16 11 -16 8 -14 
11 -14 10 -13 9 -11 11 -11 10 -9 9 -9 9 -6 9 -4 
9 -4 20 -3 9 1 -1 2 13 2 8 4 7 6 12 6 
5 7 12 8 6 9 9 9 11 9 8 9 10 9 8 9 
10 9 9 8 8 8 10 8 7 7 11 7 10 6 10 5 
10 5 8 5 11 4 8 4 11 4 9 4 9 3 10 3 
6 3 11 4 9 2 9 3 10 3 7 3 9 3 7 3 
11 2 9 3 9 2 8 3 8 2 9 2 10 2 10 2 
7 2 8 1 10 1 8 2 10 1 9 1 9 1 10 1 
7 1 10 2 8 1 9 2 8 2 7 2 9 3 8 2 
9 3 9 3 7 3 7 3 8 4 7 3 11 4 15 2 
1 5 3 3 12 3 4 3 10 3 7 2 7 3 10 2 
5 2 10 2 7 1 1642 2258 100 MP stroke
8 2 7 1 7 2 9 1 6 1 9 1 7 1 7 1 
9 2 6 1 8 1 4 1 6 1 7 2 5 1 9 2 
4 1 6 2 6 1 5 2 7 2 3 2 6 2 4 1 
5 2 5 2 3 2 5 2 3 2 5 2 4 2 3 2 
3 1 9 2 9 2 -8 1 5 1 14 1 2 1 4 1 
3 0 3 0 3 0 4 -1 7 -2 -7 -1 -3 -2 4 -2 
3 -3 3 -3 1 -3 3 -4 0 -4 4 -4 9 -4 0 -9 
2 -5 -2 -4 1 -5 2 -4 -1 -4 -1 -4 -8 -4 -8 -4 
0 -3 -2 -3 -3 -3 -3 -2 -4 -2 -2 -2 -4 -2 -3 -2 
-3 -2 -4 -2 -3 -1 -3 -2 -4 -2 -4 -2 3 -2 -1 -2 
-6 -2 -4 -3 -5 -3 0 -3 -4 -3 -6 -3 -1 -4 -11 -3 
-10 -4 -4 -3 -5 -3 -3 -3 -5 -3 -3 -2 -5 -2 -6 -1 
-4 -1 -5 -1 -5 0 1526 2355 100 MP stroke
-5 0 -5 0 -5 0 -5 0 -5 1 -5 0 -5 1 -6 0 
-6 0 -4 -1 -6 0 -5 -1 -5 -2 -5 -1 -4 -3 -6 -2 
-5 -3 -4 -2 -4 -4 -6 -3 -5 -3 -7 -4 -7 -4 -5 -3 
-5 -4 -2 -3 -3 -4 -5 -3 -8 -3 -8 -3 -2 -3 -7 -2 
-7 -3 -4 -2 -4 -2 -2 -2 -4 -1 -4 -2 -8 -1 -4 -2 
-2 -1 -6 -1 -2 -2 -7 -1 -6 -1 1 -2 -7 0 -3 -1 
-2 -1 -6 -1 -4 -1 -4 -1 -3 0 -6 -2 -2 0 -1 -2 
-6 0 -5 -2 -6 -1 -5 -2 -4 -1 -5 -3 -4 -2 -4 -2 
-2 -2 -3 -3 -4 -2 -2 -3 -4 -1 -5 -1 -3 0 -5 -1 
-4 1 -4 2 -3 2 -3 4 -3 4 -3 6 -4 7 -4 6 
-4 9 -3 9 -4 8 -4 10 -3 8 -3 9 -3 8 -3 8 
-2 7 -3 6 -3 5 -3 4 -3 4 -3 3 -3 2 -3 1 
-2 1 -3 1 -2 1 1940 2336 100 MP stroke
-3 0 -5 -1 -1 2 -4 1 -4 1 0 1 -2 2 -3 2 
-2 2 -3 2 -3 3 -5 2 0 3 -1 2 -4 3 -2 2 
-3 2 -2 2 -2 1 -4 1 -2 1 -2 0 -3 0 -2 -1 
-2 0 -1 -1 -3 -2 -1 -1 -3 -1 -3 -2 0 -1 -3 -1 
-4 -1 3 0 -2 -1 -3 0 1 0 -4 0 0 1 -2 1 
-3 1 0 1 -3 1 -2 2 -3 1 -3 2 0 1 -4 2 
-1 1 0 1 -6 1 -1 1 -1 1 -2 0 -4 0 -2 0 
1 0 -7 0 -2 -1 -4 -1 -2 -1 -4 0 -4 -1 -1 0 
-5 0 -8 0 -2 1 2 1 -3 1 -3 1 -3 1 -6 2 
0 2 -2 1 -3 2 -3 2 -6 1 0 2 -6 1 -8 1 
5 1 -4 0 -5 1 -2 0 -5 1 -5 0 2 0 -4 0 
-12 0 -1 0 1 1 -2 0 -10 1 0 2 1 1 -3 1 
-4 1 1 1 -6 2 2196 2268 100 MP stroke
-1 1 -3 1 -6 2 1 1 -8 1 -1 2 1 1 -12 2 
1 1 -5 1 -16 1 -1 2 2 1 -2 2 2 1 -2 1 
-8 1 -1 1 3 1 -6 1 -2 1 -1 0 -4 1 -2 0 
-3 -1 -3 -1 -3 -1 -3 -1 -3 -1 -3 -2 -4 -1 -2 -2 
-4 -1 -3 -1 -3 -1 -5 -1 -8 1 -4 1 0 1 -7 2 
0 3 -6 3 -4 4 -1 4 -7 4 1 4 -13 5 -12 2 
7 6 -4 4 1 4 1 3 -4 4 -6 2 -9 3 4 2 
-1 2 -10 2 -1 2 1 2 -2 1 -3 1 -3 1 -8 2 
-3 1 2 1 -2 1 -4 1 -9 1 -1 0 4 1 -8 1 
-4 0 1 0 -1 0 -6 1 -4 0 4 0 -5 0 -3 0 
-4 1 -3 1 -2 1 0 1 -4 1 -1 1 1 2 -1 2 
-2 1 1 2 -2 2 -2 2 0 2 -1 2 -1 2 0 1 
-1 1 0 2 -1 1 2466 2144 100 MP stroke
0 -2 1 -1 1 0 -1 0 3 -2 -1 0 2 0 1 0 
1 1 1 1 0 2 2 1 1 2 2 3 1 3 1 2 
2 3 1 3 2 3 3 3 1 3 2 2 3 2 3 1 
2 1 2 0 2 -1 2 -2 3 -3 2 -4 3 -4 1 -7 
2 -4 2 -6 1 -6 3 -7 1 -6 -4 -6 2 -5 2 -4 
1 -3 2 -2 2 -1 3 1 2 1 1 3 9 4 10 5 
1 5 2 5 3 5 2 5 5 5 1 4 2 3 3 3 
2 2 3 1 2 -1 3 0 3 -2 2 -2 1 -2 1 -3 
2 -3 1 -3 2 -3 1 -2 0 -2 1 -3 0 -2 2 -2 
-1 -2 1 -3 -1 -2 -1 -3 1 -3 -1 -4 0 -4 -1 -5 
-1 -5 -1 -7 -2 -6 -1 -8 0 -8 -3 -8 -13 -8 -8 -10 
7 -8 4 -9 -7 -8 -14 -8 -4 -7 -1 -7 -10 -7 5 -4 
4 -5 -6 -3 -4 -3 2391 2317 100 MP stroke
-4 -2 -5 -3 -5 0 -4 -1 -5 -1 -5 -1 -4 -1 -6 -2 
-4 -1 -4 -3 -5 -3 -5 -3 -6 -5 -4 -5 -5 -5 -5 -7 
-5 -7 -6 -8 -5 -8 -6 -8 -5 -9 -6 -9 -5 -9 -5 -8 
-6 -9 -4 -8 -8 -7 -5 -7 -7 -6 -18 -6 -11 -6 4 0 
3 -3 -8 -2 -7 -1 -5 0 -6 0 -5 0 -7 0 -5 0 
-6 0 -7 0 -5 -1 -7 -1 -6 -1 -7 -2 -6 -2 -7 -2 
-8 -3 -6 -3 -8 -3 -6 -3 -7 -3 -8 -3 -7 -3 -8 -2 
-7 -3 -7 -2 -8 -1 -8 -1 -8 -1 -6 -1 -8 0 -8 0 
-8 0 -9 0 -8 0 -8 1 -8 0 -9 0 -9 0 -10 0 
-9 -1 -9 -1 -11 -1 -9 -2 -11 -2 -10 -3 -9 -4 -11 -4 
-9 -4 -11 -5 -11 -6 -10 -6 -10 -6 -10 -7 -11 -8 -11 -7 
-10 -8 -10 -8 -10 -7 -12 -8 -10 -8 -12 -7 -10 -7 -10 -7 
-11 -6 -10 -5 -11 -5 3121 2664 100 MP stroke
-10 -4 -10 -3 -10 -2 -9 -1 -10 1 -9 1 -10 4 -9 4 
-9 6 -9 7 -8 7 -9 8 -8 8 -8 8 -8 8 -8 7 
-4 5 -14 6 -18 2 -5 3 -6 2 5 3 4 -1 -11 0 
-3 -2 -7 -2 -6 -2 -3 -3 -7 -3 -3 -3 -6 -3 -4 -2 
-4 -3 -6 -2 -1 -2 -6 -1 -2 -2 -4 0 -3 -1 -1 0 
-5 0 -4 0 -1 0 -2 0 -3 0 0 -1 -3 0 2 -1 
-2 -2 -2 -2 1 -2 -2 -3 1 -3 -1 -3 1 -4 0 -7 
1 -4 -2 -4 3 -4 0 -7 2 -3 0 -4 4 -3 0 -4 
4 -3 3 -4 1 -4 5 -4 0 -4 6 -5 6 -5 0 -4 
3 -6 4 -4 4 -5 4 -5 4 -4 5 -3 5 -3 6 -2 
4 -1 7 0 5 0 6 2 6 2 6 3 6 3 6 3 
7 4 7 3 7 3 8 2 9 1 7 1 8 -1 16 -3 
4 -2 -1 -3 16 -5 3198 2730 100 MP stroke
1 -7 0 -11 31 -5 12 -11 -14 -7 14 -7 18 -7 -2 -7 
16 -6 16 -7 1 0 8 0 9 2 7 3 10 6 10 8 
9 9 11 12 9 12 11 13 20 13 6 14 -1 13 19 15 
8 13 10 13 11 12 6 11 18 9 13 8 11 8 8 7 
1 7 9 5 7 4 12 4 6 3 8 3 20 3 3 4 
3 3 9 4 10 4 17 5 1 6 4 7 15 7 2 8 
14 8 15 9 0 11 4 10 17 11 13 10 -4 11 11 11 
18 11 1 11 5 10 9 10 8 9 10 8 7 8 16 7 
8 5 -2 5 14 4 15 3 9 3 10 1 6 1 14 0 
15 -2 -2 0 10 0 5 -1 -2 -2 17 0 2 0 13 0 
19 1 -4 2 20 3 19 3 -6 4 2 5 24 5 11 7 
-14 6 20 8 16 7 0 8 18 7 0 8 12 6 9 7 
2 6 17 5 -1 5 2325 2252 100 MP stroke
14 3 6 3 5 2 15 1 -1 1 16 0 3 -2 7 -1 
13 -3 -1 -3 16 -3 1 -4 9 -4 10 -4 -1 -5 17 -5 
-3 -5 12 -5 5 -5 8 -5 28 -6 -11 -4 3 -5 3 -5 
-3 -5 15 -5 0 -4 16 -5 -3 -4 1 -3 19 -5 -5 -3 
10 -3 -1 -3 2 -3 12 -3 -4 -4 13 -1 2 -3 2 -3 
12 -2 4 -2 16 -3 7 -4 -3 -2 3 -3 11 -4 1 -4 
0 -4 12 -5 0 -5 11 -4 10 -6 -2 -5 13 -5 2 -5 
4 -5 11 -5 -1 -5 5 -5 8 -4 3 -4 11 -3 9 -3 
0 -3 11 -3 4 -2 -1 -1 11 -2 3 -1 7 -2 7 -1 
4 -1 9 -1 3 -2 8 -1 5 -2 6 -1 8 -2 3 -2 
10 -2 3 -3 7 -2 6 -3 2 -3 14 -2 3 -3 3 -3 
11 -3 0 -2 3 -3 7 -3 6 -2 5 -3 6 -2 6 -3 
6 -2 5 -2 8 -2 1729 2545 100 MP stroke
11 -2 -2 -1 5 -2 8 -1 2 -1 10 -1 3 -1 7 0 
12 -1 1 0 3 0 7 -1 6 0 6 -1 6 0 7 -1 
5 -2 7 -1 5 -2 6 -1 7 -2 5 -2 7 -2 4 -2 
6 -1 7 -2 6 -1 2 -2 5 0 12 0 4 0 7 0 
7 1 4 1 9 2 4 1 9 2 6 2 6 1 8 2 
3 1 9 1 5 1 7 0 8 0 2 0 14 -1 6 -2 
1 -1 7 -2 7 -2 7 -2 4 -2 4 -3 6 -2 7 -2 
8 -2 7 -2 8 -2 5 -1 7 -2 8 -1 7 -1 9 -1 
6 0 8 -1 7 0 7 0 8 0 6 0 8 1 5 1 
7 1 6 1 6 2 7 2 6 1 6 2 4 2 6 2 
6 2 5 1 8 2 5 1 6 1 4 0 5 1 7 0 
5 0 7 0 4 -1 5 -1 5 0 4 -1 7 -1 4 -1 
6 -1 3 -2 4 -1 1130 2581 100 MP stroke
5 -1 4 -2 6 -1 4 -2 5 -1 5 -4 3 0 3 -1 
3 -1 4 -1 3 -1 4 -1 5 0 2 0 4 1 3 1 
4 2 4 2 3 2 5 3 2 4 4 4 3 4 1 4 
5 4 2 3 4 5 2 4 1 4 3 3 0 4 3 2 
4 3 2 2 3 2 2 1 3 2 2 1 3 1 1 0 
3 1 2 0 1 0 3 1 2 -1 2 0 1 0 1 -1 
2 -1 1 0 3 -2 2 -1 2 -2 2 -1 1 -2 3 -2 
1 -2 1 -2 1 -2 1 -2 3 -2 1 -2 2 -2 1 -2 
2 -2 2 -1 0 -2 2 -1 0 -2 1 -1 0 -3 -1 -1 
1 1 1 0 -1 0 3 -1 2 0 1 -1 3 -1 1 -1 
2 -1 1 0 1 -1 1 1 1 -1 0 5 1 2 1 1 
0 6 -3 4 -1 3 0 10 -1 4 0 3 -1 3 -1 3 
0 3 -1 3 0 2 942 2522 100 MP stroke
-1 2 1 2 -4 4 -3 1 -2 1 -2 1 -2 2 -4 1 
-3 1 -2 1 -4 1 -3 1 -4 1 -4 2 -3 1 -4 1 
-3 2 -5 1 1 1 -2 1 -5 0 -5 1 -9 1 -4 0 
-3 0 -6 0 -4 -1 -5 0 -5 -1 -5 0 -6 -1 -5 0 
-6 -1 -6 0 -6 0 -5 1 -6 1 -7 1 -5 1 -6 2 
-6 2 -5 3 -6 3 -4 3 -6 3 -6 3 -5 3 -6 3 
-4 3 -5 3 -5 3 -5 3 -3 3 -5 2 -5 3 -4 2 
-5 3 -4 2 -4 3 -8 2 -1 3 -1 3 -6 2 -4 3 
-4 3 -4 3 -4 4 -4 3 -4 3 -3 4 -5 3 -4 4 
-3 4 -7 3 -6 4 1 4 -4 3 -9 4 -1 4 0 4 
-7 3 -7 4 1 4 -3 3 -7 4 -2 3 0 4 -3 3 
-2 3 -2 3 -2 2 -1 3 -2 2 -1 2 -2 2 -1 2 
-1 1 -3 2 -1 1 1324 2316 100 MP stroke
-2 2 -3 1 -2 1 -2 2 -1 1 -2 2 3 1 -1 2 
-6 2 0 1 -5 2 -9 1 0 2 4 1 -2 0 -4 1 
-3 0 -4 0 -3 -1 -2 -1 -4 -1 -10 -1 -2 -1 0 -1 
-2 0 -2 -1 -3 -1 -2 0 -2 0 -2 0 -5 0 -1 1 
0 1 -4 0 -5 1 1 2 4 1 0 1 -5 2 -1 0 
-5 2 -3 0 -2 1 -4 0 -1 0 -8 0 -10 -1 1 0 
-2 0 -6 -2 -2 0 3 -1 5 -1 -4 -1 -3 -1 3 -1 
-9 -1 -3 0 6 -1 -10 -1 -5 0 1 0 -3 -1 -3 0 
-2 0 1 0 -2 0 0 1 -2 0 -2 0 0 1 -2 1 
-2 0 -1 0 1 1 -1 1 -1 1 -1 1 0 1 -1 1 
0 1 -1 1 1 1 -1 1 0 2 -1 1 1 0 -2 1 
-3 1 -1 1 -1 0 -1 1 -1 -1 -1 0 -2 -1 0 -1 
-1 -1 -1 -2 -2 -1 1509 2289 100 MP stroke
-1 -2 -1 -2 -1 -3 -3 -2 -2 -3 -2 -2 -3 -3 -2 -3 
-2 -3 -3 -3 -2 -4 -1 -3 -3 -3 -1 -2 -3 -3 -4 -3 
-2 -2 -3 -3 -1 -2 -3 -2 -3 -2 -2 -1 -3 -1 -3 -1 
-2 -1 -3 -1 -4 -1 -4 0 -1 0 -3 0 -3 0 -3 1 
-3 0 -1 1 -3 0 -2 1 -2 0 -2 1 -2 1 -2 0 
-2 1 -2 0 -2 0 -1 0 -1 0 0 -2 -1 -1 0 -3 
1 -2 1 -1 0 -2 1 -1 1 -1 1 -2 1 -1 1 -1 
1 -1 1 -1 -1 0 2 0 1 0 1 0 2 0 1 0 
3 0 1 0 3 0 5 0 0 -1 2 -1 4 0 1 -1 
4 -1 4 -2 0 -1 3 -1 3 -1 -1 -2 3 -1 2 -1 
3 0 2 -1 -1 0 3 0 1 0 2 0 2 0 2 0 
3 1 1 0 3 1 1 0 2 0 3 1 2 0 3 -1 
2 0 3 -1 3 -1 1520 2377 100 MP stroke
1 -1 4 -1 1 -1 2 -2 3 -2 1 -1 1 -2 2 -2 
2 -2 2 -2 1 -1 2 -2 1 -2 2 -1 0 -2 2 -1 
1 -1 0 -1 3 -1 2 0 0 1 1 1 1 1 1 2 
0 2 2 2 1 3 1 3 2 4 1 3 1 4 1 4 
1 4 1 4 0 3 3 3 0 3 2 3 1 2 1 2 
2 1 0 1 3 1 1 0 -1 0 1 0 1 -1 1 0 
1 -1 2 0 -1 0 -1 0 1 0 -2 3 -1 1 -1 2 
-1 3 -1 2 0 3 -1 3 -2 3 0 3 -1 3 -1 2 
-1 2 0 1 -1 1 0 -5 -1 -3 -1 -4 -1 -5 -1 -5 
-1 -5 -2 -6 -2 -6 -2 -6 -3 -6 -3 -5 -4 -5 -3 -4 
-4 -3 -5 -3 -4 -2 -2 0 -5 -1 -7 1 -3 1 -6 2 
-6 3 -4 3 -6 3 -4 3 -4 2 -6 4 -6 4 -5 2 
-4 2 -7 3 -5 2 1586 2357 100 MP stroke
-5 2 -7 1 -5 1 -5 2 -5 1 -5 1 -5 0 -5 2 
-5 1 -4 1 -3 2 -6 1 -4 2 -3 2 -6 2 -4 2 
-5 4 -5 4 -3 3 -4 5 -5 5 -3 5 -5 6 -4 5 
-3 5 -5 5 -3 5 -4 6 -3 5 -3 4 -4 5 -3 4 
-2 4 -2 4 -2 2 -3 4 -2 2 -1 2 -2 1 -1 2 
-2 1 -1 1 -2 0 1 -1 -1 -1 -1 -2 -1 0 -1 -2 
0 -2 -1 -2 -1 -3 -1 -2 -1 -2 -1 -2 1 -3 -1 -3 
-1 -1 0 -2 -1 -3 0 -3 -1 -1 -1 -2 0 -2 -2 -3 
-1 -3 -1 -3 -1 -4 0 -3 -1 -3 0 -5 -2 -5 1 -2 
0 -5 -2 -5 -3 -4 -2 -4 -1 -4 -2 -5 -2 -5 -3 -5 
-4 -5 -1 -6 -4 -5 -4 -6 -2 -6 -4 -6 -3 -6 -2 -7 
-4 -6 -4 -7 -3 -7 -3 -6 -3 -6 -4 -7 -5 -6 -3 -6 
-3 -5 -5 -6 -4 -6 1844 2457 100 MP stroke
-5 -6 -5 -7 -4 -7 -5 -8 -5 -8 -6 -9 -5 -10 -6 -12 
-5 -13 -7 -14 -6 -15 -7 -17 -8 -18 -6 -20 -7 -21 -7 -22 
-6 -23 -8 -24 -8 -22 -6 -25 -7 -23 -8 -23 -9 -20 -8 -21 
-8 -21 -8 -17 -8 -15 -8 -12 -8 -10 -7 -11 -7 -11 -9 -11 
-7 -6 -9 -9 -8 -10 -8 -10 -8 -8 -8 -16 -10 -10 -6 -14 
-8 -18 -8 -19 -7 -21 -9 -24 -9 -27 -7 -28 -9 -31 -8 -34 
-8 -33 -9 -31 -9 -32 -9 -31 -8 -31 -9 -28 -8 0 -10 -3 
-9 4 -9 14 -9 21 -9 25 -8 27 -9 46 -11 35 -9 38 
-10 42 -9 39 -9 36 -10 33 -8 30 -10 35 -9 29 -8 27 
-11 25 -11 23 -11 21 -10 20 -10 20 -9 18 -9 17 -11 16 
-10 15 -11 15 -10 14 -10 14 -11 13 -11 13 -10 13 -11 13 
-12 12 -11 12 -10 12 -12 12 -11 11 -10 12 -11 10 -10 11 
-11 10 -11 10 -11 10 2692 2554 100 MP stroke
-9 10 -11 10 -12 10 -11 10 -12 10 -9 11 -11 11 -9 11 
-11 12 -13 12 -10 13 -10 14 -10 13 -10 14 -11 14 -11 14 
-11 14 -10 13 -11 13 -11 11 -10 11 -10 10 -10 10 -11 8 
-10 7 -10 6 -9 5 -10 4 -12 3 -8 2 -9 2 -9 0 
-9 1 -9 -1 -9 -1 -9 -1 -9 -1 -9 -1 -9 -2 -8 -1 
-8 -1 -8 -1 -8 0 -8 1 -9 1 -9 2 -8 2 -8 3 
-8 5 -6 4 -6 4 -9 6 -8 5 -6 5 -8 6 -8 5 
-8 6 -7 7 -9 6 -8 6 -7 6 -7 6 -8 6 -7 6 
-6 7 -8 6 -7 6 -6 6 -13 5 -6 5 1 5 -9 5 
-6 4 -6 4 -7 3 -4 2 -6 2 -5 1 -6 1 -5 0 
-4 0 -8 -1 -4 -2 -7 -2 -4 -2 -5 -3 -13 -3 -4 -3 
0 -3 -9 -3 -4 -3 -5 -2 -11 -3 -4 -2 0 -1 -7 -1 
-5 0 -3 0 -5 0 3481 2129 100 MP stroke
-5 1 -6 2 -5 2 -6 2 -5 3 -4 3 -10 4 -8 3 
3 4 -6 3 -13 4 0 3 -3 4 -6 2 -8 3 -10 2 
0 1 -7 1 -7 0 3 -1 -10 -2 -8 -2 1 -3 -4 -5 
-8 -4 -9 -6 3 -6 -7 -7 -21 -7 -4 -7 3 -7 -3 -7 
-6 -6 -7 -7 -3 -5 -4 -6 -8 -4 -5 -4 -7 -3 -4 -3 
-4 -3 -15 0 -7 0 2 -1 0 1 -6 0 -11 1 0 -2 
-6 0 -6 2 0 -1 -11 0 -1 0 -2 -1 -7 -2 -6 2 
-8 -2 1 -1 -8 -1 -5 1 3 -11 -10 -1 0 1 -6 8 
-10 0 1 1 -6 -1 -4 1 -3 0 -6 -1 -4 3 -8 0 
-1 0 -1 1 -3 1 -2 1 -3 0 -2 0 -6 1 -4 -1 
1 0 -4 0 -3 0 1 -2 -6 0 -6 -1 2 -1 -3 -1 
-4 1 -3 -1 -3 -2 -3 1 -4 0 0 -1 -8 1 -3 -2 
1 2 -1 2 -1 0 3917 2192 100 MP stroke
-4 1 -1 1 -1 0 -4 -1 1 2 -3 2 -2 0 2 0 
-2 2 -3 -1 0 3 -1 1 1 0 -2 -2 0 3 0 -1 
-2 -2 2 1 -3 -9 0 -8 0 11 1 -1 -1 -3 2 -5 
1 0 1 -3 0 -4 1 -1 2 -2 0 -2 1 -3 1 -3 
1 -2 4 -3 1 0 -1 0 5 -3 0 -3 1 1 3 1 
1 -1 4 0 6 0 -1 1 4 2 3 -1 1 0 2 3 
3 1 4 0 2 1 6 -1 9 1 -1 -1 2 -1 6 -8 
1 -5 6 5 3 0 5 -5 5 -2 3 -4 5 -4 2 -2 
5 -3 5 -4 6 -3 4 -2 3 -3 7 -1 1 -2 5 -3 
6 1 3 -1 8 -1 3 0 4 -1 5 0 4 1 6 -1 
4 1 5 -1 5 1 6 0 5 0 3 -1 6 -4 5 1 
5 -3 6 -1 5 -4 5 -4 5 -4 6 -5 5 -5 4 -7 
8 -5 7 -7 4 -6 3661 2323 100 MP stroke
4 -8 6 -7 5 -7 4 -6 7 -7 4 -7 5 -6 4 -6 
4 -5 5 -6 4 -4 5 -5 4 -4 4 -3 4 -3 4 -3 
3 -1 3 -3 5 -1 4 -1 4 0 4 -1 4 0 5 2 
3 1 6 3 5 2 2 3 6 6 5 5 4 4 4 4 
5 5 5 4 3 2 4 -7 3 5 5 3 3 -3 5 -6 
3 -7 4 -8 4 -10 4 -14 4 -9 5 -13 4 -12 5 -13 
4 -12 5 -11 4 -8 5 -8 5 -7 4 -5 4 -3 5 -3 
5 -2 5 0 4 0 6 0 4 1 5 0 5 0 4 0 
6 1 5 -1 5 -1 4 -2 5 -3 5 -3 5 -4 5 -5 
4 -6 4 -6 3 -7 3 -8 6 -7 4 -8 4 -7 3 -8 
3 -7 4 -8 2 -6 4 -7 4 -6 4 -5 3 -5 3 -5 
4 -5 2 -4 4 -5 3 -4 4 -5 4 -4 1 -5 3 -5 
5 -6 3 -6 3 -5 3247 2706 100 MP stroke
3 -6 2 -6 2 -6 3 -5 2 -4 2 -3 3 -3 2 -1 
2 -1 1 1 2 1 2 3 3 4 2 3 1 4 3 3 
2 2 2 4 2 2 3 1 3 0 3 -1 2 -3 2 -1 
3 -4 2 -4 3 -5 3 -5 2 -6 1 -5 4 -6 3 -4 
1 -6 2 -4 2 -3 1 -3 2 -3 1 -1 1 -2 2 -2 
0 -2 1 0 1 0 1 -1 1 0 1 -1 -1 0 0 -1 
2 -2 1 -1 1 -2 1 -2 2 -1 0 -5 2 -2 1 -2 
1 -1 1 -2 2 -2 1 -1 2 -1 1 0 1 0 1 -1 
2 0 1 -1 1 -2 0 2 1 1 1 -1 0 -2 1 -1 
0 -1 1 -1 1 1 0 9 -1 4 1 6 -1 6 -1 7 
0 18 1 8 0 10 -1 9 0 25 -1 7 -1 7 1 5 
-1 5 1 4 0 4 -1 3 1 2 0 2 -1 2 0 1 
-1 1 1 1 0 3 3131 2667 100 MP stroke
-1 2 0 1 -1 2 -2 3 0 5 -1 2 1 3 0 8 
1 3 0 5 1 5 0 6 1 6 1 6 0 7 -1 6 
0 18 1 9 -1 9 -1 9 1 9 -1 9 -2 10 -1 8 
-1 9 -2 8 -1 7 -2 7 -1 6 -2 6 -2 4 -2 4 
-2 3 -1 2 -1 2 -1 1 -1 0 -2 0 -1 -1 -1 -2 
-1 -1 -1 -2 0 -1 -1 -1 0 -1 0 1 1 2 1 2 
0 20 1 6 0 11 1 5 -1 5 1 4 -1 4 -1 2 
1 2 0 1 0 -6 -1 -4 1 -3 -1 -4 -1 -3 2 -3 
-1 -2 -1 -1 -1 2 0 3 -1 5 0 35 1 11 0 22 
1 10 1 10 0 9 1 8 0 10 1 2 1 1 2 -2 
2 -3 1 -5 2 -7 3 -8 1 -10 3 -10 6 -12 1 -11 
1 -12 5 -11 2 -10 4 -9 5 -8 4 -7 5 -5 5 -2 
6 0 5 1 5 1 3089 2429 100 MP stroke
7 3 5 4 6 4 5 5 6 5 7 4 5 4 6 4 
6 2 6 2 6 1 6 1 6 -1 7 -2 6 -1 7 -3 
7 -2 6 -3 9 -4 4 -3 13 -3 13 -3 -1 -2 7 -3 
8 -2 13 -2 14 -2 -3 0 10 0 11 -1 5 1 11 0 
5 1 11 1 10 1 6 2 10 1 5 2 11 2 6 2 
9 3 9 2 5 2 10 2 4 1 11 2 6 1 7 0 
11 0 -1 -1 18 -2 10 -4 0 -4 10 -5 4 -6 18 -8 
5 -9 4 -10 16 -11 -2 -13 20 -13 14 -14 -7 -13 4 -15 
11 -14 17 -14 1 -13 9 -14 14 -12 -4 -12 10 -11 5 -9 
11 -9 11 -9 -5 -7 13 -6 4 -6 4 -5 17 -6 1 -5 
4 -5 5 -5 7 -7 6 -6 5 -8 10 -7 4 -9 9 -8 
6 -10 4 -9 17 -9 5 -7 0 -7 9 -6 7 -5 8 -3 
7 -2 7 0 6 2 2371 2792 100 MP stroke
8 3 8 5 7 5 7 6 6 7 7 7 5 8 6 8 
11 8 2 8 2 8 8 9 4 8 6 8 11 8 3 9 
0 7 11 9 8 7 0 8 4 8 12 7 3 7 0 7 
7 7 5 6 5 6 5 6 2 5 9 5 8 4 0 4 
3 3 5 3 3 2 5 2 4 1 3 1 5 1 3 0 
4 0 3 0 4 0 6 -1 1 0 5 1 2 0 3 1 
3 0 2 2 4 1 2 1 4 2 3 2 2 3 2 2 
2 3 4 3 2 2 2 3 3 4 2 3 3 3 2 3 
3 4 3 3 4 4 3 3 4 4 4 3 -2 4 5 4 
6 3 0 4 3 3 3 3 4 4 4 3 4 3 4 3 
2 4 8 3 4 3 0 4 4 3 3 4 3 4 4 3 
3 4 3 4 4 4 4 4 4 4 4 4 3 4 5 4 
4 3 5 4 4 3 1967 2398 100 MP stroke
3 4 5 3 3 3 5 3 10 3 1 3 2 3 6 3 
4 3 5 3 4 3 6 3 6 3 6 4 6 3 5 3 
6 3 5 3 6 3 6 4 6 2 9 3 7 3 6 2 
8 3 5 2 8 2 7 2 8 2 8 2 7 2 8 1 
7 2 8 2 8 2 9 2 10 2 6 2 9 2 8 3 
8 2 11 3 4 2 14 3 14 2 -1 3 7 2 10 3 
8 2 10 2 6 2 9 2 8 2 8 2 10 1 7 1 
8 2 8 1 8 1 10 1 8 1 8 0 7 1 8 1 
8 1 9 1 10 1 8 1 9 0 7 1 8 1 8 1 
8 0 9 1 7 0 9 1 7 0 8 0 10 0 6 0 
8 0 8 0 7 -1 7 -1 6 0 9 -1 6 -1 7 -1 
8 -2 6 -1 8 -1 5 -1 8 -1 7 -1 6 -1 15 -1 
5 0 1 0 9 0 1250 2255 100 MP stroke
4 0 5 0 8 0 5 1 7 0 5 1 5 1 6 1 
5 1 7 1 5 1 8 1 11 1 0 1 3 1 8 1 
4 1 6 0 4 0 6 0 7 0 4 0 5 -1 3 -1 
5 -2 5 -2 4 -2 6 -2 1 -3 6 -3 6 -3 2 -4 
4 -4 2 -3 9 -4 9 -3 3 -4 6 -3 4 -2 2 -3 
4 -2 4 -2 2 -2 3 -1 4 -1 2 -1 2 -1 2 -1 
3 0 2 -1 -1 0 2 -1 1 -1 -1 0 2 -1 1 -1 
0 -2 3 -1 0 -2 -1 -2 1 -2 0 -5 -1 -3 -5 -3 
3 -3 3 -3 1 -4 0 -3 -8 -3 1 -3 5 -4 -7 -3 
-1 -3 0 -4 -3 -3 -1 -3 -3 -4 -2 -3 -2 -4 -3 -4 
-1 -4 -3 -4 -3 -4 -3 -4 -4 -5 -4 -4 -4 -5 -4 -5 
-5 -5 -3 -5 -4 -5 -4 -6 -4 -5 -6 -5 -7 -6 1 -5 
-1 -5 -8 -5 -5 -5 1105 2473 100 MP stroke
-4 -5 -4 -5 -5 -4 -5 -4 -4 -5 -10 -4 -7 -3 2 -4 
-3 -5 -12 -2 -9 -3 -5 -3 -7 -4 -7 -4 -8 -3 -6 -4 
-6 -4 -9 -5 -3 -4 -4 -5 -7 -5 -6 -5 -10 -3 -7 -6 
-4 -4 -6 -5 -6 -5 -5 -4 -4 -5 -7 -4 -3 -4 -3 -5 
-7 -4 -5 -3 -7 -3 -13 -3 -8 -3 1 -5 -6 -2 -8 -3 
-3 -5 -12 -1 -6 -4 0 -3 -5 -4 -8 -3 -6 -1 -6 -3 
-8 -1 -6 -2 -7 -1 -8 0 -7 0 -7 1 -5 2 -5 2 
-7 4 -6 5 -6 4 -6 7 -7 5 -5 7 -7 7 -6 7 
-6 7 -7 7 -5 7 -7 7 -6 6 -5 7 -7 5 -5 7 
-9 4 -5 7 -8 5 -9 5 -3 6 -16 6 -7 6 -1 5 
-7 6 -6 5 -15 5 -7 5 1 5 -11 4 -5 4 -7 3 
-9 4 -6 3 -9 2 -6 3 -7 2 -6 3 -7 1 -7 3 
-7 1 -8 2 -8 2 1734 2451 100 MP stroke
-6 2 -9 3 -8 1 -7 3 -8 3 -7 3 -8 4 -7 3 
-6 4 -5 1 -12 4 -14 4 0 3 -2 2 -12 4 -1 2 
-11 5 -16 2 0 5 -5 5 -8 5 -10 5 -13 5 1 7 
-3 7 -8 7 -8 7 -9 7 -6 7 -8 7 -7 7 -16 6 
-8 6 3 6 -11 5 -7 5 -7 4 -13 3 -5 4 -5 4 
-8 3 -6 3 -7 3 -8 3 -4 2 -12 3 -11 3 1 3 
-6 3 -6 3 -14 3 -18 2 7 4 -2 3 -14 3 -1 3 
-3 3 -6 2 -6 2 -5 2 -5 2 -6 1 -5 1 -5 0 
-5 1 -5 0 -5 0 -6 0 -6 0 -4 -1 -6 0 -4 0 
-8 0 -2 1 1 0 -11 1 -7 1 0 1 -4 1 -9 2 
-5 2 2 2 -8 2 -4 2 -4 3 -12 2 -2 3 -2 2 
-6 2 -5 2 -10 2 -2 2 0 1 -7 2 -8 1 1 0 
-3 1 -11 0 -2 1 2345 2175 100 MP stroke
-1 -1 -6 0 -12 0 -9 -1 1 1 -3 0 -1 0 -1 1 
-5 0 -4 1 -4 1 -3 1 -6 1 -2 1 -5 2 -7 2 
0 2 -5 2 -5 2 1 2 -5 3 -4 2 -3 2 -4 1 
-5 2 -3 2 -5 1 -4 1 -3 0 -5 1 -2 0 -5 0 
-3 -1 -2 -1 -9 0 0 -2 -4 -1 -4 -1 0 -2 -7 -1 
0 -1 -4 -1 -4 -2 -7 -1 1 0 -5 -1 -2 0 -1 1 
-6 1 1 1 -5 1 -2 1 -2 2 -5 2 2 2 -6 2 
0 2 -3 3 -5 2 4 3 -3 2 -3 3 1 2 -1 2 
0 3 -2 1 1 3 0 1 -1 2 1 1 -2 1 1 1 
-1 1 -1 0 1 0 -3 1 -4 -1 2 1 -1 0 1 -1 
-1 0 1 0 -1 0 -3 0 0 2 -1 1 -1 0 1 1 
-1 0 1 1 -1 -1 1 0 1 -1 0 -5 1 -2 -1 -1 
1 -2 -2 -2 0 -1 2567 2122 100 MP stroke
-1 -2 -3 -2 2 -1 -1 -2 -2 -1 1 -1 -4 -1 -2 0 
1 -1 -3 0 1 1 -2 0 -1 1 -1 1 0 1 -2 1 
-1 1 -1 2 0 1 -2 1 -1 1 0 2 -2 1 0 2 
-1 1 0 3 -1 2 -1 2 -1 1 -1 1 -1 2 -1 1 
-1 0 0 -9 1 -3 1 -2 -1 -2 1 -3 0 -2 1 -2 
1 -2 0 -1 1 -2 0 -1 2 -1 1 -1 -1 0 1 0 
1 0 2 0 1 1 1 1 0 1 1 1 1 0 -1 0 
2 2 1 0 2 1 -1 0 2 0 1 -1 2 -1 -2 -1 
4 -2 -4 -1 -10 -2 0 -4 7 -1 8 -1 -2 -2 0 -1 
1 -2 0 -1 1 -1 -2 -1 1 -1 -1 -1 0 -1 -1 -1 
-1 -1 -1 -1 -1 -1 0 -3 -1 -1 0 -4 -1 -2 -1 -2 
0 -3 -1 -2 -1 -3 0 -2 -2 -3 -1 -2 -2 -2 -1 -2 
-3 -2 -1 -1 -1 -1 2595 2192 100 MP stroke
-2 -1 -2 0 -3 0 -1 0 -2 0 -3 1 -1 0 -5 1 
2 1 -7 1 -13 0 9 2 4 0 -7 0 -4 0 -1 -1 
-2 -1 -3 -2 0 -2 -3 -2 -3 -3 -3 -3 -3 -4 -2 -3 
-4 -4 -2 -5 -4 -4 -4 -4 -4 -5 -3 -4 -2 -4 -5 -4 
-3 -3 -4 -3 -4 -3 -2 -2 -3 -1 -3 -1 -4 -1 -4 0 
-3 0 -4 0 -4 0 -3 1 -5 0 -4 0 -4 0 -4 0 
-4 -1 -3 -1 -5 -2 -4 -2 -3 -3 -4 -3 -4 -3 -4 -4 
-3 -4 -5 -4 -4 -5 -4 -4 -4 -4 -4 -4 -4 -4 -4 -4 
-4 -3 -5 -3 -4 -3 -4 -2 -5 -2 -4 -1 -4 -1 -4 -1 
-5 -1 -4 0 -5 0 -4 0 -4 0 -4 0 -4 1 -4 0 
-4 0 -5 0 -4 0 -5 0 -3 0 -3 0 -4 0 -4 -1 
-5 -1 -4 0 -4 -2 -4 -1 -3 -1 -4 -2 -5 -2 -4 -2 
-4 -3 -5 -3 -4 -3 2945 2344 100 MP stroke
-5 -3 -4 -3 -5 -4 -4 -3 -5 -4 -3 -3 -5 -4 -4 -3 
-4 -3 -5 -3 -4 -3 -5 -2 -4 -2 -4 -1 -5 -1 -5 -1 
-5 0 -5 0 -5 0 -4 1 -5 0 -4 1 -4 1 -6 1 
-5 1 -5 2 -5 1 -4 0 -4 1 -5 1 -5 0 -5 0 
-6 0 -5 0 -5 0 -5 -1 -5 -1 -6 -1 -7 -1 -6 -2 
-6 -1 -7 -2 -5 -2 -6 -3 -7 -2 -7 -3 -6 -3 -8 -3 
-6 -4 -7 -3 -6 -4 -7 -4 -7 -4 -7 -4 -8 -4 -7 -4 
-6 -4 -8 -4 -7 -4 -7 -4 -7 -3 -7 -4 -7 -3 -7 -3 
-7 -3 -7 -3 -8 -2 -7 -2 -7 -2 -7 -2 -6 -2 -7 -1 
-6 -1 -7 -1 -7 -1 -6 -1 -7 0 -5 0 -7 0 -6 1 
-7 0 -7 2 -6 1 -7 1 -6 3 -7 2 -6 2 -6 3 
-7 3 -6 4 -7 3 -6 3 -6 4 -6 3 -5 4 -6 3 
-6 3 -5 3 -7 3 3526 2432 100 MP stroke
-4 2 -9 1 -10 2 1 0 -5 1 -7 -1 -4 0 -7 -2 
-4 -2 -6 -3 -6 -3 -4 -3 -8 -5 -3 -4 -9 -5 -11 -5 
0 -5 -9 -5 -6 -5 2 -5 -7 -4 -5 -4 -5 -4 -6 -3 
-5 -2 -7 -2 -5 0 -6 0 -6 0 -5 2 -8 2 -4 3 
-7 4 -6 4 -7 4 -6 4 -6 4 -7 5 -5 4 -7 4 
-6 3 -6 3 -7 2 -5 2 -7 0 -5 0 -6 0 -6 -1 
-4 -1 -6 -2 -4 -2 -7 -2 -5 -2 -5 -2 -5 -2 -4 -1 
-7 0 -5 0 -4 1 -6 2 -2 3 -9 4 -6 4 0 5 
-4 5 -4 5 -3 5 -4 5 -4 5 -3 4 -3 4 -4 4 
-2 2 -4 2 -4 1 0 1 -2 0 -3 -1 -1 -1 -2 -2 
-2 -3 -1 -3 -1 -3 -2 -4 -1 -4 0 -4 -1 -5 -1 -5 
0 -21 -1 -5 0 -6 -1 -5 0 -20 1 -4 0 -3 1 -4 
1 -3 0 -3 2 -2 3935 2512 100 MP stroke
3 -3 0 -2 1 -3 2 -2 1 -3 2 -4 2 -4 2 -4 
2 -6 2 -6 2 -6 2 -8 3 -8 3 -9 3 -10 2 -10 
3 -10 4 -10 4 -11 3 -10 4 -10 2 -10 4 -9 3 -9 
4 -8 4 -8 4 -7 5 -7 4 -7 4 -6 5 -6 5 -6 
6 -6 5 -5 6 -6 5 -5 6 -4 5 -4 5 -3 7 -1 
4 -2 7 0 5 1 6 2 8 2 3 3 14 4 9 2 
0 8 7 5 6 6 12 6 9 3 -2 9 9 7 8 8 
5 7 11 9 5 10 8 10 8 10 7 13 8 12 5 13 
14 12 14 15 -2 16 6 14 19 15 5 15 1 17 11 14 
7 14 7 15 9 13 6 13 13 11 4 11 -1 9 8 8 
8 7 11 5 8 5 11 4 19 2 0 2 2 0 20 2 
10 -1 11 0 18 -1 1 3 -3 1 9 2 9 3 8 3 
9 5 9 6 9 7 3344 2353 100 MP stroke
6 7 13 10 15 9 7 11 8 13 10 12 8 13 6 14 
1 14 9 14 8 14 6 15 10 14 5 14 10 13 15 12 
8 12 7 11 8 10 6 9 7 8 7 7 6 6 8 5 
3 4 3 3 8 2 6 2 5 1 7 1 5 0 6 0 
6 -1 5 0 6 -1 5 0 6 0 5 0 5 0 4 0 
5 1 6 0 5 1 7 2 4 1 5 2 6 2 3 2 
5 3 4 3 6 3 10 3 4 4 4 3 5 4 4 4 
4 4 4 4 5 4 4 4 4 4 3 4 4 4 4 3 
4 4 4 2 3 3 4 2 4 2 4 1 4 2 3 0 
4 0 4 0 5 0 4 -1 2 -1 4 -2 3 -1 3 -2 
4 -2 1 -3 3 -2 2 -3 2 -4 0 -3 1 -5 1 -4 
1 -6 0 -5 1 -6 1 -7 0 -7 -1 -8 -1 -7 0 -9 
-1 -8 -2 -8 -1 -8 2880 2102 100 MP stroke
-1 -9 -1 -8 -2 -8 -1 -7 -2 -8 -3 -7 -3 -7 -3 -6 
-2 -6 -4 -7 -4 -6 -2 -6 -4 -6 -6 -6 -4 -7 -3 -6 
-4 -6 -5 -7 -4 -6 -5 -7 -7 -7 -5 -6 -4 -6 -6 -7 
-5 -6 -5 -6 -6 -5 -7 -5 -6 -5 -5 -4 -6 -4 -6 -3 
-6 -3 -7 -3 -9 -2 -7 -2 -4 -1 -7 -1 -7 -1 -8 0 
-6 0 -7 0 -7 1 -6 1 -7 1 -7 2 -6 2 -9 3 
-7 3 -7 3 -9 3 -9 4 -8 4 -9 4 -9 4 -9 4 
-9 5 -9 4 -9 5 -9 4 -9 5 -8 4 -9 5 -8 6 
-9 5 -12 6 -9 7 -11 6 -10 8 -8 7 -10 9 -11 8 
-12 9 -11 8 -10 9 -10 9 -11 9 -12 8 -12 7 -10 7 
-13 7 -11 5 -10 5 -12 3 -14 3 -12 1 -13 1 -13 0 
-12 -1 -13 -2 -14 -3 -12 -2 -11 -3 -14 -3 -12 -2 -13 -3 
-14 -1 -11 -1 -14 -1 3664 2113 100 MP stroke
-14 0 -13 1 -14 2 -14 2 -14 3 -12 3 -12 3 -12 4 
-14 4 -15 4 -12 3 -12 3 -12 3 -11 2 -14 2 -11 1 
-12 1 -14 0 -11 -1 -12 -2 -13 -3 -12 -3 -11 -2 -14 0 
-15 -2 -12 -2 -13 -2 -12 -1 -11 0 -9 0 -14 0 -14 0 
-11 2 -10 0 -11 1 -11 1 -6 -1 -19 1 -19 1 2 2 
-8 -1 -12 -1 -6 2 -12 5 -8 3 -8 2 -9 1 -9 1 
-13 5 -6 1 -8 2 -6 4 -6 3 -7 2 -4 2 -9 5 
-4 3 -5 3 -6 4 -4 3 -12 4 -5 4 1 -1 -3 4 
-4 4 -8 4 -3 3 1 3 -3 1 -6 3 0 4 1 3 
-5 3 -1 5 -1 3 -1 3 0 17 2 3 0 1 1 2 
3 2 2 1 0 1 1 1 1 1 6 1 3 1 8 1 
-2 1 -1 0 7 2 1 0 1 0 6 1 16 -1 2 1 
-4 0 5 0 -5 0 4300 1948 100 MP stroke
8 -1 9 0 -1 -2 5 0 1 -2 12 -1 4 -1 1 -2 
13 -2 -1 -2 9 -2 7 -1 -1 -2 6 -2 4 -2 13 -2 
2 -2 5 -2 10 -1 -1 -2 6 -2 6 -2 7 -1 4 -2 
9 -1 12 -2 -1 -1 12 -1 6 -2 1 -1 7 -2 6 -1 
15 -1 1 -2 8 -1 12 -2 -2 -3 10 -1 5 -3 14 -2 
11 -3 -4 -3 13 -3 4 -3 6 -4 10 -3 5 -3 9 -3 
6 -4 8 -2 7 -3 13 -2 8 -3 -3 -2 12 -2 6 -2 
5 -2 10 -1 3 -3 12 0 4 -2 8 -1 18 -1 3 -2 
2 -1 10 -1 7 -1 8 -1 8 -1 6 -2 7 -1 7 -1 
5 -1 8 -1 7 0 10 -2 9 0 4 -1 11 -2 9 -1 
8 -1 8 -1 8 -2 8 -2 7 -2 9 -2 8 -2 8 -2 
11 -3 12 -3 7 -3 8 -3 19 -3 4 -3 1 -4 14 -3 
5 -4 10 -4 11 -4 3599 2137 100 MP stroke
7 -4 11 -4 7 -4 11 -4 8 -4 9 -4 10 -4 8 -4 
11 -3 9 -3 9 -4 10 -2 7 -3 13 -3 9 -3 10 -2 
12 -3 9 -2 10 -2 8 -3 10 -2 9 -2 9 -3 8 -2 
10 -3 10 -2 8 -3 10 -3 10 -3 9 -3 9 -3 10 -4 
11 -4 8 -4 11 -4 9 -4 8 -5 12 -5 7 -6 12 -5 
12 -7 11 -6 11 -7 9 -7 12 -7 8 -8 11 -8 11 -8 
9 -8 14 -8 8 -9 13 -9 9 -8 9 -8 26 -9 9 -8 
0 -7 11 -7 9 -7 11 -7 11 -7 10 -6 10 -6 10 -5 
9 -6 12 -6 9 -5 8 -5 12 -5 10 -6 12 -5 10 -5 
5 -6 22 -6 13 -6 -2 -4 9 -6 10 -6 8 -6 8 -6 
10 -6 8 -7 11 -6 21 -8 4 -5 2 -6 16 -6 6 -5 
8 -6 9 -5 6 -4 11 -4 6 -3 10 -3 11 -2 8 -2 
9 0 5 0 10 1 2641 2615 100 MP stroke
5 1 11 2 19 1 4 4 1 4 10 4 6 5 7 5 
8 5 7 5 6 5 5 5 8 7 9 5 8 6 6 6 
6 6 6 6 5 6 7 6 5 6 5 6 7 6 5 5 
7 6 4 6 5 4 7 5 4 4 6 3 4 3 4 2 
7 3 9 3 6 2 4 1 7 2 5 2 5 3 7 2 
3 3 6 3 4 3 8 4 12 4 0 6 8 5 10 5 
-2 7 6 6 5 6 2 5 7 5 7 7 6 5 5 5 
6 5 4 4 4 5 3 4 2 4 6 3 6 4 3 4 
4 3 4 4 3 4 3 4 3 4 1 5 5 5 5 5 
3 5 4 5 4 6 3 5 3 6 5 6 5 6 0 6 
3 6 4 6 3 6 5 6 2 6 4 6 3 6 1 6 
3 6 0 6 4 5 4 6 1 5 3 5 2 5 2 4 
1 4 1 4 2 3 2160 2155 100 MP stroke
2 3 0 2 2 2 1 2 1 2 1 1 1 1 0 2 
1 1 -1 1 0 1 1 2 -1 1 0 6 -1 3 -1 4 
0 4 -1 5 -1 5 -1 4 -2 6 0 5 -2 5 -2 4 
-2 5 -2 4 -1 4 -1 4 -2 3 -1 3 -3 2 -1 2 
-1 1 -1 1 -2 1 -2 0 -2 0 0 -1 -2 0 -2 -1 
-2 -1 -2 -1 -2 -1 -2 -1 -1 -1 -1 -1 -2 -1 -3 -1 
-2 0 -2 -1 -2 0 -2 0 -2 0 -2 0 -3 0 -2 1 
-3 0 -6 1 -2 1 -2 0 -4 1 2 1 -3 0 -2 0 
-7 -1 -3 -1 -1 -2 -3 -2 -2 -2 -2 -3 -3 -4 2 -4 
0 -5 -5 -4 -3 -6 -5 -5 -7 -6 -5 -5 -3 -6 -5 -5 
-4 -5 -4 -4 -5 -4 -5 -4 -5 -3 -5 -2 -5 -2 -6 -1 
-5 -2 -5 0 -6 -1 -6 0 -6 -1 -6 0 1 -1 -2 -1 
-12 -1 -6 -1 1 -2 2383 2155 100 MP stroke
-7 -2 -12 -2 -6 -3 -6 -3 -7 -3 -5 -4 2 -4 -4 -4 
-14 -4 -4 -4 0 -4 -8 -4 -15 -5 -8 -4 2 -5 -12 -4 
-6 -5 -2 -5 -15 -4 -7 -5 -11 -6 -7 -5 2 -6 -10 -5 
-6 -7 -6 -7 -8 -7 -3 -7 -8 -8 -5 -8 -8 -9 -6 -8 
-5 -9 -8 -9 -5 -8 -6 -8 -6 -7 -14 -8 -5 -6 2 -5 
-14 -5 0 -8 -23 -2 -6 -2 4 -2 -3 -2 -9 0 -15 -1 
-8 -1 -5 -1 -8 -2 -5 -2 -7 -3 -6 -3 4 -5 -2 -6 
-15 -5 -11 -7 -4 -8 -7 -8 -4 -10 1 -11 -7 -10 -21 -11 
-7 -12 0 -11 -13 -12 -2 -10 -4 -10 -5 -10 3 -11 -19 -4 
-9 -6 -1 -4 -17 -2 -3 -1 -3 1 -7 2 -5 4 -15 3 
-2 6 -3 6 -6 7 -6 6 -8 6 5 6 -8 6 -12 5 
3 4 -7 4 -7 2 -6 2 -6 1 -7 1 -5 -1 -8 0 
-25 -4 -7 -1 5 0 3028 2518 100 MP stroke
-5 -1 2 -1 -8 -1 -6 -1 -4 -1 -9 0 -3 0 -9 0 
-11 0 -1 0 -2 0 -12 -1 -7 0 1 0 -6 -1 -4 -2 
-5 -2 -4 -2 -11 -1 -16 -4 10 -1 -3 -4 -16 -3 3 -2 
-9 -3 -7 -4 0 -3 -12 -3 0 -3 -6 -4 -9 -3 2 -3 
-6 -2 -5 -3 -11 -2 -11 -1 9 -2 -9 1 -16 -1 8 3 
-10 2 -18 0 7 7 5 5 -5 5 -9 7 -2 6 0 7 
-6 7 -3 8 -4 7 -4 7 -2 7 -9 6 -4 7 1 5 
-4 6 -8 4 -2 5 0 3 -6 3 -2 2 -4 1 -4 1 
-2 -1 -7 0 -5 -1 1 -2 -5 -1 -8 -2 0 -2 -4 -1 
-6 -1 -12 -1 -1 1 4 2 -9 2 0 3 -3 3 -6 3 
1 4 -5 4 -2 4 -2 4 -6 4 1 3 -3 3 -7 3 
-1 2 0 2 -5 1 -5 1 -4 0 -4 -1 2 -1 -4 -1 
-4 -1 0 -2 -4 -1 3444 2431 100 MP stroke
-1 -1 -1 -1 -4 0 1 0 -4 0 0 1 -2 1 -5 2 
2 2 0 2 -1 3 0 3 -2 3 1 3 -2 3 1 3 
0 3 -1 3 1 3 -1 2 2 3 0 2 -1 2 2 2 
-1 2 2 2 0 2 1 1 1 1 -1 1 3 1 1 1 
0 1 2 0 1 1 -1 0 2 1 3 1 0 4 -1 2 
3 2 2 3 0 13 1 4 1 3 2 4 0 3 2 3 
1 3 -1 3 3 2 1 2 0 1 3 1 1 0 2 -1 
0 -1 2 -2 0 -2 3 -3 2 -3 -1 -3 1 -4 1 -4 
5 -4 2 -4 -2 -4 1 -3 0 -4 6 -3 1 -3 -3 -2 
8 -1 5 -2 -1 0 -1 1 5 1 3 1 -2 2 5 2 
5 2 -1 2 5 3 2 2 1 2 5 2 0 2 1 2 
5 2 0 2 6 2 3 3 0 3 6 3 1 3 2 4 
6 4 -2 4 5 5 3336 2313 100 MP stroke
8 4 -1 5 7 5 4 4 1 4 9 4 0 3 3 2 
5 2 7 1 8 0 -1 0 9 -1 4 -2 -1 -3 9 -2 
3 -3 12 -4 2 -3 -2 -3 16 -3 1 -3 4 -2 11 -1 
-1 -1 5 -1 5 0 6 1 4 1 6 1 12 1 2 2 
1 2 10 2 9 2 -1 1 10 2 5 0 -3 1 12 0 
8 -1 13 -1 -3 0 11 -1 2 -1 4 -1 9 -1 -1 -1 
11 0 2 -1 5 0 11 1 -1 0 11 2 2 1 8 2 
16 1 -6 3 2 2 11 2 3 3 0 2 13 3 7 2 
0 2 12 1 1 2 7 0 9 1 -1 -1 7 -1 6 -1 
13 -2 5 -3 2 -3 14 -3 -2 -3 13 -4 6 -4 1 -4 
19 -3 -8 -3 11 -3 17 -2 -5 -1 16 -1 5 0 2 1 
8 2 5 2 19 3 1 3 9 4 23 3 -3 5 -3 3 
17 4 5 3 3 3 2764 2279 100 MP stroke
18 2 -3 2 5 1 22 0 -1 -1 7 -2 5 -2 9 -3 
19 -3 -2 -4 12 -4 9 -4 0 -4 8 -4 6 -4 16 -3 
3 -3 5 -2 15 -2 -2 -1 6 -1 8 0 6 0 7 1 
8 1 6 1 6 1 16 1 2 2 6 1 12 1 -1 0 
6 1 6 0 12 -1 7 0 2 -1 12 -2 0 -1 9 -2 
6 -2 2 -2 12 -2 -1 -3 10 -2 4 -2 6 -3 19 -3 
-8 -1 3 -2 7 -2 2 -2 10 -2 2 -2 10 -1 5 -2 
5 -1 9 -1 1 -1 9 0 3 -1 6 0 7 0 2 1 
8 0 3 1 7 1 4 2 4 1 6 2 3 2 4 1 
-4 1 14 2 12 0 -2 1 6 1 2 -1 7 0 4 -1 
4 -2 8 -2 1 -3 10 -2 1 -4 8 -3 10 -4 -3 -3 
11 -4 2 -4 3 -5 9 -4 -1 -4 10 -4 1 -5 5 -4 
6 -5 1 -4 23 -5 2159 2412 100 MP stroke
8 -5 -6 -3 4 -3 -2 -4 1 -3 4 -2 9 -2 4 -1 
1 -1 10 0 -1 0 3 1 9 2 -1 1 9 3 6 2 
0 3 13 2 5 2 -5 3 7 1 10 1 -1 2 -1 1 
8 0 4 0 -1 0 7 -1 7 -1 0 -1 3 -1 5 -1 
4 -1 4 -1 5 -2 9 -1 1 -1 5 -2 10 -2 -3 -1 
6 -2 10 -1 -2 -2 10 -2 12 -2 -5 -2 2 -2 16 -1 
5 -2 -4 -1 5 -1 4 -1 4 -1 13 0 4 0 -4 -1 
21 2 29 -4 -4 3 -1 2 5 0 -9 0 16 1 24 -1 
-2 1 -1 -1 1 0 0 -2 14 0 18 -2 -2 0 -3 -2 
15 -1 1 -2 7 -2 10 -2 0 -2 19 -2 9 -3 -10 -2 
15 -1 19 -3 -2 -2 -3 -2 16 -2 3 -2 6 -3 25 -2 
-4 -2 -3 -2 18 -2 1 -2 7 -2 14 -2 -2 -3 6 -2 
16 -2 2 -3 7 -3 1631 2510 100 MP stroke
22 -4 -3 -2 -3 -3 17 -3 0 -3 8 -4 11 -4 -1 -4 
15 -4 4 -4 0 -4 11 -4 0 -7 10 -4 8 -4 2 -6 
15 -5 3 -5 8 -6 12 -6 -1 -5 14 -6 9 -7 -2 -3 
11 -4 6 -4 3 -3 7 -3 7 -2 6 -2 7 0 9 1 
7 0 6 2 8 1 6 2 7 1 6 2 8 2 6 1 
8 2 6 1 9 1 15 -1 1 3 2 0 9 0 4 0 
8 0 6 0 6 -1 7 -1 5 0 9 -1 4 -1 6 -2 
7 -1 4 -2 7 -3 3 -2 9 -3 10 -5 0 -1 4 -3 
6 -4 3 -2 6 -2 7 -3 3 -2 5 -1 5 0 4 0 
5 1 4 1 2 1 5 1 4 2 4 1 3 1 3 1 
3 0 1 0 3 0 1 -1 1 -1 2 -2 2 -1 2 -1 
0 -2 1 -1 1 -2 2 -1 1 0 0 -4 0 4 -1 1 
2 1 0 1 -2 3 1125 2654 100 MP stroke
0 2 -2 2 -2 3 -1 3 -1 4 -1 4 -2 4 -2 6 
-3 5 -1 7 -3 7 -5 8 -2 8 -4 9 -4 9 -4 9 
-5 10 -5 10 -5 11 -3 10 -5 10 -5 11 -4 10 -5 9 
-6 10 -5 9 -6 8 -5 8 -5 8 -4 8 -5 7 -6 7 
-6 7 -7 7 -7 6 -6 7 -7 7 -6 7 -7 6 -8 8 
-9 7 -6 7 -7 7 -10 8 -8 7 -6 8 -9 7 -9 8 
-9 7 -8 8 -9 7 -9 7 -9 7 -9 6 -11 7 -9 6 
-9 6 -11 7 -10 5 -9 6 -10 5 -9 6 -9 5 -9 4 
-10 5 -11 4 -10 4 -9 4 -11 4 -10 4 -11 3 -10 3 
-9 3 -12 3 -10 3 -10 2 -11 3 -10 3 -11 2 -11 3 
-10 2 -11 3 -11 2 -12 3 -10 2 -10 3 -13 3 -11 2 
-10 3 -11 2 -10 3 -11 2 -12 3 -10 2 -12 2 -13 3 
-10 2 -12 1 -13 2 1886 2107 100 MP stroke
-11 1 -14 1 -12 1 -13 0 -13 -1 -11 0 -14 -2 -11 -2 
-10 -2 -14 -3 -11 -4 -12 -4 -12 -6 -11 -5 -12 -6 -14 -6 
-11 -7 -15 -7 -13 -7 -11 -7 -12 -6 -11 -7 -12 -6 -11 -7 
-12 -4 -13 -5 -13 -4 -12 -3 -12 -5 -10 -3 -11 -4 -12 -4 
-13 -6 -12 -6 -14 -8 -14 -10 -11 -9 -12 -12 -11 -15 -13 -17 
-13 -20 -11 -20 -11 -21 -12 -24 -15 -26 -12 -28 -13 -28 -13 -29 
-9 -29 -13 -29 -11 -29 -13 -27 -12 -26 -11 -24 -14 -22 -10 -19 
-13 -18 -10 -15 -13 -13 -12 -11 -7 -10 -24 -8 -15 -7 2 -4 
-14 -4 -14 -4 -11 -2 -12 -1 -9 1 -12 1 -12 2 -10 3 
-11 4 -11 6 -11 6 -10 6 -10 7 -11 8 -11 7 -9 7 
-10 7 -9 6 -10 5 -9 5 -9 3 -9 3 -9 2 -9 2 
-8 1 -8 1 -8 0 -8 1 -8 1 -7 2 -9 2 -8 2 
-8 2 -8 2 -7 3 2996 2704 100 MP stroke
-7 1 -8 7 -7 4 -8 5 -7 5 -6 5 -7 6 -6 6 
-6 7 -8 7 -3 8 -9 8 -10 9 1 7 -17 9 -8 7 
9 8 -10 7 -1 6 -7 5 -14 3 2 3 -9 2 -4 1 
-2 -1 -10 -1 0 -2 -6 -3 -3 -3 -1 -4 -6 -4 0 -3 
-7 -3 -3 -3 1 -3 -7 0 -2 0 -1 1 -2 2 -6 4 
-3 4 2 7 -1 6 -1 8 -3 9 -1 10 1 9 -1 10 
0 19 -3 8 -1 8 1 6 -1 4 1 4 3 0 1 1 
-1 1 1 -3 -1 -3 1 -5 -1 -6 0 -7 2 -7 0 -7 
1 -7 2 -7 0 -7 3 -6 1 -6 0 -5 4 -4 -2 -4 
1 -3 4 -2 -1 -2 3 -1 2 -2 1 -1 4 -1 3 -2 
3 -1 1 -2 2 -2 2 -2 1 -3 2 -3 3 -3 2 -4 
0 -4 5 -4 0 -5 1 -4 3 -5 4 -4 4 -4 0 -2 
5 -5 3 -3 -2 -2 3141 2637 100 MP stroke
4 -3 1 -2 2 -3 6 -4 -1 -2 3 -3 2 -4 0 -4 
4 -3 1 -5 -1 -4 4 -6 1 -4 0 -5 3 -6 0 -33 
-1 -5 0 -5 -1 -4 -1 -4 -1 -4 -1 -2 -1 -4 -1 -2 
-1 -2 -1 -3 -1 -1 -1 -2 -1 -3 -2 -3 0 -3 -1 -3 
-1 -3 0 -4 -1 -5 0 -9 1 -5 -1 -5 1 -6 1 -5 
1 -5 2 -4 1 -4 2 -8 1 0 2 4 2 7 1 10 
1 10 1 9 1 13 1 12 1 12 1 11 1 8 1 6 
1 7 1 3 2 2 2 -1 1 -4 1 -5 2 -8 2 -5 
3 -5 0 -6 2 -6 2 -5 2 -7 3 -6 2 -6 3 -6 
3 -7 2 -4 3 -4 2 -4 4 -4 2 -2 4 0 4 -2 
2 -2 5 2 0 2 3 -1 3 -2 0 1 4 -2 1 -1 
1 -4 4 -5 -1 -7 1 -5 1 -7 2 -9 2 -10 0 -8 
2 -9 1 -10 3 -8 3020 2909 100 MP stroke
2 -9 0 -8 2 -5 1 -4 0 -6 1 -1 1 0 -1 1 
0 2 1 6 0 16 1 7 -1 7 0 11 2 4 1 2 
1 7 -1 0 0 -7 1 0 0 -15 -2 -1 0 3 -1 2 
0 3 -1 2 -1 1 -1 8 -1 8 -1 5 -1 7 -1 9 
0 10 -1 8 -1 10 0 11 1 12 0 24 1 14 0 13 
1 13 0 13 1 11 1 10 1 11 1 9 1 8 2 6 
1 5 1 3 2 2 1 2 2 3 1 2 1 1 1 1 
1 3 2 3 2 5 1 6 0 7 1 9 1 9 0 10 
1 11 0 23 1 13 0 25 1 13 1 11 1 12 0 12 
1 12 0 11 1 11 1 11 1 11 1 11 2 11 1 10 
1 12 1 11 1 11 1 11 1 10 1 10 0 18 -1 8 
1 7 1 6 0 10 1 4 0 3 1 2 0 2 1 1 
0 2 2 1 2 1 2966 2262 100 MP stroke
0 2 3 2 2 3 1 4 2 4 2 5 2 6 3 7 
3 7 2 8 2 8 4 8 3 8 4 7 4 7 3 7 
6 6 3 4 6 4 11 3 0 1 3 1 6 0 3 -2 
6 -2 6 -4 6 -4 6 -5 6 -6 7 -6 6 -7 7 -7 
7 -7 8 -9 7 -8 7 -9 9 -9 7 -9 7 -10 9 -10 
10 -10 10 -11 10 -11 10 -12 10 -13 10 -13 11 -14 10 -16 
11 -16 12 -16 11 -18 11 -19 12 -20 10 -22 11 -22 12 -22 
12 -24 12 -24 11 -25 12 -26 12 -24 12 -23 12 -22 12 -21 
14 -18 12 -15 14 -12 12 -8 11 -5 28 0 13 2 -3 8 
20 9 11 11 9 11 31 12 8 15 2 15 16 14 12 15 
12 15 13 14 13 14 14 15 13 14 12 14 13 14 12 13 
12 14 12 13 13 13 13 12 13 11 13 11 12 11 12 9 
12 9 12 9 12 8 2063 2421 100 MP stroke
11 6 11 7 12 6 11 5 11 5 12 4 11 4 12 3 
12 4 10 3 10 3 12 3 11 3 12 3 13 3 11 3 
12 4 10 3 11 3 12 4 10 3 10 3 12 3 10 3 
11 3 10 3 11 2 9 2 10 2 10 2 10 1 12 2 
9 1 11 1 10 0 10 1 12 1 6 1 17 2 12 1 
0 2 9 2 8 3 16 2 12 3 -2 3 9 4 8 3 
6 3 10 4 6 3 8 3 7 4 8 3 8 3 7 3 
8 2 7 3 7 2 6 2 8 2 10 2 7 2 7 2 
7 1 8 1 8 2 7 1 8 1 6 1 8 1 7 1 
6 1 7 1 6 0 6 1 8 0 6 0 6 0 6 0 
4 -1 5 0 5 -1 5 -1 9 -2 3 -1 0 -2 4 -2 
3 -2 5 -2 4 -2 4 -3 4 -2 3 -2 4 -2 3 -2 
3 -2 4 -2 3 -1 1259 2260 100 MP stroke
3 -1 3 -2 4 -1 5 -1 3 0 3 -1 4 -1 3 -1 
3 0 2 -1 3 -1 2 -2 4 -1 3 -1 1 -2 2 -2 
2 -2 3 -2 2 -2 2 -3 1 -2 1 -3 2 -3 1 -3 
2 -4 2 -3 0 -3 1 -4 2 -4 1 -3 1 -4 1 -4 
1 -4 1 -4 2 -4 2 -4 1 -4 1 -5 0 -4 2 -4 
2 -4 0 -4 1 -3 0 -11 -1 -3 -1 -3 -1 -3 0 -3 
-1 -3 -3 -2 -1 -3 -2 -2 -1 -2 -2 -2 -2 -1 -2 -2 
-1 -2 -2 -1 -2 -2 -1 -2 -2 -1 -2 -2 -2 -2 -2 -1 
-2 -2 -1 -2 -2 -2 -3 -2 -2 -2 -2 -2 -3 -2 -3 -1 
-4 -2 -2 -2 -2 -1 -4 -2 -3 -1 -4 -1 -4 0 -3 -1 
-4 0 -3 1 -4 0 -3 1 -5 1 -4 2 -4 1 -4 2 
-3 3 -3 2 -3 2 -3 3 -3 3 -4 3 -3 3 -3 4 
-3 4 -3 3 -3 4 1314 2407 100 MP stroke
-3 4 -2 4 -4 4 -3 4 -4 4 -4 4 -3 4 -3 4 
-4 4 -3 3 -4 4 -3 3 -3 3 -5 3 -4 3 -3 2 
-3 3 -4 2 -4 3 -3 2 -3 3 -3 2 -3 3 -5 2 
-3 3 -5 3 -7 2 0 4 -2 2 -6 4 -2 3 -5 3 
-4 3 -3 3 -5 3 -3 3 -4 4 -4 3 -4 3 -5 2 
-5 3 -6 3 -4 2 -4 3 -5 2 -6 2 -4 2 -4 2 
-4 1 -5 2 -5 1 -4 1 -5 1 -3 1 -5 1 -4 1 
-4 0 -9 0 -1 1 -1 0 -7 1 -3 0 -5 1 -5 0 
-4 1 -5 1 -5 1 -6 1 -6 2 -6 1 -7 2 -5 3 
-6 2 -5 2 -6 3 -6 3 -5 3 -6 2 -5 3 -5 3 
-5 2 -5 2 -4 2 -4 2 -4 1 -5 1 -4 1 -4 0 
-5 0 -2 -1 -8 -1 -7 -1 0 -1 -4 -2 -4 -2 -5 -2 
-8 -2 -3 -1 -6 -2 1742 2222 100 MP stroke
-5 -2 -5 -2 -3 -1 -3 -2 -6 -1 -4 -1 -12 -1 -3 0 
0 -1 -11 0 -7 0 -7 0 -7 1 -5 0 -9 1 -2 2 
-3 2 -6 2 -5 2 -12 3 -5 3 0 3 -8 3 -5 3 
-11 4 -16 2 -2 3 -2 3 -9 2 -6 2 -2 2 -5 0 
-9 1 -2 -1 -12 -1 -12 -1 1 -2 -13 -3 -5 -2 -3 -3 
-14 -4 -7 -3 -16 -3 -4 -4 -3 -2 -11 -2 2 -3 -18 -1 
-2 -2 2 -1 -25 0 -7 0 -14 0 1 1 -15 1 -7 1 
-2 1 -18 1 3 2 -5 1 -21 2 1 1 -9 2 -12 1 
1 1 -15 1 -3 1 -6 0 -12 1 1 0 -24 -1 -4 0 
10 -1 -19 0 0 -1 -5 -2 -12 -1 2 -1 -12 -2 -2 -1 
-5 -1 -9 -1 0 -1 -9 -1 -4 0 2 -1 -7 1 -5 0 
-10 1 -2 2 5 1 -12 2 -7 2 0 3 -10 2 0 3 
-2 3 -1 2 -2 2 2362 2200 100 MP stroke
-8 3 1 2 -11 1 -6 1 6 1 -7 0 -4 0 0 -1 
-3 -2 -3 -1 -5 -3 -2 -2 -4 -3 -4 -3 -6 -4 -4 -3 
3 -4 -10 -3 -4 -2 -1 -3 -8 -2 0 -1 -5 -1 -5 -1 
1 0 -5 0 -7 1 -2 2 1 1 -8 2 -5 1 0 2 
-3 1 -8 1 -3 0 1 0 -7 0 -5 -2 1 -1 -5 -3 
-2 -3 0 -3 -4 -4 -5 -5 -1 -5 0 -5 -9 -6 -4 -6 
0 -6 -5 -6 -4 -6 -5 -6 -5 -6 -4 -5 -5 -6 -6 -5 
-5 -5 -6 -4 -5 -4 -5 -3 -7 -3 -4 -3 -5 -1 -5 -2 
-5 0 -6 0 -6 1 -5 1 -6 2 -6 3 -6 3 -6 5 
-4 4 -5 5 -6 5 -5 6 -7 6 -4 4 -9 5 -11 5 
-1 5 -8 4 -12 3 -5 3 -7 2 -1 0 -5 1 -10 1 
-5 1 -9 -1 -6 -1 -7 -1 -8 -1 -5 -2 -9 -2 -5 -2 
-9 -2 -8 -2 -7 -1 2831 2274 100 MP stroke
-8 0 -7 -1 -9 0 -8 0 -9 3 -8 1 -8 3 -11 2 
-7 2 -10 2 -8 1 -7 0 -10 -2 -7 -3 -9 -6 -7 -8 
-8 -12 -9 -15 -8 -19 -9 -24 -8 -30 -10 -34 -9 -42 -8 -49 
-10 -57 -9 -68 -11 -81 3063 2711 28 MP stroke
gr

c8
0 sg
%%IncludeResource: font Helvetica
/Helvetica /WindowsLatin1Encoding 120 FMSR

2024  293 mt 
(Experiment 2a - Analog magnetometers - Bias of position) s
2502 4902 mt 
(Distance to center of sensor network [m]) s
 558 2769 mt  -90 rotate
(Bias [mm]) s
90 rotate

end %%Color Dict

eplot
%%EndObject

epage
end

showpage

%%Trailer
%%EOF
