%!PS-Adobe-2.0 EPSF-1.2
%%Creator: MATLAB, The MathWorks, Inc. Version 7.13.0.564 (R2011b). Operating System: Microsoft Windows 7.
%%Title: ..\figures\analog_par_ori_rmse.eps
%%CreationDate: 11/13/2012  17:43:24
%%DocumentNeededFonts: Helvetica
%%DocumentProcessColors: Cyan Magenta Yellow Black
%%Extensions: CMYK
%%Pages: 1
%%BoundingBox:    52   196   542   602
%%EndComments

%%BeginProlog
% MathWorks dictionary
/MathWorks 160 dict begin
% definition operators
/bdef {bind def} bind def
/ldef {load def} bind def
/xdef {exch def} bdef
/xstore {exch store} bdef
% operator abbreviations
/c  /clip ldef
/cc /concat ldef
/cp /closepath ldef
/gr /grestore ldef
/gs /gsave ldef
/mt /moveto ldef
/np /newpath ldef
/cm /currentmatrix ldef
/sm /setmatrix ldef
/rm /rmoveto ldef
/rl /rlineto ldef
/s {show newpath} bdef
/sc {setcmykcolor} bdef
/sr /setrgbcolor ldef
/sg /setgray ldef
/w /setlinewidth ldef
/j /setlinejoin ldef
/cap /setlinecap ldef
/rc {rectclip} bdef
/rf {rectfill} bdef
% page state control
/pgsv () def
/bpage {/pgsv save def} bdef
/epage {pgsv restore} bdef
/bplot /gsave ldef
/eplot {stroke grestore} bdef
% orientation switch
/portraitMode 0 def /landscapeMode 1 def /rotateMode 2 def
% coordinate system mappings
/dpi2point 0 def
% font control
/FontSize 0 def
/FMS {/FontSize xstore findfont [FontSize 0 0 FontSize neg 0 0]
  makefont setfont} bdef
/ISOLatin1Encoding where {pop /WindowsLatin1Encoding 256 array bdef
ISOLatin1Encoding WindowsLatin1Encoding copy pop
/.notdef/.notdef/quotesinglbase/florin/quotedblbase/ellipsis/dagger
/daggerdbl/circumflex/perthousand/Scaron/guilsinglleft/OE/.notdef/.notdef
/.notdef/.notdef/quoteleft/quoteright/quotedblleft/quotedblright/bullet
/endash/emdash/tilde/trademark/scaron/guilsinglright/oe/.notdef/.notdef
/Ydieresis WindowsLatin1Encoding 128 32 getinterval astore pop}
{/WindowsLatin1Encoding StandardEncoding bdef} ifelse
/reencode {exch dup where {pop load} {pop StandardEncoding} ifelse
  exch dup 3 1 roll findfont dup length dict begin
  { 1 index /FID ne {def}{pop pop} ifelse } forall
  /Encoding exch def currentdict end definefont pop} bdef
/isroman {findfont /CharStrings get /Agrave known} bdef
/FMSR {3 1 roll 1 index dup isroman {reencode} {pop pop} ifelse
  exch FMS} bdef
/csm {1 dpi2point div -1 dpi2point div scale neg translate
 dup landscapeMode eq {pop -90 rotate}
  {rotateMode eq {90 rotate} if} ifelse} bdef
% line types: solid, dotted, dashed, dotdash
/SO { [] 0 setdash } bdef
/DO { [.5 dpi2point mul 4 dpi2point mul] 0 setdash } bdef
/DA { [6 dpi2point mul] 0 setdash } bdef
/DD { [.5 dpi2point mul 4 dpi2point mul 6 dpi2point mul 4
  dpi2point mul] 0 setdash } bdef
% macros for lines and objects
/L {lineto stroke} bdef
/MP {3 1 roll moveto 1 sub {rlineto} repeat} bdef
/AP {{rlineto} repeat} bdef
/PDlw -1 def
/W {/PDlw currentlinewidth def setlinewidth} def
/PP {closepath eofill} bdef
/DP {closepath stroke} bdef
/MR {4 -2 roll moveto dup  0 exch rlineto exch 0 rlineto
  neg 0 exch rlineto closepath} bdef
/FR {MR stroke} bdef
/PR {MR fill} bdef
/L1i {{currentfile picstr readhexstring pop} image} bdef
/tMatrix matrix def
/MakeOval {newpath tMatrix currentmatrix pop translate scale
0 0 1 0 360 arc tMatrix setmatrix} bdef
/FO {MakeOval stroke} bdef
/PO {MakeOval fill} bdef
/PD {currentlinewidth 2 div 0 360 arc fill
   PDlw -1 eq not {PDlw w /PDlw -1 def} if} def
/FA {newpath tMatrix currentmatrix pop translate scale
  0 0 1 5 -2 roll arc tMatrix setmatrix stroke} bdef
/PA {newpath tMatrix currentmatrix pop	translate 0 0 moveto scale
  0 0 1 5 -2 roll arc closepath tMatrix setmatrix fill} bdef
/FAn {newpath tMatrix currentmatrix pop translate scale
  0 0 1 5 -2 roll arcn tMatrix setmatrix stroke} bdef
/PAn {newpath tMatrix currentmatrix pop translate 0 0 moveto scale
  0 0 1 5 -2 roll arcn closepath tMatrix setmatrix fill} bdef
/vradius 0 def /hradius 0 def /lry 0 def
/lrx 0 def /uly 0 def /ulx 0 def /rad 0 def
/MRR {/vradius xdef /hradius xdef /lry xdef /lrx xdef /uly xdef
  /ulx xdef newpath tMatrix currentmatrix pop ulx hradius add uly
  vradius add translate hradius vradius scale 0 0 1 180 270 arc 
  tMatrix setmatrix lrx hradius sub uly vradius add translate
  hradius vradius scale 0 0 1 270 360 arc tMatrix setmatrix
  lrx hradius sub lry vradius sub translate hradius vradius scale
  0 0 1 0 90 arc tMatrix setmatrix ulx hradius add lry vradius sub
  translate hradius vradius scale 0 0 1 90 180 arc tMatrix setmatrix
  closepath} bdef
/FRR {MRR stroke } bdef
/PRR {MRR fill } bdef
/MlrRR {/lry xdef /lrx xdef /uly xdef /ulx xdef /rad lry uly sub 2 div def
  newpath tMatrix currentmatrix pop ulx rad add uly rad add translate
  rad rad scale 0 0 1 90 270 arc tMatrix setmatrix lrx rad sub lry rad
  sub translate rad rad scale 0 0 1 270 90 arc tMatrix setmatrix
  closepath} bdef
/FlrRR {MlrRR stroke } bdef
/PlrRR {MlrRR fill } bdef
/MtbRR {/lry xdef /lrx xdef /uly xdef /ulx xdef /rad lrx ulx sub 2 div def
  newpath tMatrix currentmatrix pop ulx rad add uly rad add translate
  rad rad scale 0 0 1 180 360 arc tMatrix setmatrix lrx rad sub lry rad
  sub translate rad rad scale 0 0 1 0 180 arc tMatrix setmatrix
  closepath} bdef
/FtbRR {MtbRR stroke } bdef
/PtbRR {MtbRR fill } bdef
/stri 6 array def /dtri 6 array def
/smat 6 array def /dmat 6 array def
/tmat1 6 array def /tmat2 6 array def /dif 3 array def
/asub {/ind2 exch def /ind1 exch def dup dup
  ind1 get exch ind2 get sub exch } bdef
/tri_to_matrix {
  2 0 asub 3 1 asub 4 0 asub 5 1 asub
  dup 0 get exch 1 get 7 -1 roll astore } bdef
/compute_transform {
  dmat dtri tri_to_matrix tmat1 invertmatrix 
  smat stri tri_to_matrix tmat2 concatmatrix } bdef
/ds {stri astore pop} bdef
/dt {dtri astore pop} bdef
/db {2 copy /cols xdef /rows xdef mul dup 3 mul string
  currentfile exch readhexstring pop
  dup 0 3 index getinterval /rbmap xdef
  dup 2 index dup getinterval /gbmap xdef
  1 index dup 2 mul exch getinterval /bbmap xdef pop pop}bdef
/it {gs np dtri aload pop moveto lineto lineto cp c
  cols rows 8 compute_transform 
  rbmap gbmap bbmap true 3 colorimage gr}bdef
/il {newpath moveto lineto stroke}bdef
currentdict end def
%%EndProlog

%%BeginSetup
MathWorks begin

0 cap

end
%%EndSetup

%%Page: 1 1
%%BeginPageSetup
%%PageBoundingBox:    52   196   542   602
MathWorks begin
bpage
%%EndPageSetup

%%BeginObject: obj1
bplot

/dpi2point 12 def
portraitMode 0204 7344 csm

  422   110  5883  4881 MR c np
85 dict begin %Colortable dictionary
/c0 { 0.000000 0.000000 0.000000 sr} bdef
/c1 { 1.000000 1.000000 1.000000 sr} bdef
/c2 { 0.900000 0.000000 0.000000 sr} bdef
/c3 { 0.000000 0.820000 0.000000 sr} bdef
/c4 { 0.000000 0.000000 0.800000 sr} bdef
/c5 { 0.910000 0.820000 0.320000 sr} bdef
/c6 { 1.000000 0.260000 0.820000 sr} bdef
/c7 { 0.000000 0.820000 0.820000 sr} bdef
c0
1 j
1 sg
   0    0 6913 5185 PR
6 w
0 4225 5356 0 0 -4225 899 4614 4 MP
PP
-5356 0 0 4225 5356 0 0 -4225 899 4614 5 MP stroke
4 w
DO
SO
6 w
0 sg
 899  389 mt 6255  389 L
 899 4614 mt 6255 4614 L
6255 4614 mt 6255  389 L
 899 4614 mt  899  389 L
 899 4614 mt 6255 4614 L
 899 4614 mt  899  389 L
 899 4614 mt  899 4614 L
 899 4614 mt  899 4614 L
 899 4614 mt  899 4614 L
 899 4614 mt  899 4614 L
 899 4614 mt  899 4614 L
 899 4614 mt  899 4614 L
 899 4614 mt  899 4614 L
 899 4614 mt  899 4614 L
 899 4614 mt  899 4614 L
 899 4614 mt  899 4614 L
 899 4614 mt  899 4614 L
 899 4614 mt  899 4614 L
 899 4614 mt  899 4614 L
 899 4614 mt  899 4614 L
 899 4614 mt  899 4614 L
 899 4614 mt  899 4614 L
 899 4614 mt  899 4614 L
 899 4614 mt  899 4614 L
1583 4614 mt 1583 4560 L
1583  389 mt 1583  442 L
%%IncludeResource: font Helvetica
/Helvetica /WindowsLatin1Encoding 120 FMSR

1438 4796 mt 
(10) s
%%IncludeResource: font Helvetica
/Helvetica /WindowsLatin1Encoding 80 FMSR

1571 4722 mt 
(-0.8) s
 899 4614 mt  899 4614 L
 899 4614 mt  899 4614 L
 899 4614 mt  899 4614 L
 899 4614 mt  899 4614 L
 899 4614 mt  899 4614 L
 899 4614 mt  899 4614 L
 899 4614 mt  899 4614 L
 899 4614 mt  899 4614 L
 899 4614 mt  899 4614 L
 899 4614 mt  899 4614 L
 899 4614 mt  899 4614 L
 899 4614 mt  899 4614 L
 899 4614 mt  899 4614 L
 899 4614 mt  899 4614 L
 899 4614 mt  899 4614 L
 899 4614 mt  899 4614 L
 899 4614 mt  899 4614 L
 899 4614 mt  899 4614 L
2956 4614 mt 2956 4560 L
2956  389 mt 2956  442 L
%%IncludeResource: font Helvetica
/Helvetica /WindowsLatin1Encoding 120 FMSR

2811 4796 mt 
(10) s
%%IncludeResource: font Helvetica
/Helvetica /WindowsLatin1Encoding 80 FMSR

2944 4722 mt 
(-0.7) s
 899 4614 mt  899 4614 L
 899 4614 mt  899 4614 L
 899 4614 mt  899 4614 L
 899 4614 mt  899 4614 L
 899 4614 mt  899 4614 L
 899 4614 mt  899 4614 L
 899 4614 mt  899 4614 L
 899 4614 mt  899 4614 L
 899 4614 mt  899 4614 L
 899 4614 mt  899 4614 L
 899 4614 mt  899 4614 L
 899 4614 mt  899 4614 L
 899 4614 mt  899 4614 L
 899 4614 mt  899 4614 L
 899 4614 mt  899 4614 L
 899 4614 mt  899 4614 L
 899 4614 mt  899 4614 L
 899 4614 mt  899 4614 L
4330 4614 mt 4330 4560 L
4330  389 mt 4330  442 L
%%IncludeResource: font Helvetica
/Helvetica /WindowsLatin1Encoding 120 FMSR

4185 4796 mt 
(10) s
%%IncludeResource: font Helvetica
/Helvetica /WindowsLatin1Encoding 80 FMSR

4318 4722 mt 
(-0.6) s
 899 4614 mt  899 4614 L
 899 4614 mt  899 4614 L
 899 4614 mt  899 4614 L
 899 4614 mt  899 4614 L
 899 4614 mt  899 4614 L
 899 4614 mt  899 4614 L
 899 4614 mt  899 4614 L
 899 4614 mt  899 4614 L
 899 4614 mt  899 4614 L
 899 4614 mt  899 4614 L
 899 4614 mt  899 4614 L
 899 4614 mt  899 4614 L
 899 4614 mt  899 4614 L
 899 4614 mt  899 4614 L
 899 4614 mt  899 4614 L
 899 4614 mt  899 4614 L
 899 4614 mt  899 4614 L
 899 4614 mt  899 4614 L
5703 4614 mt 5703 4560 L
5703  389 mt 5703  442 L
%%IncludeResource: font Helvetica
/Helvetica /WindowsLatin1Encoding 120 FMSR

5558 4796 mt 
(10) s
%%IncludeResource: font Helvetica
/Helvetica /WindowsLatin1Encoding 80 FMSR

5691 4722 mt 
(-0.5) s
 899 4614 mt  899 4614 L
 899 4614 mt  899 4614 L
 899 4614 mt  899 4614 L
 899 4614 mt  899 4614 L
 899 4614 mt  899 4614 L
 899 4614 mt  899 4614 L
 899 4614 mt  899 4614 L
 899 4614 mt  899 4614 L
 899 4614 mt  899 4614 L
 899 4614 mt  899 4614 L
 899 4614 mt  899 4614 L
 899 4614 mt  899 4614 L
 899 4614 mt  899 4614 L
 899 4614 mt  899 4614 L
 899 4614 mt  899 4614 L
 899 4614 mt  899 4614 L
 899 4614 mt  899 4614 L
 899 4614 mt  899 4614 L
 899 3710 mt  925 3710 L
6255 3710 mt 6228 3710 L
 899 3933 mt  925 3933 L
6255 3933 mt 6228 3933 L
 899 4182 mt  925 4182 L
6255 4182 mt 6228 4182 L
 899 4465 mt  925 4465 L
6255 4465 mt 6228 4465 L
 899 3710 mt  952 3710 L
6255 3710 mt 6201 3710 L
%%IncludeResource: font Helvetica
/Helvetica /WindowsLatin1Encoding 120 FMSR

 640 3754 mt 
(10) s
%%IncludeResource: font Helvetica
/Helvetica /WindowsLatin1Encoding 80 FMSR

 773 3680 mt 
(0) s
 899 2243 mt  925 2243 L
6255 2243 mt 6228 2243 L
 899 1384 mt  925 1384 L
6255 1384 mt 6228 1384 L
 899  775 mt  925  775 L
6255  775 mt 6228  775 L
 899  389 mt 6255  389 L
 899 4614 mt 6255 4614 L
6255 4614 mt 6255  389 L
 899 4614 mt  899  389 L
gs 899 389 5357 4226 MR c np
/c8 { 0.000000 0.000000 1.000000 sr} bdef
c8
22 18 23 -227 22 -147 22 191 24 -79 22 -6 21 161 23 -55 
23 -54 22 91 22 257 23 49 21 -48 22 53 22 -161 22 -31 
22 163 21 39 22 -178 21 55 21 158 22 -181 21 104 21 137 
21 5 20 26 22 -210 20 -88 20 134 20 19 21 45 21 67 
20 -15 21 17 20 25 21 -11 21 26 20 24 21 -29 20 -11 
20 91 20 -50 21 -86 21 36 19 -40 20 94 21 32 21 -170 
18 -90 19 -20 22 27 18 3 22 -65 20 -1 20 -11 20 -58 
19 -32 20 81 19 77 21 -67 21 -18 18 -93 20 -21 17 28 
17 -49 20 60 19 -22 18 -27 17 22 19 28 19 25 18 -97 
19 -40 18 38 18 -12 16 -23 20 -22 20 20 14 -21 16 37 
20 78 17 -23 18 -69 18 -56 15 -30 17 -12 20 96 17 93 
18 13 18 30 15 -106 16 -76 19 108 19 -37 16 -20 17 48 
15 -47 16 -12 18 -67 4305 1640 100 MP stroke
17 23 18 -73 15 13 17 115 16 -50 15 -28 18 61 14 -15 
16 -3 17 1 13 -142 16 -62 15 109 16 53 14 -76 16 -152 
16 -79 13 -79 15 29 14 210 15 44 14 -105 14 -3 15 4 
12 -4 16 85 13 10 14 -54 14 10 12 9 15 55 12 -85 
12 -135 14 11 13 90 14 -60 12 -2 16 54 12 -86 14 -12 
14 -54 10 -131 17 84 8 -62 17 43 26 191 1 -137 6 -70 
18 79 8 123 15 9 10 -144 9 -131 25 73 10 36 -1 -82 
15 76 10 -23 10 -120 13 12 9 -12 13 -27 9 -45 11 -33 
12 45 9 125 13 -43 8 -145 11 -86 11 -2 9 224 11 -13 
8 -178 13 -48 9 120 12 34 12 -75 6 -39 22 237 14 74 
-2 -280 11 21 12 164 7 -39 11 26 9 -38 10 121 11 35 
10 -180 11 -3 10 -135 9 4 10 204 10 54 10 -95 9 -22 
10 -4 9 -16 11 -4 3080 2261 100 MP stroke
10 6 10 127 12 -5 7 -145 17 51 19 116 -2 -44 8 -99 
14 31 8 174 14 8 9 -119 10 29 12 38 8 -30 12 -12 
10 2 12 -12 12 55 10 172 12 7 11 53 10 4 11 -6 
10 0 10 -176 23 76 11 35 -2 -22 15 81 9 92 9 5 
13 -42 7 -30 13 -19 7 149 11 4 13 41 9 3 12 7 
9 30 12 -46 10 18 10 -63 12 -45 8 22 14 29 12 52 
11 16 12 -19 10 1 13 -50 10 70 13 15 11 -9 10 91 
12 18 8 -15 13 -6 11 19 12 -18 11 -85 9 23 11 18 
9 0 12 97 13 14 10 -56 11 -34 8 49 13 36 11 53 
13 37 9 -45 10 -44 13 -95 9 -4 13 143 11 70 12 15 
13 -15 8 -24 13 -31 10 9 11 67 11 -6 9 -6 12 46 
9 23 13 -22 10 3 9 13 10 -16 11 22 9 -20 13 22 
20 77 1 -15 4 -14 2017 1241 100 MP stroke
16 11 6 7 13 0 9 10 9 -5 13 16 7 21 13 -18 
9 -28 11 -37 10 -8 8 21 13 46 7 8 12 -36 10 3 
10 29 11 9 8 13 11 -33 6 -6 8 74 9 39 8 -27 
11 -52 5 -20 10 40 7 10 7 -26 10 -7 4 -10 8 28 
6 58 7 -14 6 -16 5 0 7 -32 4 -5 6 43 6 21 
5 -4 3 8 13 -133 13 -39 -12 226 7 -53 20 -209 3 -15 
6 -31 3 -19 5 -8 3 2 6 -49 10 5 -10 182 -5 88 
6 -31 5 5 5 -9 1 -15 4 29 -1 60 6 -72 13 -243 
0 -3 0 45 2 9 -2 99 1 -52 3 -2 -1 0 -2 -63 
-11 145 -11 109 0 -26 -3 59 -4 -17 -4 -16 -6 1 -3 -67 
-5 15 -5 -6 -4 13 -5 31 -5 -11 -4 -8 -6 3 -5 -61 
5 -249 -1 -50 -10 62 -4 -34 -8 49 0 -151 -5 -15 -9 132 
-1 -113 -15 188 -14 191 1704 1232 100 MP stroke
-6 -67 -6 9 -5 -25 -6 2 -4 -12 -7 -12 -8 56 -6 -50 
-7 -34 -6 23 -8 1 -6 -5 -7 -48 -7 -16 -6 28 -8 8 
-6 20 -8 -8 -8 -24 -6 -62 -7 10 -7 94 -7 -40 -6 -64 
-7 33 -7 25 -8 -17 -5 -96 -5 -93 -8 13 -6 43 -10 154 
-9 32 -7 -57 -6 -27 -3 -141 -4 -68 -7 -19 -11 82 -9 99 
-3 -129 -9 26 -9 108 -6 92 -6 -25 -2 -213 -5 -82 -5 -91 
-10 79 -6 62 -2 -23 -8 122 -3 -174 -10 169 -6 79 0 -285 
-8 217 -4 -84 -3 -167 -7 117 -5 -25 -6 2 -4 -17 -7 106 
-3 -55 -2 -251 -7 -17 -6 -50 -8 240 -7 153 -5 -175 -6 88 
-5 -13 -5 -14 -3 -135 -4 -140 -5 125 -3 -135 -5 -74 -6 41 
-4 35 -7 211 -4 -84 -5 5 -4 -47 -3 -211 -5 60 -4 -57 
-5 -50 -5 -57 -4 -64 -4 418 -5 62 -5 -148 -4 102 -4 15 
-4 81 -3 -19 -4 -69 2271 1850 100 MP stroke
-2 34 -4 -61 -4 14 -4 -26 -3 -80 -4 -17 -4 -18 -2 116 
-4 -49 -3 17 -4 -12 -6 -536 -1 112 -5 477 -5 -120 0 29 
-3 31 -3 -108 -3 4 -3 -36 -4 26 -6 6 0 25 -1 60 
-5 -54 -3 5 -3 -7 -3 -29 -3 55 -4 -14 -3 -16 -3 -37 
-3 -15 -2 2 -3 40 -2 42 -2 -29 -3 -51 -3 4 -4 39 
0 -73 -4 -39 -4 55 3 -8 -2 7 -3 -32 0 -27 -4 66 
-1 -7 -2 -60 -4 -11 1 7 -3 24 -3 -31 -4 18 -4 4 
0 -50 -5 20 0 76 -1 -36 -7 -35 -2 19 0 -12 -3 -8 
-5 -34 -2 -9 0 -15 -7 -115 -4 18 0 61 -4 7 -2 36 
-5 -82 -5 -63 -1 20 -6 53 -10 61 -3 16 3 20 -4 -89 
-3 -72 -3 113 -7 4 -1 1 -2 36 -4 -11 -3 -9 -8 -72 
0 -12 -7 8 -9 -44 6 78 -5 22 -7 -42 1 16 -3 -31 
-5 -12 -7 4 3 24 2569 2274 100 MP stroke
-5 28 -14 -13 -1 31 -1 19 2 52 -3 0 -11 -113 0 -36 
1 -50 -3 79 -5 35 0 -62 -6 -39 -2 -9 -3 22 -8 4 
2 65 -9 32 -2 -56 1 29 -14 15 2 -28 -6 9 -19 24 
-1 -40 2 -84 -2 -14 2 -13 -2 8 -10 70 -1 7 3 -111 
-6 -6 -2 -21 -1 0 -6 100 0 54 -2 28 -3 15 -4 -76 
-3 -37 -4 91 -4 13 -2 32 -5 7 -3 2 -4 21 -4 -95 
-3 -48 -6 40 0 52 -9 70 -5 -4 0 -53 -8 -24 0 24 
-6 6 -5 -10 -1 -17 -9 -51 1 -30 -15 0 -13 -48 7 90 
-4 33 2 71 1 -13 -5 -100 -7 -88 -10 89 5 73 -2 35 
-11 -71 -2 -8 1 -7 -1 12 -4 -63 -3 1 -10 -45 -3 16 
3 -6 -3 62 -4 -57 -10 -38 -1 -7 4 108 -9 -72 -5 -68 
1 8 0 93 -8 -77 -4 -22 5 -24 -6 109 -3 1 0 46 
-5 -4 0 -64 -3 -64 2908 2429 100 MP stroke
-2 30 -1 -59 -4 122 -1 19 1 -15 -2 -97 -1 55 0 -47 
-1 80 -3 -23 0 -70 -1 -9 -1 131 0 -24 -1 18 0 -20 
-1 20 0 -105 0 77 -1 -45 1 66 0 -65 0 47 1 12 
1 0 0 -48 2 87 0 -78 -1 11 3 9 0 45 1 -41 
2 94 0 -7 2 -41 1 -86 2 92 2 -61 0 -20 3 -2 
1 69 2 -32 3 15 2 -55 2 -9 3 -21 4 -11 2 65 
2 -33 3 26 1 -12 4 -27 3 57 3 -3 1 -35 2 25 
3 28 0 -14 5 76 0 -139 -4 -364 2 -15 2 0 2 -137 
2 95 2 18 3 2 3 39 1 -215 9 379 12 424 1 -36 
3 -96 4 9 2 41 5 62 1 -104 2 -4 4 -24 2 -8 
4 -8 2 -11 3 -45 3 52 3 3 1 5 1 -26 3 73 
1 62 2 44 1 -62 0 -29 1 41 1 -4 2 -57 -1 17 
0 4 0 -28 -1 -3 2777 2313 100 MP stroke
1 16 -2 40 0 9 -1 -38 -1 -60 -1 -41 -3 36 0 133 
-3 9 -15 -396 -10 -151 8 405 5 193 -8 -170 -17 -461 -4 -82 
-1 192 -11 -138 5 224 5 441 -7 -2 -4 -18 -6 35 -5 15 
-5 -108 -5 -61 -5 48 -6 -4 -5 3 -6 42 -5 1 -5 8 
-5 24 -6 8 -7 -85 -4 -43 -6 43 -5 38 -6 47 -7 25 
-5 -35 -8 -139 -4 6 -7 81 -6 -37 -5 -19 -7 48 -5 131 
-9 -42 -5 4 -8 -24 -19 -557 -13 -80 5 562 3 242 -9 -54 
-7 -111 -6 -8 -7 -54 -5 -9 -8 -15 -5 -95 -7 37 -7 108 
-6 13 -8 -10 -6 26 -7 14 -7 27 -8 57 -8 -25 -7 -2 
-8 37 -7 -33 -8 -73 -9 -44 -7 32 -9 -3 -6 -29 -9 -4 
-8 35 -8 5 -9 -25 -6 -44 -9 -42 -8 32 -9 27 -9 17 
-8 62 -9 -46 -8 -104 -10 -34 -10 87 -10 64 -10 41 -9 -14 
-11 146 -10 6 -11 24 3386 1976 100 MP stroke
-11 78 -9 -21 -11 10 -10 -79 -11 34 -11 -112 -10 -70 -11 -11 
-9 1 -12 39 -11 8 -10 134 -11 87 -10 -34 -11 26 -11 -39 
-12 -82 -10 40 -10 101 -11 17 -10 -33 -11 35 -10 18 -10 -47 
-10 2 -9 68 -10 66 -9 25 -10 -105 -9 21 -9 32 -8 -14 
-9 -43 -8 118 -8 -63 -8 -30 -7 43 -9 -43 -3 126 -14 -179 
-17 -261 -5 -6 -6 -103 5 267 4 225 -11 -156 -3 58 -6 9 
-6 34 -3 29 -7 -64 -3 -36 -6 -24 -3 -3 -4 -51 -6 6 
-1 81 -6 17 -2 0 -4 -99 -3 21 -1 -44 -4 -31 -1 -10 
-3 -18 -1 48 -2 6 -3 38 0 -23 -2 14 1 140 -2 10 
-1 -72 0 108 -2 -19 1 16 -1 -11 1 -121 1 -6 -1 110 
1 -40 -1 -98 2 39 1 60 -1 -6 2 -38 1 -67 3 3 
0 -11 4 37 3 49 0 26 5 80 1 -3 5 -47 6 -88 
-1 -22 4 34 3 -59 3854 1924 100 MP stroke
4 -12 4 -42 4 -19 5 -61 4 -54 6 36 5 -14 6 80 
5 -84 6 3 6 116 5 -74 7 -82 6 -83 6 -3 7 -34 
7 -14 8 87 8 -106 7 4 7 3 16 -135 5 104 -1 -89 
15 59 1 -187 0 -751 31 526 11 308 -13 -614 14 -83 18 242 
-2 101 16 197 16 84 0 -362 9 -76 9 -52 7 -311 10 14 
10 230 10 -38 10 -186 9 28 11 -120 21 -68 6 15 -1 -138 
19 53 9 188 10 164 12 19 5 -84 19 243 13 237 11 -1 
9 -118 1 -556 9 -12 8 355 12 -74 7 -62 8 -149 21 -106 
3 -98 3 -215 10 213 10 114 18 -200 1 -120 4 266 16 69 
3 -44 14 26 16 -189 1 29 4 -109 18 -128 13 213 -3 -90 
11 -41 20 158 1 51 5 94 10 -234 9 -66 10 -3 8 -89 
18 -188 9 -180 -3 4 15 334 17 522 9 32 12 -184 6 221 
15 26 17 52 -2 -132 3002 3368 100 MP stroke
11 -553 5 79 -2 -99 19 -188 3 461 14 248 21 -74 -4 -114 
22 9 22 -101 -7 -49 2 153 27 -112 13 -44 -16 18 23 247 
18 283 0 72 20 -1 0 32 14 -91 10 -182 3 -140 19 -100 
-1 224 17 25 7 -28 5 98 18 78 -2 -102 19 -52 4 -35 
7 86 16 73 -2 -104 20 9 0 58 11 5 11 -77 0 -134 
19 121 -2 23 14 31 5 -24 10 -29 33 202 -13 -139 4 -82 
3 74 -3 104 17 -57 0 -78 20 57 -4 -20 1 -60 23 1 
-6 -120 12 -192 -1 -275 2 63 15 154 -5 -213 15 229 3 207 
3 -99 14 186 5 44 19 -102 9 153 -4 -115 3 -105 14 81 
1 67 1 101 14 130 0 -10 14 -149 12 -115 -2 106 15 235 
3 71 6 -51 13 -20 -1 -60 6 -38 10 80 3 6 14 124 
11 16 0 -22 14 127 5 -146 -1 21 13 -5 4 -83 9 57 
9 35 5 197 11 -21 2221 2817 100 MP stroke
4 -52 10 105 7 49 7 11 10 -88 4 -59 12 79 4 40 
9 36 9 45 2 -16 18 -63 4 33 3 49 14 40 1 -6 
4 -19 9 37 7 -27 7 -38 8 -86 7 15 8 57 6 -124 
11 -5 14 89 -2 196 6 10 11 -14 3 62 13 -58 3 12 
9 3 17 18 0 92 5 -52 9 -12 8 41 8 16 8 -7 
9 -42 7 45 9 -52 7 -59 8 35 8 50 7 -100 10 -80 
6 213 7 45 9 -9 9 -16 2 -269 8 121 16 284 5 -89 
9 -26 10 69 6 16 12 3 6 -14 12 86 8 -31 7 -4 
11 79 5 -51 13 50 6 50 10 -34 11 -15 3 -52 20 -21 
8 17 0 64 11 26 9 -10 10 42 5 -127 6 -95 9 29 
10 -1 11 20 10 44 10 8 8 0 11 -5 10 -68 11 31 
12 54 9 -42 12 -30 9 55 11 50 11 16 9 46 10 -28 
8 1 10 82 9 -42 1399 2089 100 MP stroke
9 -10 10 57 8 -10 10 35 6 34 9 -37 8 19 7 40 
12 -4 8 -9 8 -3 6 27 8 -11 10 4 8 -4 9 -30 
6 -19 8 23 7 26 6 24 10 -36 7 -97 8 60 5 59 
5 -2 9 2 6 -65 9 66 5 -21 7 35 9 227 4 -188 
5 -115 4 94 6 -56 5 27 5 20 8 25 4 41 6 -36 
4 20 6 -6 6 -73 5 -2 8 23 2 9 7 -11 4 -39 
2 -30 8 200 3 164 6 -42 3 3 2 -39 5 67 0 -39 
4 -225 6 2 3 59 4 55 4 39 4 -41 3 132 5 3 
2 -202 3 33 4 -4 1 -98 5 236 3 143 3 -31 2 35 
2 -15 3 -17 2 -27 3 39 3 -44 4 -246 4 13 2 37 
3 -66 2 37 2 23 1 119 3 -18 4 -62 2 82 2 -1 
2 21 3 -37 2 -55 1 65 3 -24 0 -37 1 -21 1 65 
0 44 1 -61 -2 80 928 1662 100 MP stroke
2 87 -1 -35 -1 -140 0 11 -1 189 2 -64 -1 -98 1 52 
1 -33 0 -12 1 23 -1 26 3 -21 1 -1 2 15 2 8 
1 7 4 -74 2 25 2 -37 2 7 0 229 1 62 2 -50 
2 -23 0 68 -1 64 3 -179 1 -145 0 22 0 -29 -4 227 
-2 76 1 -101 0 56 -1 -15 -1 30 0 -7 -2 -9 -1 48 
-1 -25 -1 0 -1 -32 -1 16 1 -126 1 -169 -6 194 -6 119 
-2 22 -4 34 -3 -43 -6 10 -5 -2 -4 27 -5 -22 -5 -22 
-7 42 -5 -30 -5 26 -6 10 -6 0 -6 0 0 -167 -3 -89 
-8 -31 -7 45 -13 224 -7 3 -5 1 -8 52 -6 -3 -9 17 
-7 -45 -7 -16 -10 -12 -7 6 -10 43 -9 -16 -9 -13 -8 10 
-9 6 -10 7 -8 4 -10 -14 -8 10 -8 15 -9 -2 -6 57 
-9 -48 -8 -90 -8 28 -8 -2 -6 18 -8 20 -8 -23 -7 -10 
-5 3 -7 52 -8 1 1275 1333 100 MP stroke
-5 -14 -8 19 -5 -17 -7 9 -12 -9 -1 -27 -2 47 -8 1 
-6 -34 -6 -25 -6 -6 -5 41 -6 10 -6 5 -5 28 -6 20 
-6 -30 -5 0 -11 24 -8 -23 2 30 -7 37 -12 -32 -2 -4 
0 -15 -11 -17 -8 22 0 -27 -3 -17 -10 10 -3 -16 0 10 
-5 -2 -3 -10 -3 5 -3 13 -1 14 -2 -13 -3 -11 -2 16 
-2 30 -2 15 -3 -34 -2 -2 -3 4 -3 18 -4 30 -2 -49 
-3 59 -3 -104 5 -230 -2 89 -8 -13 0 -103 -7 152 -13 177 
1 -46 4 -183 -1 -21 -7 -17 0 -36 -3 84 -7 -24 1 -10 
-4 44 -4 -1 -6 167 -13 85 -3 -40 0 -12 -3 -18 -3 5 
-4 -10 -3 16 -3 14 -3 51 -6 -1 -2 -15 1 61 -7 -66 
-6 -45 1 40 6 -161 -1 -83 -7 33 -1 -34 -6 46 -5 -3 
-3 7 -6 45 -1 17 -11 102 -14 113 2 -24 -3 8 -8 34 
-3 0 4 -31 6 -203 1658 1394 100 MP stroke
-5 -2 -4 35 5 -82 -14 253 -3 -42 8 -136 -14 228 -7 12 
2 -45 -4 27 0 -12 -4 38 -3 -6 1 9 -3 33 0 7 
-3 -21 -3 -23 0 49 -3 -35 -2 -92 -1 3 1 38 0 12 
-1 23 -1 17 -2 -12 1 33 -1 0 -1 -23 0 -33 0 9 
-1 -9 0 -46 0 39 -2 45 2 -10 -4 -9 -3 -46 0 24 
-2 20 -1 -5 -1 15 -2 12 1 2 -2 -58 -3 -26 0 21 
-1 18 -2 -15 -2 -19 -3 17 0 11 -2 3 -4 -11 -2 -18 
-3 14 -4 24 -3 5 -3 5 -4 19 -2 -11 -2 -44 -4 0 
-2 27 -4 2 -5 -40 -3 -26 -4 29 -2 -1 -3 -13 -4 -3 
-3 10 -5 32 -2 4 -4 4 -4 13 -5 -19 -5 -31 -2 -1 
-4 16 -4 4 -4 34 -4 20 -2 -20 -3 3 -4 7 -2 -13 
-2 -6 -3 0 -3 11 -2 28 -3 -13 -2 -27 -2 8 -1 -20 
0 -10 -1 3 -1 -2 1882 1155 100 MP stroke
1 -5 0 26 0 -5 1 -37 1 22 1 -9 2 -28 1 -24 
1 4 1 16 0 -6 1 -7 2 -9 -1 12 3 29 1 -19 
1 -26 3 26 2 4 4 3 1 13 4 13 7 -2 0 -16 
2 31 5 -11 1 -24 6 -7 6 3 -1 42 5 6 3 -1 
-1 0 4 15 3 12 5 -36 1 7 0 34 4 -15 1 7 
3 -6 3 -10 2 26 4 -14 2 2 4 5 1 -16 3 -6 
4 -8 2 -16 4 -10 4 5 4 -20 3 -4 2 1 5 10 
1 4 4 -24 3 13 1 -14 3 -12 2 26 3 -9 2 17 
2 27 3 -26 2 0 2 10 0 1 2 -7 1 9 1 -2 
1 -14 0 11 3 -27 2 -44 1 -1 1 4 1 9 2 -9 
0 -5 2 -4 2 5 1 22 3 -15 1 10 2 -6 1 -8 
2 3 1 13 0 53 3 20 1 2 3 13 1 15 2 32 
3 -14 0 -13 3 12 1677 1101 100 MP stroke
2 -38 -1 -1 1 30 1 19 2 3 1 1 1 2 1 -10 
-1 -7 -1 -11 0 11 -1 13 -2 -3 -1 17 -1 -5 -2 -27 
0 10 -2 -24 -2 -37 0 -7 -2 -35 -1 -26 -1 -17 0 -16 
-1 4 -1 1 0 -5 1 8 -1 -28 -1 -20 -1 12 -1 -5 
-2 -11 -2 -4 -2 -24 -3 -37 -3 10 -4 -9 -4 -29 -5 8 
-5 -19 -6 -10 -6 15 -5 -15 -4 -9 -7 38 -8 -57 -5 24 
-8 -16 -8 38 -5 -37 -8 50 -6 -59 -6 90 -7 -41 -8 -44 
-7 -18 -6 49 -9 -38 -7 -30 -7 -42 -9 19 -6 -60 -8 73 
-7 -21 -5 109 -8 -4 -7 -63 -6 -31 -5 -91 -5 34 -7 0 
-5 41 -4 -39 -8 68 -6 -14 -6 -15 -7 -18 -4 -8 -6 19 
-6 -57 -4 96 -6 -63 -6 -65 -4 139 -5 2 -5 -29 -5 -37 
-4 -70 -4 -53 -5 88 -4 -8 -3 -6 -2 -58 -3 4 -3 135 
-3 -46 -2 -45 -2 -37 2049 1630 100 MP stroke
-2 126 -2 9 -2 -54 -2 -61 1 -17 1 -42 -2 131 -1 42 
-1 -9 -2 -55 0 -9 -1 -9 -2 74 0 5 -1 0 -3 -35 
2 -46 -1 48 -1 117 0 -93 -2 -30 0 121 -1 120 -1 -113 
-1 -1 -2 -5 -1 28 -2 18 -1 14 0 -19 -2 -50 0 30 
-1 -21 0 127 1 -111 -3 4 -4 145 -2 -121 -1 50 -4 -12 
-3 -4 -4 -5 -4 4 -2 -8 -5 -12 -4 40 -4 5 -5 -59 
-3 -24 -3 -5 -5 12 -5 38 -4 10 -3 -14 -4 -20 -6 -8 
-6 18 -3 5 -5 19 -6 26 -5 25 -6 9 -7 -8 -5 19 
-6 4 -7 41 -7 -28 -6 -17 -7 41 -8 3 -8 41 -8 2 
-9 -38 -9 -22 -8 4 -9 20 -8 -7 -8 -27 -9 -51 -10 24 
-8 37 -8 2 -11 -36 -11 -1 -10 -4 -9 -25 -10 -20 -10 82 
-10 20 -10 -46 -8 -42 -9 72 -11 70 -8 -81 -11 13 -9 19 
-10 -8 -10 -37 -10 -41 2512 1307 100 MP stroke
-11 28 -8 44 -9 45 -10 -40 -8 1 -12 14 -10 9 -9 33 
-10 2 -9 24 -10 14 -10 -43 -11 -15 -10 6 -10 -31 -11 -49 
-9 21 -11 3 -11 28 -10 21 -11 12 -10 -30 -10 -45 -11 38 
-11 60 -11 -1 -12 -88 -10 38 -10 43 -12 -21 -9 145 -11 -33 
-10 -3 -10 -75 -12 45 -13 97 -12 -195 -12 -6 -11 -7 -9 -17 
-10 25 -13 8 -11 2 -12 3 -12 10 -10 -4 -13 20 -12 5 
-11 -28 -12 14 -13 -40 -13 -28 -10 47 -13 7 -12 -46 -12 5 
-11 7 -11 8 -12 -7 -12 -43 -11 0 -11 -2 -11 -5 -13 7 
-12 -15 -12 -19 -10 23 -12 33 -9 -16 -12 -19 -14 48 -10 1 
-10 -1 -11 -6 -11 -24 -11 41 -11 -48 -12 -34 -11 19 -12 28 
-10 -10 -11 -26 -10 139 -10 -47 -11 -172 -11 7 -10 2 -10 5 
-10 -32 -12 -12 -9 24 -8 -17 -10 2 -9 -3 -9 11 -9 -34 
-9 -27 -9 13 -9 2 3575 1434 100 MP stroke
-9 27 -8 -2 -9 -19 -7 -2 -9 19 -8 25 -8 16 -9 6 
-8 15 -9 95 -7 -64 -6 -111 -6 66 -9 -15 -8 29 -6 62 
-7 72 -8 144 -8 -81 -7 -65 -8 -23 -9 -130 -6 -33 -8 1 
-7 -8 -7 -23 -6 29 -7 9 -8 3 -5 -4 -13 -67 -6 -26 
1 13 -9 -43 -5 -2 -5 39 -8 -8 -3 -4 -6 41 -5 2 
-6 -33 -5 10 -4 -18 -7 -9 -4 -16 -6 -55 -5 17 -4 57 
-12 11 -5 3 0 3 -7 -55 -5 9 -4 57 -11 -40 -3 -19 
0 -13 -7 -23 -5 21 -2 -35 -6 -9 -4 57 -6 32 -5 -6 
-5 -50 -5 -18 -3 29 -10 7 -7 31 2 -22 -6 -52 -11 -2 
-1 4 -2 -10 -6 -28 -7 -15 -10 -19 1 -2 -7 7 -7 72 
3 36 -9 -39 -7 -43 0 59 -3 -45 -8 -14 -8 -32 3 147 
-7 -42 -19 -65 -4 -54 3 62 -3 -67 -5 110 -6 -30 -3 87 
-4 154 -7 91 -4 -29 4156 1287 100 MP stroke
-7 -216 -3 203 -4 206 -14 -132 -6 -289 2 -57 -1 97 -5 52 
-10 17 0 191 -5 159 -6 -67 0 -237 -10 -112 -1 115 -1 -17 
-7 -53 -5 132 -7 -43 1 -29 -8 -21 -4 179 3 522 -9 6 
-1 122 -5 -284 -9 -516 2 153 -6 -155 -4 26 -3 50 -4 -115 
-4 -15 -7 -15 -1 -12 -1 181 -3 11 -2 -10 -3 -94 -1 82 
-6 -67 -3 -48 0 151 -3 -44 -2 -19 0 -60 -5 102 -5 -135 
1 -10 -2 265 -4 -99 -2 -92 -3 204 -2 -126 -4 -75 0 -21 
0 180 -7 -104 -3 -54 1 284 0 -260 -2 -39 -3 268 -1 -34 
-1 -90 -3 252 0 -19 -2 -178 -2 -160 2 303 -2 -47 0 -99 
-2 -49 -1 245 1 -64 -1 -59 0 28 -1 300 0 -81 -1 -245 
-1 -149 1 83 -2 399 0 312 0 -859 0 127 1 -112 1 130 
1 -16 1 26 0 232 2 -69 0 -96 1 -82 1 207 0 -63 
1 -44 3 -68 2 100 4371 1010 100 MP stroke
0 -45 3 0 0 213 0 -37 4 -92 0 -140 4 -9 5 221 
0 -120 -1 -98 3 130 4 -64 0 -95 2 108 2 -56 4 -69 
2 6 5 240 8 -19 -1 -74 2 15 5 266 2 191 5 -132 
2 -346 5 -62 4 47 3 -73 4 -23 2 63 5 -30 4 43 
5 116 4 -70 3 -25 6 79 1 -87 4 10 6 86 2 -80 
7 49 4 55 3 42 5 -63 3 69 5 117 4 -196 5 -84 
4 81 6 -13 4 -61 3 -31 5 254 4 -66 5 -176 5 58 
5 -7 5 -3 4 38 6 -36 4 -33 4 100 8 118 6 -67 
4 -137 3 -20 6 60 4 90 4 -57 6 -44 4 20 4 69 
4 -48 4 -56 4 61 4 9 5 -34 4 -3 4 20 3 2 
4 24 3 12 2 -39 5 39 3 15 4 -48 4 -34 4 13 
4 22 4 16 5 25 4 -5 2 -52 6 92 5 34 3 -83 
4 9 5 19 4 20 3997 866 100 MP stroke
4 85 3 392 3 -54 4 -225 4 0 4 -203 3 -21 3 10 
5 0 3 278 4 -28 5 -127 4 -23 4 -163 4 -31 4 36 
4 11 5 -62 5 -3 4 46 4 -10 4 -34 5 -6 5 -41 
4 11 5 40 4 -48 5 -18 4 43 5 242 5 -20 5 -252 
5 21 4 11 4 12 5 30 5 29 5 -8 3 -10 5 5 
2 -22 4 118 5 15 4 -124 4 -24 2 -21 4 15 4 -11 
1 -36 4 -16 5 -5 4 37 2 16 3 -24 4 2 2 14 
4 -20 3 -40 4 6 4 36 0 -13 4 11 4 25 3 -16 
4 13 2 -7 2 -70 2 8 3 75 2 -5 2 -18 3 -12 
2 -32 1 13 2 48 2 148 2 -9 2 -157 3 14 1 178 
2 -64 3 -195 2 11 2 1 3 41 3 6 2 -4 2 191 
2 -45 3 -125 3 -3 2 -91 3 10 2 -35 1 11 4 249 
3 -33 1 -274 2 -35 3667 1225 100 MP stroke
2 -5 1 -3 2 41 1 20 1 14 2 32 0 161 1 -19 
1 -184 0 -14 1 -3 1 17 0 8 1 -44 -1 -3 0 46 
1 -8 0 -17 1 -17 1 -1 1 4 1 -10 2 17 0 -48 
2 7 1 -19 1 -1 1 -26 1 -40 1 -1 1 6 1 34 
1 22 2 -33 1 -28 2 46 1 86 0 135 1 -39 1 -89 
0 -42 1 -42 0 11 1 -12 0 18 1 -1 -1 -17 1 -15 
0 9 1 -28 0 -4 0 3 -1 12 0 3 -1 -26 0 43 
0 -90 -1 -17 0 -4 1 -39 -1 -2 -1 -1 0 -47 1 18 
0 17 -1 -7 0 6 1 28 -1 -30 -1 -34 0 43 1 62 
-1 -23 0 -98 -1 -10 -1 -22 -1 -17 0 27 -1 -20 0 -56 
1 27 0 37 0 -81 1 -13 1 6 0 17 1 16 1 10 
-1 27 0 68 0 -122 1 -33 -1 11 -1 26 0 51 0 -35 
-2 -50 -1 0 -2 -13 3636 1636 100 MP stroke
-1 -24 -2 8 -1 15 -2 9 -1 -27 -2 -35 -2 0 -2 13 
-1 -11 -1 -34 -1 18 -2 -39 -1 -37 -1 29 0 -86 -2 -70 
0 25 -1 -9 -1 3 0 12 -1 38 1 52 0 -35 1 64 
1 24 0 9 0 -84 1 -68 0 28 1 -44 -1 -45 1 -16 
-1 -94 -1 -6 1 8 0 -50 0 153 -1 4 1 -69 -1 -42 
-1 -57 2 44 -1 106 -1 18 0 51 -1 2 0 -138 -1 26 
-1 -32 1 -95 0 164 0 -168 1 112 0 3 1 -124 1 99 
0 -2 1 -126 0 -65 0 140 1 -23 1 -12 2 25 1 -21 
2 -7 2 17 3 25 1 -53 3 -3 6 85 1 -16 1 -130 
5 34 2 97 4 -16 4 54 5 31 5 -183 4 -18 7 20 
5 -44 5 -75 6 -36 6 236 6 22 5 8 6 16 7 -100 
5 -44 6 -41 7 2 5 121 7 4 6 -1 5 43 7 -138 
7 -93 7 152 7 20 3482 2133 100 MP stroke
7 49 8 26 5 -243 13 -28 13 -26 -1 -80 8 277 7 -4 
15 -36 14 47 -4 -13 11 9 11 -213 5 -63 13 103 4 1 
12 -122 10 121 6 56 11 -110 6 102 11 26 7 -97 9 112 
9 -17 5 -149 11 192 5 8 11 -303 7 -137 7 295 11 43 
0 -176 19 44 10 139 1 -28 10 63 5 0 19 -89 6 16 
4 -102 17 12 -2 -65 22 238 16 31 -8 -84 4 68 12 -111 
18 32 1 139 10 -54 15 -121 -3 -46 10 -20 6 194 13 37 
12 36 -6 -50 14 16 5 -23 4 8 19 73 2 -3 3 8 
6 5 8 25 6 -101 6 -54 11 -76 5 -11 10 216 7 17 
4 -89 19 -34 6 61 1 41 10 14 8 26 8 -1 8 -18 
8 1 8 -28 9 -3 9 14 7 20 8 15 7 10 9 50 
5 2 8 -3 12 64 3 -3 1 -19 10 -15 4 -65 7 -16 
14 7 2 51 0 36 2703 1986 100 MP stroke
13 33 10 68 0 -2 5 32 14 42 4 -93 0 -6 7 85 
6 -5 6 10 6 45 3 -9 10 3 10 24 -1 -35 4 42 
6 66 3 -7 6 -27 5 -23 4 -23 6 9 3 -8 5 -39 
3 21 5 12 8 3 0 -29 1 -2 6 38 2 -16 4 -8 
3 -4 3 -25 4 -10 3 16 5 50 3 45 3 7 2 -54 
3 -2 4 49 2 0 3 -8 3 -25 3 -96 3 -28 4 67 
3 21 4 -9 4 -3 3 29 6 5 4 -52 -2 -50 6 24 
8 3 -1 -54 4 22 4 71 5 28 4 4 5 8 5 -34 
3 -12 9 17 5 6 0 37 5 20 4 13 3 2 6 -11 
3 49 4 19 4 -21 6 11 4 29 5 8 5 -51 5 -23 
6 -13 5 -12 5 54 4 34 7 14 4 -5 6 -16 12 26 
2 15 1 10 8 20 4 9 7 7 6 -20 6 -13 9 9 
7 -11 7 -3 7 13 2242 1579 100 MP stroke
7 16 7 13 7 45 8 11 8 -40 11 31 8 36 8 -10 
10 -22 7 10 10 20 9 14 10 1 10 -34 9 18 11 31 
9 -27 11 6 9 25 12 34 13 11 8 -18 11 27 10 -33 
11 -12 14 23 6 16 19 59 18 36 -2 -17 10 -25 14 -3 
10 29 13 10 8 -11 12 16 11 5 10 16 13 34 10 -13 
11 -45 11 -6 11 16 13 18 11 9 11 39 10 4 11 -53 
11 26 12 10 13 -21 12 -3 12 -1 10 -1 11 -8 11 -6 
11 35 12 -5 10 -12 13 49 10 19 11 -24 13 -15 9 14 
12 15 10 -11 10 -32 11 -7 8 0 13 11 8 22 10 6 
12 10 9 -3 11 12 6 -23 12 -16 10 25 9 -26 23 58 
7 50 0 -22 14 16 5 -37 9 0 11 29 6 -34 11 -7 
8 -45 7 3 9 5 6 -53 12 6 6 -30 12 55 17 73 
0 -45 5 34 11 36 1242 1137 100 MP stroke
6 -62 9 -85 6 -28 8 16 11 68 6 18 8 -23 4 -18 
8 -46 7 2 6 5 9 -9 2 -43 9 -9 9 144 3 -34 
6 -42 4 105 12 -119 15 -87 5 1 8 -49 6 15 4 -15 
6 5 5 17 5 29 4 27 5 -15 3 4 3 -51 4 -27 
5 22 2 -49 -1 27 3 -53 2 -56 -1 63 3 -25 1 9 
0 41 4 -32 1 18 -2 79 2 -19 -1 -72 1 -1 -2 91 
-8 169 4 -47 6 -118 1 -38 0 -28 -12 176 2 -34 7 -165 
-11 181 -2 58 0 -80 -5 68 -1 -7 -4 -30 -3 -1 -3 18 
-5 -13 -2 -78 -4 38 -5 49 -5 -27 -5 -45 -6 -1 -7 17 
-6 26 -7 18 -6 9 -5 -9 -6 1 -7 1 -9 -27 -10 29 
2 -3 -2 -128 -12 50 -7 114 -6 -83 -7 -24 -7 1 -8 36 
-5 47 -15 -22 -12 75 4 -165 -5 -206 -18 236 -12 132 -8 -71 
-11 29 -9 -36 -12 1 1293 1307 100 MP stroke
-10 -10 -9 -46 -12 101 -5 -147 -5 -200 -11 -13 -10 51 -13 176 
-11 52 -6 -54 -8 18 -8 -6 -8 24 -7 -20 -9 9 -5 -81 
-4 -241 -9 -14 -9 -12 -9 113 -19 214 -11 -17 2 36 -10 29 
-10 -102 -5 13 -17 19 -9 51 1 -74 -8 -257 -10 -73 -9 16 
-9 -70 -11 78 -9 75 -9 -13 -11 191 -10 38 -10 -23 -7 -63 
-7 -276 -9 -7 -9 16 -8 -28 -9 6 -9 -130 -7 76 -10 87 
-8 -11 -8 110 -10 50 -7 -15 -9 4 -8 -25 -7 50 -10 36 
-7 -234 -12 -280 -7 25 -10 -15 -12 -7 -5 1 -21 96 -10 280 
0 -76 -11 38 -7 -23 -20 -114 -9 184 1 -330 -14 -126 -7 329 
-10 -40 -11 45 -8 -305 -13 -331 -7 123 -9 -34 -9 336 -8 115 
-10 -170 -9 127 -11 -7 -9 31 -8 -52 -12 -428 -11 -155 -9 107 
-9 -17 -10 75 -10 -9 -10 -139 -8 261 -6 237 -14 -96 -18 51 
-1 -23 -3 -110 -14 -21 2185 2277 100 MP stroke
-1 61 -14 -26 -21 -399 0 -87 -7 54 -9 -140 -13 204 -17 -56 
2 62 -3 390 -11 -40 -10 -74 -10 -23 -9 -4 -9 21 -9 13 
-19 64 -10 -81 3 87 -14 -62 -9 26 -8 77 -16 -578 -6 92 
-6 538 -9 -161 -9 49 -7 25 -10 -159 -6 53 -14 0 -13 18 
1 -82 -8 40 -7 19 -16 -44 -22 136 9 -56 -3 18 -17 12 
0 -83 -5 86 -7 -34 -7 -17 -6 -40 -6 -8 -7 62 -5 -54 
-7 18 -6 -17 -6 25 -6 -6 -6 -43 -8 12 -5 -125 -6 9 
-5 23 -9 49 -3 133 1 -61 -13 32 -8 -11 1 -59 -5 -29 
-11 8 -6 96 2 -33 -9 15 -5 15 -4 -6 -14 -4 -2 -54 
-3 5 -7 -74 -6 -30 -11 -18 -3 -44 1 140 -9 24 -9 48 
1 -119 -4 -54 -12 152 -2 -142 -1 110 -7 -157 -13 -492 -11 54 
1 -87 -3 363 -2 484 -1 -92 -5 18 -5 -8 -5 -43 -3 12 
-6 -10 -3 111 -5 -43 2858 2283 100 MP stroke
-9 -64 1 -4 -6 -20 -6 7 1 -43 -5 31 -5 -1 -4 -5 
-4 72 -5 0 -4 -24 -5 -109 -5 12 -3 134 -6 63 -2 56 
-6 -55 -3 -87 -2 1 -11 48 0 19 -4 23 -5 35 0 -27 
-7 1 -1 -6 -4 -67 -4 -19 0 -2 -7 -63 0 19 -5 75 
-3 81 -1 18 -6 -43 1 -13 -6 -26 -2 -32 -2 -5 -5 54 
1 51 -6 -41 0 -26 -3 8 -6 -35 4 -48 -3 -31 -3 78 
1 62 -1 0 0 -43 -3 -86 2 8 -1 47 0 35 0 -46 
-2 -8 2 108 -1 74 -1 -29 0 -66 0 4 -2 -94 -5 -128 
2 94 -1 -3 0 -38 1 30 -2 30 2 107 -1 -24 -4 -68 
0 -9 0 21 1 -28 -1 -64 1 -32 -1 71 0 47 -2 22 
1 57 0 47 0 -86 1 9 0 24 0 -61 1 10 -1 6 
1 -19 0 -12 0 66 -1 18 -1 -24 0 6 -4 -35 2 -31 
-1 32 -2 58 1 -13 3043 2247 100 MP stroke
-4 -33 -2 -46 0 -55 -2 -18 0 -4 -1 74 -1 2 0 -117 
-2 36 0 69 -2 -40 -1 56 0 -25 -2 -61 0 -18 -2 46 
0 53 -1 -18 -2 48 0 19 -1 -63 0 -79 -2 27 0 31 
-1 3 -2 -30 0 -19 0 41 -1 -10 -1 -10 0 -36 -1 22 
0 138 0 -118 1 -93 0 77 1 -22 0 -23 1 60 0 -43 
2 46 1 80 0 9 2 1 1 -57 -1 -37 2 96 0 12 
2 27 1 -22 0 17 1 61 0 -88 2 13 0 -35 1 -24 
1 8 1 -67 2 39 -1 -2 2 80 1 -43 3 83 -3 -91 
5 94 -4 -211 -12 -470 1 -44 -1 -101 8 331 9 444 -3 -63 
1 61 0 -8 1 -20 1 74 -2 -91 0 36 0 -15 -1 -7 
0 32 -1 -42 -2 -60 1 59 -2 -2 0 -3 0 11 -1 30 
0 21 0 -26 -1 -12 -1 1 0 4 -1 47 -1 21 -1 -94 
-1 -32 -2 122 -1 64 3062 2169 100 MP stroke
-2 18 -3 -42 -1 -89 -1 18 -3 6 -2 -14 -3 17 -1 63 
-2 -32 -4 -81 -1 55 -5 -94 2 162 -8 -186 -14 -541 10 508 
4 256 -7 -172 0 140 -4 -59 -2 -5 -1 -25 -4 -77 0 76 
-4 -49 -2 19 -4 66 -3 44 -3 -16 -3 -38 -3 66 -5 -42 
-4 39 -4 3 -3 -31 -2 78 -5 -24 -4 13 -4 -71 -4 -25 
-2 -32 -4 -45 -3 90 -5 -38 -3 -27 -4 40 -5 27 -3 7 
-4 -5 -5 52 -4 -42 -5 5 -3 30 -5 -18 -4 74 -4 4 
-4 -44 -4 -20 -5 18 -3 -3 -5 -7 -3 34 -5 -23 -4 -10 
-4 -21 -5 46 -4 36 -4 -12 -5 19 -4 3 -5 47 -4 9 
-5 -48 -5 16 -4 -62 -5 -99 -4 55 -5 7 -4 26 -5 75 
-5 55 -3 9 -4 -77 -5 31 -4 84 -5 34 -5 11 -3 -94 
-6 -132 -3 -11 -3 84 -5 40 -4 -20 -4 -29 -5 17 -3 48 
-5 2 -3 -20 -5 58 3419 1981 100 MP stroke
-4 -20 -5 -22 -4 7 -4 32 -5 -35 -4 53 -5 2 -6 28 
-4 43 -4 -27 -4 21 -4 -11 -5 27 -4 -12 -5 -41 -4 -51 
-5 -39 -4 17 -5 50 -4 151 -5 27 -5 -90 -5 -51 -5 -65 
-5 24 -4 33 -5 -63 -4 10 -6 29 -5 -36 -5 62 -5 104 
-4 -25 -4 -27 -5 20 -5 -7 -6 21 -5 69 -5 22 -6 -2 
-4 -95 -5 -92 -7 22 -6 69 -6 57 -7 -74 -6 -4 -5 0 
-6 -14 -7 0 -7 -17 -6 60 -8 35 -6 36 -6 -20 -7 -27 
-6 27 -7 -30 -7 -45 -8 -75 -6 31 -7 76 -7 -49 -7 -10 
-7 36 -7 -24 -7 -26 -7 60 -6 72 -7 -16 -7 15 -8 -19 
-6 -9 -7 27 -7 5 -6 31 -6 36 -6 35 -7 3 -6 -38 
-6 -36 -7 -146 -5 39 -6 51 -7 24 -6 40 -6 11 -7 -13 
-6 6 -6 37 -6 -40 -6 -103 -6 19 -6 111 -6 18 -7 -58 
-5 -11 -5 53 -6 35 3983 1667 100 MP stroke
-5 14 -6 -19 -5 6 -5 -16 -7 3 -3 60 -9 -43 -9 -28 
1 34 -5 -78 -7 93 -3 32 -7 -49 -4 48 -5 107 -6 -33 
-3 -61 -8 -41 -2 -76 -9 6 -10 -14 -8 85 -5 -50 1 -127 
-6 89 -4 -11 -5 -1 -6 91 -4 -39 -7 -36 -4 -5 -6 -48 
-6 30 -4 114 -7 34 -4 11 -6 -13 -6 -68 -6 -26 -6 -14 
-5 13 -6 70 -5 11 -6 -66 -6 37 -5 6 -6 39 -5 -56 
-6 -73 -5 93 -5 -24 -5 -43 -4 96 -5 3 -4 -80 -6 -16 
-5 22 -4 11 -5 18 -3 -57 -6 48 -4 49 -4 -15 -5 16 
-3 -20 -7 -66 -6 1 0 53 -3 -1 -4 24 -3 -47 -3 8 
-3 -63 -4 113 -2 129 -3 -18 -2 4 -4 75 -4 -13 1 -62 
-2 -6 -3 -98 -1 -98 -2 47 -1 44 -1 23 -1 19 -1 14 
-1 -28 0 -40 -1 15 -1 82 0 5 0 -193 -1 34 0 -17 
-1 13 0 -95 0 11 4386 1755 100 MP stroke
1 74 0 -78 0 37 1 -11 1 -29 0 -11 1 15 3 25 
0 -12 1 41 2 46 1 -29 2 -44 1 -28 2 -43 2 -122 
1 -50 3 62 1 74 3 17 2 -29 3 -75 2 44 3 145 
3 -55 3 -49 3 -117 3 -62 3 76 3 80 3 83 3 -81 
4 -56 3 38 5 -32 3 37 4 -13 5 -61 4 -62 5 -6 
5 27 5 21 4 15 6 12 5 15 4 32 6 -2 4 -32 
6 -31 5 62 5 -54 7 -70 3 37 12 -105 9 -68 -1 82 
7 -37 5 -45 11 -32 9 30 -2 67 7 -8 8 -152 5 -38 
9 121 5 0 7 -47 8 -66 6 -56 8 -18 4 65 13 80 
13 -122 -2 79 6 31 18 -42 4 90 1 57 10 -1 6 -248 
7 -61 8 -3 6 58 12 68 4 -210 -1 -312 7 -143 8 17 
10 -101 8 -325 10 387 18 474 0 -546 2 -448 19 500 10 601 
10 42 17 -226 1 1 3886 2594 100 MP stroke
-2 -285 8 -244 8 387 8 -75 9 -161 8 -66 9 -90 6 -33 
12 199 15 478 7 4 8 -92 9 137 8 121 6 -134 1 -454 
8 -8 8 22 6 -47 10 135 5 -446 10 44 14 457 8 30 
7 41 8 78 6 8 7 -12 7 53 6 208 8 -12 3 -261 
3 -263 7 -39 6 -232 6 197 7 171 5 -147 6 201 6 -32 
5 -30 6 161 5 -101 6 39 5 76 5 21 4 -41 5 -55 
6 258 5 -63 7 48 5 51 4 -210 6 -138 4 1 5 253 
4 -71 6 58 9 428 5 -19 4 -108 5 88 4 70 5 -12 
4 -50 4 28 5 -3 3 -138 3 0 5 139 4 69 4 108 
4 -33 3 -94 4 -72 4 -22 4 -5 5 80 3 4 5 -6 
4 77 4 -51 4 -65 3 58 4 92 3 77 3 -73 4 -50 
2 35 2 112 2 48 2 -76 1 -62 1 10 1 81 0 37 
1 101 1 87 1 15 3367 1594 100 MP stroke
-1 -61 0 2 -1 147 -1 97 0 24 -2 -12 -2 -53 0 -25 
-2 -51 -2 -45 -1 50 -2 -25 -3 -52 -4 -54 -2 23 -3 99 
-3 40 -5 40 -2 58 -4 38 -6 -37 -4 -31 -4 54 -3 20 
-5 -113 -5 57 -5 125 -7 -10 -5 -21 -4 -7 -6 81 -6 40 
-5 -74 -6 -63 -7 28 -6 58 -5 63 -6 52 -7 32 -6 34 
-7 20 -9 14 -6 -93 -5 -45 -7 70 -7 29 -8 -42 -6 -21 
-7 -38 -8 -67 -5 -14 -7 55 -7 45 -7 48 -8 4 -7 6 
-7 89 -9 -20 -9 -7 -8 8 -9 -121 -8 -50 -10 17 -9 -35 
-9 21 -8 13 -9 -34 -9 -90 -8 16 -9 48 -8 -22 -9 47 
-11 10 -9 18 -10 75 -11 -14 -7 -55 -9 -23 -11 -21 -11 36 
-11 52 -10 -45 -10 -60 -10 19 -11 3 -11 -22 -10 -51 -12 12 
-11 49 -9 -12 -12 -3 -13 -72 -12 0 -12 35 -12 41 -11 -3 
-12 -97 -13 -15 -11 61 4056 1297 100 MP stroke
-11 -19 -13 6 -11 115 -12 -58 -12 -34 -11 110 -12 18 -13 -22 
-12 -19 -12 -39 -13 -39 -13 67 -11 52 -11 -9 -11 8 -12 6 
-13 -1 -11 -13 -11 17 -11 41 -10 71 -12 -13 -10 8 -11 20 
-13 -66 -9 15 -10 -32 -12 -157 -11 -13 -9 82 -13 148 -12 -1 
-11 58 -11 48 -11 16 -9 -42 -8 21 -12 5 -12 -59 -9 -8 
-9 -31 -9 -6 -10 12 -6 -59 -15 -49 -17 -73 2 339 -7 65 
-10 36 -5 54 -10 -139 -7 -150 -7 -81 -7 -41 -8 -46 -11 91 
-5 -94 -6 -20 -5 232 -6 -67 -5 -16 -4 -43 -8 146 -3 -59 
-4 -1 -5 -6 -3 256 -10 65 -4 -114 0 162 -3 18 -2 -28 
-7 -75 -3 -53 1 -142 -2 -123 -5 8 0 184 0 -67 -4 -65 
-1 179 0 -137 -1 -97 0 193 0 -16 2 -52 0 113 0 -27 
3 -21 2 77 -1 -140 2 -71 0 125 5 -21 3 -4 0 101 
6 -69 -1 -54 -1 87 4718 823 100 MP stroke
6 -76 1 -30 0 182 5 -67 14 -12 1 93 -3 -101 5 -61 
-5 90 7 -34 7 -46 -1 126 5 -103 0 -43 10 120 4 -73 
0 -29 11 129 0 -58 7 -22 6 171 0 -67 4 1 4 -60 
11 100 2 -81 4 -50 8 177 -1 -34 5 -25 5 137 6 -125 
3 -94 8 127 11 -94 -1 -74 10 39 5 -96 1 -12 6 121 
5 -109 13 -44 1 175 7 -64 10 -112 -2 114 9 -66 4 -42 
13 212 9 -25 -3 -116 10 72 4 -165 5 -56 9 172 4 -23 
8 -32 5 92 7 -119 6 -77 11 141 8 -60 -3 -62 10 -41 
6 136 5 -82 8 -22 3 147 10 -91 4 -77 7 114 16 -14 
2 -81 3 100 8 -30 6 -107 7 120 7 -31 6 -95 6 126 
6 -102 5 -108 7 95 7 -88 8 25 8 180 4 -153 10 -15 
8 196 7 -95 8 -82 6 85 7 -72 7 -62 8 107 8 -135 
7 -100 9 191 12 -24 4151 1056 100 MP stroke
6 -50 8 107 17 -3 4 -51 1 31 12 -141 5 -9 9 -103 
10 118 7 -49 10 -75 7 87 10 -62 7 -58 8 132 10 -40 
7 -104 11 127 8 -41 9 -85 9 85 7 -57 12 45 8 199 
10 -56 11 -28 9 95 9 -80 8 -51 9 87 9 -86 8 -121 
9 144 9 10 10 -100 7 41 10 -105 9 58 9 -120 9 -106 
10 111 11 11 7 -21 10 27 9 -105 9 77 11 -70 7 0 
12 71 11 -115 11 23 11 133 9 -29 12 -57 8 61 11 -57 
11 -51 9 74 14 -60 8 11 13 -44 9 -22 8 -74 27 132 
9 84 0 8 12 -103 9 -70 10 105 12 35 10 -64 11 -10 
9 79 10 -88 12 45 9 46 8 -34 13 67 10 -16 13 138 
10 -94 5 -90 23 149 14 64 -2 -50 10 -49 10 51 8 -48 
9 -15 11 65 8 -4 11 -39 22 66 4 -53 3 -36 17 54 
6 45 9 -89 9 28 3202 1268 100 MP stroke
7 24 11 -26 7 -19 12 -21 11 133 9 -6 9 -53 6 -37 
10 -56 7 69 11 98 21 75 4 -33 1 -106 11 50 6 56 
8 -61 9 24 7 -16 7 -72 6 14 9 10 10 52 9 117 
6 -34 7 -30 7 27 6 -1 7 -17 5 -27 6 28 8 43 
6 -16 7 -37 5 -29 6 31 7 -21 5 27 7 44 4 -19 
4 -58 8 4 10 89 8 -5 4 -59 9 43 4 -39 6 1 
9 65 2 -22 7 -10 6 -41 9 6 14 57 -1 -81 10 49 
11 93 -3 -38 7 31 6 1 2 -179 9 -92 7 48 7 24 
7 -8 6 15 5 1 4 -7 4 1 2 -39 8 59 6 100 
4 -11 5 -24 5 -11 3 -41 4 -9 3 15 1 -65 6 -28 
5 -11 4 -38 5 -38 5 -63 3 62 3 7 6 -12 7 34 
-1 -53 4 -22 5 -23 4 -6 5 22 2 -53 5 50 3 -17 
2 -118 3 3 1 -58 2596 1582 100 MP stroke
4 20 5 72 1 -18 4 -81 3 -129 2 96 1 95 1 -15 
2 -14 2 -66 1 34 2 42 1 -107 1 -27 2 37 0 -233 
1 -76 0 -66 -1 75 1 137 0 -147 1 -135 -1 40 0 6 
1 32 -1 17 0 17 0 -63 -2 11 -1 -9 0 -71 -1 14 
-1 35 -1 -151 -2 -122 -1 12 -2 -9 -3 -75 -2 -148 -1 122 
-2 115 -2 -17 -2 -161 -1 -50 -3 -19 -2 -29 -1 78 -2 -54 
-2 -91 -2 -56 -2 106 -1 42 -2 -15 -2 103 -2 28 -3 -58 
-2 -25 -2 -202 -2 -29 -1 115 -2 59 -3 -11 -3 -78 -2 -26 
-3 3 -2 -15 -3 29 -2 44 -3 -40 -2 5 -4 -132 -7 -396 
-2 -153 -3 -196 -5 -223 2 582 0 330 -3 -165 -2 -127 -8 -169 
-4 -346 -1 35 -4 60 -1 -123 -4 -26 -3 7 3 249 -1 174 
-5 40 -4 48 -5 -63 -9 -247 -5 -236 -4 9 -6 6 -4 -154 
-6 -13 -5 118 -5 2 2748 3788 100 MP stroke
-6 -97 -6 -139 -6 170 -6 114 -7 65 -5 -71 -7 -304 -7 -121 
-7 61 -7 35 1 580 -2 49 -13 9 -8 61 2 -52 -8 79 
-14 -431 -7 -275 -7 130 -8 -345 -5 178 2 516 -5 6 -16 53 
-3 35 -1 -14 -9 -144 -16 -553 -9 -121 2 484 -14 193 -7 155 
-2 -96 -17 -664 -7 -34 -12 102 -9 -360 3 183 -11 199 -6 -52 
-7 17 -9 122 -4 -72 -9 -256 -5 126 -8 140 -7 135 -6 -172 
-8 -450 -6 264 -6 -155 -7 80 -15 337 -6 -150 3 61 -16 -145 
0 901 -25 -408 -6 -363 5 652 -4 474 -10 -183 -16 -797 -8 -91 
-6 320 -8 -223 -5 18 -8 -55 -6 104 4 682 -2 369 -16 -607 
-12 -534 -5 79 -6 -57 -4 714 1 375 -8 -524 -22 -294 -7 61 
0 -27 -14 217 -2 250 -4 -344 -5 273 3 369 -20 -745 -11 -45 
0 171 -18 -210 -3 226 -3 -102 -7 -44 -5 106 -16 83 -2 27 
-3 -232 -6 98 -7 -121 3431 3759 100 MP stroke
-8 188 6 672 -9 204 -12 -101 3 -34 -7 127 -7 83 -6 65 
-7 83 -7 -59 -5 44 -9 -36 -25 -424 -7 -273 5 412 -4 420 
1 -54 -8 -32 -6 15 -4 -43 -9 40 -3 -66 -9 87 -11 -98 
-1 -45 -2 212 -13 -34 -6 25 1 -88 -6 72 -4 179 -5 25 
-5 133 -10 -380 -16 -173 9 468 -2 -18 -17 -64 4 42 -9 -63 
-7 34 0 -39 -11 -7 -1 14 -6 37 -9 -11 2 -4 -6 4 
-5 16 -10 208 -12 0 10 81 -9 -160 -16 -449 8 440 -10 -49 
-17 -433 7 447 4 182 -5 57 -8 69 -2 -113 0 -48 -7 -63 
-2 87 -4 36 -4 1 -2 50 -8 0 -4 96 0 -104 -4 -45 
-7 89 -2 -80 0 -52 -6 -57 -2 64 -3 94 -4 -33 -2 -22 
-7 62 -5 41 1 -83 -4 -34 -8 64 0 52 -5 20 -5 2 
0 -16 -11 0 -2 50 5 -26 -9 -14 0 23 -3 3 -6 9 
1 -6 -5 51 -1 20 3889 1693 100 MP stroke
-2 -29 -6 42 1 -24 -3 -47 -7 38 -1 22 0 19 -4 -2 
-5 -20 0 -3 -4 30 -4 -24 2 -97 -4 51 -4 67 1 -7 
-4 41 -1 50 -2 12 -3 -43 0 61 -3 7 0 -36 -2 17 
-4 -44 1 3 0 64 0 -27 -1 -37 -2 -29 1 -19 -1 -13 
0 -8 0 32 -1 -48 1 8 0 57 2 31 -1 9 0 9 
2 -4 -1 -39 1 17 1 -20 0 -42 1 -39 0 2 2 -5 
1 -3 0 90 0 -36 2 -67 1 24 -1 38 2 83 3 20 
0 -98 -1 2 2 76 2 -32 0 -75 0 11 1 18 0 -58 
1 27 2 -28 0 -76 2 -23 1 11 -1 23 3 56 1 23 
0 -2 2 17 0 13 2 -31 1 -33 0 -26 3 30 0 -11 
2 -100 2 25 -1 108 1 8 1 -67 5 49 2 39 -2 -23 
1 16 0 9 6 -72 1 -48 -3 21 7 43 5 40 -1 4 
0 -13 0 24 4 -29 3884 1713 100 MP stroke
3 -57 -2 27 5 -25 4 -58 0 46 4 -10 3 -20 0 39 
5 -11 0 -19 1 -34 5 23 0 6 6 2 3 7 0 28 
5 108 1 61 2 -37 6 5 -2 -5 5 -94 8 -26 -2 -30 
7 -40 4 1 1 -23 9 -9 0 -3 3 -12 5 -71 6 34 
8 56 -1 -115 9 -26 3 36 0 37 9 10 3 -2 11 -8 
2 18 -2 70 16 -19 1 -35 4 25 10 -4 0 -18 4 -26 
5 -61 7 -47 3 17 7 62 11 4 2 -20 1 -36 10 -62 
9 2 -1 25 10 -49 5 -4 -3 32 12 59 0 -52 8 -119 
13 66 -3 51 11 -11 2 -14 3 18 10 45 -1 34 11 58 
2 -18 5 -92 11 -91 -1 -4 12 10 1 -43 8 -16 16 83 
-6 24 2 -1 12 -39 2 -113 0 55 14 48 7 -8 0 5 
12 -18 1 3 7 40 10 -8 -2 -49 8 41 6 21 13 -64 
6 3 2 114 14 -53 3418 2083 100 MP stroke
-2 -100 14 37 6 22 1 11 19 -1 -8 71 11 16 18 -52 
-6 -9 17 -63 6 -39 2 30 8 23 6 28 19 -40 1 -20 
10 17 24 -3 -3 73 -3 -18 18 -94 5 -62 3 -53 20 -22 
-4 -32 5 59 24 114 -1 102 7 -53 6 -95 10 -2 20 -30 
-2 22 13 102 10 50 0 -74 8 -69 7 -18 17 17 4 50 
5 5 16 46 -2 -31 6 -24 10 34 6 -103 7 -20 9 44 
7 25 6 -7 18 -20 3 34 6 72 13 -15 -1 -68 7 -32 
6 -22 14 -20 8 33 1 29 15 1 -1 10 11 -59 6 -20 
2 36 14 -22 -2 22 12 7 4 -30 7 23 22 -37 -9 -1 
3 -12 8 -51 2 21 12 43 2 -7 11 -49 6 -81 5 -21 
10 119 2 35 10 -99 4 -13 7 -44 7 -22 3 74 9 -3 
4 76 7 -24 5 29 5 14 7 -161 4 89 3 -222 -3 -193 
16 441 13 23 -2 -46 2722 2382 100 MP stroke
7 119 2 -107 8 56 5 35 5 -10 9 0 1 -1 12 -58 
1 17 9 66 12 -92 -4 -66 13 51 3 29 4 8 10 42 
-1 58 12 -48 1 -21 6 22 7 -38 1 42 28 -63 9 18 
-7 92 5 -11 -3 9 1 -49 5 -60 11 -2 4 30 2 -19 
12 -43 -2 0 4 2 11 24 -1 -30 11 -107 7 -20 0 76 
16 -20 5 12 -6 60 9 44 13 -23 -2 33 -1 57 10 -30 
5 -25 -2 67 9 -9 8 -84 0 -19 4 -15 6 -35 5 63 
4 77 6 -20 12 -76 1 -39 6 12 12 13 -4 107 8 5 
12 -83 -1 31 11 -30 15 -1 -6 63 2 -6 20 -53 6 -15 
-5 25 6 -31 5 -14 6 -6 15 39 6 5 -5 16 26 -13 
37 -84 -5 114 -2 21 7 -63 -12 49 21 -71 30 -94 -3 73 
-1 1 2 -38 0 88 17 41 23 -70 -3 42 -3 -8 19 -56 
2 63 8 -8 13 4 2115 2345 100 MP stroke
-1 34 26 9 12 50 -13 0 18 -28 25 -67 -3 -22 -3 91 
20 7 5 8 8 34 31 -64 -5 -42 -4 14 24 17 2 12 
9 19 18 9 -2 -24 7 0 22 53 3 52 9 -19 30 39 
-5 56 -4 -69 23 -66 0 67 10 39 15 -71 -1 -6 20 9 
6 -12 0 61 15 -103 0 -183 13 37 11 95 3 1 20 163 
5 19 11 -181 16 56 -1 74 19 37 12 125 -3 -7 16 -41 
8 -42 4 -199 10 -93 9 28 9 7 10 97 13 222 9 22 
9 -33 10 87 9 12 9 20 9 27 11 35 10 41 11 -10 
8 -39 13 -39 21 8 1 79 3 52 14 23 5 8 12 11 
8 27 8 9 11 6 8 1 12 -19 5 -45 10 -17 10 47 
5 99 11 10 4 39 13 -44 15 -130 0 90 6 -11 9 36 
4 -107 8 -109 11 228 5 -107 6 -101 9 61 5 -60 8 76 
5 -30 3 36 8 74 1242 1680 100 MP stroke
6 -67 6 24 5 -83 4 24 4 49 3 -29 3 81 2 -21 
2 -14 2 -41 3 34 3 78 1 -108 1 157 2 164 2 -21 
2 19 0 66 0 -79 -1 -80 0 49 2 44 0 -20 -2 -15 
-1 21 -3 -2 -2 44 -2 -64 -1 -34 -2 73 -3 3 -3 18 
-4 -24 -2 9 -5 23 -6 -29 -5 34 -5 31 -7 -7 -5 18 
-8 21 -7 46 -7 6 -5 0 -7 3 -8 -22 -6 43 -7 10 
-8 15 -8 -6 -8 -15 -8 37 -7 31 -6 18 -8 -8 -8 -51 
-9 21 -11 10 -9 -11 -9 86 -10 6 -9 -17 -10 31 -12 -50 
-12 -59 -9 52 -9 50 -15 -36 -11 2 -9 12 -13 -12 -13 8 
-12 -36 -12 -11 -12 -1 -13 40 -12 55 -14 -49 -15 -9 -12 -22 
-13 -17 -15 41 -14 -4 -13 -2 -13 -12 -12 -5 -13 -6 -12 19 
-14 31 -15 -42 -13 -23 -13 5 -14 19 -13 16 -16 -73 -13 -62 
-13 -20 -15 10 -14 29 1894 1263 100 MP stroke
-13 -14 -15 -20 -13 -36 -15 10 -14 38 -14 33 -14 27 -14 -58 
-16 -15 -12 37 -14 -40 -17 -39 -14 -46 -13 -8 -14 34 -13 -22 
-14 -11 -15 -20 -14 -25 -15 11 -17 -17 -12 -35 -15 -20 -16 -35 
-14 -18 -18 6 -15 -22 -16 9 -16 5 -14 -42 -17 6 -14 38 
-12 5 -17 -67 -14 -19 -14 54 -15 3 -13 -68 -15 -84 -16 2 
-14 48 -18 -17 -16 1 -13 14 -15 -74 -12 -20 -14 -10 -14 -156 
-14 73 -16 -1 -14 -24 -15 221 -14 55 -12 -27 -13 -105 -14 -32 
-15 -18 -13 -46 -17 -61 -16 -76 -13 211 -13 -16 -13 84 -15 3 
-14 -5 -13 29 -13 -100 -14 -153 -17 -61 -13 -83 -14 11 -14 83 
-12 2 -14 -33 -12 -31 -14 -4 -13 32 -13 -23 -15 -74 -11 112 
-15 -63 -11 -157 -13 46 -14 20 -8 79 -26 -125 -16 -88 2 124 
-15 9 -15 39 -11 2 -14 1 -10 10 -12 -8 -13 31 -11 38 
-11 6 -12 -62 -12 -2 3273 2097 100 MP stroke
-10 61 -11 -40 -12 17 -11 31 -10 -26 -10 -74 -10 -6 -9 90 
-10 31 -9 -56 -10 -24 -10 74 -9 26 -8 -42 -8 -3 -9 68 
-8 24 -8 -11 -8 5 -8 46 -9 58 -8 47 -8 1 -7 66 
-8 327 -7 -85 -7 -307 -8 35 -7 -27 -7 -21 -7 23 -6 63 
-6 -8 -8 -29 -3 76 -10 -4 -9 -10 1 39 -17 -57 -8 -19 
8 96 -9 26 -2 -12 -6 -8 -14 -7 2 33 -9 18 -5 19 
-1 15 -10 -34 0 48 -6 66 -3 22 -1 -28 -6 19 0 20 
-7 -91 -3 -4 2 28 -8 -35 -2 -1 0 23 -3 45 -6 -14 
-3 -9 2 40 -1 21 -1 43 -2 6 -2 -8 2 3 -2 42 
0 83 -3 -18 0 3 0 -21 1 -15 3 22 0 -18 0 59 
2 -15 0 -19 1 3 1 27 0 8 3 -9 1 2 1 -41 
3 13 -2 14 1 -53 4 34 -1 11 4 -63 1 -27 1 33 
4 -11 0 -2 3 94 3678 1262 100 MP stroke
3 48 1 -26 2 -1 2 -16 1 -3 2 12 3 -21 2 25 
0 -13 5 -14 0 -4 1 -39 3 135 4 25 4 13 -1 -60 
6 -149 2 -8 -2 -63 5 91 1 128 2 -57 5 -87 0 -44 
3 2 2 69 0 186 4 -17 0 -345 4 285 0 34 1 -216 
3 80 0 212 0 -168 -1 -104 0 94 -1 125 0 5 -1 -40 
-1 -228 -1 48 -1 226 -1 2 -2 -59 0 -169 -1 72 -2 129 
-1 -126 -1 -114 -1 110 0 99 -1 -36 -1 -12 0 -227 0 150 
1 -37 1 -61 1 4 1 -75 2 18 2 168 1 -4 1 28 
3 -22 1 -26 1 -26 1 -200 1 -17 1 -19 1 37 1 130 
1 -26 1 -138 1 7 1 16 1 -38 1 -9 2 54 1 68 
1 44 2 135 2 -25 2 -82 1 -61 1 11 3 -42 2 -170 
3 -2 2 106 3 -72 3 -147 2 -18 3 7 2 52 4 127 
2 -61 4 -2 4 34 3552 1657 100 MP stroke
2 -117 5 80 0 41 3 -20 3 186 0 -61 4 -136 1 51 
2 85 3 -44 -1 -174 1 -53 2 97 1 8 2 -93 0 10 
3 113 1 -3 2 -32 2 55 1 46 2 -1 0 -112 1 29 
0 94 1 0 0 -223 0 62 1 80 0 87 0 -97 -1 -6 
1 51 2 -21 1 -50 -1 31 0 17 1 3 1 40 -1 -85 
0 -88 1 20 -1 -8 0 62 1 126 0 -43 -1 13 -1 6 
0 43 -1 -23 -1 -43 -1 -74 -1 -24 0 49 -2 54 -1 -53 
0 -18 -2 21 0 101 -1 -18 0 19 1 12 0 -58 1 -59 
0 -21 1 12 1 -4 1 -15 1 -7 1 19 1 -20 2 -60 
1 -21 1 -25 2 0 1 26 1 12 1 14 2 21 1 37 
0 17 3 39 2 44 1 26 0 -40 1 -78 1 -10 0 14 
1 -31 0 -74 1 -51 0 48 1 -78 1 16 1 56 0 -56 
1 -51 0 24 1 -24 3483 1943 100 MP stroke
1 30 1 37 2 9 1 56 1 -24 1 -71 2 -75 0 -52 
1 76 2 22 1 -47 0 -57 -1 -24 0 -53 0 23 1 29 
0 5 1 -5 0 20 1 -1 0 -86 1 -18 0 28 0 -53 
3 29 2 22 0 -17 2 49 2 -111 1 2 3 66 1 -36 
3 62 3 22 4 59 2 -60 1 -97 5 -26 2 7 5 -16 
4 -29 3 49 6 4 3 -17 7 6 11 -19 0 14 3 26 
6 -6 3 -27 6 30 7 4 6 -17 6 -35 6 -262 7 14 
7 241 7 -5 8 -10 8 27 8 42 7 -49 9 -14 7 -6 
8 -18 10 25 10 -248 11 8 10 223 11 -17 11 29 11 2 
11 22 12 13 11 22 12 13 12 8 13 11 12 -38 12 -15 
12 -82 12 -17 13 91 14 -21 12 -46 14 57 13 -45 13 -13 
14 116 12 29 16 -45 13 -56 16 27 14 27 12 -14 32 41 
14 50 -3 -37 23 33 2840 2123 100 MP stroke
13 15 10 -1 34 125 10 21 2 -38 19 12 14 -82 14 66 
15 10 15 -108 17 94 14 72 15 26 15 -65 14 -38 14 96 
15 -18 15 59 15 -25 16 73 16 49 15 -3 13 -13 15 70 
15 -12 13 1 14 89 14 -37 14 -28 13 42 14 -22 15 26 
13 25 15 -21 15 4 13 32 13 24 14 -19 13 -19 16 65 
16 45 14 4 15 42 13 24 14 -4 16 6 11 -10 14 7 
14 7 14 -7 14 3 12 27 15 17 12 1 12 -7 13 -10 
14 -3 16 13 11 -9 15 -16 13 -32 12 -21 17 36 7 21 
23 4 17 30 -1 6 12 -28 11 26 21 66 17 38 -4 -26 
13 2 10 64 8 30 15 -7 7 0 12 -26 9 2 10 52 
12 25 9 18 12 -25 9 -5 10 32 8 -20 11 -3 13 42 
10 -5 10 6 10 36 10 -3 12 -14 10 9 11 4 9 -5 
10 26 11 27 8 -7 1562 1071 100 MP stroke
10 -10 8 6 9 -7 12 24 8 29 8 32 8 27 6 -35 
8 -14 7 -32 7 5 13 53 5 30 -2 -7 7 -9 5 -5 
6 -24 6 13 5 15 7 -41 4 -33 5 -4 6 -28 3 -15 
7 14 4 -8 4 16 5 -28 6 -30 6 49 5 0 5 -29 
4 10 6 0 4 -1 3 -8 4 2 3 5 6 4 4 14 
2 -14 3 -21 3 5 4 -5 3 0 3 18 2 35 1 16 
2 -9 2 12 3 -31 3 3 1 27 1 -21 2 -11 2 -21 
1 23 2 -11 1 -33 2 29 3 -4 3 -6 1 -25 2 -34 
1 20 2 19 2 20 1 0 1 35 1 14 -1 -86 0 -19 
-1 -9 -2 -24 -1 53 0 4 -2 10 -3 -20 -3 -58 -2 23 
-2 -17 -2 -28 -3 50 -3 27 -3 -10 -2 -39 -3 -42 -2 -13 
-2 1 -4 13 -2 -25 -3 -35 -4 13 -1 5 -3 -13 -4 -51 
-3 27 -4 37 -4 -21 1334 1308 100 MP stroke
-4 7 -5 0 -4 -27 -3 -20 -6 -23 -4 36 -5 29 -6 -16 
-5 35 -5 -21 -5 -12 -5 -6 -6 22 -6 24 -6 -26 -5 -57 
-6 -1 -5 33 -4 -31 -5 -52 -4 10 -5 42 -4 6 -6 -36 
-4 16 -5 -9 -4 -39 -4 -7 -4 -23 -3 53 -5 -19 -5 -46 
-5 24 -6 31 -5 15 -4 -31 -5 10 -5 16 -5 -35 -5 -56 
-4 -36 -7 7 -6 15 -4 -3 -5 14 -5 -46 -5 28 -4 33 
-4 -70 -5 63 -5 11 -6 -96 -5 -26 -7 -8 -10 6 0 2 
-2 22 -8 -34 -4 -10 -6 1 -6 -27 -4 33 -6 4 -5 -15 
-6 2 -5 -37 -6 -64 -7 1 -7 -23 -8 -77 -6 25 -5 59 
-7 13 -8 -17 -6 -6 -5 -21 -6 17 -6 -1 -7 -59 -6 -21 
-7 -32 -4 -74 -7 22 -5 46 -5 22 -12 -16 -2 -52 -2 9 
-9 19 -4 -67 -7 -41 -6 9 -6 -12 -7 -3 -6 -15 -8 -53 
-8 -11 -8 52 -9 15 1873 2015 100 MP stroke
-7 -15 -8 -38 -8 -36 -8 -4 -7 -13 -7 -70 -8 -22 -6 -5 
-7 -5 -7 14 -6 -51 -5 -21 -6 18 -6 20 -6 -57 -5 -114 
-5 35 -7 17 -2 -62 -11 13 -9 15 0 -42 -5 1 -5 77 
-7 -116 -10 -262 -4 -13 -8 6 -7 -32 -7 -9 -3 166 -4 242 
-7 -148 -6 35 -15 73 -4 -144 0 95 -14 -203 -10 -238 -8 -19 
-9 -52 -7 113 -11 -93 -3 107 -3 316 -8 -11 -7 -70 -15 -47 
-6 74 1 -53 -11 32 -7 -28 -13 -376 -20 -48 -3 24 -3 -63 
-11 20 -7 30 -3 362 -6 117 -12 -187 -1 0 -15 8 -16 80 
2 -35 -16 -119 -6 106 -4 -208 -18 -411 -8 161 -20 190 -5 -155 
-3 266 -13 222 2 -106 -22 153 -3 -7 3 -65 -30 54 -1 -54 
-7 -41 -18 -94 2 -12 -19 128 -8 44 -3 -3 -21 20 4 -33 
-6 -24 -25 58 1 -16 -11 -17 -14 71 1 -5 -18 3 -4 60 
-7 39 -14 16 1 -81 2642 2567 100 MP stroke
-28 -110 -4 50 12 94 -22 4 0 15 -7 -22 -13 -46 1 36 
-13 -81 -3 -55 -5 45 -11 -64 1 5 -12 -38 -4 -24 2 80 
-7 34 -6 12 -12 -138 -2 -60 6 92 -15 -277 -7 -334 -1 173 
-10 39 0 -103 -2 350 -2 215 -3 -50 -9 106 1 24 -12 -41 
-7 13 8 -6 -9 1 -4 -35 0 -26 -4 -14 -4 -9 -5 59 
-2 -20 -5 -46 -4 25 -8 48 -4 101 4 -1 -11 -69 -5 -14 
-1 70 -9 30 -1 -14 -5 14 -6 -72 1 42 -5 3 -8 -79 
-2 34 0 64 -8 56 -6 -27 0 38 -4 15 -8 -62 -3 18 
1 -22 -7 -34 -6 -12 1 76 -6 8 -2 -71 0 66 -5 29 
-6 -9 0 19 -1 -36 -9 2 -5 33 0 45 -5 -3 -5 -22 
-5 -6 -5 51 -5 140 -6 18 -6 -53 -6 -15 -6 -15 -6 -43 
-6 -29 -7 28 -5 -17 -4 -48 -6 41 -6 51 -7 95 -5 -47 
-6 -29 -7 12 -6 29 3119 2267 100 MP stroke
-7 80 -6 -103 -5 77 -6 -117 -6 -59 -6 -28 -7 -20 -4 7 
-9 -115 -13 -242 0 285 -9 -170 -13 -243 -6 148 -7 106 -1 372 
-6 12 -10 -11 -5 33 -10 -41 -6 -83 -8 100 -8 -5 -6 -75 
-9 -25 -6 53 -8 -70 -9 82 -7 46 -9 37 -7 140 -10 -4 
-8 56 -9 16 -8 -4 -9 -193 -11 -38 -7 -18 -11 15 -8 131 
-7 -1 -11 -76 -7 55 -9 24 -7 43 -9 -13 -9 -48 -8 38 
-9 60 -8 42 -11 -134 -8 -4 -9 149 -10 22 -9 -96 -11 2 
3561 2072 57 MP stroke
gr

c8
0 sg
%%IncludeResource: font Helvetica
/Helvetica /WindowsLatin1Encoding 120 FMSR

1308  294 mt 
(Experiment 2a - Analog magnetometers - RMSE of orientation \
- function of distance) s
2502 4939 mt 
(Distance to center of sensor network [m]) s
 558 2912 mt  -90 rotate
(RMSE [degree]) s
90 rotate

end %%Color Dict

eplot
%%EndObject

epage
end

showpage

%%Trailer
%%EOF
