%!PS-Adobe-2.0 EPSF-1.2
%%Creator: MATLAB, The MathWorks, Inc. Version 7.13.0.564 (R2011b). Operating System: Microsoft Windows 7.
%%Title: ..\figures\digital_ort_pos_bias.eps
%%CreationDate: 11/13/2012  17:43:39
%%DocumentNeededFonts: Helvetica
%%DocumentProcessColors: Cyan Magenta Yellow Black
%%Extensions: CMYK
%%Pages: 1
%%BoundingBox:    52   199   552   602
%%EndComments

%%BeginProlog
% MathWorks dictionary
/MathWorks 160 dict begin
% definition operators
/bdef {bind def} bind def
/ldef {load def} bind def
/xdef {exch def} bdef
/xstore {exch store} bdef
% operator abbreviations
/c  /clip ldef
/cc /concat ldef
/cp /closepath ldef
/gr /grestore ldef
/gs /gsave ldef
/mt /moveto ldef
/np /newpath ldef
/cm /currentmatrix ldef
/sm /setmatrix ldef
/rm /rmoveto ldef
/rl /rlineto ldef
/s {show newpath} bdef
/sc {setcmykcolor} bdef
/sr /setrgbcolor ldef
/sg /setgray ldef
/w /setlinewidth ldef
/j /setlinejoin ldef
/cap /setlinecap ldef
/rc {rectclip} bdef
/rf {rectfill} bdef
% page state control
/pgsv () def
/bpage {/pgsv save def} bdef
/epage {pgsv restore} bdef
/bplot /gsave ldef
/eplot {stroke grestore} bdef
% orientation switch
/portraitMode 0 def /landscapeMode 1 def /rotateMode 2 def
% coordinate system mappings
/dpi2point 0 def
% font control
/FontSize 0 def
/FMS {/FontSize xstore findfont [FontSize 0 0 FontSize neg 0 0]
  makefont setfont} bdef
/ISOLatin1Encoding where {pop /WindowsLatin1Encoding 256 array bdef
ISOLatin1Encoding WindowsLatin1Encoding copy pop
/.notdef/.notdef/quotesinglbase/florin/quotedblbase/ellipsis/dagger
/daggerdbl/circumflex/perthousand/Scaron/guilsinglleft/OE/.notdef/.notdef
/.notdef/.notdef/quoteleft/quoteright/quotedblleft/quotedblright/bullet
/endash/emdash/tilde/trademark/scaron/guilsinglright/oe/.notdef/.notdef
/Ydieresis WindowsLatin1Encoding 128 32 getinterval astore pop}
{/WindowsLatin1Encoding StandardEncoding bdef} ifelse
/reencode {exch dup where {pop load} {pop StandardEncoding} ifelse
  exch dup 3 1 roll findfont dup length dict begin
  { 1 index /FID ne {def}{pop pop} ifelse } forall
  /Encoding exch def currentdict end definefont pop} bdef
/isroman {findfont /CharStrings get /Agrave known} bdef
/FMSR {3 1 roll 1 index dup isroman {reencode} {pop pop} ifelse
  exch FMS} bdef
/csm {1 dpi2point div -1 dpi2point div scale neg translate
 dup landscapeMode eq {pop -90 rotate}
  {rotateMode eq {90 rotate} if} ifelse} bdef
% line types: solid, dotted, dashed, dotdash
/SO { [] 0 setdash } bdef
/DO { [.5 dpi2point mul 4 dpi2point mul] 0 setdash } bdef
/DA { [6 dpi2point mul] 0 setdash } bdef
/DD { [.5 dpi2point mul 4 dpi2point mul 6 dpi2point mul 4
  dpi2point mul] 0 setdash } bdef
% macros for lines and objects
/L {lineto stroke} bdef
/MP {3 1 roll moveto 1 sub {rlineto} repeat} bdef
/AP {{rlineto} repeat} bdef
/PDlw -1 def
/W {/PDlw currentlinewidth def setlinewidth} def
/PP {closepath eofill} bdef
/DP {closepath stroke} bdef
/MR {4 -2 roll moveto dup  0 exch rlineto exch 0 rlineto
  neg 0 exch rlineto closepath} bdef
/FR {MR stroke} bdef
/PR {MR fill} bdef
/L1i {{currentfile picstr readhexstring pop} image} bdef
/tMatrix matrix def
/MakeOval {newpath tMatrix currentmatrix pop translate scale
0 0 1 0 360 arc tMatrix setmatrix} bdef
/FO {MakeOval stroke} bdef
/PO {MakeOval fill} bdef
/PD {currentlinewidth 2 div 0 360 arc fill
   PDlw -1 eq not {PDlw w /PDlw -1 def} if} def
/FA {newpath tMatrix currentmatrix pop translate scale
  0 0 1 5 -2 roll arc tMatrix setmatrix stroke} bdef
/PA {newpath tMatrix currentmatrix pop	translate 0 0 moveto scale
  0 0 1 5 -2 roll arc closepath tMatrix setmatrix fill} bdef
/FAn {newpath tMatrix currentmatrix pop translate scale
  0 0 1 5 -2 roll arcn tMatrix setmatrix stroke} bdef
/PAn {newpath tMatrix currentmatrix pop translate 0 0 moveto scale
  0 0 1 5 -2 roll arcn closepath tMatrix setmatrix fill} bdef
/vradius 0 def /hradius 0 def /lry 0 def
/lrx 0 def /uly 0 def /ulx 0 def /rad 0 def
/MRR {/vradius xdef /hradius xdef /lry xdef /lrx xdef /uly xdef
  /ulx xdef newpath tMatrix currentmatrix pop ulx hradius add uly
  vradius add translate hradius vradius scale 0 0 1 180 270 arc 
  tMatrix setmatrix lrx hradius sub uly vradius add translate
  hradius vradius scale 0 0 1 270 360 arc tMatrix setmatrix
  lrx hradius sub lry vradius sub translate hradius vradius scale
  0 0 1 0 90 arc tMatrix setmatrix ulx hradius add lry vradius sub
  translate hradius vradius scale 0 0 1 90 180 arc tMatrix setmatrix
  closepath} bdef
/FRR {MRR stroke } bdef
/PRR {MRR fill } bdef
/MlrRR {/lry xdef /lrx xdef /uly xdef /ulx xdef /rad lry uly sub 2 div def
  newpath tMatrix currentmatrix pop ulx rad add uly rad add translate
  rad rad scale 0 0 1 90 270 arc tMatrix setmatrix lrx rad sub lry rad
  sub translate rad rad scale 0 0 1 270 90 arc tMatrix setmatrix
  closepath} bdef
/FlrRR {MlrRR stroke } bdef
/PlrRR {MlrRR fill } bdef
/MtbRR {/lry xdef /lrx xdef /uly xdef /ulx xdef /rad lrx ulx sub 2 div def
  newpath tMatrix currentmatrix pop ulx rad add uly rad add translate
  rad rad scale 0 0 1 180 360 arc tMatrix setmatrix lrx rad sub lry rad
  sub translate rad rad scale 0 0 1 0 180 arc tMatrix setmatrix
  closepath} bdef
/FtbRR {MtbRR stroke } bdef
/PtbRR {MtbRR fill } bdef
/stri 6 array def /dtri 6 array def
/smat 6 array def /dmat 6 array def
/tmat1 6 array def /tmat2 6 array def /dif 3 array def
/asub {/ind2 exch def /ind1 exch def dup dup
  ind1 get exch ind2 get sub exch } bdef
/tri_to_matrix {
  2 0 asub 3 1 asub 4 0 asub 5 1 asub
  dup 0 get exch 1 get 7 -1 roll astore } bdef
/compute_transform {
  dmat dtri tri_to_matrix tmat1 invertmatrix 
  smat stri tri_to_matrix tmat2 concatmatrix } bdef
/ds {stri astore pop} bdef
/dt {dtri astore pop} bdef
/db {2 copy /cols xdef /rows xdef mul dup 3 mul string
  currentfile exch readhexstring pop
  dup 0 3 index getinterval /rbmap xdef
  dup 2 index dup getinterval /gbmap xdef
  1 index dup 2 mul exch getinterval /bbmap xdef pop pop}bdef
/it {gs np dtri aload pop moveto lineto lineto cp c
  cols rows 8 compute_transform 
  rbmap gbmap bbmap true 3 colorimage gr}bdef
/il {newpath moveto lineto stroke}bdef
currentdict end def
%%EndProlog

%%BeginSetup
MathWorks begin

0 cap

end
%%EndSetup

%%Page: 1 1
%%BeginPageSetup
%%PageBoundingBox:    52   199   552   602
MathWorks begin
bpage
%%EndPageSetup

%%BeginObject: obj1
bplot

/dpi2point 12 def
portraitMode 0204 7344 csm

  422   109  5999  4845 MR c np
85 dict begin %Colortable dictionary
/c0 { 0.000000 0.000000 0.000000 sr} bdef
/c1 { 1.000000 1.000000 1.000000 sr} bdef
/c2 { 0.900000 0.000000 0.000000 sr} bdef
/c3 { 0.000000 0.820000 0.000000 sr} bdef
/c4 { 0.000000 0.000000 0.800000 sr} bdef
/c5 { 0.910000 0.820000 0.320000 sr} bdef
/c6 { 1.000000 0.260000 0.820000 sr} bdef
/c7 { 0.000000 0.820000 0.820000 sr} bdef
c0
1 j
1 sg
   0    0 6913 5185 PR
6 w
0 4225 5356 0 0 -4225 899 4614 4 MP
PP
-5356 0 0 4225 5356 0 0 -4225 899 4614 5 MP stroke
4 w
DO
SO
6 w
0 sg
 899  389 mt 6255  389 L
 899 4614 mt 6255 4614 L
6255 4614 mt 6255  389 L
 899 4614 mt  899  389 L
 899 4614 mt 6255 4614 L
 899 4614 mt  899  389 L
 899 4614 mt  899 4560 L
 899  389 mt  899  442 L
%%IncludeResource: font Helvetica
/Helvetica /WindowsLatin1Encoding 120 FMSR

 816 4759 mt 
(0.1) s
1970 4614 mt 1970 4560 L
1970  389 mt 1970  442 L
1854 4759 mt 
(0.15) s
3041 4614 mt 3041 4560 L
3041  389 mt 3041  442 L
2958 4759 mt 
(0.2) s
4112 4614 mt 4112 4560 L
4112  389 mt 4112  442 L
3996 4759 mt 
(0.25) s
5183 4614 mt 5183 4560 L
5183  389 mt 5183  442 L
5100 4759 mt 
(0.3) s
6255 4614 mt 6255 4560 L
6255  389 mt 6255  442 L
6139 4759 mt 
(0.35) s
 899 4614 mt  925 4614 L
6255 4614 mt 6228 4614 L
 899 4614 mt  952 4614 L
6255 4614 mt 6201 4614 L
 640 4658 mt 
(10) s
%%IncludeResource: font Helvetica
/Helvetica /WindowsLatin1Encoding 80 FMSR

 773 4584 mt 
(-1) s
 899 4190 mt  925 4190 L
6255 4190 mt 6228 4190 L
 899 3942 mt  925 3942 L
6255 3942 mt 6228 3942 L
 899 3766 mt  925 3766 L
6255 3766 mt 6228 3766 L
 899 3629 mt  925 3629 L
6255 3629 mt 6228 3629 L
 899 3518 mt  925 3518 L
6255 3518 mt 6228 3518 L
 899 3423 mt  925 3423 L
6255 3423 mt 6228 3423 L
 899 3342 mt  925 3342 L
6255 3342 mt 6228 3342 L
 899 3270 mt  925 3270 L
6255 3270 mt 6228 3270 L
 899 3205 mt  925 3205 L
6255 3205 mt 6228 3205 L
 899 3205 mt  952 3205 L
6255 3205 mt 6201 3205 L
%%IncludeResource: font Helvetica
/Helvetica /WindowsLatin1Encoding 120 FMSR

 640 3249 mt 
(10) s
%%IncludeResource: font Helvetica
/Helvetica /WindowsLatin1Encoding 80 FMSR

 773 3175 mt 
(0) s
 899 2781 mt  925 2781 L
6255 2781 mt 6228 2781 L
 899 2533 mt  925 2533 L
6255 2533 mt 6228 2533 L
 899 2357 mt  925 2357 L
6255 2357 mt 6228 2357 L
 899 2221 mt  925 2221 L
6255 2221 mt 6228 2221 L
 899 2109 mt  925 2109 L
6255 2109 mt 6228 2109 L
 899 2015 mt  925 2015 L
6255 2015 mt 6228 2015 L
 899 1933 mt  925 1933 L
6255 1933 mt 6228 1933 L
 899 1861 mt  925 1861 L
6255 1861 mt 6228 1861 L
 899 1797 mt  925 1797 L
6255 1797 mt 6228 1797 L
 899 1797 mt  952 1797 L
6255 1797 mt 6201 1797 L
%%IncludeResource: font Helvetica
/Helvetica /WindowsLatin1Encoding 120 FMSR

 640 1841 mt 
(10) s
%%IncludeResource: font Helvetica
/Helvetica /WindowsLatin1Encoding 80 FMSR

 773 1767 mt 
(1) s
 899 1373 mt  925 1373 L
6255 1373 mt 6228 1373 L
 899 1125 mt  925 1125 L
6255 1125 mt 6228 1125 L
 899  949 mt  925  949 L
6255  949 mt 6228  949 L
 899  812 mt  925  812 L
6255  812 mt 6228  812 L
 899  701 mt  925  701 L
6255  701 mt 6228  701 L
 899  607 mt  925  607 L
6255  607 mt 6228  607 L
 899  525 mt  925  525 L
6255  525 mt 6228  525 L
 899  453 mt  925  453 L
6255  453 mt 6228  453 L
 899  389 mt  925  389 L
6255  389 mt 6228  389 L
 899  389 mt  952  389 L
6255  389 mt 6201  389 L
%%IncludeResource: font Helvetica
/Helvetica /WindowsLatin1Encoding 120 FMSR

 640  433 mt 
(10) s
%%IncludeResource: font Helvetica
/Helvetica /WindowsLatin1Encoding 80 FMSR

 773  359 mt 
(2) s
 899  389 mt 6255  389 L
 899 4614 mt 6255 4614 L
6255 4614 mt 6255  389 L
 899 4614 mt  899  389 L
gs 899 388 5357 4227 MR c np
/c8 { 0.000000 0.000000 1.000000 sr} bdef
c8
5 433 2 216 -1 150 8 116 14 88 -1 71 7 53 4 39 
5 28 4 17 6 10 6 3 4 -3 2 -6 10 -9 9 -10 
6 -10 9 -9 1 -7 4 -5 7 -2 11 0 8 3 3 6 
10 6 -1 8 14 9 9 8 4 8 9 7 6 6 3 5 
2 3 17 1 8 -1 2 -2 14 -4 2 -5 5 -5 3 -6 
11 -7 14 -5 2 -4 10 -3 2 -1 10 0 5 3 5 3 
17 5 5 7 14 6 11 7 -6 7 8 6 7 5 15 4 
6 3 7 2 3 0 18 -1 0 -1 12 -2 8 -3 17 -2 
3 0 7 0 6 2 11 3 20 6 8 7 12 9 4 10 
10 12 8 12 8 12 20 11 13 11 18 8 21 6 -6 4 
7 1 13 -3 22 -5 8 -8 12 -11 6 -15 23 -13 10 -14 
0 -15 27 -14 10 -11 13 -6 9 -2 14 1 11 8 12 10 
11 15 28 16 14 18 2977 2160 100 MP stroke
4 18 18 17 10 15 15 16 12 11 18 9 13 7 16 4 
16 2 13 1 11 0 13 -2 13 -3 14 -7 16 -3 9 0 
22 -4 12 -5 18 -4 11 -5 13 -4 13 -4 13 -5 9 -4 
18 -4 17 -4 13 -5 12 -4 16 -5 11 -7 11 -6 13 -6 
10 -8 13 -12 15 -14 13 -13 13 -19 10 -19 10 -16 10 -19 
12 -15 11 -15 13 -3 10 -1 11 9 12 13 12 21 8 25 
9 24 7 26 10 23 8 20 14 16 7 15 8 9 7 5 
11 5 6 -1 11 -3 0 -2 9 -2 8 -4 11 -3 2 -4 
7 0 8 -3 6 1 3 -5 5 -2 4 -3 8 -7 5 -13 
7 -7 -3 -16 7 -14 2 -18 5 -20 -3 -21 -1 -26 0 -21 
3 -19 0 -20 -3 -24 -2 -17 0 -2 -4 -5 -3 4 -7 15 
-2 21 -1 19 -10 23 -6 21 -8 19 -5 12 -8 14 -9 8 
-10 0 -6 -6 -10 -5 2264 2230 100 MP stroke
-9 -15 -12 -8 -10 -19 -12 -20 -11 -23 -14 -8 -10 -18 -14 -21 
-12 -4 -14 -6 -15 -10 -15 -3 -15 -3 -12 -5 -14 -9 -19 -12 
-13 -6 -20 -18 -17 -21 -6 -25 -24 -26 -13 -28 -17 -23 -14 -18 
-16 -23 -22 -10 -16 -7 -17 -10 -16 -3 -14 8 -21 18 -20 7 
-16 14 -22 10 -24 15 -8 12 -17 8 -21 -2 -14 3 -18 -14 
-15 -19 -23 -30 -13 -45 -33 -46 -6 -55 -13 -61 -19 -66 -21 -91 
-13 -135 -29 -33 -13 -5 -8 -40 -20 11 -15 -2 -18 30 -17 -21 
-19 49 -15 75 -15 29 -14 30 -23 14 -16 13 -10 -26 -25 5 
-11 -36 -18 -34 -12 -79 -12 -59 -18 -79 -11 -125 -21 -85 -10 -112 
-14 155 -11 44 -16 177 -10 122 -17 90 -20 92 -11 65 -15 55 
-9 54 -13 43 -14 34 -13 27 -10 18 -14 14 -13 8 -19 5 
-10 1 -15 -1 -8 -1 -14 0 -9 5 -20 7 -16 13 -9 18 
-12 22 -12 26 -11 27 3759 2461 100 MP stroke
-13 27 -16 27 -20 24 -9 25 -2 23 -23 21 -7 18 -9 18 
-23 16 -8 16 -12 15 -8 14 -8 14 -9 14 -17 14 -22 13 
0 14 -17 12 -9 12 -16 12 -15 10 -5 11 -12 9 -12 9 
-10 8 -13 8 -10 7 -12 7 -6 7 -15 6 -13 6 -9 6 
-21 5 -9 4 -5 4 -12 4 -10 3 -16 2 1 2 -14 2 
-6 1 -13 2 -4 1 -15 2 -8 2 -5 3 -8 4 -15 4 
-3 5 0 5 -9 7 -17 7 -5 7 -6 6 -5 6 -7 6 
-14 5 -1 4 -2 3 -10 3 2 1 -12 0 -1 0 -4 0 
-4 -1 -1 -1 -4 0 -16 0 -4 1 -1 1 -4 2 0 2 
-4 3 0 3 -9 4 -1 3 -1 4 -3 4 -2 3 2 4 
-5 3 -3 3 -1 3 1 2 -2 2 0 2 -3 2 4 1 
1 1 1 1 -1 -1 3 0 1 0 3 -1 2 -1 2 0 
4 -1 2 0 2 -1 4434 1861 100 MP stroke
6 0 5 0 5 0 1 0 8 0 1 0 10 0 5 0 
7 0 6 -1 9 0 10 0 6 0 6 -1 17 -1 13 -1 
4 -1 12 -3 11 -2 12 -4 16 -4 14 -6 3 -6 18 -7 
8 -8 9 -8 13 -9 11 -8 15 -8 17 -7 10 -6 14 -5 
16 -4 16 -3 9 -2 16 -1 12 0 16 -1 14 0 7 -1 
17 -1 18 -1 13 -2 12 -3 16 -3 11 -3 17 -4 16 -4 
16 -4 10 -5 11 -4 10 -4 17 -4 11 -4 26 -4 11 -2 
5 -3 21 -2 10 -2 7 -1 14 0 8 -1 22 0 13 0 
17 -1 2 0 11 -2 20 -2 10 -4 11 -5 5 -7 13 -8 
16 -11 9 -11 22 -13 0 -16 22 -12 13 -13 12 -14 11 -8 
13 -6 16 -7 17 -1 8 7 15 7 15 8 20 8 14 8 
8 7 17 5 16 4 21 -2 15 -2 14 -8 13 -11 20 -15 
19 -18 14 -18 18 -19 3207 2210 100 MP stroke
17 -22 18 -19 18 -14 17 -13 13 -6 14 -3 25 2 20 6 
13 9 17 12 19 13 17 12 20 8 13 7 29 2 9 -1 
17 -8 22 -12 16 -18 19 -21 15 -27 19 -27 12 -27 24 -29 
16 -22 17 -16 17 -12 17 -6 20 -1 18 12 16 19 18 23 
17 33 16 34 19 35 22 34 19 32 13 28 21 23 31 16 
2 10 16 7 19 -1 16 -6 19 -9 16 -12 21 -12 28 -15 
1 -5 18 -5 17 -2 20 2 18 4 16 6 16 12 18 11 
19 8 18 3 18 9 17 4 17 1 18 -2 20 -4 19 -6 
17 -6 19 -8 21 -5 16 -3 19 -4 13 0 28 1 18 2 
4 5 21 7 17 6 20 10 26 7 2 8 19 7 17 5 
16 5 14 3 15 4 14 3 17 1 11 0 27 4 12 0 
10 4 2 1 9 3 19 3 9 2 17 1 12 2 16 2 
11 2 13 1 12 3 1547 2080 100 MP stroke
15 4 10 1 17 5 10 8 14 4 16 3 15 1 17 -1 
9 -4 11 -6 11 -11 8 -12 10 -16 11 -20 9 -18 6 -19 
0 -19 15 -20 13 -18 5 -15 9 -14 1 -11 8 -10 3 -6 
3 -7 1 -2 5 -3 2 -3 0 -10 -17 -6 4 -5 -9 -8 
26 -2 3 -6 -11 -1 3 -2 -18 1 -30 0 -2 2 -11 -2 
-6 0 -10 -4 -9 -5 -11 -8 -10 -5 -11 0 -12 -1 -15 5 
-12 5 -14 13 -15 12 -15 12 -15 9 -17 5 -16 -3 -10 -8 
-29 -11 -6 -1 -18 -13 -19 -13 -20 -14 -16 -13 -22 -9 -24 -1 
-18 0 -23 2 -19 3 -22 1 -21 2 -21 5 -22 3 -27 1 
-18 6 -21 5 -19 4 -21 5 -21 7 -29 7 -20 7 -20 9 
-22 12 -20 12 -14 13 -27 15 -22 14 -22 14 -19 15 -22 11 
-21 15 -21 11 -20 7 -22 4 -17 1 -19 -2 -16 -5 -19 -10 
-29 -12 -12 -13 -20 -13 2433 2220 100 MP stroke
-15 -15 -17 -16 -22 -12 -23 -12 -17 -9 -19 -8 -17 -7 -20 -6 
-13 3 -30 6 -14 10 -19 8 -15 10 -19 9 -21 7 -19 0 
-18 1 -18 -6 -13 -10 -20 -17 -27 -21 -15 -22 -16 -27 -15 -26 
-18 -26 -29 -25 -13 -20 -16 -16 -17 -14 -15 -7 -12 -6 -19 -6 
-23 -3 -19 -2 -16 -5 -16 -3 -16 -3 -14 -4 -25 -8 -14 -6 
-16 -7 -15 -8 -14 -5 -29 -10 -9 -6 -11 -7 -16 -7 -19 -6 
-20 -6 -13 -3 -15 -2 -13 -2 -14 -1 -13 1 -17 2 -15 1 
-14 2 -15 2 -13 2 -19 1 -20 1 -6 3 -19 1 0 1 
-18 2 -6 1 -18 2 -10 0 -15 1 -15 1 3 0 -13 0 
-20 4 -10 2 -19 3 0 6 -2 6 -12 6 -7 6 -5 7 
-6 6 -4 4 -15 4 5 2 -9 2 -2 0 -9 -1 1 -3 
-9 -4 -2 -4 0 -5 -4 -5 -5 -5 -2 -5 -3 -4 -5 -3 
-5 -3 -2 -1 -7 -1 3762 2566 100 MP stroke
2 1 -3 1 -3 0 -4 0 -1 -1 6 -3 0 -4 -4 -5 
-3 -8 -3 -10 -5 -10 -2 -11 -3 -12 -6 -12 -2 -11 8 -9 
-6 -5 -3 -3 -2 1 -13 1 1 11 -2 10 -6 13 -1 17 
4 15 -19 18 -2 19 0 35 -9 17 -6 14 0 13 -3 10 
-6 9 -1 7 -4 4 -6 3 -5 1 -2 0 -2 -2 -3 -2 
-11 -4 -4 -3 7 -4 -8 -4 -5 -4 -8 -4 4 -5 -13 -4 
-1 -6 -4 -6 -8 -8 -2 -8 -4 -12 -9 -13 -2 -11 -5 -13 
-2 -14 -4 -17 -7 -18 -6 -13 -3 -17 -3 -4 -10 -5 -5 -2 
-7 -4 0 18 -8 21 -9 18 3 25 -4 24 -9 23 -11 26 
-14 19 4 25 -5 18 -10 15 -8 13 3 9 -9 6 -9 3 
-11 0 -3 -4 -7 -5 -3 -7 -11 -9 -6 -11 -6 -11 -4 -12 
-5 -13 -6 -12 -7 -12 -7 -11 -7 -11 2 -9 -8 -8 -4 -8 
-5 -4 2 -3 -5 -2 4188 2546 100 MP stroke
-3 0 -10 2 3 2 -3 3 0 7 -8 1 2 10 0 12 
-1 9 -2 10 5 11 -4 9 -1 7 -4 7 11 7 -3 3 
3 2 2 2 1 4 7 0 4 3 5 3 1 2 9 4 
5 3 7 3 6 1 3 1 8 0 5 -2 1 -2 7 -3 
7 -4 6 -5 8 -5 8 -4 8 -5 6 -3 9 -4 9 -2 
9 -1 7 -1 9 0 7 1 13 1 13 0 7 1 12 0 
1 -1 14 -1 12 -2 6 -4 7 -4 17 -5 6 -6 4 -5 
7 -6 18 -7 9 -5 9 -7 7 -6 10 -5 4 -7 17 -4 
9 -6 9 -6 12 -3 9 -5 6 -7 14 -7 14 -14 5 -6 
12 -13 16 -11 3 -4 7 -13 12 -6 15 -2 8 1 9 2 
6 5 13 7 7 7 15 7 10 5 11 6 8 6 13 6 
14 6 5 5 8 6 16 12 16 3 9 9 11 6 10 3 
10 1 12 -1 7 -1 3485 2533 100 MP stroke
22 -1 8 -1 6 1 23 3 -1 3 18 6 11 3 3 2 
22 4 4 -1 9 -2 9 -5 12 -7 19 -8 3 -8 23 -11 
5 -12 9 -10 10 -11 9 -12 10 -14 11 -10 8 -5 12 -4 
8 -2 13 4 12 10 9 10 13 22 9 19 10 20 8 26 
8 22 9 23 12 20 9 19 10 20 10 16 10 15 7 12 
10 15 9 11 9 9 9 9 13 10 8 7 12 9 9 7 
12 7 11 4 1 11 11 5 7 9 10 9 8 8 8 7 
12 7 8 9 6 8 9 7 8 6 7 7 8 3 9 3 
6 3 8 1 9 -1 6 -1 8 0 8 -3 8 1 6 6 
8 7 7 6 7 12 7 17 8 17 4 18 7 20 7 20 
8 19 8 19 8 18 7 16 6 17 5 14 9 13 6 12 
5 12 8 10 7 10 7 9 6 9 5 10 6 9 5 8 
7 12 5 10 4 10 2613 1830 100 MP stroke
7 10 5 8 5 7 4 6 4 4 3 2 5 -2 4 -3 
5 -6 5 -8 3 -10 2 -12 3 -14 3 -16 3 -17 2 -15 
3 -18 3 -16 3 -16 1 -15 1 -16 1 -12 1 -11 0 -8 
2 -8 2 -6 -2 -2 -1 0 -1 -1 -2 2 -2 2 -1 3 
-1 2 -1 2 -3 2 -2 2 -5 1 -6 -2 -1 -1 -5 -2 
-3 -3 -4 -3 -5 -4 -5 -3 -4 -4 -5 -3 -6 -1 -5 -2 
-5 -1 -8 0 -6 1 -6 -1 -8 2 -8 0 -8 0 -7 1 
-6 0 -18 -1 -9 0 -7 0 -9 0 -9 0 -9 1 -9 1 
-9 2 -15 4 -2 3 -9 5 -9 5 -8 5 -15 5 -6 2 
-7 4 -14 1 -12 -1 -3 -1 -10 -3 -8 -4 -10 -5 -9 -6 
-10 -6 -8 -6 -6 -6 -5 -6 -14 -7 -7 -7 -2 -4 -13 -7 
-6 -7 -12 -8 -5 -9 -5 -10 -8 -11 -9 -10 -7 -12 -12 -12 
-18 -15 3 -10 -6 -14 3031 2185 100 MP stroke
-12 -12 -3 -12 -7 -14 -9 -9 -3 -11 -20 -9 -13 -10 3 -7 
-5 -7 -6 -7 -8 -6 -4 -8 -11 -6 -8 -8 -14 -7 -6 -8 
-3 -10 -10 -11 -6 -13 -5 -14 -8 -17 -9 -19 -12 -20 -10 -22 
-6 -24 -9 -24 -7 -23 -9 -21 -9 -22 -9 -23 -13 -18 -7 -18 
-11 -13 -8 -5 -11 -2 -12 3 -9 3 -13 1 -10 4 -9 5 
-10 -10 -14 -6 -16 -13 2 -26 -19 -26 -7 -36 -15 -30 -5 -24 
-18 -21 -17 -17 -3 -9 -11 -1 -21 4 -8 7 -7 7 -16 10 
-16 9 1 8 -29 15 -13 11 4 21 -21 16 -2 18 -8 17 
-13 17 -16 14 -5 15 -10 13 -18 10 -1 11 -14 10 -11 8 
-6 8 -10 7 -1 5 -14 8 -7 6 -8 6 -13 5 -20 2 
7 6 -9 3 -9 2 -7 2 -4 1 -7 1 -4 1 -7 2 
-10 2 -5 3 -5 5 -5 6 -6 6 -1 9 -3 9 -5 11 
-4 11 -1 11 -7 11 3900 2458 100 MP stroke
-2 11 1 11 -1 10 0 18 1 8 -1 7 2 6 0 6 
-4 5 4 4 2 4 5 2 4 2 4 2 7 1 6 1 
-1 0 2 0 6 0 1 0 10 0 9 0 2 1 3 2 
4 2 4 2 5 2 4 3 9 4 4 3 4 4 3 3 
5 4 5 3 7 3 8 3 14 3 -5 3 4 2 7 3 
0 2 14 2 1 2 10 1 7 1 0 1 5 0 6 -1 
3 0 2 -1 6 -1 6 -2 6 -2 3 -1 7 -2 4 -1 
8 0 5 0 1 0 6 2 2 1 5 2 6 3 5 2 
3 2 3 1 1 1 4 -1 3 -2 1 -3 3 -5 2 -6 
4 -7 2 -8 -2 -8 5 -8 3 -8 5 -7 0 -6 -1 -4 
2 -1 0 1 1 3 2 6 -1 8 -1 10 -1 12 3 14 
-2 14 -4 14 4 14 -1 13 0 12 -9 11 2 9 -1 7 
-2 5 -2 3 4 1 3610 2215 100 MP stroke
-3 -1 -2 -2 1 -4 -1 -4 1 -5 -4 -4 7 -3 -5 -2 
-1 -1 2 1 -1 2 -3 4 -3 6 2 6 -2 8 1 7 
-4 6 -1 9 -2 7 -1 7 -3 6 1 5 -4 5 -1 2 
-2 2 -1 -1 1 -2 -8 -5 -3 -4 4 -3 0 -3 -9 -4 
8 1 -4 0 1 4 -3 5 -6 7 1 8 -1 9 -3 11 
-2 10 -2 12 -1 11 -3 12 -3 11 -1 11 -1 11 -1 10 
0 10 -2 9 -2 8 -3 6 -1 7 -1 6 -1 4 -3 4 
-3 3 -2 2 0 3 -3 2 1 1 -2 1 -3 -1 0 -1 
-1 -3 -10 -5 4 -5 -1 -8 1 -8 -2 -11 -4 -10 2 -11 
0 -25 -6 -13 -1 -13 4 -13 -7 -12 -5 -13 3 -11 2 -10 
-1 -10 -9 -7 0 -6 -1 -4 -1 -3 0 -3 -4 -3 -4 -1 
-1 -3 -3 -5 -2 -6 -3 -9 -3 -6 0 -9 -3 -10 -3 -11 
-6 -6 2 -5 -4 -2 3767 2263 100 MP stroke
8 3 -5 5 -5 12 -6 15 -3 15 -4 15 -11 16 -4 14 
-12 12 7 8 -9 6 -6 2 -7 -2 -1 -6 -11 -9 -4 -11 
-5 -14 -4 -16 -9 -16 -6 -17 -5 -15 -3 -12 -8 -12 -9 -12 
-1 -7 -5 -8 -16 -11 0 -10 -4 -10 -10 -12 -11 -15 1 -16 
-10 -16 -4 -15 -9 -16 -5 -14 -9 -13 -5 -10 -9 -6 -5 -2 
-9 2 -4 3 -11 10 -2 10 -13 14 -8 17 -4 15 -8 16 
-3 15 -16 13 -8 11 1 9 -9 7 -8 6 -7 4 -4 2 
-8 2 -8 2 -9 1 -2 2 -7 2 -9 3 -8 3 -8 3 
-5 3 -7 2 -10 2 -5 1 -7 -1 -8 -2 -8 -3 -6 -3 
-8 -5 -4 -5 -4 -7 -7 -5 -6 -6 -13 -5 -9 -5 -8 -4 
-6 -3 -9 -3 -11 -2 -8 -1 -7 -2 -8 -2 -8 -2 -8 -2 
-10 -3 -8 -4 -8 -3 -8 -5 -9 -4 -10 -4 -5 -4 -9 -2 
-8 -1 -11 -1 -7 1 4436 2381 100 MP stroke
-5 2 -11 4 -11 4 -7 6 -14 6 -3 7 -9 7 -10 7 
-7 7 -4 5 -14 5 -14 3 -4 2 -9 0 -6 -1 -10 -3 
-8 -4 -11 -6 -6 -7 -10 -7 -8 -9 -9 -10 -10 -9 -8 -11 
-10 -8 -10 -9 0 -8 -6 -6 -11 -6 -11 -3 -8 0 -9 -1 
-4 2 -9 2 -8 3 -11 3 -10 3 -6 2 -11 3 -10 2 
0 1 -11 1 -6 0 -7 1 -6 1 -9 1 -5 2 -7 2 
-3 3 -10 5 -7 4 -7 5 -4 6 -5 6 -3 5 -7 4 
-4 3 -10 3 -6 0 -10 0 -4 -1 -12 -2 -7 -3 -2 -2 
-5 -3 -5 -2 -5 -2 -6 -2 -5 -1 -9 -1 -8 1 -3 1 
-5 3 -6 4 -2 5 -9 7 2 9 -2 10 -5 11 -2 11 
-2 12 -5 10 -3 10 -4 8 -2 6 0 4 2 3 -2 -1 
0 -4 1 -5 0 -7 2 -7 0 -8 2 -8 2 -8 2 -8 
2 -6 3 -6 2 -4 5005 2327 100 MP stroke
3 -1 -1 -1 2 0 2 3 4 3 3 3 3 3 4 3 
6 0 3 1 4 -2 4 -4 4 -5 0 -6 2 -8 7 -9 
1 -11 11 -10 0 -10 2 -11 5 -9 4 -8 4 -7 2 -4 
6 -4 5 -1 8 -2 3 -2 0 -1 11 -5 6 -4 -2 -4 
5 -8 5 -9 4 -10 4 -11 4 -10 8 -9 3 -9 5 -6 
7 -3 6 -2 2 1 7 3 6 3 5 6 3 7 5 6 
4 3 7 3 4 0 3 -2 5 -5 12 -7 6 -8 8 -10 
12 -12 -4 -2 5 -1 5 1 9 6 6 5 9 4 0 5 
7 -5 6 -15 12 -13 2 -25 10 -29 1 -27 3 -27 11 -18 
3 10 7 28 8 37 7 51 8 49 7 39 9 29 10 26 
6 15 1 6 15 -9 1 -8 6 -25 4 -13 6 -19 12 -19 
11 -11 1 -21 10 -11 4 26 11 6 3 -6 13 -11 3 -19 
6 -19 7 -21 7 -43 4481 2603 100 MP stroke
0 -32 13 -24 10 -39 3 -27 12 -29 3 -6 6 -10 8 -15 
5 28 10 17 5 19 8 11 6 37 11 42 4 28 5 24 
4 18 11 9 5 -4 2 -32 6 40 5 20 4 -15 9 6 
4 -6 8 -31 6 -16 3 5 4 2 7 19 9 51 1 56 
5 60 5 57 6 49 7 45 9 47 2 35 7 26 6 15 
3 6 8 2 4 2 0 -8 8 -15 12 -19 3 -26 7 -30 
4 -36 5 -41 5 -45 3 -43 6 -40 9 -38 5 -28 8 -30 
3 13 5 -4 3 46 4 48 5 49 8 52 4 65 11 53 
3 52 -1 47 3 39 5 31 5 22 6 15 11 7 3 -4 
2 -7 5 -17 0 -23 7 -24 3 -26 8 -24 5 -16 2 -13 
8 0 1 27 4 20 1 26 11 25 4 20 1 21 3 11 
4 8 6 5 2 -3 6 -3 5 -9 0 -13 3 -16 1 -22 
3 -25 9 -29 5 -34 3960 2122 100 MP stroke
1 -43 0 -49 2 -53 1 -49 5 -53 3 -61 3 -36 3 -12 
-1 -7 1 -19 1 17 3 -2 4 -9 0 -33 3 -24 1 -8 
3 -15 -2 -34 -3 -43 2 -56 -3 17 3 33 4 31 1 66 
2 62 -7 52 2 63 -2 55 2 41 2 40 -2 24 -1 4 
-1 5 -5 -6 -5 -21 -2 -23 -1 -24 -3 -30 -3 -40 2 -28 
-2 -26 -7 -26 -6 -24 -5 -15 -3 -17 -5 -18 1 -27 -3 -27 
-7 -27 -9 -41 -4 -35 -14 -38 -4 -28 -4 -31 -3 4 -8 6 
-4 5 -11 19 -8 24 -2 25 -15 8 -4 6 -5 -4 -11 18 
-8 7 -7 13 -10 11 -10 8 -7 39 -9 17 -10 12 -14 10 
-6 -17 -8 -6 -8 -20 -7 -23 -8 -55 -16 -42 -11 -57 -11 -55 
-5 -91 -20 -68 -2 13 -13 -22 -9 49 -14 75 -19 68 -9 63 
-12 57 -8 39 -11 37 -10 28 -15 19 -9 8 -19 -7 -9 -5 
-17 0 -10 -8 -14 -10 4465 2572 100 MP stroke
-14 10 -14 1 -11 -7 -19 12 -14 1 -14 -2 -15 -27 -18 -22 
-14 -73 -15 -27 -17 -43 -16 -43 -15 -37 -16 -26 -15 -26 -20 10 
-16 8 -19 25 -16 22 -17 17 -14 16 -17 -8 -14 5 -26 -8 
-17 25 -22 21 -13 29 -22 31 -13 43 -21 23 -25 12 -25 14 
-15 -14 -7 -3 -23 -25 -17 -29 -19 -16 -16 -11 -19 -10 -17 22 
-19 46 -15 34 -16 31 -20 22 -16 11 -15 6 -16 -8 -18 -15 
-15 -22 -16 -28 -14 -27 -16 -21 -13 -40 -16 -26 -17 -10 -14 -26 
-14 -13 -15 9 -14 13 -16 16 -12 18 -17 10 -12 34 -22 11 
-4 11 -12 11 -13 -3 -13 -20 -11 4 -13 3 -7 -12 -11 -2 
-8 14 -15 4 -11 15 -9 10 -14 9 -8 5 -11 1 -13 -3 
1 -2 -17 -17 -14 -8 2 -15 -18 -17 -6 -21 -16 -24 0 1 
-10 -6 -7 -1 -4 1 -10 5 -6 11 -3 10 -14 11 -6 13 
-8 16 -8 9 -8 10 5845 2634 100 MP stroke
-3 13 -9 8 -3 8 -9 5 -7 1 -4 -1 -5 -4 -2 -5 
-6 -7 0 -12 -8 -9 -1 -10 -4 -9 -1 -7 -6 -9 -4 -9 
1 5 -2 4 -1 5 -1 8 -1 12 0 13 -1 15 7 19 
0 19 -1 20 1 21 -2 21 -1 21 2 21 -1 19 18 18 
2 16 -1 16 2 13 4 11 0 8 14 6 9 3 -2 1 
5 -3 2 -5 6 -9 7 -11 16 -14 4 -16 2 -17 9 -20 
22 -21 -6 -19 13 -20 9 -20 1 -19 27 -21 2 -14 -1 -15 
6 -18 21 -11 10 -13 11 -14 8 -11 14 -13 21 -15 11 -10 
2 -13 24 -12 11 -8 1 -9 28 -6 9 -6 15 -4 11 -2 
7 -1 20 1 17 1 24 -1 4 3 15 0 10 -6 41 6 
18 -6 -5 -3 14 -7 12 -11 47 -34 -6 3 9 -17 12 -23 
33 -22 8 -25 10 -25 17 -12 15 -11 11 -3 20 8 22 15 
13 23 21 26 8 28 5133 2868 100 MP stroke
21 28 4 28 19 25 23 20 6 20 8 16 17 13 16 11 
20 9 17 8 14 7 2 8 21 11 11 9 22 14 11 11 
22 14 11 12 7 11 14 6 16 5 18 3 14 1 19 -6 
2 -4 15 -7 10 -8 12 -8 22 -7 22 -9 1 -10 17 -8 
9 -3 15 -6 7 -4 17 -2 20 5 15 7 17 10 3 28 
15 25 10 31 13 30 14 29 21 28 11 24 16 24 12 20 
14 17 12 15 26 13 2 10 19 8 14 5 12 8 9 6 
14 2 13 0 12 2 27 1 9 -2 12 1 11 -2 13 1 
14 4 12 1 24 0 9 10 16 8 12 8 13 9 18 10 
18 8 14 9 17 9 11 2 18 6 15 6 17 -1 20 -2 
15 -1 16 -3 25 -9 -7 -11 41 -1 12 -9 7 -12 16 -10 
18 -8 9 -11 35 -15 26 -13 -2 5 23 -4 11 0 20 4 
18 9 20 9 18 13 3676 2294 100 MP stroke
20 11 14 9 17 10 20 6 19 4 19 3 22 -2 14 -5 
20 -5 17 -7 22 -10 23 -7 14 -9 17 -11 16 -5 17 -7 
19 -5 31 -2 1 -2 26 -1 20 -3 1 -4 22 6 13 2 
21 7 23 6 4 8 12 13 11 14 17 14 11 12 14 14 
13 15 14 14 13 8 12 10 8 8 13 2 14 6 12 1 
9 -1 11 -4 10 -10 7 -12 15 -16 7 -1 19 -18 3 -14 
8 -12 4 -7 11 -7 7 -5 5 -3 12 3 2 3 5 7 
8 12 5 13 8 14 3 12 10 11 0 12 4 10 4 6 
5 0 4 1 2 -3 4 -6 6 -7 5 -8 -1 -11 8 -13 
-2 -15 1 -12 2 -8 0 -4 2 -1 1 -4 -1 -3 2 11 
-3 18 -2 15 1 14 -4 7 3 6 -6 -18 -6 -6 1 40 
-5 -2 0 -18 -5 12 -3 12 -7 5 -4 8 -5 6 -7 8 
-7 8 -7 6 -5 8 2896 2137 100 MP stroke
-8 1 -10 -3 -6 -6 -8 -8 -7 -10 -7 -15 -12 -16 -8 -14 
-10 -19 -7 -17 -13 -20 -12 -23 -7 -19 -13 -23 -10 -14 -15 -15 
-11 -15 -13 -6 -12 -6 -13 -3 -13 3 -15 3 -12 3 -14 7 
-15 5 -13 3 -15 -1 -16 5 -14 2 -16 1 -14 -4 -19 -4 
-16 -6 -19 -2 -11 -3 -25 -7 -12 -6 -19 -6 -16 -12 -18 -19 
-19 -3 -20 -20 -13 -11 -23 -26 -29 -25 -4 1 -22 -8 -15 -5 
-20 -12 -19 -2 -20 1 -17 -19 -20 9 -22 -17 -19 -26 -17 -39 
-15 -44 -25 -68 -18 -30 -20 -57 -16 -33 -23 -42 -22 22 -14 11 
-21 49 -14 58 -35 35 -20 43 -4 14 -22 12 -14 8 -21 -8 
-22 -27 -15 -33 -18 -50 -20 -65 -19 -72 -20 -81 -16 -83 -17 -81 
-16 -52 -20 159 -19 41 -17 132 -17 77 -14 72 -18 63 -17 66 
-22 46 -21 34 -2 25 -22 27 -12 16 -20 18 -15 11 -16 7 
-12 7 -16 7 -23 4 4479 2390 100 MP stroke
-9 9 -11 7 -19 9 -7 8 -23 10 -16 9 -12 10 -9 8 
-15 9 -13 7 -3 4 -17 7 -15 4 -11 4 -8 4 -11 3 
-12 4 -15 3 -9 4 -7 3 -13 4 -14 3 -6 4 -16 3 
-2 3 -7 3 -12 2 -9 2 -8 1 -8 1 -7 0 -15 -1 
-4 0 -10 -1 -2 0 -6 -1 -11 -1 -8 0 4 -1 -8 1 
-1 0 -10 1 -6 2 -2 1 -5 1 -4 2 -4 2 -4 1 
-4 2 -1 2 -2 1 -3 2 -5 1 -1 0 1 0 -6 -2 
-2 -2 -3 -2 -2 -3 -1 -3 -2 -4 0 -3 -1 -3 0 -5 
1 -1 0 -2 2 0 1 -1 -4 0 3 1 -1 0 10 1 
9 0 -1 1 8 0 4 0 0 1 5 0 1 0 4 1 
2 0 6 1 3 0 6 1 3 0 5 1 3 0 6 0 
6 0 1 0 1 -1 4 -1 1 -1 5 -1 1 -1 17 -2 
0 -1 5 -1 5 -1 4829 2257 100 MP stroke
0 -1 4 0 4 1 2 1 7 1 9 2 -1 2 6 3 
4 3 10 2 1 3 1 3 3 2 5 2 10 1 -4 1 
6 1 1 0 3 1 3 -1 14 -1 9 0 -2 -1 4 -2 
1 -1 8 -2 15 -2 0 -2 1 -2 -1 -3 4 -1 4 -3 
11 -1 1 -2 8 -2 -2 -1 7 0 -1 -1 9 2 2 2 
5 2 7 4 2 5 8 5 -9 7 10 6 0 7 3 8 
-6 7 8 6 11 7 1 6 2 5 0 4 2 3 15 3 
3 2 2 2 1 2 4 1 11 2 7 1 0 2 2 3 
4 2 10 4 8 4 0 5 2 6 6 5 11 6 3 6 
4 5 3 5 13 4 2 3 4 3 7 1 10 1 8 0 
0 -1 7 -1 7 -1 14 -1 1 -1 2 -1 6 0 13 1 
8 1 2 2 1 2 5 3 21 4 4 4 2 4 -3 5 
13 4 10 5 5 4 4361 2060 100 MP stroke
8 5 -2 4 11 4 13 4 7 3 8 3 4 3 8 3 
6 2 8 2 10 2 14 1 11 1 5 2 6 0 9 1 
8 0 13 0 12 -1 10 -1 9 -2 7 -3 7 -3 7 -3 
23 -4 7 -5 4 -5 10 -6 6 -6 21 -6 6 -7 13 -7 
9 -6 3 -7 12 -7 14 -6 9 -6 10 -5 9 -6 11 -4 
12 -5 12 -4 12 -4 9 -3 5 -4 10 -2 6 -3 31 -2 
15 -2 -5 -1 13 -1 17 -1 1 -1 20 0 17 -1 9 -1 
11 0 12 -2 25 -1 1 -1 15 0 12 -1 16 0 12 1 
15 1 22 2 18 3 9 4 19 3 7 4 36 2 12 2 
22 -1 8 -3 15 -7 19 -12 16 -8 22 -13 17 -18 17 -19 
16 -21 23 -23 18 -23 16 -22 17 -22 18 -18 16 -17 22 -13 
19 -9 19 -8 16 -5 15 0 21 -2 21 3 16 -1 18 5 
18 1 19 -3 16 -5 3089 2408 100 MP stroke
26 -4 8 -8 10 -12 20 -12 15 -17 18 -11 16 -12 14 -11 
13 -12 33 -8 5 -2 12 -3 17 -11 10 7 16 0 20 -3 
8 -5 16 -7 12 -7 12 -14 22 -9 8 -15 16 -4 8 -4 
12 3 11 15 16 20 20 28 1 35 18 39 11 41 17 43 
11 38 17 44 12 37 19 32 21 32 12 28 16 23 15 17 
13 12 17 4 16 1 15 -6 13 -12 14 -16 15 -22 17 -28 
13 -29 13 -33 15 -31 15 -28 16 -26 14 -19 14 -13 13 -14 
14 5 17 2 16 5 10 9 15 11 10 14 13 17 14 18 
3 17 14 16 14 16 11 13 13 9 12 4 14 -1 9 7 
20 0 11 0 4 1 14 2 10 9 12 12 9 13 11 13 
10 13 11 14 10 12 9 12 10 10 10 7 10 9 7 4 
16 5 14 4 5 2 11 -3 5 -6 15 -9 7 -11 4 -13 
7 -13 4 -13 7 -8 1810 2149 100 MP stroke
5 -9 9 -1 7 2 8 4 6 7 7 6 5 4 5 1 
6 4 3 -1 8 -3 5 -6 6 -12 4 -4 5 -8 2 -10 
-1 -10 7 -9 5 -13 1 -8 2 -9 0 -11 5 -8 0 -13 
-5 -10 5 -4 -2 -9 1 -6 -1 -6 -1 -6 2 -3 -2 -1 
-9 10 7 -2 -20 5 14 11 -1 12 -10 12 -11 7 4 9 
-13 4 -11 5 -3 3 -7 2 -5 0 -6 1 -8 -3 -7 -1 
-9 -5 -8 -3 -10 -2 -8 -1 -11 -7 -8 -4 -14 -6 -5 -10 
-9 -7 -16 -10 -10 -10 -10 -15 -11 -11 -18 2 -16 -5 -13 -2 
-12 -2 -13 1 -9 3 -23 7 -16 5 -12 6 -15 8 -13 7 
-23 4 -14 9 -14 7 -14 6 -18 5 -16 5 -18 4 -13 0 
-17 5 -13 2 -25 -1 -18 -6 -5 3 -17 -3 -12 -2 -20 -3 
-18 -2 -13 1 -14 2 -12 0 -16 5 -19 5 -17 7 -13 8 
-14 6 -16 7 -13 5 2500 2208 100 MP stroke
-21 0 -13 4 -12 7 -14 -3 -15 -2 -15 -3 -15 -5 -14 -6 
-14 -6 -23 -8 -6 -10 -10 -7 -22 -9 -17 -10 -3 -1 -14 -3 
-13 -3 -18 -2 -10 0 -13 0 -12 0 -14 2 -14 3 -14 2 
-10 1 -16 1 -10 1 -21 1 -15 0 0 1 -17 -1 -7 -1 
-24 0 -8 -1 -14 0 -10 1 -17 1 -13 3 -16 3 -10 5 
-12 5 -8 5 -22 5 -12 4 -16 4 -12 2 -4 1 -17 0 
-10 -1 -13 -2 -10 -2 -17 -3 -8 -3 -21 -2 -2 -1 -17 -1 
-13 0 -22 1 -4 1 -22 2 -6 2 -9 2 -13 2 -15 2 
-17 1 -3 1 -17 1 -7 0 -15 -1 -8 -1 -17 -1 -13 -2 
-9 -2 -14 -2 0 -2 -14 -2 -20 -2 -4 -2 -2 -3 -24 -1 
-7 -1 -5 -1 -16 0 -23 -1 2 2 -7 1 -10 3 -8 2 
-8 3 -13 4 -10 3 6 4 -14 4 -5 3 -5 3 -2 2 
-21 2 -6 1 1 1 3684 2213 100 MP stroke
1 0 -3 -1 -7 -2 -4 -2 -8 -3 4 -4 -11 -4 1 -5 
-1 -5 -5 -5 -6 -6 3 -5 -5 -5 0 -5 -1 -5 0 -5 
-1 -4 4 -3 1 -6 0 -6 -1 -2 1 -3 0 -3 1 -3 
0 -4 4 -4 3 -5 6 -7 0 -12 3 -7 1 -7 2 -7 
4 -6 4 -8 0 -7 1 -3 2 -2 3 -1 -1 -1 0 3 
12 2 0 2 1 1 -1 4 3 3 -1 2 1 4 0 7 
-2 3 2 1 -2 1 3 0 0 -1 -1 -4 -4 -5 3 -6 
4 -8 3 -10 0 -23 -1 -14 1 -14 2 -14 2 -14 0 -14 
1 -12 0 -9 3 -8 -1 -4 2 -1 -4 2 11 7 -2 9 
-2 11 3 13 0 13 1 14 0 26 -1 10 1 8 1 5 
0 3 -1 -2 2 -5 2 -6 0 -15 2 -9 -1 -7 5 -6 
2 -4 0 -4 1 2 2 3 4 5 1 5 -4 6 9 5 
4 4 -4 4 4 2 3623 2415 100 MP stroke
-4 0 8 -1 6 -2 -1 -4 0 -5 2 -5 9 -5 3 -6 
-2 -7 8 -4 5 -5 0 -4 1 -4 -3 -3 9 -4 4 -4 
-2 2 2 -2 7 1 0 3 6 0 0 5 3 4 1 4 
-1 3 4 4 4 4 4 3 -4 1 5 2 10 0 -3 1 
3 0 1 0 7 0 0 2 3 3 3 3 6 5 0 4 
5 5 6 5 3 4 -1 3 6 1 8 -1 -2 -2 7 -5 
8 -7 2 -7 -1 -9 3 -9 8 -10 4 -11 2 -10 1 -11 
10 -9 3 -10 2 -8 4 -9 1 -7 5 -6 6 -5 3 -5 
2 -4 7 -3 -1 -3 5 -3 3 -3 1 -4 8 -4 3 -4 
3 -5 4 -5 8 -9 -2 0 4 -4 3 -2 0 -2 3 -2 
1 0 0 2 12 3 4 2 0 4 1 5 1 4 3 5 
-1 4 6 3 4 2 3 -1 0 -2 3 -5 3 -8 -1 -10 
5 -11 2 -14 7 -15 3322 2638 100 MP stroke
2 -14 8 -16 0 -23 2 -9 4 -7 1 -6 14 -4 2 -2 
3 -2 2 -1 1 0 -2 -1 7 1 5 -1 3 1 5 -1 
2 0 3 -2 3 -1 3 -3 6 -3 3 -4 -3 -9 9 -3 
2 -8 14 -9 12 -19 -4 1 2 -8 -2 -7 3 -7 4 -5 
5 -3 -1 -4 4 3 5 5 7 6 3 5 10 6 -2 9 
8 5 2 7 4 6 9 2 3 2 7 0 2 -3 6 -3 
3 -6 6 -6 9 -7 1 -9 8 -8 3 -9 11 -10 3 -8 
5 -9 6 -9 8 -11 6 -9 7 -10 4 -12 6 -13 7 -13 
15 -17 1 -15 9 -23 5 -16 12 -14 8 -22 3 -18 9 -23 
8 8 11 7 14 48 6 36 9 40 11 47 11 55 11 51 
9 48 13 45 9 41 12 27 12 30 11 17 12 18 12 15 
12 14 12 8 10 8 11 7 13 7 13 7 11 6 11 10 
13 6 10 4 12 5 2682 2449 100 MP stroke
14 2 13 -1 11 -5 9 -9 10 -7 14 -10 9 -11 18 -11 
8 -6 5 -8 12 -3 8 -1 12 4 8 1 12 5 7 5 
12 2 8 5 10 13 5 8 4 1 14 11 13 15 8 10 
9 10 5 13 3 11 16 12 9 20 9 20 7 25 9 29 
6 30 7 32 8 35 9 34 9 33 9 30 5 26 6 23 
6 18 6 14 6 8 5 5 7 -2 6 -3 5 -8 4 -11 
3 -13 4 -13 2 -15 3 -14 6 -12 4 -11 2 -7 2 -4 
1 -3 4 -1 1 0 1 3 2 5 3 4 4 4 1 4 
1 3 1 2 1 4 2 2 2 2 3 4 2 4 1 3 
1 4 2 13 2 9 4 11 2 12 2 11 1 11 3 9 
2 10 2 8 5 7 4 5 3 5 3 2 3 2 3 1 
6 -1 5 -2 4 -3 6 -5 3 -7 5 -7 3 -9 7 -9 
3 -10 2 -10 6 -10 2119 2037 100 MP stroke
3 -8 5 -6 5 -3 3 -2 4 1 4 2 1 3 4 4 
3 4 2 5 -1 3 2 3 0 2 1 1 -1 1 -2 -1 
0 -1 -2 -2 -3 -2 -3 -2 -3 -2 -4 -3 -4 -3 -5 -3 
-4 -2 -6 -3 -11 -2 -2 -2 -4 -1 -7 0 -4 -1 -8 1 
-7 1 -11 2 -11 2 -16 4 -14 3 -11 3 -3 3 -12 3 
-9 4 -11 1 -9 3 0 1 -11 1 -15 0 -10 0 -12 0 
-10 -1 -8 0 -10 0 -15 1 -29 0 5 2 -6 1 -8 2 
-13 1 -10 0 -12 0 -7 -2 -20 -3 -18 -4 5 -5 -10 -6 
-12 -8 -18 -8 -6 -10 -16 -9 -1 -11 -11 -10 -9 -10 -14 -9 
-10 -9 -18 -9 -1 -7 -12 -7 -7 -7 -12 -6 -4 -6 -18 -6 
-2 -6 -9 -6 -8 -6 -9 -6 -7 -7 -11 -7 -6 -7 -7 -7 
-9 -7 -7 -8 -10 -6 -6 -6 -3 -6 -8 -4 -3 -3 -9 -2 
-13 -2 -1 1 -7 1 2788 2265 100 MP stroke
-4 2 -5 3 -5 4 -4 4 -6 4 0 3 -4 4 -7 2 
-5 2 -4 0 -2 0 -3 -1 -2 -2 -4 -3 -2 -3 -2 -3 
-4 -4 -2 -3 -3 -4 0 -2 -1 -2 -1 -2 -3 0 -1 0 
0 3 -1 1 -4 1 1 1 1 0 4 0 0 -1 1 -1 
3 -2 -1 -2 2 -3 1 -2 2 -3 1 -3 -8 -2 4 -2 
5 -2 0 -1 2 -1 2 -1 2 -1 5 -2 1 -2 4 -3 
-1 -5 1 -6 5 -8 2 -10 -2 -9 2 -12 7 -12 3 -14 
2 -13 4 -12 -2 -11 2 -10 -2 -8 3 -7 -6 -2 13 1 
-3 4 7 4 0 5 -8 6 -2 4 -1 4 -1 1 1 -1 
-1 -3 1 -5 -4 -9 7 -7 9 -10 -5 -9 4 -10 -1 -8 
-3 -7 1 -5 0 -3 -3 -2 -8 0 -6 1 2 2 -4 2 
-5 3 -1 2 -5 2 -5 2 1 1 -6 0 -2 -1 -7 -2 
0 -2 -8 -2 -5 -3 2865 2478 100 MP stroke
-1 -1 -3 -1 -3 0 -3 2 -3 3 -3 6 -3 7 -2 8 
-3 9 -2 11 -3 11 1 10 0 9 -5 10 0 8 -4 6 
0 6 2 5 -4 4 5 2 0 2 -2 2 0 -2 -1 -2 
0 -2 -1 -4 -2 -4 2 -4 -1 -4 -1 -6 1 -4 -2 -4 
0 -7 -1 -4 -2 0 1 0 -1 0 -3 3 0 10 -1 4 
-1 6 0 19 -2 12 -1 11 -2 16 -2 15 0 32 -4 14 
-1 12 -2 9 0 7 -3 3 -3 1 -1 -5 -1 -10 -2 -22 
-3 -10 -2 -15 -2 -21 -1 -24 -2 -23 -3 -19 -3 -18 1 -16 
-3 -11 -6 -8 -3 -5 -1 -3 -1 -1 -6 1 -3 -4 -1 -6 
-4 4 -4 -6 -3 -11 -5 -12 -1 -17 -6 -18 -3 -22 -7 -25 
-4 -24 -2 -29 -7 -26 -8 -25 -4 -25 -5 -18 -7 -22 -9 -15 
-9 -15 -6 -17 -8 -10 -10 -13 -7 -22 -9 -16 -10 -25 -10 -42 
-9 -50 -9 -43 -10 -68 3153 3064 100 MP stroke
-12 -131 3165 3195 2 MP stroke
gr

c8
0 sg
%%IncludeResource: font Helvetica
/Helvetica /WindowsLatin1Encoding 120 FMSR

2044  293 mt 
(Experiment 1b - Digital magnetometers - Bias of position) s
2502 4902 mt 
(Distance to center of sensor network [m]) s
 558 2769 mt  -90 rotate
(Bias [mm]) s
90 rotate

end %%Color Dict

eplot
%%EndObject

epage
end

showpage

%%Trailer
%%EOF
