%!PS-Adobe-2.0 EPSF-1.2
%%Creator: MATLAB, The MathWorks, Inc. Version 7.13.0.564 (R2011b). Operating System: Microsoft Windows 7.
%%Title: ..\figures\digital_ort_pos_rmse.eps
%%CreationDate: 11/13/2012  17:43:39
%%DocumentNeededFonts: Helvetica
%%DocumentProcessColors: Cyan Magenta Yellow Black
%%Extensions: CMYK
%%Pages: 1
%%BoundingBox:    52   196   542   602
%%EndComments

%%BeginProlog
% MathWorks dictionary
/MathWorks 160 dict begin
% definition operators
/bdef {bind def} bind def
/ldef {load def} bind def
/xdef {exch def} bdef
/xstore {exch store} bdef
% operator abbreviations
/c  /clip ldef
/cc /concat ldef
/cp /closepath ldef
/gr /grestore ldef
/gs /gsave ldef
/mt /moveto ldef
/np /newpath ldef
/cm /currentmatrix ldef
/sm /setmatrix ldef
/rm /rmoveto ldef
/rl /rlineto ldef
/s {show newpath} bdef
/sc {setcmykcolor} bdef
/sr /setrgbcolor ldef
/sg /setgray ldef
/w /setlinewidth ldef
/j /setlinejoin ldef
/cap /setlinecap ldef
/rc {rectclip} bdef
/rf {rectfill} bdef
% page state control
/pgsv () def
/bpage {/pgsv save def} bdef
/epage {pgsv restore} bdef
/bplot /gsave ldef
/eplot {stroke grestore} bdef
% orientation switch
/portraitMode 0 def /landscapeMode 1 def /rotateMode 2 def
% coordinate system mappings
/dpi2point 0 def
% font control
/FontSize 0 def
/FMS {/FontSize xstore findfont [FontSize 0 0 FontSize neg 0 0]
  makefont setfont} bdef
/ISOLatin1Encoding where {pop /WindowsLatin1Encoding 256 array bdef
ISOLatin1Encoding WindowsLatin1Encoding copy pop
/.notdef/.notdef/quotesinglbase/florin/quotedblbase/ellipsis/dagger
/daggerdbl/circumflex/perthousand/Scaron/guilsinglleft/OE/.notdef/.notdef
/.notdef/.notdef/quoteleft/quoteright/quotedblleft/quotedblright/bullet
/endash/emdash/tilde/trademark/scaron/guilsinglright/oe/.notdef/.notdef
/Ydieresis WindowsLatin1Encoding 128 32 getinterval astore pop}
{/WindowsLatin1Encoding StandardEncoding bdef} ifelse
/reencode {exch dup where {pop load} {pop StandardEncoding} ifelse
  exch dup 3 1 roll findfont dup length dict begin
  { 1 index /FID ne {def}{pop pop} ifelse } forall
  /Encoding exch def currentdict end definefont pop} bdef
/isroman {findfont /CharStrings get /Agrave known} bdef
/FMSR {3 1 roll 1 index dup isroman {reencode} {pop pop} ifelse
  exch FMS} bdef
/csm {1 dpi2point div -1 dpi2point div scale neg translate
 dup landscapeMode eq {pop -90 rotate}
  {rotateMode eq {90 rotate} if} ifelse} bdef
% line types: solid, dotted, dashed, dotdash
/SO { [] 0 setdash } bdef
/DO { [.5 dpi2point mul 4 dpi2point mul] 0 setdash } bdef
/DA { [6 dpi2point mul] 0 setdash } bdef
/DD { [.5 dpi2point mul 4 dpi2point mul 6 dpi2point mul 4
  dpi2point mul] 0 setdash } bdef
% macros for lines and objects
/L {lineto stroke} bdef
/MP {3 1 roll moveto 1 sub {rlineto} repeat} bdef
/AP {{rlineto} repeat} bdef
/PDlw -1 def
/W {/PDlw currentlinewidth def setlinewidth} def
/PP {closepath eofill} bdef
/DP {closepath stroke} bdef
/MR {4 -2 roll moveto dup  0 exch rlineto exch 0 rlineto
  neg 0 exch rlineto closepath} bdef
/FR {MR stroke} bdef
/PR {MR fill} bdef
/L1i {{currentfile picstr readhexstring pop} image} bdef
/tMatrix matrix def
/MakeOval {newpath tMatrix currentmatrix pop translate scale
0 0 1 0 360 arc tMatrix setmatrix} bdef
/FO {MakeOval stroke} bdef
/PO {MakeOval fill} bdef
/PD {currentlinewidth 2 div 0 360 arc fill
   PDlw -1 eq not {PDlw w /PDlw -1 def} if} def
/FA {newpath tMatrix currentmatrix pop translate scale
  0 0 1 5 -2 roll arc tMatrix setmatrix stroke} bdef
/PA {newpath tMatrix currentmatrix pop	translate 0 0 moveto scale
  0 0 1 5 -2 roll arc closepath tMatrix setmatrix fill} bdef
/FAn {newpath tMatrix currentmatrix pop translate scale
  0 0 1 5 -2 roll arcn tMatrix setmatrix stroke} bdef
/PAn {newpath tMatrix currentmatrix pop translate 0 0 moveto scale
  0 0 1 5 -2 roll arcn closepath tMatrix setmatrix fill} bdef
/vradius 0 def /hradius 0 def /lry 0 def
/lrx 0 def /uly 0 def /ulx 0 def /rad 0 def
/MRR {/vradius xdef /hradius xdef /lry xdef /lrx xdef /uly xdef
  /ulx xdef newpath tMatrix currentmatrix pop ulx hradius add uly
  vradius add translate hradius vradius scale 0 0 1 180 270 arc 
  tMatrix setmatrix lrx hradius sub uly vradius add translate
  hradius vradius scale 0 0 1 270 360 arc tMatrix setmatrix
  lrx hradius sub lry vradius sub translate hradius vradius scale
  0 0 1 0 90 arc tMatrix setmatrix ulx hradius add lry vradius sub
  translate hradius vradius scale 0 0 1 90 180 arc tMatrix setmatrix
  closepath} bdef
/FRR {MRR stroke } bdef
/PRR {MRR fill } bdef
/MlrRR {/lry xdef /lrx xdef /uly xdef /ulx xdef /rad lry uly sub 2 div def
  newpath tMatrix currentmatrix pop ulx rad add uly rad add translate
  rad rad scale 0 0 1 90 270 arc tMatrix setmatrix lrx rad sub lry rad
  sub translate rad rad scale 0 0 1 270 90 arc tMatrix setmatrix
  closepath} bdef
/FlrRR {MlrRR stroke } bdef
/PlrRR {MlrRR fill } bdef
/MtbRR {/lry xdef /lrx xdef /uly xdef /ulx xdef /rad lrx ulx sub 2 div def
  newpath tMatrix currentmatrix pop ulx rad add uly rad add translate
  rad rad scale 0 0 1 180 360 arc tMatrix setmatrix lrx rad sub lry rad
  sub translate rad rad scale 0 0 1 0 180 arc tMatrix setmatrix
  closepath} bdef
/FtbRR {MtbRR stroke } bdef
/PtbRR {MtbRR fill } bdef
/stri 6 array def /dtri 6 array def
/smat 6 array def /dmat 6 array def
/tmat1 6 array def /tmat2 6 array def /dif 3 array def
/asub {/ind2 exch def /ind1 exch def dup dup
  ind1 get exch ind2 get sub exch } bdef
/tri_to_matrix {
  2 0 asub 3 1 asub 4 0 asub 5 1 asub
  dup 0 get exch 1 get 7 -1 roll astore } bdef
/compute_transform {
  dmat dtri tri_to_matrix tmat1 invertmatrix 
  smat stri tri_to_matrix tmat2 concatmatrix } bdef
/ds {stri astore pop} bdef
/dt {dtri astore pop} bdef
/db {2 copy /cols xdef /rows xdef mul dup 3 mul string
  currentfile exch readhexstring pop
  dup 0 3 index getinterval /rbmap xdef
  dup 2 index dup getinterval /gbmap xdef
  1 index dup 2 mul exch getinterval /bbmap xdef pop pop}bdef
/it {gs np dtri aload pop moveto lineto lineto cp c
  cols rows 8 compute_transform 
  rbmap gbmap bbmap true 3 colorimage gr}bdef
/il {newpath moveto lineto stroke}bdef
currentdict end def
%%EndProlog

%%BeginSetup
MathWorks begin

0 cap

end
%%EndSetup

%%Page: 1 1
%%BeginPageSetup
%%PageBoundingBox:    52   196   542   602
MathWorks begin
bpage
%%EndPageSetup

%%BeginObject: obj1
bplot

/dpi2point 12 def
portraitMode 0204 7344 csm

  422   109  5883  4882 MR c np
85 dict begin %Colortable dictionary
/c0 { 0.000000 0.000000 0.000000 sr} bdef
/c1 { 1.000000 1.000000 1.000000 sr} bdef
/c2 { 0.900000 0.000000 0.000000 sr} bdef
/c3 { 0.000000 0.820000 0.000000 sr} bdef
/c4 { 0.000000 0.000000 0.800000 sr} bdef
/c5 { 0.910000 0.820000 0.320000 sr} bdef
/c6 { 1.000000 0.260000 0.820000 sr} bdef
/c7 { 0.000000 0.820000 0.820000 sr} bdef
c0
1 j
1 sg
   0    0 6913 5185 PR
6 w
0 4225 5356 0 0 -4225 899 4614 4 MP
PP
-5356 0 0 4225 5356 0 0 -4225 899 4614 5 MP stroke
4 w
DO
SO
6 w
0 sg
 899  389 mt 6255  389 L
 899 4614 mt 6255 4614 L
6255 4614 mt 6255  389 L
 899 4614 mt  899  389 L
 899 4614 mt 6255 4614 L
 899 4614 mt  899  389 L
 899 4614 mt  899 4614 L
 899 4614 mt  899 4614 L
 899 4614 mt  899 4614 L
 899 4614 mt  899 4614 L
 899 4614 mt  899 4614 L
 899 4614 mt  899 4614 L
 899 4614 mt  899 4614 L
 899 4614 mt  899 4614 L
 899 4614 mt  899 4614 L
 899 4614 mt  899 4614 L
 899 4614 mt  899 4614 L
 899 4614 mt  899 4614 L
 899 4614 mt  899 4614 L
 899 4614 mt  899 4614 L
 899 4614 mt  899 4614 L
 899 4614 mt  899 4614 L
 899 4614 mt  899 4614 L
 899 4614 mt  899 4614 L
1229 4614 mt 1229 4560 L
1229  389 mt 1229  442 L
%%IncludeResource: font Helvetica
/Helvetica /WindowsLatin1Encoding 120 FMSR

1084 4796 mt 
(10) s
%%IncludeResource: font Helvetica
/Helvetica /WindowsLatin1Encoding 80 FMSR

1217 4722 mt 
(-0.9) s
 899 4614 mt  899 4614 L
 899 4614 mt  899 4614 L
 899 4614 mt  899 4614 L
 899 4614 mt  899 4614 L
 899 4614 mt  899 4614 L
 899 4614 mt  899 4614 L
 899 4614 mt  899 4614 L
 899 4614 mt  899 4614 L
 899 4614 mt  899 4614 L
 899 4614 mt  899 4614 L
 899 4614 mt  899 4614 L
 899 4614 mt  899 4614 L
 899 4614 mt  899 4614 L
 899 4614 mt  899 4614 L
 899 4614 mt  899 4614 L
 899 4614 mt  899 4614 L
 899 4614 mt  899 4614 L
 899 4614 mt  899 4614 L
2413 4614 mt 2413 4560 L
2413  389 mt 2413  442 L
%%IncludeResource: font Helvetica
/Helvetica /WindowsLatin1Encoding 120 FMSR

2268 4796 mt 
(10) s
%%IncludeResource: font Helvetica
/Helvetica /WindowsLatin1Encoding 80 FMSR

2401 4722 mt 
(-0.8) s
 899 4614 mt  899 4614 L
 899 4614 mt  899 4614 L
 899 4614 mt  899 4614 L
 899 4614 mt  899 4614 L
 899 4614 mt  899 4614 L
 899 4614 mt  899 4614 L
 899 4614 mt  899 4614 L
 899 4614 mt  899 4614 L
 899 4614 mt  899 4614 L
 899 4614 mt  899 4614 L
 899 4614 mt  899 4614 L
 899 4614 mt  899 4614 L
 899 4614 mt  899 4614 L
 899 4614 mt  899 4614 L
 899 4614 mt  899 4614 L
 899 4614 mt  899 4614 L
 899 4614 mt  899 4614 L
 899 4614 mt  899 4614 L
3597 4614 mt 3597 4560 L
3597  389 mt 3597  442 L
%%IncludeResource: font Helvetica
/Helvetica /WindowsLatin1Encoding 120 FMSR

3452 4796 mt 
(10) s
%%IncludeResource: font Helvetica
/Helvetica /WindowsLatin1Encoding 80 FMSR

3585 4722 mt 
(-0.7) s
 899 4614 mt  899 4614 L
 899 4614 mt  899 4614 L
 899 4614 mt  899 4614 L
 899 4614 mt  899 4614 L
 899 4614 mt  899 4614 L
 899 4614 mt  899 4614 L
 899 4614 mt  899 4614 L
 899 4614 mt  899 4614 L
 899 4614 mt  899 4614 L
 899 4614 mt  899 4614 L
 899 4614 mt  899 4614 L
 899 4614 mt  899 4614 L
 899 4614 mt  899 4614 L
 899 4614 mt  899 4614 L
 899 4614 mt  899 4614 L
 899 4614 mt  899 4614 L
 899 4614 mt  899 4614 L
 899 4614 mt  899 4614 L
4782 4614 mt 4782 4560 L
4782  389 mt 4782  442 L
%%IncludeResource: font Helvetica
/Helvetica /WindowsLatin1Encoding 120 FMSR

4637 4796 mt 
(10) s
%%IncludeResource: font Helvetica
/Helvetica /WindowsLatin1Encoding 80 FMSR

4770 4722 mt 
(-0.6) s
 899 4614 mt  899 4614 L
 899 4614 mt  899 4614 L
 899 4614 mt  899 4614 L
 899 4614 mt  899 4614 L
 899 4614 mt  899 4614 L
 899 4614 mt  899 4614 L
 899 4614 mt  899 4614 L
 899 4614 mt  899 4614 L
 899 4614 mt  899 4614 L
 899 4614 mt  899 4614 L
 899 4614 mt  899 4614 L
 899 4614 mt  899 4614 L
 899 4614 mt  899 4614 L
 899 4614 mt  899 4614 L
 899 4614 mt  899 4614 L
 899 4614 mt  899 4614 L
 899 4614 mt  899 4614 L
 899 4614 mt  899 4614 L
5966 4614 mt 5966 4560 L
5966  389 mt 5966  442 L
%%IncludeResource: font Helvetica
/Helvetica /WindowsLatin1Encoding 120 FMSR

5821 4796 mt 
(10) s
%%IncludeResource: font Helvetica
/Helvetica /WindowsLatin1Encoding 80 FMSR

5954 4722 mt 
(-0.5) s
 899 4614 mt  899 4614 L
 899 4614 mt  899 4614 L
 899 4614 mt  899 4614 L
 899 4614 mt  899 4614 L
 899 4614 mt  899 4614 L
 899 4614 mt  899 4614 L
 899 4614 mt  899 4614 L
 899 4614 mt  899 4614 L
 899 4614 mt  899 4614 L
 899 4614 mt  899 4614 L
 899 4614 mt  899 4614 L
 899 4614 mt  899 4614 L
 899 4614 mt  899 4614 L
 899 4614 mt  899 4614 L
 899 4614 mt  899 4614 L
 899 4614 mt  899 4614 L
 899 4614 mt  899 4614 L
 899 4614 mt  899 4614 L
 899 4614 mt  925 4614 L
6255 4614 mt 6228 4614 L
 899 4614 mt  952 4614 L
6255 4614 mt 6201 4614 L
%%IncludeResource: font Helvetica
/Helvetica /WindowsLatin1Encoding 120 FMSR

 640 4658 mt 
(10) s
%%IncludeResource: font Helvetica
/Helvetica /WindowsLatin1Encoding 80 FMSR

 773 4584 mt 
(-1) s
 899 4190 mt  925 4190 L
6255 4190 mt 6228 4190 L
 899 3942 mt  925 3942 L
6255 3942 mt 6228 3942 L
 899 3766 mt  925 3766 L
6255 3766 mt 6228 3766 L
 899 3629 mt  925 3629 L
6255 3629 mt 6228 3629 L
 899 3518 mt  925 3518 L
6255 3518 mt 6228 3518 L
 899 3423 mt  925 3423 L
6255 3423 mt 6228 3423 L
 899 3342 mt  925 3342 L
6255 3342 mt 6228 3342 L
 899 3270 mt  925 3270 L
6255 3270 mt 6228 3270 L
 899 3205 mt  925 3205 L
6255 3205 mt 6228 3205 L
 899 3205 mt  952 3205 L
6255 3205 mt 6201 3205 L
%%IncludeResource: font Helvetica
/Helvetica /WindowsLatin1Encoding 120 FMSR

 640 3249 mt 
(10) s
%%IncludeResource: font Helvetica
/Helvetica /WindowsLatin1Encoding 80 FMSR

 773 3175 mt 
(0) s
 899 2781 mt  925 2781 L
6255 2781 mt 6228 2781 L
 899 2533 mt  925 2533 L
6255 2533 mt 6228 2533 L
 899 2357 mt  925 2357 L
6255 2357 mt 6228 2357 L
 899 2221 mt  925 2221 L
6255 2221 mt 6228 2221 L
 899 2109 mt  925 2109 L
6255 2109 mt 6228 2109 L
 899 2015 mt  925 2015 L
6255 2015 mt 6228 2015 L
 899 1933 mt  925 1933 L
6255 1933 mt 6228 1933 L
 899 1861 mt  925 1861 L
6255 1861 mt 6228 1861 L
 899 1797 mt  925 1797 L
6255 1797 mt 6228 1797 L
 899 1797 mt  952 1797 L
6255 1797 mt 6201 1797 L
%%IncludeResource: font Helvetica
/Helvetica /WindowsLatin1Encoding 120 FMSR

 640 1841 mt 
(10) s
%%IncludeResource: font Helvetica
/Helvetica /WindowsLatin1Encoding 80 FMSR

 773 1767 mt 
(1) s
 899 1373 mt  925 1373 L
6255 1373 mt 6228 1373 L
 899 1125 mt  925 1125 L
6255 1125 mt 6228 1125 L
 899  949 mt  925  949 L
6255  949 mt 6228  949 L
 899  812 mt  925  812 L
6255  812 mt 6228  812 L
 899  701 mt  925  701 L
6255  701 mt 6228  701 L
 899  607 mt  925  607 L
6255  607 mt 6228  607 L
 899  525 mt  925  525 L
6255  525 mt 6228  525 L
 899  453 mt  925  453 L
6255  453 mt 6228  453 L
 899  389 mt  925  389 L
6255  389 mt 6228  389 L
 899  389 mt  952  389 L
6255  389 mt 6201  389 L
%%IncludeResource: font Helvetica
/Helvetica /WindowsLatin1Encoding 120 FMSR

 640  433 mt 
(10) s
%%IncludeResource: font Helvetica
/Helvetica /WindowsLatin1Encoding 80 FMSR

 773  359 mt 
(2) s
 899  389 mt 6255  389 L
 899 4614 mt 6255 4614 L
6255 4614 mt 6255  389 L
 899 4614 mt  899  389 L
gs 899 388 5357 4227 MR c np
/c8 { 0.000000 0.000000 1.000000 sr} bdef
c8
6 -11 4 -19 5 7 1 -21 14 30 1 9 4 16 5 10 
3 15 -2 23 8 20 15 35 -1 -41 7 -11 4 0 5 1 
4 2 7 12 5 -28 4 -30 3 13 10 13 9 38 6 -6 
10 -17 1 7 3 -23 8 7 11 47 9 19 3 -33 10 -24 
0 35 14 -2 9 19 5 8 9 14 6 -57 4 30 1 34 
19 4 7 -32 3 36 15 12 2 -8 5 -23 3 -30 12 -58 
15 -5 2 39 11 34 2 -5 10 -21 6 -5 6 2 17 14 
6 28 15 -27 12 10 -6 29 8 -8 9 14 15 20 7 26 
8 -10 3 -5 20 -32 0 26 13 -49 9 -14 19 0 3 -5 
8 49 6 -3 13 -3 22 -4 9 36 14 -34 4 46 12 -3 
9 14 9 14 22 9 15 23 21 -32 23 -12 -6 47 8 17 
15 11 25 -12 10 5 14 -2 7 25 26 -17 12 -45 0 -41 
32 -122 13 -78 14 127 3652 2247 100 MP stroke
12 -8 16 -64 13 120 15 -58 13 28 34 -15 17 43 5 138 
21 57 13 25 18 -31 15 4 23 -94 16 -5 20 2 20 -20 
16 -17 14 28 16 83 17 42 17 -14 21 -61 12 -33 27 27 
16 -19 24 -2 15 43 16 -28 17 30 17 -44 12 -45 23 12 
24 78 16 -55 17 -134 21 20 15 24 14 111 19 -22 13 -9 
17 -52 21 -33 18 -11 18 22 14 96 14 -122 14 18 17 -34 
15 6 18 -80 14 -114 16 22 17 -94 16 139 12 120 13 1 
9 -6 16 33 11 158 20 26 10 -4 12 21 11 32 15 -151 
9 -37 17 -51 -1 -23 13 136 12 -13 16 -4 3 23 11 -75 
11 31 9 -53 5 148 7 4 6 -100 12 34 8 40 10 -25 
-5 -58 11 -4 3 -24 8 -50 -5 -37 -1 -92 0 -196 4 183 
0 94 -4 92 -4 17 1 -135 -7 -169 -3 124 -12 39 -2 -36 
-2 -50 -14 -1 -10 34 2498 2351 100 MP stroke
-12 125 -7 146 -12 -40 -13 -97 -15 63 -8 10 -15 29 -14 19 
-16 -113 -15 -107 -17 -30 -18 -390 -19 276 -15 183 -20 159 -17 -138 
-20 -114 -21 -68 -21 -4 -21 6 -17 98 -19 82 -27 15 -17 -200 
-29 48 -23 -60 -8 -139 -32 206 -18 7 -23 -17 -18 -148 -23 130 
-28 -71 -22 -166 -22 -429 -21 247 -19 -111 -27 341 -26 179 -20 -71 
-28 -145 -31 200 -10 15 -22 37 -26 -32 -17 -164 -23 118 -19 -39 
-29 -130 -16 -252 -40 398 -8 -338 -15 -126 -24 78 -25 240 -15 125 
-35 -110 -15 -325 -10 -130 -23 -42 -19 -16 -20 75 -20 -289 -23 -60 
-17 35 -17 590 -17 -2 -27 39 -17 -100 -12 258 -29 -237 -12 155 
-20 -289 -14 -269 -13 -138 -20 -174 -13 485 -23 -144 -11 119 -15 -271 
-12 -451 -18 167 -11 453 -18 303 -22 53 -12 191 -16 123 -10 37 
-14 -98 -15 -100 -15 121 -10 -53 -14 32 -15 28 -20 15 -10 -72 
-15 68 -10 -102 -14 -34 4314 2669 100 MP stroke
-10 98 -20 -70 -16 62 -10 -57 -13 94 -13 48 -10 70 -14 25 
-16 48 -20 78 -9 -8 -2 -75 -24 65 -7 -47 -9 -5 -23 118 
-9 -28 -12 -1 -7 9 -8 -1 -9 5 -17 70 -22 83 0 -76 
-17 50 -8 -19 -16 39 -15 41 -5 -30 -11 3 -12 11 -10 -12 
-13 16 -9 10 -12 5 -5 -38 -15 42 -12 7 -9 25 -20 53 
-8 -17 -5 -46 -12 20 -9 6 -15 38 1 -63 -14 26 -5 -16 
-13 30 -3 -12 -14 36 -8 8 -4 -15 -8 -20 -13 41 -3 -30 
0 -67 -9 8 -15 87 -5 8 -6 11 -4 9 -6 16 -13 46 
-2 -34 -1 -35 -10 28 3 -42 -11 48 -1 -14 -4 -4 -4 -6 
-1 -27 -3 2 -15 53 0 -14 -3 4 -1 -17 -4 5 0 4 
-3 10 -1 -13 -8 30 -1 5 0 -10 -3 1 -2 -2 2 -18 
-5 29 -3 16 0 12 1 -3 -2 -18 -1 5 -2 1 4 -7 
0 -12 1 0 -1 20 5075 1860 100 MP stroke
1 17 -1 10 3 -9 1 7 3 -11 1 -16 3 2 3 -18 
2 -1 2 7 5 0 4 3 5 -4 1 20 7 14 1 12 
9 -21 5 -19 7 -6 5 -1 8 18 9 12 6 -6 5 -9 
16 -55 12 4 3 25 11 47 11 -29 11 4 15 -31 13 -16 
3 99 17 -47 8 -17 7 -35 13 -46 10 31 15 -43 16 -12 
9 8 14 -3 15 31 15 4 9 -18 16 -25 12 3 14 1 
14 12 7 26 17 8 17 -32 13 -22 12 15 16 2 11 8 
16 -25 16 -36 17 -9 10 27 11 -7 10 14 17 11 11 -11 
27 -29 11 10 5 16 21 -64 10 32 8 46 14 -30 8 -2 
24 -23 13 13 17 -40 3 9 11 11 22 2 10 -3 11 -9 
6 4 14 21 17 -8 9 -19 24 -12 0 48 23 -80 14 35 
13 -5 12 -15 14 -125 17 3 19 -89 9 1 16 72 17 77 
22 22 16 32 9 10 3994 2087 100 MP stroke
19 42 17 -55 23 68 18 -61 16 9 15 -106 23 38 21 77 
16 -69 21 -37 19 -120 22 -62 21 -5 19 118 16 -49 16 12 
30 -41 23 24 17 101 19 6 23 -16 21 -22 25 2 15 33 
36 -109 11 107 20 8 28 0 20 1 24 -60 19 39 24 -33 
15 -35 31 -234 21 119 21 35 22 -16 22 -73 25 -13 24 -50 
21 6 24 -56 22 119 22 107 26 133 28 25 27 -43 17 73 
29 39 43 -53 2 151 23 -92 26 -13 22 62 26 -31 23 17 
29 -250 41 -75 2 168 26 13 24 -45 29 27 26 -80 23 10 
24 96 26 20 29 124 27 115 26 -58 26 -43 26 -67 27 -25 
31 2 29 -98 27 17 30 -98 33 42 25 116 30 25 21 2 
44 -27 29 -133 7 42 35 97 28 126 32 -107 43 1 4 51 
32 -28 28 -79 27 78 24 36 26 -50 25 52 28 -49 19 102 
47 -103 21 -91 17 38 1622 2176 100 MP stroke
4 36 16 138 34 -29 17 2 30 -63 22 13 28 1 21 8 
24 34 22 0 26 -48 21 -141 30 4 18 147 28 67 29 -37 
30 25 33 10 16 47 22 -57 20 38 17 -44 18 -13 23 -226 
18 -21 10 184 1 -114 31 -34 26 -8 9 6 18 37 3 -42 
16 -62 6 35 5 -30 2 69 11 -57 3 67 -1 -14 1 56 
-34 43 7 -91 -17 26 52 -215 7 -84 -23 49 7 -19 -36 76 
-62 162 -3 -4 -22 -73 -12 21 -20 62 -18 -14 -21 -5 -19 -39 
-22 -65 -23 -65 -28 6 -23 -48 -27 92 -28 84 -29 25 -29 -18 
-29 70 -31 68 -19 33 -53 -5 -10 -95 -34 -170 -34 -3 -35 -86 
-28 9 -40 194 -41 39 -32 -24 -40 -64 -31 -176 -38 64 -35 -12 
-36 73 -37 92 -44 3 -30 -80 -33 -21 -32 6 -34 19 -34 66 
-45 57 -32 -65 -31 -18 -34 54 -32 10 -22 40 -41 -15 -33 -109 
-32 0 -30 39 -31 72 2510 2221 100 MP stroke
-32 64 -32 7 -29 -1 -32 -2 -24 47 -28 -3 -22 -19 -28 55 
-40 -32 -18 -105 -28 -94 -21 38 -23 14 -31 -63 -31 -58 -24 133 
-25 21 -23 9 -27 -52 -17 -153 -41 -14 -19 86 -24 104 -20 31 
-26 13 -27 -6 -24 119 -23 -89 -23 2 -16 -91 -27 0 -34 -172 
-18 84 -21 1 -19 -99 -21 -89 -37 62 -15 -135 -21 210 -21 4 
-17 -3 -15 -62 -23 -62 -28 105 -22 -44 -20 18 -19 1 -18 -60 
-17 -71 -30 47 -16 -173 -18 62 -19 182 -15 -24 -34 -78 -10 -16 
-12 11 -19 -14 -22 -3 -22 -17 -15 -8 -17 27 -14 21 -17 -18 
-13 -15 -20 -27 -16 10 -16 -22 -16 15 -14 3 -21 -4 -22 -4 
-6 35 -21 22 0 9 -19 -1 -7 -29 -19 -5 -11 29 -16 5 
-16 -21 3 10 -13 -36 -22 17 -10 5 -21 4 1 -8 -2 -8 
-13 51 -7 14 -5 1 -7 -13 -4 5 -15 28 5 3 -10 -25 
-2 -15 -9 34 1 -4 4364 2510 100 MP stroke
-10 -40 -2 -6 0 23 -4 34 -5 -25 -2 -33 -3 3 -5 -22 
-5 25 -2 -29 -7 -69 2 35 -4 60 -3 37 -3 12 -2 -55 
7 -69 0 17 -4 47 -4 19 -3 54 -5 -83 -2 19 -3 -40 
-6 -25 -2 -85 8 -80 -6 67 -3 -7 -2 106 -13 -173 0 175 
-1 80 -6 21 -1 -88 4 46 -20 -184 -2 85 0 218 -9 -48 
-7 -19 1 55 -3 -42 -6 -52 -1 110 -4 30 -6 -22 -5 3 
-3 -13 -2 -3 -3 -31 -10 19 -5 -18 8 -44 -8 1 -5 35 
-8 4 3 20 -12 -66 -2 71 -4 -14 -7 19 -3 -52 -3 64 
-9 -328 -2 93 -5 95 -2 -19 -4 87 -7 38 -6 -36 -3 18 
-3 -43 -10 -86 -5 -75 -6 -396 -1 171 -7 386 -9 60 3 -128 
-4 20 -9 125 -10 3 -14 -76 4 70 -5 47 -9 45 -8 1 
2 -73 -9 9 -8 36 -10 13 -4 -8 -6 -29 -3 -37 -11 10 
-6 26 -5 -11 -4 -9 4782 2434 100 MP stroke
-5 -6 -5 -45 -7 3 -7 -4 -6 -6 1 -41 -7 -11 -4 -65 
-5 64 2 35 -5 19 -3 -13 -9 -61 3 33 -3 109 0 -103 
-8 -232 2 34 1 212 -2 152 -2 -18 5 -52 -3 -23 -2 25 
-3 66 10 -164 -2 70 2 77 2 -51 1 78 6 -176 4 91 
1 32 4 -29 1 47 8 -82 6 60 6 6 5 -17 4 53 
7 -43 5 -29 1 13 7 14 7 -19 5 -33 8 -1 7 27 
8 -18 6 33 9 13 9 9 8 -34 7 -66 9 -33 6 30 
13 33 13 52 7 -53 12 46 1 -14 14 3 11 -38 6 14 
7 0 17 48 6 -16 4 -59 7 -28 18 -24 9 25 9 16 
7 -22 10 -6 4 -23 17 35 9 -2 9 -56 12 -13 9 49 
6 61 15 -83 14 96 6 -46 12 29 16 15 3 -146 8 9 
12 -78 16 -57 8 66 9 -40 7 30 13 99 8 41 15 -42 
11 25 12 72 8 -43 4257 2529 100 MP stroke
14 -10 14 -48 6 -71 8 -1 18 105 17 97 10 -72 11 29 
10 -17 12 -43 13 49 7 -105 24 81 9 50 6 87 26 -17 
-1 -55 20 16 12 -18 3 -57 24 -21 5 -64 10 125 10 -40 
14 1 21 -44 4 -22 26 61 5 32 10 -117 12 22 10 83 
11 65 13 -46 10 -67 13 -129 10 -27 14 -51 14 2 11 121 
14 1 11 207 11 43 11 -118 9 43 11 -21 14 58 10 53 
12 -5 12 -49 11 30 10 -1 11 34 11 -36 10 150 12 10 
16 -55 9 -27 14 41 12 -46 14 -54 13 -6 2 67 13 175 
8 4 13 -38 9 -111 11 56 14 -35 10 89 8 -27 12 5 
9 -37 9 23 10 93 11 8 8 -55 10 -77 11 -6 8 -11 
10 101 10 108 10 29 8 -97 10 -62 9 -1 9 -40 8 23 
11 40 6 56 9 106 9 -61 10 -22 10 80 11 84 9 -22 
8 -38 6 38 12 -62 3162 2010 100 MP stroke
7 46 8 71 9 -34 11 35 8 21 8 60 7 -55 8 -39 
7 -23 9 42 7 9 4 23 10 64 7 7 6 12 5 -32 
6 -12 4 17 7 58 6 -26 6 -15 6 -3 4 -52 4 -24 
3 -35 4 29 4 -42 4 14 3 51 5 -23 3 -67 3 2 
0 -105 2 -2 1 -29 1 24 2 141 2 8 -3 -111 0 -65 
-2 -51 -2 24 -3 27 -1 71 -2 28 -1 29 -5 -64 -3 4 
-6 7 -8 73 -1 -89 -7 23 -4 -105 -6 78 -6 27 -7 -43 
-6 -79 -6 10 -8 30 -7 49 -7 32 -10 -17 -8 -11 -8 41 
-11 -49 -11 -9 -10 -92 -10 51 -7 80 -23 -6 -13 15 -9 -30 
-11 14 -12 -51 -12 14 -11 -32 -12 6 -19 29 -3 -60 -12 53 
-12 50 -10 35 -19 6 -7 33 -8 -40 -18 -128 -16 142 -4 -53 
-13 -19 -9 29 -13 16 -11 -94 -13 -9 -9 -19 -8 -33 -6 11 
-18 191 -7 -12 -4 -91 3479 2028 100 MP stroke
-16 -34 -6 -23 -15 43 -6 -32 -6 -83 -11 -82 -10 118 -9 11 
-14 22 -22 83 3 -163 -6 -123 -15 108 -3 -50 -9 -117 -11 67 
-3 -41 -24 157 -16 39 4 -113 -6 29 -7 -54 -9 -82 -6 -13 
-13 47 -9 -65 -16 120 -7 -27 -3 -106 -12 85 -7 -6 -6 -85 
-9 11 -10 -39 -14 29 -12 12 -7 -83 -10 24 -8 -80 -11 55 
-10 -51 -10 -102 -15 40 -7 -90 -13 16 -10 19 -12 -2 -14 -168 
-10 155 -14 71 -11 147 -10 -20 -12 76 -15 -55 -18 -117 3 -144 
-21 12 -8 -154 -16 101 -7 -101 -19 37 -18 -14 -4 -134 -11 -2 
-24 167 -8 -60 -7 -57 -17 50 -17 66 1 -107 -31 201 -14 63 
4 -216 -22 166 -2 -67 -9 -26 -13 57 -17 119 -5 -76 -11 -6 
-19 120 -1 -103 -14 55 -11 35 -7 -38 -10 21 -1 -127 -14 100 
-7 -21 -9 8 -13 64 -20 164 7 -165 -10 22 -9 40 -6 -5 
-5 -46 -7 -18 -4 -11 4490 2580 100 MP stroke
-8 -2 -9 31 -5 9 -5 2 -5 28 -6 43 -1 -55 -4 4 
-4 -5 -4 11 -1 -2 -7 104 -2 37 0 -58 0 36 1 -22 
-1 20 2 -22 0 16 -4 57 4 -29 2 21 5 -17 3 7 
5 20 6 -26 7 -10 -2 18 3 64 5 -35 2 -30 10 -24 
9 38 2 -43 3 30 4 8 4 6 6 -8 4 10 8 3 
4 12 4 -3 4 31 5 -16 5 13 7 -11 8 11 15 -21 
-5 -43 4 72 7 -30 0 15 14 39 1 -16 10 -12 8 -27 
0 37 5 -22 6 43 3 -33 2 3 7 12 6 -5 5 8 
4 -10 7 -10 4 -15 9 -14 5 11 1 39 6 -20 3 -2 
5 -34 6 -4 5 8 4 50 3 46 1 -50 4 0 3 -2 
2 9 2 4 2 -12 5 -22 2 -30 -2 -15 5 20 3 -8 
6 -28 -1 -18 0 15 2 7 0 35 1 4 1 -34 0 -26 
-1 47 -1 -9 3 14 4239 2342 100 MP stroke
-2 59 -5 10 4 -20 -1 53 0 -17 -9 40 2 -20 -1 0 
-2 -11 -3 30 5 44 -3 1 -2 -55 1 -1 -1 5 1 1 
-4 6 7 -34 -6 30 0 -13 2 -55 -2 2 -2 10 -4 67 
3 53 -3 -90 1 43 -4 94 -1 -52 -2 56 -1 -136 -3 -29 
1 32 -4 89 -1 57 -2 -72 0 -2 -2 27 2 -24 -9 82 
-4 -83 5 -22 0 53 -9 2 8 -126 -4 76 1 57 -4 -42 
-5 1 1 -36 -1 73 -4 21 -1 38 -3 -36 -1 -44 -3 43 
-3 24 -1 28 -1 15 -1 -64 -1 82 -1 32 -3 -38 -2 116 
-2 -33 -1 -53 -1 -19 -3 20 -3 -78 -2 -4 -1 67 -2 70 
0 -23 -1 -39 -4 102 1 -34 -2 -52 -10 27 5 -22 -1 -5 
1 -13 -3 -131 -4 39 2 18 0 -2 0 36 -6 14 -1 23 
4 -108 -7 -20 -5 108 2 -60 2 -36 0 -202 -10 21 0 62 
-1 53 -1 4 0 65 4380 2117 100 MP stroke
-4 -76 -4 -46 -1 8 -3 59 -2 71 -3 33 -3 -173 -1 -10 
-2 81 -3 1 -6 -83 1 -22 -4 -82 8 -19 -5 -53 -4 49 
-7 140 -3 39 -4 60 -11 54 -5 3 -11 4 7 -86 -10 19 
-6 0 -6 -39 -2 46 -11 22 -4 -43 -5 -10 -4 -34 -10 23 
-6 -58 -4 -104 -3 10 -9 -6 -9 117 -1 -43 -5 -9 -15 81 
-1 -10 -3 -59 -10 -78 -11 -91 0 -28 -9 5 -4 6 -9 78 
-5 4 -8 1 -5 -5 -10 -51 -4 -57 -9 -14 -4 -66 -11 -17 
-2 19 -13 102 -8 102 -4 58 -7 -4 -3 -54 -16 75 -8 -20 
2 -41 -9 18 -8 16 -6 -11 -5 -30 -7 -2 -8 32 -8 4 
-3 -28 -6 -12 -9 71 -7 5 -8 5 -4 -2 -8 -7 -9 0 
-5 -6 -6 11 -7 16 -8 4 -6 -21 -7 -10 -4 -13 -4 -25 
-6 -11 -6 -37 -12 14 -8 2 -8 20 -6 -3 -8 -4 -10 14 
-8 -3 -6 4 -7 -8 4959 2335 100 MP stroke
-8 -3 -7 15 -10 10 -7 -46 -7 -8 -8 -17 -7 7 -10 7 
-4 -27 -9 6 -7 5 -10 23 -6 -8 -4 -50 -11 28 -9 10 
-7 28 -12 57 -3 -38 -8 -15 -9 14 -6 -22 -4 2 -12 24 
-13 47 -3 -27 -9 7 -5 -10 -8 38 -8 -14 -9 -12 -6 -52 
-9 -29 -6 -12 -9 47 -9 -54 -6 36 -9 17 -8 -6 0 -56 
-6 25 -9 -62 -10 9 -7 -6 -7 4 -4 41 -8 26 -7 -24 
-9 -4 -9 13 -5 -40 -9 38 -9 25 0 -60 -9 14 -5 -22 
-7 29 -4 -17 -8 45 -5 23 -5 -7 -3 -21 -8 -3 -6 10 
-6 -19 -4 -10 -4 35 -3 -43 -5 65 -3 15 -9 -13 -5 -6 
-8 11 -4 -13 -9 39 -7 19 -1 -22 -4 28 -4 -53 -5 -57 
-4 -13 -5 -12 -7 12 -7 -2 -2 38 -5 43 -4 -6 -2 -18 
-7 72 1 -23 -2 -13 -3 -7 -2 2 -2 3 -4 27 -2 -9 
-3 55 -2 21 -1 -7 5564 2238 100 MP stroke
2 16 0 -9 -2 -21 0 -9 1 -31 1 9 1 2 0 -39 
2 22 1 -14 2 20 2 -11 2 6 1 19 3 -48 0 -10 
1 -19 2 5 3 19 3 -26 2 -22 3 58 5 44 3 4 
3 -21 3 47 4 -3 0 -46 2 -42 5 -30 1 -75 9 73 
0 -36 2 -66 4 16 3 1 3 57 2 37 5 31 4 -21 
7 -62 2 1 0 -64 10 105 4 6 -1 -74 5 -14 3 11 
4 0 3 -7 3 -35 7 -21 3 -63 4 -41 6 103 5 23 
2 -13 5 -32 6 -9 4 25 3 50 4 -3 3 -19 6 -27 
4 24 2 -13 4 29 10 1 5 -38 7 -25 10 33 -2 -76 
4 50 4 -14 8 37 5 3 8 -39 0 84 6 87 5 -64 
10 -57 2 88 9 -35 1 -122 2 -218 10 31 2 154 6 -65 
8 275 5 -7 7 -93 7 -89 8 53 8 83 5 95 2 -19 
13 85 0 -116 6 148 5187 2241 100 MP stroke
3 -23 6 -62 11 -11 9 -25 1 -164 9 -75 4 -120 10 245 
2 201 12 10 2 64 6 -63 6 -192 7 -208 -1 -524 12 586 
9 70 2 -77 12 -346 2 222 6 -117 7 201 5 -206 8 -64 
5 461 7 111 6 -56 10 -102 4 -113 4 -3 3 80 11 187 
4 31 2 -1 6 -591 5 499 3 -17 8 -54 4 -109 7 268 
6 75 2 -98 5 -57 6 -45 8 -150 1 110 5 82 5 77 
5 289 7 60 8 -28 2 3 7 -147 5 -4 3 -149 7 14 
4 170 0 53 8 -72 11 0 3 -36 6 47 4 -97 5 63 
5 22 3 -47 5 -88 9 -165 5 61 7 -5 3 -98 5 -358 
3 173 4 159 5 30 8 153 3 85 10 220 4 -24 -1 2 
2 30 5 79 5 -30 6 45 11 -111 2 -21 2 153 5 5 
0 28 7 -223 3 110 7 -75 5 -49 3 -372 7 -172 1 585 
4 81 2 80 9 -105 4661 2010 100 MP stroke
5 9 1 36 3 60 3 62 7 -48 1 58 7 -132 4 28 
0 -53 3 -52 2 -130 2 -77 9 159 5 -10 1 29 0 -118 
2 -209 1 202 5 -65 3 124 3 -148 2 -118 -1 -36 2 159 
1 -55 3 -26 3 30 1 4 3 45 1 -49 3 -356 -3 -40 
-2 -43 2 415 -3 -216 3 -61 4 -59 1 193 2 205 -8 182 
2 42 -1 18 2 11 2 -149 -2 -120 -1 -48 -1 68 -5 -62 
-5 120 -2 -61 -1 137 -3 19 -3 -19 2 -104 -2 -67 -7 22 
-6 -54 -4 -170 -4 104 -5 -19 1 29 -3 -465 -7 350 -9 -15 
-3 -283 -14 -122 -4 125 -4 250 -3 -96 -8 -48 -3 93 -12 -215 
-7 167 -2 83 -14 130 -5 -62 -4 124 -11 -130 -7 -54 -7 24 
-10 -338 -10 141 -6 49 -9 206 -9 10 -13 123 -7 143 -7 -63 
-8 -296 -6 105 -8 114 -15 -137 -10 -110 -10 -235 -5 -20 -19 -159 
-2 -498 -12 633 -8 -114 4924 3004 100 MP stroke
-13 282 -18 -18 -8 163 -11 45 -8 165 -9 25 -10 18 -14 -73 
-8 -74 -17 -119 -8 -61 -15 34 -10 -84 -12 138 -13 -167 -13 403 
-10 162 -16 -82 -13 -35 -12 -237 -14 19 -16 -88 -12 -27 -13 -93 
-15 -203 -14 114 -13 68 -14 -292 -13 241 -17 67 -14 -42 -17 -127 
-13 94 -14 -255 -13 412 -14 196 -12 -79 -22 16 -14 -24 -18 -122 
-11 193 -19 -70 -11 -26 -17 22 -21 -27 -21 16 -12 200 -6 -187 
-19 87 -13 -177 -16 -152 -12 -119 -16 410 -14 82 -15 -41 -12 -63 
-13 -74 -16 77 -13 135 -12 -137 -12 -74 -14 -112 -13 -285 -12 603 
-11 -22 -13 -169 -10 -223 -12 153 -13 53 -11 51 -11 -3 -11 -45 
-11 61 -13 -126 -8 -533 -13 314 -10 347 -17 7 -3 11 -8 28 
-10 116 -11 63 -8 -149 -10 -453 -5 -8 -8 4 -6 221 -12 -398 
-8 388 -6 204 -10 -102 -7 104 -8 21 -9 -4 0 -88 -12 106 
-10 -69 1 -214 -14 -31 6122 2748 100 MP stroke
-4 -170 -12 -46 0 144 -7 61 -5 17 -3 102 -7 -49 -5 106 
-2 26 -10 42 -4 23 -6 -152 -6 -138 -6 21 -2 98 -7 -6 
-2 115 -7 -57 -4 40 -3 76 -4 -37 -1 -12 -5 -24 1 26 
-6 -195 -1 -70 -3 11 -1 148 -4 -94 -3 23 1 213 -1 -75 
-2 -9 0 14 -1 -29 0 -70 -1 -12 5 87 1 -1 -1 -23 
0 102 -1 19 0 28 1 -13 -1 50 13 -14 1 65 0 -16 
1 -15 3 -32 0 39 10 60 6 33 -1 -4 4 -63 1 2 
4 -19 6 32 11 34 3 -65 2 -49 6 58 16 -127 -4 27 
10 -26 6 -97 1 -16 19 -137 2 92 -1 93 5 50 15 -9 
7 -41 9 42 6 -74 10 -3 15 58 9 -138 1 -67 18 -94 
9 -20 0 80 22 35 6 11 11 39 9 -16 5 -108 15 101 
13 2 18 -13 4 61 11 -60 8 18 32 -111 13 29 -4 43 
11 -46 9 -16 37 192 5808 2638 100 MP stroke
-5 -73 7 -82 10 11 26 -7 6 -30 8 -41 13 -173 13 -89 
8 -23 16 148 18 68 10 -3 17 57 7 -101 16 188 4 -85 
15 119 19 131 5 -29 6 -60 14 32 13 22 17 26 14 37 
11 -51 2 -221 18 95 8 -72 19 172 9 -63 18 146 10 24 
5 -10 13 44 13 -10 15 5 12 -20 16 103 2 -91 13 -4 
8 -40 11 -62 19 53 19 43 1 -155 14 36 8 -9 13 6 
6 -60 15 17 17 117 14 73 15 129 3 -128 13 -38 9 -56 
11 -1 12 27 20 153 10 16 14 63 11 -47 12 8 11 71 
24 53 2 -32 16 4 14 -1 10 53 9 -34 13 10 12 30 
10 -85 26 -6 8 35 11 -92 10 -26 12 -50 14 113 11 158 
23 106 8 -125 15 -76 12 25 12 -8 18 -11 17 -5 13 4 
17 24 10 146 17 -42 15 -1 17 43 20 15 14 -43 16 -95 
25 -63 -7 57 41 20 4556 2231 100 MP stroke
12 -21 6 -62 17 148 18 -52 9 -137 36 33 26 82 -2 -105 
23 78 12 -126 20 91 19 -63 21 110 18 -22 21 36 16 60 
17 10 21 4 21 -26 20 -104 23 69 16 -22 21 -56 19 -9 
23 17 25 48 16 -68 18 -186 18 147 19 143 21 5 35 -279 
1 293 30 -57 22 -84 1 169 25 -42 16 34 23 -160 27 -132 
4 217 15 -42 12 14 20 -100 13 -64 16 -7 16 240 16 97 
16 80 13 -102 10 9 15 -103 17 -10 15 6 10 -7 14 105 
11 110 9 48 19 38 8 -200 23 -275 3 -10 10 52 5 83 
14 -17 9 59 5 -10 16 -7 2 -35 7 114 9 8 7 5 
9 -92 5 -74 11 -66 0 165 6 2 5 49 6 26 5 -30 
2 163 5 -5 8 -179 6 16 -1 -6 10 46 -2 29 1 1 
3 -13 -1 -88 3 -88 2 -22 -2 -49 2 -276 -4 148 -2 107 
1 186 -5 168 4 30 3350 2023 100 MP stroke
-8 175 -7 -17 1 -305 -6 21 0 189 -6 -83 -3 -164 -10 -61 
-5 57 -6 -209 -8 298 -10 173 -8 -13 -7 -95 -10 -112 -12 16 
-7 -90 -10 142 -9 -158 -8 -141 -15 209 -10 -85 -12 183 -9 -66 
-16 -102 -14 -56 -9 9 -16 194 -12 -60 -17 -60 -14 -191 -14 -160 
-15 5 -16 75 -15 200 -18 -233 -14 178 -16 71 -17 -101 -15 129 
-19 109 -18 -85 -16 21 -19 -105 -15 -105 -22 -88 -18 -167 -21 279 
-13 67 -28 -262 -14 12 -21 248 -17 64 -20 151 -21 -202 -22 -41 
-15 -37 -24 59 -32 124 -4 -240 -24 -206 -17 18 -21 115 -20 16 
-21 -60 -18 -4 -22 37 -22 131 -20 10 -17 41 -16 4 -26 -20 
-19 -289 -21 -238 -15 -197 -23 208 -24 -189 -13 387 -22 -83 -13 77 
-35 98 -20 -3 -4 234 -22 -27 -14 -88 -20 -224 -22 -128 -15 93 
-17 -119 -19 -73 -18 -5 -20 134 -15 -35 -16 39 -15 128 -19 -366 
-18 420 -16 2 -16 65 4887 2556 100 MP stroke
-13 156 -17 29 -16 -269 -20 125 -20 142 -1 27 -20 -18 -12 -121 
-17 70 -14 0 -15 -135 -11 102 -14 35 -21 35 -8 -12 -10 -8 
-17 74 -6 -36 -21 24 -14 23 -10 21 -8 12 -14 21 -11 -14 
-3 -20 -14 4 -14 -2 -10 -7 -7 -32 -9 8 -10 15 -13 30 
-8 22 -6 -1 -11 -7 -12 36 -5 -9 -14 36 -2 -63 -6 6 
-10 38 -8 -13 -6 -28 -7 -1 -6 16 -13 46 -4 -39 -8 7 
-1 -3 -5 -20 -10 -1 -7 18 4 -52 -7 45 -1 10 -8 15 
-5 -1 -1 -12 -5 18 -3 -20 -4 13 -3 13 -3 -38 -1 -40 
-2 7 -2 57 -4 26 -1 7 0 -5 -5 -8 -1 -12 -2 -11 
-2 -10 -1 -20 -2 1 0 -2 -1 9 0 3 0 -5 1 -10 
0 8 2 -5 0 -31 1 14 -3 51 2 0 -1 7 8 -43 
8 -13 -1 34 7 -25 3 -9 0 15 4 -29 1 31 3 -4 
2 38 0 30 5 -38 5464 2228 100 MP stroke
2 -12 5 -19 3 -17 4 -25 3 28 5 14 5 16 1 35 
1 0 3 2 0 -11 5 -54 1 12 14 -64 0 53 5 0 
4 18 0 6 3 0 3 0 2 12 6 -23 8 -21 -1 38 
5 9 3 -2 9 -15 1 15 1 1 2 29 4 -16 9 -58 
-3 40 4 -7 1 20 3 20 3 12 11 -60 9 -6 -2 63 
3 -42 1 15 7 -21 13 -73 0 25 1 48 -1 78 4 -20 
3 2 10 -80 0 -8 8 -47 -2 35 6 -13 -1 99 7 -47 
2 -8 4 36 6 -39 2 20 7 -62 -7 107 9 -83 0 13 
2 39 -5 71 7 -6 10 -40 0 11 2 19 0 9 2 12 
13 -42 3 -23 1 21 1 52 3 3 10 -10 6 -24 1 3 
2 28 3 10 8 -32 7 -28 1 22 2 21 5 14 10 8 
2 6 4 4 3 27 11 -20 2 33 4 10 6 -9 9 -18 
7 -18 0 26 6 10 5092 2071 100 MP stroke
7 -32 12 -54 1 16 2 38 5 12 12 -27 8 9 1 30 
1 47 5 1 19 -98 3 13 3 24 -3 22 11 16 10 -31 
4 34 7 -21 -1 42 10 -6 12 2 6 -23 8 -5 4 48 
7 3 5 -4 8 4 9 -3 13 -39 10 -15 5 32 6 11 
8 8 8 11 11 12 12 -35 10 4 8 -7 6 0 7 0 
7 23 22 -20 7 1 3 -13 10 -13 6 -8 20 -18 6 13 
13 5 8 -26 3 -2 11 -15 14 -22 9 -20 10 1 9 26 
10 17 12 0 12 -19 12 -9 9 20 4 -20 10 -8 6 -17 
32 -22 15 -6 -5 -4 12 18 17 24 2 26 20 -65 17 15 
10 0 11 17 12 17 25 -27 1 12 16 20 12 33 17 -22 
12 -38 15 -56 24 -26 19 -10 9 108 20 -39 8 -39 38 73 
13 -9 24 -23 8 93 16 27 20 63 18 -50 24 -160 18 -52 
19 -53 18 19 26 -44 4016 2336 100 MP stroke
19 0 18 31 19 -6 21 -27 17 -27 25 -27 21 -18 23 19 
18 -82 18 82 23 87 25 -50 18 -30 21 -70 21 67 23 62 
20 35 31 -135 9 7 12 -13 24 -88 17 199 23 -55 19 -76 
17 -40 16 32 40 -278 7 129 14 -7 21 125 13 7 21 39 
25 -40 10 -6 19 30 16 -83 16 119 28 -24 9 52 22 3 
10 -377 16 -127 13 344 22 -78 26 -14 2 123 22 -7 16 151 
22 97 15 103 21 -182 17 1 26 128 28 67 17 38 21 -16 
20 -16 19 106 23 87 22 -59 20 -65 19 -75 19 40 22 -87 
25 76 17 -23 19 -64 22 33 21 -161 22 79 22 -75 20 -115 
19 -65 20 127 25 -5 24 125 15 -76 22 96 15 -36 20 44 
20 -38 5 68 21 -149 21 47 18 171 20 -41 18 22 22 134 
14 -76 30 -135 17 -69 6 160 23 -51 16 -17 19 -31 15 112 
17 -67 16 12 18 52 2115 2147 100 MP stroke
15 67 15 -30 16 59 16 56 16 2 12 -14 27 -112 23 24 
7 36 18 40 10 -25 24 20 12 -130 6 85 11 -74 8 7 
11 -49 9 -1 16 16 10 -38 15 -21 10 44 11 74 9 100 
8 49 11 -163 5 99 15 -40 7 -145 12 -234 6 154 8 173 
4 -85 -1 14 11 -44 9 175 2 -63 4 -149 -1 -78 9 115 
1 116 -10 -132 9 -20 -3 31 2 -8 -3 -72 -1 -29 3 79 
-4 18 -14 -62 12 -21 -36 199 24 -20 -1 -36 -17 36 -19 24 
6 -137 -22 82 -19 -79 -6 41 -11 68 -9 -37 -10 -92 -13 11 
-12 53 -15 57 -13 -5 -17 11 -14 -63 -18 24 -14 -49 -23 34 
-8 -107 -16 56 -26 15 -16 20 -17 28 -18 -198 -29 121 -26 -12 
-21 -58 -18 -57 -21 -114 -15 95 -36 177 -25 71 -19 -3 -23 -48 
-21 -31 -34 -63 -22 45 -21 16 -22 13 -28 -22 -23 75 -27 -36 
-19 -121 -26 9 -20 84 2543 2256 100 MP stroke
-36 45 -27 88 -6 -142 -26 83 -17 -27 -28 32 -26 26 -19 -120 
-19 36 -18 -46 -22 1 -27 10 -24 15 -18 -33 -19 -6 -22 98 
-18 -28 -30 188 -17 -21 -17 -85 -18 -20 -20 -98 -21 16 -20 -11 
-19 85 -18 -97 -30 62 -9 42 -12 -1 -29 -88 -22 -33 -5 -41 
-18 39 -16 -11 -24 -70 -12 116 -17 59 -15 19 -19 -33 -16 -1 
-18 -28 -14 0 -19 -123 -13 16 -25 4 -20 123 0 -57 -21 -7 
-8 46 -30 -40 -10 29 -16 13 -12 -27 -22 11 -14 -47 -20 44 
-12 42 -14 -45 -10 8 -27 7 -14 9 -19 19 -14 4 -4 19 
-21 -28 -11 -8 -16 -31 -11 8 -19 4 -10 -33 -24 -20 -2 45 
-20 10 -15 25 -25 -26 -4 21 -25 -15 -7 17 -10 -1 -14 -10 
-18 10 -19 -16 -2 29 -20 -50 -8 51 -16 -26 -9 31 -19 -42 
-14 -14 -10 0 -15 -13 0 57 -16 -20 -21 -17 -5 17 -1 27 
-26 -51 -8 28 -6 -1 4182 2230 100 MP stroke
-17 -6 -24 -92 2 65 -7 20 -12 -15 -8 23 -8 1 -14 -29 
-10 -26 6 118 -15 -15 -5 -1 -5 2 -3 10 -21 -112 -7 -12 
2 51 0 61 -3 8 -7 -7 -5 -35 -8 -38 4 53 -11 -50 
1 27 -1 17 -5 -23 -6 -45 2 45 -5 -28 0 17 -1 -22 
0 45 3 -93 2 -55 0 39 -1 22 1 56 -1 -10 1 25 
0 -43 1 -85 4 29 3 19 6 -38 0 14 1 55 2 -30 
1 1 3 -16 4 9 4 -150 0 75 1 -1 2 33 3 -14 
0 -10 1 51 -2 18 0 -61 0 23 12 2 1 13 1 -118 
-1 73 3 -28 -2 -28 2 94 0 42 0 -45 -2 19 1 -25 
-1 30 3 17 0 -33 -1 0 -5 -29 4 8 3 4 4 7 
-1 -169 1 103 -1 30 1 7 2 -37 2 -28 1 -26 1 43 
0 -79 2 -77 0 135 1 -62 -4 -11 12 -34 -2 65 -2 -35 
3 18 0 73 1 -21 4295 2462 100 MP stroke
-1 104 1 -48 -1 41 1 -46 1 -41 0 104 0 -27 -1 6 
2 19 2 -36 0 26 0 -77 2 -100 0 81 4 -32 2 32 
1 15 -1 -97 1 80 3 6 4 28 1 -2 -4 16 9 -34 
4 54 -3 36 3 -12 -4 6 8 -18 7 -109 -1 16 0 37 
2 45 9 -7 4 -95 -2 9 8 0 6 -23 -1 -8 1 34 
-3 53 10 -5 4 67 -2 -42 2 -59 7 -43 1 47 6 -69 
0 64 3 -8 1 19 -1 40 4 -22 4 -2 5 -10 -4 26 
5 -8 11 -33 -3 37 3 -15 1 2 8 -48 0 53 3 -18 
3 -5 7 1 0 12 4 3 7 88 3 -7 0 21 6 -10 
8 -9 -1 -51 8 -51 8 -10 2 -13 -1 22 3 32 9 -42 
4 19 2 -43 1 33 11 -41 4 -27 2 21 5 5 0 22 
6 -25 6 -48 4 -13 2 13 7 0 0 -3 6 11 2 -9 
2 -16 8 -52 3 32 4022 2593 100 MP stroke
5 26 4 16 8 48 -2 -50 5 -22 3 -30 1 -16 2 -45 
2 63 0 -5 -1 29 14 -9 4 -16 0 -14 1 8 2 13 
2 22 0 39 6 -18 5 3 3 20 1 -22 2 -6 4 14 
-1 -119 6 16 2 -9 8 33 2 -15 9 60 0 -113 3 -46 
4 6 1 -21 16 -2 2 6 3 47 3 46 1 -1 -2 -19 
7 -25 7 3 2 -35 6 -18 2 33 4 -66 3 10 4 -21 
6 66 5 -10 -4 41 11 -1 1 -40 17 62 13 63 -5 -151 
3 20 -2 -73 3 -47 5 15 5 24 -1 25 5 60 6 -80 
8 29 3 -46 12 36 -2 9 9 99 2 -26 6 -20 10 26 
3 -41 8 9 2 -25 7 -6 5 6 6 -49 11 73 1 -38 
10 -44 3 -33 13 93 4 -18 5 -40 8 -15 10 18 6 -85 
8 -72 5 9 8 61 8 30 18 129 2 -135 10 51 6 -84 
15 55 9 97 4 -33 3548 2801 100 MP stroke
12 -127 9 -580 13 -86 17 426 7 230 12 78 14 109 13 84 
13 107 12 -49 16 -81 11 95 16 165 14 -87 14 -2 15 53 
15 12 16 -69 15 49 12 -3 15 -130 16 53 17 -121 15 42 
14 188 17 55 13 6 16 -78 18 96 17 -25 14 8 13 14 
13 -40 18 -16 12 -21 25 -71 10 -21 7 -24 16 4 11 124 
16 -10 11 -43 16 -5 11 25 15 -139 11 2 14 156 7 68 
6 158 20 -47 17 -209 11 58 13 -66 7 42 4 31 23 -231 
12 261 14 49 10 -23 12 40 8 121 11 5 11 78 13 22 
13 -22 13 -100 7 46 8 112 9 5 9 53 9 59 8 -19 
9 -9 9 -3 7 -61 6 -45 4 13 6 32 4 -14 4 52 
8 -143 7 -143 3 75 2 44 2 8 5 -51 2 137 2 43 
3 13 5 -115 5 50 2 -30 0 23 3 -48 2 10 1 91 
4 -55 4 10 3 -60 2504 2133 100 MP stroke
1 -83 2 112 3 72 4 83 6 -40 2 -52 3 54 2 16 
4 32 3 -144 4 17 7 85 6 -41 4 46 5 28 5 37 
4 -22 9 -29 7 9 6 46 9 31 5 -117 7 9 4 -29 
12 63 4 -6 4 -86 8 -86 5 -29 8 18 7 0 6 90 
5 32 7 -20 7 45 5 33 3 -21 -1 -64 3 13 0 -27 
1 16 -2 -2 -3 33 0 5 -2 -51 -5 21 -5 -25 -5 33 
-6 -2 -6 -3 -8 40 -6 -35 -9 -52 -17 16 -3 11 -6 7 
-11 -2 -5 -44 -13 19 -10 6 -17 26 -17 31 -24 -19 -20 -14 
-16 24 -5 -133 -17 29 -15 124 -15 61 -14 -32 0 -25 -15 -13 
-22 -10 -14 -14 -18 4 -14 -7 -12 -43 -14 -6 -22 25 -40 92 
6 -92 -8 21 -11 13 -20 23 -13 -23 -17 22 -10 -19 -27 40 
-25 36 6 -101 -13 -19 -17 2 -25 31 -8 -38 -22 21 0 -83 
-16 5 -13 -22 -18 15 3012 2135 100 MP stroke
-13 15 -25 67 -1 -92 -16 1 -9 -31 -16 21 -6 -26 -23 62 
-3 -59 -13 -16 -10 1 -12 -1 -9 -14 -14 21 -8 -40 -9 -13 
-11 4 -9 -13 -14 37 -8 -2 -3 -65 -10 24 -4 -66 -12 26 
-17 86 -1 -63 -8 20 -6 -11 -6 -31 -7 19 -5 10 -7 27 
-1 -8 -5 0 -8 19 -7 2 -4 22 -3 -20 -4 -14 -2 -17 
-5 5 -3 -3 -3 -4 -4 -9 -3 9 -3 15 -1 3 -1 -38 
-2 -1 1 -34 -4 67 -1 -21 0 -35 0 19 -2 5 -5 32 
1 -2 2 6 5 -15 0 32 1 -28 4 27 -1 -60 2 1 
1 -26 3 2 1 -11 -9 74 5 -14 6 -3 0 -24 3 -7 
1 -28 3 23 6 -20 1 -3 6 2 -2 20 2 -7 6 65 
2 16 -1 -67 2 -34 8 -34 4 -43 2 -39 6 -6 -3 49 
3 -3 -2 -18 4 -65 -9 67 0 23 17 -35 -4 4 9 -72 
0 21 -10 57 -3 36 3325 2382 100 MP stroke
-1 -2 -1 20 1 -5 -1 -11 1 -18 -5 64 9 -78 11 -15 
-6 -14 5 -77 -1 -5 -4 61 1 -50 0 -15 -3 -19 -11 119 
-8 36 3 -122 -5 6 -7 53 0 -74 -7 80 -7 33 2 -74 
-7 31 -3 -26 -9 72 1 -134 -11 113 -5 22 -2 -61 -4 -20 
-4 -16 -4 7 -3 -23 -4 49 -3 9 -3 4 -3 -7 -3 29 
-4 15 1 11 0 6 -6 61 0 -25 -4 66 -2 -34 3 -27 
-5 15 6 -36 1 -22 -3 16 0 30 -1 27 0 -19 -1 -18 
-2 22 1 -12 -1 14 0 45 1 -65 -3 -34 1 -51 -1 37 
-2 -37 -1 9 0 -11 0 56 -1 -18 -3 103 0 -39 -1 -34 
-1 91 0 -49 -1 -21 0 -25 -2 5 -2 -62 -2 117 -2 71 
0 2 -1 -8 -4 -31 -1 0 -3 15 0 29 -4 -42 -3 36 
-2 66 -1 35 -2 148 -4 -72 -3 -210 -2 -94 -1 -43 -3 -60 
-3 14 -4 18 1 -71 3503 2530 100 MP stroke
-3 25 -7 51 -5 35 0 -35 -2 27 -7 -3 -4 146 -1 59 
-5 -159 -5 -126 -4 -19 -6 49 -1 20 -7 -61 -3 42 -9 -45 
-5 -81 -3 -150 -8 -15 -9 144 -5 3 -6 -45 -9 0 -10 -129 
-12 51 -6 -81 -10 -76 -12 200 -9 -103 -10 -21 -12 86 -12 88 
-9 8 -12 -190 -11 -81 -14 219 3756 2697 37 MP stroke
gr

c8
0 sg
%%IncludeResource: font Helvetica
/Helvetica /WindowsLatin1Encoding 120 FMSR

1402  293 mt 
(Experiment 1b - Digital magnetometers - RMSE of position - \
function of distance) s
2502 4939 mt 
(Distance to center of sensor network [m]) s
 558 2825 mt  -90 rotate
(RMSE [mm]) s
90 rotate

end %%Color Dict

eplot
%%EndObject

epage
end

showpage

%%Trailer
%%EOF
