%!PS-Adobe-2.0 EPSF-1.2
%%Creator: MATLAB, The MathWorks, Inc. Version 7.13.0.564 (R2011b). Operating System: Microsoft Windows 7.
%%Title: ..\figures\digital_par_pos_bias.eps
%%CreationDate: 11/13/2012  17:43:47
%%DocumentNeededFonts: Helvetica
%%DocumentProcessColors: Cyan Magenta Yellow Black
%%Extensions: CMYK
%%Pages: 1
%%BoundingBox:    52   199   552   602
%%EndComments

%%BeginProlog
% MathWorks dictionary
/MathWorks 160 dict begin
% definition operators
/bdef {bind def} bind def
/ldef {load def} bind def
/xdef {exch def} bdef
/xstore {exch store} bdef
% operator abbreviations
/c  /clip ldef
/cc /concat ldef
/cp /closepath ldef
/gr /grestore ldef
/gs /gsave ldef
/mt /moveto ldef
/np /newpath ldef
/cm /currentmatrix ldef
/sm /setmatrix ldef
/rm /rmoveto ldef
/rl /rlineto ldef
/s {show newpath} bdef
/sc {setcmykcolor} bdef
/sr /setrgbcolor ldef
/sg /setgray ldef
/w /setlinewidth ldef
/j /setlinejoin ldef
/cap /setlinecap ldef
/rc {rectclip} bdef
/rf {rectfill} bdef
% page state control
/pgsv () def
/bpage {/pgsv save def} bdef
/epage {pgsv restore} bdef
/bplot /gsave ldef
/eplot {stroke grestore} bdef
% orientation switch
/portraitMode 0 def /landscapeMode 1 def /rotateMode 2 def
% coordinate system mappings
/dpi2point 0 def
% font control
/FontSize 0 def
/FMS {/FontSize xstore findfont [FontSize 0 0 FontSize neg 0 0]
  makefont setfont} bdef
/ISOLatin1Encoding where {pop /WindowsLatin1Encoding 256 array bdef
ISOLatin1Encoding WindowsLatin1Encoding copy pop
/.notdef/.notdef/quotesinglbase/florin/quotedblbase/ellipsis/dagger
/daggerdbl/circumflex/perthousand/Scaron/guilsinglleft/OE/.notdef/.notdef
/.notdef/.notdef/quoteleft/quoteright/quotedblleft/quotedblright/bullet
/endash/emdash/tilde/trademark/scaron/guilsinglright/oe/.notdef/.notdef
/Ydieresis WindowsLatin1Encoding 128 32 getinterval astore pop}
{/WindowsLatin1Encoding StandardEncoding bdef} ifelse
/reencode {exch dup where {pop load} {pop StandardEncoding} ifelse
  exch dup 3 1 roll findfont dup length dict begin
  { 1 index /FID ne {def}{pop pop} ifelse } forall
  /Encoding exch def currentdict end definefont pop} bdef
/isroman {findfont /CharStrings get /Agrave known} bdef
/FMSR {3 1 roll 1 index dup isroman {reencode} {pop pop} ifelse
  exch FMS} bdef
/csm {1 dpi2point div -1 dpi2point div scale neg translate
 dup landscapeMode eq {pop -90 rotate}
  {rotateMode eq {90 rotate} if} ifelse} bdef
% line types: solid, dotted, dashed, dotdash
/SO { [] 0 setdash } bdef
/DO { [.5 dpi2point mul 4 dpi2point mul] 0 setdash } bdef
/DA { [6 dpi2point mul] 0 setdash } bdef
/DD { [.5 dpi2point mul 4 dpi2point mul 6 dpi2point mul 4
  dpi2point mul] 0 setdash } bdef
% macros for lines and objects
/L {lineto stroke} bdef
/MP {3 1 roll moveto 1 sub {rlineto} repeat} bdef
/AP {{rlineto} repeat} bdef
/PDlw -1 def
/W {/PDlw currentlinewidth def setlinewidth} def
/PP {closepath eofill} bdef
/DP {closepath stroke} bdef
/MR {4 -2 roll moveto dup  0 exch rlineto exch 0 rlineto
  neg 0 exch rlineto closepath} bdef
/FR {MR stroke} bdef
/PR {MR fill} bdef
/L1i {{currentfile picstr readhexstring pop} image} bdef
/tMatrix matrix def
/MakeOval {newpath tMatrix currentmatrix pop translate scale
0 0 1 0 360 arc tMatrix setmatrix} bdef
/FO {MakeOval stroke} bdef
/PO {MakeOval fill} bdef
/PD {currentlinewidth 2 div 0 360 arc fill
   PDlw -1 eq not {PDlw w /PDlw -1 def} if} def
/FA {newpath tMatrix currentmatrix pop translate scale
  0 0 1 5 -2 roll arc tMatrix setmatrix stroke} bdef
/PA {newpath tMatrix currentmatrix pop	translate 0 0 moveto scale
  0 0 1 5 -2 roll arc closepath tMatrix setmatrix fill} bdef
/FAn {newpath tMatrix currentmatrix pop translate scale
  0 0 1 5 -2 roll arcn tMatrix setmatrix stroke} bdef
/PAn {newpath tMatrix currentmatrix pop translate 0 0 moveto scale
  0 0 1 5 -2 roll arcn closepath tMatrix setmatrix fill} bdef
/vradius 0 def /hradius 0 def /lry 0 def
/lrx 0 def /uly 0 def /ulx 0 def /rad 0 def
/MRR {/vradius xdef /hradius xdef /lry xdef /lrx xdef /uly xdef
  /ulx xdef newpath tMatrix currentmatrix pop ulx hradius add uly
  vradius add translate hradius vradius scale 0 0 1 180 270 arc 
  tMatrix setmatrix lrx hradius sub uly vradius add translate
  hradius vradius scale 0 0 1 270 360 arc tMatrix setmatrix
  lrx hradius sub lry vradius sub translate hradius vradius scale
  0 0 1 0 90 arc tMatrix setmatrix ulx hradius add lry vradius sub
  translate hradius vradius scale 0 0 1 90 180 arc tMatrix setmatrix
  closepath} bdef
/FRR {MRR stroke } bdef
/PRR {MRR fill } bdef
/MlrRR {/lry xdef /lrx xdef /uly xdef /ulx xdef /rad lry uly sub 2 div def
  newpath tMatrix currentmatrix pop ulx rad add uly rad add translate
  rad rad scale 0 0 1 90 270 arc tMatrix setmatrix lrx rad sub lry rad
  sub translate rad rad scale 0 0 1 270 90 arc tMatrix setmatrix
  closepath} bdef
/FlrRR {MlrRR stroke } bdef
/PlrRR {MlrRR fill } bdef
/MtbRR {/lry xdef /lrx xdef /uly xdef /ulx xdef /rad lrx ulx sub 2 div def
  newpath tMatrix currentmatrix pop ulx rad add uly rad add translate
  rad rad scale 0 0 1 180 360 arc tMatrix setmatrix lrx rad sub lry rad
  sub translate rad rad scale 0 0 1 0 180 arc tMatrix setmatrix
  closepath} bdef
/FtbRR {MtbRR stroke } bdef
/PtbRR {MtbRR fill } bdef
/stri 6 array def /dtri 6 array def
/smat 6 array def /dmat 6 array def
/tmat1 6 array def /tmat2 6 array def /dif 3 array def
/asub {/ind2 exch def /ind1 exch def dup dup
  ind1 get exch ind2 get sub exch } bdef
/tri_to_matrix {
  2 0 asub 3 1 asub 4 0 asub 5 1 asub
  dup 0 get exch 1 get 7 -1 roll astore } bdef
/compute_transform {
  dmat dtri tri_to_matrix tmat1 invertmatrix 
  smat stri tri_to_matrix tmat2 concatmatrix } bdef
/ds {stri astore pop} bdef
/dt {dtri astore pop} bdef
/db {2 copy /cols xdef /rows xdef mul dup 3 mul string
  currentfile exch readhexstring pop
  dup 0 3 index getinterval /rbmap xdef
  dup 2 index dup getinterval /gbmap xdef
  1 index dup 2 mul exch getinterval /bbmap xdef pop pop}bdef
/it {gs np dtri aload pop moveto lineto lineto cp c
  cols rows 8 compute_transform 
  rbmap gbmap bbmap true 3 colorimage gr}bdef
/il {newpath moveto lineto stroke}bdef
currentdict end def
%%EndProlog

%%BeginSetup
MathWorks begin

0 cap

end
%%EndSetup

%%Page: 1 1
%%BeginPageSetup
%%PageBoundingBox:    52   199   552   602
MathWorks begin
bpage
%%EndPageSetup

%%BeginObject: obj1
bplot

/dpi2point 12 def
portraitMode 0204 7344 csm

  422   109  5999  4845 MR c np
85 dict begin %Colortable dictionary
/c0 { 0.000000 0.000000 0.000000 sr} bdef
/c1 { 1.000000 1.000000 1.000000 sr} bdef
/c2 { 0.900000 0.000000 0.000000 sr} bdef
/c3 { 0.000000 0.820000 0.000000 sr} bdef
/c4 { 0.000000 0.000000 0.800000 sr} bdef
/c5 { 0.910000 0.820000 0.320000 sr} bdef
/c6 { 1.000000 0.260000 0.820000 sr} bdef
/c7 { 0.000000 0.820000 0.820000 sr} bdef
c0
1 j
1 sg
   0    0 6913 5185 PR
6 w
0 4225 5356 0 0 -4225 899 4614 4 MP
PP
-5356 0 0 4225 5356 0 0 -4225 899 4614 5 MP stroke
4 w
DO
SO
6 w
0 sg
 899  389 mt 6255  389 L
 899 4614 mt 6255 4614 L
6255 4614 mt 6255  389 L
 899 4614 mt  899  389 L
 899 4614 mt 6255 4614 L
 899 4614 mt  899  389 L
1791 4614 mt 1791 4560 L
1791  389 mt 1791  442 L
%%IncludeResource: font Helvetica
/Helvetica /WindowsLatin1Encoding 120 FMSR

1675 4759 mt 
(0.16) s
2684 4614 mt 2684 4560 L
2684  389 mt 2684  442 L
2568 4759 mt 
(0.18) s
3577 4614 mt 3577 4560 L
3577  389 mt 3577  442 L
3494 4759 mt 
(0.2) s
4469 4614 mt 4469 4560 L
4469  389 mt 4469  442 L
4353 4759 mt 
(0.22) s
5362 4614 mt 5362 4560 L
5362  389 mt 5362  442 L
5246 4759 mt 
(0.24) s
6255 4614 mt 6255 4560 L
6255  389 mt 6255  442 L
6139 4759 mt 
(0.26) s
 899 4614 mt  925 4614 L
6255 4614 mt 6228 4614 L
 899 4614 mt  952 4614 L
6255 4614 mt 6201 4614 L
 640 4658 mt 
(10) s
%%IncludeResource: font Helvetica
/Helvetica /WindowsLatin1Encoding 80 FMSR

 773 4584 mt 
(-1) s
 899 4190 mt  925 4190 L
6255 4190 mt 6228 4190 L
 899 3942 mt  925 3942 L
6255 3942 mt 6228 3942 L
 899 3766 mt  925 3766 L
6255 3766 mt 6228 3766 L
 899 3629 mt  925 3629 L
6255 3629 mt 6228 3629 L
 899 3518 mt  925 3518 L
6255 3518 mt 6228 3518 L
 899 3423 mt  925 3423 L
6255 3423 mt 6228 3423 L
 899 3342 mt  925 3342 L
6255 3342 mt 6228 3342 L
 899 3270 mt  925 3270 L
6255 3270 mt 6228 3270 L
 899 3205 mt  925 3205 L
6255 3205 mt 6228 3205 L
 899 3205 mt  952 3205 L
6255 3205 mt 6201 3205 L
%%IncludeResource: font Helvetica
/Helvetica /WindowsLatin1Encoding 120 FMSR

 640 3249 mt 
(10) s
%%IncludeResource: font Helvetica
/Helvetica /WindowsLatin1Encoding 80 FMSR

 773 3175 mt 
(0) s
 899 2781 mt  925 2781 L
6255 2781 mt 6228 2781 L
 899 2533 mt  925 2533 L
6255 2533 mt 6228 2533 L
 899 2357 mt  925 2357 L
6255 2357 mt 6228 2357 L
 899 2221 mt  925 2221 L
6255 2221 mt 6228 2221 L
 899 2109 mt  925 2109 L
6255 2109 mt 6228 2109 L
 899 2015 mt  925 2015 L
6255 2015 mt 6228 2015 L
 899 1933 mt  925 1933 L
6255 1933 mt 6228 1933 L
 899 1861 mt  925 1861 L
6255 1861 mt 6228 1861 L
 899 1797 mt  925 1797 L
6255 1797 mt 6228 1797 L
 899 1797 mt  952 1797 L
6255 1797 mt 6201 1797 L
%%IncludeResource: font Helvetica
/Helvetica /WindowsLatin1Encoding 120 FMSR

 640 1841 mt 
(10) s
%%IncludeResource: font Helvetica
/Helvetica /WindowsLatin1Encoding 80 FMSR

 773 1767 mt 
(1) s
 899 1373 mt  925 1373 L
6255 1373 mt 6228 1373 L
 899 1125 mt  925 1125 L
6255 1125 mt 6228 1125 L
 899  949 mt  925  949 L
6255  949 mt 6228  949 L
 899  812 mt  925  812 L
6255  812 mt 6228  812 L
 899  701 mt  925  701 L
6255  701 mt 6228  701 L
 899  607 mt  925  607 L
6255  607 mt 6228  607 L
 899  525 mt  925  525 L
6255  525 mt 6228  525 L
 899  453 mt  925  453 L
6255  453 mt 6228  453 L
 899  389 mt  925  389 L
6255  389 mt 6228  389 L
 899  389 mt  952  389 L
6255  389 mt 6201  389 L
%%IncludeResource: font Helvetica
/Helvetica /WindowsLatin1Encoding 120 FMSR

 640  433 mt 
(10) s
%%IncludeResource: font Helvetica
/Helvetica /WindowsLatin1Encoding 80 FMSR

 773  359 mt 
(2) s
 899  389 mt 6255  389 L
 899 4614 mt 6255 4614 L
6255 4614 mt 6255  389 L
 899 4614 mt  899  389 L
gs 899 388 5357 4227 MR c np
/c8 { 0.000000 0.000000 1.000000 sr} bdef
c8
27 262 36 169 31 123 33 84 29 63 27 48 26 34 31 23 
29 13 23 7 28 1 23 -4 26 -6 24 -7 26 -7 19 -6 
24 -5 23 -3 24 -2 22 -1 22 0 20 1 17 1 18 1 
21 0 21 1 24 0 19 -1 20 -1 22 0 18 0 15 0 
21 1 18 3 20 3 22 6 22 6 19 8 23 8 16 9 
22 10 17 9 21 8 19 7 22 6 18 3 25 1 17 0 
20 -3 15 -5 22 -7 17 -8 21 -10 16 -10 20 -10 14 -10 
21 -9 14 -7 22 -6 14 -5 22 -4 15 -1 20 0 12 0 
23 2 10 3 24 5 6 5 34 6 17 7 23 8 18 8 
9 8 36 7 10 7 24 7 15 6 21 5 18 5 19 4 
7 3 39 3 -5 2 38 2 36 1 -12 0 31 0 6 -1 
18 -1 27 -2 10 -3 23 -3 13 -5 19 -4 19 -6 20 -5 
16 -7 20 -6 31 -6 3916 2249 100 MP stroke
-4 -5 9 -5 27 -4 6 -3 21 -2 8 -1 20 1 6 1 
19 2 0 3 49 2 4 5 0 3 1 4 11 2 7 2 
12 2 6 0 13 0 11 -1 9 -2 7 -2 10 -2 7 -3 
9 -2 5 -2 5 -1 10 -1 4 0 10 1 4 1 2 2 
6 2 4 3 1 2 3 2 3 1 3 2 1 1 3 0 
3 0 3 0 1 0 2 -1 -5 0 1 -1 3 -1 -6 -1 
2 -2 -4 -2 1 -3 -6 -2 -1 -3 -1 -4 -4 -3 -4 -4 
-2 -3 -2 -3 -2 -3 -4 -3 -5 -2 -8 -2 -2 -1 -5 -2 
-7 -1 -10 -1 3 -2 -6 -2 -2 -2 -6 -2 1 -2 -12 -2 
-2 -2 -4 -1 -1 -1 -7 1 -1 1 -6 3 -3 4 -6 4 
-3 6 -8 5 -4 6 -6 5 -4 4 -7 3 -2 3 -14 1 
-11 -1 -7 -1 -8 -2 -12 -3 -7 -2 -9 -3 2 -2 -7 -1 
-11 0 -17 1 -13 3 3846 2270 100 MP stroke
-3 3 -10 3 -9 3 -10 3 -14 1 -18 -1 -10 -2 -10 -4 
-9 -6 -10 -9 -10 -9 -10 -12 -4 -12 -5 -13 -13 -12 -9 -12 
-11 -10 -8 -9 -10 -6 -7 -4 -16 -2 -10 0 -2 3 -12 4 
-11 6 -9 7 -21 7 -3 7 -10 6 -17 6 0 3 -7 3 
-12 1 -1 0 -10 -2 -6 -3 -10 -4 -1 -5 -8 -7 1 -6 
-10 -7 -6 -6 -8 -6 -1 -6 -8 -6 -10 -5 -4 -6 0 -6 
-11 -5 -5 -5 -11 -5 -17 -7 -1 -5 -7 -6 -6 -6 -7 -7 
-16 -6 -5 -6 -13 -7 -12 -7 -8 -7 -15 -5 -14 -7 3 -6 
-8 -6 -7 -5 -12 -6 -5 -4 -13 -7 -15 -4 -1 -4 -15 -5 
-9 -8 -5 -5 -15 -6 -11 -6 -11 -6 -12 -6 -11 -5 -12 -4 
-10 -4 -11 -2 -12 5 -15 3 -10 3 -19 6 -16 5 -6 4 
-18 4 -23 1 -3 2 -13 -2 -10 -4 -23 -5 -7 -8 -10 -8 
-17 -9 -10 -11 -13 -7 4801 2613 100 MP stroke
-10 -8 -15 -7 -11 -4 -13 -2 -7 -1 -28 2 -6 5 -24 4 
-8 6 -11 5 -6 4 -15 5 -3 1 -9 1 -7 -1 -12 -4 
-5 -9 -4 -10 -11 -16 -9 -15 -14 -10 -6 -10 -12 -8 0 -4 
-13 2 -6 5 -13 10 -5 11 -7 10 -1 9 -12 6 -24 5 
-3 2 -3 0 -8 -2 -19 -5 -23 -12 6 1 -10 -7 -17 -9 
-4 -9 -7 -8 -19 -11 2 -10 -26 -7 -9 -10 -16 -7 -10 -6 
-3 -8 -22 -2 -17 4 -11 1 -16 4 -1 13 -28 10 -2 13 
-13 11 -12 15 -12 11 -12 10 -10 6 -12 3 -13 0 -14 -4 
-12 -12 -13 -13 -11 -13 -9 -21 -12 -19 -20 -15 -16 -16 -14 -12 
-19 -9 -13 0 -12 5 -23 8 -12 18 -4 24 -18 27 -5 30 
-21 39 -8 36 -7 36 -12 39 -20 35 -1 34 -8 34 -5 29 
-7 28 -1 25 -10 21 -5 20 -8 15 -9 13 -6 8 -7 4 
-6 0 -3 -4 -14 -6 5863 2256 100 MP stroke
-1 -11 -7 -14 -21 -18 5 -21 -8 -22 -5 -24 -3 -25 -21 -26 
-3 -25 3 -26 -10 -22 -17 -17 5 -15 -3 -9 -6 -4 -8 1 
-18 3 -2 16 4 18 -16 19 -11 21 3 26 -1 20 -5 23 
-19 22 5 17 -10 15 -6 12 2 9 -7 8 -8 5 0 3 
-2 1 -5 1 3 0 -5 -2 0 -3 -6 -5 0 -5 2 -8 
-6 -9 0 -25 -1 -16 0 -18 4 -18 3 -20 -1 -20 1 -18 
-2 -18 2 -12 2 -12 3 -7 2 -1 5 2 4 1 5 2 
4 1 7 -2 2 -6 4 -8 16 -3 4 -8 4 -9 8 -12 
6 -11 6 1 7 0 7 7 3 11 3 17 7 21 7 26 
8 28 5 29 16 31 7 29 8 26 9 22 8 18 9 13 
4 9 8 3 8 -3 9 -9 8 -14 8 -21 9 -26 19 -32 
12 -39 10 -43 13 -47 9 -51 11 -50 10 -50 9 -48 11 -41 
14 -36 12 -23 11 -15 5684 2822 100 MP stroke
14 -16 22 -1 26 -5 5 6 10 13 11 17 12 23 13 26 
11 28 13 27 12 26 15 24 20 22 12 16 16 13 13 10 
12 7 17 7 14 6 16 8 16 9 11 11 13 13 12 17 
21 19 13 23 13 25 12 28 13 28 14 29 16 28 14 25 
14 21 14 18 14 13 12 6 20 -1 18 -7 13 -12 23 -23 
3 -29 17 -37 15 -44 19 -52 18 -58 13 -64 18 -64 14 -63 
17 -57 15 -46 21 -33 19 -20 14 -6 19 -1 16 1 18 -4 
19 -3 16 -9 20 -6 15 -10 39 -14 8 -13 15 -10 21 -1 
19 2 20 8 22 17 25 24 16 32 22 34 20 37 21 39 
19 38 22 39 18 39 24 37 19 35 25 32 29 29 3 26 
25 23 14 18 25 14 15 8 25 3 12 -2 34 -11 32 -12 
-8 -11 16 -22 19 -23 31 -24 4 -28 17 -27 16 -25 13 -25 
28 -26 9 -21 22 -21 4022 2682 100 MP stroke
10 -15 23 -15 1 -14 18 -13 10 -9 26 -5 2 -6 9 -4 
17 -2 14 -2 12 3 12 6 11 7 11 9 8 12 11 13 
20 16 -3 15 23 19 4 19 9 16 12 17 21 17 -1 16 
13 15 6 11 24 9 7 5 -2 11 11 3 7 1 19 0 
18 -7 -6 -1 9 -8 8 -9 27 -17 -2 -7 4 -14 8 -22 
13 -14 4 -34 19 3 0 -19 13 -21 11 -18 7 -22 11 -23 
-2 -20 13 -26 27 -32 4 -23 -2 -34 18 -15 15 -16 -3 -11 
16 -3 11 0 17 7 19 9 9 10 20 6 1 -5 20 5 
23 0 10 -7 12 -9 24 -17 10 -12 33 -22 8 -12 14 -21 
17 -23 27 -13 21 -18 12 -13 22 -13 5 -7 25 -5 13 -7 
18 -7 15 -11 19 -21 14 -22 20 -47 18 -59 16 -84 9 -116 
18 -148 15 -148 18 -25 14 63 13 196 12 129 12 107 14 62 
14 9 12 -65 14 -72 2769 3366 100 MP stroke
16 -71 7 -43 3 -29 16 -84 8 13 11 61 8 163 7 88 
8 116 12 86 14 50 3 73 8 42 12 35 11 28 8 26 
8 22 11 21 11 19 10 19 8 18 9 19 9 19 11 20 
10 20 8 19 9 19 13 19 10 18 8 15 16 14 6 11 
6 7 12 5 8 2 10 -1 10 -4 13 -4 9 -7 11 -7 
11 -7 14 -8 13 -6 11 -4 9 -3 13 -1 11 0 12 1 
9 3 8 4 9 5 7 6 6 6 7 8 5 9 5 10 
3 10 6 12 4 14 2 15 4 15 3 17 2 17 4 17 
1 18 2 18 2 17 1 16 2 15 1 13 -1 11 2 10 
-1 7 3 6 -1 4 2 2 -2 0 1 -1 -1 -2 1 -3 
-1 -3 0 -6 -4 -3 -1 -3 -1 -2 2 0 1 1 2 1 
0 4 -1 4 4 6 6 8 0 9 1 10 6 11 1 12 
6 12 1 11 4 11 2165 2175 100 MP stroke
4 10 4 10 5 8 8 7 6 6 7 5 4 4 7 3 
7 2 9 2 7 1 9 0 9 0 9 -1 7 0 10 -1 
11 0 12 0 7 0 10 2 7 2 9 3 6 4 11 5 
7 6 7 6 6 6 16 6 0 5 9 6 9 4 1 4 
8 4 5 2 7 2 7 2 5 1 6 1 4 0 7 1 
4 0 3 0 6 -1 2 -1 3 -1 5 -2 3 -3 5 -3 
3 -4 4 -4 12 -4 1 -5 6 -6 5 -5 4 -6 5 -5 
6 -5 5 -5 7 -4 10 -4 0 -3 8 -3 2 -2 10 -2 
4 -1 8 0 6 1 5 1 6 1 5 2 5 3 2 3 
11 4 -3 4 9 4 5 3 2 4 2 4 2 3 2 4 
-1 3 2 2 -2 2 2 2 -4 1 -1 1 -5 0 1 -1 
-2 -1 -4 -2 -2 -4 -3 -3 -4 -5 -4 -6 -7 -7 -4 -8 
-5 -8 -6 -9 -7 -10 1742 2138 100 MP stroke
-7 -10 -6 -10 -3 -10 -10 -10 -3 -9 -13 -7 -2 -6 -9 -5 
-3 -3 -5 -1 -8 1 -7 2 -5 4 -16 4 -5 5 -5 5 
-15 6 -5 5 -13 4 -6 4 -9 3 -7 2 -7 1 -3 1 
-14 0 -1 0 -9 -1 -2 0 -9 0 0 1 -11 2 -5 3 
-7 4 -5 5 -7 6 -4 5 -4 6 -4 5 -5 4 -12 2 
-5 1 -4 -2 -1 -3 -4 -6 0 -7 -3 -8 -2 -10 -2 -11 
-2 -10 -3 -11 1 -10 0 -16 1 -7 0 -7 1 -2 0 -1 
0 1 5 0 0 1 4 1 8 1 1 -1 5 0 3 -2 
6 -1 5 -3 5 -2 3 -3 4 -3 5 -3 7 -3 8 -3 
2 -4 5 -4 4 -5 6 -5 3 -6 5 -6 4 -5 5 -5 
4 -4 4 -3 4 -1 2 0 3 1 1 2 1 3 3 3 
2 2 0 2 -8 2 4 1 4 0 -1 0 1 -1 -1 -2 
-1 -3 -2 -4 -4 -4 1917 2296 100 MP stroke
3 -5 3 -5 -6 -7 4 -6 2 -7 0 -7 2 -7 1 -8 
-1 -7 -2 -8 1 -8 3 -8 2 -8 1 -8 1 -8 3 -8 
3 -7 4 -6 5 -7 6 -5 6 -6 7 -5 5 -4 5 -5 
6 -3 5 -4 8 -2 7 -1 8 0 8 1 9 3 12 5 
10 6 7 7 11 9 5 11 9 12 14 14 9 15 10 15 
11 16 11 17 12 16 13 16 9 14 10 13 10 12 12 10 
11 7 9 6 13 4 9 2 13 0 11 -3 13 -4 11 -6 
13 -8 13 -10 9 -11 11 -12 12 -13 12 -13 11 -13 10 -12 
11 -11 10 -10 12 -8 9 -6 10 -5 9 -3 9 -1 10 0 
10 2 9 2 10 4 9 4 10 5 8 6 10 7 7 6 
10 8 7 7 7 7 7 7 7 7 6 6 7 4 6 4 
7 2 7 0 9 -1 7 -3 10 -5 7 -6 6 -9 8 -10 
7 -12 15 -14 4 -14 1155 2370 100 MP stroke
13 -15 2 -16 11 -16 10 -16 5 -15 9 -12 -2 -11 22 -5 
-4 -2 7 1 3 4 10 8 9 9 -4 10 30 5 4 11 
-2 11 2 7 -3 6 8 5 3 2 4 1 9 0 3 -3 
5 -5 2 -6 4 -8 2 -10 2 -12 2 -13 2 -14 1 -15 
1 -14 -1 -16 0 -102 -1 -18 -1 -17 0 -50 -3 -14 0 -13 
-1 -14 -2 -13 0 -45 1 -7 -2 -10 1 -5 -3 -4 0 7 
-1 8 -3 10 1 13 -1 14 -1 18 0 16 -2 19 -3 17 
-1 17 -4 13 1 12 -1 7 -2 4 -1 2 0 -4 -1 -9 
1 -13 -4 -13 1 -18 -2 -21 0 -19 -2 -21 0 -19 -2 -17 
1 -14 -2 -4 0 -5 -3 2 0 5 -7 4 2 10 -3 10 
-6 12 -4 11 -1 11 -4 9 -5 9 -4 8 -5 6 0 6 
-6 3 -4 1 -9 0 -8 0 -2 -2 -7 -2 -1 -5 -16 2 
-9 0 -8 0 -3 4 1138 2722 100 MP stroke
-6 4 -13 4 -4 5 -8 7 -3 9 -4 7 -12 12 -10 8 
0 6 -9 3 -3 -1 -12 -4 -13 -10 -3 -17 -4 -23 -12 -25 
-9 -35 -3 -22 -14 -33 -6 -22 -11 -17 -12 -10 -2 1 -13 2 
-8 42 -6 20 -10 43 -18 37 -1 31 -11 31 -9 36 -11 31 
-10 27 -13 28 -11 24 -13 22 -11 22 -12 21 -13 18 -13 18 
-10 15 -8 14 -19 12 -23 8 0 6 -17 3 -11 0 -17 -1 
-25 -4 -3 -8 -13 -7 -14 -6 -23 -13 -15 -6 -3 -7 -20 -6 
-7 -5 -24 -6 -17 -3 -5 -1 -13 -1 -17 2 -12 2 -21 8 
-22 6 -6 8 -13 10 -28 11 -13 11 -7 12 -21 11 -15 12 
-20 11 -16 10 -18 10 -12 9 -17 8 -21 7 -17 6 -15 5 
-13 3 -22 2 -20 -1 -18 -2 -19 -6 -16 -7 -18 -10 -21 -12 
-15 -14 -20 -15 -15 -15 -36 -16 -6 -13 -19 -12 -33 -9 0 -6 
-31 -3 -12 0 -40 0 2466 2415 100 MP stroke
-3 6 -21 5 -13 5 -33 6 -23 6 -7 6 -25 6 -19 6 
-19 5 -27 5 -32 4 -1 4 -27 5 -15 4 -23 4 -20 5 
-40 6 2 6 -29 6 -11 7 -43 7 -8 6 -35 6 -3 6 
-27 4 -29 3 -3 2 -27 0 -18 -2 -36 -5 -4 -7 -18 -8 
-22 -10 -17 -11 -35 -12 -16 -12 -21 -12 -17 -10 -24 -8 -17 -5 
-26 -1 -2 2 -37 5 -11 7 -14 9 -41 9 2 10 -28 9 
-9 9 -39 7 -5 6 -31 4 -4 2 -19 2 -12 0 -31 1 
-9 0 -32 1 -18 1 6 2 -18 4 -20 6 -20 6 1 8 
-27 9 -6 10 -16 9 -10 9 -14 7 -10 6 -12 3 -11 0 
-10 -3 -5 -7 -11 -10 -13 -14 -14 -16 -8 -20 -14 -21 -9 -22 
-11 -23 -4 -22 -35 -21 5 -17 -5 -15 -17 -12 -15 -10 -8 -6 
-15 -4 -11 -3 -14 -1 -13 -1 -8 0 -10 0 -25 1 -4 1 
-16 2 -22 3 -2 4 4109 2451 100 MP stroke
-18 5 -13 7 -24 8 -9 9 -9 9 -17 8 -12 7 -17 6 
-14 3 -20 2 -14 -1 -17 -3 -15 -4 -16 -3 -14 -5 -17 -4 
-13 -3 -18 -3 -13 0 -15 0 -14 -1 -14 0 -11 -1 -13 -1 
-11 0 -14 0 -11 0 -14 3 -11 3 -13 5 -11 5 -13 7 
-11 6 -8 8 -10 6 -10 6 -8 5 -10 4 -8 3 -9 3 
-11 2 -6 2 -8 2 -11 2 -1 2 -7 2 -5 1 -8 1 
-4 1 -7 0 -5 -1 -7 -1 -3 -2 -3 -3 -4 -4 -1 -4 
-1 -4 -1 -3 1 -3 0 -1 3 1 1 2 4 5 5 7 
2 10 2 12 5 12 3 14 7 14 5 14 9 15 8 13 
8 13 7 12 8 11 6 9 8 9 8 7 10 7 6 5 
9 3 5 3 8 3 4 1 7 1 4 0 7 0 5 0 
4 0 4 -1 4 0 4 0 -1 0 3 1 1 0 2 1 
-1 0 1 1 0 1 4545 2157 100 MP stroke
1 1 -2 1 1 1 -4 2 0 2 -3 2 -1 3 -2 2 
0 3 -2 2 -1 1 -2 2 -2 0 1 -2 0 -1 1 -3 
0 -3 3 -3 1 -4 3 -4 1 -4 3 -3 2 -2 4 -3 
2 -3 6 -3 4 -2 6 -3 5 -2 8 -3 5 -1 8 -2 
7 -2 7 0 7 -1 7 1 7 1 8 2 7 2 8 3 
8 2 9 3 16 2 3 1 8 1 10 0 10 -2 10 -2 
8 -3 8 -3 11 -4 14 -4 5 -4 16 -3 -3 -2 20 -2 
2 0 15 1 1 1 8 2 13 2 12 2 1 2 22 1 
11 -1 8 -2 16 -5 6 -6 21 -8 5 -10 9 -11 11 -12 
12 -13 10 -13 13 -13 10 -12 15 -10 10 -10 16 -7 10 -5 
16 -2 7 0 25 2 10 4 9 5 15 6 14 8 11 7 
23 8 19 7 4 6 22 6 12 6 18 4 15 4 19 3 
16 2 19 2 16 1 3741 2248 100 MP stroke
19 0 16 0 24 0 28 -1 3 0 23 -1 15 -2 21 -2 
17 -2 21 -3 16 -3 20 -4 16 -4 20 -4 17 -6 20 -5 
18 -5 20 -5 18 -5 21 -6 18 -5 23 -5 19 -5 21 -5 
19 -5 21 -4 20 -4 23 -4 19 -3 23 -2 19 -2 23 -2 
20 0 21 -1 20 -1 22 -1 20 0 23 -1 37 -2 6 -1 
21 -2 24 -2 23 -3 24 -2 23 -3 24 -2 23 -1 24 -1 
22 -1 25 0 22 1 24 1 23 0 24 1 22 1 24 -1 
23 -1 25 -1 19 -3 25 -4 22 -4 26 -6 20 -6 25 -7 
21 -8 26 -7 18 -7 26 -6 19 -6 26 -6 19 -4 28 -5 
16 -4 27 -3 13 -4 34 -3 27 -5 18 -6 21 -6 21 -8 
19 -9 9 -11 27 -12 10 -14 23 -15 13 -17 19 -17 18 -19 
19 -18 12 -20 12 -19 9 -18 10 -18 11 -17 19 -17 7 -17 
3 -16 10 -15 9 -17 1775 2799 100 MP stroke
7 -17 7 -15 6 -17 7 -16 -2 -16 7 -12 2 -12 5 -15 
-1 -9 5 -15 1 -8 1 -11 -1 -12 2 -15 1 -10 6 -12 
-3 -17 -3 -9 0 -12 -1 -14 0 -13 -3 -16 0 -13 -6 -15 
-3 -10 1 -18 0 -5 -3 -4 -4 -13 0 6 -1 4 0 -6 
-3 13 -1 9 1 -7 -1 41 2 20 3 21 1 23 4 25 
7 25 3 24 11 13 1 25 1 11 9 11 4 -1 25 2 
6 -7 0 -9 29 -22 -6 -11 9 -20 7 -25 37 -20 13 -18 
-5 -7 4 -11 5 -2 18 16 18 11 -8 24 24 30 3 34 
2 33 12 30 3 29 6 23 22 18 13 9 -6 15 5 0 
16 -5 -1 -14 7 -17 12 -20 -6 -44 16 -7 -2 -42 6 -8 
19 -122 -2 69 1 2 -1 1 0 -3 1 -10 -1 -14 2 -5 
4 30 -1 -1 1 21 0 73 -1 13 0 6 -3 10 -2 5 
1 2 -4 0 0 1 1408 2870 100 MP stroke
-2 2 -3 3 -4 6 -4 12 -4 14 -13 15 -1 23 -3 22 
-17 18 7 24 -15 18 -5 16 0 14 -10 10 -4 6 -7 2 
-5 0 -5 -3 -9 -5 -7 -7 3 -7 -7 -8 -4 -7 -9 -4 
2 -3 -8 3 -6 7 -5 11 -5 14 -6 17 -3 17 -5 19 
-5 17 -13 16 -2 14 -11 10 1 6 -16 3 -8 -1 -9 -4 
-8 -8 -4 -11 -15 -13 -3 -15 -23 -19 7 -16 -16 -17 -12 -17 
5 -18 -16 -14 2 -16 -14 -12 -7 -11 -10 -9 -5 -9 -22 -6 
-11 -8 5 -4 -3 -4 -15 -4 -25 -7 10 7 -28 0 -10 5 
5 -1 -18 8 -15 10 -10 8 -13 14 -16 13 -18 13 9 16 
-31 17 9 23 -14 21 -6 23 -11 22 -4 21 -13 19 -4 18 
-23 14 6 12 -11 9 -7 4 -10 2 -6 -3 -9 -6 -6 -10 
-9 -13 -8 -16 -18 -21 9 -17 -22 -23 0 -20 -4 -21 -7 -20 
-6 -17 -6 -14 -7 -12 2147 2713 100 MP stroke
-5 -8 -4 -2 -6 1 -9 3 -9 7 -3 10 -5 12 -20 14 
-10 13 5 15 -4 15 -3 14 -12 14 -9 13 3 13 -9 12 
-2 13 -13 12 2 13 -6 13 -12 13 4 13 -10 12 -2 13 
-9 11 -4 11 -10 10 0 8 -9 6 -6 4 -8 1 -7 -1 
-12 -5 -1 -4 -10 -8 -4 -10 -9 -10 -4 -11 -14 -10 0 -10 
-8 -8 -9 -6 -1 -3 -9 -1 -6 2 -7 4 -6 5 -8 7 
-7 7 -7 9 -7 7 -7 7 -7 6 -8 5 -6 5 -10 3 
-8 3 -2 3 -7 2 -4 2 -10 1 0 2 -5 2 -3 2 
-4 1 -4 2 -6 2 -4 1 -6 1 -6 1 -6 -1 -8 -1 
-8 -3 -7 -3 -7 -3 -7 -4 -8 -4 -9 -4 -10 -2 -11 -2 
-10 1 -11 3 -13 6 -13 9 -12 13 -14 15 -12 18 -13 21 
-15 22 -13 23 -14 24 -15 23 -16 23 -15 22 -17 20 -13 18 
-15 16 -18 15 -14 13 2919 2131 100 MP stroke
-17 11 -17 9 -17 7 -19 7 -19 5 -19 4 -18 3 -19 3 
-20 2 -23 2 -22 1 -23 2 -23 1 -24 1 -25 1 -23 1 
-23 1 -24 1 -22 1 -23 2 -29 2 -25 3 -25 3 -27 4 
-27 5 -26 6 -25 7 -29 9 -26 9 -27 11 -26 12 -27 12 
-27 13 -27 14 -24 13 -26 14 -26 14 -26 13 -25 12 -25 12 
-25 11 -22 10 -22 9 -23 9 -20 7 -21 7 -20 6 -20 5 
-17 4 -21 5 -19 4 -18 3 -18 4 -15 4 -16 3 -17 4 
-19 4 -16 4 -16 3 -15 4 -15 3 -15 4 -14 3 -18 2 
-16 2 -13 2 -14 1 -13 1 -13 1 -12 0 -12 -1 -8 -1 
-12 -1 -19 -1 -10 -1 -11 -1 -6 -1 -6 -1 -10 -1 -7 0 
-8 1 -9 1 -5 1 -6 2 -8 1 -6 2 -8 1 -6 2 
-7 1 -6 0 -9 1 -5 0 -9 1 -5 0 -8 0 -5 1 
-10 0 -1 1 -8 1 4617 1741 100 MP stroke
-7 1 -5 2 -6 1 -4 2 -4 1 -3 1 -3 1 -1 0 
-3 1 -3 -1 0 -1 -2 -1 1 -2 -1 -2 3 -3 2 -3 
-6 -3 0 -3 3 -3 1 -4 -3 -3 0 -2 -1 -3 -2 -3 
-1 -2 -1 -2 4 -2 -2 -2 1 -2 -4 -2 0 -2 1 -1 
1 -2 1 -1 -1 -2 -1 0 1 0 -2 -2 -3 0 -5 0 
2 1 1 1 -2 1 1 0 -3 0 1 0 -3 -1 2 -1 
0 -3 -2 -2 -3 -4 0 -4 -2 -5 -1 -5 -2 -6 -1 -6 
-5 -6 -3 -5 -7 -6 -2 -6 -10 -6 -5 -5 -8 -5 -8 -5 
-8 -4 -5 -4 -7 -4 -15 -3 -1 -2 -9 -1 -13 -1 -7 0 
-3 1 -11 1 -6 3 -12 2 -3 4 -10 3 0 4 -10 3 
-4 3 -13 3 1 2 -7 1 -7 1 0 1 -9 0 -4 1 
-2 0 -6 0 -4 1 -2 1 -4 2 -4 2 -7 2 -3 2 
-4 2 -6 2 0 2 4937 1838 100 MP stroke
-5 2 -3 1 -4 1 -3 0 -7 0 -1 -1 -5 -1 0 -1 
-4 -2 0 -2 -5 -2 -1 -2 -1 -2 -1 -3 -1 -1 -1 -2 
0 -2 1 -1 1 0 1 1 0 1 1 2 1 1 4 2 
2 2 3 2 1 2 1 1 2 2 1 2 1 1 2 2 
0 2 2 2 0 2 1 3 1 2 1 4 0 7 1 4 
1 4 2 4 2 4 1 3 5 3 3 3 4 2 3 1 
6 2 4 0 10 0 3 0 3 0 9 -1 11 0 1 -1 
9 -1 5 -2 6 -1 8 -1 7 -1 8 -2 8 -1 6 -1 
6 -1 7 -1 5 -1 6 -1 8 -1 6 -1 5 0 4 -1 
3 0 5 0 1 -1 1 0 -5 0 -2 -1 -4 -1 -1 0 
-5 -1 -4 -1 -4 -1 -5 -1 -10 -1 -1 -1 -8 -2 -6 -1 
-7 -1 -7 -1 -8 0 -7 -1 -8 0 -10 0 -8 0 -9 0 
-7 1 -9 1 -9 1 4913 1814 100 MP stroke
-10 2 -9 2 -15 3 -10 3 -3 3 -15 3 -6 4 -14 4 
-25 3 2 4 -5 2 -12 3 -9 2 -11 2 -10 1 -10 1 
-9 0 -10 0 -8 1 -9 0 -8 0 -9 1 -9 1 -8 1 
-6 2 -8 3 -5 3 -7 4 -5 5 -7 5 -4 6 -6 6 
-6 7 -5 6 -4 7 -7 6 -6 5 -7 5 -6 3 -6 3 
-5 1 -7 0 -9 0 -9 -2 -8 -3 -9 -3 -8 -4 -8 -3 
-10 -3 -11 -4 -10 -2 -10 -2 -10 -1 -11 0 -10 0 -13 1 
-12 1 -13 1 -12 2 -14 0 -13 1 -16 0 -13 -1 -15 -2 
-12 -3 -17 -3 -12 -4 -21 -4 -19 -5 -2 -4 -19 -4 -13 -4 
-18 -2 -14 -2 -15 -1 -12 0 -18 1 -13 3 -17 3 -25 4 
-9 5 -7 5 -27 5 -14 5 -15 5 -12 5 -16 4 -9 3 
-18 3 -1 3 -28 1 -29 1 9 0 -6 0 -11 -1 -11 -1 
-8 -2 -10 -2 -6 -2 5971 1703 100 MP stroke
-8 -2 -4 -2 -9 -3 -3 -3 -15 -4 3 -4 -7 -5 -4 -6 
-6 -7 -6 -7 0 -9 -9 -9 -6 -10 0 -10 -6 -10 -2 -10 
-3 -8 -2 -8 -1 -6 -1 -4 -3 -3 1 1 -3 2 0 5 
-1 7 0 9 -1 10 2 12 2 13 2 12 2 13 2 12 
4 11 3 10 4 8 4 7 6 5 6 3 5 1 8 -1 
4 -2 11 -4 12 -5 1 -5 10 -6 8 -6 8 -6 8 -6 
9 -5 8 -5 9 -4 9 -5 9 -5 9 -5 11 -6 10 -8 
12 -9 11 -12 12 -12 12 -15 12 -17 14 -18 14 -19 14 -18 
15 -17 13 -16 15 -12 15 -9 13 -5 16 0 18 4 17 6 
18 12 16 15 19 16 19 18 19 14 20 15 20 20 21 13 
22 10 21 6 22 4 22 0 22 -4 22 -8 20 -12 21 -16 
21 -18 22 -19 21 -21 24 -23 21 -20 21 -18 18 -16 20 -13 
20 -9 19 -7 20 -5 5107 2011 100 MP stroke
18 -3 22 -2 18 -2 20 -2 21 -3 16 -3 18 -4 19 -6 
16 -6 20 -6 18 -8 19 -8 18 -7 19 -8 18 -7 19 -7 
17 -5 15 -4 20 -3 20 -2 18 -1 18 1 17 1 18 2 
15 2 16 1 17 1 15 1 15 0 15 -1 15 -2 12 -3 
14 -3 13 -3 12 -4 12 -3 12 -2 10 -2 11 -1 11 0 
11 1 11 2 10 1 9 1 10 2 8 1 10 -1 9 -1 
7 -2 7 -3 8 -4 6 -6 7 -6 6 -8 6 -8 6 -9 
6 -9 7 -10 7 -10 6 -11 6 -8 5 -9 5 -8 6 -6 
6 -7 4 -4 9 -5 4 -4 6 -5 5 -6 6 -5 6 -6 
6 -6 5 -7 6 -6 6 -6 4 -6 6 -7 8 -7 7 -7 
8 -8 8 -8 10 -11 8 -11 8 -8 8 -8 9 -9 8 -6 
8 -10 10 -7 10 -10 8 -10 8 -9 10 -13 6 -13 8 -15 
10 -13 8 -11 9 -8 4015 2516 100 MP stroke
8 0 8 6 7 12 5 14 5 16 7 18 6 17 5 15 
6 15 4 11 3 11 2 8 5 5 2 4 3 -1 4 5 
5 4 3 0 2 -6 4 -3 2 -13 6 -16 7 -14 6 -20 
4 -27 3 -34 6 -43 4 -40 5 -28 4 -43 4 -34 4 -31 
4 -19 2 -14 4 -7 3 -11 2 10 1 2 3 19 4 8 
0 11 4 6 3 -4 2 -15 3 31 2 5 3 4 2 4 
1 -1 1 5 1 -14 5 -14 1 -13 1 6 1 -5 0 -20 
-5 0 2 34 -2 12 1 9 -1 32 -4 27 -1 20 -2 15 
-2 26 -1 18 -2 16 -5 12 -4 -9 -3 10 -7 5 -3 -3 
-6 -3 -1 -13 -10 -11 -9 -10 -4 -5 -6 6 -7 6 -4 14 
-7 -2 -14 38 -6 28 -8 26 -7 24 -8 30 -8 27 -10 25 
-8 22 -9 18 -7 14 -9 10 -9 3 -11 -1 -12 -7 -9 -15 
-10 -20 -9 -29 -8 -34 4068 2369 100 MP stroke
-10 -44 -8 -48 -11 -48 -13 -50 -9 -51 -10 -42 -9 -10 -11 -2 
-8 18 -10 26 -14 55 -10 43 -9 55 -11 51 -10 43 -13 47 
-9 42 -14 38 -17 24 -14 9 -15 7 -10 6 -17 -3 -12 -13 
-7 -26 -21 -34 -20 -29 -18 -43 -19 -40 -10 -39 -19 -35 -14 -32 
-24 -24 -23 1 -15 8 -19 9 -20 20 -22 23 -26 27 -21 19 
-30 14 -16 11 -26 2 -19 -3 -24 -18 -34 -14 -29 -34 -21 -36 
-18 -46 -29 -53 -32 -47 -32 -53 -22 -91 -21 -9 -32 8 -27 75 
-33 80 -27 51 -31 21 -21 -101 -25 91 -31 74 -29 6 -24 -21 
-30 -34 -22 -33 -27 -72 -30 -43 -22 -49 -20 -35 -31 -51 -23 -56 
-19 -10 -27 -25 -27 -18 -21 -9 -19 -4 -24 0 -23 5 -24 7 
-20 10 -20 15 -17 13 -18 17 -19 17 -18 19 -18 19 -13 19 
-19 26 -10 25 -13 25 -15 27 -16 27 -10 27 -12 27 -13 26 
-14 25 -10 23 -10 21 5947 2523 100 MP stroke
-8 18 -6 15 -7 12 -8 8 -3 6 -1 2 -5 -3 -5 -3 
-1 -5 -10 -7 -5 -8 0 -7 3 -12 -1 -5 1 -5 2 -4 
5 1 3 1 4 7 5 5 5 5 6 7 -1 10 3 7 
11 3 2 1 17 -1 -4 -3 12 -3 14 -6 -6 -6 27 -3 
8 -4 -6 -2 11 -2 20 4 -3 4 4 6 20 7 5 8 
30 7 -2 6 9 7 13 4 10 3 12 0 2 -3 19 -3 
4 -5 22 -7 12 -8 6 -9 13 -10 15 -10 11 -10 12 -12 
10 -12 13 -11 11 -12 10 -12 12 -13 14 -14 9 -15 13 -16 
6 -15 21 -17 6 -17 13 -19 7 -19 8 -15 12 -16 11 -13 
13 -7 12 -5 15 7 12 10 11 7 10 11 10 16 10 8 
7 6 10 1 10 -5 2 -13 4 -11 20 -16 11 -20 0 -26 
8 -8 4 -14 5 -8 4 3 6 7 4 7 1 9 4 5 
4 -3 2 -1 3 -12 5273 2813 100 MP stroke
5 -15 1 -23 11 -27 2 -32 6 -34 3 -37 4 -38 5 -31 
6 -29 4 -15 6 2 6 12 8 35 7 31 8 38 7 27 
8 15 10 17 12 -9 12 -5 14 -11 19 -21 13 -16 16 -11 
17 -5 17 14 14 16 16 12 17 13 15 -5 18 -2 23 -26 
16 -35 22 -55 20 -68 22 -92 17 -108 20 -107 19 -94 19 -35 
20 18 18 35 18 56 20 64 18 66 19 59 20 56 19 56 
18 58 18 57 20 60 18 64 19 67 20 66 14 66 23 63 
24 60 17 56 18 50 19 44 22 37 14 32 14 24 20 16 
17 11 20 3 15 -4 19 -11 26 -16 12 -21 15 -28 22 -31 
23 -36 15 -36 14 -38 18 -36 12 -33 15 -28 14 -25 20 -18 
19 -10 14 -6 19 1 22 5 16 9 18 11 9 12 21 12 
13 11 17 10 18 7 19 5 18 3 18 0 18 -1 27 -4 
19 -3 21 -6 18 -4 3717 2632 100 MP stroke
27 -2 18 1 23 1 13 6 32 6 34 6 5 15 31 23 
22 18 25 17 24 27 24 22 21 20 21 16 28 13 35 16 
24 11 27 5 18 4 20 0 15 -3 34 -3 21 -3 22 -7 
24 -3 24 -1 20 -1 21 2 19 2 19 3 24 2 21 0 
19 1 16 -1 15 -3 17 -3 18 -6 15 -7 19 -9 17 -7 
10 -9 15 -8 12 -6 10 -6 10 -5 16 -4 10 -2 8 0 
11 1 9 2 11 3 8 5 8 6 12 6 10 7 9 5 
8 6 6 4 9 3 5 1 11 1 9 0 7 -1 5 -2 
5 -1 6 0 9 1 6 1 11 3 4 4 7 5 6 5 
7 4 4 4 7 1 8 1 5 -3 6 -5 7 -7 4 -10 
3 -13 4 -14 4 -16 5 -16 6 -16 4 -15 7 -13 6 -10 
2 -6 4 -3 4 1 4 6 3 11 5 13 4 16 5 16 
7 16 3 15 3 14 2431 2458 100 MP stroke
4 10 4 8 3 5 7 4 8 1 5 -1 3 -1 2 -2 
4 -1 3 0 3 2 3 4 1 5 4 7 1 9 3 10 
-1 11 2 11 1 10 2 10 2 10 2 8 1 7 1 6 
0 7 5 1 0 -2 3 -3 1 -6 2 -8 1 -10 0 -12 
-1 -13 4 -14 0 -11 4 -12 0 -10 1 -9 1 -4 1 -3 
1 2 0 5 1 5 1 7 0 8 1 10 2 11 -4 11 
0 11 -1 11 0 10 -2 10 -3 9 -1 8 -4 7 -1 6 
-4 5 -1 5 -5 4 -2 4 -5 4 -4 4 -6 5 -5 5 
-7 7 -7 7 -7 7 -6 7 -5 7 -5 5 -8 4 -8 3 
-6 1 -6 -1 -5 -2 -7 -2 -5 -2 -5 -1 -8 2 -7 3 
-6 4 -6 1 -7 -3 -6 -9 -7 -13 -7 -55 -6 50 -6 -2 
-8 5 -4 7 -12 8 -11 10 -7 12 -9 12 -9 16 -10 14 
-8 13 -10 13 -12 11 2636 2128 100 MP stroke
-12 11 -12 9 -14 7 -15 7 -13 4 -14 4 -14 2 -16 1 
-14 0 -15 -1 -14 -1 -12 -2 -14 -1 -15 -1 -17 0 -16 0 
-16 0 -15 2 -17 2 -16 2 -16 4 -17 4 -18 4 -18 4 
-19 5 -18 4 -17 4 -16 3 -18 3 -19 3 -18 3 -17 3 
-19 3 -17 3 -18 4 -19 5 -18 5 -17 6 -18 6 -18 7 
-16 6 -19 8 -19 7 -17 7 -18 7 -18 7 -18 7 -18 7 
-18 7 -17 8 -17 7 -17 7 -19 8 -20 7 -18 8 -18 8 
-18 7 -17 8 -16 7 -20 8 -20 7 -19 7 -18 8 -19 7 
-18 7 -21 8 -15 7 -21 7 -22 6 -20 6 -20 6 -20 5 
-20 4 -19 4 -21 3 -20 3 -19 2 -19 1 -20 2 -17 1 
-19 0 -17 1 -17 1 -19 1 -18 2 -17 2 -16 2 -18 4 
-16 4 -18 4 -17 5 -16 5 -16 5 -17 6 -16 5 -18 5 
-16 5 -18 5 -16 4 4353 1687 100 MP stroke
-18 4 -17 3 -17 3 -16 3 -16 2 -16 1 -16 2 -17 1 
-15 1 -15 0 -14 0 -15 -1 -16 0 -16 -2 -13 -2 -13 -3 
-14 -3 -13 -4 -14 -5 -15 -4 -15 -5 -14 -4 -14 -4 -12 -4 
-15 -3 -12 -2 -14 -1 -12 1 -13 1 -11 2 -10 3 -11 4 
-11 4 -11 5 -10 4 -11 5 -9 5 -8 5 -9 5 -4 4 
-6 4 -5 4 -6 3 -5 3 -5 3 -4 2 -3 2 -2 2 
-2 1 -1 1 -1 1 1 0 3 -1 1 -1 3 -2 3 -2 
3 -3 3 -4 5 -4 3 -4 4 -5 5 -5 6 -6 5 -5 
5 -5 6 -5 8 -3 7 -2 7 -1 7 1 8 2 7 4 
8 5 5 7 8 7 5 8 9 7 7 7 8 6 6 6 
10 4 3 2 14 2 1 0 7 -1 10 -2 5 -3 8 -3 
7 -3 8 -4 7 -4 7 -4 7 -4 6 -4 10 -3 0 -4 
10 -4 3 -3 4 -4 4642 1680 100 MP stroke
3 -4 6 -4 0 -9 4 -4 2 -4 1 -4 2 -4 0 -3 
-1 -3 0 -4 -1 -1 -2 0 -1 0 0 2 -2 2 -1 4 
-1 3 -1 4 -2 4 0 4 -3 4 0 4 -4 3 -1 2 
-2 2 -1 2 -5 0 -3 1 -5 -1 0 -1 -1 -1 -5 -1 
-3 -2 -2 -1 -8 -2 1 -1 -5 0 -1 0 -4 0 -3 1 
-1 2 -3 2 -2 2 -2 2 -1 2 -1 2 -5 2 -4 1 
-1 1 -2 1 -3 1 -1 0 -3 0 1 1 -2 0 -3 0 
-1 1 1 0 1 0 1 -1 2 -1 9 -2 2 -2 -2 -2 
6 -3 2 -4 14 -3 8 -4 -3 -4 1 -4 2 -4 13 -4 
-7 -4 21 -4 10 -3 -4 -3 3 -3 -4 -2 10 -1 15 0 
-4 1 2 2 -1 2 1 4 4 5 11 5 -4 5 8 6 
4 5 -1 5 1 4 3 4 2 2 3 2 2 2 4 0 
-2 0 1 0 -1 0 4591 1676 100 MP stroke
10 -2 -2 0 2 0 0 -1 14 0 3 1 -1 1 2 1 
2 -1 2 -1 3 -3 -2 -3 3 -5 1 -6 4 -8 1 -9 
1 -9 1 -11 1 -11 -1 -11 -1 -10 -6 -9 -4 -8 -1 -5 
-4 -4 -3 0 -4 2 -3 5 -5 7 -4 9 -4 11 -5 11 
-3 12 -4 12 -4 12 -4 10 -2 9 -2 7 -3 6 -1 3 
-1 3 -3 0 -2 -2 -5 -2 -3 -3 1 -3 -1 -3 -4 -2 
-4 -3 -2 -2 -3 -1 -3 -1 -2 -1 -1 -1 -1 -1 -1 -1 
-1 -2 -2 -3 0 -3 3 -4 3 -6 2 -6 5 -7 3 -7 
5 -8 6 -8 6 -7 7 -7 8 -6 9 -4 10 -4 9 -1 
12 0 10 1 13 3 13 4 15 5 16 5 17 6 17 6 
16 5 18 5 20 4 21 4 20 2 20 1 19 -1 20 -1 
23 -2 22 -4 22 -4 20 -5 22 -5 19 -5 23 -6 23 -6 
21 -7 23 -6 24 -6 4067 1787 100 MP stroke
22 -7 24 -7 21 -8 21 -9 24 -10 21 -12 21 -14 23 -16 
21 -19 22 -22 22 -24 20 -27 24 -30 19 -33 23 -34 22 -35 
23 -35 19 -35 24 -36 23 -30 23 -26 24 -24 22 -15 21 -8 
23 -3 22 0 20 8 19 13 20 7 20 13 20 13 18 11 
16 1 17 3 18 4 16 -10 18 -7 15 -14 18 -13 16 -22 
14 -11 17 -16 17 -12 18 -13 18 -3 16 0 17 2 18 6 
18 6 16 6 17 5 18 5 16 3 18 3 18 2 17 0 
17 -1 18 0 18 -2 18 -2 16 -2 17 -2 17 -2 16 -1 
19 0 15 2 16 4 15 6 14 7 13 7 14 8 13 8 
13 6 13 5 12 2 12 0 11 -4 11 -8 10 -12 8 -16 
9 -21 9 -25 8 -29 7 -34 7 -36 8 -40 6 -44 6 -46 
6 -48 4 -51 5 -52 4 -57 8 -54 7 -57 5 -55 7 -50 
6 -38 6 -7 6 10 2499 3047 100 MP stroke
5 20 4 49 4 49 3 46 2 35 1 26 2 27 2 17 
2 27 5 19 2 28 4 44 4 46 5 35 4 52 8 41 
6 45 10 35 11 30 13 24 14 19 15 14 16 9 16 5 
15 1 14 -3 16 -7 15 -11 16 -14 13 -19 15 -22 13 -26 
10 -30 12 -31 12 -37 11 -45 10 -46 9 -30 10 -52 6 -45 
6 -67 5 -72 5 -50 6 -70 3 -86 3 -124 2 -154 2 43 
0 -23 2 -20 0 50 1 57 -1 91 -2 88 1 87 -2 75 
-2 92 0 143 -1 61 -5 66 -2 54 -4 48 -2 36 -3 33 
-5 27 -3 21 -5 14 -9 7 -6 1 -5 -6 -4 -12 -9 -17 
-6 -23 -5 -28 -9 -38 -11 -37 -7 -38 -6 -41 -9 -39 -8 -37 
-10 -27 -9 -22 -8 -7 -11 1 -10 10 -7 17 -7 24 -6 25 
-8 25 -8 25 -8 22 -6 19 -10 15 -10 11 -5 8 -7 5 
-7 3 -7 1 -7 1 2390 2454 100 MP stroke
-6 1 -5 2 -4 6 -6 9 -4 12 -6 16 -5 19 -3 22 
-7 24 -5 25 -5 25 -4 25 -6 22 -4 19 -5 16 -5 13 
-8 9 -6 5 -6 1 -6 -2 -3 -5 -5 -8 -7 -10 -7 -11 
-6 -11 -2 -12 -5 -10 -3 -9 -5 -8 -9 -6 -4 -3 -7 -2 
-5 1 -3 1 -8 4 -7 4 -8 4 -8 5 -7 4 -6 5 
-8 4 -9 3 -11 2 -6 3 -9 2 -8 2 -8 2 -11 3 
-9 4 -11 6 -12 6 -12 8 -13 10 -13 10 -12 10 -15 11 
-13 10 -10 10 -12 9 -13 9 -14 6 -17 6 -13 4 -14 2 
-13 2 -13 -1 -15 -1 -15 -3 -16 -4 -15 -4 -15 -5 -17 -4 
-14 -5 -13 -4 -13 -3 -14 -2 -12 -1 -12 0 -14 1 -14 2 
-14 2 -13 2 -12 1 -12 1 -12 0 -14 -1 -15 -2 -16 -4 
-16 -4 -15 -5 -19 -6 -16 -6 -14 -6 -16 -6 -16 -5 -16 -4 
-18 -2 -18 -1 -18 0 3399 2188 100 MP stroke
-18 2 -18 4 -16 6 -19 6 -18 7 -18 7 -20 6 -18 6 
-21 5 -20 3 -19 2 -18 -1 -20 -2 -19 -5 -20 -6 -21 -8 
-21 -9 -20 -9 -22 -10 -18 -9 -19 -8 -19 -6 -20 -4 -20 -2 
-21 1 -21 4 -19 5 -21 6 -20 7 -18 8 -20 8 -19 6 
-19 6 -19 5 -19 3 -19 1 -17 0 -17 -1 -17 -4 -15 -5 
-15 -6 -16 -7 -17 -8 -18 -9 -17 -9 -17 -9 -17 -8 -16 -7 
-16 -5 -17 -3 -15 -2 -16 0 -16 3 -19 4 -16 5 -17 6 
-15 7 -15 6 -15 7 -13 6 -15 5 -15 5 -14 5 -15 4 
-16 4 -14 4 -16 4 -16 4 -13 5 -17 5 -12 5 -14 5 
-12 5 -14 4 -13 3 -12 3 -14 1 -8 0 -10 -2 -9 -3 
-10 -5 -9 -6 -10 -7 -9 -8 -8 -8 -9 -8 -9 -8 -9 -6 
-7 -4 -9 -3 -9 -2 -1 1 -6 3 -5 4 -4 5 -7 6 
-2 7 -1 8 -3 7 4881 2150 100 MP stroke
-2 8 -1 8 -5 7 0 8 -4 6 -1 7 -4 6 -1 6 
-6 5 -6 5 3 5 -10 4 -4 4 3 4 -4 3 -3 4 
-5 3 -3 4 -8 4 -4 4 -14 3 -2 4 1 3 -3 3 
-20 2 -12 1 4 1 -3 -1 -7 -1 -20 -3 6 -3 -13 -5 
-9 -5 2 -6 -11 -7 -4 -7 -10 -9 0 -8 -15 -10 -9 -9 
-10 -10 -10 -10 -7 -10 -10 -10 -6 -10 -11 -9 -5 -9 -11 -8 
-5 -7 -6 -7 -12 -5 -4 -5 -9 -4 -6 -3 -8 -2 -5 -2 
-7 0 -1 -2 -11 0 -8 0 -1 -1 -11 0 -5 1 -8 1 
-5 2 -5 3 -5 4 -6 5 0 5 -4 7 -4 6 -5 7 
-6 7 -2 8 -6 8 0 8 -6 8 -3 8 -4 8 -4 8 
-6 7 -2 7 -6 6 1 6 -9 5 -3 5 -2 4 -2 3 
-2 4 2 3 0 2 -2 2 -3 2 -1 1 -3 0 -1 -2 
-4 -1 -3 -3 -2 -4 5375 2065 100 MP stroke
-4 -5 -2 -6 -3 -6 -2 -6 -4 -6 -3 -7 0 -5 -6 -4 
-3 -3 -6 -3 -1 -1 -9 0 -7 0 -5 1 -4 1 -8 1 
-4 2 -7 3 -11 3 1 3 -9 4 0 3 -8 4 -1 3 
-8 3 1 3 -9 2 -5 1 -5 2 -5 1 -6 1 -7 2 
-8 1 -6 1 -7 1 -7 -1 -7 -1 -7 -4 -7 -6 -8 -9 
-7 -12 -17 -15 5 -17 -11 -21 -6 -24 -10 -26 -5 -27 -5 -28 
-10 -27 -6 -25 -10 -20 -6 -16 -9 -9 -10 -4 -8 2 -25 7 
3 10 -1 13 1 15 -7 15 -2 16 -4 16 -2 15 -1 15 
-1 13 0 12 -1 10 2 9 2 6 3 4 3 3 4 0 
2 -1 5 -3 2 -4 8 -3 1 -4 6 -2 6 -2 5 0 
7 2 2 2 18 4 -2 4 13 3 11 3 2 3 11 1 
9 0 10 0 10 1 10 1 10 1 11 2 11 2 14 4 
15 3 14 3 14 3 5498 2159 100 MP stroke
14 3 14 0 15 0 16 -3 16 -5 17 -8 17 -8 17 -8 
17 -6 16 -8 17 -9 16 -4 17 1 17 11 16 17 19 24 
18 27 18 35 16 39 18 37 18 33 17 32 19 26 16 21 
14 15 20 8 16 2 20 -2 17 -7 17 -13 18 -15 15 -21 
14 -20 14 -22 15 -23 16 -16 16 -19 15 -14 14 -13 14 -10 
14 -8 15 -6 14 -4 16 -3 16 -4 17 2 14 1 13 0 
15 -1 15 10 15 7 16 9 16 14 13 16 16 16 14 17 
15 18 17 16 17 16 18 14 16 11 16 9 17 4 17 2 
19 -1 18 -6 18 -7 16 -9 19 -12 17 -18 19 -10 18 -17 
18 -18 18 -18 19 -17 18 -19 19 -14 16 -14 20 -7 20 -5 
18 -10 17 6 19 0 20 9 17 5 17 8 17 6 17 9 
18 7 17 4 16 5 16 1 17 1 16 -4 15 -9 14 -10 
15 -8 15 -12 14 -20 3863 2130 100 MP stroke
14 -12 13 -14 14 -16 11 -17 10 -16 14 -15 11 -15 8 -20 
10 -20 9 -34 7 -22 6 -21 7 -35 7 -38 4 -25 5 -32 
5 -28 5 -24 1 -15 1 4 4 -2 5 47 0 33 -2 30 
3 30 5 72 1 46 0 41 -1 40 1 34 0 52 -2 16 
-2 9 1 2 -1 -5 0 -25 1 -16 3 -23 -1 -23 0 -40 
2 -17 2 -10 0 -8 -2 -3 1 -4 1 0 0 -8 1 -7 
0 -30 -1 -19 -2 -27 2 -27 1 -30 -1 -35 0 -78 2 -43 
1 10 0 2 1 17 2 28 -1 38 3 51 0 45 3 45 
1 47 0 73 2 25 2 21 0 11 -2 3 -1 -7 2 -16 
-1 -12 1 -28 0 -35 -1 -44 1 -38 0 -42 1 -43 3 -42 
2 -32 2 -20 4 5 4 21 3 37 2 40 3 38 3 31 
2 41 4 30 2 23 1 18 2 9 3 2 0 1 0 -27 
-1 -13 1 -14 -1 -9 3627 2283 100 MP stroke
0 -9 -1 1 0 28 -2 15 -2 14 -1 12 -4 9 -3 4 
-3 -4 -4 -11 -3 -16 -3 -23 -4 -35 -4 -40 -4 -44 -3 -43 
-3 -44 -3 -54 -4 -60 -3 -59 -2 -13 -5 -13 -4 17 -6 31 
-3 30 -5 72 -5 104 -5 90 -3 81 -5 71 -4 66 -6 57 
-4 50 -3 43 -2 36 -4 30 -5 24 -4 20 -6 15 -4 11 
-6 9 -7 5 -5 4 -6 1 -6 1 -7 -1 -7 -1 -6 -2 
-7 -1 -7 -2 -6 -1 -8 -1 -6 0 -5 0 -5 1 -5 1 
-6 1 -6 2 -6 2 -5 2 -6 2 -4 2 -6 3 -6 2 
-7 2 -8 2 -6 3 -6 2 -6 3 -6 2 -6 3 -8 2 
-7 3 -7 3 -7 2 -9 3 -8 2 -11 3 -10 2 -11 3 
-11 2 -11 2 -11 3 -11 2 -15 2 -14 2 -15 1 -15 2 
-15 1 -15 1 -16 0 -15 0 -16 0 -16 0 -17 0 -16 0 
-15 0 -16 0 -15 0 4308 1733 100 MP stroke
-15 1 -16 1 -17 0 -16 1 -18 1 -16 1 -16 1 -15 1 
-17 0 -15 1 -17 0 -14 0 -19 0 -17 -1 -18 -1 -15 -1 
-17 -3 -19 -2 -16 -3 -16 -4 -17 -4 -15 -5 -17 -4 -16 -5 
-17 -5 -14 -5 -18 -5 -14 -3 -18 -3 -13 -1 -30 -1 -16 1 
-6 3 -21 4 -15 5 -19 6 -13 6 -17 8 -16 7 -15 8 
-14 7 -15 7 -13 6 -15 6 -14 4 -16 3 -15 3 -17 2 
-14 0 -16 0 -16 0 -17 -1 -16 -2 -17 -2 -17 -2 -18 -3 
-16 -4 -19 -4 -18 -5 -16 -5 -17 -7 -16 -7 -16 -8 -16 -9 
-16 -10 -15 -11 -17 -12 -18 -12 -15 -12 -18 -11 -18 -11 -18 -11 
-17 -9 -19 -7 -18 -6 -18 -4 -17 -2 -20 0 -14 2 -23 3 
-24 4 -2 5 -20 5 -12 6 -17 6 -12 6 -17 6 -12 5 
-17 5 -9 6 -27 4 -6 5 -21 5 -3 4 -17 6 -21 5 
1 5 -25 6 -5 6 5895 1767 100 MP stroke
-12 6 -7 6 -8 7 -6 6 -7 6 -7 6 -9 5 3 4 
-2 4 -2 4 -2 2 0 3 1 1 1 0 5 0 -1 0 
3 0 4 1 3 2 6 2 4 4 6 5 5 7 6 8 
6 9 6 10 6 12 3 12 10 13 7 14 10 14 8 13 
11 14 9 13 12 12 9 12 14 11 9 10 24 9 15 8 
4 6 17 6 12 5 15 4 14 3 13 2 15 1 12 0 
24 -1 8 -2 8 -2 13 -4 9 -4 11 -5 8 -6 12 -7 
6 -7 8 -8 4 -8 7 -9 2 -9 5 -10 3 -9 4 -10 
2 -9 2 -8 -1 -8 3 -7 -2 -6 1 -5 -2 -4 -2 -3 
-5 -2 -5 -2 -7 -1 -8 -1 -10 0 -8 -1 -11 -1 -9 -2 
-11 -2 -11 -3 -11 -3 -9 -4 -10 -4 -10 -4 -13 -4 -12 -3 
-13 -4 -14 -3 -15 -2 -15 -2 -19 -1 -18 -1 -20 -1 -18 0 
-21 0 -16 2 -21 3 5857 1662 100 MP stroke
-21 3 -19 4 -18 5 -19 5 -18 6 -18 8 -17 8 -16 7 
-14 7 -14 7 -15 5 -12 5 -12 5 -13 4 -11 2 -12 1 
-10 -1 -10 -2 -9 -3 -10 -5 -8 -6 -9 -6 -6 -8 -8 -8 
-8 -8 -7 -8 -9 -9 -5 -9 -6 -11 -8 -13 -5 -16 -4 -19 
-3 -24 -4 -30 -3 -38 -5 -47 -1 -58 -2 -70 -5 -88 -2 -112 
6253 2179 41 MP stroke
gr

c8
0 sg
%%IncludeResource: font Helvetica
/Helvetica /WindowsLatin1Encoding 120 FMSR

2044  293 mt 
(Experiment 2b - Digital magnetometers - Bias of position) s
2502 4902 mt 
(Distance to center of sensor network [m]) s
 558 2769 mt  -90 rotate
(Bias [mm]) s
90 rotate

end %%Color Dict

eplot
%%EndObject

epage
end

showpage

%%Trailer
%%EOF
