%!PS-Adobe-2.0 EPSF-1.2
%%Creator: MATLAB, The MathWorks, Inc. Version 7.13.0.564 (R2011b). Operating System: Microsoft Windows 7.
%%Title: ..\figures\digital_par_pos_rmse.eps
%%CreationDate: 11/13/2012  17:43:47
%%DocumentNeededFonts: Helvetica
%%DocumentProcessColors: Cyan Magenta Yellow Black
%%Extensions: CMYK
%%Pages: 1
%%BoundingBox:    52   196   542   602
%%EndComments

%%BeginProlog
% MathWorks dictionary
/MathWorks 160 dict begin
% definition operators
/bdef {bind def} bind def
/ldef {load def} bind def
/xdef {exch def} bdef
/xstore {exch store} bdef
% operator abbreviations
/c  /clip ldef
/cc /concat ldef
/cp /closepath ldef
/gr /grestore ldef
/gs /gsave ldef
/mt /moveto ldef
/np /newpath ldef
/cm /currentmatrix ldef
/sm /setmatrix ldef
/rm /rmoveto ldef
/rl /rlineto ldef
/s {show newpath} bdef
/sc {setcmykcolor} bdef
/sr /setrgbcolor ldef
/sg /setgray ldef
/w /setlinewidth ldef
/j /setlinejoin ldef
/cap /setlinecap ldef
/rc {rectclip} bdef
/rf {rectfill} bdef
% page state control
/pgsv () def
/bpage {/pgsv save def} bdef
/epage {pgsv restore} bdef
/bplot /gsave ldef
/eplot {stroke grestore} bdef
% orientation switch
/portraitMode 0 def /landscapeMode 1 def /rotateMode 2 def
% coordinate system mappings
/dpi2point 0 def
% font control
/FontSize 0 def
/FMS {/FontSize xstore findfont [FontSize 0 0 FontSize neg 0 0]
  makefont setfont} bdef
/ISOLatin1Encoding where {pop /WindowsLatin1Encoding 256 array bdef
ISOLatin1Encoding WindowsLatin1Encoding copy pop
/.notdef/.notdef/quotesinglbase/florin/quotedblbase/ellipsis/dagger
/daggerdbl/circumflex/perthousand/Scaron/guilsinglleft/OE/.notdef/.notdef
/.notdef/.notdef/quoteleft/quoteright/quotedblleft/quotedblright/bullet
/endash/emdash/tilde/trademark/scaron/guilsinglright/oe/.notdef/.notdef
/Ydieresis WindowsLatin1Encoding 128 32 getinterval astore pop}
{/WindowsLatin1Encoding StandardEncoding bdef} ifelse
/reencode {exch dup where {pop load} {pop StandardEncoding} ifelse
  exch dup 3 1 roll findfont dup length dict begin
  { 1 index /FID ne {def}{pop pop} ifelse } forall
  /Encoding exch def currentdict end definefont pop} bdef
/isroman {findfont /CharStrings get /Agrave known} bdef
/FMSR {3 1 roll 1 index dup isroman {reencode} {pop pop} ifelse
  exch FMS} bdef
/csm {1 dpi2point div -1 dpi2point div scale neg translate
 dup landscapeMode eq {pop -90 rotate}
  {rotateMode eq {90 rotate} if} ifelse} bdef
% line types: solid, dotted, dashed, dotdash
/SO { [] 0 setdash } bdef
/DO { [.5 dpi2point mul 4 dpi2point mul] 0 setdash } bdef
/DA { [6 dpi2point mul] 0 setdash } bdef
/DD { [.5 dpi2point mul 4 dpi2point mul 6 dpi2point mul 4
  dpi2point mul] 0 setdash } bdef
% macros for lines and objects
/L {lineto stroke} bdef
/MP {3 1 roll moveto 1 sub {rlineto} repeat} bdef
/AP {{rlineto} repeat} bdef
/PDlw -1 def
/W {/PDlw currentlinewidth def setlinewidth} def
/PP {closepath eofill} bdef
/DP {closepath stroke} bdef
/MR {4 -2 roll moveto dup  0 exch rlineto exch 0 rlineto
  neg 0 exch rlineto closepath} bdef
/FR {MR stroke} bdef
/PR {MR fill} bdef
/L1i {{currentfile picstr readhexstring pop} image} bdef
/tMatrix matrix def
/MakeOval {newpath tMatrix currentmatrix pop translate scale
0 0 1 0 360 arc tMatrix setmatrix} bdef
/FO {MakeOval stroke} bdef
/PO {MakeOval fill} bdef
/PD {currentlinewidth 2 div 0 360 arc fill
   PDlw -1 eq not {PDlw w /PDlw -1 def} if} def
/FA {newpath tMatrix currentmatrix pop translate scale
  0 0 1 5 -2 roll arc tMatrix setmatrix stroke} bdef
/PA {newpath tMatrix currentmatrix pop	translate 0 0 moveto scale
  0 0 1 5 -2 roll arc closepath tMatrix setmatrix fill} bdef
/FAn {newpath tMatrix currentmatrix pop translate scale
  0 0 1 5 -2 roll arcn tMatrix setmatrix stroke} bdef
/PAn {newpath tMatrix currentmatrix pop translate 0 0 moveto scale
  0 0 1 5 -2 roll arcn closepath tMatrix setmatrix fill} bdef
/vradius 0 def /hradius 0 def /lry 0 def
/lrx 0 def /uly 0 def /ulx 0 def /rad 0 def
/MRR {/vradius xdef /hradius xdef /lry xdef /lrx xdef /uly xdef
  /ulx xdef newpath tMatrix currentmatrix pop ulx hradius add uly
  vradius add translate hradius vradius scale 0 0 1 180 270 arc 
  tMatrix setmatrix lrx hradius sub uly vradius add translate
  hradius vradius scale 0 0 1 270 360 arc tMatrix setmatrix
  lrx hradius sub lry vradius sub translate hradius vradius scale
  0 0 1 0 90 arc tMatrix setmatrix ulx hradius add lry vradius sub
  translate hradius vradius scale 0 0 1 90 180 arc tMatrix setmatrix
  closepath} bdef
/FRR {MRR stroke } bdef
/PRR {MRR fill } bdef
/MlrRR {/lry xdef /lrx xdef /uly xdef /ulx xdef /rad lry uly sub 2 div def
  newpath tMatrix currentmatrix pop ulx rad add uly rad add translate
  rad rad scale 0 0 1 90 270 arc tMatrix setmatrix lrx rad sub lry rad
  sub translate rad rad scale 0 0 1 270 90 arc tMatrix setmatrix
  closepath} bdef
/FlrRR {MlrRR stroke } bdef
/PlrRR {MlrRR fill } bdef
/MtbRR {/lry xdef /lrx xdef /uly xdef /ulx xdef /rad lrx ulx sub 2 div def
  newpath tMatrix currentmatrix pop ulx rad add uly rad add translate
  rad rad scale 0 0 1 180 360 arc tMatrix setmatrix lrx rad sub lry rad
  sub translate rad rad scale 0 0 1 0 180 arc tMatrix setmatrix
  closepath} bdef
/FtbRR {MtbRR stroke } bdef
/PtbRR {MtbRR fill } bdef
/stri 6 array def /dtri 6 array def
/smat 6 array def /dmat 6 array def
/tmat1 6 array def /tmat2 6 array def /dif 3 array def
/asub {/ind2 exch def /ind1 exch def dup dup
  ind1 get exch ind2 get sub exch } bdef
/tri_to_matrix {
  2 0 asub 3 1 asub 4 0 asub 5 1 asub
  dup 0 get exch 1 get 7 -1 roll astore } bdef
/compute_transform {
  dmat dtri tri_to_matrix tmat1 invertmatrix 
  smat stri tri_to_matrix tmat2 concatmatrix } bdef
/ds {stri astore pop} bdef
/dt {dtri astore pop} bdef
/db {2 copy /cols xdef /rows xdef mul dup 3 mul string
  currentfile exch readhexstring pop
  dup 0 3 index getinterval /rbmap xdef
  dup 2 index dup getinterval /gbmap xdef
  1 index dup 2 mul exch getinterval /bbmap xdef pop pop}bdef
/it {gs np dtri aload pop moveto lineto lineto cp c
  cols rows 8 compute_transform 
  rbmap gbmap bbmap true 3 colorimage gr}bdef
/il {newpath moveto lineto stroke}bdef
currentdict end def
%%EndProlog

%%BeginSetup
MathWorks begin

0 cap

end
%%EndSetup

%%Page: 1 1
%%BeginPageSetup
%%PageBoundingBox:    52   196   542   602
MathWorks begin
bpage
%%EndPageSetup

%%BeginObject: obj1
bplot

/dpi2point 12 def
portraitMode 0204 7344 csm

  422   109  5883  4882 MR c np
85 dict begin %Colortable dictionary
/c0 { 0.000000 0.000000 0.000000 sr} bdef
/c1 { 1.000000 1.000000 1.000000 sr} bdef
/c2 { 0.900000 0.000000 0.000000 sr} bdef
/c3 { 0.000000 0.820000 0.000000 sr} bdef
/c4 { 0.000000 0.000000 0.800000 sr} bdef
/c5 { 0.910000 0.820000 0.320000 sr} bdef
/c6 { 1.000000 0.260000 0.820000 sr} bdef
/c7 { 0.000000 0.820000 0.820000 sr} bdef
c0
1 j
1 sg
   0    0 6913 5185 PR
6 w
0 4225 5356 0 0 -4225 899 4614 4 MP
PP
-5356 0 0 4225 5356 0 0 -4225 899 4614 5 MP stroke
4 w
DO
SO
6 w
0 sg
 899  389 mt 6255  389 L
 899 4614 mt 6255 4614 L
6255 4614 mt 6255  389 L
 899 4614 mt  899  389 L
 899 4614 mt 6255 4614 L
 899 4614 mt  899  389 L
 899 4614 mt  899 4614 L
 899 4614 mt  899 4614 L
 899 4614 mt  899 4614 L
 899 4614 mt  899 4614 L
 899 4614 mt  899 4614 L
 899 4614 mt  899 4614 L
 899 4614 mt  899 4614 L
 899 4614 mt  899 4614 L
 899 4614 mt  899 4614 L
 899 4614 mt  899 4614 L
 899 4614 mt  899 4614 L
 899 4614 mt  899 4614 L
 899 4614 mt  899 4614 L
 899 4614 mt  899 4614 L
 899 4614 mt  899 4614 L
 899 4614 mt  899 4614 L
 899 4614 mt  899 4614 L
 899 4614 mt  899 4614 L
1874 4614 mt 1874 4560 L
1874  389 mt 1874  442 L
%%IncludeResource: font Helvetica
/Helvetica /WindowsLatin1Encoding 120 FMSR

1729 4796 mt 
(10) s
%%IncludeResource: font Helvetica
/Helvetica /WindowsLatin1Encoding 80 FMSR

1862 4722 mt 
(-0.8) s
 899 4614 mt  899 4614 L
 899 4614 mt  899 4614 L
 899 4614 mt  899 4614 L
 899 4614 mt  899 4614 L
 899 4614 mt  899 4614 L
 899 4614 mt  899 4614 L
 899 4614 mt  899 4614 L
 899 4614 mt  899 4614 L
 899 4614 mt  899 4614 L
 899 4614 mt  899 4614 L
 899 4614 mt  899 4614 L
 899 4614 mt  899 4614 L
 899 4614 mt  899 4614 L
 899 4614 mt  899 4614 L
 899 4614 mt  899 4614 L
 899 4614 mt  899 4614 L
 899 4614 mt  899 4614 L
 899 4614 mt  899 4614 L
3912 4614 mt 3912 4560 L
3912  389 mt 3912  442 L
%%IncludeResource: font Helvetica
/Helvetica /WindowsLatin1Encoding 120 FMSR

3767 4796 mt 
(10) s
%%IncludeResource: font Helvetica
/Helvetica /WindowsLatin1Encoding 80 FMSR

3900 4722 mt 
(-0.7) s
 899 4614 mt  899 4614 L
 899 4614 mt  899 4614 L
 899 4614 mt  899 4614 L
 899 4614 mt  899 4614 L
 899 4614 mt  899 4614 L
 899 4614 mt  899 4614 L
 899 4614 mt  899 4614 L
 899 4614 mt  899 4614 L
 899 4614 mt  899 4614 L
 899 4614 mt  899 4614 L
 899 4614 mt  899 4614 L
 899 4614 mt  899 4614 L
 899 4614 mt  899 4614 L
 899 4614 mt  899 4614 L
 899 4614 mt  899 4614 L
 899 4614 mt  899 4614 L
 899 4614 mt  899 4614 L
 899 4614 mt  899 4614 L
5950 4614 mt 5950 4560 L
5950  389 mt 5950  442 L
%%IncludeResource: font Helvetica
/Helvetica /WindowsLatin1Encoding 120 FMSR

5805 4796 mt 
(10) s
%%IncludeResource: font Helvetica
/Helvetica /WindowsLatin1Encoding 80 FMSR

5938 4722 mt 
(-0.6) s
 899 4614 mt  899 4614 L
 899 4614 mt  899 4614 L
 899 4614 mt  899 4614 L
 899 4614 mt  899 4614 L
 899 4614 mt  899 4614 L
 899 4614 mt  899 4614 L
 899 4614 mt  899 4614 L
 899 4614 mt  899 4614 L
 899 4614 mt  899 4614 L
 899 4614 mt  899 4614 L
 899 4614 mt  899 4614 L
 899 4614 mt  899 4614 L
 899 4614 mt  899 4614 L
 899 4614 mt  899 4614 L
 899 4614 mt  899 4614 L
 899 4614 mt  899 4614 L
 899 4614 mt  899 4614 L
 899 4614 mt  899 4614 L
 899 4614 mt  925 4614 L
6255 4614 mt 6228 4614 L
 899 4614 mt  952 4614 L
6255 4614 mt 6201 4614 L
%%IncludeResource: font Helvetica
/Helvetica /WindowsLatin1Encoding 120 FMSR

 640 4658 mt 
(10) s
%%IncludeResource: font Helvetica
/Helvetica /WindowsLatin1Encoding 80 FMSR

 773 4584 mt 
(-1) s
 899 4190 mt  925 4190 L
6255 4190 mt 6228 4190 L
 899 3942 mt  925 3942 L
6255 3942 mt 6228 3942 L
 899 3766 mt  925 3766 L
6255 3766 mt 6228 3766 L
 899 3629 mt  925 3629 L
6255 3629 mt 6228 3629 L
 899 3518 mt  925 3518 L
6255 3518 mt 6228 3518 L
 899 3423 mt  925 3423 L
6255 3423 mt 6228 3423 L
 899 3342 mt  925 3342 L
6255 3342 mt 6228 3342 L
 899 3270 mt  925 3270 L
6255 3270 mt 6228 3270 L
 899 3205 mt  925 3205 L
6255 3205 mt 6228 3205 L
 899 3205 mt  952 3205 L
6255 3205 mt 6201 3205 L
%%IncludeResource: font Helvetica
/Helvetica /WindowsLatin1Encoding 120 FMSR

 640 3249 mt 
(10) s
%%IncludeResource: font Helvetica
/Helvetica /WindowsLatin1Encoding 80 FMSR

 773 3175 mt 
(0) s
 899 2781 mt  925 2781 L
6255 2781 mt 6228 2781 L
 899 2533 mt  925 2533 L
6255 2533 mt 6228 2533 L
 899 2357 mt  925 2357 L
6255 2357 mt 6228 2357 L
 899 2221 mt  925 2221 L
6255 2221 mt 6228 2221 L
 899 2109 mt  925 2109 L
6255 2109 mt 6228 2109 L
 899 2015 mt  925 2015 L
6255 2015 mt 6228 2015 L
 899 1933 mt  925 1933 L
6255 1933 mt 6228 1933 L
 899 1861 mt  925 1861 L
6255 1861 mt 6228 1861 L
 899 1797 mt  925 1797 L
6255 1797 mt 6228 1797 L
 899 1797 mt  952 1797 L
6255 1797 mt 6201 1797 L
%%IncludeResource: font Helvetica
/Helvetica /WindowsLatin1Encoding 120 FMSR

 640 1841 mt 
(10) s
%%IncludeResource: font Helvetica
/Helvetica /WindowsLatin1Encoding 80 FMSR

 773 1767 mt 
(1) s
 899 1373 mt  925 1373 L
6255 1373 mt 6228 1373 L
 899 1125 mt  925 1125 L
6255 1125 mt 6228 1125 L
 899  949 mt  925  949 L
6255  949 mt 6228  949 L
 899  812 mt  925  812 L
6255  812 mt 6228  812 L
 899  701 mt  925  701 L
6255  701 mt 6228  701 L
 899  607 mt  925  607 L
6255  607 mt 6228  607 L
 899  525 mt  925  525 L
6255  525 mt 6228  525 L
 899  453 mt  925  453 L
6255  453 mt 6228  453 L
 899  389 mt  925  389 L
6255  389 mt 6228  389 L
 899  389 mt  952  389 L
6255  389 mt 6201  389 L
%%IncludeResource: font Helvetica
/Helvetica /WindowsLatin1Encoding 120 FMSR

 640  433 mt 
(10) s
%%IncludeResource: font Helvetica
/Helvetica /WindowsLatin1Encoding 80 FMSR

 773  359 mt 
(2) s
 899  389 mt 6255  389 L
 899 4614 mt 6255 4614 L
6255 4614 mt 6255  389 L
 899 4614 mt  899  389 L
gs 899 388 5357 4227 MR c np
/c8 { 0.000000 0.000000 1.000000 sr} bdef
c8
23 59 22 -54 24 41 23 5 24 -9 23 20 25 -10 22 -13 
21 13 28 -15 25 -67 26 -17 23 -1 22 -17 20 -7 25 -30 
23 -16 18 36 23 9 19 15 20 -25 20 -10 21 -31 16 21 
19 21 19 20 20 35 18 20 18 -4 16 -4 14 12 15 20 
18 -10 17 -34 20 -39 16 -14 17 7 18 -8 15 29 13 -1 
17 15 15 -11 17 -3 19 9 19 16 16 5 19 -15 14 10 
19 14 14 34 18 21 17 13 19 -20 15 7 22 -13 15 13 
16 20 14 -4 19 -41 15 2 18 -5 14 -6 17 -14 13 -29 
19 -27 12 15 19 -17 13 18 19 -2 13 -13 18 -15 11 9 
20 3 9 41 22 -3 5 35 31 -49 15 18 21 1 16 26 
8 2 32 -37 10 20 21 20 15 9 19 -28 16 28 18 13 
6 56 36 -34 -4 57 34 -68 34 -67 -11 48 29 -17 6 46 
16 -6 25 -31 10 36 4416 2194 100 MP stroke
21 -2 13 19 18 -18 18 -13 19 -29 15 27 19 -27 29 -47 
-3 23 8 3 26 -27 5 23 21 -5 7 7 19 -22 7 12 
18 -13 0 34 48 -21 3 25 1 30 0 -30 11 -2 7 7 
12 -9 5 24 13 -7 11 -3 8 -9 8 -6 9 1 8 -1 
8 1 5 -16 5 -1 10 -11 4 15 9 -9 4 16 2 4 
7 -5 3 30 1 -5 4 -18 2 18 3 18 2 -2 2 -26 
4 -6 2 -17 1 -4 2 6 -5 9 2 8 2 4 -6 7 
2 -13 -3 7 0 6 -6 12 -1 -14 -1 -18 -4 -21 -4 1 
-1 1 -2 -10 -2 -10 -4 11 -5 -29 -8 4 -3 24 -4 -2 
-7 12 -9 -4 2 -21 -6 22 -1 -6 -6 12 0 -32 -11 25 
-3 2 -3 -8 -1 -18 -8 -11 0 -27 -6 11 -3 7 -6 -2 
-3 -18 -8 33 -3 27 -6 44 -4 5 -7 1 -2 -8 -14 12 
-10 -4 -7 -10 -8 -27 4125 2268 100 MP stroke
-11 24 -8 -20 -8 -4 2 -29 -7 -10 -11 -7 -16 -4 -13 15 
-3 14 -9 -1 -9 9 -9 27 -13 35 -18 18 -9 -10 -10 11 
-8 -59 -10 -2 -10 -36 -9 12 -4 -42 -4 -58 -13 29 -8 -4 
-11 -6 -7 -35 -10 6 -7 3 -14 39 -10 2 -2 -43 -11 36 
-10 -7 -8 23 -20 28 -3 -53 -10 0 -15 12 0 24 -7 22 
-12 9 -9 -8 -6 2 -9 4 -1 -64 -8 -27 1 -21 -9 47 
-5 27 -8 -36 -1 -19 -7 3 -9 10 -4 41 0 -13 -10 -70 
-5 -13 -10 35 -15 1 -1 -19 -7 -13 -6 -15 -6 -10 -15 -50 
-4 8 -12 74 -11 -2 -7 15 -14 -39 -13 -26 3 -12 -7 -35 
-7 -3 -11 -56 -4 17 -12 37 -13 20 -1 2 -13 9 -8 19 
-6 -66 -12 -8 -11 29 -9 -5 -11 -28 -10 -32 -11 3 -8 -49 
-10 -35 -11 45 -13 63 -10 5 -17 16 -14 15 -5 -14 -16 -26 
-20 0 -3 18 -11 16 4992 2533 100 MP stroke
-9 -21 -20 13 -6 -54 -9 11 -15 31 -9 19 -11 -110 -9 12 
-13 -15 -9 17 -12 -22 -6 -84 -24 150 -5 -12 -20 6 -8 12 
-9 -40 -5 10 -13 -28 -2 -21 -8 -3 -7 41 -10 37 -4 52 
-3 -25 -10 23 -8 -39 -12 -47 -4 -46 -11 -27 0 -11 -11 -27 
-5 99 -11 -3 -4 11 -6 19 -1 2 -10 39 -21 -103 -2 53 
-3 -3 -6 21 -16 -119 -19 -111 4 193 -8 -5 -15 -82 -3 171 
-6 -134 -16 -100 2 179 -22 -67 -7 43 -13 -72 -8 13 -3 72 
-19 -20 -14 -123 -9 -102 -13 -73 0 223 -24 -100 -1 127 -11 -71 
-10 58 -10 16 -10 5 -8 122 -10 45 -10 -45 -12 -39 -9 70 
-11 -10 -9 -167 -7 -170 -10 -55 -17 176 -12 -55 -12 19 -15 34 
-11 -54 -9 20 -19 -156 -9 70 -4 259 -14 55 -4 76 -17 -98 
-6 -85 -6 -11 -10 172 -15 72 -1 75 -6 -19 -4 64 -6 -72 
-1 -26 -8 -42 -4 89 5910 2361 100 MP stroke
-6 72 -7 36 -5 -18 -6 89 -4 15 -3 38 -10 -79 -1 -35 
-6 -77 -16 -74 3 8 -6 -11 -3 -2 -3 22 -17 -117 -2 21 
3 158 -8 -17 -14 -273 4 165 -2 -36 -5 -28 -6 -25 -14 -272 
-2 162 4 186 -13 -196 -9 -14 3 279 -1 139 -4 6 -15 -170 
4 110 -7 8 -5 30 1 37 -5 -27 -7 -180 0 12 -1 -18 
-4 -4 2 143 -4 65 0 -23 -4 29 0 -19 1 -120 -4 -34 
-1 -5 1 107 -1 15 0 -10 3 -31 2 -24 0 12 0 -179 
-1 -101 1 24 2 -132 2 -39 2 84 3 190 4 55 4 -64 
3 -36 5 125 2 98 3 30 12 -84 3 -52 3 -113 7 -206 
4 -124 6 195 4 -20 6 98 2 44 3 -4 6 -7 5 2 
6 171 4 69 12 -7 6 -81 7 32 7 101 6 -15 7 -30 
3 -7 6 33 7 -10 7 27 6 -7 7 37 6 -70 16 -69 
9 -92 8 -4 10 -66 5879 2540 100 MP stroke
7 -84 10 26 7 -32 8 -225 8 186 11 42 10 -36 9 -182 
11 -91 18 96 21 31 4 -95 8 51 9 109 10 -1 10 -14 
9 82 10 -1 10 63 13 90 16 -21 10 -107 13 98 10 -42 
10 -13 14 -31 12 21 13 49 13 -3 9 8 11 64 9 16 
18 -16 11 64 11 -10 10 52 11 -53 11 53 13 25 12 51 
12 -1 11 -12 13 57 9 47 17 105 16 -10 10 -109 20 -29 
2 -67 14 -29 13 -51 16 -40 16 -76 11 -118 16 -34 11 -74 
15 -5 12 -37 19 -41 16 -52 12 -13 16 52 15 -30 15 91 
17 13 14 24 17 -50 13 -134 34 97 8 -98 12 -117 19 15 
17 55 17 142 20 30 22 63 14 -64 20 19 17 33 20 12 
17 20 19 52 17 27 22 13 16 44 23 88 27 51 2 -81 
23 80 12 18 23 21 15 11 22 39 11 13 32 133 30 3 
-8 -237 15 -145 18 -52 4495 2658 100 MP stroke
29 91 3 -70 16 3 15 42 12 21 27 67 8 -56 21 5 
9 -171 22 30 1 -136 17 -68 9 110 25 52 2 -35 9 36 
16 37 14 -25 11 26 11 -44 11 23 11 -8 7 -33 11 1 
20 56 -4 -25 23 82 4 -8 8 85 12 -15 20 65 -1 -88 
13 42 6 -42 23 84 7 65 -2 -88 11 15 7 5 18 36 
18 13 -6 -73 9 -58 7 40 27 160 -2 -148 4 14 8 -13 
13 14 4 -26 19 -2 0 -159 13 74 11 -17 7 17 11 -17 
-2 -161 13 30 27 129 4 -97 -2 -70 18 -8 15 -48 -3 -7 
17 -46 10 -168 18 39 19 86 9 164 20 16 2 60 19 -72 
25 -83 10 -16 12 25 25 -30 10 -12 34 9 8 -48 14 -3 
18 51 28 -53 22 -41 13 -56 23 -89 5 38 26 38 13 -110 
19 -33 16 -95 20 67 15 63 22 200 19 -110 17 -24 10 -57 
19 -37 15 -147 20 82 3208 3296 100 MP stroke
15 185 14 -475 14 -428 12 628 16 -37 15 570 13 116 15 18 
18 112 7 -118 3 -219 18 -185 9 -11 12 162 8 -60 8 266 
9 5 14 22 15 -915 3 509 8 134 14 142 12 130 9 -41 
10 -54 11 39 13 26 10 49 10 87 10 -36 10 26 12 -64 
11 33 9 16 11 -35 15 60 11 56 9 120 17 -65 7 30 
7 52 14 -17 8 -22 13 -5 11 58 14 -73 11 -6 12 -63 
14 -10 15 14 15 -32 13 -4 10 52 15 -39 13 69 14 18 
10 -16 10 -48 10 19 8 37 7 17 8 -7 6 2 6 7 
4 31 6 -32 5 -6 2 35 5 51 3 -5 3 12 5 -2 
1 19 2 27 2 -6 2 45 2 41 2 15 -2 19 2 5 
-1 -5 3 -2 0 -5 2 -1 -3 25 2 -20 -2 0 2 -47 
-1 6 -1 -1 1 16 -5 46 -1 -21 -1 21 2 -15 1 3 
3 -11 -1 -6 0 -7 2443 2270 100 MP stroke
4 -14 7 14 0 -14 1 20 7 6 1 37 7 31 1 32 
5 34 5 12 4 -9 6 -16 11 -35 6 15 8 -1 6 11 
7 22 9 12 10 2 9 -5 10 13 11 -16 11 13 8 9 
13 -7 12 -4 14 -21 9 13 12 -9 8 -6 12 -23 7 29 
13 9 8 6 9 21 7 24 20 -24 0 45 10 -7 11 3 
2 32 10 -22 6 -24 8 -8 8 5 7 -3 6 5 6 -2 
9 19 4 -3 4 7 7 -2 3 -3 3 -11 6 12 5 5 
5 -10 4 8 5 4 15 -48 1 -8 8 -2 6 4 5 11 
6 -13 7 -2 6 -9 9 -4 12 -8 0 -1 10 -2 3 8 
13 -7 4 1 11 -5 6 -16 7 8 7 6 7 0 7 11 
1 11 14 5 -3 -8 10 -11 7 10 3 20 3 8 2 6 
2 -12 -1 4 2 -8 -2 5 2 4 -5 18 0 -16 -7 22 
1 -24 -3 -22 -4 10 1844 2093 100 MP stroke
-3 34 -4 -21 -5 -20 -5 8 -8 3 -6 -20 -6 -3 -8 -12 
-8 -2 -8 -2 -9 -14 -3 -43 -12 -1 -4 -27 -16 31 -3 -23 
-11 -4 -4 -13 -6 -11 -9 15 -9 21 -7 2 -19 19 -6 -10 
-6 -8 -19 12 -6 13 -16 0 -7 -14 -12 15 -8 18 -9 -5 
-4 -30 -16 48 -1 -7 -11 7 -3 -11 -10 0 0 -40 -14 12 
-7 -4 -8 22 -5 -18 -9 0 -5 24 -5 -1 -4 9 -6 25 
-14 23 -6 3 -5 28 -2 -17 -4 -1 -1 -30 -4 -21 -1 -55 
-3 1 -2 22 -4 -5 1 -50 0 -27 1 14 0 -16 0 10 
1 23 0 5 1 -8 5 17 1 11 5 7 9 -30 1 -17 
6 10 4 6 7 -15 6 -17 6 -9 4 -18 4 20 6 7 
9 9 9 -38 3 19 6 -4 5 11 7 6 4 -13 6 14 
4 20 7 -21 4 -54 5 -44 5 -19 3 23 3 26 1 11 
2 5 4 9 2 8 2103 2280 100 MP stroke
0 26 -9 1 4 -39 5 2 -2 2 2 35 -1 1 -1 2 
-3 0 -5 -23 4 -34 3 -62 -7 12 5 5 3 18 -1 10 
3 -57 1 1 -1 59 -3 13 1 -8 5 -3 2 -41 1 -43 
1 -20 4 -64 3 36 5 1 7 27 7 -19 8 11 8 -14 
6 -15 7 7 6 5 7 22 9 17 9 -8 10 -41 10 22 
11 -33 14 -32 14 -9 8 -16 13 76 7 28 11 34 17 14 
11 3 14 21 13 43 14 14 15 5 16 -36 11 -15 13 26 
13 24 15 21 14 41 11 35 17 -7 12 -17 16 -25 14 -9 
16 12 15 -30 16 -10 18 13 11 18 14 -14 16 -18 15 -16 
15 -44 12 -20 15 -25 13 12 15 6 12 -7 14 -1 11 16 
13 -18 12 -11 13 13 12 -21 13 34 12 9 13 -4 11 -6 
14 -3 9 24 13 40 10 -27 9 -10 9 -23 9 6 9 18 
8 51 9 0 9 24 1241 2262 100 MP stroke
9 9 13 -33 10 -13 13 -49 9 12 8 -12 12 -4 8 48 
21 9 5 3 19 -80 2 7 15 -65 13 -34 7 -3 13 -41 
-2 19 29 -81 -5 76 9 47 4 56 14 -3 13 -12 -5 -18 
41 -7 5 24 -3 -14 3 20 -4 13 12 14 3 -8 6 24 
12 -8 4 -25 7 -25 4 -47 4 36 4 -3 3 -7 3 -26 
2 -30 2 28 0 -19 -1 -41 0 -31 0 2 1 -29 -1 -9 
0 4 -1 -63 -1 41 0 46 0 -94 -1 -57 -4 -42 1 -4 
-2 -76 -2 46 0 40 -1 84 1 -14 -1 -61 1 -69 -2 7 
1 -54 -4 24 0 78 1 -16 -1 -42 1 -39 -2 70 -4 58 
1 -101 -2 -52 -1 131 0 -23 -2 6 -4 16 -2 26 -5 99 
1 2 -2 13 -3 -10 -1 -13 1 -15 -2 31 0 -6 -4 -71 
0 22 -2 21 1 -53 -3 -76 0 -100 -3 -36 2 118 -4 -78 
0 95 -3 -68 -1 63 958 2784 100 MP stroke
-9 0 2 48 -5 6 -8 -48 -4 49 -2 -34 -6 -42 -6 68 
-6 28 -7 2 0 12 -8 -41 -6 45 -12 -35 -11 -16 -3 24 
-9 -17 -2 87 -22 -105 -1 69 -11 14 -11 -23 -4 -45 -8 25 
-18 -14 -6 -56 -10 15 -5 46 -6 78 -15 -78 -13 11 -1 111 
-12 37 -4 37 -16 -22 -17 -71 -4 23 -6 -105 -16 -120 -12 11 
-5 1 -17 98 -8 -86 -15 37 -17 -45 -2 -85 -17 -15 -11 127 
-8 25 -13 45 -24 40 -1 168 -15 -20 -12 -22 -14 -36 -13 10 
-18 36 -13 -75 -18 45 -14 70 -15 18 -17 26 -17 39 -13 -36 
-11 68 -24 -38 -30 7 1 106 -22 -3 -14 31 -22 -91 -31 -5 
-5 90 -15 -53 -18 -106 -30 -80 -19 128 -3 86 -25 -45 -9 -52 
-30 -101 -21 -3 -7 80 -16 -28 -21 42 -15 45 -25 -83 -28 0 
-6 99 -16 -17 -35 -55 -16 27 -9 48 -25 41 -19 8 -23 -64 
-19 -16 -22 20 -15 37 2240 2322 100 MP stroke
-20 37 -25 26 -20 -2 -18 -20 -16 -1 -26 -9 -24 -6 -20 19 
-23 27 -19 -7 -21 1 -24 -15 -18 -16 -23 -87 -17 15 -42 -88 
-8 69 -21 -25 -38 -57 1 73 -36 -37 -14 30 -45 -41 -3 24 
-25 21 -14 13 -37 -19 -26 15 -8 86 -27 -40 -22 -21 -21 -22 
-30 -11 -35 1 -2 71 -29 -53 -17 7 -25 29 -21 26 -43 -41 
1 52 -31 0 -12 26 -47 -59 -7 45 -38 -25 -4 -3 -29 -11 
-30 -5 -4 54 -28 46 -18 -13 -39 -30 -4 66 -19 -42 -23 -2 
-18 -40 -36 -39 -16 -8 -22 -47 -18 -5 -25 -16 -17 1 -27 27 
-2 6 -38 -36 -10 42 -15 -12 -41 9 2 58 -29 -14 -9 39 
-39 -19 -5 44 -31 -16 -4 37 -19 -24 -12 50 -30 -128 -10 46 
-31 -43 -18 -30 6 73 -18 3 -19 0 -20 -19 1 25 -26 -32 
-6 60 -16 9 -9 56 -14 18 -10 24 -12 -27 -10 -26 -10 -4 
-4 19 -12 1 -12 -94 4185 2283 100 MP stroke
-14 -35 -7 18 -13 71 -9 -68 -11 -96 -4 29 -33 -52 5 -21 
-5 -21 -16 31 -15 -1 -7 -22 -14 -41 -11 6 -13 16 -12 28 
-7 4 -10 11 -24 12 -3 -44 -15 33 -21 -48 -2 26 -17 -9 
-12 -6 -23 35 -7 -51 -9 90 -16 -28 -10 -8 -17 32 -13 -3 
-18 8 -13 18 -16 10 -13 4 -15 -16 -12 -17 -16 14 -12 11 
-16 -13 -12 -31 -14 19 -13 -2 -12 -20 -10 -33 -12 -28 -10 25 
-12 -28 -10 -7 -13 33 -10 37 -12 33 -10 18 -11 35 -9 29 
-8 -52 -8 -35 -9 32 -8 -22 -9 -7 -7 30 -8 -55 -9 71 
-6 -48 -6 43 -10 22 -1 -28 -7 -16 -4 30 -7 -11 -3 -32 
-6 24 -5 8 -6 23 -2 -10 -4 13 -3 -24 -1 27 -1 -12 
-1 -7 1 -3 1 -55 2 -18 1 37 4 -25 4 -27 1 121 
2 -21 5 37 2 11 7 13 4 20 8 -42 6 18 8 5 
6 35 7 52 6 33 4935 2141 100 MP stroke
6 -36 8 -31 9 19 5 4 7 31 6 -15 6 -17 4 22 
6 8 4 29 6 -13 4 -40 4 1 3 33 4 -22 0 -6 
4 13 -1 7 3 10 0 12 2 -19 -1 -8 2 -14 -1 13 
1 6 -2 6 1 -5 -3 -18 0 16 -3 18 -1 -16 -2 7 
0 -10 -1 18 -1 -13 -2 33 0 3 -2 2 1 -22 0 2 
1 12 0 10 2 -19 1 -32 3 -25 1 -26 3 19 1 12 
4 23 2 2 5 -11 3 17 6 17 5 -3 6 -10 5 -61 
8 -13 5 26 7 7 6 10 7 -27 6 11 7 6 6 -14 
8 15 7 -8 8 14 15 9 2 17 8 20 9 -5 9 -3 
8 -29 8 -4 8 2 9 -18 13 -21 5 19 14 -37 -2 35 
18 3 2 -11 13 -8 2 4 7 2 12 11 11 4 1 -12 
20 14 0 23 10 1 8 7 15 -22 5 -7 20 -32 5 -18 
8 32 10 -7 11 -65 4452 2277 100 MP stroke
10 2 12 -21 10 10 14 -28 9 -44 15 -19 9 47 16 19 
6 16 24 -26 9 3 8 8 15 15 13 4 11 -7 22 -10 
18 15 4 33 21 0 12 8 17 0 15 0 18 2 15 -4 
19 17 15 -15 19 -14 15 6 24 -25 28 14 2 33 23 5 
15 10 21 -16 16 -3 21 -7 16 3 20 -26 16 14 20 -19 
17 -13 20 15 18 -5 21 -28 18 -23 21 12 18 29 23 -3 
20 -15 21 -16 20 0 21 18 21 -3 24 -44 20 -5 24 -23 
20 -12 23 8 21 9 23 26 20 14 23 22 22 4 24 -24 
39 -46 6 30 24 7 25 -6 25 -13 26 13 24 -5 26 -25 
25 -38 26 7 25 30 26 -16 25 -14 27 43 25 11 26 -5 
24 -7 28 -9 25 -7 28 31 22 13 28 10 24 -24 30 -14 
23 -40 29 -11 23 2 30 -17 21 -14 30 -6 23 -20 29 -20 
23 20 32 25 19 47 2445 2402 100 MP stroke
32 -21 15 8 40 -35 32 -28 22 -4 25 -38 24 14 23 -12 
11 8 33 -19 12 54 28 -43 16 -15 23 -51 21 -23 24 -32 
14 -45 16 -49 10 32 12 -44 14 -21 23 23 9 5 4 9 
13 -7 11 -10 8 -10 10 -45 7 -6 8 -70 -2 -9 9 -31 
2 5 7 100 -1 -181 6 167 1 -47 1 -182 -1 104 2 100 
2 -185 7 20 -4 -113 -3 178 -1 -243 0 13 -1 90 -4 147 
0 -121 -7 131 -3 -131 0 161 0 -181 -4 -51 -5 132 0 -190 
-1 125 0 -301 -4 157 -1 30 2 384 -2 -193 3 -122 3 -27 
2 -8 4 62 9 43 4 44 14 134 1 -31 1 55 12 -28 
5 65 31 -107 8 18 0 30 37 -27 -8 42 12 -32 8 9 
47 -276 17 63 -7 39 6 73 6 20 22 -197 24 -21 -10 276 
31 -229 3 117 3 118 16 -33 3 147 8 31 28 -16 17 0 
-7 25 6 -2 21 -73 1530 2810 100 MP stroke
-1 82 8 -52 16 -58 -8 108 21 -216 -2 82 7 -55 25 469 
-2 -219 1 -87 -1 -154 0 -159 1 -109 -1 75 2 52 6 25 
-1 119 1 16 0 107 0 -67 -2 5 1 118 -5 -49 -2 -38 
1 -62 -5 -121 0 58 -3 25 -4 66 -5 -38 -5 38 -5 -41 
-17 42 -1 17 -4 63 -22 40 9 45 -20 -7 -7 27 1 22 
-13 7 -5 -19 -10 50 -6 -7 -7 14 -11 -70 -10 -35 5 41 
-9 -71 -6 20 -11 -82 2 89 -10 -15 -7 -26 -7 31 -6 11 
-8 33 -4 49 -6 64 -7 7 -16 12 -2 -3 -15 6 1 -44 
-20 29 -10 -15 -12 -11 -10 -12 -5 42 -18 -56 -4 -1 -29 22 
8 -64 -19 -58 -16 25 7 -5 -20 -2 2 -35 -17 -40 -10 26 
-12 -73 -7 -33 -26 59 -14 80 6 -26 -4 10 -18 2 -31 25 
13 -92 -35 35 -12 -32 5 20 -22 35 -18 23 -12 22 -15 -27 
-20 -54 -22 -3 11 75 2127 2688 100 MP stroke
-38 -13 11 40 -17 55 -8 3 -13 -29 -4 16 -17 33 -4 33 
-27 39 6 13 -13 18 -8 31 -11 -14 -8 -40 -11 -35 -7 -23 
-11 38 -9 14 -22 36 11 -73 -26 -98 0 -59 -5 34 -8 -25 
-8 2 -6 9 -9 -8 -6 -13 -4 14 -8 -38 -10 12 -11 -60 
-2 -17 -7 36 -23 133 -12 32 6 13 -5 -12 -3 -21 -14 51 
-11 -3 4 18 -11 -20 -2 -25 -15 -34 2 54 -7 60 -14 39 
5 -2 -11 7 -4 -18 -10 20 -4 -6 -11 9 -1 -20 -10 32 
-7 59 -10 49 -7 19 -15 17 0 -68 -11 -58 -5 -71 -11 -16 
-5 -3 -15 7 0 -14 -10 34 -10 56 -1 -48 -10 -4 -7 -38 
-8 29 -7 -32 -9 79 -8 37 -8 -25 -8 -3 -8 4 -7 0 
-10 30 -6 -64 -12 13 -9 34 -1 -21 -9 21 -4 9 -11 24 
-1 -6 -5 -26 -4 -18 -4 -3 -4 46 -7 -21 -5 29 -6 9 
-7 -37 -7 -30 -8 23 2895 2428 100 MP stroke
-10 30 -8 23 -7 3 -8 -42 -9 -21 -10 -9 -11 8 -12 29 
-11 7 -12 -18 -14 13 -14 -1 -14 -40 -15 -19 -13 30 -14 23 
-17 90 -14 34 -16 40 -16 16 -17 20 -17 10 -17 18 -14 20 
-17 15 -19 5 -15 2 -18 21 -19 16 -18 -1 -20 18 -20 4 
-20 -4 -19 -13 -20 1 -21 14 -24 5 -23 1 -24 4 -24 -3 
-25 19 -25 -1 -24 -3 -23 7 -26 -1 -22 -11 -24 -36 -29 39 
-25 16 -26 -8 -27 17 -27 7 -26 -4 -25 1 -28 -11 -27 2 
-27 24 -25 48 -26 30 -27 3 -26 -8 -24 -16 -25 6 -26 28 
-24 12 -24 13 -25 26 -23 29 -22 20 -21 -8 -21 9 -20 7 
-20 3 -18 3 -20 5 -16 -5 -19 3 -18 6 -16 -3 -18 9 
-14 4 -14 18 -17 6 -17 3 -14 4 -16 0 -14 -8 -14 14 
-13 -1 -13 -1 -16 11 -15 5 -12 -4 -13 -4 -12 2 -12 -6 
-10 5 -11 2 -8 3 4721 1749 100 MP stroke
-11 12 -17 3 -9 -3 -9 -3 -6 -15 -6 -26 -8 -1 -7 4 
-7 10 -8 9 -4 0 -6 2 -7 23 -6 -2 -6 -6 -6 -2 
-6 8 -6 -9 -7 4 -5 4 -8 2 -5 -10 -7 -4 -4 0 
-9 -2 -1 -11 -7 7 -6 3 -5 5 -5 14 -4 3 -3 13 
-3 -2 -2 3 -1 -12 -3 2 -2 -4 -1 0 -1 -9 0 -13 
0 8 3 7 1 -5 -5 0 0 -10 3 -10 0 4 -3 1 
1 0 -1 -3 -2 -1 -1 -13 -1 5 4 2 -2 -13 1 -16 
-3 2 0 27 1 -1 1 -2 0 -2 -2 -11 0 -19 -1 6 
-3 0 -3 -11 1 10 1 -2 0 4 -2 3 1 -1 -2 24 
0 -1 -2 2 1 -18 0 -9 -1 0 -3 4 0 -10 -2 -2 
0 -5 -3 -15 0 -16 -5 -5 -2 7 -7 -5 -1 -10 -9 1 
-4 -8 -8 1 -6 -18 -7 16 -5 -3 -6 -3 -13 -2 -1 -24 
-8 8 -11 7 -6 -10 5067 1887 100 MP stroke
-3 -10 -9 11 -6 -14 -10 8 -3 -21 -9 21 0 10 -8 34 
-4 8 -11 8 1 -6 -6 13 -6 -2 0 -30 -8 5 -4 -17 
-1 -5 -6 -1 -3 2 -1 -14 -4 3 -4 39 -5 22 -3 6 
-4 -4 -5 -10 0 -5 -4 1 -3 6 -3 -3 -2 -13 -7 18 
-1 -18 -4 6 0 -9 -3 4 -1 1 -4 10 0 6 -1 -2 
-1 -23 -1 1 -1 -2 0 -15 0 2 1 1 0 6 1 5 
1 2 0 9 1 -9 1 8 3 7 1 -3 3 -11 1 -3 
1 1 1 8 2 10 0 -2 2 15 0 11 1 -3 1 -12 
1 -5 0 -11 1 3 0 16 1 -8 0 10 1 19 2 4 
1 5 2 26 4 -14 2 4 4 -8 2 8 5 -4 4 -5 
8 -14 3 6 3 7 7 5 10 -10 1 1 7 11 5 -5 
5 3 7 0 6 -10 7 11 7 -8 6 -2 5 -13 6 -14 
4 6 6 12 6 6 5065 1794 100 MP stroke
5 7 1 -7 4 1 3 2 3 -13 4 -5 0 -8 1 4 
0 2 1 6 0 19 -4 6 0 -17 -2 -16 -3 -5 -1 2 
-4 16 -4 4 -4 -7 -5 -9 -8 1 -1 2 -6 -7 -6 9 
-6 -6 -6 -7 -7 -1 -6 -10 -7 3 -9 15 -6 0 -9 4 
-5 -3 -9 3 -7 9 -9 -3 -7 -1 -13 -9 -9 -10 -3 -2 
-12 24 -6 -4 -12 20 -21 35 2 -38 -5 -8 -10 24 -7 9 
-9 -10 -9 -3 -9 11 -7 -6 -9 -2 -7 0 -8 4 -6 -11 
-8 5 -8 11 -6 -7 -5 12 -6 11 -5 -10 -6 5 -4 4 
-6 9 -3 -15 -5 9 -5 -5 -5 7 -3 5 -5 23 -6 40 
-5 16 -6 -3 -5 -12 -4 -7 -5 -11 -8 -6 -8 -9 -7 7 
-7 -3 -7 -4 -6 3 -8 1 -10 -7 -7 -11 -9 8 -8 -1 
-9 -4 -9 -10 -11 -2 -10 -6 -10 14 -10 5 -11 11 -11 13 
-13 -5 -11 -4 -12 -4 5657 1707 100 MP stroke
-10 4 -13 -4 -11 -12 -17 -10 -15 -4 -2 -17 -15 7 -10 1 
-15 -14 -11 -11 -12 -4 -10 10 -14 21 -11 -7 -14 -2 -19 18 
-7 1 -6 11 -22 16 -10 -10 -13 -8 -9 2 -13 10 -7 6 
-14 13 -1 -23 -22 14 -23 45 7 -30 -4 -4 -9 -3 -9 -12 
-6 -15 -8 7 -5 -15 -6 18 -3 -1 -7 -10 -2 -6 -12 12 
2 3 -5 4 -3 -12 -4 -19 -5 8 -1 -27 -7 -3 -4 -10 
0 -18 -5 -16 -1 -7 -3 2 -1 -15 -1 0 -1 -3 -2 -3 
0 -10 -1 11 0 -1 -1 8 0 3 -1 -1 2 21 1 10 
2 28 1 15 1 16 3 13 3 15 3 5 4 1 4 -2 
5 -4 4 10 6 2 3 -3 9 10 9 1 1 -5 8 -40 
5 -9 7 -14 6 4 7 -11 6 -6 8 -1 6 -16 8 11 
7 -5 8 15 9 5 8 -15 10 9 9 -31 9 -23 10 -17 
11 -14 11 -21 11 -15 5886 1880 100 MP stroke
12 -18 11 -18 12 -26 11 -9 11 -40 12 -37 15 -39 14 62 
14 100 13 41 16 22 15 -29 15 99 16 58 17 -89 17 -61 
18 30 17 -17 18 -7 18 5 18 48 18 39 17 -18 17 29 
18 -25 18 -56 18 -83 20 -93 17 16 17 -11 16 23 17 -32 
17 19 15 -9 18 -2 15 10 18 -5 15 -5 18 -6 17 2 
14 4 16 -2 16 -16 13 -7 18 -31 15 -20 16 -9 16 12 
17 17 16 0 16 -2 15 -30 13 13 18 -31 17 -4 16 -15 
16 -2 14 -13 16 -3 14 50 14 24 15 24 13 -12 13 -6 
14 -12 13 -5 11 -8 13 6 11 -32 11 -6 11 -3 11 0 
9 -15 10 2 9 -21 10 15 10 33 9 5 9 29 9 -12 
7 -4 9 -2 8 -13 7 5 6 -4 7 -9 6 -22 6 -20 
6 14 6 12 5 7 5 -49 6 20 7 -12 5 22 6 -4 
5 -95 4 -89 5 75 4597 2263 100 MP stroke
6 -1 4 -7 8 70 4 -31 5 16 5 1 6 -12 5 -58 
5 -7 5 24 6 -16 5 -8 4 -13 6 -13 7 -25 7 -56 
7 15 7 44 10 27 8 25 7 -81 7 3 8 18 8 -40 
7 -123 10 200 9 -30 8 33 8 -52 9 -226 6 126 7 15 
9 -51 8 -105 9 -85 7 119 8 122 6 -8 5 -34 5 42 
6 54 6 31 5 24 5 -31 4 72 3 -48 2 -52 5 -58 
1 149 3 -16 4 88 5 -161 3 -37 2 -34 3 120 3 55 
5 -52 7 -11 6 -57 4 -38 2 30 6 -5 4 9 5 -237 
3 78 4 -46 4 -48 4 8 2 -49 3 -16 3 213 3 -83 
1 91 3 -115 3 -225 1 253 4 -18 2 -368 2 15 3 114 
2 286 3 80 2 -15 1 -229 1 11 1 294 5 95 1 -11 
1 -84 0 -661 -4 46 1 122 -1 460 0 135 0 -66 -4 -172 
-1 -294 -2 -130 -2 298 4178 2681 100 MP stroke
-1 124 -2 -60 -4 224 -5 226 -3 -39 -7 -86 -3 -53 -5 -284 
-1 -10 -10 -259 -9 -68 -3 177 -5 269 -8 100 -3 -25 -7 282 
-14 -154 -5 -193 -8 29 -7 -193 -7 168 -7 125 -10 29 -8 103 
-8 -59 -7 -10 -9 86 -8 58 -10 -26 -11 -33 -9 -36 -9 -82 
-9 -122 -7 136 -10 95 -8 -29 -10 -129 -12 -193 -9 -154 -8 10 
-9 -75 -10 246 -8 101 -9 138 -13 -183 -10 -211 -8 156 -10 129 
-9 -377 -12 241 -9 83 -12 157 -16 276 -13 145 -14 22 -9 -34 
-15 -168 -12 -142 -6 -40 -19 -80 -18 77 -16 -69 -18 -213 -8 17 
-18 13 -13 -78 -21 -118 -21 261 -13 12 -17 -149 -18 72 -19 -53 
-24 241 -18 90 -27 77 -14 -67 -23 -3 -17 -83 -21 61 -29 -146 
-25 -92 -19 22 -15 52 -26 -72 -27 -167 -28 -282 -19 481 -18 -63 
-27 -140 -24 -331 -27 316 -23 9 -26 490 -18 325 -21 -67 -26 -233 
-24 -234 -20 -316 -25 -203 5498 2916 100 MP stroke
-19 181 -21 -150 -25 -294 -19 343 -16 21 -26 226 -18 69 -16 -229 
-22 -68 -22 -34 -17 -107 -15 15 -20 -10 -19 -13 -19 80 -15 39 
-16 -36 -14 6 -15 0 -15 24 -14 -33 -14 21 -11 44 -15 88 
-7 -54 -11 79 -12 19 -12 76 -8 -67 -10 45 -10 45 -11 -10 
-8 -9 -8 55 -6 73 -5 19 -5 17 -7 26 -2 -46 -1 -9 
-3 30 -4 22 -1 -25 -8 11 -4 23 0 -63 2 -73 0 -7 
0 15 2 -76 4 54 3 -7 3 110 3 47 4 26 5 7 
-1 -128 2 11 9 88 2 -14 13 19 -3 -86 9 32 11 -61 
-4 -10 21 25 6 10 -4 -21 8 -134 16 125 -2 40 3 -13 
15 33 4 -6 25 46 -2 40 7 1 10 -17 8 -55 10 -26 
1 -41 15 90 4 5 17 -36 10 -19 4 -45 11 -35 12 16 
9 55 9 54 8 -25 11 -53 9 -62 8 7 10 -16 11 -26 
7 -66 10 -27 5 2 5704 2703 100 MP stroke
18 33 5 -23 10 63 5 -11 8 -63 9 -3 9 30 10 49 
10 -89 13 -168 9 77 10 105 8 42 9 -45 8 58 6 -76 
7 37 8 -26 2 46 4 -27 17 -129 8 -63 0 250 7 -183 
3 59 5 -19 3 -46 5 15 3 33 1 6 3 30 4 49 
1 -63 3 1 4 -30 1 20 9 -119 2 -23 4 -76 3 1 
4 4 4 -11 5 -32 3 -54 5 -96 5 -183 7 172 6 -55 
6 239 6 152 7 160 9 -97 10 108 10 -86 12 -162 15 -16 
11 -20 14 36 14 127 15 -51 12 45 14 44 14 -46 13 103 
15 -176 20 -14 14 -77 19 -175 17 -29 19 -237 15 -34 17 20 
17 98 17 17 17 -143 16 -277 16 -86 17 119 16 296 17 73 
18 84 16 -7 16 114 16 202 18 27 16 -39 17 102 18 46 
13 111 20 -30 22 54 15 77 17 66 16 130 20 58 13 -70 
13 45 18 -46 16 46 4642 2355 100 MP stroke
18 40 14 24 18 49 23 10 11 -51 15 -26 19 -191 22 -103 
14 0 13 -128 17 -15 11 21 14 19 13 156 19 -42 18 -43 
13 -4 18 26 21 10 15 -38 17 -102 9 -6 20 52 13 -5 
15 87 18 -15 18 61 17 14 17 -78 18 -13 26 -37 19 71 
20 85 17 14 27 -101 17 -17 23 93 13 -43 32 -178 34 -181 
4 118 31 176 22 249 25 99 24 -126 24 -39 21 17 22 -126 
28 -160 36 188 24 220 28 58 18 -43 21 -8 15 62 36 -51 
21 -77 23 -230 25 22 25 52 21 -5 22 51 20 26 20 48 
26 37 22 61 20 -17 17 -4 16 10 19 -77 18 -45 16 -39 
22 -51 18 84 11 6 16 29 13 -35 11 -32 11 28 17 -46 
11 27 9 -13 11 -33 10 10 12 36 9 8 8 4 15 12 
10 -10 10 -25 9 27 6 59 10 10 6 10 12 -18 10 -70 
8 60 5 -83 6 9 2920 2490 100 MP stroke
6 28 10 16 8 18 12 -24 4 14 8 -15 7 -5 7 8 
5 21 8 -11 9 31 5 31 7 29 8 -33 4 -48 4 -23 
4 -11 5 -11 5 -60 7 0 5 -17 7 -38 7 27 3 36 
4 -18 4 -43 5 -14 4 -31 5 41 5 98 5 45 9 33 
3 -30 4 23 4 11 4 17 3 -11 8 -19 9 -44 7 15 
3 -4 3 -37 4 69 4 1 3 2 3 -16 2 35 5 15 
0 -18 4 -13 -1 29 1 18 2 1 2 11 2 -6 3 -3 
1 47 1 33 0 14 1 -28 4 -19 1 -7 3 -8 1 12 
2 33 2 -3 0 -10 -1 -53 4 -54 1 -8 3 -54 1 45 
1 13 1 4 1 -11 0 8 1 19 0 -14 1 30 2 -36 
0 21 1 -31 2 -23 -4 67 -1 16 -1 17 0 14 -2 10 
-4 15 -1 6 -4 12 -1 12 -5 18 -1 -6 -6 -12 -2 -30 
-5 16 -6 24 -6 3 2657 2268 100 MP stroke
-6 -17 -8 -30 -8 31 -8 34 -7 -3 -6 34 -5 -4 -9 3 
-9 4 -7 -9 -7 -13 -6 50 -7 -14 -6 -50 -6 40 -9 -13 
-8 34 -7 22 -6 18 -9 85 -6 48 -8 13 -7 195 -7 -476 
-7 -21 -9 24 -5 18 -13 1 -12 68 -8 70 -11 21 -10 -59 
-10 -20 -10 17 -11 21 -13 23 -13 23 -13 2 -16 4 -17 2 
-14 20 -15 -5 -16 -2 -17 -2 -16 -8 -16 0 -14 -2 -13 -1 
-16 -1 -16 -8 -19 4 -16 6 -18 8 -17 -5 -17 -5 -17 1 
-18 17 -18 -11 -19 3 -19 15 -20 32 -19 6 -18 0 -17 -6 
-19 3 -20 2 -19 -10 -18 9 -19 -17 -18 0 -18 -4 -20 -7 
-19 15 -17 36 -19 16 -18 -3 -17 11 -19 4 -19 20 -18 9 
-18 -2 -18 -8 -18 -7 -18 13 -18 13 -18 13 -17 11 -17 1 
-19 6 -20 14 -17 21 -19 12 -18 6 -16 7 -16 -6 -20 -6 
-19 6 -19 18 -18 -2 4052 1842 100 MP stroke
-18 -2 -18 16 -20 26 -15 5 -21 7 -21 2 -19 11 -20 3 
-19 1 -18 0 -19 -3 -20 11 -18 10 -19 0 -17 5 -19 -1 
-17 11 -18 -18 -16 7 -16 6 -17 -4 -17 -1 -16 -5 -15 1 
-17 4 -15 19 -16 8 -16 -4 -15 -2 -15 6 -16 -5 -14 22 
-17 15 -15 7 -15 1 -16 6 -16 -10 -15 16 -15 0 -15 4 
-15 -7 -14 0 -15 5 -15 -19 -13 11 -14 -3 -13 -1 -13 7 
-14 0 -14 9 -12 17 -11 -12 -13 1 -12 -9 -12 -8 -13 -4 
-13 -17 -13 -17 -12 -9 -10 -8 -14 5 -11 1 -11 8 -11 2 
-11 15 -10 8 -9 5 -9 -24 -10 1 -9 27 -10 12 -9 -13 
-8 -6 -7 11 -7 2 -4 12 -5 1 -5 7 -5 8 -4 -7 
-4 3 -3 8 -3 9 -2 -5 -2 -8 0 7 -2 4 0 6 
2 1 2 -14 1 -5 2 -7 3 0 3 -4 3 9 3 -11 
3 2 4 11 4 8 5149 1642 100 MP stroke
5 -7 4 -17 5 -12 5 -11 7 -5 6 -18 6 -4 6 4 
7 -1 6 0 7 3 5 17 6 4 5 32 7 5 6 20 
8 17 5 10 8 -6 3 0 13 -26 1 19 5 -8 9 -19 
5 -13 7 -11 6 -2 7 13 6 -1 6 11 7 10 5 -2 
9 -16 0 -2 9 -35 3 8 3 10 2 -8 6 -11 0 9 
4 -19 1 -1 1 0 1 -7 0 1 0 -14 -1 0 -2 -1 
-1 -3 0 -14 -1 -6 -1 21 -2 18 0 29 -2 0 0 -12 
-2 -2 0 -4 -4 -3 -1 14 -2 -1 -1 -2 -4 12 -2 7 
-5 -4 -1 0 1 0 -6 -10 -2 -2 -2 10 -7 -17 1 -8 
-5 -6 -1 -6 -3 12 -2 12 -2 4 -2 0 -1 -5 -2 6 
-2 17 0 -5 -5 13 -3 -1 -1 0 -2 -11 -2 11 -1 -10 
-3 -18 1 6 -2 -9 0 10 -3 4 0 8 1 8 0 12 
1 -7 2 -7 8 -26 4992 1691 100 MP stroke
2 1 -2 14 5 -2 2 2 13 -24 6 -14 -2 18 1 -2 
1 1 12 -17 -6 23 18 -24 9 -6 -4 0 3 -2 -3 21 
9 -23 13 -29 -4 15 2 1 -1 4 1 11 4 4 9 -9 
-3 29 7 3 4 -4 -2 23 1 3 3 1 2 3 2 3 
3 -11 3 -6 -2 22 1 -8 0 2 8 -25 -1 17 1 -11 
0 9 12 -20 3 9 -1 14 1 -1 -1 3 2 -7 2 -9 
2 2 2 5 -1 5 2 4 1 2 3 -21 1 -4 1 -7 
1 -29 2 -10 -2 -14 0 -20 -6 -20 -3 2 -1 13 -4 -4 
-3 -6 -3 -12 -3 18 -5 -6 -3 6 -4 9 -4 18 -3 28 
-3 17 -4 19 -3 17 -2 10 -1 -3 -3 8 -1 -3 -2 -7 
-2 -5 0 -9 -2 10 -4 5 -2 -4 0 -5 -1 -19 -3 5 
-4 0 -1 -14 -4 1 -2 7 -1 15 -2 -5 0 -3 -1 0 
-1 -2 -2 9 0 -12 4940 1698 100 MP stroke
2 -5 3 -15 2 -15 4 7 3 -5 5 3 5 -7 6 -8 
5 -17 8 -18 7 -10 9 -9 9 -16 10 -1 9 26 11 32 
12 19 14 -17 14 -18 15 7 15 18 15 -1 17 6 18 7 
19 4 18 9 18 8 17 -2 19 -13 20 9 21 -10 20 -15 
19 -8 20 -13 18 4 21 -10 22 -22 19 11 22 -1 22 -5 
21 22 23 -13 19 -25 21 -10 22 -37 20 -1 21 -12 21 5 
20 14 21 -32 22 -39 20 -55 22 -42 19 -35 22 49 21 -45 
23 -14 19 -115 23 -98 23 54 23 41 23 -55 22 -205 21 43 
23 86 22 80 20 59 19 -99 21 -23 19 -59 20 59 19 107 
16 137 18 -16 17 -126 17 128 19 -34 15 -53 18 -132 17 -21 
14 -159 17 -79 18 137 20 134 17 -6 18 -25 18 -27 18 -23 
19 12 17 20 18 8 19 12 17 26 18 -5 19 -24 19 33 
18 5 19 -69 19 18 3253 2313 100 MP stroke
19 4 18 -20 18 31 18 -40 18 -15 20 -11 17 25 17 12 
17 17 15 -4 14 -20 15 14 14 24 14 18 15 26 13 12 
13 -21 13 0 12 -3 11 -16 9 -45 10 -31 10 -18 9 -16 
8 15 7 -69 9 -38 7 -80 6 -10 7 -76 5 -39 5 -84 
5 -48 8 -86 9 9 6 -106 7 -13 7 -41 7 24 6 150 
5 189 5 -20 5 -67 4 -94 1 -51 2 -72 2 170 2 119 
3 -66 5 88 2 78 6 126 3 -42 6 135 5 -45 8 -104 
8 66 11 50 12 53 15 69 16 23 17 -22 19 -26 18 -11 
17 -13 17 46 18 11 18 4 18 -56 16 6 17 -19 15 -36 
12 5 14 -36 14 -74 13 -91 12 67 11 -209 10 -66 8 71 
7 175 5 15 7 -120 7 -52 4 -93 3 25 3 -10 2 -1111 
0 775 2 182 1 59 0 71 -1 -79 -3 -37 2 -290 -3 175 
-2 197 1 183 0 59 2350 2602 100 MP stroke
-2 243 -6 -51 -3 -82 -4 -26 -2 73 -4 140 -6 -36 -3 -65 
-7 28 -10 91 -7 41 -5 44 -6 -22 -9 -21 -8 -121 -7 0 
-10 85 -12 -61 -8 -122 -8 -210 -10 22 -9 198 -13 -187 -10 -317 
-9 150 -12 46 -12 67 -8 100 -8 63 -8 23 -9 39 -9 -19 
-9 4 -7 6 -12 23 -11 -18 -6 7 -8 12 -8 -11 -8 21 
-8 8 -7 18 -5 -68 -5 13 -6 31 -6 24 -6 19 -6 -4 
-4 20 -7 -4 -6 -1 -6 35 -5 61 -6 67 -4 48 -6 20 
-6 -1 -8 13 -8 -6 -6 1 -7 -9 -3 -19 -6 -18 -8 -32 
-8 -25 -7 -19 -2 -16 -5 -22 -4 20 -5 6 -10 31 -5 14 
-8 10 -5 -37 -5 -37 -8 37 -8 1 -8 18 -10 -14 -8 -1 
-6 7 -9 16 -9 -4 -13 24 -7 -6 -10 12 -8 -12 -9 -43 
-12 -14 -11 -3 -11 79 -13 16 -14 16 -14 -11 -14 -6 -14 38 
-16 18 -14 -17 -11 -10 3129 2163 100 MP stroke
-13 5 -13 10 -16 5 -19 37 -13 7 -16 9 -13 -8 -15 13 
-15 -23 -16 -12 -17 7 -16 -10 -17 25 -17 -20 -15 -30 -14 -2 
-14 -20 -15 -12 -13 11 -12 6 -15 10 -14 19 -15 16 -13 21 
-12 -14 -13 -14 -13 17 -14 -8 -15 -26 -18 -13 -16 -36 -16 27 
-19 20 -16 5 -15 0 -16 -31 -16 -13 -17 -23 -18 14 -18 -13 
-18 22 -19 19 -17 -16 -17 -5 -19 9 -18 -18 -18 18 -20 -1 
-18 23 -21 34 -20 26 -19 1 -18 5 -19 -14 -19 -21 -19 -34 
-21 -16 -20 -15 -20 2 -21 17 -18 -26 -18 2 -18 -3 -20 -28 
-19 -7 -20 0 -20 17 -19 27 -19 13 -20 -14 -16 -6 -19 20 
-18 22 -18 -4 -18 -1 -18 -6 -17 11 -16 16 -17 5 -15 -21 
-14 9 -14 -24 -15 2 -16 -7 -16 14 -16 -44 -16 -25 -16 -13 
-15 -8 -14 7 -15 21 -15 -35 -14 13 -14 -25 -18 31 -14 11 
-15 25 -14 2 -14 27 4766 2173 100 MP stroke
-13 -27 -12 30 -14 -5 -13 6 -12 39 -14 -38 -14 -4 -13 -14 
-14 -3 -14 30 -12 -1 -15 11 -11 -5 -12 -2 -10 -9 -13 15 
-11 7 -11 30 -12 16 -8 7 -8 -5 -8 1 -9 1 -8 3 
-8 -49 -8 -23 -7 -21 -8 -7 -7 -34 -9 26 -6 2 -7 -16 
-8 -4 -1 5 -5 27 -5 30 -3 3 -6 20 -2 -9 -1 1 
-3 3 -1 -14 -1 2 -4 1 -1 20 -3 0 -1 20 -3 -16 
-1 33 -5 23 -5 -13 2 -6 -8 34 -4 7 3 -4 -4 -31 
-2 14 -4 -3 -3 -29 -7 33 -4 20 -11 13 -2 24 1 -8 
-3 -11 -17 18 -11 -18 4 -19 -2 13 -6 -12 -18 35 6 -36 
-11 0 -9 1 3 -14 -10 16 -3 -25 -9 -2 0 -5 -13 -10 
-7 -4 -8 -16 -9 -22 -6 -22 -9 5 -5 -1 -9 -26 -4 -8 
-9 16 -4 -25 -5 -2 -10 1 -4 -22 -8 10 -5 -7 -6 4 
-5 1 -5 6 -2 10 5428 2187 100 MP stroke
-8 0 -7 -54 -1 26 -9 -14 -4 -1 -7 25 -4 -21 -5 44 
-3 -5 -5 -5 0 20 -4 5 -3 -24 -5 -1 -4 0 -2 -3 
-5 40 0 15 -5 8 -3 13 -3 16 -3 10 -5 -7 -1 27 
-5 -1 0 -3 -7 -3 -3 -9 -2 -3 -1 -7 -2 16 2 12 
0 14 -2 -9 -2 -2 -1 8 -2 20 -1 33 -4 -32 -2 -7 
-1 -13 -4 9 -2 -11 -2 -10 -2 -23 -3 -27 -2 -56 -1 32 
-4 20 -3 34 -5 15 -1 -29 -8 -20 -5 25 -4 5 -3 13 
-7 -7 -3 -13 -6 -21 -9 4 1 7 -7 0 0 6 -7 -4 
0 27 -7 9 0 1 -7 -6 -4 22 -4 -39 -4 13 -5 40 
-5 -13 -7 28 -5 -32 -5 -23 -6 1 -6 -24 -6 -8 -6 15 
-6 0 -6 -12 -13 36 4 -40 -9 -55 -5 6 -8 3 -4 -58 
-4 -21 -8 6 -5 -130 -8 -16 -5 12 -7 -15 -8 32 -6 -7 
-20 20 2 17 -1 -8 5838 2329 100 MP stroke
1 43 -5 18 -2 -22 -4 4 -1 -6 -1 36 -1 18 1 2 
-1 19 1 26 2 20 2 17 2 11 3 -9 2 -13 4 -32 
2 15 6 -31 1 -26 5 2 5 15 4 -6 5 47 2 -3 
14 -25 -1 61 10 -26 9 18 2 -18 8 21 7 21 9 2 
8 -33 8 -59 8 38 9 20 9 46 11 -44 12 -54 12 -43 
11 30 12 15 11 47 13 24 13 8 13 38 14 31 13 -22 
15 21 14 -107 13 12 14 5 13 43 14 -34 14 -111 14 -2 
16 82 15 -165 15 108 14 105 14 134 16 43 14 4 16 105 
14 5 12 -55 16 72 14 41 18 3 14 -60 14 -56 16 -73 
13 -53 12 -28 11 -25 14 -100 13 126 14 -11 13 30 13 -12 
11 -19 13 -9 13 46 12 22 13 19 15 12 15 -76 12 -45 
11 -193 13 55 14 69 13 178 14 -22 14 -83 12 -27 14 36 
12 63 14 24 15 -37 4868 2028 100 MP stroke
15 77 16 4 15 28 14 -17 15 20 16 -36 17 33 16 169 
16 -72 15 -35 17 -117 16 -1 17 -102 16 33 17 37 16 -101 
18 46 16 72 18 -131 15 27 18 -68 19 34 16 83 17 -24 
17 24 18 -9 17 64 16 -46 15 -70 16 -122 18 7 16 16 
15 171 15 79 16 -112 15 74 14 84 14 21 14 -94 15 -204 
13 -245 14 75 12 109 14 12 10 61 10 -91 14 28 10 45 
8 59 10 -39 8 47 7 -23 6 -93 7 64 7 -3 4 -316 
4 106 6 -178 4 -5 1 -70 1 163 4 83 5 -83 0 255 
-2 6 3 67 5 -227 1 0 0 78 -1 15 1 33 0 107 
-2 68 -2 59 1 47 -1 17 0 63 0 -46 1 -239 3 -215 
-1 -99 0 178 2 41 2 132 0 -10 -2 -30 1 -4 1 -167 
0 -82 -1 -1 0 69 2 110 0 121 -1 -46 -2 10 1 -82 
1 -113 0 5 0 -167 4037 2527 100 MP stroke
2 -34 1 -309 0 85 1 150 1 67 0 70 2 74 1 126 
3 44 0 63 1 6 0 42 1 29 2 -115 1 145 -3 46 
0 27 1 36 0 -266 1 -13 -1 -58 0 40 0 -19 2 -70 
2 -172 2 31 2 -63 5 -87 3 -25 3 37 2 161 3 242 
3 169 2 -102 4 -121 2 0 1 61 2 111 3 -48 0 23 
0 -1 -1 -4 1 -131 -2 65 2 -168 -1 -65 0 -81 -1 279 
0 -170 0 178 -2 -47 -2 85 -1 42 -4 -58 -2 -32 -4 78 
-4 40 -3 -90 -2 9 -5 93 -4 -15 -4 -35 -2 -83 -3 -190 
-4 109 -3 -59 -3 -84 -2 -120 -5 -76 -4 14 -5 184 -4 209 
-5 15 -5 -14 -5 17 -3 31 -4 48 -4 83 -6 99 -4 -4 
-2 46 -3 26 -4 43 -4 8 -5 23 -5 18 -4 13 -6 4 
-7 1 -5 -6 -5 -2 -6 11 -7 3 -6 14 -7 -4 -6 -13 
-7 -10 -6 -6 -7 23 4194 1801 100 MP stroke
-6 2 -5 -3 -5 -5 -5 0 -6 9 -5 -5 -6 8 -5 -5 
-5 -1 -5 8 -5 -1 -6 0 -6 7 -8 10 -6 -11 -6 5 
-5 -9 -6 9 -6 13 -7 -3 -7 5 -7 11 -7 -6 -8 -10 
-8 8 -10 3 -9 19 -10 4 -11 -2 -10 -7 -11 17 -10 -19 
-14 9 -13 -7 -14 -8 -15 15 -13 6 -14 12 -15 -2 -14 1 
-15 -5 -15 -2 -15 2 -15 6 -14 -13 -15 -11 -13 8 -14 2 
-15 4 -15 7 -15 0 -16 -9 -15 14 -14 2 -14 -5 -15 3 
-14 0 -15 -7 -13 -8 -17 -3 -14 8 -17 12 -14 -8 -15 -7 
-16 -1 -14 1 -14 -6 -15 3 -14 -1 -15 -10 -14 -14 -15 -2 
-12 2 -17 -7 -12 -6 -16 6 -10 -12 -27 10 -14 -8 -5 -28 
-18 1 -13 37 -16 6 -12 6 -15 3 -13 4 -13 32 -12 -6 
-13 16 -11 14 -13 10 -12 -4 -13 -3 -13 0 -14 -12 -12 -9 
-14 0 -13 2 -15 13 5367 1697 100 MP stroke
-13 1 -14 -2 -15 -5 -15 -4 -13 -10 -16 -3 -15 -7 -13 6 
-15 3 -13 -5 -13 -14 -14 -2 -13 -18 -12 -7 -14 -25 -15 -17 
-12 -23 -15 10 -14 -12 -16 -10 -13 -10 -16 0 -14 -6 -15 -12 
-14 -35 -16 -8 -11 5 -19 36 -19 44 -2 -24 -16 10 -9 6 
-14 -3 -9 14 -15 12 -9 -17 -13 30 -8 -21 -21 35 -5 -22 
-17 9 -2 -20 -14 29 -16 4 1 -10 -20 23 -4 -7 -10 -1 
-4 27 -7 7 -5 13 -5 1 -6 17 -7 9 3 -3 -2 -17 
-1 -3 -2 -1 0 37 1 4 0 2 4 -8 0 -8 2 -8 
3 -9 3 13 4 -2 3 7 5 3 4 10 5 12 4 0 
5 19 4 14 3 27 8 3 5 0 8 16 7 21 9 6 
6 24 10 9 7 10 11 7 7 14 19 1 13 13 3 11 
13 0 10 6 11 4 12 5 11 6 12 -7 9 3 20 -9 
6 12 6 -6 11 -4 5739 1472 100 MP stroke
7 -1 9 -9 7 -9 9 -15 5 -3 7 -9 3 -5 5 -2 
2 -12 4 -4 3 13 3 -10 2 -31 2 -14 -1 -12 2 -12 
-1 -19 0 -7 -2 -2 -1 4 -4 11 -4 6 -6 8 -7 0 
-7 -7 -7 -14 -9 1 -7 4 -9 -8 -9 9 -9 3 -7 6 
-8 -6 -8 -33 -11 -12 -9 -19 -11 -18 -11 30 -12 -10 -13 9 
-14 -22 -15 -1 -15 70 -15 7 -16 14 -13 -4 -17 -48 -17 8 
-14 -68 -14 8 -16 60 -14 44 -13 20 -14 -26 -12 37 -11 -42 
-12 -10 -11 -27 -9 -25 -10 58 -9 73 -9 5 -9 -7 -8 17 
-8 -13 -7 -13 -7 -20 -7 -16 -6 -28 -5 -11 -6 -6 -6 -5 
-6 -25 -7 -10 -4 -5 -4 -22 -7 -9 -3 -8 -3 -21 -2 -2 
-3 2 -3 -15 -4 3 0 -25 -2 -29 -3 12 -3 13 6255 1783 88 MP stroke
gr

c8
0 sg
%%IncludeResource: font Helvetica
/Helvetica /WindowsLatin1Encoding 120 FMSR

1402  293 mt 
(Experiment 2b - Digital magnetometers - RMSE of position - \
function of distance) s
2502 4939 mt 
(Distance to center of sensor network [m]) s
 558 2825 mt  -90 rotate
(RMSE [mm]) s
90 rotate

end %%Color Dict

eplot
%%EndObject

epage
end

showpage

%%Trailer
%%EOF
