%!PS-Adobe-2.0 EPSF-1.2
%%Creator: MATLAB, The MathWorks, Inc. Version 7.13.0.564 (R2011b). Operating System: Microsoft Windows 7.
%%Title: ..\figures\digital_par_ori_rmse.eps
%%CreationDate: 11/13/2012  17:43:49
%%DocumentNeededFonts: Helvetica
%%DocumentProcessColors: Cyan Magenta Yellow Black
%%Extensions: CMYK
%%Pages: 1
%%BoundingBox:    52   196   542   602
%%EndComments

%%BeginProlog
% MathWorks dictionary
/MathWorks 160 dict begin
% definition operators
/bdef {bind def} bind def
/ldef {load def} bind def
/xdef {exch def} bdef
/xstore {exch store} bdef
% operator abbreviations
/c  /clip ldef
/cc /concat ldef
/cp /closepath ldef
/gr /grestore ldef
/gs /gsave ldef
/mt /moveto ldef
/np /newpath ldef
/cm /currentmatrix ldef
/sm /setmatrix ldef
/rm /rmoveto ldef
/rl /rlineto ldef
/s {show newpath} bdef
/sc {setcmykcolor} bdef
/sr /setrgbcolor ldef
/sg /setgray ldef
/w /setlinewidth ldef
/j /setlinejoin ldef
/cap /setlinecap ldef
/rc {rectclip} bdef
/rf {rectfill} bdef
% page state control
/pgsv () def
/bpage {/pgsv save def} bdef
/epage {pgsv restore} bdef
/bplot /gsave ldef
/eplot {stroke grestore} bdef
% orientation switch
/portraitMode 0 def /landscapeMode 1 def /rotateMode 2 def
% coordinate system mappings
/dpi2point 0 def
% font control
/FontSize 0 def
/FMS {/FontSize xstore findfont [FontSize 0 0 FontSize neg 0 0]
  makefont setfont} bdef
/ISOLatin1Encoding where {pop /WindowsLatin1Encoding 256 array bdef
ISOLatin1Encoding WindowsLatin1Encoding copy pop
/.notdef/.notdef/quotesinglbase/florin/quotedblbase/ellipsis/dagger
/daggerdbl/circumflex/perthousand/Scaron/guilsinglleft/OE/.notdef/.notdef
/.notdef/.notdef/quoteleft/quoteright/quotedblleft/quotedblright/bullet
/endash/emdash/tilde/trademark/scaron/guilsinglright/oe/.notdef/.notdef
/Ydieresis WindowsLatin1Encoding 128 32 getinterval astore pop}
{/WindowsLatin1Encoding StandardEncoding bdef} ifelse
/reencode {exch dup where {pop load} {pop StandardEncoding} ifelse
  exch dup 3 1 roll findfont dup length dict begin
  { 1 index /FID ne {def}{pop pop} ifelse } forall
  /Encoding exch def currentdict end definefont pop} bdef
/isroman {findfont /CharStrings get /Agrave known} bdef
/FMSR {3 1 roll 1 index dup isroman {reencode} {pop pop} ifelse
  exch FMS} bdef
/csm {1 dpi2point div -1 dpi2point div scale neg translate
 dup landscapeMode eq {pop -90 rotate}
  {rotateMode eq {90 rotate} if} ifelse} bdef
% line types: solid, dotted, dashed, dotdash
/SO { [] 0 setdash } bdef
/DO { [.5 dpi2point mul 4 dpi2point mul] 0 setdash } bdef
/DA { [6 dpi2point mul] 0 setdash } bdef
/DD { [.5 dpi2point mul 4 dpi2point mul 6 dpi2point mul 4
  dpi2point mul] 0 setdash } bdef
% macros for lines and objects
/L {lineto stroke} bdef
/MP {3 1 roll moveto 1 sub {rlineto} repeat} bdef
/AP {{rlineto} repeat} bdef
/PDlw -1 def
/W {/PDlw currentlinewidth def setlinewidth} def
/PP {closepath eofill} bdef
/DP {closepath stroke} bdef
/MR {4 -2 roll moveto dup  0 exch rlineto exch 0 rlineto
  neg 0 exch rlineto closepath} bdef
/FR {MR stroke} bdef
/PR {MR fill} bdef
/L1i {{currentfile picstr readhexstring pop} image} bdef
/tMatrix matrix def
/MakeOval {newpath tMatrix currentmatrix pop translate scale
0 0 1 0 360 arc tMatrix setmatrix} bdef
/FO {MakeOval stroke} bdef
/PO {MakeOval fill} bdef
/PD {currentlinewidth 2 div 0 360 arc fill
   PDlw -1 eq not {PDlw w /PDlw -1 def} if} def
/FA {newpath tMatrix currentmatrix pop translate scale
  0 0 1 5 -2 roll arc tMatrix setmatrix stroke} bdef
/PA {newpath tMatrix currentmatrix pop	translate 0 0 moveto scale
  0 0 1 5 -2 roll arc closepath tMatrix setmatrix fill} bdef
/FAn {newpath tMatrix currentmatrix pop translate scale
  0 0 1 5 -2 roll arcn tMatrix setmatrix stroke} bdef
/PAn {newpath tMatrix currentmatrix pop translate 0 0 moveto scale
  0 0 1 5 -2 roll arcn closepath tMatrix setmatrix fill} bdef
/vradius 0 def /hradius 0 def /lry 0 def
/lrx 0 def /uly 0 def /ulx 0 def /rad 0 def
/MRR {/vradius xdef /hradius xdef /lry xdef /lrx xdef /uly xdef
  /ulx xdef newpath tMatrix currentmatrix pop ulx hradius add uly
  vradius add translate hradius vradius scale 0 0 1 180 270 arc 
  tMatrix setmatrix lrx hradius sub uly vradius add translate
  hradius vradius scale 0 0 1 270 360 arc tMatrix setmatrix
  lrx hradius sub lry vradius sub translate hradius vradius scale
  0 0 1 0 90 arc tMatrix setmatrix ulx hradius add lry vradius sub
  translate hradius vradius scale 0 0 1 90 180 arc tMatrix setmatrix
  closepath} bdef
/FRR {MRR stroke } bdef
/PRR {MRR fill } bdef
/MlrRR {/lry xdef /lrx xdef /uly xdef /ulx xdef /rad lry uly sub 2 div def
  newpath tMatrix currentmatrix pop ulx rad add uly rad add translate
  rad rad scale 0 0 1 90 270 arc tMatrix setmatrix lrx rad sub lry rad
  sub translate rad rad scale 0 0 1 270 90 arc tMatrix setmatrix
  closepath} bdef
/FlrRR {MlrRR stroke } bdef
/PlrRR {MlrRR fill } bdef
/MtbRR {/lry xdef /lrx xdef /uly xdef /ulx xdef /rad lrx ulx sub 2 div def
  newpath tMatrix currentmatrix pop ulx rad add uly rad add translate
  rad rad scale 0 0 1 180 360 arc tMatrix setmatrix lrx rad sub lry rad
  sub translate rad rad scale 0 0 1 0 180 arc tMatrix setmatrix
  closepath} bdef
/FtbRR {MtbRR stroke } bdef
/PtbRR {MtbRR fill } bdef
/stri 6 array def /dtri 6 array def
/smat 6 array def /dmat 6 array def
/tmat1 6 array def /tmat2 6 array def /dif 3 array def
/asub {/ind2 exch def /ind1 exch def dup dup
  ind1 get exch ind2 get sub exch } bdef
/tri_to_matrix {
  2 0 asub 3 1 asub 4 0 asub 5 1 asub
  dup 0 get exch 1 get 7 -1 roll astore } bdef
/compute_transform {
  dmat dtri tri_to_matrix tmat1 invertmatrix 
  smat stri tri_to_matrix tmat2 concatmatrix } bdef
/ds {stri astore pop} bdef
/dt {dtri astore pop} bdef
/db {2 copy /cols xdef /rows xdef mul dup 3 mul string
  currentfile exch readhexstring pop
  dup 0 3 index getinterval /rbmap xdef
  dup 2 index dup getinterval /gbmap xdef
  1 index dup 2 mul exch getinterval /bbmap xdef pop pop}bdef
/it {gs np dtri aload pop moveto lineto lineto cp c
  cols rows 8 compute_transform 
  rbmap gbmap bbmap true 3 colorimage gr}bdef
/il {newpath moveto lineto stroke}bdef
currentdict end def
%%EndProlog

%%BeginSetup
MathWorks begin

0 cap

end
%%EndSetup

%%Page: 1 1
%%BeginPageSetup
%%PageBoundingBox:    52   196   542   602
MathWorks begin
bpage
%%EndPageSetup

%%BeginObject: obj1
bplot

/dpi2point 12 def
portraitMode 0204 7344 csm

  422   110  5883  4881 MR c np
85 dict begin %Colortable dictionary
/c0 { 0.000000 0.000000 0.000000 sr} bdef
/c1 { 1.000000 1.000000 1.000000 sr} bdef
/c2 { 0.900000 0.000000 0.000000 sr} bdef
/c3 { 0.000000 0.820000 0.000000 sr} bdef
/c4 { 0.000000 0.000000 0.800000 sr} bdef
/c5 { 0.910000 0.820000 0.320000 sr} bdef
/c6 { 1.000000 0.260000 0.820000 sr} bdef
/c7 { 0.000000 0.820000 0.820000 sr} bdef
c0
1 j
1 sg
   0    0 6913 5185 PR
6 w
0 4225 5356 0 0 -4225 899 4614 4 MP
PP
-5356 0 0 4225 5356 0 0 -4225 899 4614 5 MP stroke
4 w
DO
SO
6 w
0 sg
 899  389 mt 6255  389 L
 899 4614 mt 6255 4614 L
6255 4614 mt 6255  389 L
 899 4614 mt  899  389 L
 899 4614 mt 6255 4614 L
 899 4614 mt  899  389 L
 899 4614 mt  899 4614 L
 899 4614 mt  899 4614 L
 899 4614 mt  899 4614 L
 899 4614 mt  899 4614 L
 899 4614 mt  899 4614 L
 899 4614 mt  899 4614 L
 899 4614 mt  899 4614 L
 899 4614 mt  899 4614 L
 899 4614 mt  899 4614 L
 899 4614 mt  899 4614 L
 899 4614 mt  899 4614 L
 899 4614 mt  899 4614 L
 899 4614 mt  899 4614 L
 899 4614 mt  899 4614 L
 899 4614 mt  899 4614 L
 899 4614 mt  899 4614 L
 899 4614 mt  899 4614 L
 899 4614 mt  899 4614 L
1874 4614 mt 1874 4560 L
1874  389 mt 1874  442 L
%%IncludeResource: font Helvetica
/Helvetica /WindowsLatin1Encoding 120 FMSR

1729 4796 mt 
(10) s
%%IncludeResource: font Helvetica
/Helvetica /WindowsLatin1Encoding 80 FMSR

1862 4722 mt 
(-0.8) s
 899 4614 mt  899 4614 L
 899 4614 mt  899 4614 L
 899 4614 mt  899 4614 L
 899 4614 mt  899 4614 L
 899 4614 mt  899 4614 L
 899 4614 mt  899 4614 L
 899 4614 mt  899 4614 L
 899 4614 mt  899 4614 L
 899 4614 mt  899 4614 L
 899 4614 mt  899 4614 L
 899 4614 mt  899 4614 L
 899 4614 mt  899 4614 L
 899 4614 mt  899 4614 L
 899 4614 mt  899 4614 L
 899 4614 mt  899 4614 L
 899 4614 mt  899 4614 L
 899 4614 mt  899 4614 L
 899 4614 mt  899 4614 L
3912 4614 mt 3912 4560 L
3912  389 mt 3912  442 L
%%IncludeResource: font Helvetica
/Helvetica /WindowsLatin1Encoding 120 FMSR

3767 4796 mt 
(10) s
%%IncludeResource: font Helvetica
/Helvetica /WindowsLatin1Encoding 80 FMSR

3900 4722 mt 
(-0.7) s
 899 4614 mt  899 4614 L
 899 4614 mt  899 4614 L
 899 4614 mt  899 4614 L
 899 4614 mt  899 4614 L
 899 4614 mt  899 4614 L
 899 4614 mt  899 4614 L
 899 4614 mt  899 4614 L
 899 4614 mt  899 4614 L
 899 4614 mt  899 4614 L
 899 4614 mt  899 4614 L
 899 4614 mt  899 4614 L
 899 4614 mt  899 4614 L
 899 4614 mt  899 4614 L
 899 4614 mt  899 4614 L
 899 4614 mt  899 4614 L
 899 4614 mt  899 4614 L
 899 4614 mt  899 4614 L
 899 4614 mt  899 4614 L
5950 4614 mt 5950 4560 L
5950  389 mt 5950  442 L
%%IncludeResource: font Helvetica
/Helvetica /WindowsLatin1Encoding 120 FMSR

5805 4796 mt 
(10) s
%%IncludeResource: font Helvetica
/Helvetica /WindowsLatin1Encoding 80 FMSR

5938 4722 mt 
(-0.6) s
 899 4614 mt  899 4614 L
 899 4614 mt  899 4614 L
 899 4614 mt  899 4614 L
 899 4614 mt  899 4614 L
 899 4614 mt  899 4614 L
 899 4614 mt  899 4614 L
 899 4614 mt  899 4614 L
 899 4614 mt  899 4614 L
 899 4614 mt  899 4614 L
 899 4614 mt  899 4614 L
 899 4614 mt  899 4614 L
 899 4614 mt  899 4614 L
 899 4614 mt  899 4614 L
 899 4614 mt  899 4614 L
 899 4614 mt  899 4614 L
 899 4614 mt  899 4614 L
 899 4614 mt  899 4614 L
 899 4614 mt  899 4614 L
 899 4614 mt  925 4614 L
6255 4614 mt 6228 4614 L
 899 4614 mt  952 4614 L
6255 4614 mt 6201 4614 L
%%IncludeResource: font Helvetica
/Helvetica /WindowsLatin1Encoding 120 FMSR

 640 4658 mt 
(10) s
%%IncludeResource: font Helvetica
/Helvetica /WindowsLatin1Encoding 80 FMSR

 773 4584 mt 
(-2) s
 899 4190 mt  925 4190 L
6255 4190 mt 6228 4190 L
 899 3942 mt  925 3942 L
6255 3942 mt 6228 3942 L
 899 3766 mt  925 3766 L
6255 3766 mt 6228 3766 L
 899 3629 mt  925 3629 L
6255 3629 mt 6228 3629 L
 899 3518 mt  925 3518 L
6255 3518 mt 6228 3518 L
 899 3423 mt  925 3423 L
6255 3423 mt 6228 3423 L
 899 3342 mt  925 3342 L
6255 3342 mt 6228 3342 L
 899 3270 mt  925 3270 L
6255 3270 mt 6228 3270 L
 899 3205 mt  925 3205 L
6255 3205 mt 6228 3205 L
 899 3205 mt  952 3205 L
6255 3205 mt 6201 3205 L
%%IncludeResource: font Helvetica
/Helvetica /WindowsLatin1Encoding 120 FMSR

 640 3249 mt 
(10) s
%%IncludeResource: font Helvetica
/Helvetica /WindowsLatin1Encoding 80 FMSR

 773 3175 mt 
(-1) s
 899 2781 mt  925 2781 L
6255 2781 mt 6228 2781 L
 899 2533 mt  925 2533 L
6255 2533 mt 6228 2533 L
 899 2357 mt  925 2357 L
6255 2357 mt 6228 2357 L
 899 2221 mt  925 2221 L
6255 2221 mt 6228 2221 L
 899 2109 mt  925 2109 L
6255 2109 mt 6228 2109 L
 899 2015 mt  925 2015 L
6255 2015 mt 6228 2015 L
 899 1933 mt  925 1933 L
6255 1933 mt 6228 1933 L
 899 1861 mt  925 1861 L
6255 1861 mt 6228 1861 L
 899 1797 mt  925 1797 L
6255 1797 mt 6228 1797 L
 899 1797 mt  952 1797 L
6255 1797 mt 6201 1797 L
%%IncludeResource: font Helvetica
/Helvetica /WindowsLatin1Encoding 120 FMSR

 640 1841 mt 
(10) s
%%IncludeResource: font Helvetica
/Helvetica /WindowsLatin1Encoding 80 FMSR

 773 1767 mt 
(0) s
 899 1373 mt  925 1373 L
6255 1373 mt 6228 1373 L
 899 1125 mt  925 1125 L
6255 1125 mt 6228 1125 L
 899  949 mt  925  949 L
6255  949 mt 6228  949 L
 899  812 mt  925  812 L
6255  812 mt 6228  812 L
 899  701 mt  925  701 L
6255  701 mt 6228  701 L
 899  607 mt  925  607 L
6255  607 mt 6228  607 L
 899  525 mt  925  525 L
6255  525 mt 6228  525 L
 899  453 mt  925  453 L
6255  453 mt 6228  453 L
 899  389 mt  925  389 L
6255  389 mt 6228  389 L
 899  389 mt  952  389 L
6255  389 mt 6201  389 L
%%IncludeResource: font Helvetica
/Helvetica /WindowsLatin1Encoding 120 FMSR

 640  433 mt 
(10) s
%%IncludeResource: font Helvetica
/Helvetica /WindowsLatin1Encoding 80 FMSR

 773  359 mt 
(1) s
 899  389 mt 6255  389 L
 899 4614 mt 6255 4614 L
6255 4614 mt 6255  389 L
 899 4614 mt  899  389 L
gs 899 389 5357 4226 MR c np
/c8 { 0.000000 0.000000 1.000000 sr} bdef
c8
23 45 22 41 24 -30 23 -26 24 -12 23 14 25 -7 22 1 
21 12 28 14 25 5 26 -4 23 -12 22 -7 20 -13 25 18 
23 1 18 -25 23 8 19 12 20 -7 20 2 21 -13 16 10 
19 10 19 2 20 10 18 -4 18 14 16 4 14 1 15 2 
18 -9 17 -18 20 -15 16 -27 17 -2 18 4 15 5 13 -9 
17 -16 15 7 17 10 19 -4 19 -12 16 -1 19 -7 14 -2 
19 5 14 13 18 13 17 1 19 -9 15 -11 22 -21 15 -11 
16 14 14 19 19 -10 15 2 18 10 14 -3 17 -19 13 -25 
19 3 12 3 19 -10 13 -16 19 -15 13 -9 18 10 11 1 
20 -1 9 8 22 11 5 6 31 -13 15 -14 21 -4 16 -11 
8 -1 32 -13 10 -8 21 -14 15 3 19 0 16 18 18 -4 
6 6 36 4 -4 3 34 30 34 -19 -11 -9 29 -21 6 -14 
16 13 25 -16 10 17 4416 1206 100 MP stroke
21 3 13 20 18 -25 18 0 19 -1 15 -7 19 -11 29 15 
-3 -10 8 23 26 29 5 -7 21 0 7 0 19 -12 7 -1 
18 -5 0 7 48 10 3 11 1 -1 0 5 11 38 7 26 
12 -5 5 14 13 1 11 17 8 10 8 -5 9 7 8 -5 
8 4 5 7 5 12 10 -13 4 -13 9 1 4 17 2 -4 
7 1 3 20 1 5 4 -6 2 -16 3 -30 2 0 2 -10 
4 -11 2 -5 1 -1 2 27 -5 -19 2 8 2 7 -6 -7 
2 4 -3 2 0 10 -6 -5 -1 1 -1 -11 -4 5 -4 -1 
-1 -8 -2 -17 -2 -16 -4 2 -5 -8 -8 7 -3 9 -4 21 
-7 -20 -9 -19 2 21 -6 5 -1 2 -6 -8 0 -10 -11 37 
-3 6 -3 4 -1 -17 -8 3 0 -2 -6 0 -3 4 -6 9 
-3 4 -8 -1 -3 11 -6 -8 -4 -9 -7 3 -2 -3 -14 -19 
-10 -35 -7 -11 -8 24 4125 1125 100 MP stroke
-11 9 -8 -27 -8 5 2 35 -7 -4 -11 7 -16 2 -13 6 
-3 -7 -9 12 -9 0 -9 19 -13 -7 -18 -42 -9 -5 -10 -19 
-8 -16 -10 -14 -10 -1 -9 -33 -4 28 -4 21 -13 -5 -8 10 
-11 -15 -7 -4 -10 -22 -7 -17 -14 9 -10 20 -2 -22 -11 2 
-10 5 -8 -45 -20 -31 -3 13 -10 3 -15 12 0 -17 -7 14 
-12 -10 0 44 -9 13 -6 -17 -9 0 -1 -18 -8 -8 1 4 
-9 -9 -5 8 -8 3 -1 17 -7 11 -9 -35 -4 -3 0 -12 
-10 -12 -5 1 -10 -14 -15 -37 -1 4 -7 24 -6 -12 -6 -2 
-15 -31 -4 13 -12 -80 -11 -23 -7 12 -14 24 -13 -33 3 17 
-7 22 -7 -57 -11 -6 -4 -7 -12 24 -13 22 -1 6 -13 0 
-8 -11 -6 -22 -12 -12 -11 -17 -9 -1 -11 -14 -10 19 -11 -31 
-8 -5 -10 5 -11 10 -13 -17 -10 -3 -17 42 -14 9 -5 15 
-16 -18 -20 14 -3 22 4981 1418 100 MP stroke
-11 -15 -9 -40 -20 -18 -6 -7 -9 8 -15 1 -9 -5 -11 -57 
-9 -16 -13 -5 -9 -7 -12 11 -6 -68 -24 27 -5 0 -20 -36 
-8 22 -9 -28 -5 17 -13 -1 -2 -28 -8 -56 -7 -25 -10 1 
-4 33 -3 -14 -10 -24 -8 -47 -12 -5 -4 -46 -11 -15 0 -12 
-11 49 -5 -18 -11 57 -4 -40 -6 -15 -1 -107 -10 27 -21 52 
-2 -75 -3 -74 -6 15 -16 10 -19 -2 4 36 -8 15 -15 -50 
-3 -57 -6 36 -16 -61 2 15 -22 45 -7 109 -13 -6 -8 -16 
-3 19 -19 -16 -14 49 -9 65 -13 -9 0 -13 -24 -7 -1 0 
-11 6 -10 -92 -10 -5 -10 -58 -8 -36 -10 25 -10 -44 -12 -4 
-9 -32 -11 63 -9 121 -7 -49 -10 -31 -17 93 -12 41 -12 -45 
-15 21 -11 75 -9 50 -19 -13 -9 74 -4 -9 -14 14 -4 61 
-17 -20 -6 -45 -6 -2 -10 -49 -15 7 -1 -10 -6 35 -4 -10 
-6 -16 -1 -47 -8 -13 5906 1784 100 MP stroke
-4 4 -6 56 -7 71 -5 26 -6 -37 -4 -29 -3 -60 -10 -10 
-1 -8 -6 30 -16 27 3 18 -6 -50 -3 -31 -3 -18 -17 -74 
-2 -19 3 -12 -8 81 -14 68 4 -27 -2 24 -5 -23 -6 12 
-14 21 -2 49 4 -13 -13 52 -9 28 3 11 -1 37 -4 -77 
-15 -5 4 15 -7 20 -5 21 1 -10 -5 69 -7 8 0 15 
-1 7 -4 31 2 -2 -4 -13 0 -9 -4 22 0 9 1 -14 
-4 32 -1 -7 1 10 -1 9 0 14 3 -34 2 -1 0 43 
-1 -6 1 -6 2 10 2 3 2 -39 3 2 4 -9 4 11 
3 30 5 -10 2 10 3 13 12 -63 3 9 3 11 7 2 
4 -4 6 4 4 8 6 -11 2 16 3 36 6 -8 5 5 
6 -32 4 20 12 -37 6 6 7 10 7 15 6 -34 7 -8 
3 -7 6 22 7 7 7 10 6 10 7 24 6 -8 16 -24 
9 -12 8 0 10 17 5879 1434 100 MP stroke
7 -16 10 14 7 -6 8 13 8 21 11 -5 10 4 9 19 
11 -62 18 -80 21 -93 4 2 8 -6 9 28 10 -6 10 40 
9 -2 10 -14 10 8 13 41 16 -74 10 9 13 -12 10 -17 
10 53 14 3 12 13 13 -20 13 -40 9 31 11 -5 9 -11 
18 -90 11 -16 11 36 10 10 11 -1 11 -5 13 16 12 -22 
12 -58 11 11 13 9 9 2 17 -44 16 -134 10 -41 20 -45 
2 20 14 -28 13 -46 16 -37 16 -47 11 3 16 -11 11 27 
15 -52 12 -11 19 -186 16 -81 12 111 16 -64 15 50 15 50 
17 -16 14 38 17 -29 13 -18 34 -68 8 -78 12 17 19 40 
17 -53 17 73 20 -131 22 -94 14 194 20 -172 17 9 20 -60 
17 -55 19 -130 17 218 22 -194 16 17 23 -76 27 -99 2 5 
23 79 12 66 23 -188 15 -204 22 369 11 139 32 157 30 -78 
-8 48 15 -595 18 -411 4495 3558 100 MP stroke
29 438 3 179 16 24 15 -54 12 -487 27 394 8 158 21 394 
9 178 22 -85 1 73 17 -76 9 -78 25 66 2 -34 9 -61 
16 236 14 -116 11 48 11 -52 11 -74 11 126 7 -28 11 -141 
20 -66 -4 92 23 -24 4 35 8 -202 12 77 20 78 -1 21 
13 15 6 -11 23 -149 7 -81 -2 103 11 -276 7 -205 18 -472 
18 620 -6 253 9 -76 7 -898 27 642 -2 -182 4 429 8 -32 
13 172 4 477 19 -21 0 323 13 9 11 -28 7 -204 11 -3 
-2 32 13 4 27 3 4 10 -2 39 18 -68 15 8 -3 -34 
17 -21 10 -7 18 -79 19 -63 9 -20 20 -102 2 93 19 24 
25 -37 10 -97 12 29 25 -13 10 50 34 62 8 74 14 -40 
18 34 28 -42 22 146 13 30 23 20 5 114 26 -8 13 -36 
19 75 16 -44 20 22 15 -37 22 -48 19 -105 17 150 10 77 
19 -5 15 30 20 111 3208 1783 100 MP stroke
15 19 14 61 14 76 12 14 16 18 15 193 13 36 15 -68 
18 34 7 -30 3 -139 18 -81 9 -177 12 -91 8 -1 8 22 
9 -21 14 205 15 141 3 -11 8 7 14 3 12 3 9 -40 
10 -19 11 -29 13 41 10 14 10 -3 10 5 10 33 12 18 
11 -2 9 -17 11 12 15 21 11 21 9 0 17 -20 7 -7 
7 -29 14 26 8 -45 13 -8 11 -14 14 -1 11 29 12 2 
14 -3 15 35 15 27 13 6 10 -44 15 14 13 29 14 3 
10 11 10 -8 10 -13 8 1 7 5 8 12 6 17 6 5 
4 12 6 6 5 8 2 -2 5 15 3 -5 3 12 5 -1 
1 -16 2 21 2 -4 2 25 2 23 2 10 -2 0 2 6 
-1 -16 3 8 0 -7 2 15 -3 -9 2 0 -2 -24 2 -14 
-1 -13 -1 15 1 4 -5 -36 -1 -24 -1 15 2 15 1 28 
3 -2 -1 3 0 5 2443 1412 100 MP stroke
4 -8 7 0 0 7 1 -10 7 -39 1 -12 7 -12 1 4 
5 9 5 29 4 -24 6 22 11 -24 6 42 8 3 6 17 
7 16 9 24 10 24 9 16 10 13 11 -6 11 -30 8 -22 
13 -10 12 -6 14 10 9 0 12 -13 8 -6 12 12 7 1 
13 3 8 -20 9 4 7 -32 20 28 0 10 10 17 11 24 
2 12 10 19 6 3 8 5 8 -8 7 7 6 4 6 15 
9 0 4 -4 4 -14 7 -11 3 12 3 -5 6 13 5 6 
5 -24 4 -36 5 -30 15 2 1 -9 8 -13 6 3 5 7 
6 1 7 18 6 11 9 1 12 22 0 4 10 -16 3 -1 
13 -5 4 5 11 8 6 -5 7 -20 7 11 7 -1 7 -10 
1 -25 14 -7 -3 -26 10 16 7 6 3 -8 3 -4 2 -18 
2 10 -1 3 2 40 -2 12 2 -16 -5 14 0 7 -7 17 
1 -2 -3 7 -4 10 1844 1338 100 MP stroke
-3 -9 -4 -29 -5 -22 -5 -4 -8 -2 -6 -33 -6 5 -8 -7 
-8 -10 -8 3 -9 -1 -3 -8 -12 -37 -4 -9 -16 -2 -3 -11 
-11 -17 -4 -38 -6 25 -9 15 -9 0 -7 -2 -19 -42 -6 7 
-6 7 -19 -6 -6 14 -16 5 -7 12 -12 -2 -8 1 -9 27 
-4 -26 -16 27 -1 -10 -11 -9 -3 9 -10 -11 0 7 -14 13 
-7 15 -8 1 -5 -15 -9 9 -5 20 -5 -18 -4 -14 -6 10 
-14 83 -6 11 -5 7 -2 -17 -4 -34 -1 -27 -4 23 -1 12 
-3 15 -2 -29 -4 9 1 -27 0 -18 1 -26 0 -19 0 3 
1 -8 0 16 1 10 5 30 1 8 5 -15 9 -34 1 11 
6 -3 4 15 7 23 6 5 6 5 4 19 4 -29 6 44 
9 -38 9 -65 3 28 6 -15 5 -9 7 16 4 19 6 4 
4 -2 7 35 4 -10 5 -13 5 -14 3 2 3 1 1 8 
2 -25 4 -18 2 -19 2103 1552 100 MP stroke
0 6 -9 75 4 -45 5 -76 -2 22 2 -13 -1 -30 -1 12 
-3 30 -5 68 4 -49 3 -49 -7 99 5 -77 3 -31 -1 23 
3 -20 1 27 -1 -17 -3 41 1 -4 5 -28 2 -22 1 9 
1 -15 4 32 3 2 5 23 7 11 7 11 8 -9 8 3 
6 8 7 -24 6 -16 7 17 9 -14 9 9 10 -39 10 14 
11 -13 14 21 14 15 8 14 13 -5 7 70 11 -10 17 -158 
11 41 14 8 13 26 14 -3 15 41 16 18 11 11 13 -3 
13 22 15 -3 14 19 11 -38 17 -51 12 54 16 -21 14 2 
16 28 15 6 16 7 18 1 11 33 14 -46 16 -40 15 1 
15 -56 12 -4 15 -8 13 21 15 7 12 -12 14 -8 11 -8 
13 -11 12 -14 13 8 12 14 13 -9 12 9 13 8 11 -21 
14 -17 9 -10 13 -1 10 -37 9 -35 9 -65 9 -4 9 42 
8 -4 9 -22 9 10 1241 1768 100 MP stroke
9 -37 13 5 10 -15 13 19 9 -46 8 -62 12 -24 8 -28 
21 -57 5 -2 19 -59 2 -47 15 -9 13 -9 7 -71 13 -42 
-2 19 29 -84 -5 -126 9 -3 4 4 14 0 13 -25 -5 -24 
41 238 5 124 -3 8 3 -1 -4 -42 12 63 3 2 6 -5 
12 -22 4 -30 7 24 4 71 4 47 4 14 3 18 3 49 
2 29 2 -27 0 -4 0 74 -1 12 0 1 0 -35 1 69 
-1 26 0 33 -1 -17 -1 27 0 12 -1 -9 -4 36 1 -19 
-2 21 -2 7 0 -21 -1 -26 1 -13 -1 0 1 40 -2 36 
1 2 -4 10 0 30 1 14 -1 -26 1 -43 -2 -58 -4 3 
1 -45 -2 -16 -1 -6 0 -13 -2 -6 -4 46 -2 28 -5 21 
1 33 -2 -30 -3 -16 -1 22 1 7 -2 -46 0 1 -4 -24 
0 -16 -2 -17 1 23 -3 12 0 40 -3 17 2 8 -4 -7 
0 10 -3 22 -1 12 958 1689 100 MP stroke
-9 -5 2 -48 -5 -24 -8 11 -4 -31 -2 -16 -6 -17 -6 -20 
-6 -6 -7 -25 0 3 -8 -39 -6 -4 -12 12 -11 -2 -3 -49 
-9 46 -2 17 -22 41 -1 -1 -11 37 -11 -9 -4 -2 -8 -10 
-18 36 -6 35 -10 -74 -5 -25 -6 -15 -15 -1 -13 68 -1 -26 
-12 12 -4 -35 -16 72 -17 -21 -4 26 -6 48 -16 77 -12 155 
-5 4 -17 -96 -8 -196 -15 -97 -17 26 -2 -261 -17 -387 -11 68 
-8 645 -13 -97 -24 6 -1 -234 -15 494 -12 -3 -14 11 -13 -70 
-18 -118 -13 -45 -18 -23 -14 -142 -15 -29 -17 52 -17 -6 -13 -6 
-11 -88 -24 13 -30 -11 1 55 -22 -116 -14 -44 -22 -34 -31 -177 
-5 222 -15 94 -18 -544 -30 688 -19 164 -3 -230 -25 -338 -9 31 
-30 -18 -21 26 -7 -278 -16 -172 -21 -327 -15 161 -25 326 -28 124 
-6 96 -16 124 -35 5 -16 -92 -9 204 -25 -148 -19 -52 -23 -97 
-19 -301 -22 -428 -15 279 2240 2885 100 MP stroke
-20 144 -25 -462 -20 47 -18 -390 -16 503 -26 -348 -24 29 -20 678 
-23 0 -19 136 -21 93 -24 8 -18 107 -23 72 -17 52 -42 68 
-8 -32 -21 -3 -38 -28 1 174 -36 1 -14 -71 -45 -15 -3 14 
-25 -5 -14 39 -37 76 -26 33 -8 39 -27 -94 -22 -19 -21 -74 
-30 14 -35 21 -2 -19 -29 30 -17 84 -25 60 -21 -32 -43 19 
1 9 -31 62 -12 -47 -47 -126 -7 -60 -38 2 -4 61 -29 -29 
-30 101 -4 0 -28 38 -18 14 -39 39 -4 47 -19 54 -23 54 
-18 23 -36 36 -16 65 -22 15 -18 26 -25 -42 -17 -4 -27 -5 
-2 11 -38 -12 -10 0 -15 34 -41 -17 2 5 -29 -32 -9 11 
-39 -6 -5 -10 -31 -1 -4 -13 -19 16 -12 26 -30 -40 -10 3 
-31 -39 -18 11 6 11 -18 -46 -19 -51 -20 46 1 -42 -26 -35 
-6 -11 -16 22 -9 34 -14 31 -10 -33 -12 15 -10 33 -10 -14 
-4 19 -12 4 -12 -4 4185 1677 100 MP stroke
-14 10 -7 4 -13 13 -9 22 -11 22 -4 -8 -33 -50 5 11 
-5 32 -16 8 -15 -20 -7 1 -14 -42 -11 -31 -13 -3 -12 -20 
-7 13 -10 -21 -24 11 -3 36 -15 5 -21 3 -2 22 -17 7 
-12 -11 -23 2 -7 1 -9 -15 -16 -42 -10 -15 -17 -41 -13 17 
-18 -20 -13 -30 -16 -8 -13 52 -15 10 -12 8 -16 -12 -12 -28 
-16 -16 -12 -25 -14 -27 -13 30 -12 23 -10 20 -12 4 -10 14 
-12 38 -10 47 -13 -11 -10 14 -12 -26 -10 0 -11 -67 -9 -121 
-8 58 -8 48 -9 29 -8 -12 -9 17 -7 -5 -8 6 -9 5 
-6 -2 -6 13 -10 26 -1 61 -7 -2 -4 -23 -7 -4 -3 -4 
-6 -41 -5 -17 -6 -1 -2 -8 -4 8 -3 -44 -1 -24 -1 -47 
-1 38 1 15 1 39 2 21 1 -9 4 -23 4 7 1 29 
2 -3 5 -13 2 21 7 -14 4 27 8 11 6 -48 8 -9 
6 23 7 22 6 7 4935 1709 100 MP stroke
6 -63 8 -43 9 29 5 3 7 6 6 26 6 15 4 17 
6 20 4 13 6 1 4 -48 4 6 3 -11 4 41 0 53 
4 87 -1 -14 3 11 0 38 2 27 -1 4 2 -20 -1 -10 
1 15 -2 2 1 1 -3 -19 0 9 -3 13 -1 11 -2 -16 
0 16 -1 9 -1 7 -2 -30 0 -48 -2 1 1 11 0 21 
1 -12 0 -2 2 7 1 12 3 41 1 14 3 28 1 31 
4 16 2 -1 5 -14 3 -15 6 -17 5 -14 6 19 5 -11 
8 -1 5 -24 7 -24 6 4 7 10 6 -11 7 -35 6 17 
8 5 7 22 8 -9 15 -14 2 13 8 -19 9 -20 9 -37 
8 -16 8 14 8 -41 9 -26 13 -41 5 27 14 31 -2 11 
18 -22 2 -10 13 9 2 12 7 1 12 38 11 -19 1 -10 
20 21 0 -51 10 -5 8 6 15 23 5 -12 20 18 5 -4 
8 24 10 -12 11 -29 4452 1622 100 MP stroke
10 -2 12 15 10 -3 14 1 9 32 15 23 9 24 16 -47 
6 -14 24 -4 9 18 8 -22 15 -34 13 -19 11 -42 22 1 
18 -35 4 -11 21 -4 12 34 17 -54 15 -36 18 -4 15 33 
19 8 15 41 19 -40 15 -50 24 22 28 -16 2 -32 23 -5 
15 -43 21 -42 16 -49 21 6 16 6 20 0 16 -67 20 -3 
17 -12 20 -17 18 -16 21 9 18 63 21 22 18 -65 23 -48 
20 31 21 -10 20 60 21 -18 21 -94 24 -14 20 -63 24 -133 
20 -36 23 73 21 171 23 -9 20 87 23 62 22 -69 24 38 
39 -48 6 -46 24 31 25 107 25 30 26 -64 24 16 26 9 
25 -11 26 -109 25 -17 26 42 25 46 27 -32 25 3 26 5 
24 72 28 14 25 55 28 -30 22 5 28 28 24 -34 30 -106 
23 -65 29 32 23 51 30 22 21 1 30 -35 23 63 29 -22 
23 45 32 14 19 24 2445 1928 100 MP stroke
32 3 15 58 40 -35 32 -21 22 34 25 -24 24 11 23 11 
11 17 33 41 12 -115 28 -17 16 -32 23 31 21 73 24 14 
14 -88 16 -195 10 -45 12 -100 14 163 23 60 9 -4 4 75 
13 -107 11 22 8 12 10 -7 7 38 8 8 -2 -102 9 -26 
2 -16 7 89 -1 -75 6 9 1 8 1 -7 -1 -95 2 -1 
2 24 7 184 -4 -81 -3 6 -1 95 0 4 -1 -19 -4 -9 
0 -15 -7 -42 -3 -70 0 -277 -4 -37 -5 36 0 12 -1 34 
0 18 -4 -1 -1 -65 2 -38 -2 -23 3 -70 3 -81 2 -57 
4 234 9 151 4 26 14 143 1 25 1 40 12 76 5 20 
31 -17 8 -7 0 -42 37 9 -8 23 12 -28 8 21 47 -149 
17 -63 -7 7 6 -41 6 -146 22 -89 24 -205 -10 70 31 -149 
3 148 3 -21 16 81 3 -102 8 128 28 333 17 10 -7 -84 
6 -58 21 -34 -1 73 1531 2352 100 MP stroke
8 68 16 -48 -8 -11 21 -181 -2 -10 7 3 25 -447 -2 23 
1 96 -1 5 0 -396 1 84 -1 -148 2 446 6 319 -1 -57 
1 -29 0 -492 0 216 -2 202 1 29 -5 351 -2 2 1 -87 
-5 -33 0 -175 -3 -31 -4 171 -5 -108 -5 -83 -5 167 -17 24 
-1 46 -4 87 -22 132 9 47 -20 75 -7 46 1 -35 -13 -29 
-5 20 -10 72 -6 -21 -7 -23 -11 -75 -10 33 5 -22 -9 6 
-6 -30 -11 -23 2 -68 -10 -111 -7 -10 -7 105 -6 -39 -8 -17 
-4 67 -6 -56 -7 -112 -16 -8 -2 -27 -15 44 1 -23 -20 -130 
-10 7 -12 7 -10 -101 -5 -73 -18 -70 -4 -140 -29 24 8 62 
-19 4 -16 93 7 98 -20 202 2 26 -17 -129 -10 206 -12 -74 
-7 29 -26 84 -14 -9 6 -2 -4 -14 -18 -2 -31 -57 13 85 
-35 44 -12 60 5 -53 -22 46 -18 -33 -12 -32 -15 8 -20 -130 
-22 32 11 91 -38 -71 2165 2343 100 MP stroke
11 -16 -17 -27 -8 -84 -13 -21 -4 35 -17 -2 -4 -51 -27 3 
6 61 -13 14 -8 96 -11 -25 -8 -9 -11 -7 -7 -70 -11 -229 
-9 3 -22 -40 11 156 -26 -173 0 -163 -5 235 -8 16 -8 125 
-6 102 -9 -197 -6 27 -4 107 -8 19 -10 128 -11 -221 -2 69 
-7 72 -23 61 -12 45 6 -27 -5 22 -3 25 -14 -40 -11 106 
4 -82 -11 69 -2 -58 -15 -53 2 74 -7 11 -14 78 5 -6 
-11 54 -4 63 -10 26 -4 -23 -11 -1 -1 2 -10 3 -7 -90 
-10 88 -7 -3 -15 -10 0 -144 -11 28 -5 118 -11 -53 -5 -60 
-15 71 0 111 -10 -24 -10 -82 -1 48 -10 52 -7 -43 -8 35 
-7 -3 -9 58 -8 57 -8 63 -8 7 -8 13 -7 34 -10 3 
-6 -3 -12 7 -9 0 -1 7 -9 44 -4 24 -11 -37 -1 -22 
-5 47 -4 -6 -4 3 -4 16 -7 -1 -5 5 -6 12 -7 -16 
-7 -22 -8 -23 -10 21 2905 1731 100 MP stroke
-8 27 -7 65 -8 27 -9 -4 -10 -3 -11 -4 -12 -1 -11 -20 
-12 -53 -14 -64 -14 4 -14 -10 -15 47 -13 -9 -14 18 -17 75 
-14 27 -16 43 -16 12 -17 15 -17 -6 -17 43 -14 38 -17 11 
-19 61 -15 16 -18 47 -19 13 -18 -10 -20 5 -20 -18 -20 9 
-19 -3 -20 -14 -21 30 -24 8 -23 6 -24 10 -24 -14 -25 -2 
-25 13 -24 4 -23 6 -26 18 -22 -28 -24 -46 -29 59 -25 -8 
-26 -6 -27 14 -27 0 -26 5 -25 14 -28 30 -27 17 -27 4 
-25 25 -26 22 -27 23 -26 -2 -24 -4 -25 20 -26 10 -24 1 
-24 0 -25 16 -23 13 -22 15 -21 3 -21 15 -20 4 -20 2 
-18 -7 -20 -3 -16 -17 -19 16 -18 -2 -16 -7 -18 9 -14 9 
-14 -6 -17 2 -17 -2 -14 -4 -16 0 -14 -2 -14 -6 -13 -10 
-13 -13 -16 27 -15 11 -12 -9 -13 -13 -12 -10 -12 -10 -10 -4 
-11 3 -8 -12 -11 5 4732 1105 100 MP stroke
-17 30 -9 -10 -9 5 -6 -22 -6 -17 -8 -2 -7 -4 -7 5 
-8 30 -4 -29 -6 -2 -7 12 -6 -21 -6 7 -6 -4 -6 -4 
-6 -11 -7 9 -5 -7 -8 9 -5 2 -7 -22 -4 -6 -9 15 
-1 -28 -7 10 -6 6 -5 1 -5 9 -4 3 -3 -2 -3 -14 
-2 2 -1 7 -3 13 -2 -6 -1 1 -1 13 0 4 3 -31 
1 -16 -5 19 0 -16 3 -14 0 -14 -3 14 1 1 -1 4 
-2 -14 -1 -12 -1 12 4 -13 -2 -28 1 -16 -3 5 0 -3 
0 15 1 6 1 -10 0 1 -2 -19 0 -7 -1 -16 -3 6 
-3 9 1 -16 1 -18 0 14 -2 46 1 3 -2 1 0 -13 
-2 14 1 7 0 -17 -1 0 -3 17 0 4 -2 0 0 20 
-3 4 -5 -14 -2 -2 -7 -31 -1 -14 -9 -15 -4 -19 -8 -4 
-6 5 -7 -7 -5 1 -6 6 -13 -22 -1 2 -8 -16 -11 23 
-6 20 -3 0 -9 12 5079 1269 100 MP stroke
-6 -9 -10 -19 -3 -10 -9 -23 0 -9 -8 11 -4 13 -11 13 
1 8 -6 -6 -6 -19 0 -11 -8 -14 -4 -12 -1 11 -6 0 
-3 27 -1 28 -4 9 -4 16 -5 6 -3 28 -4 -2 -5 -16 
0 -7 -4 12 -3 14 -3 2 -2 -10 -7 13 -1 -5 -4 6 
0 -15 -3 -3 -1 -3 -4 0 -1 -3 -1 -14 -1 -12 -1 -22 
0 -40 1 10 0 9 1 7 1 -6 0 30 1 10 1 37 
3 -7 1 -41 3 -20 1 -13 1 10 1 0 2 -7 0 24 
2 26 0 30 1 21 1 4 1 -1 0 -2 1 6 0 -2 
1 22 0 25 1 34 2 8 1 11 2 -8 4 2 2 17 
4 -13 2 -2 5 0 4 11 8 -30 3 -9 3 1 7 10 
10 -18 1 -3 7 -13 5 2 5 13 7 3 6 5 7 3 
7 26 6 20 5 3 6 -14 4 2 6 -13 6 -4 5 8 
1 0 4 2 3 0 5052 1110 100 MP stroke
3 -14 4 -10 0 3 1 -13 0 7 1 19 0 17 -4 -24 
0 -1 -2 -2 -3 -12 -1 5 -4 3 -4 15 -4 -3 -5 19 
-8 4 -1 -11 -6 -11 -6 17 -6 7 -6 0 -7 3 -6 -12 
-7 8 -9 9 -6 -2 -9 -5 -5 14 -9 7 -7 7 -9 17 
-7 1 -13 -13 -9 -2 -3 8 -12 16 -6 10 -12 12 -21 11 
2 17 -5 -4 -10 16 -7 10 -9 17 -9 11 -9 -3 -7 -10 
-9 -9 -7 -4 -8 11 -6 2 -8 9 -8 12 -6 -9 -5 13 
-6 5 -5 1 -6 13 -4 10 -6 6 -3 18 -5 -4 -5 0 
-5 1 -3 9 -5 9 -6 19 -5 -1 -6 1 -5 -1 -4 -1 
-5 -6 -8 0 -8 -3 -7 5 -7 -16 -7 -3 -6 -3 -8 14 
-10 7 -7 3 -9 -7 -8 11 -9 9 -9 4 -11 3 -10 0 
-10 8 -10 4 -11 5 -11 11 -13 -1 -11 3 -12 3 -10 -6 
-13 -3 -11 -4 -17 -9 5708 813 100 MP stroke
-15 8 -2 10 -15 7 -10 5 -15 4 -11 -3 -12 -11 -10 -4 
-14 8 -11 -7 -14 3 -19 6 -7 8 -6 4 -22 15 -10 2 
-13 -6 -9 -5 -13 3 -7 1 -14 -8 -1 -1 -22 6 -23 -2 
7 -2 -4 3 -9 6 -9 -11 -6 -10 -8 -9 -5 -9 -6 -6 
-3 0 -7 -7 -2 2 -12 -11 2 -5 -5 1 -3 -5 -4 20 
-5 -7 -1 -19 -7 17 -4 -8 -5 -11 -1 0 -3 -12 -1 -9 
-1 -8 -1 0 -2 -1 0 8 -1 -2 0 -4 -1 4 0 4 
-1 4 2 2 1 -3 2 8 1 12 1 11 3 -2 3 13 
3 3 4 6 4 -4 5 2 4 -13 6 -7 3 -4 9 -5 
9 -7 1 0 8 -6 5 -2 7 -15 6 -1 7 -1 6 7 
8 -10 6 -8 8 -11 7 -10 8 13 9 -6 8 -2 10 -21 
9 -13 9 1 10 -1 11 -13 11 -20 11 -7 12 -42 11 -17 
12 -26 11 -33 11 -63 5829 1152 100 MP stroke
12 18 15 15 14 54 14 44 13 28 16 15 15 20 15 0 
16 -24 17 -8 17 -52 18 -15 17 -88 18 -37 18 154 18 41 
18 -34 17 3 17 -51 18 93 18 -143 18 -142 20 -86 17 25 
17 92 16 33 17 -53 17 47 15 -29 18 -3 15 -3 18 -35 
15 18 18 -26 17 -17 14 30 16 -40 16 -20 13 50 18 -58 
15 -22 16 -9 16 -24 17 9 16 -2 16 -25 15 -14 13 71 
18 -58 17 -28 16 11 16 28 14 29 16 -52 14 4 14 8 
15 -4 13 -15 13 -29 14 -15 13 -36 11 -14 13 4 11 -24 
11 30 11 -30 11 0 9 3 10 -9 9 3 10 56 10 -39 
9 -35 9 7 9 9 7 34 9 -16 8 -5 7 -14 6 -11 
7 -24 6 32 6 -19 6 4 6 21 5 -13 5 -27 6 -2 
7 23 5 -57 6 58 5 25 4 12 5 134 6 -202 4 -30 
8 -2 4 13 5 -84 4570 1698 100 MP stroke
5 7 6 249 5 0 5 20 5 36 6 11 5 -4 4 -12 
6 9 7 3 7 6 7 -8 7 8 10 34 8 -41 7 -37 
7 -37 8 -47 8 38 7 -62 10 130 9 -21 8 -134 8 18 
9 39 6 58 7 90 9 -10 8 -91 9 -31 7 -44 8 57 
6 -79 5 67 5 30 6 52 6 0 5 54 5 -3 4 -219 
3 -95 2 95 5 -15 1 -37 3 -396 4 -200 5 215 3 178 
2 38 3 122 3 -144 5 -386 7 451 6 111 4 -552 2 405 
6 30 4 -273 5 -134 3 203 4 456 4 -195 4 -96 2 -883 
3 948 3 133 3 -59 1 129 3 23 3 -34 1 -11 4 -16 
2 -78 2 -91 3 91 2 83 3 87 2 -321 1 164 1 24 
1 -185 5 -59 1 212 1 58 0 21 0 -41 -4 157 1 -188 
-1 170 0 -333 -4 -238 -1 146 -2 156 -2 -5 -1 -103 -2 -10 
-4 229 -5 -2 -3 -197 4193 1804 100 MP stroke
-7 -418 -3 -71 -5 190 -1 62 -10 -120 -9 561 -3 102 -5 59 
-8 -188 -3 -25 -7 -249 -14 148 -5 -90 -8 117 -7 -192 -7 250 
-7 -31 -10 20 -8 -26 -8 -267 -7 90 -9 -227 -8 -80 -10 -204 
-11 457 -9 -763 -9 135 -9 90 -7 169 -10 -501 -8 510 -10 415 
-12 -26 -9 263 -8 -25 -9 50 -10 -89 -8 -218 -9 -208 -13 -56 
-10 -252 -8 247 -10 157 -9 30 -12 -682 -9 649 -12 144 -16 172 
-13 127 -14 128 -9 -432 -15 -235 -12 -171 -6 280 -19 200 -18 -114 
-16 -192 -18 -45 -8 500 -18 -361 -13 474 -21 66 -21 -954 -13 280 
-17 78 -18 -76 -19 -88 -24 2 -18 127 -27 282 -14 -157 -23 207 
-17 -259 -21 -346 -29 -73 -25 37 -19 -922 -15 1104 -26 17 -27 -989 
-28 1140 -19 -454 -18 -512 -27 1122 -24 404 -27 -102 -23 79 -26 158 
-18 129 -21 -44 -26 -503 -24 -527 -20 136 -25 742 -19 -234 -21 -36 
-25 -70 -19 151 -16 -73 5598 1724 100 MP stroke
-26 156 -18 125 -16 46 -22 30 -22 5 -17 17 -15 15 -20 -30 
-19 -9 -19 -23 -15 42 -16 -13 -14 -52 -15 11 -15 24 -14 -26 
-14 8 -11 42 -15 -23 -7 26 -11 29 -12 -8 -12 5 -8 -14 
-10 7 -10 14 -11 -22 -8 5 -8 -16 -6 -25 -5 11 -5 6 
-7 -6 -2 21 -1 12 -3 -17 -4 -27 -1 4 -8 -45 -4 -44 
0 2 2 -6 0 56 2 11 4 -13 3 -4 3 24 3 0 
4 -6 5 9 -1 23 2 -3 9 -20 2 -13 13 -16 -3 5 
9 -15 11 11 -4 -5 21 -14 6 -24 -4 -14 8 -15 16 19 
-2 17 3 -3 15 -71 4 -30 25 -11 -2 -1 7 7 10 -9 
8 30 10 25 1 13 15 10 4 -15 17 -21 10 -11 4 3 
11 -28 12 -18 9 -19 9 -11 8 -30 11 5 9 28 8 -40 
10 34 11 2 7 20 10 17 5 6 18 -46 5 -1 10 -61 
5 -18 8 2 9 6 5649 1690 100 MP stroke
9 16 10 -16 10 19 13 -10 9 2 10 -3 8 -35 9 -57 
8 -15 6 -53 7 27 8 36 2 -79 4 -68 17 -34 8 19 
0 93 7 41 3 33 5 4 3 -12 5 -13 3 -79 1 -21 
3 24 4 13 1 -34 3 -1 4 -105 1 -18 9 -24 2 -41 
4 5 3 93 4 -73 4 -39 5 48 3 1 5 36 5 -12 
7 -35 6 -6 6 64 6 27 7 49 9 -18 10 -7 10 -7 
12 -19 15 -103 11 50 14 -81 14 -21 15 -61 12 81 14 65 
14 -17 13 6 15 59 20 -80 14 78 19 -32 17 -21 19 -124 
15 94 17 -43 17 120 17 55 17 -14 16 -1 16 62 17 -70 
16 1 17 -100 18 -107 16 -36 16 -25 16 27 18 36 16 -5 
17 -20 18 -116 13 226 20 -49 22 -122 15 -7 17 -32 16 40 
20 -18 13 22 13 70 18 0 16 20 18 -23 14 51 18 -65 
23 -48 11 67 15 54 4543 2131 100 MP stroke
19 -119 22 19 14 31 13 -47 17 -77 11 63 14 -29 13 41 
19 -37 18 57 13 65 18 27 21 -24 15 33 17 53 9 52 
20 27 13 13 15 16 18 -22 18 11 17 -9 17 -19 18 16 
26 -27 19 15 20 61 17 -22 27 11 17 147 23 47 13 10 
32 17 34 16 4 11 31 -45 22 29 25 -10 24 -88 24 -144 
21 -451 22 -880 28 1422 36 -47 24 104 28 -70 18 260 21 78 
15 -13 36 -472 21 -182 23 457 25 19 25 31 21 -67 22 10 
20 24 20 -11 26 -1 22 14 20 -28 17 -8 16 -32 19 -55 
18 -15 16 23 22 -68 18 10 11 36 16 -7 13 29 11 11 
11 13 17 -21 11 1 9 52 11 58 10 2 12 -19 9 -22 
8 10 15 -7 10 2 10 8 9 21 6 3 10 -18 6 9 
12 -2 10 -33 8 46 5 17 6 9 6 -4 10 -12 8 22 
12 40 4 -5 8 -74 2872 1745 100 MP stroke
7 -63 7 -3 5 52 8 -11 9 -39 5 3 7 17 8 34 
4 14 4 2 4 -9 5 -50 5 -46 7 -13 5 -32 7 -21 
7 43 3 -1 4 -26 4 3 5 16 4 15 5 -8 5 -32 
5 8 9 54 3 100 4 3 4 -6 4 -19 3 -27 8 -17 
9 -59 7 22 3 64 3 7 4 11 4 -35 3 -65 3 -16 
2 3 5 37 0 9 4 -15 -1 -25 1 -4 2 -5 2 -32 
2 -17 3 -41 1 -25 1 -18 0 -54 1 33 4 -45 1 -14 
3 -120 1 -82 2 -116 2 -35 0 -35 -1 136 4 47 1 99 
3 52 1 34 1 16 1 4 1 -25 0 51 1 10 0 -14 
1 -42 2 4 0 -47 1 28 2 -104 -4 69 -1 16 -1 13 
0 -102 -2 45 -4 76 -1 17 -4 17 -1 -18 -5 59 -1 92 
-6 -20 -2 -59 -5 4 -6 7 -6 -8 -6 8 -8 4 -8 26 
-8 63 -7 -38 -6 -1 2700 1957 100 MP stroke
-5 -57 -9 -89 -9 29 -7 40 -7 -96 -6 -53 -7 74 -6 13 
-6 115 -9 84 -8 188 -7 32 -6 33 -9 97 -6 45 -8 -82 
-7 426 -7 -723 -7 -186 -9 -50 -5 246 -13 -44 -12 -295 -8 23 
-11 230 -10 247 -10 -612 -10 412 -11 59 -13 83 -13 37 -13 0 
-16 -69 -17 95 -14 11 -15 16 -16 -21 -17 12 -16 -41 -16 14 
-14 3 -13 6 -16 37 -16 -27 -19 -11 -16 13 -18 5 -17 -39 
-17 21 -17 -14 -18 24 -18 35 -19 47 -19 25 -20 16 -19 -35 
-18 32 -17 -24 -19 8 -20 28 -19 53 -18 10 -19 -20 -18 42 
-18 2 -20 30 -19 23 -17 -22 -19 -14 -18 24 -17 13 -19 28 
-19 44 -18 12 -18 17 -18 2 -18 14 -18 -1 -18 18 -18 25 
-17 -5 -17 5 -19 -2 -20 4 -17 21 -19 33 -18 47 -16 18 
-16 3 -20 24 -19 -20 -19 35 -18 14 -18 -13 -18 -5 -20 -7 
-15 1 -21 34 -21 -6 4165 1083 100 MP stroke
-19 17 -20 -4 -19 13 -18 17 -19 -5 -20 11 -18 13 -19 8 
-17 3 -19 2 -17 -1 -18 -17 -16 0 -16 -8 -17 -12 -17 11 
-16 6 -15 0 -17 12 -15 10 -16 23 -16 -8 -15 6 -15 -5 
-16 -4 -14 6 -17 -2 -15 8 -15 15 -16 14 -16 19 -15 4 
-15 9 -15 7 -15 -4 -14 4 -15 -1 -15 -2 -13 0 -14 -13 
-13 -3 -13 6 -14 14 -14 -8 -12 3 -11 -12 -13 3 -12 -13 
-12 4 -13 -13 -13 -16 -13 -6 -12 -7 -10 2 -14 8 -11 8 
-11 1 -11 6 -11 1 -10 -5 -9 -9 -9 -15 -10 -8 -9 -8 
-10 -5 -9 11 -8 -5 -7 -14 -7 9 -4 -7 -5 6 -5 -1 
-5 -5 -4 -5 -4 12 -3 0 -3 -12 -2 14 -2 4 0 -23 
-2 1 0 -12 2 11 2 3 1 20 2 -14 3 0 3 -15 
3 2 3 -15 3 -7 4 -5 4 -8 5 -2 4 -2 5 -8 
5 -3 7 5 6 6 5117 1062 100 MP stroke
6 11 6 6 7 -2 6 3 7 -18 5 6 6 -10 5 3 
7 1 6 -4 8 4 5 10 8 7 3 -3 13 14 1 -8 
5 10 9 3 5 -5 7 7 6 -9 7 -1 6 -3 6 1 
7 -13 5 -10 9 -4 0 -7 9 -30 3 -20 3 -5 2 8 
6 -9 0 9 0 -5 4 1 1 -5 1 -10 1 -7 0 9 
0 -19 -1 0 -2 6 -1 2 0 -22 -1 -6 -1 -15 -2 10 
0 -4 -2 24 -2 1 0 4 -4 25 -1 26 -2 15 -1 5 
-4 5 -2 -3 -5 -5 -1 -8 0 -3 -5 3 -2 2 -2 -9 
-7 5 1 -9 -5 16 -1 0 -3 -3 -2 -5 -2 7 -2 11 
-1 -10 -2 -20 -2 -20 0 2 -5 18 -3 1 -1 12 -2 2 
-2 12 -1 2 -3 -3 1 -6 -2 -2 0 -7 -3 11 0 -3 
0 8 1 21 0 -12 1 25 2 -8 8 15 2 -12 -2 -9 
5 -17 2 8 13 -7 4972 1080 100 MP stroke
6 3 -2 8 1 -3 1 -16 12 -1 -6 -13 18 11 9 -6 
-4 22 3 -11 -3 12 9 -6 13 -4 -4 -12 2 -3 -1 -7 
1 14 4 -1 9 0 -3 15 7 11 4 -12 -2 22 1 -13 
3 25 2 -1 2 -10 3 7 3 -14 -2 5 1 20 0 5 
8 -7 -1 -9 1 2 0 -4 12 -4 3 8 -1 8 1 12 
-1 9 2 -5 2 5 2 -6 2 5 -1 -14 2 14 1 -1 
3 -10 1 -8 1 6 1 -10 2 -13 -2 -22 0 -13 -6 -20 
-3 -13 -1 -3 -4 -3 -3 0 -3 -2 -3 -13 -5 -2 -3 -8 
-4 20 -4 -7 -3 14 -3 26 -4 38 -3 11 -2 20 -1 -1 
-3 23 -1 -1 -2 14 -2 -10 0 5 -2 -9 -4 11 -2 -7 
0 21 -1 -16 -3 -25 -4 -7 -1 -6 -4 -23 -2 21 -1 11 
-2 0 0 -8 -1 0 -1 0 -2 14 0 -10 2 -3 3 -23 
2 -14 4 -10 3 -9 4926 1094 100 MP stroke
5 -12 5 -5 6 -17 5 -5 8 -29 7 -4 9 -24 9 -14 
10 -5 9 19 11 17 12 35 14 -24 14 -8 15 -33 15 16 
15 -11 17 -1 18 12 19 -8 18 -7 18 14 17 19 19 -1 
20 -2 21 -7 20 -18 19 -22 20 -16 18 4 21 -28 22 -2 
19 -6 22 -10 22 -19 21 8 23 -54 19 -16 21 -16 22 14 
20 -11 21 9 21 -19 20 7 21 -56 22 -79 20 -134 22 -44 
19 -83 22 26 21 -89 23 9 19 -282 23 -764 23 -443 23 868 
23 587 22 -131 21 154 23 -695 22 -351 20 592 19 29 21 223 
19 343 20 -300 19 53 16 225 18 100 17 -326 17 171 19 -594 
15 -237 18 281 17 97 14 -390 17 498 18 62 20 19 17 -295 
18 -685 18 682 18 -351 19 -292 17 49 18 96 19 -25 17 -271 
18 170 19 72 19 147 18 -62 19 39 19 4 19 222 18 -82 
18 79 18 1 18 183 3162 2354 100 MP stroke
20 132 17 128 17 73 17 76 15 -14 14 -22 15 40 14 -13 
14 -11 15 7 13 -39 13 -49 13 -38 12 7 11 70 9 50 
10 8 10 26 9 15 8 52 7 -30 9 6 7 -14 6 2 
7 -18 5 -14 5 -85 5 22 8 -55 9 12 6 -16 7 41 
7 -51 7 -15 6 -19 5 -9 5 -152 5 -39 4 66 1 91 
2 128 2 144 2 -15 3 -27 5 86 2 -129 6 17 3 -200 
6 -118 5 -2 8 355 8 251 11 -856 12 643 15 -2 16 74 
17 -37 19 19 18 10 17 3 17 -9 18 68 18 -23 18 118 
16 45 17 28 15 -44 12 23 14 32 14 36 13 20 12 47 
11 -5 10 15 8 -83 7 5 5 -272 7 139 7 -152 4 202 
3 -11 3 -546 2 385 0 34 2 170 1 -34 0 -30 -1 68 
-3 13 2 -124 -3 -264 -2 -67 1 138 0 99 -2 122 -6 36 
-3 89 -4 -143 -2 -294 2367 1958 100 MP stroke
-4 134 -6 24 -3 -13 -7 -109 -10 79 -7 -4 -5 -51 -6 -92 
-9 -57 -8 -206 -7 217 -10 -125 -12 250 -8 161 -8 122 -10 -123 
-9 8 -13 -385 -10 260 -9 114 -12 -176 -12 -1539 -8 -536 -8 1002 
-8 -93 -9 74 -9 263 -9 67 -7 -303 -12 171 -11 -57 -6 35 
-8 298 -8 2 -8 110 -8 67 -7 8 -5 -199 -5 165 -6 -68 
-6 81 -6 -54 -6 41 -4 -63 -7 120 -6 -45 -6 63 -5 112 
-6 113 -4 41 -6 37 -6 25 -8 70 -8 63 -6 52 -7 17 
-3 9 -6 2 -8 10 -8 -1 -7 14 -2 -3 -5 18 -4 29 
-5 -37 -10 1 -5 43 -8 2 -5 -17 -5 -23 -8 21 -8 0 
-8 59 -10 8 -8 16 -6 15 -9 44 -9 11 -13 43 -7 -6 
-10 12 -8 54 -9 -6 -12 23 -11 30 -11 28 -13 -3 -14 -11 
-14 41 -14 31 -14 9 -16 4 -14 -24 -11 -17 -13 -3 -13 1 
-16 -25 -19 -1 -13 -13 3203 1402 100 MP stroke
-16 -19 -13 44 -15 0 -15 5 -16 3 -17 -15 -16 0 -17 -25 
-17 -14 -15 44 -14 -14 -14 14 -15 -31 -13 26 -12 2 -15 24 
-14 -12 -15 25 -13 -22 -12 10 -13 32 -13 51 -14 11 -15 19 
-18 -3 -16 18 -16 3 -19 7 -16 -18 -15 18 -16 2 -16 21 
-17 -4 -18 11 -18 2 -18 17 -19 19 -17 -10 -17 -3 -19 -6 
-18 1 -18 5 -20 -8 -18 16 -21 4 -20 26 -19 -3 -18 -10 
-19 -20 -19 -7 -19 -16 -21 -18 -20 -7 -20 2 -21 2 -18 -11 
-18 7 -18 7 -20 11 -19 -21 -20 -7 -20 -7 -19 9 -19 8 
-20 -9 -16 -2 -19 -7 -18 -7 -18 7 -18 1 -18 -6 -17 6 
-16 12 -17 17 -15 0 -14 -3 -14 -14 -15 -15 -16 5 -16 -19 
-16 -11 -16 20 -16 4 -15 1 -14 19 -15 21 -15 0 -14 -16 
-14 -14 -18 14 -14 5 -15 13 -14 13 -14 -6 -13 -2 -12 4 
-14 0 -13 9 -12 7 4830 1160 100 MP stroke
-14 -4 -14 -2 -13 41 -14 18 -14 18 -12 -11 -15 -21 -11 9 
-12 -2 -10 0 -13 5 -11 5 -11 18 -12 10 -8 33 -8 -1 
-8 6 -9 -16 -8 -21 -8 -29 -8 -18 -7 -5 -8 17 -7 -3 
-9 -9 -6 9 -7 9 -8 -11 -1 -13 -5 -12 -5 -26 -3 -5 
-6 16 -2 3 -1 28 -3 32 -1 15 -1 14 -4 9 -1 0 
-3 6 -1 10 -3 4 -1 0 -5 14 -5 2 2 5 -8 14 
-4 12 3 14 -4 6 -2 -2 -4 -2 -3 5 -7 10 -4 -2 
-11 5 -2 6 1 14 -3 4 -17 -23 -11 -12 4 -9 -2 4 
-6 -1 -18 -7 6 5 -11 -9 -9 -15 3 0 -10 -15 -3 4 
-9 -2 0 11 -13 -27 -7 -19 -8 -12 -9 -14 -6 -20 -9 4 
-5 -3 -9 -9 -4 -2 -9 -1 -4 -5 -5 -18 -10 -8 -4 1 
-8 -17 -5 -13 -6 -17 -5 8 -5 3 -2 -4 -8 5 -7 -15 
-1 4 -9 -18 -4 -3 5457 1198 100 MP stroke
-7 1 -4 -10 -5 3 -3 -14 -5 9 0 16 -4 9 -3 -17 
-5 -6 -4 -19 -2 0 -5 -17 0 10 -5 -20 -3 -6 -3 6 
-3 21 -5 17 -1 9 -5 10 0 -4 -7 -8 -3 -1 -2 12 
-1 15 -2 14 2 16 0 12 -2 -1 -2 11 -1 -2 -2 3 
-1 -8 -4 -2 -2 -11 -1 -1 -4 -6 -2 1 -2 6 -2 22 
-3 -4 -2 -7 -1 -3 -4 -8 -3 6 -5 9 -1 -7 -8 6 
-5 5 -4 -7 -3 1 -7 2 -3 7 -6 -19 -9 12 1 14 
-7 -4 0 10 -7 -9 0 -2 -7 -8 0 -2 -7 -9 -4 -1 
-4 4 -4 5 -5 13 -5 4 -7 -6 -5 -1 -5 16 -6 1 
-6 -1 -6 7 -6 11 -6 -12 -6 -17 -13 -13 4 4 -9 -30 
-5 -12 -8 -32 -4 -25 -4 -16 -8 -46 -5 -29 -8 -14 -5 -15 
-7 -35 -8 -14 -6 -29 -20 -35 2 -6 -1 -25 1 -3 -5 7 
-2 9 -4 57 -1 -7 5849 1431 100 MP stroke
-1 0 -1 17 1 21 -1 -20 1 -18 2 1 2 15 2 9 
3 14 2 10 4 2 2 -16 6 28 1 -11 5 17 5 33 
4 27 5 38 2 16 14 26 -1 -1 10 -9 9 4 2 -19 
8 7 7 -33 9 -30 8 -8 8 7 8 33 9 27 9 16 
11 -44 12 -4 12 -48 11 -7 12 32 11 37 13 19 13 2 
13 20 14 22 13 0 15 33 14 -30 13 -20 14 1 13 19 
14 -15 14 -120 14 -84 16 -24 15 -217 15 -79 14 262 14 101 
16 -32 14 84 16 53 14 -135 12 -87 16 65 14 141 18 59 
14 6 14 81 16 -93 13 -101 12 45 11 7 14 -57 13 40 
14 -106 13 50 13 -6 11 -136 13 -338 13 194 12 85 13 -97 
15 71 15 33 12 -85 11 108 13 -192 14 -117 13 295 14 112 
14 11 12 50 14 -143 12 77 14 -91 15 55 15 55 16 45 
15 26 14 -9 15 27 4793 1322 100 MP stroke
16 -11 17 87 16 89 16 -402 15 -374 17 -142 16 262 17 146 
16 -334 17 12 16 296 18 140 16 -163 18 -48 15 -1 18 -3 
19 -62 16 -1421 17 1056 17 749 18 47 17 1 16 -66 15 -126 
16 -288 18 198 16 124 15 -166 15 -245 16 -128 15 565 14 78 
14 -64 14 89 15 -47 13 -187 14 42 12 -115 14 114 10 4 
10 14 14 97 10 191 8 -81 10 -16 8 -25 7 -248 6 -89 
7 189 7 34 4 -2 4 -383 6 -892 4 1042 1 -123 1 13 
4 76 5 -113 0 -109 -2 -1179 3 1325 5 -30 1 -76 0 30 
-1 135 1 37 0 163 -2 33 -2 -39 1 45 -1 -241 0 -41 
0 412 1 -727 3 495 -1 -552 0 360 2 43 2 75 0 13 
-2 115 1 85 1 -24 0 -298 -1 86 0 79 2 -7 0 146 
-1 -53 -2 -147 1 -52 1 -44 0 -138 0 587 2 -177 1 -260 
0 94 1 -193 1 184 4032 1777 100 MP stroke
0 86 2 -464 1 247 3 170 0 -39 1 -115 0 -35 1 204 
2 -221 1 -135 -3 -399 0 349 1 630 0 -77 0 99 1 -190 
-1 -24 0 172 0 -370 2 -181 2 308 2 -22 2 -416 5 451 
3 -777 3 467 2 379 3 -107 3 -15 2 32 4 -178 2 -105 
1 281 2 -721 3 410 0 696 0 -373 -1 -505 1 -322 -2 565 
2 -367 -1 451 0 -501 -1 -258 0 911 0 -971 0 899 -2 63 
-2 -706 -1 580 -4 -571 -2 77 -4 -307 -4 600 -3 159 -2 -227 
-5 -321 -4 467 -4 -445 -2 777 -3 -131 -4 215 -3 93 -3 -56 
-2 -192 -5 -418 -4 155 -5 90 -4 276 -5 142 -5 -240 -5 -133 
-3 -140 -4 155 -4 159 -6 192 -4 103 -2 66 -3 -26 -4 49 
-4 97 -5 -130 -5 147 -4 -11 -6 -19 -7 3 -5 2 -5 12 
-6 34 -7 14 -6 -9 -7 -13 -6 18 -7 15 -6 14 -7 -10 
-6 -12 -5 -8 -5 -9 4210 1218 100 MP stroke
-5 -11 -6 17 -5 -2 -6 21 -5 4 -5 -1 -5 -14 -5 4 
-6 24 -6 10 -8 4 -6 2 -6 4 -5 18 -6 4 -6 -12 
-7 -16 -7 -5 -7 -7 -7 -8 -8 -7 -8 15 -10 10 -9 -3 
-10 -10 -11 -11 -10 1 -11 2 -10 -24 -14 5 -13 -18 -14 13 
-15 21 -13 5 -14 2 -15 -5 -14 -23 -15 17 -15 0 -15 1 
-15 -5 -14 -16 -15 -17 -13 -3 -14 6 -15 26 -15 13 -15 0 
-16 -1 -15 15 -14 1 -14 14 -15 1 -14 6 -15 -11 -13 -11 
-17 5 -14 18 -17 -3 -14 -25 -15 -20 -16 27 -14 -25 -14 -30 
-15 -1 -14 -25 -15 -40 -14 -22 -15 -15 -12 -16 -17 6 -12 -7 
-16 -21 -10 -15 -27 7 -14 11 -5 -34 -18 -8 -13 9 -16 16 
-12 -18 -15 22 -13 18 -13 17 -12 19 -13 28 -11 6 -13 19 
-12 0 -13 7 -13 12 -14 -11 -12 4 -14 14 -13 -13 -15 5 
-13 -2 -14 5 -15 -25 5409 1274 100 MP stroke
-15 -27 -13 -5 -16 22 -15 9 -13 -3 -15 -17 -13 -19 -13 -43 
-14 -35 -13 -44 -12 -13 -14 -31 -15 -26 -12 -57 -15 -24 -14 -47 
-16 10 -13 -39 -16 -37 -14 -19 -15 -1 -14 -8 -16 -24 -11 -48 
-19 -32 -19 25 -2 39 -16 10 -9 -4 -14 18 -9 60 -15 41 
-9 30 -13 27 -8 -5 -21 41 -5 7 -17 28 -2 27 -14 25 
-16 11 1 -17 -20 52 -4 0 -10 23 -4 -13 -7 17 -5 -3 
-5 25 -6 21 -7 26 3 -19 -2 11 -1 28 -2 17 0 69 
1 25 0 10 4 2 0 -4 2 -10 3 -12 3 1 4 6 
3 4 5 4 4 -14 5 25 4 17 5 13 4 0 3 17 
8 21 5 21 8 17 7 9 9 21 6 24 10 33 7 23 
11 19 7 6 19 5 13 -2 3 1 13 8 10 8 11 16 
12 7 11 19 12 3 9 21 20 11 6 20 6 13 11 15 
7 5 9 4 7 -6 5716 789 100 MP stroke
9 0 5 0 7 -12 3 -37 5 -17 2 -12 4 -25 3 -16 
3 -21 2 -16 2 -22 -1 -31 2 -6 -1 -22 0 -18 -2 -22 
-1 -19 -4 -6 -4 -14 -6 11 -7 -2 -7 -11 -7 -11 -9 -16 
-7 2 -9 0 -9 -4 -9 -9 -7 -23 -8 11 -8 -19 -11 -1 
-9 -34 -11 -19 -11 11 -12 7 -13 45 -14 19 -15 -28 -15 42 
-15 16 -16 -10 -13 10 -17 -4 -17 37 -14 -20 -14 37 -16 38 
-14 123 -13 2 -14 -13 -12 16 -11 -17 -12 -20 -11 -58 -9 -71 
-10 0 -9 77 -9 107 -9 29 -8 16 -8 13 -7 3 -7 -14 
-7 -8 -6 -23 -5 -15 -6 -19 -6 -9 -6 -14 -7 -11 -4 -28 
-4 -22 -7 -27 -3 -30 -3 -39 -2 -22 -3 -35 -3 -36 -4 -3 
0 -10 -2 -30 -3 -34 -3 -18 6255 1270 85 MP stroke
gr

c8
0 sg
%%IncludeResource: font Helvetica
/Helvetica /WindowsLatin1Encoding 120 FMSR

1328  294 mt 
(Experiment 2b - Digital magnetometers - RMSE of orientation\
 - function of distance) s
2502 4939 mt 
(Distance to center of sensor network [m]) s
 558 2912 mt  -90 rotate
(RMSE [degree]) s
90 rotate

end %%Color Dict

eplot
%%EndObject

epage
end

showpage

%%Trailer
%%EOF
