%!PS-Adobe-2.0 EPSF-1.2
%%Creator: MATLAB, The MathWorks, Inc. Version 7.13.0.564 (R2011b). Operating System: Microsoft Windows 7.
%%Title: ..\figures\_posdigital_par_std.eps
%%CreationDate: 11/13/2012  17:43:48
%%DocumentNeededFonts: Helvetica
%%DocumentProcessColors: Cyan Magenta Yellow Black
%%Extensions: CMYK
%%Pages: 1
%%BoundingBox:    52   199   552   602
%%EndComments

%%BeginProlog
% MathWorks dictionary
/MathWorks 160 dict begin
% definition operators
/bdef {bind def} bind def
/ldef {load def} bind def
/xdef {exch def} bdef
/xstore {exch store} bdef
% operator abbreviations
/c  /clip ldef
/cc /concat ldef
/cp /closepath ldef
/gr /grestore ldef
/gs /gsave ldef
/mt /moveto ldef
/np /newpath ldef
/cm /currentmatrix ldef
/sm /setmatrix ldef
/rm /rmoveto ldef
/rl /rlineto ldef
/s {show newpath} bdef
/sc {setcmykcolor} bdef
/sr /setrgbcolor ldef
/sg /setgray ldef
/w /setlinewidth ldef
/j /setlinejoin ldef
/cap /setlinecap ldef
/rc {rectclip} bdef
/rf {rectfill} bdef
% page state control
/pgsv () def
/bpage {/pgsv save def} bdef
/epage {pgsv restore} bdef
/bplot /gsave ldef
/eplot {stroke grestore} bdef
% orientation switch
/portraitMode 0 def /landscapeMode 1 def /rotateMode 2 def
% coordinate system mappings
/dpi2point 0 def
% font control
/FontSize 0 def
/FMS {/FontSize xstore findfont [FontSize 0 0 FontSize neg 0 0]
  makefont setfont} bdef
/ISOLatin1Encoding where {pop /WindowsLatin1Encoding 256 array bdef
ISOLatin1Encoding WindowsLatin1Encoding copy pop
/.notdef/.notdef/quotesinglbase/florin/quotedblbase/ellipsis/dagger
/daggerdbl/circumflex/perthousand/Scaron/guilsinglleft/OE/.notdef/.notdef
/.notdef/.notdef/quoteleft/quoteright/quotedblleft/quotedblright/bullet
/endash/emdash/tilde/trademark/scaron/guilsinglright/oe/.notdef/.notdef
/Ydieresis WindowsLatin1Encoding 128 32 getinterval astore pop}
{/WindowsLatin1Encoding StandardEncoding bdef} ifelse
/reencode {exch dup where {pop load} {pop StandardEncoding} ifelse
  exch dup 3 1 roll findfont dup length dict begin
  { 1 index /FID ne {def}{pop pop} ifelse } forall
  /Encoding exch def currentdict end definefont pop} bdef
/isroman {findfont /CharStrings get /Agrave known} bdef
/FMSR {3 1 roll 1 index dup isroman {reencode} {pop pop} ifelse
  exch FMS} bdef
/csm {1 dpi2point div -1 dpi2point div scale neg translate
 dup landscapeMode eq {pop -90 rotate}
  {rotateMode eq {90 rotate} if} ifelse} bdef
% line types: solid, dotted, dashed, dotdash
/SO { [] 0 setdash } bdef
/DO { [.5 dpi2point mul 4 dpi2point mul] 0 setdash } bdef
/DA { [6 dpi2point mul] 0 setdash } bdef
/DD { [.5 dpi2point mul 4 dpi2point mul 6 dpi2point mul 4
  dpi2point mul] 0 setdash } bdef
% macros for lines and objects
/L {lineto stroke} bdef
/MP {3 1 roll moveto 1 sub {rlineto} repeat} bdef
/AP {{rlineto} repeat} bdef
/PDlw -1 def
/W {/PDlw currentlinewidth def setlinewidth} def
/PP {closepath eofill} bdef
/DP {closepath stroke} bdef
/MR {4 -2 roll moveto dup  0 exch rlineto exch 0 rlineto
  neg 0 exch rlineto closepath} bdef
/FR {MR stroke} bdef
/PR {MR fill} bdef
/L1i {{currentfile picstr readhexstring pop} image} bdef
/tMatrix matrix def
/MakeOval {newpath tMatrix currentmatrix pop translate scale
0 0 1 0 360 arc tMatrix setmatrix} bdef
/FO {MakeOval stroke} bdef
/PO {MakeOval fill} bdef
/PD {currentlinewidth 2 div 0 360 arc fill
   PDlw -1 eq not {PDlw w /PDlw -1 def} if} def
/FA {newpath tMatrix currentmatrix pop translate scale
  0 0 1 5 -2 roll arc tMatrix setmatrix stroke} bdef
/PA {newpath tMatrix currentmatrix pop	translate 0 0 moveto scale
  0 0 1 5 -2 roll arc closepath tMatrix setmatrix fill} bdef
/FAn {newpath tMatrix currentmatrix pop translate scale
  0 0 1 5 -2 roll arcn tMatrix setmatrix stroke} bdef
/PAn {newpath tMatrix currentmatrix pop translate 0 0 moveto scale
  0 0 1 5 -2 roll arcn closepath tMatrix setmatrix fill} bdef
/vradius 0 def /hradius 0 def /lry 0 def
/lrx 0 def /uly 0 def /ulx 0 def /rad 0 def
/MRR {/vradius xdef /hradius xdef /lry xdef /lrx xdef /uly xdef
  /ulx xdef newpath tMatrix currentmatrix pop ulx hradius add uly
  vradius add translate hradius vradius scale 0 0 1 180 270 arc 
  tMatrix setmatrix lrx hradius sub uly vradius add translate
  hradius vradius scale 0 0 1 270 360 arc tMatrix setmatrix
  lrx hradius sub lry vradius sub translate hradius vradius scale
  0 0 1 0 90 arc tMatrix setmatrix ulx hradius add lry vradius sub
  translate hradius vradius scale 0 0 1 90 180 arc tMatrix setmatrix
  closepath} bdef
/FRR {MRR stroke } bdef
/PRR {MRR fill } bdef
/MlrRR {/lry xdef /lrx xdef /uly xdef /ulx xdef /rad lry uly sub 2 div def
  newpath tMatrix currentmatrix pop ulx rad add uly rad add translate
  rad rad scale 0 0 1 90 270 arc tMatrix setmatrix lrx rad sub lry rad
  sub translate rad rad scale 0 0 1 270 90 arc tMatrix setmatrix
  closepath} bdef
/FlrRR {MlrRR stroke } bdef
/PlrRR {MlrRR fill } bdef
/MtbRR {/lry xdef /lrx xdef /uly xdef /ulx xdef /rad lrx ulx sub 2 div def
  newpath tMatrix currentmatrix pop ulx rad add uly rad add translate
  rad rad scale 0 0 1 180 360 arc tMatrix setmatrix lrx rad sub lry rad
  sub translate rad rad scale 0 0 1 0 180 arc tMatrix setmatrix
  closepath} bdef
/FtbRR {MtbRR stroke } bdef
/PtbRR {MtbRR fill } bdef
/stri 6 array def /dtri 6 array def
/smat 6 array def /dmat 6 array def
/tmat1 6 array def /tmat2 6 array def /dif 3 array def
/asub {/ind2 exch def /ind1 exch def dup dup
  ind1 get exch ind2 get sub exch } bdef
/tri_to_matrix {
  2 0 asub 3 1 asub 4 0 asub 5 1 asub
  dup 0 get exch 1 get 7 -1 roll astore } bdef
/compute_transform {
  dmat dtri tri_to_matrix tmat1 invertmatrix 
  smat stri tri_to_matrix tmat2 concatmatrix } bdef
/ds {stri astore pop} bdef
/dt {dtri astore pop} bdef
/db {2 copy /cols xdef /rows xdef mul dup 3 mul string
  currentfile exch readhexstring pop
  dup 0 3 index getinterval /rbmap xdef
  dup 2 index dup getinterval /gbmap xdef
  1 index dup 2 mul exch getinterval /bbmap xdef pop pop}bdef
/it {gs np dtri aload pop moveto lineto lineto cp c
  cols rows 8 compute_transform 
  rbmap gbmap bbmap true 3 colorimage gr}bdef
/il {newpath moveto lineto stroke}bdef
currentdict end def
%%EndProlog

%%BeginSetup
MathWorks begin

0 cap

end
%%EndSetup

%%Page: 1 1
%%BeginPageSetup
%%PageBoundingBox:    52   199   552   602
MathWorks begin
bpage
%%EndPageSetup

%%BeginObject: obj1
bplot

/dpi2point 12 def
portraitMode 0204 7344 csm

  422   110  5999  4844 MR c np
85 dict begin %Colortable dictionary
/c0 { 0.000000 0.000000 0.000000 sr} bdef
/c1 { 1.000000 1.000000 1.000000 sr} bdef
/c2 { 0.900000 0.000000 0.000000 sr} bdef
/c3 { 0.000000 0.820000 0.000000 sr} bdef
/c4 { 0.000000 0.000000 0.800000 sr} bdef
/c5 { 0.910000 0.820000 0.320000 sr} bdef
/c6 { 1.000000 0.260000 0.820000 sr} bdef
/c7 { 0.000000 0.820000 0.820000 sr} bdef
c0
1 j
1 sg
   0    0 6913 5185 PR
6 w
0 4225 5356 0 0 -4225 899 4614 4 MP
PP
-5356 0 0 4225 5356 0 0 -4225 899 4614 5 MP stroke
4 w
DO
SO
6 w
0 sg
 899  389 mt 6255  389 L
 899 4614 mt 6255 4614 L
6255 4614 mt 6255  389 L
 899 4614 mt  899  389 L
 899 4614 mt 6255 4614 L
 899 4614 mt  899  389 L
1791 4614 mt 1791 4560 L
1791  389 mt 1791  442 L
%%IncludeResource: font Helvetica
/Helvetica /WindowsLatin1Encoding 120 FMSR

1675 4759 mt 
(0.16) s
2684 4614 mt 2684 4560 L
2684  389 mt 2684  442 L
2568 4759 mt 
(0.18) s
3577 4614 mt 3577 4560 L
3577  389 mt 3577  442 L
3494 4759 mt 
(0.2) s
4469 4614 mt 4469 4560 L
4469  389 mt 4469  442 L
4353 4759 mt 
(0.22) s
5362 4614 mt 5362 4560 L
5362  389 mt 5362  442 L
5246 4759 mt 
(0.24) s
6255 4614 mt 6255 4560 L
6255  389 mt 6255  442 L
6139 4759 mt 
(0.26) s
 899 4614 mt  925 4614 L
6255 4614 mt 6228 4614 L
 899 4614 mt  952 4614 L
6255 4614 mt 6201 4614 L
 640 4658 mt 
(10) s
%%IncludeResource: font Helvetica
/Helvetica /WindowsLatin1Encoding 80 FMSR

 773 4584 mt 
(-2) s
 899 4190 mt  925 4190 L
6255 4190 mt 6228 4190 L
 899 3942 mt  925 3942 L
6255 3942 mt 6228 3942 L
 899 3766 mt  925 3766 L
6255 3766 mt 6228 3766 L
 899 3629 mt  925 3629 L
6255 3629 mt 6228 3629 L
 899 3518 mt  925 3518 L
6255 3518 mt 6228 3518 L
 899 3423 mt  925 3423 L
6255 3423 mt 6228 3423 L
 899 3342 mt  925 3342 L
6255 3342 mt 6228 3342 L
 899 3270 mt  925 3270 L
6255 3270 mt 6228 3270 L
 899 3205 mt  925 3205 L
6255 3205 mt 6228 3205 L
 899 3205 mt  952 3205 L
6255 3205 mt 6201 3205 L
%%IncludeResource: font Helvetica
/Helvetica /WindowsLatin1Encoding 120 FMSR

 640 3249 mt 
(10) s
%%IncludeResource: font Helvetica
/Helvetica /WindowsLatin1Encoding 80 FMSR

 773 3175 mt 
(-1) s
 899 2781 mt  925 2781 L
6255 2781 mt 6228 2781 L
 899 2533 mt  925 2533 L
6255 2533 mt 6228 2533 L
 899 2357 mt  925 2357 L
6255 2357 mt 6228 2357 L
 899 2221 mt  925 2221 L
6255 2221 mt 6228 2221 L
 899 2109 mt  925 2109 L
6255 2109 mt 6228 2109 L
 899 2015 mt  925 2015 L
6255 2015 mt 6228 2015 L
 899 1933 mt  925 1933 L
6255 1933 mt 6228 1933 L
 899 1861 mt  925 1861 L
6255 1861 mt 6228 1861 L
 899 1797 mt  925 1797 L
6255 1797 mt 6228 1797 L
 899 1797 mt  952 1797 L
6255 1797 mt 6201 1797 L
%%IncludeResource: font Helvetica
/Helvetica /WindowsLatin1Encoding 120 FMSR

 640 1841 mt 
(10) s
%%IncludeResource: font Helvetica
/Helvetica /WindowsLatin1Encoding 80 FMSR

 773 1767 mt 
(0) s
 899 1373 mt  925 1373 L
6255 1373 mt 6228 1373 L
 899 1125 mt  925 1125 L
6255 1125 mt 6228 1125 L
 899  949 mt  925  949 L
6255  949 mt 6228  949 L
 899  812 mt  925  812 L
6255  812 mt 6228  812 L
 899  701 mt  925  701 L
6255  701 mt 6228  701 L
 899  607 mt  925  607 L
6255  607 mt 6228  607 L
 899  525 mt  925  525 L
6255  525 mt 6228  525 L
 899  453 mt  925  453 L
6255  453 mt 6228  453 L
 899  389 mt  925  389 L
6255  389 mt 6228  389 L
 899  389 mt  952  389 L
6255  389 mt 6201  389 L
%%IncludeResource: font Helvetica
/Helvetica /WindowsLatin1Encoding 120 FMSR

 640  433 mt 
(10) s
%%IncludeResource: font Helvetica
/Helvetica /WindowsLatin1Encoding 80 FMSR

 773  359 mt 
(1) s
 899  389 mt 6255  389 L
 899 4614 mt 6255 4614 L
6255 4614 mt 6255  389 L
 899 4614 mt  899  389 L
gs 899 389 5357 4226 MR c np
/c8 { 0.000000 0.000000 1.000000 sr} bdef
c8
29 57 29 -58 30 32 30 -13 31 -38 30 -18 32 -68 28 -88 
27 -68 36 -136 31 -302 33 -232 29 -148 27 -347 26 -298 31 336 
29 204 23 -145 28 -7 23 -327 26 243 24 22 26 164 19 -232 
24 -201 23 65 24 -328 22 491 22 -228 20 -74 17 239 18 169 
21 -107 21 -423 24 -259 19 344 20 -43 22 -3 18 166 15 103 
21 307 18 -640 20 110 22 -801 22 891 19 -178 23 95 16 526 
22 70 17 -213 21 -162 19 -213 22 39 18 412 25 -210 17 -323 
20 323 15 -47 22 23 17 66 21 -193 16 254 20 92 14 -452 
21 80 14 343 22 -196 14 -211 22 528 15 -115 20 -699 12 130 
23 -110 10 210 24 -245 6 765 34 -514 17 220 23 -83 18 -45 
9 -488 36 379 10 -297 24 116 15 -113 21 738 18 112 19 -302 
7 123 39 -451 -5 706 38 -490 36 395 -12 -592 31 245 6 -19 
18 -69 27 -30 10 -191 4077 2758 100 MP stroke
23 386 13 183 19 -154 19 -236 20 -232 16 541 20 1 31 114 
-4 -496 9 177 27 -336 6 266 21 -262 8 95 20 23 6 -240 
19 395 0 -61 49 786 4 -388 0 -325 1 -79 11 127 7 108 
12 -5 6 250 13 -617 11 -309 9 -11 7 -716 10 1361 7 202 
9 -239 5 11 5 -660 10 167 4 633 10 -504 4 123 2 45 
6 256 4 -395 1 417 3 -197 3 -166 3 108 1 -43 3 -1071 
3 1190 3 46 1 238 2 148 -5 -150 1 -625 3 350 -6 -325 
2 228 -4 36 1 -18 -6 162 -1 -133 -1 -723 -4 712 -4 -91 
-2 -89 -2 218 -2 116 -4 -768 -5 562 -8 -54 -2 -25 -5 372 
-7 39 -10 -558 3 -57 -6 638 -2 -245 -6 -44 1 -804 -12 869 
-2 -19 -4 -59 -1 -1017 -7 685 -1 517 -6 -207 -3 206 -6 -24 
-3 90 -8 -374 -4 -563 -6 791 -4 -96 -7 75 -2 -349 -14 323 
-11 -75 -7 -244 -8 145 3772 2705 100 MP stroke
-12 57 -7 96 -9 127 2 -245 -7 89 -11 131 -17 76 -13 84 
-3 -173 -10 3 -9 -16 -10 -341 -14 522 -18 173 -10 -82 -10 118 
-9 -638 -10 -50 -10 -245 -10 682 -4 -241 -5 280 -13 -204 -9 288 
-11 -396 -8 92 -10 -249 -7 8 -16 340 -10 -15 -2 -72 -12 -46 
-11 -317 -9 -55 -21 417 -3 -90 -10 206 -17 -232 0 381 -7 -230 
-12 239 -1 -373 -10 -91 -6 -34 -10 513 -1 -288 -8 557 1 -386 
-10 248 -6 60 -8 -306 -1 -320 -8 -438 -10 699 -4 150 0 67 
-11 -193 -5 158 -11 -618 -17 740 -1 -297 -7 144 -6 -441 -7 342 
-16 49 -5 -229 -13 322 -12 79 -8 183 -15 -655 -14 461 3 -406 
-8 -25 -7 -204 -12 577 -5 -246 -13 545 -15 -185 -1 -881 -15 516 
-9 492 -5 -68 -15 -266 -11 -441 -11 280 -12 -408 -11 -442 -12 756 
-10 608 -11 186 -12 -785 -15 107 -10 253 -19 -431 -16 179 -6 -37 
-18 -259 -23 614 -3 -1264 4698 3365 100 MP stroke
-13 720 -10 110 -23 105 -7 -69 -10 -1241 -17 1341 -10 288 -13 -877 
-10 -259 -15 968 -11 -196 -13 192 -7 122 -28 -102 -6 -662 -24 584 
-8 -245 -11 264 -6 251 -15 -181 -3 323 -9 -35 -7 -311 -12 -67 
-5 260 -4 -46 -11 346 -9 35 -14 -321 -6 -364 -12 -284 0 226 
-13 -239 -6 550 -13 -271 -5 -157 -7 354 -1 1 -12 103 -24 -156 
-3 -435 -3 -91 -8 -72 -19 637 -23 619 6 -1151 -10 -6 -17 512 
-4 192 -7 -468 -19 499 2 77 -26 -662 -9 287 -16 -281 -10 111 
-3 614 -22 -39 -17 -821 -11 734 -16 185 -1 -693 -28 285 -2 -940 
-13 1181 -12 -637 -12 434 -12 -298 -10 399 -12 96 -13 -316 -14 -310 
-12 680 -13 -11 -11 -923 -9 894 -12 -7 -20 -635 -16 -126 -14 142 
-19 358 -13 -463 -12 -384 -23 1055 -12 -8 -4 -188 -18 232 -5 210 
-21 -854 -8 325 -7 422 -12 -715 -20 599 -1 3 -8 -537 -5 400 
-7 -388 -1 511 -10 289 5805 1782 100 MP stroke
-5 -324 -8 -304 -9 -581 -6 99 -7 764 -6 132 -3 274 -14 -407 
-1 -544 -7 312 -21 315 5 -80 -8 -104 -5 -232 -3 27 -21 235 
-3 -540 3 935 -10 7 -17 -430 5 19 -3 -276 -6 -150 -8 344 
-18 617 -2 -314 4 -652 -16 818 -11 128 3 -552 -1 564 -5 -53 
-19 -788 5 299 -10 -44 -6 78 2 198 -7 -190 -8 317 0 -34 
-2 89 -5 52 3 -666 -5 321 0 -354 -6 379 0 -100 2 -138 
-6 134 0 5 0 -149 -1 257 0 90 4 -138 3 -41 -1 158 
1 -61 -2 206 2 -329 2 416 3 66 2 -222 5 -611 4 314 
5 -628 4 510 7 326 2 379 4 105 16 -293 4 -214 4 -422 
8 641 6 220 6 -502 7 103 7 -354 3 -946 3 366 7 437 
7 231 8 134 5 280 16 -141 7 -266 8 -510 9 451 8 -112 
9 107 4 70 8 -364 8 -133 9 412 8 -29 8 381 9 -403 
19 -916 12 887 10 -332 5784 2746 100 MP stroke
13 354 9 92 11 -261 10 -396 9 760 11 -9 14 291 12 -163 
11 -921 14 1076 22 -541 26 498 5 -85 10 -255 11 -128 12 -330 
13 -67 11 584 13 131 12 105 15 1 20 -343 12 -543 16 270 
13 -782 12 572 17 272 14 50 16 -189 16 -336 11 283 13 400 
12 -293 21 12 13 177 13 101 12 -257 13 383 14 -393 16 84 
14 379 14 98 14 48 14 -341 12 -148 20 798 18 -14 13 -810 
23 484 3 -381 17 -204 15 -365 19 -1 18 -14 13 685 18 -373 
14 58 17 -102 15 174 21 243 19 117 14 -292 19 -444 16 -532 
18 1411 19 11 16 140 20 -177 15 -221 39 150 8 -1 15 86 
21 -427 19 -269 20 508 22 -15 25 87 16 -676 22 -223 20 -281 
21 671 19 410 22 -46 18 -467 24 201 19 84 25 -24 29 207 
3 253 25 -351 14 -68 25 -407 15 141 25 572 12 288 34 376 
32 4 -8 -1091 16 746 4181 1877 100 MP stroke
19 48 31 -401 4 192 17 55 16 -543 13 -84 28 609 9 -154 
22 212 10 -541 23 -462 1 589 18 390 10 -6 26 -1590 2 763 
9 323 17 13 14 298 12 -148 12 -726 11 68 11 478 8 4 
11 5 20 -27 -3 463 23 -225 4 -1531 9 1632 12 187 21 -206 
-1 -88 13 -1616 6 1513 24 399 7 329 -2 -1249 11 599 7 249 
19 -399 18 764 -6 -1052 9 609 8 -315 27 869 -2 -525 4 36 
8 488 13 -160 4 427 19 -727 0 53 13 169 11 -127 7 89 
11 -3 -2 -521 13 -139 27 557 4 -588 -2 710 18 -760 15 -143 
-3 165 16 -717 11 1110 17 -10 19 -18 9 -346 20 56 1 682 
20 -191 23 -520 10 -25 12 -422 24 835 10 -549 33 660 8 -1274 
14 927 17 290 27 -488 21 164 12 -527 22 551 5 -299 25 -699 
13 861 18 99 15 94 19 222 14 -484 20 393 18 -138 16 -32 
9 76 18 72 15 43 2892 2183 100 MP stroke
18 -66 14 293 13 -146 12 67 12 -218 14 20 14 436 12 342 
14 77 16 -19 7 -129 3 -247 16 -37 8 -94 11 119 8 -270 
7 339 8 -103 12 -54 14 261 3 -489 8 28 12 -104 11 105 
8 -204 8 -79 11 -316 11 -154 10 54 8 421 9 -610 9 -174 
11 498 10 38 8 187 9 192 13 -305 10 -376 8 617 16 -278 
6 -312 6 623 12 -43 8 -368 10 -85 10 479 13 -714 9 -13 
11 552 11 96 14 172 13 45 11 -125 9 -405 13 193 11 -52 
12 27 9 -307 8 -210 9 69 7 17 6 411 7 267 5 -389 
5 -26 3 480 6 -45 4 -98 2 -459 4 -83 3 -179 2 92 
4 541 1 21 2 -38 2 106 1 -205 2 40 1 257 -1 -247 
2 -53 -1 -156 3 -60 -1 -432 2 337 -2 275 1 -1032 -1 338 
1 897 -1 -82 0 -242 -4 260 -1 259 -1 39 2 -519 1 54 
2 -385 0 -81 -1 672 2194 2387 100 MP stroke
4 246 6 -378 0 77 1 -148 6 332 1 -246 6 -264 1 516 
4 208 4 16 4 -204 5 -941 8 831 6 7 7 -113 4 -241 
7 -960 7 555 9 658 7 -144 9 -43 9 -773 9 367 7 565 
10 -442 11 33 12 -305 7 59 10 248 7 -46 9 614 6 -143 
11 -417 7 349 7 -194 6 146 16 165 0 -64 9 -56 9 49 
1 267 8 -128 5 275 7 -482 7 -240 5 413 6 33 4 35 
7 -257 4 -194 3 -106 6 229 2 -118 3 369 5 -196 3 -277 
5 -69 3 615 4 -4 12 -340 1 -68 6 68 5 -78 4 -59 
5 237 6 -104 5 -326 7 337 10 38 0 8 8 -413 2 330 
10 143 4 -543 8 259 6 -153 5 42 6 92 5 571 5 -437 
2 113 11 469 -3 -1656 9 1186 5 -265 2 -173 2 189 2 283 
2 -97 -1 -321 2 299 -2 374 2 -311 -4 -182 -1 90 -5 526 
1 -274 -2 190 -4 -334 1700 2593 100 MP stroke
-2 94 -3 -364 -4 72 -4 49 -7 -42 -4 244 -5 -134 -6 151 
-7 -226 -7 5 -6 -66 -3 438 -10 147 -3 -225 -13 -208 -2 182 
-9 -291 -3 -107 -5 268 -8 102 -7 18 -5 -182 -16 -5 -5 124 
-5 114 -15 -221 -5 -94 -13 -915 -6 1187 -9 -360 -7 296 -7 -103 
-3 186 -14 -116 -1 -19 -9 96 -2 -110 -9 -40 0 12 -11 -187 
-5 470 -7 -86 -5 -69 -7 47 -4 -253 -4 -5 -4 0 -5 -673 
-12 1008 -5 -100 -4 384 -1 241 -4 74 0 -281 -3 -148 -2 227 
-2 -56 -2 -306 -3 27 1 387 0 -428 1 148 0 -900 1 667 
0 334 0 -169 5 73 0 -110 4 -36 8 -170 1 -179 5 -185 
3 34 6 -263 5 339 5 120 3 152 4 164 5 -134 7 -386 
8 410 2 -309 5 -800 4 652 6 267 3 70 5 212 4 170 
5 -217 4 -408 4 413 4 175 2 -41 3 -277 1 -248 1 -582 
3 -978 2 1379 0 609 1909 2367 100 MP stroke
-8 -185 4 -88 4 418 -1 -524 1 488 -1 -166 -1 293 -2 109 
-4 39 3 -134 3 -119 -6 -73 4 -235 2 -24 0 99 2 62 
1 100 -1 -294 -2 287 1 35 3 59 2 -151 1 142 1 -404 
3 363 3 98 4 -238 5 -383 6 330 6 -216 7 15 5 -505 
5 247 6 270 5 14 8 242 7 -103 8 -421 8 584 9 -74 
12 -53 10 15 7 273 11 -91 5 -217 9 151 14 -152 9 -322 
10 -179 11 606 11 210 12 96 13 -750 9 558 10 -160 10 -22 
12 193 11 213 9 -112 13 80 9 -88 13 -242 11 545 13 -131 
11 -295 13 -157 13 -414 9 523 11 -251 12 -196 12 434 11 -80 
10 -222 11 547 10 -345 12 83 9 -303 10 238 9 -214 9 -461 
10 236 10 316 9 308 10 -393 9 401 10 -99 8 -107 10 -218 
7 80 10 254 7 -361 7 -102 7 422 7 216 6 -241 7 -184 
6 -222 7 478 7 -28 1228 2346 100 MP stroke
9 -369 7 241 10 304 7 -389 6 -115 8 -4 7 317 15 431 
4 -81 13 -315 2 -318 11 -38 10 402 5 282 9 69 -2 76 
22 -170 -4 -477 7 399 3 110 10 -327 9 37 -4 -153 30 888 
4 -94 -2 -482 2 -86 -3 87 8 -421 3 183 4 186 9 -252 
3 23 5 184 2 49 4 -440 2 -158 2 -202 2 147 2 283 
1 333 1 -269 -1 156 0 134 0 -502 -1 -66 -1 254 0 661 
0 -236 -3 -33 0 -172 -1 9 -2 28 0 -499 0 430 1 -1023 
-2 1274 1 -54 -3 -25 0 -654 0 464 -1 -222 -3 163 1 7 
-1 144 -1 -904 0 870 -2 -542 -3 242 -1 -181 -4 329 1 -83 
-1 267 -2 168 -1 -313 0 -424 -1 575 1 289 -4 -606 1 -1 
-2 370 0 -643 -2 317 0 90 -2 253 1 193 -2 -587 0 462 
-3 -324 0 -379 -7 693 2 -210 -3 -69 -6 -218 -4 -88 -1 -12 
-4 411 -5 112 -4 -12 1060 2192 100 MP stroke
-5 13 0 -423 -6 98 -4 105 -9 -339 -8 -65 -2 292 -7 -241 
-1 828 -16 -355 0 -352 -9 131 -8 370 -3 -1331 -6 690 -13 292 
-4 300 -8 31 -3 -120 -4 375 -12 -455 -10 184 0 -39 -9 66 
-3 48 -12 -108 -13 -270 -3 382 -4 161 -12 -74 -9 283 -3 -1326 
-14 1035 -6 -264 -11 29 -12 324 -2 158 -13 253 -8 -389 -6 314 
-10 -290 -18 -249 -1 291 -11 137 -9 -328 -11 -183 -10 241 -13 -333 
-11 143 -13 113 -11 -281 -12 -381 -13 346 -13 -738 -10 804 -8 -441 
-19 156 -23 348 0 349 -17 -60 -11 169 -17 -577 -25 101 -3 586 
-13 -104 -14 -370 -23 636 -15 -226 -3 -55 -20 -83 -7 -244 -24 230 
-17 -119 -5 -346 -13 -13 -17 277 -12 226 -21 -864 -22 424 -6 288 
-13 -202 -28 -274 -13 53 -7 -152 -21 459 -15 -197 -20 -26 -16 121 
-18 67 -12 -168 -17 -199 -21 206 -17 -128 -15 -329 -13 -229 -22 160 
-20 231 -18 -141 -19 498 2184 2251 100 MP stroke
-16 -138 -18 1 -21 -23 -15 120 -20 -351 -15 -146 -36 743 -6 -505 
-19 261 -33 -86 0 42 -31 -316 -12 20 -40 795 -3 -646 -21 -28 
-13 54 -33 -406 -23 401 -7 464 -25 -452 -19 -194 -19 -90 -27 278 
-32 325 -1 -319 -27 -80 -15 265 -23 -181 -20 340 -40 -168 2 -146 
-29 -247 -11 229 -43 82 -8 -772 -35 875 -3 -420 -27 457 -29 271 
-3 -821 -27 395 -18 -98 -36 -360 -4 897 -18 -157 -22 33 -17 -19 
-35 -473 -16 -130 -21 399 -17 67 -24 123 -17 3 -26 -35 -2 -1240 
-37 1166 -11 -435 -14 272 -41 115 2 -57 -28 -778 -9 624 -39 55 
-5 70 -31 195 -4 -43 -19 -267 -12 502 -31 -461 -9 -183 -32 245 
-18 179 6 -24 -18 -208 -20 -617 -20 746 1 -58 -27 315 -6 -232 
-16 179 -10 -119 -14 0 -10 137 -12 -262 -11 -894 -10 814 -5 389 
-11 -56 -13 38 -14 -47 -8 -112 -14 79 -9 -343 -11 376 -4 39 
-35 -5 5 -660 -5 -34 3929 2718 100 MP stroke
-17 10 -15 400 -8 -519 -15 29 -11 -120 -14 -175 -13 390 -8 -255 
-10 871 -25 -150 -4 -191 -16 -182 -22 174 -2 -364 -18 141 -13 -278 
-24 604 -9 -142 -9 -181 -17 42 -12 -79 -17 -446 -14 677 -20 -150 
-14 350 -17 91 -15 56 -16 -247 -14 -130 -17 199 -13 126 -18 323 
-13 -142 -15 -484 -14 159 -14 -300 -11 -128 -13 282 -11 -168 -14 374 
-11 -61 -14 -293 -11 104 -13 111 -11 230 -13 -89 -11 278 -8 -288 
-10 -487 -10 -232 -8 399 -10 244 -8 -51 -9 104 -11 -295 -6 310 
-8 -386 -11 -89 -1 238 -7 126 -5 61 -8 -413 -4 272 -7 240 
-5 -49 -7 -422 -3 -51 -3 162 -4 304 -1 143 -1 -460 -1 -135 
1 -68 0 453 3 -119 1 114 4 8 5 308 2 -197 2 -866 
5 353 3 313 7 97 5 301 9 -268 8 -81 8 -71 7 -556 
8 547 6 349 8 44 8 56 10 -327 6 -680 9 865 5 -224 
8 63 4 -337 7 26 4582 2623 100 MP stroke
4 293 7 -124 5 -68 4 128 4 130 4 -86 0 -345 4 500 
-1 -314 3 148 1 94 2 -132 -1 -330 1 74 0 -205 1 605 
-2 96 1 -145 -4 -359 0 -350 -3 738 -1 -712 -2 106 0 195 
-2 322 -1 -49 -2 12 0 -178 -2 83 1 104 0 34 1 -183 
0 350 3 -273 1 -636 3 877 1 256 3 -17 2 -550 4 -201 
2 261 6 282 4 44 6 39 5 59 8 115 5 -363 8 -15 
7 69 7 -76 7 -90 7 143 7 -260 8 -244 7 224 8 -501 
8 607 9 194 16 125 3 -760 8 492 10 -134 10 -23 10 -298 
8 -687 8 111 11 809 14 20 5 -52 16 334 -3 -146 20 -96 
2 -87 15 -33 1 106 8 400 13 -908 12 527 1 181 22 292 
0 -27 11 -34 8 -157 16 122 6 -125 21 144 5 28 9 -219 
11 -2 12 194 10 19 13 -290 10 -77 15 -205 10 283 16 77 
10 -47 16 121 7 -80 4008 2349 100 MP stroke
25 -121 10 -529 9 55 15 405 14 72 11 117 23 -363 19 114 
4 241 22 -735 12 18 18 314 15 -37 19 -320 16 -120 19 651 
16 -605 19 806 16 -414 24 328 28 396 3 -1015 23 633 15 280 
21 -59 17 158 21 -197 16 -287 20 -382 16 83 20 428 17 346 
20 8 18 -130 20 -141 18 -322 21 436 18 -21 23 -145 19 -359 
21 83 19 -151 21 126 20 264 23 -132 19 -44 23 172 19 116 
23 226 20 -454 21 -279 20 71 22 299 20 152 23 -542 37 622 
6 -753 21 147 24 63 23 -87 24 265 23 225 24 175 23 -197 
24 -194 22 218 25 21 22 -39 24 -54 23 170 24 -496 22 -300 
24 7 23 410 25 253 19 113 25 -41 22 -295 26 337 20 -553 
25 53 21 247 26 -68 18 251 26 -67 19 5 26 -69 19 122 
28 -18 16 300 27 -409 13 144 34 -549 27 -176 18 583 21 223 
21 -668 19 274 9 437 2006 2223 100 MP stroke
27 -329 10 109 23 -80 13 -189 19 -77 18 -351 19 -23 12 392 
12 301 9 -406 10 197 11 -155 19 210 7 309 3 -184 10 -317 
9 186 7 270 7 -588 6 378 7 138 -2 209 7 -269 2 -728 
5 1065 -1 -298 5 392 1 -322 1 -93 -1 -92 2 332 1 -523 
6 -206 -3 818 -3 -399 0 67 -1 140 0 15 -3 159 0 -82 
-6 9 -3 -356 1 502 0 -251 -3 -219 -4 536 0 -253 -1 -65 
0 375 -3 -148 -1 28 1 359 -1 -838 2 -726 3 444 1 396 
4 -36 7 -349 3 -23 11 950 1 -731 1 466 9 -240 4 454 
25 -234 6 91 0 -221 29 430 -6 -556 9 2 7 335 37 -7 
13 26 -5 -688 4 626 5 145 18 -589 18 549 -8 -6 24 -41 
3 -352 2 -577 12 659 3 -149 6 318 22 161 13 275 -6 -803 
5 195 16 -403 -1 645 7 -51 12 -1275 -6 1870 16 -804 -2 749 
6 -352 19 814 -2 -395 1405 1576 100 MP stroke
1 -185 -1 -302 0 -333 1 388 -1 286 2 82 4 -1059 -1 852 
1 -221 0 355 0 -882 0 94 -1 -138 0 636 -3 -210 -2 -372 
1 29 -4 187 0 -159 -2 -114 -3 208 -4 204 -4 -351 -4 150 
-13 390 -1 -638 -3 -98 -17 828 7 -498 -15 211 -5 48 0 -609 
-10 -96 -4 102 -7 511 -5 -10 -5 -74 -9 -91 -7 -10 3 -140 
-7 181 -4 89 -9 46 2 240 -8 -148 -6 -202 -5 -761 -5 379 
-6 -270 -3 483 -5 98 -5 -56 -13 28 -2 -380 -11 381 1 -60 
-16 -564 -8 705 -9 -149 -8 -425 -4 494 -15 -115 -3 28 -23 545 
7 -588 -16 -47 -12 -25 5 453 -16 -851 2 853 -14 -205 -7 225 
-10 -158 -5 105 -22 -266 -11 472 5 -274 -3 72 -15 110 -25 395 
10 -1197 -28 812 -10 -920 5 1212 -18 -51 -15 -142 -10 96 -13 -427 
-16 -390 -18 562 9 35 -31 288 9 -1044 -14 610 -6 -313 -11 -69 
-4 233 -13 110 -4 -91 2003 2453 100 MP stroke
-23 27 6 -73 -11 -384 -7 533 -10 -141 -6 158 -9 -307 -6 306 
-9 -213 -8 47 -18 692 9 -859 -22 610 0 -326 -4 -692 -7 123 
-6 160 -6 7 -7 214 -5 323 -4 -174 -6 -617 -9 403 -9 118 
-3 103 -5 -170 -20 -37 -10 374 5 -113 -4 -163 -3 -585 -12 550 
-9 -119 3 319 -9 -190 -2 35 -13 193 2 -97 -6 -295 -12 -1 
4 -123 -10 338 -2 -153 -9 -77 -4 -149 -10 275 0 176 -9 -113 
-6 -191 -8 676 -7 -3 -12 219 -1 -654 -10 14 -4 304 -9 26 
-4 44 -14 -559 0 319 -8 -93 -9 350 -1 -318 -9 -232 -6 -152 
-7 438 -6 -81 -8 132 -7 50 -7 -411 -7 -155 -7 -543 -7 -33 
-8 707 -6 191 -10 -192 -8 64 -2 -226 -7 250 -4 -301 -10 653 
0 -70 -5 -176 -3 -301 -4 36 -4 628 -6 -346 -4 -33 -6 221 
-6 -375 -6 135 -8 -601 -8 425 -7 381 -7 -116 -7 23 -8 -694 
-9 269 -10 -172 -11 199 2656 2814 100 MP stroke
-10 494 -11 -770 -13 920 -13 -333 -12 145 -14 256 -12 -75 -13 -143 
-15 -528 -13 2 -14 461 -15 -213 -16 24 -15 -47 -17 -9 -13 -93 
-15 372 -18 16 -14 -80 -17 -157 -17 -61 -17 414 -19 -10 -19 -375 
-19 -937 -18 700 -19 128 -20 -267 -23 122 -22 -891 -23 1189 -23 279 
-24 61 -25 -295 -23 41 -23 -97 -24 218 -22 -259 -23 384 -29 -788 
-25 136 -25 254 -27 -65 -27 -75 -26 -178 -25 -49 -29 324 -26 381 
-27 -79 -26 -170 -27 442 -27 -156 -27 -169 -24 -104 -26 205 -26 -243 
-26 -15 -25 15 -25 -536 -25 618 -22 262 -22 -674 -23 586 -20 -194 
-21 155 -20 -193 -20 64 -17 306 -21 -188 -19 -257 -18 354 -18 115 
-15 11 -16 -214 -17 142 -19 15 -16 -620 -16 386 -15 -232 -15 283 
-15 167 -14 5 -18 132 -16 -637 -13 219 -14 -6 -13 -15 -13 327 
-12 22 -12 -472 -8 -568 -12 742 -19 272 -10 -186 -11 42 -6 -465 
-6 591 -10 -7 -7 96 4488 2114 100 MP stroke
-8 -125 -9 71 -5 -360 -6 -17 -8 386 -6 -214 -8 -515 -6 134 
-7 182 -6 -35 -9 -110 -5 -223 -9 207 -5 -12 -8 133 -5 -131 
-10 309 -1 137 -8 -98 -7 -23 -5 -101 -6 249 -4 126 -4 -50 
-3 224 -3 -227 -1 -166 -3 -125 -3 -240 0 186 -2 361 1 339 
-1 -485 3 -282 2 -14 -6 -499 0 -418 3 1027 1 -269 -3 -105 
0 342 -1 57 -2 61 -1 341 -1 -792 4 516 -2 117 1 69 
-4 -399 0 16 1 273 1 -219 1 100 -1 311 -1 -423 0 218 
-1 -561 -3 102 -5 421 2 -600 1 136 0 161 -2 117 1 431 
-3 -148 1 140 -3 -349 2 -1063 0 619 -2 -263 -3 242 0 8 
-2 552 -1 129 -2 133 -1 -331 -5 82 -3 -135 -7 -50 -2 372 
-10 -548 -5 264 -8 -194 -8 -323 -8 228 -5 219 -7 346 -15 -525 
-1 -95 -9 18 -13 693 -7 -110 -3 -345 -11 -244 -6 262 -12 158 
-3 298 -10 -42 0 -73 4842 2167 100 MP stroke
-10 -175 -4 149 -13 57 1 -83 -7 3 -7 -56 0 -278 -9 -170 
-4 288 -2 75 -6 202 -4 164 -2 -123 -4 -65 -4 -930 -7 764 
-3 273 -4 -16 -6 -534 0 232 -5 -951 -3 825 -4 182 -3 41 
-7 185 -1 -393 -5 428 0 -441 -4 -245 0 -749 -5 1345 -1 -141 
-1 -40 -1 -379 -1 -279 -1 823 0 167 0 -380 0 43 1 -21 
1 -255 1 -428 0 870 1 -2 1 164 4 -609 2 -29 3 -493 
1 701 1 -320 2 -333 1 229 1 532 2 -87 0 19 2 -19 
0 -38 1 -334 1 408 1 -129 0 -530 0 660 1 -13 1 285 
2 -383 2 232 1 50 5 -26 3 -82 4 -49 3 -307 6 -574 
4 740 10 181 3 -335 3 157 9 -672 11 811 1 -186 9 -78 
5 -116 6 413 8 -462 7 -250 8 508 8 -561 6 -13 6 211 
7 645 5 -235 6 -942 8 1082 6 395 0 -1032 5 252 4 405 
3 -185 5 -207 0 368 4771 2366 100 MP stroke
1 -373 0 408 1 129 0 -164 0 142 -5 453 0 -694 -2 -33 
-4 378 -1 -277 -5 -690 -4 327 -4 289 -5 220 -10 -232 -1 -339 
-8 -19 -6 432 -7 -741 -7 323 -8 61 -7 80 -8 148 -10 -260 
-8 -380 -9 378 -7 -100 -9 514 -9 -291 -10 171 -9 348 -15 -408 
-10 224 -3 192 -15 -786 -6 660 -14 -28 -25 704 2 -1117 -5 137 
-12 -113 -9 294 -11 142 -10 275 -10 -288 -9 -311 -10 -772 -8 690 
-9 322 -8 28 -9 -282 -9 16 -8 -418 -6 -12 -8 757 -5 -380 
-7 86 -5 16 -7 -109 -4 383 -6 53 -6 289 -5 -120 -4 70 
-7 -678 -6 621 -7 330 -6 -263 -6 -414 -5 -315 -7 -719 -9 537 
-9 562 -8 -349 -9 -215 -8 65 -8 8 -10 -248 -11 191 -10 -39 
-10 478 -10 -611 -11 59 -10 675 -13 191 -12 7 -13 -695 -12 -365 
-14 798 -13 219 -16 -389 -13 -94 -15 -209 -12 802 -17 -55 -12 -416 
-21 263 -19 -332 -2 380 5579 2184 100 MP stroke
-19 -433 -13 553 -18 176 -14 67 -15 -216 -12 -635 -18 767 -13 182 
-17 -385 -25 151 -9 -363 -7 -287 -27 525 -14 397 -15 22 -12 -415 
-16 -435 -9 97 -18 479 -1 -400 -28 262 -29 513 9 -632 -6 -276 
-11 -437 -11 611 -8 445 -10 -15 -6 65 -8 -1464 -4 630 -9 -183 
-3 527 -15 -31 3 -161 -7 514 -4 -18 -6 -312 -6 144 0 -235 
-9 -194 -6 265 0 50 -6 113 -2 60 -3 -338 -2 -403 -1 716 
-1 -52 -3 -363 1 274 -3 -925 0 -131 -1 629 0 407 -1 81 
2 -386 2 79 2 232 2 -403 2 348 4 -11 3 63 4 -65 
4 -273 6 60 6 29 5 228 8 -281 4 301 11 405 12 42 
1 -397 10 -193 8 264 8 -80 8 -117 9 36 8 189 9 -178 
9 396 9 -380 9 29 11 -192 10 119 12 54 11 424 12 -305 
12 -240 12 -174 14 -112 14 -136 14 677 15 -228 13 432 15 -191 
15 283 13 173 16 -157 5693 1837 100 MP stroke
18 266 17 383 18 -67 16 -153 19 -66 19 -288 19 619 20 149 
20 -879 21 -116 22 -87 21 675 22 -146 22 106 22 -66 22 -331 
20 408 21 -27 21 49 22 -398 21 -327 24 569 21 -101 21 -236 
18 -775 20 652 20 -46 19 -442 20 -107 18 392 22 203 18 -199 
20 -757 21 416 16 439 18 -482 19 214 16 -104 20 -339 18 580 
19 102 18 -909 19 260 18 183 19 125 17 -30 15 -250 20 -184 
20 337 18 468 18 -47 17 -17 18 50 15 -488 16 480 17 0 
15 -96 15 -113 15 -10 15 135 12 -419 14 214 13 -43 12 -195 
12 249 12 293 10 -491 11 -15 11 424 11 -47 11 -365 10 536 
9 18 10 -484 8 224 10 -24 9 -870 7 1030 7 -357 8 -19 
6 69 7 94 6 389 6 57 6 180 6 -802 7 -145 7 813 
6 194 6 -172 5 -51 5 312 6 -322 6 344 4 -370 9 293 
4 -347 6 -313 5 285 4237 2093 100 MP stroke
6 -113 6 -329 6 -180 5 240 6 -287 6 -508 4 836 6 -168 
8 199 7 313 8 -151 8 -282 10 779 8 125 8 -232 8 -226 
9 178 8 -782 8 915 10 -65 10 151 8 28 8 -325 10 -4 
6 -48 8 42 10 -133 8 211 9 123 8 -111 8 -47 7 -685 
5 422 5 299 7 -1 6 162 5 67 6 -43 4 66 3 -467 
2 -425 5 381 2 323 3 421 4 -157 5 -735 3 151 2 495 
4 -443 2 572 6 114 7 -329 6 -429 4 -218 3 610 6 384 
4 12 5 -697 4 407 4 -83 4 36 4 -173 2 63 4 89 
3 305 2 -96 1 102 3 -265 4 -12 0 -190 4 44 3 360 
2 272 3 -463 2 -36 3 -35 2 -86 1 86 1 -1070 1 1288 
5 173 1 90 1 -165 1 9 0 216 -5 24 2 -321 -2 26 
1 146 -1 -244 -4 -354 -1 204 -2 279 -2 -213 -1 -36 -2 -113 
-5 -68 -4 667 -3 -112 3842 1343 100 MP stroke
-7 -209 -3 -58 -6 -367 -1 333 -10 94 -9 81 -4 -19 -6 -307 
-7 -23 -4 -343 -7 942 -14 -463 -6 -366 -8 93 -7 456 -8 -166 
-8 -72 -10 -245 -8 -92 -9 -697 -7 320 -9 221 -9 443 -11 -93 
-12 -52 -9 155 -10 -466 -9 558 -8 -428 -10 517 -8 36 -11 -234 
-13 -166 -9 289 -10 196 -9 -501 -11 141 -8 43 -10 326 -14 -964 
-10 826 -9 -282 -11 49 -10 511 -13 -19 -9 -94 -14 -506 -17 480 
-14 424 -15 63 -10 -111 -17 -255 -12 -247 -7 115 -21 202 -20 -924 
-18 595 -19 -158 -10 2 -19 -134 -14 381 -24 175 -23 -343 -15 -781 
-19 851 -20 -15 -22 85 -26 -352 -21 274 -30 201 -16 -66 -26 36 
-19 -129 -24 221 -34 -935 -29 645 -21 -336 -18 85 -29 177 -32 -1042 
-32 1047 -22 633 -21 -10 -32 54 -27 -156 -33 -542 -27 -160 -31 708 
-21 547 -25 -140 -31 -490 -29 -612 -24 235 -30 192 -22 -260 -27 525 
-30 -118 -22 -89 -20 -455 5424 1852 100 MP stroke
-31 132 -23 235 -19 -783 -27 -64 -27 5 -21 -543 -19 -268 -24 43 
-23 -87 -24 792 -20 172 -20 -531 -17 349 -18 -781 -19 386 -18 -26 
-18 122 -13 619 -19 -546 -10 -301 -13 -90 -15 387 -16 132 -10 -257 
-12 -65 -13 -256 -14 276 -10 551 -10 -542 -8 32 -6 106 -7 4 
-8 199 -3 -544 -1 -184 -5 1239 -5 -146 -1 -84 -10 -66 -5 140 
0 -663 3 1076 -1 -117 1 -131 2 146 5 -148 3 97 4 -680 
5 523 5 357 6 27 -1 -463 3 -646 11 405 2 -130 17 205 
-4 251 12 -1012 14 933 -6 128 27 -337 8 -153 -6 -740 11 1268 
20 -806 -3 62 4 219 20 -218 5 241 30 96 -2 339 9 -190 
13 -165 10 -474 12 267 2 532 19 -829 4 141 22 515 12 -239 
6 -25 13 143 15 -406 11 -300 12 862 10 -60 13 -111 11 -254 
10 -307 12 188 14 -56 9 440 13 207 6 -217 21 63 6 -204 
13 318 7 33 8 -972 5498 3066 100 MP stroke
12 346 11 561 13 39 12 241 15 -310 12 -613 11 915 10 42 
10 -522 10 77 7 -27 10 -326 10 294 2 524 4 -269 20 -247 
11 189 0 425 8 -846 4 417 5 184 4 -237 6 -135 4 58 
1 -314 4 162 4 545 2 -344 3 131 5 -362 1 19 11 -702 
2 67 6 -34 3 496 4 422 5 -178 6 264 4 22 6 -70 
6 145 8 -487 7 331 8 -474 7 375 8 379 10 -304 12 420 
12 -137 14 -376 19 67 13 -338 16 126 17 397 17 -250 14 91 
16 223 17 -101 15 273 18 -406 23 97 16 -544 22 255 20 -358 
22 577 17 187 20 -2 19 -15 19 -203 20 -712 18 302 18 128 
20 15 18 -608 19 73 20 317 19 -67 18 -262 18 514 20 107 
18 70 19 -446 20 273 14 -326 23 215 24 163 17 -89 18 123 
19 100 22 268 14 -518 14 -74 20 371 17 -435 20 30 15 290 
19 516 26 57 12 -221 4229 2040 100 MP stroke
15 -23 22 -249 23 431 15 -235 14 236 18 -128 12 -138 15 -412 
14 378 20 -141 19 -250 14 139 19 190 22 -38 16 -336 18 70 
9 89 21 -104 13 32 17 -191 18 -489 19 654 18 127 18 -482 
18 73 27 254 19 -488 21 858 18 138 27 -105 18 -703 23 644 
13 -173 32 461 34 356 5 14 31 -484 22 211 25 301 24 -542 
24 -218 21 -393 21 931 28 246 35 -176 24 -209 27 198 18 -191 
20 33 15 153 34 -211 21 -462 22 653 24 -5 24 -81 20 -40 
21 -124 19 -389 19 -713 24 655 21 564 19 -64 16 -172 15 97 
17 -491 18 233 15 7 19 93 17 -560 10 407 15 -41 12 -475 
10 -642 10 655 16 381 10 -122 8 -152 11 9 9 253 11 -124 
8 226 8 -328 12 -15 10 -215 9 482 8 -193 6 12 9 138 
5 118 11 -79 9 6 7 -89 5 265 5 -99 6 -600 9 -507 
6 882 11 -321 4 -276 2575 3175 100 MP stroke
7 267 6 196 7 136 4 -100 7 398 8 -116 5 -131 6 432 
7 -275 4 -93 3 81 4 158 4 -29 5 -532 6 262 4 151 
7 -48 6 -19 2 -189 4 -95 4 576 4 -91 3 6 5 -159 
4 34 5 -39 7 236 3 -361 3 -166 4 169 4 76 3 144 
7 -205 8 -192 5 -81 3 327 2 274 4 -141 3 -218 3 -544 
3 71 1 482 4 18 1 -618 3 256 -1 522 2 -799 1 352 
2 -129 2 -54 2 366 1 -534 1 743 0 249 0 -134 5 -369 
0 -456 3 905 1 39 2 21 1 -102 0 26 -1 172 4 133 
0 -845 4 520 0 79 1 160 1 -182 1 -100 0 -55 1 -42 
0 -167 1 220 1 202 0 185 1 -478 2 130 -4 -81 0 49 
-1 -1149 0 728 -2 -1 -3 438 -1 -353 -4 -72 -1 331 -4 241 
-1 48 -5 -355 -2 33 -5 -346 -4 -838 -6 1256 -5 -103 -7 358 
-7 -131 -7 -373 -6 -67 2410 2676 100 MP stroke
-5 388 -5 -62 -8 -828 -8 -73 -6 120 -6 896 -5 314 -7 140 
-5 190 -5 115 -8 -104 -7 -84 -6 -592 -6 314 -7 531 -6 310 
-7 188 -7 347 -6 -430 -6 -50 -8 -155 -4 -278 -12 -153 -11 -192 
-7 -18 -9 173 -9 -815 -10 203 -8 95 -10 155 -12 -223 -12 141 
-12 -59 -14 -111 -15 -99 -13 -208 -14 -332 -14 -92 -16 752 -14 -198 
-15 -930 -14 1123 -12 -595 -14 102 -15 -276 -17 502 -16 -51 -16 336 
-15 -35 -17 161 -16 -103 -16 -57 -17 105 -18 -490 -18 -423 -19 633 
-18 17 -17 -54 -16 350 -18 -151 -19 -223 -18 -698 -17 319 -19 -17 
-17 405 -18 122 -19 298 -18 -395 -17 -352 -18 32 -18 -39 -16 205 
-19 -311 -19 673 -17 -166 -18 -65 -18 -464 -18 743 -18 236 -18 52 
-17 -183 -17 -465 -17 112 -19 -9 -20 -904 -18 1093 -18 257 -18 41 
-17 28 -16 -199 -20 -94 -20 -98 -19 -1025 -18 843 -19 170 -18 190 
-21 62 -15 -91 -21 -435 3791 2648 100 MP stroke
-22 -21 -20 -407 -20 392 -20 -24 -20 -262 -19 263 -21 290 -20 -755 
-19 536 -19 147 -20 -19 -17 1 -19 -185 -17 -216 -17 -1 -19 -66 
-18 4 -17 108 -16 354 -18 -219 -16 -4 -18 216 -17 -611 -16 143 
-16 427 -17 451 -16 -571 -18 302 -16 -255 -18 -228 -16 218 -18 186 
-17 -331 -17 -149 -16 515 -16 -550 -16 286 -16 -710 -17 1253 -15 -553 
-15 229 -14 -53 -15 412 -16 -300 -16 -471 -13 882 -13 -249 -14 177 
-13 -128 -14 -256 -15 11 -15 -134 -14 477 -14 -228 -12 230 -15 -310 
-12 305 -14 -115 -12 -637 -13 512 -11 -37 -10 248 -11 -406 -11 183 
-11 374 -10 86 -11 -743 -9 -58 -8 -146 -9 682 -4 -262 -6 106 
-5 -219 -6 -109 -5 -63 -5 -450 -4 412 -3 209 -2 -33 -2 -342 
-1 384 -1 -421 0 605 1 -120 3 -394 1 172 3 174 3 -149 
3 395 3 -176 5 -366 3 159 4 449 5 230 6 6 5 -320 
5 -368 6 -651 8 746 4861 2552 100 MP stroke
7 382 7 157 7 -166 8 -95 7 120 8 11 5 -277 8 108 
5 -155 9 -253 7 582 8 239 6 90 10 -246 3 -66 14 -590 
1 304 7 -384 10 655 5 159 8 221 7 -190 8 -424 7 -381 
7 243 7 369 6 -45 10 -293 0 103 10 127 3 -65 4 -5 
3 -367 6 527 0 -377 0 126 4 -528 2 -297 1 503 2 -152 
0 8 -1 554 0 -1178 -1 1019 -2 -308 -1 288 0 298 -2 301 
-1 -739 -1 -121 -1 754 -2 -118 0 30 -3 -313 0 438 -4 -615 
-1 -1011 -2 1216 -1 314 -5 150 -3 -317 -5 242 0 -768 -1 647 
-5 -268 -3 170 -2 335 -8 -486 1 -22 -5 79 -1 212 -4 -333 
-3 182 -1 -531 -3 601 -2 -424 -2 -821 -1 1256 -1 -422 -5 341 
-4 28 -1 45 -2 -105 -3 -316 -1 184 -3 591 1 -704 -2 249 
0 -351 -3 430 -1 24 0 106 1 -797 1 30 0 751 1 -346 
2 47 9 373 2 -218 4709 2221 100 MP stroke
-2 84 6 1 2 156 14 -185 8 355 -3 -768 1 -466 2 966 
13 -440 -7 886 21 -772 10 681 -4 -743 3 150 -4 594 10 -693 
15 803 -4 -510 2 -444 -1 227 1 434 4 -398 11 23 -4 -80 
8 37 4 323 -1 -527 1 -73 3 118 2 121 3 586 2 -1023 
4 892 -2 -598 1 -97 0 499 9 293 -2 -1000 2 398 0 454 
14 181 3 84 -1 -848 0 -140 0 665 2 -445 2 42 2 -282 
3 290 -2 270 3 -274 1 355 4 -427 1 212 1 1 1 -318 
1 51 -1 302 -1 -172 -6 305 -4 -264 -1 -651 -4 16 -3 475 
-4 208 -3 222 -5 -42 -4 -309 -4 95 -5 -250 -3 -953 -4 818 
-4 369 -4 90 -2 45 -2 -145 -3 60 -1 -354 -1 143 -3 -31 
0 146 -2 -396 -5 410 -3 202 1 -640 -1 390 -4 -376 -4 -72 
-2 457 -3 172 -3 -169 -2 83 -1 -596 -1 477 -1 199 -1 -143 
-2 -72 0 -198 3 359 4649 2330 100 MP stroke
3 -259 2 -41 5 226 3 -20 5 -79 6 177 6 99 7 -746 
8 11 9 738 10 -98 9 175 12 25 10 -459 13 368 13 341 
15 -526 16 -90 17 425 17 -218 16 78 18 -482 20 101 21 -740 
20 527 20 624 19 213 20 -281 23 -238 22 16 22 33 20 -249 
22 280 19 -775 23 806 23 359 21 66 23 -148 24 -749 22 685 
24 -38 21 -6 21 132 24 -193 21 287 21 -373 23 345 21 172 
22 117 22 -55 20 -393 24 405 19 86 23 161 22 -322 23 51 
19 -723 24 984 23 -167 23 -31 24 239 22 -146 21 -47 23 46 
22 232 20 -51 19 -227 20 389 20 -27 20 -147 18 -254 16 456 
17 -51 18 -690 16 677 18 -77 15 73 18 -105 16 231 14 -278 
17 -32 17 -179 18 264 18 -134 16 -153 17 -61 18 -483 18 6 
16 -56 17 -419 18 372 16 -37 18 118 18 -256 17 303 17 327 
18 -98 18 2 18 -46 2898 2035 100 MP stroke
16 -359 17 36 17 -13 16 -192 19 297 15 236 16 -321 15 -72 
14 -56 13 -96 14 -18 13 -508 13 429 13 -111 12 553 12 -416 
11 -271 11 149 10 -183 8 538 9 -98 9 -91 8 52 7 465 
7 -286 8 -585 6 566 6 -451 6 513 4 118 5 -194 4 448 
8 -294 7 16 5 -97 7 152 6 155 6 -370 6 190 5 410 
4 -115 4 -188 3 -784 2 475 1 434 2 -242 2 414 2 -510 
5 575 2 141 4 -239 4 -419 5 793 4 -251 8 216 6 -598 
10 -39 11 -391 13 225 14 2 15 -69 16 251 16 -272 15 -80 
14 -1097 16 1427 15 -157 16 -953 13 816 15 180 13 42 10 309 
12 -567 12 693 11 308 10 99 9 -659 10 387 6 -302 6 400 
5 112 5 -287 6 -113 3 83 3 253 2 127 2 -426 0 -128 
2 181 0 -44 1 83 -1 -98 -2 -69 1 -89 -2 247 -2 -807 
0 724 -1 301 -5 -238 2121 1727 100 MP stroke
-2 -131 -4 -249 -2 552 -3 -22 -5 -109 -3 -155 -5 -299 -9 -1376 
-6 1248 -5 446 -4 62 -9 -37 -6 -85 -5 -404 -9 813 -11 -37 
-7 -130 -6 -1 -9 -92 -8 54 -10 -164 -9 96 -8 -341 -11 -132 
-10 12 -7 105 -7 -190 -6 24 -8 42 -8 -113 -8 -428 -6 180 
-10 -119 -10 78 -5 -396 -7 -498 -7 673 -7 217 -7 139 -6 -2 
-5 414 -4 -448 -6 -63 -4 199 -6 -40 -5 74 -3 34 -7 -6 
-5 148 -5 -85 -4 -71 -6 38 -4 171 -5 -4 -5 -1 -8 -59 
-6 -249 -6 133 -6 37 -3 -402 -5 -289 -7 185 -7 290 -6 144 
-2 259 -5 -91 -3 -271 -5 103 -9 -201 -4 99 -7 136 -5 -308 
-3 -19 -8 -463 -7 -383 -8 909 -8 -190 -7 283 -6 -556 -8 145 
-9 222 -11 -127 -6 323 -9 42 -8 -548 -8 554 -11 118 -9 126 
-11 -388 -12 90 -12 266 -13 -134 -13 -248 -12 190 -15 183 -13 52 
-10 303 -12 -404 -13 -213 2826 2487 100 MP stroke
-14 175 -17 -159 -13 -147 -14 421 -13 -493 -13 88 -15 -24 -15 80 
-16 59 -15 -242 -15 299 -17 -350 -14 421 -13 -592 -13 521 -14 198 
-12 -180 -12 -214 -14 -153 -14 310 -14 -9 -13 254 -12 -414 -12 135 
-12 125 -14 -247 -15 -163 -16 81 -16 436 -15 -554 -19 194 -16 273 
-14 103 -16 -246 -16 -470 -16 485 -18 115 -18 -248 -18 -244 -18 315 
-18 133 -16 -91 -19 -223 -18 296 -18 -101 -20 182 -18 -4 -21 78 
-20 194 -19 -146 -18 18 -20 -12 -19 -218 -20 -284 -21 640 -21 154 
-20 -331 -22 -52 -18 133 -19 -475 -19 187 -20 254 -20 -343 -21 -6 
-21 -455 -19 32 -21 240 -20 78 -18 286 -20 -853 -19 351 -19 95 
-19 -459 -19 403 -19 528 -17 16 -17 -195 -17 338 -15 -33 -15 -463 
-16 126 -17 113 -18 108 -17 -117 -17 -472 -17 316 -16 376 -16 -732 
-17 90 -15 493 -16 -318 -16 362 -19 -275 -16 -232 -17 348 -15 -305 
-15 249 -15 -529 -13 451 4485 2604 100 MP stroke
-15 296 -15 -537 -14 764 -15 -231 -16 -19 -14 -181 -16 38 -16 307 
-13 -388 -17 -58 -12 50 -14 -230 -12 334 -14 -272 -13 353 -12 51 
-14 -47 -8 9 -10 -97 -9 255 -10 123 -9 -105 -10 -1287 -9 809 
-8 431 -9 96 -9 27 -9 6 -7 -614 -9 242 -9 382 -1 -306 
-6 134 -5 -88 -4 -266 -7 479 -2 -89 -1 23 -3 -63 -2 -568 
-1 227 -5 233 0 4 -4 118 -1 -250 -4 -49 -1 100 -6 -198 
-6 297 3 -831 -10 777 -4 -87 3 -124 -4 -165 -3 -537 -5 852 
-3 451 -8 -101 -4 -710 -14 709 -2 81 1 -572 -3 -108 -20 269 
-12 401 4 -539 -3 86 -7 472 -20 -503 6 308 -13 -546 -9 785 
2 -311 -11 164 -4 -866 -10 426 0 383 -15 -189 -9 180 -10 -110 
-10 7 -7 223 -10 -459 -6 -201 -11 147 -5 199 -11 342 -5 22 
-6 -156 -12 -141 -4 -317 -9 147 -6 -71 -8 -13 -5 393 -7 -315 
-1 533 -11 -146 -8 -352 5237 2472 100 MP stroke
-1 419 -11 -1027 -5 247 -8 550 -5 -186 -5 120 -5 -234 -6 -229 
0 738 -4 -453 -4 30 -5 262 -6 235 -2 -413 -6 45 0 -70 
-6 -280 -3 284 -4 51 -4 187 -6 -924 -2 1139 -6 -727 1 485 
-9 -410 -3 49 -2 6 -2 190 -2 85 2 154 0 103 -2 -188 
-3 -15 -1 -464 -3 121 -1 720 -4 -311 -3 -327 -2 130 -4 -136 
-2 -160 -3 296 -2 18 -4 46 -3 485 0 -486 -6 -477 -3 675 
-6 24 -1 166 -9 -1331 -7 513 -5 315 -4 386 -8 274 -4 11 
-7 -833 -11 -400 1 843 -9 -159 0 59 -8 -534 -1 547 -8 -389 
1 532 -9 -160 -5 154 -5 -430 -5 162 -6 182 -7 -338 -8 476 
-6 44 -7 21 -7 -119 -7 -273 -7 64 -7 -76 -8 186 -7 -120 
-17 346 5 -230 -11 -485 -6 -176 -10 811 -5 -401 -5 395 -10 171 
-6 -201 -10 70 -6 -320 -9 -10 -10 -137 -8 -349 -25 439 3 214 
-1 -717 1 452 -7 -18 5726 2468 100 MP stroke
-2 -78 -4 155 -2 102 -1 61 -1 94 0 46 -1 -97 2 -1417 
2 1578 3 -230 3 -115 4 -151 2 -120 5 39 2 346 8 -393 
1 288 6 -38 6 -89 5 143 7 18 2 -128 18 -20 -2 101 
13 -231 11 592 2 -917 11 562 9 515 10 75 10 -719 10 498 
10 -286 11 293 11 216 14 -551 15 438 14 156 14 -40 14 -39 
14 -23 15 -328 16 120 16 290 17 344 17 26 17 -22 17 -677 
16 12 17 516 16 97 17 118 17 -244 16 -281 19 14 18 554 
18 -49 16 -342 18 -242 18 542 17 -313 19 111 16 -23 14 -388 
20 487 16 282 20 -220 17 -42 17 120 18 -683 15 698 14 -86 
14 127 15 114 16 -666 16 278 15 -410 14 -67 14 -30 14 337 
15 63 14 80 16 48 16 278 17 -410 14 -329 13 563 15 306 
15 -514 15 72 16 188 16 -106 13 -393 16 58 14 -556 15 25 
17 562 17 -270 18 102 4536 1993 100 MP stroke
16 -433 16 241 17 587 17 142 19 135 18 204 18 -85 16 -10 
19 -6 17 202 19 -738 18 -156 18 -592 18 566 19 -617 18 1101 
19 -1 16 184 20 -351 20 -303 18 815 17 -467 19 319 20 -554 
17 328 17 -90 17 223 17 -101 18 -65 17 163 16 -133 16 49 
17 -254 16 -31 15 444 14 47 15 -357 15 -333 14 735 14 -240 
13 -129 14 -122 11 185 10 54 14 -109 11 -341 8 327 10 38 
9 439 7 -107 6 -447 7 148 7 148 4 -718 5 68 5 247 
5 306 1 154 1 -9 4 210 5 -392 0 1 -2 276 3 221 
5 -844 1 -128 0 283 -1 -171 1 133 0 -241 -2 127 -2 42 
1 294 -1 118 0 221 0 -120 1 -270 3 148 -1 95 0 -173 
2 95 2 -201 0 -85 -2 -282 1 245 1 -273 0 508 0 -309 
1 -368 0 635 -1 -119 -2 92 2 -233 1 -382 -1 154 0 667 
2 220 1 -400 0 -116 3679 1615 100 MP stroke
1 -122 2 18 -1 109 3 -986 0 977 3 204 1 -194 0 -29 
0 88 2 102 2 -296 0 133 -2 167 -1 210 2 157 -1 -381 
1 123 0 56 -1 123 1 -209 0 -392 1 -374 3 406 2 165 
2 208 4 -23 4 -31 3 -262 2 -536 3 432 3 509 2 -361 
4 -278 2 18 1 -452 2 644 3 235 0 -529 -1 -76 1 434 
-1 -85 0 284 -1 -170 0 17 0 -1174 0 679 -2 -232 -2 238 
-1 366 -4 -57 -3 -222 -3 465 -4 99 -3 -96 -3 -423 -4 435 
-4 68 -4 14 -3 -211 -3 -329 -3 516 -4 262 -3 134 -2 -169 
-5 -79 -4 -263 -6 -91 -3 518 -5 84 -5 -249 -5 -326 -3 -156 
-5 198 -4 -209 -6 209 -4 -177 -3 -647 -2 508 -4 -209 -5 -6 
-4 -14 -6 -171 -4 95 -6 -257 -7 -731 -5 557 -6 335 -6 -30 
-7 -263 -7 312 -6 -599 -7 56 -7 165 -6 165 -8 379 -6 -206 
-5 -229 -5 -256 -5 73 3865 2733 100 MP stroke
-6 83 -6 93 -6 -85 -5 -310 -6 -135 -4 326 -6 144 -6 -599 
-7 90 -8 480 -6 336 -6 -173 -6 -72 -6 -84 -6 228 -8 -258 
-7 -119 -7 81 -7 -94 -9 130 -8 35 -11 -480 -10 368 -11 217 
-11 265 -11 221 -11 -450 -11 91 -15 -1049 -14 798 -15 281 -15 -110 
-15 14 -15 -63 -16 -109 -15 273 -16 -564 -16 -703 -17 943 -16 168 
-15 -202 -16 391 -15 -130 -15 156 -16 1 -17 -680 -16 416 -18 106 
-16 -444 -16 322 -15 -321 -17 201 -15 187 -17 121 -14 -278 -19 180 
-17 -53 -18 281 -15 -692 -17 311 -19 -328 -16 385 -16 129 -17 -410 
-15 256 -17 530 -16 -147 -17 -187 -14 -51 -18 258 -14 77 -18 -140 
-13 -1254 -30 1428 -16 -81 -6 10 -21 214 -15 -339 -19 -105 -13 119 
-17 231 -16 -118 -15 -362 -14 15 -15 370 -13 -69 -15 118 -14 -406 
-16 -196 -15 -308 -17 271 -14 597 -16 -78 -16 -275 -17 -171 -16 44 
-17 -10 -17 -89 -18 185 5214 2539 100 MP stroke
-16 -125 -19 262 -18 114 -16 -529 -17 431 -16 295 -16 -506 -16 400 
-16 -39 -15 -286 -17 -154 -18 545 -15 182 -18 -273 -18 -704 -18 255 
-17 520 -19 -142 -18 -248 -18 283 -17 281 -20 17 -14 -202 -23 16 
-24 122 -2 -224 -20 81 -12 -308 -17 -247 -12 343 -17 -121 -12 43 
-17 580 -9 -806 -27 453 -6 -52 -21 322 -3 142 -17 -1384 -21 -99 
1 1050 -25 -1005 -5 649 -12 256 -7 -194 -8 -206 -6 21 -7 277 
-7 93 -9 145 3 -187 -2 -270 -2 419 -2 -57 0 154 0 -373 
0 23 1 201 1 92 5 216 -1 -310 3 -573 4 617 3 -418 
6 409 4 295 6 89 5 -281 6 -723 6 466 6 364 6 -1401 
3 1116 10 110 7 48 10 -210 8 376 11 -204 9 -438 12 346 
9 128 14 -44 9 -381 24 -68 15 14 4 -310 17 579 12 53 
15 -1082 14 861 13 -6 15 -49 12 255 24 -10 8 299 8 -90 
13 -175 9 165 11 -499 5577 2679 100 MP stroke
8 66 12 618 6 -66 8 -126 4 -417 7 210 2 -40 5 -40 
3 669 4 -121 2 -657 2 -129 -1 300 3 -146 -2 408 1 -3 
-2 105 -2 -257 -5 -67 -5 -363 -7 532 -8 77 -10 121 -8 -269 
-11 -719 -9 11 -11 358 -11 70 -11 184 -9 302 -10 -119 -10 15 
-13 239 -12 -64 -13 357 -14 -40 -15 41 -15 -205 -19 -146 -18 288 
-20 281 -18 -73 -21 126 -16 92 -21 -351 -21 -377 -19 391 -18 196 
-19 131 -18 116 -18 -84 -17 -367 -16 -3 -14 -194 -14 152 -15 452 
-12 123 -12 -216 -13 -476 -11 196 -12 -171 -10 265 -10 -49 -9 -160 
-10 -434 -8 -51 -9 -51 -6 163 -8 -240 -8 -109 -7 409 -9 127 
-5 -167 -6 179 -8 -84 -5 -135 -4 72 -3 13 -4 -7 -3 165 
-5 364 -1 146 -2 107 -5 233 -2 178 6253 824 86 MP stroke
gr

c8
0 sg
%%IncludeResource: font Helvetica
/Helvetica /WindowsLatin1Encoding 120 FMSR

1663  294 mt 
(Experiment 2b - Digital magnetometers - Standard deviation \
of position) s
2502 4902 mt 
(Distance to center of sensor network [m]) s
 558 3028 mt  -90 rotate
(sqrt\(Variance\) [mm]) s
90 rotate

end %%Color Dict

eplot
%%EndObject

epage
end

showpage

%%Trailer
%%EOF
