%!PS-Adobe-2.0 EPSF-1.2
%%Creator: MATLAB, The MathWorks, Inc. Version 7.13.0.564 (R2011b). Operating System: Microsoft Windows 7.
%%Title: ..\figures\analog_ort_ori_rmse.eps
%%CreationDate: 11/13/2012  17:43:16
%%DocumentNeededFonts: Helvetica
%%DocumentProcessColors: Cyan Magenta Yellow Black
%%Extensions: CMYK
%%Pages: 1
%%BoundingBox:    52   196   542   602
%%EndComments

%%BeginProlog
% MathWorks dictionary
/MathWorks 160 dict begin
% definition operators
/bdef {bind def} bind def
/ldef {load def} bind def
/xdef {exch def} bdef
/xstore {exch store} bdef
% operator abbreviations
/c  /clip ldef
/cc /concat ldef
/cp /closepath ldef
/gr /grestore ldef
/gs /gsave ldef
/mt /moveto ldef
/np /newpath ldef
/cm /currentmatrix ldef
/sm /setmatrix ldef
/rm /rmoveto ldef
/rl /rlineto ldef
/s {show newpath} bdef
/sc {setcmykcolor} bdef
/sr /setrgbcolor ldef
/sg /setgray ldef
/w /setlinewidth ldef
/j /setlinejoin ldef
/cap /setlinecap ldef
/rc {rectclip} bdef
/rf {rectfill} bdef
% page state control
/pgsv () def
/bpage {/pgsv save def} bdef
/epage {pgsv restore} bdef
/bplot /gsave ldef
/eplot {stroke grestore} bdef
% orientation switch
/portraitMode 0 def /landscapeMode 1 def /rotateMode 2 def
% coordinate system mappings
/dpi2point 0 def
% font control
/FontSize 0 def
/FMS {/FontSize xstore findfont [FontSize 0 0 FontSize neg 0 0]
  makefont setfont} bdef
/ISOLatin1Encoding where {pop /WindowsLatin1Encoding 256 array bdef
ISOLatin1Encoding WindowsLatin1Encoding copy pop
/.notdef/.notdef/quotesinglbase/florin/quotedblbase/ellipsis/dagger
/daggerdbl/circumflex/perthousand/Scaron/guilsinglleft/OE/.notdef/.notdef
/.notdef/.notdef/quoteleft/quoteright/quotedblleft/quotedblright/bullet
/endash/emdash/tilde/trademark/scaron/guilsinglright/oe/.notdef/.notdef
/Ydieresis WindowsLatin1Encoding 128 32 getinterval astore pop}
{/WindowsLatin1Encoding StandardEncoding bdef} ifelse
/reencode {exch dup where {pop load} {pop StandardEncoding} ifelse
  exch dup 3 1 roll findfont dup length dict begin
  { 1 index /FID ne {def}{pop pop} ifelse } forall
  /Encoding exch def currentdict end definefont pop} bdef
/isroman {findfont /CharStrings get /Agrave known} bdef
/FMSR {3 1 roll 1 index dup isroman {reencode} {pop pop} ifelse
  exch FMS} bdef
/csm {1 dpi2point div -1 dpi2point div scale neg translate
 dup landscapeMode eq {pop -90 rotate}
  {rotateMode eq {90 rotate} if} ifelse} bdef
% line types: solid, dotted, dashed, dotdash
/SO { [] 0 setdash } bdef
/DO { [.5 dpi2point mul 4 dpi2point mul] 0 setdash } bdef
/DA { [6 dpi2point mul] 0 setdash } bdef
/DD { [.5 dpi2point mul 4 dpi2point mul 6 dpi2point mul 4
  dpi2point mul] 0 setdash } bdef
% macros for lines and objects
/L {lineto stroke} bdef
/MP {3 1 roll moveto 1 sub {rlineto} repeat} bdef
/AP {{rlineto} repeat} bdef
/PDlw -1 def
/W {/PDlw currentlinewidth def setlinewidth} def
/PP {closepath eofill} bdef
/DP {closepath stroke} bdef
/MR {4 -2 roll moveto dup  0 exch rlineto exch 0 rlineto
  neg 0 exch rlineto closepath} bdef
/FR {MR stroke} bdef
/PR {MR fill} bdef
/L1i {{currentfile picstr readhexstring pop} image} bdef
/tMatrix matrix def
/MakeOval {newpath tMatrix currentmatrix pop translate scale
0 0 1 0 360 arc tMatrix setmatrix} bdef
/FO {MakeOval stroke} bdef
/PO {MakeOval fill} bdef
/PD {currentlinewidth 2 div 0 360 arc fill
   PDlw -1 eq not {PDlw w /PDlw -1 def} if} def
/FA {newpath tMatrix currentmatrix pop translate scale
  0 0 1 5 -2 roll arc tMatrix setmatrix stroke} bdef
/PA {newpath tMatrix currentmatrix pop	translate 0 0 moveto scale
  0 0 1 5 -2 roll arc closepath tMatrix setmatrix fill} bdef
/FAn {newpath tMatrix currentmatrix pop translate scale
  0 0 1 5 -2 roll arcn tMatrix setmatrix stroke} bdef
/PAn {newpath tMatrix currentmatrix pop translate 0 0 moveto scale
  0 0 1 5 -2 roll arcn closepath tMatrix setmatrix fill} bdef
/vradius 0 def /hradius 0 def /lry 0 def
/lrx 0 def /uly 0 def /ulx 0 def /rad 0 def
/MRR {/vradius xdef /hradius xdef /lry xdef /lrx xdef /uly xdef
  /ulx xdef newpath tMatrix currentmatrix pop ulx hradius add uly
  vradius add translate hradius vradius scale 0 0 1 180 270 arc 
  tMatrix setmatrix lrx hradius sub uly vradius add translate
  hradius vradius scale 0 0 1 270 360 arc tMatrix setmatrix
  lrx hradius sub lry vradius sub translate hradius vradius scale
  0 0 1 0 90 arc tMatrix setmatrix ulx hradius add lry vradius sub
  translate hradius vradius scale 0 0 1 90 180 arc tMatrix setmatrix
  closepath} bdef
/FRR {MRR stroke } bdef
/PRR {MRR fill } bdef
/MlrRR {/lry xdef /lrx xdef /uly xdef /ulx xdef /rad lry uly sub 2 div def
  newpath tMatrix currentmatrix pop ulx rad add uly rad add translate
  rad rad scale 0 0 1 90 270 arc tMatrix setmatrix lrx rad sub lry rad
  sub translate rad rad scale 0 0 1 270 90 arc tMatrix setmatrix
  closepath} bdef
/FlrRR {MlrRR stroke } bdef
/PlrRR {MlrRR fill } bdef
/MtbRR {/lry xdef /lrx xdef /uly xdef /ulx xdef /rad lrx ulx sub 2 div def
  newpath tMatrix currentmatrix pop ulx rad add uly rad add translate
  rad rad scale 0 0 1 180 360 arc tMatrix setmatrix lrx rad sub lry rad
  sub translate rad rad scale 0 0 1 0 180 arc tMatrix setmatrix
  closepath} bdef
/FtbRR {MtbRR stroke } bdef
/PtbRR {MtbRR fill } bdef
/stri 6 array def /dtri 6 array def
/smat 6 array def /dmat 6 array def
/tmat1 6 array def /tmat2 6 array def /dif 3 array def
/asub {/ind2 exch def /ind1 exch def dup dup
  ind1 get exch ind2 get sub exch } bdef
/tri_to_matrix {
  2 0 asub 3 1 asub 4 0 asub 5 1 asub
  dup 0 get exch 1 get 7 -1 roll astore } bdef
/compute_transform {
  dmat dtri tri_to_matrix tmat1 invertmatrix 
  smat stri tri_to_matrix tmat2 concatmatrix } bdef
/ds {stri astore pop} bdef
/dt {dtri astore pop} bdef
/db {2 copy /cols xdef /rows xdef mul dup 3 mul string
  currentfile exch readhexstring pop
  dup 0 3 index getinterval /rbmap xdef
  dup 2 index dup getinterval /gbmap xdef
  1 index dup 2 mul exch getinterval /bbmap xdef pop pop}bdef
/it {gs np dtri aload pop moveto lineto lineto cp c
  cols rows 8 compute_transform 
  rbmap gbmap bbmap true 3 colorimage gr}bdef
/il {newpath moveto lineto stroke}bdef
currentdict end def
%%EndProlog

%%BeginSetup
MathWorks begin

0 cap

end
%%EndSetup

%%Page: 1 1
%%BeginPageSetup
%%PageBoundingBox:    52   196   542   602
MathWorks begin
bpage
%%EndPageSetup

%%BeginObject: obj1
bplot

/dpi2point 12 def
portraitMode 0204 7344 csm

  422   109  5883  4882 MR c np
85 dict begin %Colortable dictionary
/c0 { 0.000000 0.000000 0.000000 sr} bdef
/c1 { 1.000000 1.000000 1.000000 sr} bdef
/c2 { 0.900000 0.000000 0.000000 sr} bdef
/c3 { 0.000000 0.820000 0.000000 sr} bdef
/c4 { 0.000000 0.000000 0.800000 sr} bdef
/c5 { 0.910000 0.820000 0.320000 sr} bdef
/c6 { 1.000000 0.260000 0.820000 sr} bdef
/c7 { 0.000000 0.820000 0.820000 sr} bdef
c0
1 j
1 sg
   0    0 6913 5185 PR
6 w
0 4225 5357 0 0 -4225 898 4614 4 MP
PP
-5357 0 0 4225 5357 0 0 -4225 898 4614 5 MP stroke
4 w
DO
SO
6 w
0 sg
 898  389 mt 6255  389 L
 898 4614 mt 6255 4614 L
6255 4614 mt 6255  389 L
 898 4614 mt  898  389 L
 898 4614 mt 6255 4614 L
 898 4614 mt  898  389 L
 898 4614 mt  898 4614 L
 898 4614 mt  898 4614 L
 898 4614 mt  898 4614 L
 898 4614 mt  898 4614 L
 898 4614 mt  898 4614 L
 898 4614 mt  898 4614 L
 898 4614 mt  898 4614 L
 898 4614 mt  898 4614 L
 898 4614 mt  898 4614 L
 898 4614 mt  898 4614 L
 898 4614 mt  898 4614 L
 898 4614 mt  898 4614 L
 898 4614 mt  898 4614 L
 898 4614 mt  898 4614 L
 898 4614 mt  898 4614 L
 898 4614 mt  898 4614 L
 898 4614 mt  898 4614 L
 898 4614 mt  898 4614 L
2046 4614 mt 2046 4560 L
2046  389 mt 2046  442 L
%%IncludeResource: font Helvetica
/Helvetica /WindowsLatin1Encoding 120 FMSR

1901 4796 mt 
(10) s
%%IncludeResource: font Helvetica
/Helvetica /WindowsLatin1Encoding 80 FMSR

2034 4722 mt 
(-0.8) s
 898 4614 mt  898 4614 L
 898 4614 mt  898 4614 L
 898 4614 mt  898 4614 L
 898 4614 mt  898 4614 L
 898 4614 mt  898 4614 L
 898 4614 mt  898 4614 L
 898 4614 mt  898 4614 L
 898 4614 mt  898 4614 L
 898 4614 mt  898 4614 L
 898 4614 mt  898 4614 L
 898 4614 mt  898 4614 L
 898 4614 mt  898 4614 L
 898 4614 mt  898 4614 L
 898 4614 mt  898 4614 L
 898 4614 mt  898 4614 L
 898 4614 mt  898 4614 L
 898 4614 mt  898 4614 L
 898 4614 mt  898 4614 L
3603 4614 mt 3603 4560 L
3603  389 mt 3603  442 L
%%IncludeResource: font Helvetica
/Helvetica /WindowsLatin1Encoding 120 FMSR

3458 4796 mt 
(10) s
%%IncludeResource: font Helvetica
/Helvetica /WindowsLatin1Encoding 80 FMSR

3591 4722 mt 
(-0.7) s
 898 4614 mt  898 4614 L
 898 4614 mt  898 4614 L
 898 4614 mt  898 4614 L
 898 4614 mt  898 4614 L
 898 4614 mt  898 4614 L
 898 4614 mt  898 4614 L
 898 4614 mt  898 4614 L
 898 4614 mt  898 4614 L
 898 4614 mt  898 4614 L
 898 4614 mt  898 4614 L
 898 4614 mt  898 4614 L
 898 4614 mt  898 4614 L
 898 4614 mt  898 4614 L
 898 4614 mt  898 4614 L
 898 4614 mt  898 4614 L
 898 4614 mt  898 4614 L
 898 4614 mt  898 4614 L
 898 4614 mt  898 4614 L
5160 4614 mt 5160 4560 L
5160  389 mt 5160  442 L
%%IncludeResource: font Helvetica
/Helvetica /WindowsLatin1Encoding 120 FMSR

5015 4796 mt 
(10) s
%%IncludeResource: font Helvetica
/Helvetica /WindowsLatin1Encoding 80 FMSR

5148 4722 mt 
(-0.6) s
 898 4614 mt  898 4614 L
 898 4614 mt  898 4614 L
 898 4614 mt  898 4614 L
 898 4614 mt  898 4614 L
 898 4614 mt  898 4614 L
 898 4614 mt  898 4614 L
 898 4614 mt  898 4614 L
 898 4614 mt  898 4614 L
 898 4614 mt  898 4614 L
 898 4614 mt  898 4614 L
 898 4614 mt  898 4614 L
 898 4614 mt  898 4614 L
 898 4614 mt  898 4614 L
 898 4614 mt  898 4614 L
 898 4614 mt  898 4614 L
 898 4614 mt  898 4614 L
 898 4614 mt  898 4614 L
 898 4614 mt  898 4614 L
 898 4614 mt  925 4614 L
6255 4614 mt 6228 4614 L
 898 4614 mt  952 4614 L
6255 4614 mt 6201 4614 L
%%IncludeResource: font Helvetica
/Helvetica /WindowsLatin1Encoding 120 FMSR

 640 4658 mt 
(10) s
%%IncludeResource: font Helvetica
/Helvetica /WindowsLatin1Encoding 80 FMSR

 773 4584 mt 
(-1) s
 898 4190 mt  925 4190 L
6255 4190 mt 6228 4190 L
 898 3942 mt  925 3942 L
6255 3942 mt 6228 3942 L
 898 3766 mt  925 3766 L
6255 3766 mt 6228 3766 L
 898 3629 mt  925 3629 L
6255 3629 mt 6228 3629 L
 898 3518 mt  925 3518 L
6255 3518 mt 6228 3518 L
 898 3423 mt  925 3423 L
6255 3423 mt 6228 3423 L
 898 3342 mt  925 3342 L
6255 3342 mt 6228 3342 L
 898 3270 mt  925 3270 L
6255 3270 mt 6228 3270 L
 898 3205 mt  925 3205 L
6255 3205 mt 6228 3205 L
 898 3205 mt  952 3205 L
6255 3205 mt 6201 3205 L
%%IncludeResource: font Helvetica
/Helvetica /WindowsLatin1Encoding 120 FMSR

 640 3249 mt 
(10) s
%%IncludeResource: font Helvetica
/Helvetica /WindowsLatin1Encoding 80 FMSR

 773 3175 mt 
(0) s
 898 2781 mt  925 2781 L
6255 2781 mt 6228 2781 L
 898 2533 mt  925 2533 L
6255 2533 mt 6228 2533 L
 898 2357 mt  925 2357 L
6255 2357 mt 6228 2357 L
 898 2221 mt  925 2221 L
6255 2221 mt 6228 2221 L
 898 2109 mt  925 2109 L
6255 2109 mt 6228 2109 L
 898 2015 mt  925 2015 L
6255 2015 mt 6228 2015 L
 898 1933 mt  925 1933 L
6255 1933 mt 6228 1933 L
 898 1861 mt  925 1861 L
6255 1861 mt 6228 1861 L
 898 1797 mt  925 1797 L
6255 1797 mt 6228 1797 L
 898 1797 mt  952 1797 L
6255 1797 mt 6201 1797 L
%%IncludeResource: font Helvetica
/Helvetica /WindowsLatin1Encoding 120 FMSR

 640 1841 mt 
(10) s
%%IncludeResource: font Helvetica
/Helvetica /WindowsLatin1Encoding 80 FMSR

 773 1767 mt 
(1) s
 898 1373 mt  925 1373 L
6255 1373 mt 6228 1373 L
 898 1125 mt  925 1125 L
6255 1125 mt 6228 1125 L
 898  949 mt  925  949 L
6255  949 mt 6228  949 L
 898  812 mt  925  812 L
6255  812 mt 6228  812 L
 898  701 mt  925  701 L
6255  701 mt 6228  701 L
 898  607 mt  925  607 L
6255  607 mt 6228  607 L
 898  525 mt  925  525 L
6255  525 mt 6228  525 L
 898  453 mt  925  453 L
6255  453 mt 6228  453 L
 898  389 mt  925  389 L
6255  389 mt 6228  389 L
 898  389 mt  952  389 L
6255  389 mt 6201  389 L
%%IncludeResource: font Helvetica
/Helvetica /WindowsLatin1Encoding 120 FMSR

 640  433 mt 
(10) s
%%IncludeResource: font Helvetica
/Helvetica /WindowsLatin1Encoding 80 FMSR

 773  359 mt 
(2) s
 898  389 mt 6255  389 L
 898 4614 mt 6255 4614 L
6255 4614 mt 6255  389 L
 898 4614 mt  898  389 L
gs 898 388 5358 4227 MR c np
/c8 { 0.000000 0.000000 1.000000 sr} bdef
c8
8 9 0 -1 9 13 -2 8 10 4 6 3 2 3 13 6 
-1 -8 10 16 15 13 10 -28 10 -13 9 -8 20 -12 5 3 
-1 3 12 3 4 -2 11 9 7 7 3 -5 16 8 6 -4 
1 -6 13 -9 12 -6 8 8 11 -3 21 10 6 5 1 -7 
17 7 2 -2 6 2 8 11 0 -4 10 -2 6 7 12 -2 
8 -2 0 19 15 -3 1 -16 5 7 10 6 3 7 11 2 
4 7 8 9 -5 -9 -1 0 18 -15 3 -29 16 32 23 46 
13 -6 10 -10 3 9 8 -18 1 -31 6 -8 17 3 7 28 
10 27 6 -15 11 -12 3 7 7 -20 25 5 3 19 7 16 
14 7 -2 -10 8 -1 12 14 11 0 8 20 8 8 7 -12 
6 0 11 2 5 3 12 11 12 12 6 0 13 -11 7 -4 
6 16 5 7 10 -13 8 -19 -2 15 12 -15 18 -25 4 21 
13 7 12 3 0 -20 3254 1981 100 MP stroke
4 -26 9 0 8 3 8 14 9 -3 13 -18 18 -11 6 -8 
-1 17 12 -1 8 11 8 9 13 -30 -7 3 16 -25 27 -53 
-6 -10 6 -7 10 12 1 28 6 -1 2 -11 11 2 6 -3 
8 -12 16 6 3 -15 7 -25 5 4 4 -4 10 -29 0 -19 
9 16 10 21 6 -3 8 -43 0 -30 -1 -5 -2 -13 3 4 
2 8 -5 -16 2 -9 4 -1 5 -25 7 11 -1 24 0 12 
1 6 -1 -22 5 5 -3 10 -1 -16 8 1 -13 -5 -12 -5 
7 25 -4 8 0 -12 -2 -12 -4 -5 2 -11 -3 -14 -4 5 
-4 7 -3 10 -11 -14 -5 -25 7 2 -10 14 -5 2 -1 27 
-8 -1 0 -38 -6 -12 -3 -6 -6 17 -9 7 6 -1 -11 5 
-16 -14 -2 -11 -6 1 -4 -3 -4 -6 -8 21 -6 15 -6 -18 
-6 -14 -5 -14 1 2 -7 38 -17 14 -5 1 -8 -3 -14 -28 
-7 -1 -4 41 -4 3 3188 2256 100 MP stroke
-8 -39 -5 3 -7 22 -11 -5 -3 6 -9 6 -18 -3 -10 -13 
-8 10 -14 17 -14 -13 -6 -9 -6 20 -9 -3 -9 -14 -13 18 
-5 49 -9 6 -26 -35 -17 -1 -7 14 -10 11 -16 -14 -8 -6 
-11 -4 -15 -5 -13 1 -17 -6 -10 2 -11 27 -8 9 -4 -10 
-28 3 -24 -1 -13 -28 -15 -27 -7 18 -15 11 -18 15 -10 14 
-14 -12 -14 -7 -6 -7 -14 -3 -30 -31 -18 -26 -10 64 -12 20 
-11 -28 -15 8 -15 20 -15 -6 -13 -11 -12 -15 -16 -1 -22 -9 
-18 -17 -12 35 -22 41 -6 -15 -25 -20 -36 -15 0 -5 -19 25 
-15 21 4 -8 -20 9 -13 6 -14 -32 -29 -36 -21 -44 -16 -2 
-15 33 -16 -21 -13 -13 -32 -4 -14 -14 2 6 -22 -13 -13 -6 
-13 -5 -17 12 -12 0 -15 -6 -12 -1 -16 -20 -12 4 -25 -4 
-15 -13 6 2 -20 -11 -8 9 -8 -3 -18 -9 -3 21 -24 -13 
-14 9 1 -6 -12 -18 4514 2395 100 MP stroke
1 49 -5 25 -10 -2 -8 -5 -9 -3 -6 8 -10 -13 -11 3 
-5 -8 -9 -1 -7 21 -5 -4 -13 -16 -5 -14 -1 23 -15 -5 
2 -1 1 11 -28 -90 -15 -33 -5 2 2 -4 6 43 -9 -5 
3 42 1 46 -15 -29 -10 9 -14 -14 -2 -5 -1 6 -21 -34 
-1 -5 -5 -3 -12 0 2 -2 -13 -23 0 -4 -8 -23 -24 -15 
3 -3 -15 -4 -11 -1 12 -1 -13 20 -6 15 0 -4 -7 -13 
-3 -9 -8 0 -2 -17 -8 -7 -9 6 0 3 -3 8 -5 -11 
-4 -15 -3 1 -7 -7 0 -15 -3 -14 -4 3 0 8 -10 12 
2 11 0 -3 -7 17 3 18 -5 0 0 4 -1 -10 -3 -14 
3 -3 -2 -6 2 0 -2 -2 1 2 0 -3 -2 -8 3 13 
-2 -14 3 -22 2 3 -2 1 7 12 0 4 2 -15 -2 -11 
2 -15 13 1 -3 9 -3 1 5 5 9 9 0 7 -2 -3 
18 19 9 15 -3 -17 4859 2508 100 MP stroke
1 -11 0 -28 -2 -7 10 11 11 14 -4 -15 1 -7 0 4 
3 2 7 6 -6 6 1 14 5 -4 -1 -6 16 -4 12 -16 
-4 -12 4 -11 -1 -18 2 -6 10 -2 1 9 5 8 3 -6 
3 -2 4 1 1 6 8 11 2 9 3 1 15 16 1 8 
-3 -2 4 5 3 -11 7 -12 7 7 0 11 6 -8 5 -17 
-2 -9 7 -3 4 6 4 -8 9 -16 -1 1 5 -13 7 -7 
5 3 6 -12 1 3 23 3 17 8 -4 11 1 -8 0 -12 
3 2 7 11 9 -3 14 1 -2 -2 4 -11 20 8 6 -6 
1 10 13 10 3 -15 7 13 25 -3 9 -16 -3 4 1 4 
8 -10 16 -28 3 -15 4 5 18 4 4 13 12 16 29 8 
7 20 -5 22 4 2 11 -12 25 -9 2 6 0 12 29 0 
6 15 4 0 19 -24 0 -7 8 5 11 14 16 2 21 -5 
-3 7 9 15 18 21 4244 2533 100 MP stroke
3 2 20 3 21 15 -2 3 8 -13 13 -15 9 17 17 16 
10 -1 16 22 16 17 13 9 25 -2 7 -3 2 -3 15 -15 
13 -3 15 33 12 11 22 21 20 8 7 -18 13 40 16 12 
19 -33 8 15 18 35 27 -17 -1 -8 16 39 24 25 15 -15 
21 -10 11 19 14 28 16 2 12 -9 17 -8 23 -1 28 54 
15 30 13 -5 15 17 12 -12 14 -26 16 -5 12 5 11 19 
24 10 25 -2 19 2 8 8 14 -10 26 11 -8 48 14 8 
35 -39 14 -27 41 20 12 26 2 8 33 28 4 10 15 -16 
18 -5 12 7 26 17 9 -4 15 -7 24 25 25 20 11 0 
9 9 19 -11 18 -23 34 0 2 -3 2 -1 29 19 8 34 
28 30 20 -29 13 1 31 16 3 -29 8 15 15 -29 11 8 
11 52 8 -9 35 31 16 -2 10 -10 17 -11 -10 -65 23 42 
30 44 -4 -17 22 8 2731 2030 100 MP stroke
29 -17 0 5 9 25 16 0 5 -7 14 -1 7 14 6 3 
17 -1 -11 -33 2 -26 20 29 1 1 18 -1 13 4 2 7 
15 36 8 5 6 -1 12 0 8 -12 3 -5 7 0 1 -9 
6 -5 12 -4 5 9 9 18 4 5 3 -1 6 5 3 19 
4 -4 2 -6 3 8 4 -3 2 3 1 5 3 6 6 11 
2 -8 0 -4 1 -10 9 -12 7 10 -7 24 -1 20 1 -3 
-3 -4 1 -15 -4 -19 0 11 1 28 -5 11 -1 -20 0 -16 
-1 1 -2 -12 5 -3 -4 -6 -16 25 -9 27 -3 -23 -6 2 
-7 -7 -6 -3 -11 14 -8 -20 -2 -6 -16 -1 -12 -23 1 -17 
-8 20 -11 21 -13 0 -11 -2 -12 8 -11 20 -6 5 -17 -21 
-16 -12 -17 -21 -25 -21 -2 7 -10 22 -21 6 -9 -13 -15 -11 
-13 7 -17 -4 -13 -19 -13 -16 -40 7 -16 7 -1 9 -17 -2 
-7 -2 -19 -2 -19 -8 2925 2022 100 MP stroke
-13 11 -23 -2 -13 -21 -20 11 -21 6 -13 -15 -20 -11 -17 -13 
-18 4 -15 18 -18 20 -19 -15 -13 0 -21 32 -17 6 -17 -4 
-16 -17 -16 -20 -21 -11 -16 18 -18 19 -17 -23 -16 -19 -15 -11 
-14 5 -24 11 -20 3 -16 6 -17 -11 -18 -18 -15 -32 -13 9 
-31 47 -14 -9 -11 -27 -25 -27 -8 -24 -22 28 -22 7 -10 -26 
-18 -14 -17 -30 -15 5 -12 8 -23 -7 -18 14 -12 6 -19 3 
-11 -5 -17 -27 -19 -30 -18 -6 -19 16 -11 -11 -17 -10 -11 -10 
-16 -15 -22 0 -14 -5 -16 1 -11 -41 -19 -8 -15 29 -12 24 
-27 13 -15 -43 -8 -32 -13 10 -16 -12 -13 -28 -11 -15 -28 26 
-15 28 -13 -44 -29 -19 -1 27 -5 17 -20 0 -4 -23 -16 17 
-25 47 -10 -44 -13 -39 -18 30 -12 -15 -16 -8 -12 -11 -8 -15 
-24 8 -19 17 -10 -4 -12 4 -12 19 -15 4 -18 -37 -14 -54 
-18 2 -17 44 -11 16 4518 2344 100 MP stroke
-11 -17 -14 10 -16 15 -16 -6 -13 -34 -18 30 -14 45 -15 -33 
-14 61 -9 -11 -17 -117 -12 14 -11 -3 -21 7 -15 60 -14 -45 
-13 48 -15 21 -12 -48 -6 83 -16 -18 -13 -99 -12 8 -17 26 
-11 7 -14 5 -11 4 -12 -24 -12 33 -6 83 -12 -6 -12 -16 
-11 16 -10 -4 -11 17 -10 2 -9 -4 -11 28 -13 6 -10 -9 
-8 -2 -11 7 -10 4 -8 -5 -11 3 -8 -4 -11 1 -10 0 
-3 -23 -9 13 -11 23 -7 -15 -8 2 -10 6 -10 5 -7 6 
-12 -1 -7 0 -6 0 -8 1 -5 -14 -8 9 -11 19 -8 -16 
-6 13 -9 2 -12 -52 -7 -33 -7 -6 -12 -15 -5 -6 -8 4 
-6 -11 -5 6 -12 12 0 3 -11 12 -22 -13 11 3 2 15 
-19 -22 -3 8 -2 -2 -8 8 -8 44 -5 7 -10 -28 -8 -25 
2 5 -8 -1 -7 -5 -4 13 -8 -10 -4 -16 -5 -9 -5 4 
-6 10 -7 1 -5 0 5463 2274 100 MP stroke
-5 -4 -5 11 -6 10 -4 7 -4 0 -5 -17 -4 18 -4 -24 
-5 -64 -7 16 -5 14 -4 -3 -4 8 -3 -2 -5 14 -2 11 
-7 4 5 2 9 -10 -10 -1 2 -4 -5 6 -9 17 11 -40 
1 -29 -2 35 -2 -7 -3 -3 2 5 -1 -8 2 20 0 -15 
0 17 1 33 6 -68 12 -44 -11 37 -8 36 15 1 9 -23 
0 -9 0 16 7 2 4 -38 -6 11 1 11 7 -40 4 5 
6 -3 5 4 0 19 3 2 12 -5 7 -31 7 5 15 1 
4 4 3 11 8 -4 0 62 9 -3 16 -71 5 -18 7 3 
5 23 4 2 7 8 8 -22 17 -63 6 23 4 25 10 8 
6 0 7 14 5 23 17 -59 13 -6 1 35 13 -33 7 -13 
11 -10 8 6 3 7 19 -34 -2 -6 -1 20 18 10 8 -4 
11 -27 10 -25 11 -14 4 6 3 -2 20 -11 12 17 9 2 
12 7 7 38 12 -2 5089 2441 100 MP stroke
11 -17 12 -27 9 14 8 50 13 -33 10 4 12 13 13 -26 
6 44 15 -34 19 -58 7 41 9 8 13 -3 8 32 17 -9 
17 -68 10 57 15 15 10 -117 4 42 8 -14 15 -85 19 57 
15 -10 12 -26 12 7 17 -9 15 16 8 32 12 35 14 4 
12 39 17 -28 12 -25 14 -7 14 -29 11 6 15 -39 13 31 
18 -70 17 -96 8 120 19 -126 13 -8 6 161 18 -69 13 58 
11 27 17 -32 14 26 13 -28 15 28 14 2 11 31 13 24 
22 -76 20 -18 8 30 10 39 16 24 10 6 23 -70 24 -91 
7 59 12 15 12 8 8 45 21 -84 18 -19 5 79 17 -38 
16 -3 9 34 25 -87 17 -5 6 79 13 -10 15 -15 15 2 
11 8 15 -11 15 -13 14 44 17 20 11 3 24 22 19 3 
-3 -20 18 -22 21 -10 13 -4 15 7 10 7 7 49 11 31 
30 -81 18 -12 5 17 3756 2568 100 MP stroke
21 -51 12 22 15 5 19 -36 14 -1 18 1 12 20 15 16 
15 -23 16 -27 22 -32 16 -4 16 12 14 -17 12 11 11 23 
16 -25 21 5 8 1 27 -58 31 -22 0 -14 9 -29 19 -19 
5 25 18 47 28 -82 12 -14 14 -29 19 -70 14 -45 16 1 
16 -52 17 -24 17 71 16 9 13 -29 11 -107 24 -124 20 24 
11 25 12 -91 18 -166 22 51 15 72 18 -77 17 30 15 106 
14 -129 12 -66 27 -7 18 17 14 -84 20 -86 11 74 24 -20 
18 -152 17 258 23 -34 9 54 19 48 21 -241 14 113 18 -91 
22 -134 24 0 13 -230 18 181 22 -68 17 37 19 -6 18 -37 
23 267 17 -33 30 -396 36 144 3 260 8 55 23 -3 15 -24 
22 -67 21 -114 20 -73 24 -260 17 483 11 162 20 -163 22 -64 
19 -146 26 545 3 -462 0 666 52 -434 39 173 0 -276 11 366 
16 -101 18 51 31 -31 2030 3337 100 MP stroke
20 -66 18 145 24 -63 15 48 12 104 19 76 20 95 21 -88 
21 27 10 -63 16 -84 20 -18 16 122 22 170 -3 -245 -1 201 
26 -158 18 116 17 -13 16 -87 11 44 21 -70 15 97 15 9 
22 -54 21 56 19 -14 15 48 17 -26 18 -43 17 -31 17 -110 
15 80 16 80 16 -31 16 26 15 -20 17 -81 17 6 16 102 
10 -44 13 -162 24 30 15 30 11 -90 16 -31 12 68 11 55 
13 19 12 -44 12 3 8 -107 7 -196 10 59 16 59 11 -24 
7 3 10 82 10 102 9 120 7 156 5 67 4 61 5 17 
0 38 6 79 13 -8 5 78 0 169 -6 58 14 -1 20 6 
-22 56 -5 37 9 14 -5 76 3 70 -2 64 -2 39 -1 21 
-8 26 -3 6 -13 8 -2 26 5 13 -10 5 -2 5 0 16 
-4 15 -13 -3 -21 -9 -4 -1 -4 4 -11 7 -5 6 -9 -18 
-10 -16 -8 -3 -10 15 1214 1919 100 MP stroke
-11 23 -12 -5 -8 -13 -11 -7 -11 -10 -6 9 -10 10 -20 8 
-17 -21 -6 -29 -10 13 -12 6 -9 -7 -11 10 -8 2 -18 -30 
-16 -4 -14 20 -18 -18 -6 -17 -14 -4 -12 8 -11 3 -20 -8 
-6 -6 -20 2 -20 22 -8 -3 -17 3 -9 8 -15 6 -12 -7 
-13 -36 -16 5 -13 33 -31 27 -12 1 -1 -27 -16 4 -13 26 
-22 -6 -10 -5 -21 -17 -34 -20 -14 11 -13 -6 -14 8 -20 13 
-13 6 -10 6 -27 -23 -20 -21 -18 -2 -19 12 -18 7 -19 -9 
-16 -21 -23 -11 -12 16 -20 -8 -31 -14 -19 -8 -18 -4 -21 -8 
-23 -20 -16 -10 -18 -1 -25 -10 -21 -18 -23 5 -9 24 -9 -1 
-30 -22 -22 29 -21 -9 -21 -49 -18 -16 -28 -34 -23 0 -16 6 
-23 4 -25 -14 -23 -34 -10 56 -25 3 -40 -66 -18 -18 -17 -25 
-24 13 -19 24 -18 -9 -19 -10 -30 -12 -24 13 -23 -33 -28 -52 
-18 27 -27 -24 -24 -60 2937 2369 100 MP stroke
-19 38 -23 36 -24 -25 -18 1 -22 14 -46 -40 -18 -8 -12 -8 
-32 -15 -9 29 -33 -22 -18 9 -14 18 -56 -30 -13 -7 -7 -13 
-27 18 -20 1 -25 -21 -15 17 -45 8 -27 -6 3 -8 -24 2 
-20 13 -22 -17 -15 7 -22 -15 -38 -43 -11 13 -22 22 -24 -12 
-5 17 -37 27 -32 -9 3 -4 -19 -24 -25 -20 -12 27 -30 5 
-12 -1 -23 -3 -36 5 3 -2 -23 -29 -14 5 -5 -4 -37 -5 
-9 12 -32 11 -26 23 12 -31 -21 -16 -13 41 -13 -6 -20 -14 
-10 1 -18 1 -11 8 -16 12 -17 8 -13 11 -19 22 -7 -28 
-16 -18 -16 36 -9 7 -13 7 -10 16 -15 3 -10 11 -12 3 
-14 1 -9 6 -25 -4 -14 10 1 5 -15 -5 -17 9 -11 9 
-7 -8 -5 -6 -13 13 -11 11 -8 0 -12 1 -5 4 -17 7 
-17 6 2 1 -10 8 -11 10 -7 -2 -15 0 -6 12 -5 10 
-14 9 -11 2 -8 0 4577 2199 100 MP stroke
-9 3 -8 3 -10 0 -8 -2 -9 -3 -12 6 -6 6 -10 12 
-7 5 -1 -6 -8 3 -1 9 1 5 -8 14 -13 13 -13 9 
-2 8 -1 4 -7 3 -6 -1 -8 7 1 9 -9 6 -9 6 
6 1 -5 3 -6 6 0 2 -2 0 -2 2 -6 7 -3 9 
0 7 -4 3 -3 0 -4 9 -3 11 -4 8 -4 1 -2 1 
-4 13 2 4 6 -4 -6 7 -6 8 -2 6 -5 3 -1 9 
0 5 -4 4 -4 10 -4 1 -1 5 -2 13 -4 16 3 2 
4 -5 -7 19 -6 9 3 -5 -4 10 -2 2 -1 6 -4 4 
-4 2 -2 4 1 -4 -6 8 8 -11 -7 9 -5 8 1 -2 
-3 4 0 1 -6 5 -2 7 1 2 -6 4 0 -1 -2 -2 
-2 -4 2 -2 -3 -1 1 -7 -1 -2 -4 3 -3 0 -2 -3 
-1 -6 -5 0 3 -7 6 -10 -5 10 -2 6 1 -5 -1 0 
0 -5 -4 -2 -2 2 4885 1867 100 MP stroke
-1 -1 -4 -1 4 -7 5 -8 -1 -5 -1 -1 -1 -2 -2 2 
-1 7 2 -6 -3 0 -1 -1 6 -14 1 -1 1 6 0 -8 
1 1 2 0 0 1 1 -5 4 -6 5 -4 1 -6 -1 -2 
3 -2 3 4 8 4 1 -7 -4 -6 9 -6 5 -4 1 14 
4 11 0 -4 2 -6 3 -5 5 -2 3 -4 8 -11 10 -8 
4 4 4 3 -2 16 -1 18 5 -2 3 -4 3 3 4 3 
3 -6 3 0 9 1 0 -8 0 11 9 -12 3 -28 8 1 
7 -3 -1 8 8 10 1 -2 3 7 5 1 0 1 9 1 
3 -4 -1 -3 5 -7 5 3 8 7 1 5 0 4 9 -5 
2 -6 1 -6 4 1 4 0 4 -9 6 -4 3 0 7 2 
3 1 2 -4 10 0 2 5 3 6 6 0 -1 -3 5 -11 
6 -3 0 2 12 -11 13 -5 2 -1 3 -3 3 1 4 3 
7 5 -2 -3 6 1 4575 1979 100 MP stroke
6 -4 1 -10 13 0 3 0 2 1 10 6 -1 -2 7 -8 
5 -10 -1 -4 6 -3 7 -4 6 2 4 -2 15 8 10 6 
-2 -1 0 2 5 2 12 0 4 -8 1 3 6 11 15 -3 
7 7 -6 4 16 -5 5 0 0 1 12 0 0 1 5 2 
5 4 0 -1 12 -5 11 -10 1 -2 2 4 8 -3 4 1 
5 1 12 1 -1 0 11 4 16 10 -5 -5 1 -2 0 -1 
11 -16 20 -2 -4 5 6 1 10 1 -1 0 12 2 6 -2 
-2 -6 0 -4 4 1 12 8 3 6 -3 7 7 -2 15 -1 
-2 4 3 -9 13 -3 -3 -1 8 0 5 0 0 -5 20 0 
4 5 -1 8 -1 7 2 7 9 3 -1 0 15 -3 11 -4 
-5 -2 2 0 1 -3 12 6 5 4 -3 -3 12 -1 11 -14 
11 -15 8 7 7 12 3 5 6 4 14 6 -2 4 4 0 
18 1 2 -3 3 -7 4033 1983 100 MP stroke
6 1 7 5 18 2 5 4 -4 7 5 -2 11 -3 8 -3 
6 -5 10 -2 -2 1 15 -5 34 -6 -4 -1 -4 -1 19 -5 
0 2 6 7 4 4 5 6 19 2 1 -2 5 2 6 -3 
14 -5 33 7 2 -3 -5 -5 4 4 -1 5 13 3 11 -4 
9 1 10 1 7 -1 16 1 9 -4 9 1 27 -4 9 -7 
-10 -4 14 0 13 -2 0 -2 10 5 10 1 11 -2 11 10 
8 9 9 -4 7 -3 22 -2 13 1 2 -9 14 -10 11 -10 
12 -6 13 -1 19 1 17 4 -5 13 14 -12 16 -19 5 15 
27 18 13 -3 0 5 19 23 18 -1 13 0 13 2 8 -6 
13 6 12 8 10 -29 13 -26 10 8 14 -15 17 -25 12 -2 
14 6 11 11 13 32 11 28 16 -18 26 -12 1 -8 6 2 
22 -1 6 -5 18 9 15 -2 12 -11 23 3 9 -10 9 -21 
13 6 14 -4 15 2 2988 2045 100 MP stroke
9 -7 15 -21 10 -12 14 5 16 9 12 1 17 1 11 -6 
16 0 14 9 14 21 16 -12 8 -16 27 8 17 5 -2 -7 
16 -41 9 -35 19 18 21 20 2 -27 19 -20 11 3 8 -9 
28 -1 6 0 3 34 16 30 11 7 14 -18 12 -29 11 -15 
15 -27 11 -5 9 -1 7 17 11 27 11 32 8 24 9 -69 
11 -35 7 30 6 11 16 -9 12 -16 -3 -25 9 -4 13 17 
1 -9 3 9 9 5 12 -24 3 -5 8 9 20 7 6 -6 
0 -40 6 -46 3 21 4 56 4 27 9 -31 2 -41 4 0 
11 2 5 -21 10 -18 5 0 0 1 8 -16 4 -16 5 6 
5 -47 1 -62 5 -22 5 9 5 -4 -2 -83 4 -102 7 -56 
-1 -7 4 -26 4 -75 0 19 5 -46 1 -69 2 -18 5 -38 
-1 18 0 3 4 -3 -2 57 -3 -2 -1 -17 -1 -2 0 -22 
1 58 -1 39 -1 -36 2229 2847 100 MP stroke
-1 -74 0 74 1 91 -2 44 -1 7 1 -6 -3 -4 -5 -29 
-4 22 -3 68 -4 51 -4 0 -3 -21 -4 -8 -4 -26 -4 9 
-7 -9 -1 -8 -3 35 -10 -23 -9 0 -4 45 -5 10 -8 21 
-7 30 -9 23 -9 -23 -5 -42 -7 -21 -10 16 -11 9 -12 -21 
-8 -8 -8 13 -10 12 -10 7 -10 40 -8 6 -9 -20 -15 -15 
-10 -19 -9 1 -12 -25 -9 -27 -11 1 -13 -2 -12 -14 -11 12 
-11 11 -16 7 -15 -5 -12 -16 -11 5 -9 -8 -12 6 -14 -9 
-13 -18 -12 5 -9 30 -15 -14 -20 -46 -16 -6 -10 -26 -10 0 
-14 30 -12 13 -17 -11 -13 -5 -8 24 -17 -26 -17 -58 -11 -20 
-13 -1 -12 -1 -12 35 -16 64 -13 11 -13 -21 -14 -121 -12 -55 
-14 26 -13 70 -10 36 -13 -7 -15 -12 -13 9 -10 0 -15 -61 
-16 -77 -12 9 -15 45 -13 18 -14 24 -13 -19 -10 -49 -20 38 
-11 12 -15 -53 -25 26 3237 2836 100 MP stroke
-3 20 -6 41 -19 -28 -4 31 -15 -1 -26 -265 -13 -39 -20 -7 
3 301 22 409 -19 -26 -14 -1 -5 58 -21 -78 -5 56 -19 -18 
-21 -52 -9 39 -14 -7 -9 8 -19 -35 -7 74 -16 1 -50 -383 
-23 -173 -8 60 -17 15 -11 36 -15 -58 -12 10 -11 29 -14 32 
-12 5 -13 3 -13 78 -13 -5 -14 -47 -11 1 -10 11 -16 -31 
-10 -3 -12 51 -16 -2 -9 30 -16 -35 -12 9 -12 11 -14 -28 
1 159 -11 80 -13 -32 -10 37 -17 -24 -16 -13 -15 5 -8 -35 
-21 -1 -19 -5 2 14 -12 47 -13 9 -5 26 -17 -90 -21 -94 
-9 57 -10 7 -26 -16 -8 14 -1 -15 -14 -1 -11 -4 -10 -16 
-12 2 -12 -2 -10 -14 -15 -12 -11 -6 -10 -3 -15 -11 -6 -2 
-19 4 -16 -18 1 -11 -10 7 -10 5 -17 22 -13 11 2 -8 
-10 2 -17 -42 -21 -118 -4 -10 -11 108 -30 51 4 -5 2 -1 
-4 -8 2 6 -19 -48 4425 2731 100 MP stroke
-11 -95 -4 49 -5 39 -13 -70 -14 -21 1 37 -14 16 -13 4 
1 -7 -13 -84 -12 -83 -5 -4 -9 -38 -4 54 5 114 -13 -68 
-15 -66 1 65 -7 6 -5 5 -5 -29 -15 -87 -3 3 0 53 
3 63 -5 -9 -17 -118 -5 27 -6 74 2 103 3 62 -23 -150 
-3 -74 11 111 -12 -86 -8 -79 -4 41 -5 -4 1 43 -3 -26 
-5 -7 -4 24 -4 -20 -3 3 -6 -11 -2 -27 2 3 0 50 
1 80 -1 12 -12 -87 -6 -38 6 66 -6 -20 -9 -42 3 40 
-2 3 -4 8 6 82 -4 -22 -8 -52 0 -21 -2 30 -2 23 
-2 -10 1 13 0 8 3 16 -4 -11 -7 -26 4 18 -2 -20 
-1 36 6 65 -6 -42 -3 -15 0 36 -5 -7 -2 1 0 -5 
-1 27 -1 38 -3 -3 2 22 2 12 -1 14 -1 -1 -2 -19 
1 23 2 0 -1 11 3 49 1 36 -3 33 1 10 1 -7 
3 1 2 26 2 19 4741 2535 100 MP stroke
1 18 -2 23 1 10 1 26 3 16 2 19 3 11 6 -3 
-4 38 1 13 8 9 -1 18 4 -3 2 9 0 5 2 22 
4 8 3 2 1 25 3 -1 1 10 4 16 2 16 1 17 
6 -5 3 7 4 0 4 6 2 5 6 -10 1 9 6 1 
4 1 4 1 10 -10 -1 11 3 2 5 -2 3 2 6 -9 
7 -4 11 7 2 -8 2 -18 8 10 4 16 8 -22 7 -7 
4 6 7 -7 8 -28 4 -2 3 4 8 -11 6 -5 7 -8 
6 0 11 -5 7 6 2 4 13 -74 3 6 2 35 17 -26 
8 2 -1 13 3 8 14 -30 4 -12 4 -13 17 -26 -2 16 
0 -12 8 7 6 4 17 -44 8 -5 5 -1 -3 3 -2 3 
21 -40 10 -3 -1 15 6 -7 5 -15 5 -14 4 -1 5 -10 
2 6 3 32 4 18 3 -36 3 -60 2 23 4 10 8 -37 
4 1 1 3 2 30 4295 2505 100 MP stroke
-2 -4 0 -26 12 2 2 37 -4 41 9 -34 6 -5 -6 17 
-2 -29 3 -5 0 4 -3 -1 1 -2 5 -21 1 -51 -1 29 
4 -4 0 10 -1 -3 0 -15 -5 12 1 -16 1 20 -2 35 
1 7 -3 8 1 -23 2 -21 -3 3 0 5 -2 8 0 -38 
4 20 -7 72 -7 38 2 4 -2 -50 -1 -26 4 -7 -1 26 
2 -10 -10 44 -5 -48 1 -37 -2 41 -3 13 0 17 -3 2 
-5 8 -1 -15 2 -33 1 2 -7 13 -1 21 0 22 -1 -25 
9 -76 -7 15 -13 119 1 16 -1 -11 -1 -17 -4 -24 -4 13 
1 5 0 25 -1 5 -5 -2 -4 30 0 -13 -1 6 -4 22 
-6 -5 2 -15 1 -24 0 -14 -1 -11 -12 24 -4 9 1 -26 
-5 12 0 14 -2 1 -2 17 1 9 -3 5 -3 2 -7 21 
-10 24 3 -18 8 -50 -4 -11 -4 17 -1 -5 -3 13 -1 14 
-1 18 -1 13 -1 -5 4409 2331 100 MP stroke
-2 8 2 -9 -4 11 -10 19 1 -14 3 27 -4 7 1 -16 
3 2 -1 -35 -2 -8 0 5 -1 -16 -1 6 -2 8 2 7 
1 5 -3 -3 2 -14 -3 -8 -3 2 1 1 -9 18 -3 10 
5 0 -4 17 1 8 0 9 -1 7 3 -11 0 -18 2 -17 
1 -16 1 -18 1 -1 -1 -2 2 1 1 15 1 -6 3 -2 
-1 10 -1 6 5 2 1 2 -11 22 -1 9 3 11 -2 11 
3 -17 -3 11 -3 22 0 -5 -5 -3 0 10 2 17 2 4 
2 6 5 12 4 -20 0 -14 4 -3 2 -9 0 2 2 -1 
0 -5 3 6 2 0 1 -6 2 11 0 9 1 6 2 15 
1 1 3 -16 1 -9 1 5 2 4 3 -8 3 -7 3 0 
2 -6 2 -1 0 5 4 3 4 14 2 5 2 2 2 7 
1 -9 2 2 7 19 0 2 1 -9 5 -9 2 7 5 17 
4 -2 7 -2 5 1 4333 2215 100 MP stroke
2 -5 13 -1 3 -3 2 0 12 21 0 4 7 -12 12 -1 
5 -3 11 1 6 11 6 7 10 -7 6 -3 6 8 6 4 
7 -5 7 2 5 11 12 9 6 13 12 7 23 0 1 4 
3 -1 12 -6 3 7 14 10 9 -7 9 -23 11 -6 4 1 
15 4 4 18 11 -28 15 -5 2 20 23 10 9 8 3 16 
20 27 1 10 6 -10 13 -1 9 3 19 -1 7 1 7 -8 
13 -18 7 -22 8 -27 14 12 9 16 8 9 10 12 9 -6 
15 11 9 0 5 6 17 -7 11 -1 8 25 15 -8 5 -14 
4 -2 7 4 3 55 9 -23 18 -32 13 11 5 -10 9 29 
10 13 1 -32 4 -22 6 29 3 19 7 -16 6 19 2 1 
11 10 7 32 -1 8 6 -30 4 -29 3 19 5 16 2 5 
1 -2 3 1 4 3 8 10 1 10 0 -4 6 -3 4 18 
0 12 2 2 0 10 3588 1995 100 MP stroke
1 9 2 18 -5 13 -2 -22 4 -36 7 5 4 31 -2 24 
3 15 2 -4 -5 -2 2 19 -1 -12 -6 -26 -2 18 1 23 
8 12 -1 8 -1 10 2 -25 -4 -27 6 7 -6 -6 -13 -9 
5 0 0 3 -3 18 1 21 3 5 1 -11 -6 -18 -2 -6 
-5 2 -6 6 4 3 -1 -24 -2 -25 1 5 -3 -5 -3 -13 
-2 25 -8 14 -7 -6 1 -11 2 -6 -2 -26 -8 -15 4 35 
-3 15 -17 -34 2 -35 -6 4 -10 7 6 14 -8 27 -5 -6 
-3 -36 -5 7 -3 16 -11 -16 -4 -12 -5 3 -7 4 -5 -19 
-10 -4 0 17 -13 9 -19 23 0 -22 -2 -33 -5 1 -14 -9 
-7 2 3 18 -19 3 -16 -11 -6 -15 -11 -6 -6 10 -13 5 
-8 8 -4 -3 -14 20 -14 15 -16 -14 -4 14 -8 12 -15 -10 
-1 -10 -19 -23 -22 -16 -3 4 -15 14 -10 4 -9 18 -11 17 
-4 -5 -22 -8 -20 7 4071 2010 100 MP stroke
-10 -9 -16 -22 -11 -14 -16 1 -11 0 -13 -6 -33 4 -13 -16 
2 1 -20 29 -11 -4 -13 -15 -29 -21 -15 -21 -12 32 -10 23 
-16 -18 -17 5 -5 18 -24 -12 -27 -1 -7 25 -17 -6 -16 -18 
-14 -17 -20 -5 -17 1 -17 -22 -16 -4 -15 -5 -17 5 -20 29 
-19 -1 -18 -37 -15 -24 -15 -6 -18 9 -14 37 -21 -1 -13 -14 
-16 -6 -19 -18 -11 -16 -33 -34 -19 -13 2 -4 -19 0 -15 57 
-13 34 -22 -10 -18 -37 -11 -2 -11 -3 -14 -36 -13 -9 -17 4 
-11 18 -19 -3 -30 -6 -8 6 -13 10 -19 2 -11 -15 -14 23 
-11 31 -20 -20 -17 -8 -14 -1 -17 10 -12 -4 -19 -14 -15 -14 
-16 -44 -16 6 -10 12 -22 -28 -16 1 -19 48 -20 20 -10 -36 
-16 -71 -12 -6 -16 26 -17 -10 -5 27 -22 38 -20 0 -4 17 
-15 2 -14 -14 -10 6 -15 -36 -10 -17 -20 31 -15 6 -10 -16 
-26 -12 -9 -8 1 22 5583 2224 100 MP stroke
-17 22 -10 3 -8 8 -22 2 -11 -14 3 1 -22 -7 -17 -10 
2 -1 -18 2 -9 4 1 -6 -12 0 -8 12 -8 3 -8 -1 
-15 -7 -14 0 3 2 -9 -6 -10 1 -5 1 -9 -3 -5 -8 
-9 -3 -6 -5 -6 0 -6 17 -5 -11 -7 -8 -6 19 -8 -2 
-1 -5 -3 -1 -6 -7 -5 -6 -7 -6 -3 2 -5 -4 -5 -1 
-4 10 -6 2 1 7 -6 7 -1 -7 1 -3 -10 5 -1 3 
-1 -3 0 -7 -1 1 1 -12 -11 -14 -7 -5 2 -17 -2 4 
1 9 -1 -4 -3 10 -1 7 0 5 -1 4 0 6 -2 9 
-2 -2 1 -9 -2 -7 -1 -3 -1 -4 -3 -9 2 -1 -2 2 
0 5 -3 5 -2 5 3 8 -3 -7 2 -10 -1 -10 -3 -1 
2 -2 -4 2 2 3 -4 3 -5 12 12 -11 -3 -5 -7 3 
3 -12 -4 3 1 0 -1 0 0 6 1 -5 -1 12 2 0 
-1 -1 2 20 1 -18 5970 2258 100 MP stroke
0 -21 3 8 -2 -3 2 -7 -1 -2 -3 4 6 2 1 -1 
1 0 4 -7 0 -1 2 2 2 -14 2 -10 4 -3 2 -8 
2 -16 3 -9 4 2 0 -1 3 4 2 6 5 3 9 -1 
0 -10 5 -12 10 2 -1 9 5 -4 10 -12 5 -11 4 -4 
2 -3 7 -4 13 -3 1 -8 4 -8 11 1 4 -2 8 -10 
10 -5 8 -8 6 -2 11 6 19 -10 -3 -9 5 -9 23 -17 
1 -13 6 -23 8 -8 8 5 15 0 3 12 18 -5 16 0 
5 15 12 -10 9 -6 11 -5 3 -9 23 -6 30 -15 -3 -2 
6 8 13 -4 10 -9 11 -10 8 -14 11 -8 13 1 24 10 
8 -4 3 -2 26 5 -4 -10 4 -4 32 0 6 -1 3 -6 
16 -18 14 -4 9 -7 9 -5 11 11 7 -15 11 -16 9 -10 
17 10 31 19 9 -18 -1 -8 13 -12 15 -33 10 16 6 56 
19 1 27 -21 3 -22 5178 2658 100 MP stroke
11 0 37 -5 9 -17 -7 -1 7 10 14 12 28 17 23 -8 
0 17 7 5 15 -85 13 -20 11 -8 10 25 25 50 20 35 
7 -15 13 21 12 -14 10 -2 12 -2 12 -60 18 3 13 61 
16 11 13 16 7 10 27 -15 17 6 -3 0 13 3 13 -1 
14 14 27 87 11 28 14 -58 22 3 1 11 8 -4 20 15 
7 -1 18 16 10 -16 4 -36 27 34 20 19 8 -5 13 3 
15 -7 12 2 11 -4 15 4 9 13 13 16 17 21 14 7 
16 11 12 0 17 -6 11 9 16 -3 14 -6 6 5 25 -15 
7 -30 5 21 32 46 12 -9 12 -7 18 36 6 10 11 14 
13 3 13 4 14 -13 17 12 14 38 16 -32 16 2 13 95 
17 -19 13 -62 13 27 11 -19 18 -10 16 30 8 23 26 45 
6 -25 13 -6 31 28 8 -37 32 3 11 20 7 -2 34 -15 
-5 12 11 3 15 -46 3804 2312 100 MP stroke
7 29 21 37 15 -6 35 44 15 20 8 -1 23 2 2 -6 
17 -6 13 -22 13 3 35 28 10 28 20 5 23 19 13 -40 
9 -10 14 24 13 33 10 16 13 -28 14 -8 8 14 22 6 
16 -6 -2 11 14 -3 14 -18 25 30 19 -8 -3 13 15 48 
11 -49 13 -15 17 29 10 -1 15 26 8 -10 15 -7 11 -4 
3 1 4 50 4 4 28 -11 18 1 2 -20 9 -14 10 20 
6 -15 -8 -53 8 15 8 37 2 3 25 9 9 0 0 -8 
9 -6 18 38 19 31 2 -8 10 26 11 -3 8 -1 12 26 
6 -13 8 -15 2 -1 6 5 7 5 0 -16 8 -30 -2 5 
-2 30 5 -19 7 -23 7 24 -2 21 6 11 16 -4 8 -8 
-1 8 2 15 3 -4 4 -16 8 8 1 -8 4 -15 5 19 
0 13 7 4 1 -6 -1 1 9 8 3 0 2 6 2 -6 
-1 -31 5 -12 8 21 2875 1996 100 MP stroke
1 25 -1 26 3 -1 -1 -3 0 7 -1 1 -2 -13 1 -16 
-2 -3 3 7 -6 11 -7 28 12 -7 -2 -3 -9 19 0 -25 
-3 -5 2 2 -5 9 -4 19 5 -21 -7 12 -10 19 -1 -22 
0 -23 -1 2 0 6 -2 0 -5 9 -1 4 -4 15 -9 10 
-7 -9 1 16 1 -7 -7 -34 1 -38 -1 -31 -10 29 -3 26 
-4 14 -8 8 -4 4 -5 2 -2 -18 -6 0 -3 -17 1 -42 
-10 24 -7 32 -6 -13 -8 -6 -5 8 -4 9 -4 9 -5 -9 
0 -48 -6 -17 -13 11 -6 -7 -4 -2 -7 -5 -4 1 -1 13 
-8 7 -9 4 -3 -1 -13 -2 -11 2 -4 29 -6 8 -3 -42 
-8 3 -13 24 -5 -19 -17 -12 -8 -6 -1 -21 -20 1 -6 -5 
0 -11 -17 8 -9 16 -6 -10 -9 3 -13 9 -14 -1 -10 -21 
-10 -16 -4 -4 -9 -3 -13 22 -8 9 -18 -12 -16 6 -12 21 
-13 2 -11 7 -10 -17 3414 2026 100 MP stroke
-13 -23 -18 -7 -16 -5 -14 1 -14 -19 -12 6 -13 17 -13 -4 
-18 7 -17 8 -13 -10 -14 -6 -13 -4 -16 0 -17 -6 -12 -21 
-19 2 -19 12 -15 -10 -15 -24 -14 -2 -16 11 -16 20 -15 -6 
-16 -8 -19 -12 -16 -4 -15 36 -18 9 -18 -37 -17 -47 -11 -47 
-14 14 -21 28 -16 -3 -16 -5 -16 0 -19 3 -15 -29 -10 -45 
-25 32 -18 32 -7 4 -21 6 -16 -68 -14 -45 -19 36 -8 -4 
-19 28 -25 16 -14 -66 -12 -2 -14 16 -17 -9 -10 8 -16 1 
-13 -24 -7 -71 -27 39 -18 42 -7 -37 -16 31 -13 -2 -27 2 
-8 8 4 -64 -25 1 -23 25 -10 -8 -9 5 -25 8 -13 3 
3 -30 -20 4 -9 -22 -8 -65 -28 81 -13 -3 -9 -62 -11 20 
-14 -32 -16 -15 -11 12 -15 9 -9 19 -14 -11 -23 58 -9 -3 
-9 -80 -16 21 -11 -20 -14 26 -15 20 -9 -15 -13 4 -10 -44 
-10 6 -19 72 -10 19 4867 2324 100 MP stroke
-12 -2 -15 0 -12 -28 -15 -20 -9 -12 -14 9 -9 -50 -7 -6 
-20 84 -18 17 -11 -39 -8 12 -12 -4 -13 -6 -10 23 -10 -15 
-6 9 -11 15 -11 -17 -11 5 -13 -10 -11 20 -21 54 -9 -10 
-9 -14 -11 -23 -5 -30 -24 12 -14 -2 0 8 -11 -1 -9 -11 
-9 14 -6 -7 -9 -5 -8 -43 -8 -36 -20 61 -15 44 -9 10 
-8 -8 -7 -20 -10 29 -10 25 -11 -27 -8 -23 -10 14 -11 11 
-8 -9 -9 4 -5 -28 -10 -12 -10 5 -6 -24 -8 -3 -7 -7 
-15 42 -16 45 -5 -29 -7 11 -10 25 -4 -24 -6 -10 -12 10 
-7 6 -7 -1 -11 3 -8 -3 -16 -18 -15 0 5 -8 -2 -4 
-14 7 -1 -5 -4 12 -9 -24 -3 -31 -6 1 -6 -9 -13 52 
-16 35 -1 -25 -2 16 -7 0 -7 -39 -1 -8 -1 11 -5 21 
-6 7 -13 2 -7 14 -13 -7 -6 -7 0 -4 -6 -5 -2 -3 
-4 4 -5 -22 -5 -5 5759 2358 100 MP stroke
-7 29 -7 -1 0 -8 -3 0 -4 -12 -6 -7 -9 -2 1 1 
1 5 -4 2 -2 8 -7 16 -5 7 0 -2 -3 10 -7 -8 
-1 -20 -1 17 -5 -5 0 -31 -4 -4 -5 -7 0 -4 -4 -4 
0 1 -5 37 -3 8 1 -4 -4 5 2 -15 -3 4 -3 0 
0 3 -1 8 2 -9 -2 3 3 -9 1 -1 -1 3 4 -4 
-2 1 3 3 -1 23 -1 15 3 17 -3 16 10 -29 5 -25 
1 -1 5 -4 0 -6 5 -5 1 0 3 -4 6 0 0 -9 
6 -5 2 -2 1 -7 5 7 2 -7 6 0 4 -7 0 9 
2 40 6 -62 4 -77 4 17 7 17 0 11 6 -4 20 30 
11 41 -1 4 4 9 12 20 13 -1 -5 1 2 -9 16 -70 
7 -13 4 41 5 22 6 5 5 -2 4 7 7 3 4 13 
10 0 9 13 -1 -5 13 -64 10 4 3 11 8 -18 6 11 
8 8 3 30 3 3 5574 2332 100 MP stroke
4 8 6 -6 16 -77 11 -20 4 7 3 31 4 12 7 -35 
5 37 8 -28 15 -89 8 2 3 37 2 48 9 -23 13 -42 
0 53 2 31 14 -45 10 -14 6 28 2 23 9 -12 7 -18 
1 18 10 -16 3 13 5 24 16 -71 6 -19 8 47 7 9 
-2 2 8 -12 6 -7 4 11 11 -23 9 -29 5 37 8 24 
1 -3 1 12 12 -17 1 29 6 7 15 -55 5 14 3 19 
3 5 7 -14 4 2 4 21 17 -70 7 -13 3 36 4 -10 
8 -32 9 -17 -2 75 11 -32 13 -45 0 60 8 -3 6 23 
1 11 3 13 11 -27 13 -70 1 53 5 -4 6 -3 4 39 
4 -15 6 -10 14 -34 1 33 3 0 9 -24 -1 46 13 -57 
12 -48 1 24 3 21 2 23 2 43 -3 50 13 -86 13 -72 
2 11 4 -17 1 33 7 -36 -2 27 -1 39 13 -91 2 13 
2 16 4 -23 -1 19 4988 2527 100 MP stroke
4 -2 -1 16 1 3 3 -20 3 4 5 2 0 -22 0 1 
1 30 1 7 2 4 -1 -4 0 -1 3 -3 -2 -11 1 3 
2 -4 -5 80 -2 22 12 -109 6 -10 -4 34 0 -5 -1 8 
-1 -8 -2 15 -8 50 10 -39 11 -92 -8 61 2 -24 2 -105 
-8 105 -2 60 -1 1 3 -12 1 4 1 18 5 -44 -2 51 
2 -43 3 -74 -5 133 -3 63 -5 37 12 -47 14 -97 -5 54 
0 -13 -2 18 3 -7 -4 53 4 -9 9 -37 -1 27 1 8 
5 -13 2 -1 2 4 3 -9 1 8 4 24 0 17 4 -1 
10 -16 2 14 2 18 8 13 2 13 1 -11 8 -23 4 5 
6 25 8 -9 1 8 3 18 7 -12 3 11 4 16 5 -3 
10 -15 4 -1 8 18 19 8 1 10 -3 9 6 5 7 -3 
5 7 4 14 7 8 3 26 12 -24 14 -31 1 31 8 5 
7 4 5 3 9 -1 4712 2228 100 MP stroke
8 7 9 -7 8 8 14 -17 11 -8 5 13 8 0 6 24 
9 7 10 -1 11 9 9 0 8 5 11 -9 9 -1 12 8 
6 9 14 11 14 -10 -4 7 11 7 11 10 14 20 12 5 
-5 -2 20 -15 10 -2 7 -1 27 -7 -2 3 15 -17 25 -7 
-3 -15 10 -11 14 10 12 -21 11 3 13 -4 15 -23 8 9 
15 -12 13 -2 6 9 14 -13 13 -7 12 -5 16 -22 16 -23 
11 -16 14 -21 13 -21 14 -18 13 -22 11 -9 14 -5 15 -7 
22 -29 21 -42 13 -16 18 -13 16 -12 14 -2 13 12 14 -17 
20 -17 17 61 19 -51 20 -40 23 30 13 30 13 24 23 20 
12 18 23 -31 14 -23 14 13 47 -4 16 36 0 -3 24 -4 
16 -14 16 -7 18 19 20 29 18 38 19 -34 35 -31 18 -6 
17 -27 25 -25 15 -14 19 0 18 4 23 23 31 12 24 -4 
21 -32 19 -48 19 18 3279 2584 100 MP stroke
18 4 20 -31 21 0 25 0 32 8 25 -18 19 -57 22 0 
21 -15 23 -42 23 -40 24 62 27 7 23 -40 27 34 26 -10 
17 -20 23 11 25 -24 21 -36 25 -49 26 28 20 58 21 -28 
26 -40 26 -23 23 -71 23 -34 20 42 21 26 28 -1 22 20 
14 -13 23 -8 31 9 18 29 20 -28 28 -90 15 31 24 -4 
28 -80 17 40 24 81 20 -18 22 -47 22 78 15 123 22 -40 
25 -127 23 -32 19 -36 19 -36 18 15 22 -20 23 71 14 14 
47 -66 34 55 -6 -25 25 -20 20 63 15 -12 26 4 10 41 
30 -32 20 -89 17 -20 30 6 10 -22 44 53 31 53 -1 7 
44 -2 15 -39 -3 -31 40 12 9 37 26 -10 44 72 -1 14 
25 -96 29 -35 -6 -30 20 0 18 62 12 -15 23 -11 13 49 
25 117 17 -29 7 -168 20 5 17 57 16 42 17 29 17 4 
15 4 15 -2 16 68 1188 2851 100 MP stroke
8 -44 14 -57 13 24 10 -96 20 23 16 119 11 39 11 37 
15 -31 13 -12 4 18 10 -12 10 38 10 16 10 -7 9 24 
13 19 13 0 11 27 -3 3 -8 -178 12 9 5 -9 -3 -37 
12 91 -1 -61 9 -4 30 192 5 34 9 -78 2 -20 -9 40 
6 9 -22 -304 -9 -129 12 52 -11 -156 5 0 0 9 -5 -69 
2 13 -8 321 5 84 -3 120 1 114 -4 107 -12 158 20 -45 
12 -75 -4 101 -2 94 0 69 3 18 -13 21 1 -26 -14 81 
-41 159 -10 22 -2 16 -7 11 -8 7 -3 11 13 -42 -4 1 
-16 14 -2 0 -1 24 -7 -5 -7 16 -8 1 -6 -33 -9 0 
-10 14 -5 10 -3 -12 -3 -6 -7 15 -11 9 -6 5 -11 -8 
-9 -27 -5 -13 -5 9 -5 12 -17 -10 -3 -1 0 13 -31 -1 
-14 4 3 3 -12 -18 -5 -9 -13 8 -16 -19 1 3 -17 20 
-23 -11 -9 3 -11 -2 1312 1984 100 MP stroke
-11 -5 -10 2 -5 0 -19 2 -32 -7 -1 14 -11 23 -20 -1 
-5 -10 -19 -27 -11 -14 -18 -6 -27 0 -10 22 -18 0 -15 10 
-16 11 -15 14 -13 13 -37 -25 -28 0 -10 0 -20 -12 -21 -2 
-22 7 -27 5 -23 20 -20 1 -23 10 -22 2 -22 -24 -22 -5 
-21 -6 -21 -4 -19 19 -22 4 -23 -3 -24 4 -18 10 -17 7 
-20 -25 -19 -2 -20 26 -22 1 -33 -25 -31 -22 -16 13 -16 -7 
-18 2 -43 17 -23 -18 6 3 -31 -1 -19 -20 -18 -13 -31 -10 
-10 1 -28 4 -12 9 -24 -15 -40 14 -1 14 -14 -9 -24 -5 
-18 -23 -19 0 -17 -3 -24 -25 -13 6 -17 7 -24 0 -21 -15 
-19 -8 -19 6 -22 -4 -19 -6 -22 -25 -13 4 -16 -7 -27 -19 
-15 12 -22 -11 -19 5 -15 1 -17 -21 -15 -1 -20 -21 -15 10 
-22 12 -21 -18 -21 -37 -18 -23 -7 26 -18 2 -9 40 -21 -32 
-18 -31 -6 32 -24 -39 3190 2209 100 MP stroke
-8 27 -24 -35 -13 -9 -8 6 -27 -64 6 68 -42 -107 -1 33 
30 160 -51 -101 5 54 -10 11 -43 -105 -6 24 -28 -42 -14 -44 
-17 -53 16 119 26 117 -26 -36 -1 25 -27 -46 -19 -22 11 33 
-29 -23 8 63 -5 -23 -72 -196 -27 -102 46 200 27 125 -18 -39 
-13 1 -6 -8 -10 -15 -11 -3 -6 -17 -14 -24 -5 0 -2 22 
-53 -142 -12 -30 13 84 -25 -77 6 35 -13 2 -12 -33 9 31 
-22 -46 2 15 -13 -9 -19 -9 6 11 -18 -29 -8 28 0 -21 
-6 8 -13 45 -5 -8 1 0 -15 -32 -2 -31 -9 -3 -8 16 
-7 -7 -19 -15 3 30 -17 -16 -15 -27 -1 -2 -17 5 -3 11 
-4 -8 -5 13 -7 -10 -13 -15 -6 10 -19 -14 -6 11 -3 4 
-14 -6 -7 -7 -12 -16 7 15 4 18 -15 4 -7 -7 -13 -9 
-5 -8 -2 -22 -11 -2 -5 6 -7 9 -7 12 -8 10 -6 8 
-9 -15 -8 4 1 1 4077 2465 100 MP stroke
-5 -13 -7 -2 -4 0 -5 10 -4 -1 -5 1 -5 7 -9 6 
-3 21 -1 5 -4 -6 7 11 -1 1 -8 -1 2 0 -4 1 
-7 15 1 10 -2 5 -2 9 -1 18 -1 28 -1 15 -3 10 
0 15 -1 11 -2 21 -2 27 1 32 -1 32 -5 35 5 27 
6 24 -7 45 1 35 0 31 -1 34 5 29 -6 45 0 40 
9 32 1 38 -5 44 -1 44 0 66 2 30 2 30 2 27 
0 25 -4 26 1 17 0 28 3 11 0 11 4 2 1 6 
-1 3 -2 2 -4 5 8 -7 4 -5 1 -6 5 -9 0 -5 
2 -9 4 -9 3 -9 4 -9 3 -10 3 -10 2 -10 3 -14 
4 -12 6 -13 5 -13 1 -8 4 -11 5 -8 1 -7 1 -12 
7 -12 4 -9 3 -8 3 -8 -1 -8 1 -12 -4 -1 0 -6 
16 -21 1 -4 -1 -1 8 -16 -3 -5 2 -7 4 -7 0 -4 
7 -12 2 -7 -3 -1 4033 1730 100 MP stroke
2 -2 3 -2 1 -5 0 -5 5 -7 3 -8 -1 2 -1 1 
-3 2 -1 0 1 0 -4 -3 2 -4 0 -3 -1 -5 -2 -4 
-4 -3 1 0 -6 3 -5 0 -2 -3 -9 4 1 1 6 -8 
-2 -3 0 -4 -1 -3 -5 4 -2 5 -5 4 -7 1 -3 0 
-7 4 2 -7 11 -9 -6 2 -4 -2 -1 -2 -7 0 -1 0 
-6 4 -4 3 -5 2 -10 5 9 -7 2 -6 -8 4 2 1 
-2 4 -7 3 -3 1 -3 1 -4 -2 -3 5 -2 -1 -4 -4 
-4 1 -2 -2 0 -2 -3 -3 -1 -3 4 -3 -4 2 -7 6 
2 -1 0 -2 -4 -2 0 2 -3 4 -5 -2 2 0 -1 1 
-7 1 -1 0 1 0 0 4 -1 2 -3 -6 0 -2 -4 4 
-3 7 1 1 0 -6 -2 3 -3 3 3 1 -2 3 -1 2 
1 0 -4 4 5 -1 -3 0 -2 0 5 -5 -14 4 -2 1 
7 -6 -4 4 2 -2 4190 1764 100 MP stroke
-1 0 1 1 2 -1 0 2 3 0 3 -1 3 -3 2 -3 
7 -3 3 -2 0 -2 3 3 -7 12 1 3 11 -8 1 -3 
8 0 6 1 -1 -2 5 1 5 3 4 1 3 4 4 1 
5 -3 7 -3 6 -6 9 -1 7 -3 -1 -1 12 2 1 3 
-2 -1 17 0 8 3 -1 0 0 -3 4 -1 5 0 5 1 
9 1 16 0 1 -2 -5 3 13 5 9 2 -3 -1 1 -1 
11 -1 3 -1 -1 -2 12 -1 7 0 0 -3 3 -3 8 -3 
13 0 -1 0 4 -3 11 3 8 -3 5 -1 -1 -3 8 -2 
4 1 -1 5 9 -4 8 -4 6 4 10 1 -2 -1 5 -4 
8 -2 1 3 9 2 3 1 8 -4 19 0 3 1 -1 -4 
0 1 1 -2 6 -3 5 -3 6 1 7 1 8 -6 5 -2 
8 -4 8 -3 4 -1 9 -5 10 -3 5 -5 8 -2 7 4 
6 1 13 -2 9 -3 3697 1830 100 MP stroke
-1 -1 10 -1 9 4 6 6 11 3 6 -1 11 -2 9 4 
8 8 8 3 22 -5 22 0 -8 -4 2 1 10 9 9 -2 
18 -1 3 7 18 4 14 -10 9 -17 18 -5 -3 -14 24 1 
14 6 1 12 27 18 4 -15 4 -18 14 0 13 10 15 5 
11 -1 29 -1 10 -3 1 -5 11 1 14 -3 30 -7 5 -4 
4 -11 17 9 12 19 16 2 12 -7 30 -8 9 -6 7 2 
25 9 -3 -9 27 -5 13 4 -9 -5 27 -2 13 2 23 2 
30 -11 2 -3 5 5 10 -6 14 3 11 0 14 -8 17 -3 
12 0 13 -1 12 5 15 7 13 -12 12 -2 16 -1 21 -15 
21 16 -2 8 8 -10 19 -5 8 -9 22 -3 6 -5 18 1 
30 -1 -1 -3 17 4 18 -12 -4 20 13 -10 15 -12 10 9 
10 -9 12 9 18 -3 16 -17 29 3 11 -13 -17 44 2 37 
13 -6 12 9 14 6 2501 1846 100 MP stroke
11 -5 14 -4 8 -7 10 -34 11 -4 14 7 16 -19 3 26 
29 -56 45 -131 16 10 0 9 1 12 21 22 17 -39 -4 11 
8 -18 13 -1 16 -6 13 6 1 24 5 1 9 -4 8 -8 
5 -25 12 -32 10 6 -2 14 7 -10 5 12 9 -21 9 -33 
2 -9 8 -7 3 -2 3 -9 7 -17 2 14 4 -18 1 -25 
4 -10 6 -12 3 -4 4 -18 2 -3 2 -19 -4 -53 3 -35 
3 -48 -1 -26 4 2 -2 -12 0 -47 5 -67 0 -76 -6 -64 
-1 -97 3 -111 -3 -5 -1 36 1 3 -4 6 -5 28 0 33 
-4 -16 -2 39 -2 4 -6 -67 1 -15 1 41 -6 116 -3 127 
-5 0 -5 -47 -6 10 -3 -2 0 18 -5 19 -3 27 -3 -6 
-7 -1 -8 25 -6 12 -6 0 -9 -28 -4 30 -11 -32 1 -37 
-9 39 -10 28 -5 -6 -8 -19 -6 0 -11 41 -4 17 -6 10 
-16 -27 -4 -23 -10 -18 2308 2556 100 MP stroke
-13 -66 -5 5 -12 24 -6 15 -12 5 -13 -48 -5 -23 -12 58 
-8 54 -17 -18 -18 -38 2 -21 -13 12 -14 2 -9 -41 -16 28 
-15 12 -14 -20 -13 -24 -15 5 -15 18 -14 34 -16 -6 -12 -35 
-11 -15 -16 9 -17 -15 -16 -17 -15 17 -14 -8 -17 2 -13 -6 
-13 14 -18 -2 -12 -3 -20 33 -19 -21 -10 -1 -33 -45 -20 -62 
2 -8 -20 -66 -15 -22 -15 84 -20 63 -13 -41 -20 -36 -16 -5 
-15 2 -18 8 -15 -9 -18 15 -14 23 -20 -10 -17 7 -12 -7 
-17 -17 -9 12 -17 -41 -16 6 -15 16 -16 7 -10 31 -22 -10 
-11 -75 -18 -8 -30 -8 -2 -42 -10 9 -14 41 -19 22 -28 31 
0 24 -9 -12 -15 -6 -24 -25 -38 -11 5 -9 3 41 -15 2 
-7 -23 -17 57 -8 31 -11 -15 -17 -23 -9 35 -11 -6 -4 22 
-21 -16 -26 -210 -1 12 -6 48 -14 -61 -7 77 -12 -13 -8 48 
-11 193 -24 37 -7 -14 3671 2589 100 MP stroke
-1 25 -16 -20 -7 13 -6 30 -11 -7 -11 7 -8 -73 -3 -101 
-9 42 -9 29 -8 -9 -10 -6 -7 -13 -10 24 -8 0 -9 8 
-9 23 -5 13 -9 20 -7 0 -7 12 -13 -13 -9 1 -6 37 
-9 -27 -10 -19 -10 15 -8 7 -7 5 -18 7 -9 23 0 -7 
-16 -14 -8 9 -2 13 -8 6 -7 -1 -8 17 -8 4 -14 -3 
-5 8 1 3 -13 13 -3 -11 -8 8 -10 60 -2 20 -11 3 
-8 3 -12 6 -13 19 1 -1 -12 -6 -8 -14 2 8 -13 10 
-7 -13 -5 1 -20 -22 -7 -10 -11 29 -15 -2 2 -1 -10 1 
-10 -7 -15 13 -15 5 5 -5 -11 5 -11 -1 -7 -18 -16 -19 
-5 6 -13 6 -10 -16 -8 -1 -16 -17 -8 -28 -14 5 -5 11 
-11 2 -22 3 -2 2 -4 -9 -9 23 -10 5 -19 -54 -11 -16 
-12 -7 -19 -14 -10 14 1 -13 -13 -5 -12 -5 -6 -24 -22 6 
-10 4 0 -5 -13 -5 4561 2559 100 MP stroke
-10 0 -14 -8 -14 -11 -10 12 -13 -25 -12 -22 -10 -10 -12 -24 
-11 -11 -12 -16 -13 -10 -12 -5 -9 -3 -14 -26 -16 -32 -11 -18 
-12 -26 -11 -4 -14 -11 -15 -15 -7 8 -24 5 -31 19 3 -9 
3 -2 -12 28 -11 -38 -15 -32 -9 13 -16 -16 -12 -22 -10 -31 
-19 -24 -4 10 -18 8 -22 -5 1 11 -11 -15 -15 -45 -10 -12 
-10 7 -11 -6 -11 -14 -12 -18 -15 10 -10 20 -15 7 -10 -27 
-10 -42 -26 -27 -5 -10 -4 -4 -10 -44 -10 -61 -21 -28 -4 -31 
-2 -27 -11 9 -9 -10 -14 -24 -10 -31 -10 -10 -7 27 -14 24 
-17 27 2 -2 -6 -35 -9 -13 -4 -50 -8 -39 -6 10 -8 -12 
-10 33 -15 2 -5 -34 -1 -28 -13 4 -6 -7 -9 -95 -10 -105 
-3 9 -14 -34 -9 -31 0 -42 -6 -8 -7 13 -18 1 -16 97 
6 -114 -2 17 -9 53 -4 -301 -21 43 -15 186 4 -3 -1 -30 
-1 -10 -8 19 -7 37 5562 3725 100 MP stroke
-6 71 -12 6 2 -47 -4 -22 -8 31 0 93 -9 -74 -1 66 
-4 -28 -4 -14 2 166 -9 -160 -2 -29 -8 58 -17 -88 0 -16 
-4 -62 -4 -35 -5 61 -10 78 2 -30 -3 128 -5 90 -2 -82 
-10 2 -5 85 1 -24 -4 82 -6 76 -4 -4 2 42 -6 11 
-3 18 -2 32 -14 -93 -5 -39 1 5 -7 -36 -9 30 0 32 
-2 24 -6 27 -2 21 -7 48 -9 36 0 18 -4 44 -4 54 
-7 33 -8 13 1 -19 -4 -17 -4 2 -8 5 -5 53 -1 -4 
-17 -72 -1 -3 1 -28 -16 -50 2 -6 -5 -22 -8 4 1 23 
-9 22 1 9 -8 5 -14 23 1 13 1 5 1 14 -8 28 
-9 13 3 10 -1 6 -4 -12 -8 4 -3 2 0 68 -7 33 
1 -22 2 47 -11 -127 -9 -116 -1 63 -1 -77 -5 60 0 65 
-1 -14 -3 77 -1 -102 -2 -75 0 31 -7 31 -3 11 4 -35 
-6 -8 -9 -9 2 26 5971 3092 100 MP stroke
1 25 -8 -35 -2 -39 -2 -32 -8 -24 1 -41 1 -40 -2 7 
-5 -11 -5 -10 1 5 -4 -41 -4 -44 -4 -9 -6 -46 4 17 
-4 118 -8 -19 0 -21 1 43 -3 16 -8 169 -3 -47 0 7 
-5 30 -1 -52 -2 -3 -4 -54 -4 30 -3 -30 0 -37 -2 87 
-6 -137 -3 92 -3 -19 -7 9 0 28 -5 -50 -5 57 3 -164 
-5 46 -1 -31 -3 10 -9 38 0 -7 -4 27 -8 -28 1 -1 
-5 6 -6 12 -1 124 -1 71 -6 16 -7 -14 0 -27 -2 -24 
-6 -23 -3 -4 -5 -14 -5 -52 -5 -38 -15 76 -8 -7 4 2 
-2 -36 -5 -8 -2 -21 -6 -45 -3 -55 -2 218 -7 -103 -2 12 
1 88 -4 -36 -8 -54 -4 -15 1 23 -6 -63 -6 39 1 53 
-5 -104 -4 27 0 -8 -5 -19 0 24 1 -163 -2 -43 1 0 
-1 -16 0 -22 -1 1 2 21 2 -11 -1 -15 -1 111 3 48 
2 10 -1 79 4 -49 6245 3331 100 MP stroke
2 230 2 -80 3 -102 2 34 7 -83 4 5 -1 -27 5 -14 
5 58 6 -151 6 177 3 -66 5 46 4 -10 3 26 10 132 
7 10 6 2 3 -69 -1 -131 7 15 9 31 5 65 6 -16 
6 65 6 -12 6 -28 5 72 6 -14 5 56 5 -17 6 41 
5 43 5 -23 8 67 8 -7 4 53 4 -16 5 -142 5 -17 
4 -41 5 18 3 -44 1 -60 7 289 6 90 5 -35 5 13 
5 0 5 24 5 13 4 20 3 21 5 28 4 -5 3 -11 
3 11 4 1 4 20 4 12 5 27 3 4 4 -1 5 20 
2 1 8 24 2 1 1 -3 5 -10 0 -28 3 28 3 -15 
0 27 2 7 -4 -124 3 -20 2 11 2 8 7 3 -1 25 
8 126 9 36 -1 -4 3 4 4 27 -1 0 -5 -131 2 -34 
2 52 1 -41 5 -53 0 45 7 167 3 47 -1 -30 6 22 
0 -3 2 -2 1 19 5866 2532 100 MP stroke
-2 8 3 -1 0 -12 0 9 -3 0 4 -18 3 -1 -4 7 
1 8 -1 4 1 7 3 21 0 10 0 -13 -5 -7 -1 3 
4 -7 1 -1 0 10 4 2 0 6 -4 45 -2 19 -5 -6 
1 -1 3 5 -1 5 -2 -43 -2 -27 2 23 -2 1 -2 0 
1 -10 -4 -19 -2 -6 4 -12 -7 24 -12 20 -4 -25 -8 55 
-4 10 -2 -24 -6 52 -1 22 -7 10 -7 20 -6 -76 -14 -72 
-9 -3 -8 -57 -5 -36 -9 49 -7 108 -6 -56 -11 4 -4 101 
-9 -2 -9 -2 -7 -11 -17 46 -7 -25 -4 -104 -14 90 -11 34 
6088 2371 65 MP stroke
gr

c8
0 sg
%%IncludeResource: font Helvetica
/Helvetica /WindowsLatin1Encoding 120 FMSR

1308  293 mt 
(Experiment 1a - Analog magnetometers - RMSE of orientation \
- function of distance) s
2501 4939 mt 
(Distance to center of sensor network [m]) s
 558 2912 mt  -90 rotate
(RMSE [degree]) s
90 rotate

end %%Color Dict

eplot
%%EndObject

epage
end

showpage

%%Trailer
%%EOF
