%!PS-Adobe-2.0 EPSF-1.2
%%Creator: MATLAB, The MathWorks, Inc. Version 7.13.0.564 (R2011b). Operating System: Microsoft Windows 7.
%%Title: ..\figures\analog_par_pos_rmse.eps
%%CreationDate: 11/13/2012  17:43:23
%%DocumentNeededFonts: Helvetica
%%DocumentProcessColors: Cyan Magenta Yellow Black
%%Extensions: CMYK
%%Pages: 1
%%BoundingBox:    52   196   542   602
%%EndComments

%%BeginProlog
% MathWorks dictionary
/MathWorks 160 dict begin
% definition operators
/bdef {bind def} bind def
/ldef {load def} bind def
/xdef {exch def} bdef
/xstore {exch store} bdef
% operator abbreviations
/c  /clip ldef
/cc /concat ldef
/cp /closepath ldef
/gr /grestore ldef
/gs /gsave ldef
/mt /moveto ldef
/np /newpath ldef
/cm /currentmatrix ldef
/sm /setmatrix ldef
/rm /rmoveto ldef
/rl /rlineto ldef
/s {show newpath} bdef
/sc {setcmykcolor} bdef
/sr /setrgbcolor ldef
/sg /setgray ldef
/w /setlinewidth ldef
/j /setlinejoin ldef
/cap /setlinecap ldef
/rc {rectclip} bdef
/rf {rectfill} bdef
% page state control
/pgsv () def
/bpage {/pgsv save def} bdef
/epage {pgsv restore} bdef
/bplot /gsave ldef
/eplot {stroke grestore} bdef
% orientation switch
/portraitMode 0 def /landscapeMode 1 def /rotateMode 2 def
% coordinate system mappings
/dpi2point 0 def
% font control
/FontSize 0 def
/FMS {/FontSize xstore findfont [FontSize 0 0 FontSize neg 0 0]
  makefont setfont} bdef
/ISOLatin1Encoding where {pop /WindowsLatin1Encoding 256 array bdef
ISOLatin1Encoding WindowsLatin1Encoding copy pop
/.notdef/.notdef/quotesinglbase/florin/quotedblbase/ellipsis/dagger
/daggerdbl/circumflex/perthousand/Scaron/guilsinglleft/OE/.notdef/.notdef
/.notdef/.notdef/quoteleft/quoteright/quotedblleft/quotedblright/bullet
/endash/emdash/tilde/trademark/scaron/guilsinglright/oe/.notdef/.notdef
/Ydieresis WindowsLatin1Encoding 128 32 getinterval astore pop}
{/WindowsLatin1Encoding StandardEncoding bdef} ifelse
/reencode {exch dup where {pop load} {pop StandardEncoding} ifelse
  exch dup 3 1 roll findfont dup length dict begin
  { 1 index /FID ne {def}{pop pop} ifelse } forall
  /Encoding exch def currentdict end definefont pop} bdef
/isroman {findfont /CharStrings get /Agrave known} bdef
/FMSR {3 1 roll 1 index dup isroman {reencode} {pop pop} ifelse
  exch FMS} bdef
/csm {1 dpi2point div -1 dpi2point div scale neg translate
 dup landscapeMode eq {pop -90 rotate}
  {rotateMode eq {90 rotate} if} ifelse} bdef
% line types: solid, dotted, dashed, dotdash
/SO { [] 0 setdash } bdef
/DO { [.5 dpi2point mul 4 dpi2point mul] 0 setdash } bdef
/DA { [6 dpi2point mul] 0 setdash } bdef
/DD { [.5 dpi2point mul 4 dpi2point mul 6 dpi2point mul 4
  dpi2point mul] 0 setdash } bdef
% macros for lines and objects
/L {lineto stroke} bdef
/MP {3 1 roll moveto 1 sub {rlineto} repeat} bdef
/AP {{rlineto} repeat} bdef
/PDlw -1 def
/W {/PDlw currentlinewidth def setlinewidth} def
/PP {closepath eofill} bdef
/DP {closepath stroke} bdef
/MR {4 -2 roll moveto dup  0 exch rlineto exch 0 rlineto
  neg 0 exch rlineto closepath} bdef
/FR {MR stroke} bdef
/PR {MR fill} bdef
/L1i {{currentfile picstr readhexstring pop} image} bdef
/tMatrix matrix def
/MakeOval {newpath tMatrix currentmatrix pop translate scale
0 0 1 0 360 arc tMatrix setmatrix} bdef
/FO {MakeOval stroke} bdef
/PO {MakeOval fill} bdef
/PD {currentlinewidth 2 div 0 360 arc fill
   PDlw -1 eq not {PDlw w /PDlw -1 def} if} def
/FA {newpath tMatrix currentmatrix pop translate scale
  0 0 1 5 -2 roll arc tMatrix setmatrix stroke} bdef
/PA {newpath tMatrix currentmatrix pop	translate 0 0 moveto scale
  0 0 1 5 -2 roll arc closepath tMatrix setmatrix fill} bdef
/FAn {newpath tMatrix currentmatrix pop translate scale
  0 0 1 5 -2 roll arcn tMatrix setmatrix stroke} bdef
/PAn {newpath tMatrix currentmatrix pop translate 0 0 moveto scale
  0 0 1 5 -2 roll arcn closepath tMatrix setmatrix fill} bdef
/vradius 0 def /hradius 0 def /lry 0 def
/lrx 0 def /uly 0 def /ulx 0 def /rad 0 def
/MRR {/vradius xdef /hradius xdef /lry xdef /lrx xdef /uly xdef
  /ulx xdef newpath tMatrix currentmatrix pop ulx hradius add uly
  vradius add translate hradius vradius scale 0 0 1 180 270 arc 
  tMatrix setmatrix lrx hradius sub uly vradius add translate
  hradius vradius scale 0 0 1 270 360 arc tMatrix setmatrix
  lrx hradius sub lry vradius sub translate hradius vradius scale
  0 0 1 0 90 arc tMatrix setmatrix ulx hradius add lry vradius sub
  translate hradius vradius scale 0 0 1 90 180 arc tMatrix setmatrix
  closepath} bdef
/FRR {MRR stroke } bdef
/PRR {MRR fill } bdef
/MlrRR {/lry xdef /lrx xdef /uly xdef /ulx xdef /rad lry uly sub 2 div def
  newpath tMatrix currentmatrix pop ulx rad add uly rad add translate
  rad rad scale 0 0 1 90 270 arc tMatrix setmatrix lrx rad sub lry rad
  sub translate rad rad scale 0 0 1 270 90 arc tMatrix setmatrix
  closepath} bdef
/FlrRR {MlrRR stroke } bdef
/PlrRR {MlrRR fill } bdef
/MtbRR {/lry xdef /lrx xdef /uly xdef /ulx xdef /rad lrx ulx sub 2 div def
  newpath tMatrix currentmatrix pop ulx rad add uly rad add translate
  rad rad scale 0 0 1 180 360 arc tMatrix setmatrix lrx rad sub lry rad
  sub translate rad rad scale 0 0 1 0 180 arc tMatrix setmatrix
  closepath} bdef
/FtbRR {MtbRR stroke } bdef
/PtbRR {MtbRR fill } bdef
/stri 6 array def /dtri 6 array def
/smat 6 array def /dmat 6 array def
/tmat1 6 array def /tmat2 6 array def /dif 3 array def
/asub {/ind2 exch def /ind1 exch def dup dup
  ind1 get exch ind2 get sub exch } bdef
/tri_to_matrix {
  2 0 asub 3 1 asub 4 0 asub 5 1 asub
  dup 0 get exch 1 get 7 -1 roll astore } bdef
/compute_transform {
  dmat dtri tri_to_matrix tmat1 invertmatrix 
  smat stri tri_to_matrix tmat2 concatmatrix } bdef
/ds {stri astore pop} bdef
/dt {dtri astore pop} bdef
/db {2 copy /cols xdef /rows xdef mul dup 3 mul string
  currentfile exch readhexstring pop
  dup 0 3 index getinterval /rbmap xdef
  dup 2 index dup getinterval /gbmap xdef
  1 index dup 2 mul exch getinterval /bbmap xdef pop pop}bdef
/it {gs np dtri aload pop moveto lineto lineto cp c
  cols rows 8 compute_transform 
  rbmap gbmap bbmap true 3 colorimage gr}bdef
/il {newpath moveto lineto stroke}bdef
currentdict end def
%%EndProlog

%%BeginSetup
MathWorks begin

0 cap

end
%%EndSetup

%%Page: 1 1
%%BeginPageSetup
%%PageBoundingBox:    52   196   542   602
MathWorks begin
bpage
%%EndPageSetup

%%BeginObject: obj1
bplot

/dpi2point 12 def
portraitMode 0204 7344 csm

  422   109  5883  4882 MR c np
85 dict begin %Colortable dictionary
/c0 { 0.000000 0.000000 0.000000 sr} bdef
/c1 { 1.000000 1.000000 1.000000 sr} bdef
/c2 { 0.900000 0.000000 0.000000 sr} bdef
/c3 { 0.000000 0.820000 0.000000 sr} bdef
/c4 { 0.000000 0.000000 0.800000 sr} bdef
/c5 { 0.910000 0.820000 0.320000 sr} bdef
/c6 { 1.000000 0.260000 0.820000 sr} bdef
/c7 { 0.000000 0.820000 0.820000 sr} bdef
c0
1 j
1 sg
   0    0 6913 5185 PR
6 w
0 4225 5356 0 0 -4225 899 4614 4 MP
PP
-5356 0 0 4225 5356 0 0 -4225 899 4614 5 MP stroke
4 w
DO
SO
6 w
0 sg
 899  389 mt 6255  389 L
 899 4614 mt 6255 4614 L
6255 4614 mt 6255  389 L
 899 4614 mt  899  389 L
 899 4614 mt 6255 4614 L
 899 4614 mt  899  389 L
 899 4614 mt  899 4614 L
 899 4614 mt  899 4614 L
 899 4614 mt  899 4614 L
 899 4614 mt  899 4614 L
 899 4614 mt  899 4614 L
 899 4614 mt  899 4614 L
 899 4614 mt  899 4614 L
 899 4614 mt  899 4614 L
 899 4614 mt  899 4614 L
 899 4614 mt  899 4614 L
 899 4614 mt  899 4614 L
 899 4614 mt  899 4614 L
 899 4614 mt  899 4614 L
 899 4614 mt  899 4614 L
 899 4614 mt  899 4614 L
 899 4614 mt  899 4614 L
 899 4614 mt  899 4614 L
 899 4614 mt  899 4614 L
1583 4614 mt 1583 4560 L
1583  389 mt 1583  442 L
%%IncludeResource: font Helvetica
/Helvetica /WindowsLatin1Encoding 120 FMSR

1438 4796 mt 
(10) s
%%IncludeResource: font Helvetica
/Helvetica /WindowsLatin1Encoding 80 FMSR

1571 4722 mt 
(-0.8) s
 899 4614 mt  899 4614 L
 899 4614 mt  899 4614 L
 899 4614 mt  899 4614 L
 899 4614 mt  899 4614 L
 899 4614 mt  899 4614 L
 899 4614 mt  899 4614 L
 899 4614 mt  899 4614 L
 899 4614 mt  899 4614 L
 899 4614 mt  899 4614 L
 899 4614 mt  899 4614 L
 899 4614 mt  899 4614 L
 899 4614 mt  899 4614 L
 899 4614 mt  899 4614 L
 899 4614 mt  899 4614 L
 899 4614 mt  899 4614 L
 899 4614 mt  899 4614 L
 899 4614 mt  899 4614 L
 899 4614 mt  899 4614 L
2956 4614 mt 2956 4560 L
2956  389 mt 2956  442 L
%%IncludeResource: font Helvetica
/Helvetica /WindowsLatin1Encoding 120 FMSR

2811 4796 mt 
(10) s
%%IncludeResource: font Helvetica
/Helvetica /WindowsLatin1Encoding 80 FMSR

2944 4722 mt 
(-0.7) s
 899 4614 mt  899 4614 L
 899 4614 mt  899 4614 L
 899 4614 mt  899 4614 L
 899 4614 mt  899 4614 L
 899 4614 mt  899 4614 L
 899 4614 mt  899 4614 L
 899 4614 mt  899 4614 L
 899 4614 mt  899 4614 L
 899 4614 mt  899 4614 L
 899 4614 mt  899 4614 L
 899 4614 mt  899 4614 L
 899 4614 mt  899 4614 L
 899 4614 mt  899 4614 L
 899 4614 mt  899 4614 L
 899 4614 mt  899 4614 L
 899 4614 mt  899 4614 L
 899 4614 mt  899 4614 L
 899 4614 mt  899 4614 L
4330 4614 mt 4330 4560 L
4330  389 mt 4330  442 L
%%IncludeResource: font Helvetica
/Helvetica /WindowsLatin1Encoding 120 FMSR

4185 4796 mt 
(10) s
%%IncludeResource: font Helvetica
/Helvetica /WindowsLatin1Encoding 80 FMSR

4318 4722 mt 
(-0.6) s
 899 4614 mt  899 4614 L
 899 4614 mt  899 4614 L
 899 4614 mt  899 4614 L
 899 4614 mt  899 4614 L
 899 4614 mt  899 4614 L
 899 4614 mt  899 4614 L
 899 4614 mt  899 4614 L
 899 4614 mt  899 4614 L
 899 4614 mt  899 4614 L
 899 4614 mt  899 4614 L
 899 4614 mt  899 4614 L
 899 4614 mt  899 4614 L
 899 4614 mt  899 4614 L
 899 4614 mt  899 4614 L
 899 4614 mt  899 4614 L
 899 4614 mt  899 4614 L
 899 4614 mt  899 4614 L
 899 4614 mt  899 4614 L
5703 4614 mt 5703 4560 L
5703  389 mt 5703  442 L
%%IncludeResource: font Helvetica
/Helvetica /WindowsLatin1Encoding 120 FMSR

5558 4796 mt 
(10) s
%%IncludeResource: font Helvetica
/Helvetica /WindowsLatin1Encoding 80 FMSR

5691 4722 mt 
(-0.5) s
 899 4614 mt  899 4614 L
 899 4614 mt  899 4614 L
 899 4614 mt  899 4614 L
 899 4614 mt  899 4614 L
 899 4614 mt  899 4614 L
 899 4614 mt  899 4614 L
 899 4614 mt  899 4614 L
 899 4614 mt  899 4614 L
 899 4614 mt  899 4614 L
 899 4614 mt  899 4614 L
 899 4614 mt  899 4614 L
 899 4614 mt  899 4614 L
 899 4614 mt  899 4614 L
 899 4614 mt  899 4614 L
 899 4614 mt  899 4614 L
 899 4614 mt  899 4614 L
 899 4614 mt  899 4614 L
 899 4614 mt  899 4614 L
 899 4614 mt  925 4614 L
6255 4614 mt 6228 4614 L
 899 4614 mt  952 4614 L
6255 4614 mt 6201 4614 L
%%IncludeResource: font Helvetica
/Helvetica /WindowsLatin1Encoding 120 FMSR

 640 4658 mt 
(10) s
%%IncludeResource: font Helvetica
/Helvetica /WindowsLatin1Encoding 80 FMSR

 773 4584 mt 
(-1) s
 899 4190 mt  925 4190 L
6255 4190 mt 6228 4190 L
 899 3942 mt  925 3942 L
6255 3942 mt 6228 3942 L
 899 3766 mt  925 3766 L
6255 3766 mt 6228 3766 L
 899 3629 mt  925 3629 L
6255 3629 mt 6228 3629 L
 899 3518 mt  925 3518 L
6255 3518 mt 6228 3518 L
 899 3423 mt  925 3423 L
6255 3423 mt 6228 3423 L
 899 3342 mt  925 3342 L
6255 3342 mt 6228 3342 L
 899 3270 mt  925 3270 L
6255 3270 mt 6228 3270 L
 899 3205 mt  925 3205 L
6255 3205 mt 6228 3205 L
 899 3205 mt  952 3205 L
6255 3205 mt 6201 3205 L
%%IncludeResource: font Helvetica
/Helvetica /WindowsLatin1Encoding 120 FMSR

 640 3249 mt 
(10) s
%%IncludeResource: font Helvetica
/Helvetica /WindowsLatin1Encoding 80 FMSR

 773 3175 mt 
(0) s
 899 2781 mt  925 2781 L
6255 2781 mt 6228 2781 L
 899 2533 mt  925 2533 L
6255 2533 mt 6228 2533 L
 899 2357 mt  925 2357 L
6255 2357 mt 6228 2357 L
 899 2221 mt  925 2221 L
6255 2221 mt 6228 2221 L
 899 2109 mt  925 2109 L
6255 2109 mt 6228 2109 L
 899 2015 mt  925 2015 L
6255 2015 mt 6228 2015 L
 899 1933 mt  925 1933 L
6255 1933 mt 6228 1933 L
 899 1861 mt  925 1861 L
6255 1861 mt 6228 1861 L
 899 1797 mt  925 1797 L
6255 1797 mt 6228 1797 L
 899 1797 mt  952 1797 L
6255 1797 mt 6201 1797 L
%%IncludeResource: font Helvetica
/Helvetica /WindowsLatin1Encoding 120 FMSR

 640 1841 mt 
(10) s
%%IncludeResource: font Helvetica
/Helvetica /WindowsLatin1Encoding 80 FMSR

 773 1767 mt 
(1) s
 899 1373 mt  925 1373 L
6255 1373 mt 6228 1373 L
 899 1125 mt  925 1125 L
6255 1125 mt 6228 1125 L
 899  949 mt  925  949 L
6255  949 mt 6228  949 L
 899  812 mt  925  812 L
6255  812 mt 6228  812 L
 899  701 mt  925  701 L
6255  701 mt 6228  701 L
 899  607 mt  925  607 L
6255  607 mt 6228  607 L
 899  525 mt  925  525 L
6255  525 mt 6228  525 L
 899  453 mt  925  453 L
6255  453 mt 6228  453 L
 899  389 mt  925  389 L
6255  389 mt 6228  389 L
 899  389 mt  952  389 L
6255  389 mt 6201  389 L
%%IncludeResource: font Helvetica
/Helvetica /WindowsLatin1Encoding 120 FMSR

 640  433 mt 
(10) s
%%IncludeResource: font Helvetica
/Helvetica /WindowsLatin1Encoding 80 FMSR

 773  359 mt 
(2) s
 899  389 mt 6255  389 L
 899 4614 mt 6255 4614 L
6255 4614 mt 6255  389 L
 899 4614 mt  899  389 L
gs 899 388 5357 4227 MR c np
/c8 { 0.000000 0.000000 1.000000 sr} bdef
c8
22 -59 23 -46 22 -19 22 2 24 -7 22 15 21 27 23 -21 
23 -51 22 -34 22 -13 23 3 21 32 22 18 22 5 22 15 
22 4 21 1 22 -19 21 -5 21 11 22 0 21 28 21 -1 
21 -6 20 -3 22 -70 20 -63 20 -35 20 -23 21 17 21 -24 
20 -51 21 -23 20 1 21 0 21 -15 20 -35 21 -22 20 -13 
20 -55 20 -33 21 -24 21 0 19 -12 20 -28 21 -29 21 -53 
18 -3 19 -51 22 -39 18 -2 22 -30 20 -5 20 -37 20 12 
19 30 20 -70 19 -21 21 -40 21 -52 18 -5 20 7 17 47 
17 -23 20 -26 19 53 18 -11 17 -59 19 85 19 23 18 -74 
19 -32 18 -34 18 1 16 43 20 -61 20 11 14 87 16 55 
20 -5 17 -79 18 -59 18 18 15 138 17 32 20 -25 17 -51 
18 -168 18 -10 15 45 16 103 19 42 19 -1 16 26 17 -106 
15 -263 16 133 18 -89 4305 2865 100 MP stroke
17 308 18 28 15 -35 17 -99 16 19 15 44 18 27 14 -42 
16 -36 17 49 13 35 16 10 15 -48 16 -12 14 60 16 91 
16 43 13 45 15 -87 14 -202 15 -164 14 19 14 146 15 72 
12 -36 16 -67 13 -66 14 18 14 2 12 -28 15 -46 12 40 
12 228 14 -11 13 -1 14 1 12 -39 16 -22 12 -62 14 197 
14 46 10 -69 17 141 8 -34 17 -20 26 -14 1 -83 6 2 
18 12 8 10 15 -68 10 -18 9 37 25 16 10 11 -1 20 
15 69 10 -16 10 -27 13 26 9 3 13 38 9 36 11 38 
12 36 9 13 13 -6 8 -15 11 26 11 16 9 27 11 -7 
8 -33 13 17 9 1 12 12 12 24 6 24 22 25 14 -38 
-2 -8 11 24 12 22 7 13 11 -8 9 16 10 0 11 -9 
10 -21 11 -28 10 3 9 -3 10 15 10 -5 10 -5 9 9 
10 -28 9 0 11 4 3080 2217 100 MP stroke
10 13 10 -4 12 -30 7 0 17 -37 19 -20 -2 -16 8 -36 
14 -30 8 -38 14 0 9 5 10 -10 12 -4 8 -4 12 -1 
10 -1 12 -7 12 -58 10 -57 12 26 11 -29 10 13 11 -26 
10 31 10 52 23 -137 11 7 -2 83 15 -26 9 2 9 27 
13 15 7 -8 13 -9 7 33 11 5 13 2 9 4 12 18 
9 14 12 0 10 8 10 -1 12 27 8 1 14 -8 12 2 
11 11 12 -2 10 3 13 10 10 18 13 10 11 7 10 14 
12 -16 8 0 13 0 11 -13 12 3 11 10 9 6 11 11 
9 -2 12 3 13 -13 10 1 11 20 8 12 13 14 11 -8 
13 0 9 12 10 -13 13 -17 9 -1 13 26 11 2 12 -9 
13 12 8 2 13 -16 10 -17 11 20 11 -6 9 -5 12 35 
9 -13 13 -14 10 10 9 24 10 20 11 -10 9 18 13 -20 
20 -29 1 31 4 21 2017 2264 100 MP stroke
16 -13 6 9 13 3 9 8 9 2 13 -5 7 -4 13 -2 
9 4 11 2 10 0 8 -6 13 12 7 12 12 -5 10 -1 
10 5 11 8 8 -5 11 -13 6 -3 8 12 9 8 8 0 
11 -3 5 -6 10 11 7 13 7 1 10 -14 4 -8 8 23 
6 5 7 -2 6 3 5 -5 7 -4 4 -4 6 15 6 -3 
5 3 3 16 13 -14 13 3 -12 8 7 4 20 -4 3 2 
6 0 3 -12 5 10 3 -5 6 -3 10 12 -10 -7 -5 9 
6 -9 5 3 5 -4 1 -18 4 4 -1 -6 6 9 13 -12 
0 -22 2 -3 -2 18 1 -10 3 -4 -1 -10 -2 -18 -11 0 
-11 -13 0 11 -3 -10 -4 -2 -4 25 -6 -22 -3 -4 -5 -10 
-5 -9 -4 2 -5 8 -5 16 -4 -16 -6 11 -5 -10 5 -29 
-1 26 -10 2 -4 8 -8 -6 0 -15 -5 -5 -9 -19 -1 13 
-15 -15 -14 -15 -6 9 1710 2343 100 MP stroke
-6 11 -5 -12 -6 -4 -4 1 -7 -6 -8 21 -6 -5 -7 -17 
-6 -4 -8 -11 -6 1 -7 -7 -7 2 -6 6 -8 11 -6 12 
-8 -11 -8 8 -6 11 -7 6 -7 -6 -7 -17 -6 -5 -7 -6 
-7 -5 -8 1 -5 -10 -5 5 -8 5 -6 -2 -10 -16 -9 18 
-7 -10 -6 -36 -3 19 -4 -4 -7 -16 -11 7 -9 -5 -3 9 
-9 3 -9 4 -6 -6 -6 -17 -2 -11 -5 -2 -5 -13 -10 3 
-6 6 -2 1 -8 23 -3 -3 -10 1 -6 9 0 -28 -8 43 
-4 -7 -3 -77 -7 41 -5 -23 -6 -4 -4 10 -7 33 -3 -6 
-2 -66 -7 -12 -6 -17 -8 99 -7 54 -5 -66 -6 22 -5 7 
-5 10 -3 -52 -4 -67 -5 35 -3 -34 -5 -16 -6 13 -4 44 
-7 72 -4 -7 -5 42 -4 -24 -3 -120 -5 -23 -4 11 -5 6 
-5 -17 -4 31 -4 123 -5 27 -5 -50 -4 44 -4 -17 -4 -1 
-3 -1 -4 11 -2 37 2273 2326 100 MP stroke
-4 -10 -4 18 -4 -14 -3 -10 -4 17 -4 -25 -2 45 -4 -32 
-3 5 -4 27 -6 -170 -1 66 -5 86 -5 -70 0 93 -3 8 
-3 -17 -3 18 -3 -27 -4 -8 -6 -43 0 55 -1 34 -5 -47 
-3 21 -3 -5 -3 8 -3 12 -4 -7 -3 11 -3 -19 -3 4 
-2 -3 -3 2 -2 17 -2 -12 -3 23 -3 -26 -4 -40 0 52 
-4 -55 -4 -52 3 106 -2 -6 -3 -25 0 48 -4 -45 -1 2 
-2 10 -4 -34 1 42 -3 -2 -3 -3 -4 -7 -4 -19 0 31 
-5 -28 0 23 -1 32 -7 -46 -2 16 0 24 -3 3 -5 -24 
-2 4 0 35 -7 -40 -4 9 0 15 -4 -25 -2 13 -5 -29 
-5 -9 -1 18 -6 -14 -10 -8 -3 4 3 29 -4 1 -3 0 
-3 16 -7 -4 -1 12 -2 -10 -4 -3 -3 8 -8 -20 0 9 
-7 0 -9 2 6 21 -5 -2 -7 -7 1 6 -3 -4 -5 -10 
-7 -6 3 12 -5 -7 2574 2282 100 MP stroke
-14 -12 -1 9 -1 10 2 1 -3 -1 -11 -5 0 -5 0 5 
1 3 -3 5 -5 7 0 3 -6 1 -2 2 -3 -5 -8 -6 
2 7 -9 8 -2 1 1 3 -14 -4 2 5 -6 4 -19 3 
-1 -3 2 -4 -2 -2 2 0 -2 1 -10 5 -1 -8 3 -14 
-6 0 -2 1 -1 11 -6 22 0 9 -2 2 -3 -1 -4 -3 
-3 -5 -4 8 -4 1 -2 -12 -5 -3 -3 -9 -4 1 -4 -8 
-3 -12 -6 3 0 -12 -9 10 -5 -7 0 -16 -8 24 0 -2 
-6 13 -5 -1 -1 -3 -9 31 1 11 -15 20 -13 84 7 -95 
-4 30 2 -57 1 37 -5 -33 -7 49 -10 -6 5 10 -2 -56 
-11 62 -2 -26 1 27 -1 -59 -4 40 -3 -48 -10 67 -3 -17 
3 28 -3 -38 -4 57 -10 -29 -1 30 4 -77 -9 53 -5 -25 
1 43 0 -49 -8 63 -4 -46 5 23 -6 -15 -3 41 0 -69 
-5 36 0 -65 -3 35 2908 2190 100 MP stroke
-2 -28 -1 74 -4 -19 -1 37 1 -53 -2 50 -1 -51 0 2 
-1 -40 -3 80 0 -27 -1 80 -1 -54 0 44 -1 -70 0 18 
-1 -33 0 69 0 -45 -1 50 1 -74 0 27 0 -49 1 83 
1 -35 0 59 2 -37 0 2 -1 -70 3 85 0 -58 1 38 
2 -47 0 61 2 -38 1 63 2 -65 2 25 0 -37 3 57 
1 -47 2 68 3 -44 2 73 2 -79 3 -39 4 66 2 -57 
2 73 3 -46 1 -18 4 115 3 -28 3 -33 1 116 2 -33 
3 -63 0 -70 5 -36 0 94 -4 -95 2 -72 2 57 2 -65 
2 98 2 -72 3 57 3 -65 1 -34 9 172 12 -21 1 -66 
3 108 4 -9 2 -48 5 -18 1 124 2 2 4 -13 2 -36 
4 -15 2 -43 3 47 3 -2 3 -4 1 -22 1 -27 3 -33 
1 -53 2 -35 1 110 0 11 1 3 1 10 2 -17 -1 6 
0 26 -1 35 1 -27 2776 2130 100 MP stroke
-2 -41 0 -19 -1 -15 -1 9 -1 22 -3 8 0 -27 -3 -9 
-15 -69 -10 -30 8 28 5 48 -8 -38 -17 -84 -4 7 -1 44 
-11 -25 5 -1 5 70 -7 -2 -4 -29 -6 -56 -5 -60 -5 88 
-5 17 -5 -8 -6 -26 -5 -24 -6 1 -5 21 -5 30 -5 14 
-6 -29 -7 -23 -4 19 -6 -5 -5 -56 -6 -40 -7 -25 -5 -24 
-8 83 -4 27 -7 11 -6 2 -5 -18 -7 -49 -5 -18 -9 -20 
-5 -10 -8 -6 -19 -110 -13 -47 5 96 3 79 -9 -14 -7 -11 
-6 6 -7 11 -5 0 -8 11 -5 13 -7 -16 -7 -17 -6 -6 
-8 -3 -6 -15 -7 -16 -7 -2 -8 3 -8 11 -7 0 -8 -5 
-7 -4 -8 14 -9 -10 -7 -23 -9 4 -6 -10 -9 -1 -8 -8 
-8 -6 -9 17 -6 -4 -9 11 -8 4 -9 -8 -9 2 -8 5 
-9 20 -8 -8 -10 -9 -10 3 -10 -6 -10 -5 -9 -16 -11 4 
-10 1 -11 3 -11 13 3397 2516 100 MP stroke
-9 -13 -11 -12 -10 -8 -11 -12 -11 -5 -10 4 -11 0 -9 -3 
-12 -5 -11 -17 -10 0 -11 -14 -10 -16 -11 12 -11 -21 -12 1 
-10 8 -10 -26 -11 -18 -10 -15 -11 2 -10 2 -10 4 -10 -14 
-9 -19 -10 -4 -9 -15 -10 18 -9 18 -9 -1 -8 45 -9 46 
-8 19 -8 -4 -8 12 -7 9 -9 -12 -3 9 -14 -39 -17 7 
-5 -5 -6 10 5 -8 4 23 -11 -4 -3 -10 -6 -8 -6 -4 
-3 8 -7 27 -3 1 -6 -22 -3 -27 -4 -19 -6 2 -1 -20 
-6 3 -2 29 -4 11 -3 -5 -1 -1 -4 24 -1 -17 -3 -14 
-1 -21 -2 -12 -3 15 0 2 -2 38 1 7 -2 -17 -1 6 
0 -9 -2 45 1 2 -1 -74 1 -4 1 -7 -1 -19 1 -6 
-1 -3 2 6 1 -17 -1 -10 2 6 1 -8 3 -15 4 52 
3 18 0 -25 5 15 1 -30 5 20 6 39 -1 -65 4 -15 
3 -12 4 -23 4 17 3846 2723 100 MP stroke
4 0 5 -2 4 -6 6 -13 5 -9 6 1 5 -5 6 -27 
6 -2 5 8 7 24 6 28 6 5 7 -2 7 -15 8 22 
8 38 7 -17 7 -35 16 17 5 -2 -1 -6 15 25 1 -8 
0 6 31 30 11 61 -13 -96 14 -93 18 -12 -2 8 16 18 
16 24 0 -63 9 -13 9 -41 7 -9 10 51 10 11 10 13 
10 27 9 44 11 15 21 -42 6 60 -1 75 19 3 9 10 
10 -24 12 3 5 1 19 29 13 44 11 -3 9 -2 1 -48 
9 -20 8 34 12 16 7 30 8 -19 21 -32 3 26 3 23 
10 19 10 14 18 -23 1 8 4 10 16 -30 3 10 14 6 
16 14 1 31 4 20 18 -8 13 13 -3 26 11 10 20 9 
1 18 5 12 10 2 9 12 10 21 8 4 18 -11 9 -2 
-3 -16 15 -15 17 51 9 21 12 9 6 18 15 -10 17 22 
-2 -21 11 -55 5 -16 2986 2386 100 MP stroke
-2 12 19 9 3 -1 14 -1 21 18 -4 6 22 2 22 -7 
-7 -10 2 -1 27 15 13 11 -16 -31 23 49 18 53 0 -18 
20 20 0 -13 14 9 10 11 3 -5 19 23 -1 -16 17 19 
7 -8 5 -15 18 12 -2 -22 19 20 4 -7 7 5 16 17 
-2 -21 20 10 0 -37 11 -3 11 5 0 -17 19 29 -2 -26 
14 17 5 -27 10 7 33 78 -13 -83 4 -20 3 -22 -3 -42 
17 42 0 5 20 52 -4 -40 1 -28 23 60 -6 -38 12 18 
-1 -45 2 -34 15 8 -5 -76 15 70 3 1 3 -45 14 81 
5 -6 19 37 9 24 -4 -88 3 -15 14 28 1 -30 1 -20 
14 19 0 -31 14 8 12 32 -2 -32 15 28 3 -16 6 -39 
13 21 -1 -58 6 -16 10 14 3 -25 14 49 11 26 0 -20 
14 27 5 -13 -1 -22 13 -3 4 -22 9 -10 9 -8 5 8 
11 16 4 9 10 8 2207 2471 100 MP stroke
7 1 7 4 10 -2 4 -20 12 -12 4 -13 9 -12 9 4 
2 -12 18 21 4 -3 3 -23 14 33 1 -14 4 -15 9 13 
7 -17 7 25 8 4 7 -22 8 -7 6 -23 11 21 14 15 
-2 -35 6 -3 11 4 3 -1 13 4 3 1 9 2 17 14 
0 -11 5 -10 9 6 8 -10 8 8 8 1 9 -7 7 12 
9 -13 7 12 8 8 8 -10 7 3 10 -13 6 5 7 -23 
9 8 9 13 2 -82 8 26 16 64 5 -24 9 5 10 -2 
6 -16 12 -4 6 1 12 21 8 13 7 10 11 -3 5 2 
13 3 6 -14 10 -3 11 -4 3 12 20 -5 8 -7 0 8 
11 -7 9 -4 10 2 5 -29 6 3 9 12 10 2 11 1 
10 0 10 0 8 19 11 -12 10 -15 11 0 12 -14 9 -2 
12 -7 9 11 11 -1 11 -6 9 18 10 6 8 0 10 -7 
9 -7 9 -8 10 0 1380 2604 100 MP stroke
8 8 10 0 6 6 9 0 8 20 7 16 12 -13 8 2 
8 15 6 18 8 -7 10 -23 8 -18 9 -24 6 4 8 -4 
7 -3 6 19 10 -3 7 12 8 17 5 3 5 -3 9 -10 
6 -7 9 -5 5 -18 7 -8 9 61 4 -35 5 -12 4 33 
6 -14 5 -9 5 -6 8 -11 4 3 6 0 4 0 6 -5 
6 8 5 -3 8 -10 2 4 7 1 4 20 2 3 8 43 
3 46 6 -41 3 -7 2 10 5 24 0 -11 4 -29 6 13 
3 3 4 6 4 -2 4 -6 3 23 5 -12 2 -24 3 -9 
4 -9 1 -13 5 7 3 50 3 18 2 20 2 -15 3 -11 
2 16 3 5 3 -23 4 -33 4 -4 2 6 3 -3 2 3 
2 -13 1 1 3 2 4 -5 2 19 2 0 2 6 3 -15 
2 -23 1 1 3 -11 0 4 1 2 1 6 0 -6 1 -12 
-2 1 2 12 -1 26 927 2546 100 MP stroke
-1 14 -1 -3 2 -22 -1 -8 1 4 1 -19 0 -69 1 43 
-1 67 3 -34 1 25 2 -13 2 -8 1 26 4 -24 2 21 
2 -19 2 -8 0 9 1 -6 2 32 2 -30 0 21 0 -42 
0 30 -1 -10 3 -8 1 3 0 23 -4 4 -2 -2 1 -2 
0 1 -1 6 -1 21 0 4 -2 -3 -1 -5 -1 9 -1 -2 
-1 -5 -1 7 1 12 1 40 -6 -33 -6 -17 -2 -4 -4 4 
-3 2 -6 -4 -5 15 -4 0 -5 1 -5 -5 -7 -17 -5 6 
-5 -5 -6 8 -6 1 -6 6 0 26 -3 10 -8 18 -7 -6 
-13 -18 -7 -3 -5 -3 -8 5 -6 -5 -9 -6 -7 -6 -7 -5 
-10 5 -7 4 -10 5 -9 -15 -9 -7 -8 -7 -9 -8 -10 15 
-8 10 -10 13 -8 -1 -8 -1 -9 13 -6 -1 -9 5 -8 5 
-8 3 -8 1 -6 -1 -8 7 -8 15 -7 0 -5 -7 -7 -1 
-8 -7 -5 13 -8 1 1288 2442 100 MP stroke
-5 3 -7 7 -12 -37 -1 23 -2 37 -8 -25 -6 8 -6 -1 
-6 2 -5 10 -6 1 -6 15 -5 5 -6 8 -6 5 -5 15 
-11 -28 -8 -28 2 59 -7 -11 -12 -42 -2 44 0 31 -11 -23 
-8 -26 0 49 -3 11 -10 -57 -3 24 0 29 -5 -8 -3 13 
-3 10 -3 5 -1 0 -2 -7 -3 -3 -2 -6 -2 9 -2 7 
-3 -6 -2 -6 -3 -3 -3 15 -4 15 -2 -5 -3 6 -3 -22 
5 6 -2 35 -8 -39 0 11 -7 3 -13 -37 1 25 4 42 
-1 7 -7 -39 0 17 -3 29 -7 -35 1 32 -4 2 -4 -14 
-6 8 -13 -50 -3 -3 0 14 -3 -2 -3 4 -4 -7 -3 6 
-3 -5 -3 4 -6 -16 -2 5 1 30 -7 -29 -6 2 1 14 
6 25 -1 19 -7 -21 -1 9 -6 -12 -5 4 -3 2 -6 -18 
-1 27 -11 -27 -14 -20 2 14 -3 -2 -8 -16 -3 -9 4 21 
6 20 -5 1 -4 -6 1667 2289 100 MP stroke
5 9 -14 -20 -3 -9 8 43 -14 -36 -7 -7 2 18 -4 -11 
0 11 -4 -14 -3 1 1 9 -3 -7 0 5 -3 -18 -3 3 
0 4 -3 6 -2 -1 -1 -5 1 23 -1 12 -1 8 -2 -32 
1 11 -1 0 -1 3 0 -23 0 13 -1 -14 0 16 0 -22 
0 12 -2 9 2 14 -4 -9 -3 2 0 20 -2 -2 -1 0 
-1 -6 -2 1 1 -1 -2 -14 -3 -19 0 7 -1 23 -2 -10 
-2 -5 -3 -4 0 -5 -2 -1 -4 -2 -2 10 -3 -2 -4 1 
-3 -7 -3 -8 -4 11 -2 -18 -2 -11 -4 -8 -2 -12 -4 3 
-5 -4 -3 6 -4 3 -2 4 -3 1 -4 0 -3 9 -5 -8 
-2 1 -4 -3 -4 -10 -5 -15 -5 -20 -2 6 -4 2 -4 16 
-4 17 -4 1 -2 6 -3 -7 -4 -1 -2 -6 -2 0 -3 8 
-3 -7 -2 0 -3 -11 -2 3 -2 4 -1 -9 0 5 -1 -7 
0 13 -1 13 1 3 1881 2331 100 MP stroke
0 9 0 -10 1 -4 0 -6 1 1 1 -7 2 -20 1 -6 
1 -13 1 -1 0 5 1 5 2 6 -1 -2 3 18 1 4 
1 -8 3 0 2 -2 4 5 1 -1 4 14 7 13 0 -14 
2 -15 5 -12 1 -6 6 -4 6 10 -1 2 5 11 3 3 
-1 -26 4 -3 3 -3 5 2 1 -3 0 -6 4 22 1 5 
3 6 3 -5 2 -16 4 1 2 -5 4 5 1 -2 3 8 
4 17 2 3 4 5 4 -12 4 -5 3 1 2 -10 5 -4 
1 -15 4 -3 3 4 1 0 3 -1 2 -5 3 9 2 -1 
2 5 3 2 2 -11 2 -2 0 -5 2 0 1 -2 1 13 
1 15 0 -6 3 -10 2 -20 1 -1 1 10 1 -2 2 1 
0 -4 2 7 2 11 1 5 3 -1 1 -5 2 8 1 3 
2 3 1 2 0 3 3 12 1 8 3 12 1 11 2 3 
3 -3 0 -11 3 -12 1677 2354 100 MP stroke
2 -2 -1 6 1 0 1 5 2 11 1 -2 1 -5 1 -8 
-1 -6 -1 -6 0 -8 -1 2 -2 4 -1 19 -1 5 -2 -14 
0 8 -2 11 -2 6 0 -7 -2 -5 -1 6 -1 5 0 15 
-1 11 -1 6 0 2 1 -3 -1 -2 -1 -2 -1 -5 -1 -21 
-2 -26 -2 -16 -2 -6 -3 25 -3 17 -4 1 -4 -27 -5 -44 
-5 -17 -6 -18 -6 -1 -5 10 -4 27 -7 52 -8 -54 -5 48 
-8 -62 -8 52 -5 -68 -8 58 -6 -21 -6 130 -7 -26 -8 -60 
-7 -38 -6 102 -9 -20 -7 -44 -7 -90 -9 21 -6 -75 -8 104 
-7 -5 -5 146 -8 25 -7 -29 -6 -72 -5 -96 -5 53 -7 -44 
-5 60 -4 -30 -8 155 -6 6 -6 -35 -7 -108 -4 -110 -6 88 
-6 -1 -4 117 -6 -53 -6 -35 -4 145 -5 39 -5 -7 -5 -84 
-4 -94 -4 -19 -5 182 -4 14 -3 -23 -2 -74 -3 -79 -3 151 
-3 -11 -2 -83 -2 -32 2049 2337 100 MP stroke
-2 181 -2 0 -2 -36 -2 -78 1 -108 1 -14 -2 240 -1 37 
-1 -40 -2 -93 0 -87 -1 -6 -2 195 0 4 -1 -34 -3 -77 
2 -124 -1 -53 -1 193 0 -23 -2 -109 0 -98 -1 222 -1 45 
-1 -24 -2 -5 -1 15 -2 35 -1 25 0 -41 -2 -97 0 -132 
-1 -85 0 125 1 -14 -3 -50 -4 159 -2 30 -1 -26 -4 0 
-3 4 -4 -32 -4 -45 -2 -33 -5 6 -4 41 -4 17 -5 -34 
-3 -14 -3 -6 -5 -10 -5 19 -4 -7 -3 -29 -4 -50 -6 -27 
-6 21 -3 -7 -5 -11 -6 18 -5 25 -6 -24 -7 -22 -5 7 
-6 -27 -7 15 -7 18 -6 -36 -7 -12 -8 -7 -8 -23 -8 9 
-9 6 -9 -40 -8 -14 -9 10 -8 -57 -8 -116 -9 -108 -10 137 
-8 52 -8 -16 -11 -5 -11 -59 -10 -145 -9 -71 -10 -44 -10 -52 
-10 9 -10 125 -8 0 -9 20 -11 68 -8 -63 -11 26 -9 29 
-10 -14 -10 -96 -10 -129 2512 3088 100 MP stroke
-11 16 -8 27 -9 14 -10 -58 -8 -31 -12 17 -10 -39 -9 -31 
-10 14 -9 15 -10 -12 -10 -115 -11 -129 -10 -23 -10 171 -11 49 
-9 -236 -11 56 -11 20 -10 -35 -11 39 -10 111 -10 110 -11 -233 
-11 -77 -11 -18 -12 132 -10 150 -10 116 -12 55 -9 102 -11 -49 
-10 -18 -10 35 -12 54 -13 81 -12 -3 -12 17 -11 15 -9 -10 
-10 11 -13 -26 -11 -10 -12 -6 -12 45 -10 57 -13 8 -12 -2 
-11 -3 -12 15 -13 15 -13 34 -10 23 -13 -4 -12 29 -12 -9 
-11 12 -11 45 -12 8 -12 14 -11 -8 -11 -3 -11 20 -13 13 
-12 18 -12 16 -10 -5 -12 -27 -9 17 -12 13 -14 -25 -10 13 
-10 30 -11 42 -11 40 -11 22 -11 9 -12 6 -11 20 -12 11 
-10 13 -11 18 -10 5 -10 -1 -11 -2 -11 4 -10 8 -10 19 
-10 20 -12 -6 -9 -5 -8 -11 -10 -15 -9 -6 -9 -6 -9 1 
-9 17 -9 17 -9 4 3575 2237 100 MP stroke
-9 -1 -8 -7 -9 -16 -7 0 -9 -4 -8 14 -8 18 -9 -7 
-8 6 -9 3 -7 -15 -6 -3 -6 10 -9 16 -8 11 -6 8 
-7 2 -8 15 -8 6 -7 -2 -8 6 -9 2 -6 -5 -8 1 
-7 7 -7 20 -6 15 -7 -3 -8 -1 -5 6 -13 -14 -6 8 
1 31 -9 -6 -5 8 -5 6 -8 -5 -3 9 -6 4 -5 1 
-6 -8 -5 7 -4 18 -7 -2 -4 3 -6 -11 -5 -7 -4 -5 
-12 -15 -5 -4 0 -10 -7 -6 -5 -3 -4 -5 -11 -9 -3 -2 
0 18 -7 9 -5 19 -2 0 -6 -7 -4 -2 -6 -11 -5 10 
-5 3 -5 4 -3 6 -10 -16 -7 -7 2 11 -6 10 -11 -10 
-1 -10 -2 14 -6 23 -7 22 -10 9 1 -11 -7 -20 -7 -15 
3 7 -9 -13 -7 37 0 -7 -3 12 -8 -8 -8 0 3 -34 
-7 -8 -19 -27 -4 29 3 -14 -3 23 -5 -39 -6 -13 -3 -21 
-4 14 -7 -21 -4 -66 4156 2252 100 MP stroke
-7 42 -3 37 -4 32 -14 -8 -6 -12 2 15 -1 -37 -5 -23 
-10 -7 0 10 -5 34 -6 8 0 18 -10 -6 -1 -29 -1 31 
-7 10 -5 -36 -7 21 1 4 -8 -39 -4 -31 3 141 -9 18 
-1 -4 -5 -134 -9 -2 2 3 -6 11 -4 -11 -3 22 -4 21 
-4 -37 -7 21 -1 7 -1 -29 -3 27 -2 -20 -3 -26 -1 -21 
-6 15 -3 54 0 7 -3 6 -2 -40 0 -20 -5 16 -5 27 
1 -7 -2 -9 -4 -21 -2 13 -3 33 -2 -17 -4 -6 0 -20 
0 6 -7 20 -3 51 1 -30 0 -87 -2 -1 -3 86 -1 -50 
-1 -9 -3 91 0 -28 -2 -25 -2 -21 2 58 -2 -45 0 -28 
-2 44 -1 22 1 -4 -1 -50 0 -34 -1 158 0 -62 -1 -74 
-1 -40 1 -23 -2 275 0 76 0 -312 0 33 1 -49 1 37 
1 -4 1 9 0 63 2 -48 0 -58 1 -2 1 130 0 -57 
1 -70 3 37 2 14 4371 2201 100 MP stroke
0 -45 3 47 0 62 0 -35 4 -42 0 -82 4 40 5 119 
0 -87 -1 -30 3 39 4 -36 0 23 2 11 2 -19 4 -6 
2 -15 5 109 8 -23 -1 -81 2 -10 5 174 2 54 5 -85 
2 -115 5 -39 4 2 3 -10 4 6 2 35 5 -11 4 -4 
5 29 4 -11 3 -4 6 -17 1 -19 4 12 6 5 2 -6 
7 -2 4 -5 3 28 5 -25 3 27 5 40 4 -75 5 -5 
4 27 6 -8 4 -35 3 -26 5 130 4 -55 5 -51 5 31 
5 -6 5 3 4 42 6 -44 4 -20 4 58 8 -24 6 -77 
4 -32 3 -9 6 19 4 52 4 -44 6 -39 4 4 4 55 
4 -35 4 -28 4 22 4 -24 5 -18 4 22 4 4 3 -1 
4 16 3 -19 2 -4 5 19 3 -11 4 -20 4 -14 4 28 
4 -21 4 -15 5 2 4 -7 2 1 6 20 5 -4 3 -19 
4 -21 5 -3 4 13 3997 2449 100 MP stroke
4 128 3 198 3 -58 4 -126 4 -46 4 -116 3 -1 3 13 
5 68 3 125 4 -82 5 -65 4 -70 4 -57 4 -19 4 26 
4 30 5 -23 5 -23 4 7 4 -3 4 -15 5 3 5 10 
4 1 5 13 4 14 5 28 4 36 5 18 5 -45 5 -54 
5 -8 4 7 4 5 5 -15 5 -15 5 -1 3 -3 5 6 
2 22 4 14 5 -37 4 -47 4 -7 2 -5 4 -23 4 -17 
1 -5 4 -3 5 -8 4 9 2 17 3 12 4 1 2 -5 
4 6 3 -1 4 -5 4 0 0 1 4 -7 4 -29 3 -18 
4 -30 2 -17 2 -5 2 -20 3 10 2 2 2 15 3 -2 
2 -13 1 12 2 25 2 40 2 -44 2 -38 3 22 1 20 
2 -36 3 -31 2 30 2 34 3 23 3 23 2 28 2 40 
2 -55 3 -65 3 -14 2 -17 3 -3 2 -4 1 27 4 12 
3 -53 1 15 2 1 3667 2761 100 MP stroke
2 -19 1 -13 2 -6 1 9 1 -2 2 22 0 32 1 -14 
1 -14 0 -6 1 16 1 -22 0 -23 1 -4 -1 6 0 18 
1 -20 0 -12 1 9 1 15 1 -1 1 3 2 27 0 12 
0 -4 2 -24 1 -17 1 -17 1 -31 1 13 1 12 1 7 
1 4 1 -8 2 -20 1 -31 2 6 1 25 0 38 1 -9 
1 -1 0 24 1 24 0 3 1 5 0 17 1 9 -1 -35 
1 -20 0 -42 1 -12 0 -51 -1 -15 0 4 -1 -2 0 197 
0 -1 -1 23 0 9 1 2 -1 1 -1 -10 0 -7 0 5 
1 8 0 8 -1 7 0 -20 1 -33 -1 3 -1 -15 0 -27 
1 -7 -1 55 0 78 -1 21 -1 -15 -1 -16 0 -1 -1 1 
0 -4 1 -25 0 -17 0 80 1 0 1 -6 0 12 1 -21 
1 -24 -1 -5 0 -40 0 94 1 50 -1 -2 -1 -9 0 -26 
-2 48 -1 68 -2 -6 3636 2463 100 MP stroke
-1 2 -2 10 -1 7 -2 2 -1 -14 -2 -12 -2 -9 -2 -18 
-1 -35 -1 3 -1 17 -2 12 -1 37 -1 10 0 -18 -2 31 
0 53 -1 -9 -1 -24 0 2 -1 -20 1 -21 0 -31 0 2 
1 31 1 -50 0 55 0 -70 1 47 0 54 0 -20 1 -9 
-1 22 1 23 -1 27 -1 59 1 -19 0 -50 0 15 -1 -64 
1 -8 -1 2 -1 15 2 48 -1 -31 -1 -26 0 4 -1 -25 
0 -33 -1 -30 -1 39 1 69 0 47 0 -15 1 -9 0 14 
1 2 1 54 0 34 1 -26 0 74 1 -18 1 0 2 -15 
1 -26 2 -17 2 0 3 -4 1 -9 3 1 6 -19 1 -16 
1 -6 5 -17 2 -15 4 -37 4 -43 5 -42 5 -43 4 41 
7 37 5 25 5 36 6 42 6 39 6 -25 5 -21 6 -3 
7 5 5 24 6 11 7 4 5 4 7 -11 6 -27 5 -55 
7 -31 7 47 7 47 3489 2373 100 MP stroke
7 -11 7 -30 8 -24 5 -33 13 8 13 14 -1 -1 8 34 
7 26 15 32 14 3 -4 -43 11 -29 11 -42 5 0 13 29 
4 16 12 17 10 26 6 1 11 -18 6 -1 11 -18 7 -27 
9 13 9 -7 5 -7 11 36 5 -15 11 -15 7 19 7 24 
11 0 0 -15 19 31 10 5 1 -18 10 6 5 -17 19 -2 
6 -20 4 -21 17 5 -2 -18 22 -2 16 -17 -8 -66 4 -28 
12 -6 18 17 1 -16 10 -26 15 -4 -3 -7 10 2 6 2 
13 -6 12 -18 -6 -12 14 -25 5 -15 4 -5 19 -24 2 4 
3 15 6 17 8 8 6 2 6 5 11 -12 5 -18 10 -40 
7 25 4 23 19 -105 6 -40 1 58 10 -2 8 8 8 -5 
8 -11 8 1 8 5 9 -14 9 -15 7 4 8 10 7 28 
9 -9 5 27 8 16 12 -46 3 48 1 53 10 -35 4 17 
7 0 14 -37 2 60 2703 2671 100 MP stroke
0 75 13 -56 10 -27 0 60 5 16 14 -54 4 3 0 42 
7 -15 6 5 6 22 6 26 3 33 10 -52 10 -32 -1 38 
4 25 6 9 3 27 6 -11 5 -8 4 0 6 -24 3 -1 
5 3 3 7 5 -10 8 -15 0 15 1 21 6 -8 2 -3 
4 -5 3 -3 3 -3 4 0 3 21 5 8 3 1 3 0 
2 -9 3 4 4 9 2 6 3 -6 3 1 3 3 3 8 
4 22 3 2 4 -4 4 -10 3 -3 6 -18 4 -6 -2 47 
6 -7 8 0 -1 25 4 15 4 9 5 4 4 4 5 -8 
5 -7 3 4 9 -25 5 -7 0 21 5 -7 4 11 3 18 
6 -9 3 5 4 18 4 15 6 9 4 6 5 3 5 -1 
5 -4 6 -4 5 -6 5 6 4 20 7 1 4 3 6 -4 
12 -11 2 17 1 14 8 4 4 4 7 -3 6 3 6 -6 
9 1 7 -1 7 -4 2249 2369 100 MP stroke
7 3 7 5 7 15 7 13 8 18 8 4 11 -16 8 1 
8 -1 10 -3 7 14 10 12 9 7 10 -4 10 -8 9 -4 
11 -9 9 6 11 7 9 3 12 -3 13 -9 8 18 11 9 
10 2 11 -2 14 -4 6 26 19 -23 18 -15 -2 42 10 3 
14 -5 10 5 13 -7 8 13 12 0 11 3 10 2 13 -8 
10 4 11 -6 11 1 11 0 13 -8 11 0 11 7 10 11 
11 2 11 4 12 3 13 -1 12 6 12 -5 10 -3 11 -4 
11 -3 11 7 12 3 10 4 13 -8 10 0 11 7 13 -3 
9 1 12 -5 10 -3 10 0 11 7 8 10 13 -7 8 6 
10 -3 12 -14 9 -1 11 -1 6 12 12 -12 10 -5 9 0 
23 -38 7 16 0 34 14 -11 5 8 9 0 11 -6 6 9 
11 -8 8 2 7 -1 9 3 6 10 12 -15 6 13 12 -6 
17 -34 0 36 5 24 1253 2220 100 MP stroke
11 -27 6 7 9 -4 6 7 8 -12 11 -5 6 11 8 -3 
4 9 8 1 7 -12 6 -6 9 -14 2 33 9 -11 9 -31 
3 29 6 -3 4 -4 12 -2 15 -15 5 -3 8 -29 6 -14 
4 4 6 -4 5 16 5 21 4 -4 5 -9 3 -9 3 -3 
4 4 5 -3 2 -5 -1 -7 3 16 2 9 -1 5 3 -1 
1 -12 4 -11 1 5 -2 5 2 -26 -1 -9 1 5 -2 4 
-8 23 4 -29 6 -13 1 1 0 1 -12 23 2 -32 7 -18 
-11 28 -2 -11 0 -7 -5 2 -1 4 -4 13 -3 -25 -3 -11 
-5 -7 -2 -1 -4 -7 -5 -9 -5 3 -5 -3 -6 -10 -7 -2 
-6 7 -7 -8 -6 1 -5 6 -6 -23 -7 -9 -9 -33 -10 -16 
2 51 -2 -18 -12 -26 -7 22 -6 -25 -7 20 -7 -2 -8 -17 
-5 11 -15 -67 -12 2 4 35 -5 -35 -18 26 -12 23 -8 -35 
-11 29 -9 -4 -12 1 1293 2498 100 MP stroke
-10 -2 -9 -19 -12 9 -5 -59 -5 -29 -11 -1 -10 5 -13 34 
-11 33 -6 -30 -8 -7 -8 0 -8 -19 -7 -8 -9 23 -5 -41 
-4 -32 -9 4 -9 -20 -9 30 -19 3 -11 -16 2 97 -10 -20 
-10 -7 -5 24 -17 -128 -9 53 1 34 -8 -137 -10 5 -9 34 
-9 -35 -11 33 -9 55 -9 -3 -11 28 -10 20 -10 24 -7 -41 
-7 -127 -9 23 -9 16 -8 -40 -9 42 -9 -38 -7 48 -10 90 
-8 7 -8 69 -10 16 -7 -28 -9 5 -8 4 -7 19 -10 40 
-7 -91 -12 -151 -7 61 -10 -20 -12 6 -5 61 -21 -32 -10 139 
0 17 -11 24 -7 39 -20 -123 -9 94 1 -46 -14 -82 -7 175 
-10 -10 -11 -2 -8 -86 -13 -141 -7 53 -9 -8 -9 145 -8 65 
-10 -59 -9 54 -11 -25 -9 15 -8 19 -12 -136 -11 -54 -9 41 
-9 -15 -10 18 -10 24 -10 -23 -8 109 -6 105 -14 -51 -18 -38 
-1 49 -3 27 -14 -32 2185 2343 100 MP stroke
-1 54 -14 -37 -21 -206 0 46 -7 50 -9 -40 -13 24 -17 -64 
2 72 -3 136 -11 14 -10 -3 -10 -5 -9 15 -9 5 -9 3 
-19 -33 -10 -21 3 74 -14 -20 -9 10 -8 18 -16 -136 -6 40 
-6 111 -9 -29 -9 16 -7 0 -10 -27 -6 23 -14 -19 -13 0 
1 32 -8 2 -7 18 -16 -35 -22 -43 9 56 -3 21 -17 -25 
0 22 -5 18 -7 1 -7 -3 -6 -5 -6 -5 -7 0 -5 11 
-7 4 -6 -9 -6 -1 -6 5 -6 -2 -8 5 -5 1 -6 -6 
-5 -4 -9 -26 -3 10 1 30 -13 -26 -8 -8 1 29 -5 5 
-11 -29 -6 5 2 42 -9 -13 -5 0 -4 16 -14 -28 -2 14 
-3 14 -7 -3 -6 3 -11 -33 -3 13 1 39 -9 -14 -9 -5 
1 32 -4 9 -12 -24 -2 -2 -1 40 -7 -26 -13 -88 -11 -18 
1 20 -3 35 -2 55 -1 0 -5 -13 -5 -2 -5 -8 -3 11 
-6 -11 -3 1 -5 4 2858 2164 100 MP stroke
-9 -13 1 20 -6 -6 -6 -11 1 11 -5 -1 -5 8 -4 4 
-4 1 -5 3 -4 4 -5 -2 -5 4 -3 9 -6 -2 -2 7 
-6 -10 -3 -8 -2 7 -11 -14 0 4 -4 1 -5 -9 0 12 
-7 -8 -1 0 -4 -3 -4 -5 0 12 -7 -12 0 -3 -5 -4 
-3 -3 -1 13 -6 0 1 8 -6 5 -2 -2 -2 2 -5 -7 
1 4 -6 8 0 3 -3 6 -6 -4 4 -5 -3 -1 -3 1 
1 5 -1 6 0 8 -3 2 2 -2 -1 1 0 11 -2 1 
2 4 -1 -9 -1 3 0 -23 -2 30 -5 41 2 -33 -1 -10 
0 -9 1 -17 -2 7 2 -21 -1 9 -4 57 0 -39 1 0 
-1 -5 1 12 -1 7 0 -1 0 18 -2 1 1 -24 0 -4 
0 3 1 4 0 13 0 -26 0 4 1 -9 -1 11 1 9 
0 -3 0 2 -1 2 -1 -23 0 -3 -4 26 2 -30 -1 -7 
-2 10 1 -34 -4 23 3047 2142 100 MP stroke
-2 24 0 -26 -2 14 0 -1 -1 2 -1 11 0 -10 -2 10 
0 -11 -2 3 -1 10 0 -6 -2 21 0 -17 -2 -9 0 -1 
-1 -10 -2 26 0 -11 -1 -13 0 2 -2 15 0 -1 -1 8 
-2 19 0 1 -1 -1 -1 -5 -1 17 0 2 0 -38 1 -3 
0 12 0 -28 1 6 0 1 1 15 0 2 0 -10 2 -8 
0 -10 1 2 0 -7 2 12 1 6 -1 -8 2 14 0 1 
2 -7 1 -14 0 -6 1 4 0 -7 2 10 0 -2 1 1 
1 13 1 7 2 9 -1 -2 2 3 0 -8 1 0 3 11 
-3 -20 5 8 -4 -13 -12 -27 1 3 -1 8 8 12 9 18 
-3 -14 1 -10 0 -13 1 2 1 9 -2 -5 0 3 0 -2 
-1 -4 0 -1 -1 -13 -2 -5 1 11 -2 1 0 1 0 -2 
-1 -1 0 4 -1 8 -1 1 0 2 -1 -5 -1 -23 -1 -14 
-1 -2 -2 -2 -1 -7 3062 2200 100 MP stroke
-2 -7 -3 -10 -1 6 -1 14 -3 5 -2 7 -3 2 -1 4 
-2 -12 -4 -7 -1 19 -5 -3 2 14 -8 -20 -14 -37 10 28 
4 25 -7 -15 0 12 -4 -13 -2 3 -1 2 -4 -8 0 -2 
-4 -13 -2 -2 -4 -2 -3 5 -3 9 -3 -1 -3 6 -5 -8 
-4 -14 -4 -15 -3 -12 -2 1 -5 -15 -4 -14 -4 4 -4 4 
-2 3 -4 -1 -3 -4 -5 -1 -3 -1 -4 -3 -5 -3 -3 8 
-4 2 -5 5 -4 12 -5 11 -3 3 -5 -7 -4 -6 -4 -9 
-4 -6 -4 -1 -5 -8 -3 -5 -5 -8 -3 -10 -5 6 -4 -4 
-4 -15 -5 -2 -4 -1 -4 0 -5 5 -4 -12 -5 -21 -4 -2 
-5 8 -5 -1 -4 -1 -5 5 -4 12 -5 4 -4 -2 -5 11 
-5 -1 -3 -12 -4 -10 -5 -11 -4 1 -5 -5 -5 -11 -3 5 
-6 16 -3 15 -3 9 -5 2 -4 -4 -4 -13 -5 -22 -3 -6 
-5 8 -3 -3 -5 1 3419 2340 100 MP stroke
-4 -7 -5 -4 -4 12 -4 5 -5 6 -4 10 -5 -17 -6 -19 
-4 -2 -4 7 -4 8 -4 -10 -5 -18 -4 -17 -5 -12 -4 -2 
-5 0 -4 1 -5 10 -4 12 -5 -2 -5 -5 -5 -2 -5 -11 
-5 -9 -4 8 -5 15 -4 15 -6 13 -5 -1 -5 -8 -5 -7 
-4 -11 -4 -2 -5 -2 -5 -6 -6 8 -5 12 -5 -4 -6 -5 
-4 8 -5 0 -7 -11 -6 -11 -6 2 -7 6 -6 5 -5 5 
-6 -7 -7 -4 -7 -1 -6 -18 -8 -1 -6 8 -6 -17 -7 -4 
-6 0 -7 1 -7 3 -8 4 -6 -4 -7 -10 -7 4 -7 -19 
-7 -25 -7 2 -7 -3 -7 -13 -6 -5 -7 11 -7 12 -8 2 
-6 3 -7 -8 -7 -6 -6 -3 -6 2 -6 -2 -7 -15 -6 0 
-6 14 -7 9 -5 -9 -6 0 -7 12 -6 -13 -6 -13 -7 -10 
-6 -2 -6 12 -6 7 -6 18 -6 13 -6 -7 -6 -10 -7 -3 
-5 17 -5 17 -6 9 3983 2429 100 MP stroke
-5 -6 -6 -1 -5 -3 -5 -1 -7 3 -3 -32 -9 35 -9 46 
1 -62 -5 -4 -7 24 -3 -7 -7 36 -4 -9 -5 9 -6 1 
-3 -33 -8 -8 -2 -64 -9 22 -10 55 0 -63 -8 41 -5 5 
1 -75 -6 40 -4 -2 -5 -19 -6 11 -4 -11 -7 6 -4 -4 
-6 10 -6 4 -4 -5 -7 17 -4 -20 -6 -8 -6 -8 -6 -2 
-6 25 -5 9 -6 2 -5 -16 -6 15 -6 30 -5 10 -6 13 
-5 5 -6 14 -5 13 -5 -40 -5 -26 -4 2 -5 11 -4 0 
-6 -9 -5 2 -4 6 -5 13 -3 -26 -6 -38 -4 -25 -4 5 
-5 10 -3 -19 -7 62 -6 30 0 -29 -3 29 -4 16 -3 4 
-3 18 -3 0 -4 3 -2 2 -3 16 -2 -22 -4 14 -4 22 
1 -50 -2 -10 -3 12 -1 -8 -2 -5 -1 -2 -1 -8 -1 -26 
-1 20 -1 11 0 -46 -1 27 -1 29 0 -17 0 36 -1 -22 
0 -37 -1 -2 0 -44 4386 2502 100 MP stroke
1 -17 0 11 1 -23 1 12 0 -16 1 4 3 31 0 -50 
1 -15 2 41 1 21 2 5 1 -8 2 4 2 0 1 -37 
3 -4 1 -13 3 -18 2 8 3 5 2 -11 3 -44 3 -24 
3 -12 3 -11 3 -15 3 -15 3 5 3 -15 3 -5 4 7 
3 -9 5 8 3 7 4 -13 5 -28 4 -10 5 18 5 12 
5 3 4 -5 6 -4 5 -13 4 -33 6 -29 4 -18 6 -30 
5 2 5 72 7 51 3 15 12 47 9 71 -1 -140 7 -60 
5 19 11 21 9 84 -2 -90 7 -6 8 74 5 35 9 35 
5 -54 7 -86 8 18 6 101 8 31 4 -10 13 -13 13 51 
-2 -42 6 -22 18 106 4 35 1 -22 10 42 6 102 7 -4 
8 -30 6 -59 12 35 4 36 -1 -42 7 31 8 -5 10 -16 
8 -10 10 56 18 55 0 -46 2 18 19 29 10 23 10 -21 
17 -48 1 -5 -2 -42 3888 2423 100 MP stroke
8 14 8 24 8 -41 9 -2 8 6 9 17 6 60 12 67 
15 65 7 -15 8 -34 9 -13 8 -5 6 17 1 -1 8 -15 
8 -26 6 36 10 60 5 -9 10 41 14 100 8 -2 7 -39 
8 -15 6 8 7 33 7 37 6 5 8 7 3 -27 3 -41 
7 -7 6 8 6 39 7 25 5 -20 6 -10 6 -9 5 -5 
6 -7 5 -23 6 29 5 22 5 0 4 6 5 19 6 -6 
5 -15 7 10 5 6 4 -24 6 3 4 6 5 -10 4 -30 
6 16 9 42 5 9 4 16 5 19 4 1 5 -34 4 -17 
4 5 5 11 3 26 3 0 5 -22 4 -19 4 14 4 69 
3 2 4 -6 4 -10 4 -2 5 3 3 -3 5 9 4 4 
4 -8 4 -12 3 -1 4 3 3 -13 3 -23 4 -21 2 0 
2 3 2 0 2 9 1 13 1 25 1 20 0 -10 1 -17 
1 19 1 16 -1 -35 3368 2003 100 MP stroke
0 -70 -1 -41 -1 -21 0 -1 -2 2 -2 29 0 6 -2 -30 
-2 -44 -1 2 -2 25 -3 2 -4 16 -2 -8 -3 -28 -3 -16 
-5 -2 -2 15 -4 12 -6 -4 -4 -34 -4 -42 -3 -27 -5 -21 
-5 45 -5 61 -7 0 -5 -44 -4 -65 -6 -3 -6 18 -5 -2 
-6 -35 -7 -32 -6 21 -5 5 -6 27 -7 18 -6 -42 -7 -9 
-9 9 -6 -3 -5 3 -7 29 -7 16 -8 -27 -6 -13 -7 -10 
-8 -34 -5 44 -7 47 -7 -35 -7 -28 -8 -17 -7 2 -7 33 
-9 16 -9 -41 -8 -15 -9 40 -8 22 -10 3 -9 33 -9 -1 
-8 14 -9 3 -9 -3 -8 14 -9 -6 -8 22 -9 -3 -11 -29 
-9 4 -10 -8 -11 2 -7 42 -9 18 -11 -14 -11 -16 -11 -2 
-10 -6 -10 36 -10 54 -11 8 -11 7 -10 22 -12 5 -11 -10 
-9 -5 -12 -5 -13 11 -12 5 -12 7 -12 7 -11 5 -12 13 
-13 -14 -11 -34 -11 -54 4067 2157 100 MP stroke
-13 24 -11 24 -12 -3 -12 26 -11 -15 -12 -21 -13 6 -12 7 
-12 4 -13 -9 -13 -11 -11 1 -11 26 -11 33 -12 -24 -13 -14 
-11 10 -11 7 -11 -4 -10 -13 -12 5 -10 19 -11 12 -13 11 
-9 16 -10 23 -12 19 -11 -20 -9 -41 -13 -48 -12 17 -11 23 
-11 1 -11 -13 -9 -40 -8 -3 -12 30 -12 -5 -9 6 -9 20 
-9 7 -10 9 -6 -9 -15 -23 -17 0 2 45 -7 22 -10 18 
-5 -14 -10 -36 -7 -4 -7 3 -7 -9 -8 2 -11 -17 -5 4 
-6 26 -5 28 -6 -2 -5 -13 -4 -2 -8 -12 -3 5 -4 4 
-5 5 -3 32 -10 4 -4 -23 0 53 -3 -3 -2 2 -7 -3 
-3 -12 1 -34 -2 5 -5 16 0 -28 0 3 -4 43 -1 25 
0 6 -1 -5 0 -30 0 33 2 25 0 -53 3 23 2 -20 
-1 0 2 19 0 -12 5 25 3 13 0 -45 6 5 -1 25 
-1 -6 6 5 1 2 4711 1944 100 MP stroke
0 -5 5 18 14 30 1 -39 -3 9 5 16 -5 -39 7 -1 
7 7 -1 -24 5 -2 0 22 10 1 4 4 11 -18 0 20 
7 13 6 -35 0 -3 4 -9 4 -6 11 -14 2 10 4 37 
8 -14 -1 -4 5 25 5 -13 6 -30 3 -6 8 8 11 8 
-1 1 10 -42 5 14 1 29 6 -28 5 -3 13 10 1 -21 
7 15 10 14 -2 -26 9 -4 4 27 13 8 9 11 -3 0 
10 -40 4 -13 5 2 9 -20 4 8 8 3 5 -12 7 -17 
6 3 11 4 8 3 -3 1 10 7 6 -14 5 -14 8 13 
3 23 10 -25 4 7 7 8 16 -6 2 8 3 -3 8 -18 
6 -12 7 -2 7 -5 6 3 6 3 6 -17 5 19 7 10 
7 -22 8 -1 8 28 4 -10 10 -21 8 23 7 -16 8 -15 
6 17 7 -6 7 -8 8 19 8 -19 7 -14 9 19 12 -12 
6 4 8 8 17 -19 4120 2111 100 MP stroke
4 -2 1 1 12 -39 5 5 9 22 10 -7 7 14 10 -5 
7 -27 10 -21 7 -5 8 18 10 14 7 -5 11 -37 8 -4 
9 -6 9 -15 7 29 12 11 8 0 10 -4 11 -8 9 -22 
9 2 8 4 9 -2 9 -11 8 -31 9 24 9 42 10 -5 
7 -30 10 8 9 -21 9 -23 9 3 10 -9 11 23 7 9 
10 -53 9 10 9 14 11 7 7 0 12 -35 11 -28 11 -3 
11 15 9 19 12 -3 8 -34 11 -29 11 15 9 -13 14 0 
8 31 13 -22 9 -65 8 4 27 -29 9 9 0 -8 12 -2 
9 41 10 -38 12 -46 10 5 11 30 9 -19 10 33 12 6 
9 -44 8 -2 13 -9 10 30 13 -48 10 -65 5 -9 23 -30 
14 40 -2 51 10 15 10 -35 8 0 9 5 11 -14 8 10 
11 3 22 -99 4 51 3 72 17 -84 6 -68 9 -4 9 4 
7 20 11 -5 7 58 3177 2566 100 MP stroke
12 12 11 -30 9 -1 9 -28 6 28 10 -32 7 19 11 -33 
21 -172 4 101 1 160 11 -19 6 -33 8 18 9 -10 7 42 
7 27 6 25 9 -52 10 -36 9 -7 6 30 7 29 7 -6 
6 10 7 -33 5 7 6 41 8 4 6 32 7 -32 5 17 
6 10 7 -4 5 21 7 -13 4 37 4 33 8 -43 10 -32 
8 -1 4 50 9 -30 4 19 6 6 9 -49 2 69 7 -10 
6 52 9 -14 14 -170 -1 115 10 -33 11 -68 -3 166 7 -8 
6 -2 2 66 9 -10 7 -20 7 -17 7 -1 6 -1 5 9 
4 17 4 18 2 9 8 -29 6 -4 4 -2 5 -20 5 14 
3 24 4 17 3 5 1 21 6 5 5 -3 4 5 5 0 
5 10 3 -1 3 25 6 -48 7 -42 -1 107 4 18 5 -23 
4 10 5 -25 2 27 5 4 3 5 2 33 3 -9 1 10 
4 -13 5 -1 1 13 2586 2184 100 MP stroke
4 -6 3 12 2 9 1 13 1 6 2 -6 2 0 1 2 
2 8 1 2 1 3 2 1 0 -1 0 15 1 -10 0 17 
-1 3 1 -50 0 9 1 25 -1 -10 0 21 1 -10 -1 -38 
0 66 -2 -34 -1 -13 0 36 -1 4 -1 -5 -1 11 -2 8 
-1 7 -2 4 -3 4 -2 18 -1 6 -2 -1 -2 0 -2 -2 
-1 -6 -3 0 -2 9 -1 5 -2 2 -2 -1 -2 0 -2 -3 
-1 -6 -2 2 -2 -1 -2 -4 -3 0 -2 -6 -2 4 -2 5 
-1 1 -2 0 -3 -2 -3 2 -2 4 -3 1 -2 1 -3 1 
-2 -4 -3 -9 -2 8 -4 -7 -7 -35 -2 3 -3 20 -5 18 
2 9 0 -8 -3 5 -2 10 -8 -19 -4 -6 -1 1 -4 -16 
-1 1 -4 3 -3 -2 3 38 -1 15 -5 -28 -4 3 -5 -14 
-9 -50 -5 -20 -4 -2 -6 -10 -4 -3 -6 3 -5 -3 -5 -8 
-6 -1 -6 -1 -6 7 2766 2154 100 MP stroke
-6 10 -7 3 -5 2 -7 -6 -7 12 -7 -12 -7 -3 1 46 
-2 9 -13 -52 -8 -21 2 29 -8 -8 -14 -40 -7 -2 -7 -4 
-8 -30 -5 16 2 67 -5 9 -16 -46 -3 -1 -1 13 -9 -25 
-16 -64 -9 -11 2 70 -14 -7 -7 4 -2 7 -17 -78 -7 2 
-12 -12 -9 -23 3 61 -11 3 -6 -6 -7 -6 -9 -3 -4 12 
-9 -23 -5 -6 -8 -23 -7 -12 -6 -13 -8 -38 -6 4 -6 -16 
-7 -12 -15 -40 -6 -14 3 63 -16 -63 0 121 -25 -119 -6 -22 
5 86 -4 56 -10 -9 -16 -91 -8 -19 -6 -2 -8 -23 -5 17 
-8 -8 -6 0 4 104 -2 56 -16 -114 -12 -96 -5 14 -6 -15 
-4 73 1 76 -8 -64 -22 -146 -7 -1 0 29 -14 -103 -2 24 
-4 37 -5 65 3 113 -20 -167 -11 -46 0 82 -18 -131 -3 44 
-3 26 -7 0 -5 20 -16 -99 -2 55 -3 44 -6 2 -7 -24 
-8 -40 6 159 -9 0 3442 2468 100 MP stroke
-12 -67 3 80 -7 4 -7 -6 -6 2 -7 6 -7 -11 -5 4 
-9 -29 -25 -242 -7 -31 5 159 -4 48 1 59 -8 -13 -6 0 
-4 17 -9 -26 -3 28 -9 -20 -11 -53 -1 44 -2 37 -13 -76 
-6 1 1 57 -6 -9 -4 16 -5 -2 -5 14 -10 -71 -16 -122 
9 148 -2 22 -17 -120 4 82 -9 -28 -7 -17 0 59 -11 -38 
-1 46 -6 -6 -9 -47 2 49 -6 -22 -5 -4 -10 -49 -12 -70 
10 154 -9 -35 -16 -86 8 87 -10 -52 -17 -86 7 74 4 93 
-5 -16 -8 -61 -2 42 0 57 -7 -12 -2 -3 -4 -5 -4 7 
-2 15 -8 -41 -4 -1 0 63 -4 2 -7 -43 -2 38 0 47 
-6 -7 -2 -12 -3 9 -4 10 -2 7 -7 -18 -5 -22 1 32 
-4 -28 -8 -62 0 19 -5 -8 -5 10 0 25 -11 -58 -2 10 
5 59 -9 -32 0 6 -3 22 -6 -10 1 38 -5 16 -1 6 
-2 11 -6 -21 1 23 3896 2402 100 MP stroke
-3 -7 -7 -36 -1 19 0 -2 -4 -8 -5 3 0 10 -4 7 
-4 6 2 21 -4 -31 -4 -10 1 5 -4 -26 -1 3 -2 -13 
-3 -1 0 5 -3 0 0 44 -2 -12 -4 -12 1 3 0 17 
-1 4 -2 21 1 7 -1 -9 0 23 -1 3 1 -1 0 -21 
2 -47 -1 -10 0 11 2 0 -1 29 1 -1 1 7 0 29 
1 22 0 28 2 -10 1 -19 0 21 2 -33 1 -22 -1 13 
2 -40 3 -10 0 33 -1 19 2 -11 2 -9 0 51 1 3 
0 5 1 7 2 3 0 22 2 -11 1 -8 -1 7 3 -45 
1 4 0 16 2 -9 0 19 2 -11 1 9 0 17 3 -7 
0 18 2 -13 2 -24 -1 10 1 16 1 7 5 -45 2 -14 
-2 21 1 -1 0 12 6 -34 1 -8 -3 24 7 -60 5 -23 
-1 10 0 22 4 13 3 25 -2 35 5 5 4 0 0 7 
4 -28 3 -8 0 4 3867 2347 100 MP stroke
5 -18 0 19 1 10 5 -1 0 27 6 -36 3 -10 0 32 
5 -18 1 -1 2 -7 6 -18 -2 37 5 -2 8 -10 -2 41 
7 -17 4 4 1 34 9 -4 0 36 3 16 5 -17 6 -21 
8 -18 -1 38 9 -8 3 -1 0 16 9 -34 3 -11 11 -42 
2 17 -2 35 16 -65 1 11 4 13 10 -13 0 26 4 -7 
5 -12 7 -5 3 19 7 -5 11 -27 2 36 1 41 10 -9 
9 -12 -1 27 10 -24 5 0 -3 43 12 -48 0 23 8 -21 
13 -54 -3 52 11 -34 2 12 3 1 10 -41 -1 46 11 -17 
2 34 5 15 11 -26 -1 28 12 -33 1 31 8 -13 16 -66 
-6 65 2 18 12 -37 2 21 0 31 14 -39 7 -16 0 33 
12 -30 1 29 7 4 10 -23 -2 50 8 -6 6 11 13 -10 
6 -6 2 2 14 -51 -2 32 14 -31 6 1 1 22 19 -71 
-8 71 11 -20 18 -51 3359 2354 100 MP stroke
-6 55 17 -47 6 12 2 19 8 6 6 12 19 -35 1 52 
10 -10 24 -63 -3 43 -3 42 18 -37 5 16 3 39 20 -36 
-4 51 5 10 24 -75 -1 42 7 10 6 16 10 -13 20 -69 
-2 33 13 -30 10 -20 0 32 8 -5 7 -2 17 -52 4 19 
5 13 16 -29 -2 33 6 -4 10 0 6 8 7 4 9 5 
7 4 6 15 18 -27 3 17 6 2 13 -30 -1 35 7 -2 
6 -2 14 -18 8 -1 1 18 15 -34 -1 19 11 -20 6 -5 
2 23 14 -25 -2 20 12 -20 4 5 7 4 22 -36 -9 41 
3 12 8 -16 2 -4 12 -26 2 13 11 -12 6 16 5 11 
10 -10 2 9 10 -21 4 12 7 -10 7 -9 3 7 9 -16 
4 10 7 -17 5 8 5 5 7 -7 4 34 3 -30 -3 20 
16 24 13 0 -2 16 7 -1 2 -8 8 -2 5 -3 5 -13 
9 -16 1 3 12 -26 2673 2373 100 MP stroke
1 1 9 7 12 -18 -4 -4 13 3 3 -7 4 5 10 14 
-1 -3 12 -6 1 -1 6 -5 7 3 1 -7 28 20 9 10 
-7 -38 5 3 -3 -22 1 -23 5 -24 11 4 4 16 2 -10 
12 12 -2 -18 4 -11 11 27 -1 -18 11 14 7 43 0 2 
16 18 5 -3 -6 -31 9 24 13 37 -2 -23 -1 -14 10 8 
5 -12 -2 -15 9 -13 8 -13 0 -16 4 -4 6 14 5 8 
4 -1 6 9 12 21 1 -12 6 5 12 31 -4 -22 8 9 
12 1 -1 -41 11 5 15 24 -6 -22 2 -18 20 27 6 -3 
-5 -50 6 7 5 1 6 -15 15 23 6 5 -5 -21 26 25 
37 115 -5 -52 -2 -43 7 -4 -12 -44 21 36 30 60 -3 -40 
-1 -19 2 -15 0 -7 17 13 23 37 -3 -45 -3 -18 19 25 
2 -16 8 3 13 8 -1 -14 26 40 12 6 -13 -39 18 -11 
25 19 -3 -34 -3 -16 2054 2506 100 MP stroke
20 21 5 6 8 15 31 32 -5 -46 -4 -28 24 12 2 3 
9 2 18 3 -2 -19 7 -11 22 11 3 -17 9 2 30 51 
-5 -42 -4 -31 23 19 0 -10 10 4 15 27 -1 -13 20 11 
6 -17 0 -15 15 -11 0 -65 13 -12 11 38 3 23 20 38 
5 -14 11 -20 16 6 -1 -38 19 4 12 14 -3 -54 16 8 
8 12 4 -15 10 -49 9 -21 9 -2 10 12 13 61 9 22 
9 -20 10 17 9 15 9 -3 9 -5 11 -21 10 -6 11 -4 
8 -36 13 -6 21 37 1 0 3 86 14 19 5 -29 12 -56 
8 -41 8 -21 11 -4 8 17 12 5 5 25 10 -4 10 3 
5 13 11 11 4 -10 13 -34 15 70 0 -17 6 -21 9 6 
4 -30 8 -3 11 4 5 -10 6 -5 9 -16 5 16 8 1 
5 5 3 1 8 6 6 -1 6 2 5 4 4 -19 4 -9 
3 -3 3 -3 2 15 1209 2658 100 MP stroke
2 19 2 26 3 -2 3 -6 1 8 1 -42 2 -14 2 5 
2 -18 0 30 0 -47 0 7 -1 -32 0 100 2 -15 0 28 
-2 -31 -1 -2 -3 -11 -2 19 -2 42 -1 -18 -2 -17 -3 -21 
-3 3 -4 35 -2 20 -5 8 -6 -20 -5 -3 -5 -2 -7 7 
-5 17 -8 -14 -7 32 -7 19 -5 33 -7 31 -8 -10 -6 3 
-7 -5 -8 21 -8 30 -8 21 -8 18 -7 -20 -6 3 -8 16 
-8 11 -9 -11 -11 -17 -9 8 -9 -21 -10 10 -9 31 -10 22 
-12 13 -12 4 -9 24 -9 0 -15 6 -11 22 -9 -3 -13 -24 
-13 6 -12 46 -12 8 -12 5 -13 3 -12 -5 -14 8 -15 -1 
-12 6 -13 -7 -15 1 -14 27 -13 9 -13 26 -12 5 -13 -25 
-12 8 -14 19 -15 15 -13 -14 -13 -14 -14 6 -13 22 -16 27 
-13 -8 -13 6 -15 1 -14 -23 -13 -13 -15 1 -13 2 -15 -1 
-14 25 -14 34 -14 24 1992 2103 100 MP stroke
-14 7 -16 -23 -12 -30 -14 -19 -17 3 -14 14 -13 10 -14 26 
-13 9 -14 -7 -15 -10 -14 2 -15 12 -17 8 -12 8 -15 -8 
-16 -12 -14 -8 -18 -19 -15 11 -16 16 -16 25 -14 3 -17 -30 
-14 4 -12 -7 -17 -17 -14 10 -14 25 -15 9 -13 -31 -15 -5 
-16 -6 -14 -18 -18 13 -16 35 -13 7 -15 -30 -12 -56 -14 -106 
-14 -106 -14 105 -16 -72 -14 3 -15 230 -14 18 -12 -3 -13 -57 
-14 -39 -15 -23 -13 -42 -17 -76 -16 -94 -13 206 -13 -27 -13 32 
-15 41 -14 22 -13 -32 -13 -101 -14 -137 -17 -98 -13 -22 -14 -18 
-14 -17 -12 -9 -14 -7 -12 9 -14 -22 -13 -7 -13 -28 -15 -43 
-11 6 -15 -47 -11 0 -13 -6 -14 -24 -8 70 -26 -119 -16 -48 
2 120 -15 -27 -15 -26 -11 -3 -14 -22 -10 15 -12 3 -13 23 
-11 7 -11 -29 -12 -9 -12 -2 -10 22 -11 17 -12 2 -11 21 
-10 16 -10 9 -10 9 3347 2724 100 MP stroke
-9 7 -10 7 -9 8 -10 -8 -10 -20 -9 15 -8 11 -8 6 
-9 1 -8 -18 -8 -4 -8 -7 -8 2 -9 -6 -8 -7 -8 23 
-7 15 -8 39 -7 -18 -7 7 -8 10 -7 -5 -7 7 -7 -2 
-6 10 -6 1 -8 -4 -3 21 -10 -5 -9 17 1 19 -17 -14 
-8 20 8 -15 -9 4 -2 4 -6 22 -14 23 2 -15 -9 14 
-5 -11 -1 8 -10 22 0 -11 -6 14 -3 -29 -1 -16 -6 25 
0 -32 -7 18 -3 -9 2 -52 -8 22 -2 18 0 -31 -3 -2 
-6 71 -3 25 2 -93 -1 -24 -1 19 -2 77 -2 36 2 -83 
-2 58 0 12 0 -11 -3 103 0 -95 1 4 3 186 0 -248 
2 49 0 -29 1 14 1 19 0 -30 3 32 1 -23 1 -17 
3 41 -2 -62 1 13 4 50 -1 -39 4 24 1 -7 1 -22 
4 37 0 -35 3 -20 3 18 1 7 2 17 2 7 1 -9 
2 -40 3 6 2 -6 3662 2593 100 MP stroke
0 -20 5 30 0 -26 1 -6 3 9 4 -15 4 5 -1 -63 
6 62 2 2 -2 -58 5 56 1 -37 2 5 5 46 0 -61 
3 27 2 3 0 -9 4 32 0 -91 4 56 0 -16 1 -44 
3 57 0 -105 -1 -16 0 16 -1 37 0 -37 -1 -4 -1 -17 
-1 22 -1 40 -1 -26 -2 0 0 -14 -1 0 -2 -4 -1 -18 
-1 7 -1 19 0 22 -1 -42 -1 -30 0 14 0 -22 0 5 
1 -10 1 -22 1 -16 1 -11 2 43 2 59 1 -17 1 -22 
3 -24 1 -2 1 14 1 65 1 -2 1 17 1 22 1 8 
1 37 1 32 1 -20 1 -17 1 2 1 -9 2 -31 1 -31 
1 -35 2 0 2 17 2 -16 1 -3 1 12 3 2 2 20 
3 -31 2 -25 3 17 3 32 2 -39 3 -48 2 -41 4 12 
2 -9 4 24 4 55 2 47 5 2 0 -79 3 -3 3 20 
0 -48 4 110 1 -47 3534 2791 100 MP stroke
2 -52 3 73 -1 -27 1 -68 2 -19 1 68 2 54 0 -81 
3 -70 1 -38 2 -18 2 -20 1 -45 2 37 0 85 1 -21 
0 -23 1 82 0 75 0 -90 1 -88 0 -43 0 99 -1 -17 
1 -15 2 155 1 71 -1 -113 0 -52 1 -23 1 3 -1 130 
0 88 1 -64 -1 -91 0 -107 1 -101 0 93 -1 -56 -1 -13 
0 93 -1 30 -1 24 -1 90 -1 83 0 -53 -2 -52 -1 66 
0 15 -2 -18 0 -121 -1 -30 0 -2 1 -4 0 42 1 60 
0 45 1 69 1 61 1 38 1 -32 1 -44 1 18 2 13 
1 13 1 38 2 31 1 21 1 -38 1 -56 2 -60 1 -53 
0 7 3 -9 2 -9 1 6 0 66 1 31 1 4 0 25 
1 32 0 116 1 27 0 -50 1 4 1 52 1 -38 0 -37 
1 45 0 66 1 -3 1 -4 1 1 2 -16 1 -29 1 -47 
1 21 2 44 0 62 3474 2379 100 MP stroke
1 68 2 4 1 9 0 -1 -1 -26 0 56 1 3 0 8 
1 2 0 -12 1 3 0 17 1 11 0 3 3 -2 2 -8 
0 -24 2 -34 2 -39 1 36 3 44 1 7 3 20 3 -16 
4 -28 2 25 1 45 5 20 2 24 5 24 4 -2 3 -8 
6 -3 3 -2 7 11 11 10 0 17 3 0 6 -21 3 -8 
6 -23 7 -14 6 -10 6 -22 6 -12 7 29 7 41 7 -9 
8 -13 8 -4 8 -31 7 -22 9 -5 7 -11 8 -17 10 -22 
10 -17 11 16 10 24 11 -19 11 -19 11 -14 11 -22 12 -2 
11 -8 12 -17 12 -29 13 -36 12 -64 12 -78 12 7 12 9 
13 -2 14 14 12 -4 14 39 13 -11 13 -77 14 -95 12 -27 
16 -9 13 0 16 -16 14 16 12 21 32 -148 14 -14 -3 185 
23 -65 13 40 10 58 34 -110 10 24 2 91 19 10 14 -39 
14 33 15 23 15 -3 2694 2626 100 MP stroke
17 46 14 -3 15 22 15 -54 14 1 14 146 15 -26 15 3 
15 -27 16 74 16 -10 15 -23 13 2 15 97 15 -28 13 -33 
14 85 14 -36 14 -41 13 53 14 -24 15 -9 13 4 15 -3 
15 24 13 31 13 9 14 -3 13 -7 16 3 16 -10 14 2 
15 -4 13 5 14 2 16 -14 11 22 14 4 14 9 14 9 
14 -8 12 17 15 10 12 13 12 6 13 -2 14 -4 16 -8 
11 4 15 -12 13 -6 12 1 17 -7 7 13 23 -18 17 6 
-1 15 12 4 11 18 21 -13 17 7 -4 11 13 -7 10 3 
8 6 15 1 7 9 12 8 9 -4 10 7 12 7 9 -2 
12 3 9 -3 10 7 8 8 11 -4 13 -6 10 -9 10 9 
10 7 10 7 12 4 10 -12 11 -1 9 1 10 6 11 6 
8 6 10 5 8 -2 9 3 12 -9 8 -8 8 0 8 -4 
6 14 8 -3 7 -3 1478 2231 100 MP stroke
7 -1 13 -6 5 6 -2 3 7 3 5 -1 6 -3 6 -2 
5 -11 7 -3 4 -8 5 -3 6 -4 3 -6 7 -3 4 -8 
4 11 5 -2 6 1 6 3 5 -9 5 21 4 -7 6 -11 
4 -5 3 -1 4 36 3 7 6 -15 4 -23 2 -7 3 3 
3 -12 4 -12 3 -13 3 7 2 16 1 -3 2 11 2 -5 
3 -7 3 -10 1 -1 1 -2 2 -18 2 0 1 -7 2 5 
1 11 2 -10 3 -4 3 -14 1 -1 2 0 1 -5 2 -24 
2 -6 1 24 1 -13 1 -9 -1 7 0 -9 -1 6 -2 -23 
-1 3 0 11 -2 -21 -3 -4 -3 4 -2 12 -2 -12 -2 -8 
-3 -1 -3 13 -3 14 -2 -23 -3 -8 -2 -20 -2 -21 -4 27 
-2 16 -3 1 -4 -15 -1 1 -3 10 -4 -5 -3 8 -4 -9 
-4 -5 -4 -13 -5 -7 -4 3 -3 -4 -6 11 -4 -14 -5 11 
-6 -2 -5 -37 -5 17 1381 2464 100 MP stroke
-5 17 -5 -2 -6 3 -6 11 -6 -6 -5 -3 -6 36 -5 -16 
-4 -22 -5 2 -4 13 -5 11 -4 -3 -6 7 -4 10 -5 -18 
-4 1 -4 2 -4 -1 -3 14 -5 20 -5 -2 -5 -1 -6 7 
-5 3 -4 30 -5 -9 -5 7 -5 4 -5 -13 -4 11 -7 -14 
-6 6 -4 12 -5 -35 -5 36 -5 15 -4 -14 -4 -3 -5 10 
-5 38 -6 -17 -5 38 -7 -46 -10 -108 0 110 -2 47 -8 -32 
-4 3 -6 -7 -6 10 -4 11 -6 -25 -5 5 -6 31 -5 -1 
-6 0 -7 7 -7 -4 -8 24 -6 -11 -5 -23 -7 12 -8 34 
-6 -46 -5 11 -6 -4 -6 5 -7 27 -6 7 -7 -14 -4 52 
-7 -51 -5 -14 -5 24 -12 -87 -2 60 -2 56 -9 -27 -4 17 
-7 -9 -6 -11 -6 5 -7 -12 -6 0 -8 -3 -8 4 -8 7 
-9 -1 -7 1 -8 4 -8 -1 -8 3 -7 10 -7 -3 -8 2 
-6 9 -7 4 -7 -2 1946 2219 100 MP stroke
-6 9 -5 6 -6 -6 -6 15 -6 -7 -5 3 -5 7 -7 -13 
-2 33 -11 -47 -9 -43 0 66 -5 2 -5 13 -7 -25 -10 -57 
-4 15 -8 -12 -7 -3 -7 -5 -3 36 -4 47 -7 -12 -6 12 
-15 -42 -4 12 0 59 -14 -74 -10 -39 -8 4 -9 6 -7 15 
-11 -31 -3 30 -3 38 -8 7 -7 7 -15 -45 -6 18 1 41 
-11 -5 -7 8 -13 -45 -20 -55 -3 23 -3 36 -11 -1 -7 5 
-3 51 -6 15 -12 -16 -1 31 -15 -30 -16 -23 2 30 -16 -26 
-6 9 -4 -11 -18 -62 -8 -4 -20 -26 -5 -18 -3 40 -13 27 
2 18 -22 -14 -3 12 3 22 -30 -24 -1 3 -7 -4 -18 -5 
2 8 -19 -15 -8 -7 -3 0 -21 6 4 -3 -6 2 -25 17 
1 -6 -11 5 -14 3 1 -20 -18 11 -4 -1 -7 9 -14 18 
1 -22 -28 31 -4 -7 12 -42 -22 26 0 -15 -7 -4 -13 14 
1 -22 -13 20 -3 0 2719 2212 100 MP stroke
-5 -10 -11 8 1 -13 -12 18 -4 -2 2 -21 -7 0 -6 1 
-12 26 -2 -14 6 -14 -15 28 -7 -14 -1 8 -10 12 0 -37 
-2 37 -2 1 -3 -25 -9 25 1 -14 -12 39 -7 12 8 -58 
-9 26 -4 17 0 -8 -4 4 -4 -13 -5 -3 -2 4 -5 10 
-4 -9 -8 -4 -4 -18 4 -39 -11 31 -5 -3 -1 -21 -9 27 
-1 -27 -5 1 -6 10 1 -41 -5 9 -8 41 -2 -1 0 -16 
-8 36 -6 22 0 -33 -4 -7 -8 26 -3 -1 1 -38 -7 21 
-6 33 1 -38 -6 0 -2 -4 0 -45 -5 21 -6 35 0 -34 
-1 -29 -9 39 -5 2 0 -46 -5 -9 -5 -6 -5 -7 -5 3 
-5 -6 -6 -7 -6 -7 -6 -6 -6 0 -6 3 -6 7 -7 22 
-5 12 -4 -6 -6 4 -6 -19 -7 -23 -5 -4 -6 -13 -7 -22 
-6 -16 -7 8 -6 41 -5 -50 -6 31 -6 -33 -6 66 -7 -15 
-4 173 -9 2 -13 -23 3188 2182 100 MP stroke
0 -13 -9 -23 -13 -15 -6 -26 -7 -62 -1 -34 -6 29 -10 -41 
-5 81 -10 -62 -6 116 -8 5 -8 3 -6 6 -9 -4 -6 7 
-8 28 -9 24 -7 -34 -9 -57 -7 -59 -10 -62 -8 -19 -9 61 
-8 -37 -9 117 -11 18 -7 -17 -11 -23 -8 -16 -7 -20 -11 5 
-7 30 -9 2 -7 -2 -9 -22 -9 -9 -8 -6 -9 -54 -8 -47 
-11 99 -8 33 -9 5 -10 -9 -9 -8 -11 9 3561 2285 47 MP stroke
gr

c8
0 sg
%%IncludeResource: font Helvetica
/Helvetica /WindowsLatin1Encoding 120 FMSR

1382  293 mt 
(Experiment 2a - Analog magnetometers - RMSE of position - f\
unction of distance) s
2502 4939 mt 
(Distance to center of sensor network [m]) s
 558 2825 mt  -90 rotate
(RMSE [mm]) s
90 rotate

end %%Color Dict

eplot
%%EndObject

epage
end

showpage

%%Trailer
%%EOF
