%!PS-Adobe-2.0 EPSF-1.2
%%Creator: MATLAB, The MathWorks, Inc. Version 7.13.0.564 (R2011b). Operating System: Microsoft Windows 7.
%%Title: ..\figures\analog_ort_pos_rmse.eps
%%CreationDate: 11/13/2012  17:43:14
%%DocumentNeededFonts: Helvetica
%%DocumentProcessColors: Cyan Magenta Yellow Black
%%Extensions: CMYK
%%Pages: 1
%%BoundingBox:    56   196   542   602
%%EndComments

%%BeginProlog
% MathWorks dictionary
/MathWorks 160 dict begin
% definition operators
/bdef {bind def} bind def
/ldef {load def} bind def
/xdef {exch def} bdef
/xstore {exch store} bdef
% operator abbreviations
/c  /clip ldef
/cc /concat ldef
/cp /closepath ldef
/gr /grestore ldef
/gs /gsave ldef
/mt /moveto ldef
/np /newpath ldef
/cm /currentmatrix ldef
/sm /setmatrix ldef
/rm /rmoveto ldef
/rl /rlineto ldef
/s {show newpath} bdef
/sc {setcmykcolor} bdef
/sr /setrgbcolor ldef
/sg /setgray ldef
/w /setlinewidth ldef
/j /setlinejoin ldef
/cap /setlinecap ldef
/rc {rectclip} bdef
/rf {rectfill} bdef
% page state control
/pgsv () def
/bpage {/pgsv save def} bdef
/epage {pgsv restore} bdef
/bplot /gsave ldef
/eplot {stroke grestore} bdef
% orientation switch
/portraitMode 0 def /landscapeMode 1 def /rotateMode 2 def
% coordinate system mappings
/dpi2point 0 def
% font control
/FontSize 0 def
/FMS {/FontSize xstore findfont [FontSize 0 0 FontSize neg 0 0]
  makefont setfont} bdef
/ISOLatin1Encoding where {pop /WindowsLatin1Encoding 256 array bdef
ISOLatin1Encoding WindowsLatin1Encoding copy pop
/.notdef/.notdef/quotesinglbase/florin/quotedblbase/ellipsis/dagger
/daggerdbl/circumflex/perthousand/Scaron/guilsinglleft/OE/.notdef/.notdef
/.notdef/.notdef/quoteleft/quoteright/quotedblleft/quotedblright/bullet
/endash/emdash/tilde/trademark/scaron/guilsinglright/oe/.notdef/.notdef
/Ydieresis WindowsLatin1Encoding 128 32 getinterval astore pop}
{/WindowsLatin1Encoding StandardEncoding bdef} ifelse
/reencode {exch dup where {pop load} {pop StandardEncoding} ifelse
  exch dup 3 1 roll findfont dup length dict begin
  { 1 index /FID ne {def}{pop pop} ifelse } forall
  /Encoding exch def currentdict end definefont pop} bdef
/isroman {findfont /CharStrings get /Agrave known} bdef
/FMSR {3 1 roll 1 index dup isroman {reencode} {pop pop} ifelse
  exch FMS} bdef
/csm {1 dpi2point div -1 dpi2point div scale neg translate
 dup landscapeMode eq {pop -90 rotate}
  {rotateMode eq {90 rotate} if} ifelse} bdef
% line types: solid, dotted, dashed, dotdash
/SO { [] 0 setdash } bdef
/DO { [.5 dpi2point mul 4 dpi2point mul] 0 setdash } bdef
/DA { [6 dpi2point mul] 0 setdash } bdef
/DD { [.5 dpi2point mul 4 dpi2point mul 6 dpi2point mul 4
  dpi2point mul] 0 setdash } bdef
% macros for lines and objects
/L {lineto stroke} bdef
/MP {3 1 roll moveto 1 sub {rlineto} repeat} bdef
/AP {{rlineto} repeat} bdef
/PDlw -1 def
/W {/PDlw currentlinewidth def setlinewidth} def
/PP {closepath eofill} bdef
/DP {closepath stroke} bdef
/MR {4 -2 roll moveto dup  0 exch rlineto exch 0 rlineto
  neg 0 exch rlineto closepath} bdef
/FR {MR stroke} bdef
/PR {MR fill} bdef
/L1i {{currentfile picstr readhexstring pop} image} bdef
/tMatrix matrix def
/MakeOval {newpath tMatrix currentmatrix pop translate scale
0 0 1 0 360 arc tMatrix setmatrix} bdef
/FO {MakeOval stroke} bdef
/PO {MakeOval fill} bdef
/PD {currentlinewidth 2 div 0 360 arc fill
   PDlw -1 eq not {PDlw w /PDlw -1 def} if} def
/FA {newpath tMatrix currentmatrix pop translate scale
  0 0 1 5 -2 roll arc tMatrix setmatrix stroke} bdef
/PA {newpath tMatrix currentmatrix pop	translate 0 0 moveto scale
  0 0 1 5 -2 roll arc closepath tMatrix setmatrix fill} bdef
/FAn {newpath tMatrix currentmatrix pop translate scale
  0 0 1 5 -2 roll arcn tMatrix setmatrix stroke} bdef
/PAn {newpath tMatrix currentmatrix pop translate 0 0 moveto scale
  0 0 1 5 -2 roll arcn closepath tMatrix setmatrix fill} bdef
/vradius 0 def /hradius 0 def /lry 0 def
/lrx 0 def /uly 0 def /ulx 0 def /rad 0 def
/MRR {/vradius xdef /hradius xdef /lry xdef /lrx xdef /uly xdef
  /ulx xdef newpath tMatrix currentmatrix pop ulx hradius add uly
  vradius add translate hradius vradius scale 0 0 1 180 270 arc 
  tMatrix setmatrix lrx hradius sub uly vradius add translate
  hradius vradius scale 0 0 1 270 360 arc tMatrix setmatrix
  lrx hradius sub lry vradius sub translate hradius vradius scale
  0 0 1 0 90 arc tMatrix setmatrix ulx hradius add lry vradius sub
  translate hradius vradius scale 0 0 1 90 180 arc tMatrix setmatrix
  closepath} bdef
/FRR {MRR stroke } bdef
/PRR {MRR fill } bdef
/MlrRR {/lry xdef /lrx xdef /uly xdef /ulx xdef /rad lry uly sub 2 div def
  newpath tMatrix currentmatrix pop ulx rad add uly rad add translate
  rad rad scale 0 0 1 90 270 arc tMatrix setmatrix lrx rad sub lry rad
  sub translate rad rad scale 0 0 1 270 90 arc tMatrix setmatrix
  closepath} bdef
/FlrRR {MlrRR stroke } bdef
/PlrRR {MlrRR fill } bdef
/MtbRR {/lry xdef /lrx xdef /uly xdef /ulx xdef /rad lrx ulx sub 2 div def
  newpath tMatrix currentmatrix pop ulx rad add uly rad add translate
  rad rad scale 0 0 1 180 360 arc tMatrix setmatrix lrx rad sub lry rad
  sub translate rad rad scale 0 0 1 0 180 arc tMatrix setmatrix
  closepath} bdef
/FtbRR {MtbRR stroke } bdef
/PtbRR {MtbRR fill } bdef
/stri 6 array def /dtri 6 array def
/smat 6 array def /dmat 6 array def
/tmat1 6 array def /tmat2 6 array def /dif 3 array def
/asub {/ind2 exch def /ind1 exch def dup dup
  ind1 get exch ind2 get sub exch } bdef
/tri_to_matrix {
  2 0 asub 3 1 asub 4 0 asub 5 1 asub
  dup 0 get exch 1 get 7 -1 roll astore } bdef
/compute_transform {
  dmat dtri tri_to_matrix tmat1 invertmatrix 
  smat stri tri_to_matrix tmat2 concatmatrix } bdef
/ds {stri astore pop} bdef
/dt {dtri astore pop} bdef
/db {2 copy /cols xdef /rows xdef mul dup 3 mul string
  currentfile exch readhexstring pop
  dup 0 3 index getinterval /rbmap xdef
  dup 2 index dup getinterval /gbmap xdef
  1 index dup 2 mul exch getinterval /bbmap xdef pop pop}bdef
/it {gs np dtri aload pop moveto lineto lineto cp c
  cols rows 8 compute_transform 
  rbmap gbmap bbmap true 3 colorimage gr}bdef
/il {newpath moveto lineto stroke}bdef
currentdict end def
%%EndProlog

%%BeginSetup
MathWorks begin

0 cap

end
%%EndSetup

%%Page: 1 1
%%BeginPageSetup
%%PageBoundingBox:    56   196   542   602
MathWorks begin
bpage
%%EndPageSetup

%%BeginObject: obj1
bplot

/dpi2point 12 def
portraitMode 0204 7344 csm

  469   110  5836  4881 MR c np
85 dict begin %Colortable dictionary
/c0 { 0.000000 0.000000 0.000000 sr} bdef
/c1 { 1.000000 1.000000 1.000000 sr} bdef
/c2 { 0.900000 0.000000 0.000000 sr} bdef
/c3 { 0.000000 0.820000 0.000000 sr} bdef
/c4 { 0.000000 0.000000 0.800000 sr} bdef
/c5 { 0.910000 0.820000 0.320000 sr} bdef
/c6 { 1.000000 0.260000 0.820000 sr} bdef
/c7 { 0.000000 0.820000 0.820000 sr} bdef
c0
1 j
1 sg
   0    0 6913 5185 PR
6 w
0 4225 5357 0 0 -4225 898 4614 4 MP
PP
-5357 0 0 4225 5357 0 0 -4225 898 4614 5 MP stroke
4 w
DO
SO
6 w
0 sg
 898  389 mt 6255  389 L
 898 4614 mt 6255 4614 L
6255 4614 mt 6255  389 L
 898 4614 mt  898  389 L
 898 4614 mt 6255 4614 L
 898 4614 mt  898  389 L
 898 4614 mt  898 4614 L
 898 4614 mt  898 4614 L
 898 4614 mt  898 4614 L
 898 4614 mt  898 4614 L
 898 4614 mt  898 4614 L
 898 4614 mt  898 4614 L
 898 4614 mt  898 4614 L
 898 4614 mt  898 4614 L
 898 4614 mt  898 4614 L
 898 4614 mt  898 4614 L
 898 4614 mt  898 4614 L
 898 4614 mt  898 4614 L
 898 4614 mt  898 4614 L
 898 4614 mt  898 4614 L
 898 4614 mt  898 4614 L
 898 4614 mt  898 4614 L
 898 4614 mt  898 4614 L
 898 4614 mt  898 4614 L
2046 4614 mt 2046 4560 L
2046  389 mt 2046  442 L
%%IncludeResource: font Helvetica
/Helvetica /WindowsLatin1Encoding 120 FMSR

1901 4796 mt 
(10) s
%%IncludeResource: font Helvetica
/Helvetica /WindowsLatin1Encoding 80 FMSR

2034 4722 mt 
(-0.8) s
 898 4614 mt  898 4614 L
 898 4614 mt  898 4614 L
 898 4614 mt  898 4614 L
 898 4614 mt  898 4614 L
 898 4614 mt  898 4614 L
 898 4614 mt  898 4614 L
 898 4614 mt  898 4614 L
 898 4614 mt  898 4614 L
 898 4614 mt  898 4614 L
 898 4614 mt  898 4614 L
 898 4614 mt  898 4614 L
 898 4614 mt  898 4614 L
 898 4614 mt  898 4614 L
 898 4614 mt  898 4614 L
 898 4614 mt  898 4614 L
 898 4614 mt  898 4614 L
 898 4614 mt  898 4614 L
 898 4614 mt  898 4614 L
3603 4614 mt 3603 4560 L
3603  389 mt 3603  442 L
%%IncludeResource: font Helvetica
/Helvetica /WindowsLatin1Encoding 120 FMSR

3458 4796 mt 
(10) s
%%IncludeResource: font Helvetica
/Helvetica /WindowsLatin1Encoding 80 FMSR

3591 4722 mt 
(-0.7) s
 898 4614 mt  898 4614 L
 898 4614 mt  898 4614 L
 898 4614 mt  898 4614 L
 898 4614 mt  898 4614 L
 898 4614 mt  898 4614 L
 898 4614 mt  898 4614 L
 898 4614 mt  898 4614 L
 898 4614 mt  898 4614 L
 898 4614 mt  898 4614 L
 898 4614 mt  898 4614 L
 898 4614 mt  898 4614 L
 898 4614 mt  898 4614 L
 898 4614 mt  898 4614 L
 898 4614 mt  898 4614 L
 898 4614 mt  898 4614 L
 898 4614 mt  898 4614 L
 898 4614 mt  898 4614 L
 898 4614 mt  898 4614 L
5160 4614 mt 5160 4560 L
5160  389 mt 5160  442 L
%%IncludeResource: font Helvetica
/Helvetica /WindowsLatin1Encoding 120 FMSR

5015 4796 mt 
(10) s
%%IncludeResource: font Helvetica
/Helvetica /WindowsLatin1Encoding 80 FMSR

5148 4722 mt 
(-0.6) s
 898 4614 mt  898 4614 L
 898 4614 mt  898 4614 L
 898 4614 mt  898 4614 L
 898 4614 mt  898 4614 L
 898 4614 mt  898 4614 L
 898 4614 mt  898 4614 L
 898 4614 mt  898 4614 L
 898 4614 mt  898 4614 L
 898 4614 mt  898 4614 L
 898 4614 mt  898 4614 L
 898 4614 mt  898 4614 L
 898 4614 mt  898 4614 L
 898 4614 mt  898 4614 L
 898 4614 mt  898 4614 L
 898 4614 mt  898 4614 L
 898 4614 mt  898 4614 L
 898 4614 mt  898 4614 L
 898 4614 mt  898 4614 L
 898 4614 mt  925 4614 L
6255 4614 mt 6228 4614 L
 898 4614 mt  952 4614 L
6255 4614 mt 6201 4614 L
%%IncludeResource: font Helvetica
/Helvetica /WindowsLatin1Encoding 120 FMSR

 687 4658 mt 
(10) s
%%IncludeResource: font Helvetica
/Helvetica /WindowsLatin1Encoding 80 FMSR

 820 4584 mt 
(0) s
 898 3978 mt  925 3978 L
6255 3978 mt 6228 3978 L
 898 3606 mt  925 3606 L
6255 3606 mt 6228 3606 L
 898 3342 mt  925 3342 L
6255 3342 mt 6228 3342 L
 898 3137 mt  925 3137 L
6255 3137 mt 6228 3137 L
 898 2970 mt  925 2970 L
6255 2970 mt 6228 2970 L
 898 2828 mt  925 2828 L
6255 2828 mt 6228 2828 L
 898 2706 mt  925 2706 L
6255 2706 mt 6228 2706 L
 898 2598 mt  925 2598 L
6255 2598 mt 6228 2598 L
 898 2501 mt  925 2501 L
6255 2501 mt 6228 2501 L
 898 2501 mt  952 2501 L
6255 2501 mt 6201 2501 L
%%IncludeResource: font Helvetica
/Helvetica /WindowsLatin1Encoding 120 FMSR

 687 2545 mt 
(10) s
%%IncludeResource: font Helvetica
/Helvetica /WindowsLatin1Encoding 80 FMSR

 820 2471 mt 
(1) s
 898 1865 mt  925 1865 L
6255 1865 mt 6228 1865 L
 898 1493 mt  925 1493 L
6255 1493 mt 6228 1493 L
 898 1229 mt  925 1229 L
6255 1229 mt 6228 1229 L
 898 1024 mt  925 1024 L
6255 1024 mt 6228 1024 L
 898  857 mt  925  857 L
6255  857 mt 6228  857 L
 898  716 mt  925  716 L
6255  716 mt 6228  716 L
 898  593 mt  925  593 L
6255  593 mt 6228  593 L
 898  485 mt  925  485 L
6255  485 mt 6228  485 L
 898  389 mt  925  389 L
6255  389 mt 6228  389 L
 898  389 mt  952  389 L
6255  389 mt 6201  389 L
%%IncludeResource: font Helvetica
/Helvetica /WindowsLatin1Encoding 120 FMSR

 687  433 mt 
(10) s
%%IncludeResource: font Helvetica
/Helvetica /WindowsLatin1Encoding 80 FMSR

 820  359 mt 
(2) s
 898  389 mt 6255  389 L
 898 4614 mt 6255 4614 L
6255 4614 mt 6255  389 L
 898 4614 mt  898  389 L
gs 898 389 5358 4226 MR c np
/c8 { 0.000000 0.000000 1.000000 sr} bdef
c8
8 2 0 -1 9 21 -2 -4 10 2 6 5 2 -6 13 -2 
-1 -11 10 -8 15 13 10 14 10 -13 9 -11 20 6 5 1 
-1 -14 12 -14 4 -3 11 -9 7 2 3 -13 16 -4 6 -9 
1 -10 13 31 12 10 8 -1 11 24 21 18 6 -7 1 -17 
17 -2 2 -5 6 -20 8 -17 0 1 10 32 6 -20 12 4 
8 25 0 -13 15 21 1 5 5 8 10 17 3 -9 11 -2 
4 0 8 17 -5 -35 -1 -35 18 12 3 -26 16 64 23 65 
13 -15 10 -6 3 4 8 -19 1 -52 6 -21 17 33 7 40 
10 27 6 -13 11 -3 3 -21 7 -26 25 29 3 10 7 30 
14 3 -2 -24 8 31 12 51 11 37 8 30 8 2 7 -9 
6 -7 11 -6 5 -13 12 23 12 8 6 -2 13 -3 7 -1 
6 17 5 -6 10 -8 8 -6 -2 6 12 14 18 -3 4 12 
13 12 12 -16 0 -50 3254 2246 100 MP stroke
4 -48 9 -22 8 10 8 29 9 -1 13 -41 18 -12 6 7 
-1 14 12 20 8 22 8 20 13 -24 -7 -57 16 -48 27 -60 
-6 -62 6 -27 10 31 1 34 6 -1 2 -53 11 -5 6 9 
8 -24 16 25 3 -44 7 -51 5 17 4 -1 10 -68 0 -88 
9 43 10 73 6 -34 8 -86 0 -46 -1 -8 -2 -38 3 -36 
2 6 -5 -56 2 -13 4 32 5 -27 7 32 -1 -5 0 -40 
1 19 -1 -4 5 -29 -3 17 -1 -40 8 -17 -13 12 -12 22 
7 55 -4 27 0 -26 -2 -45 -4 -38 2 -53 -3 3 -4 33 
-4 -12 -3 -37 -11 -39 -5 4 7 -3 -10 -14 -5 30 -1 54 
-8 -12 0 -68 -6 -37 -3 -29 -6 25 -9 82 6 -15 -11 -91 
-16 -8 -2 -4 -6 -2 -4 -22 -4 -1 -8 48 -6 12 -6 36 
-6 -38 -5 -82 1 -8 -7 50 -17 38 -5 -48 -8 -12 -14 -5 
-7 8 -4 68 -4 -24 3188 3168 100 MP stroke
-8 -48 -5 -10 -7 36 -11 14 -3 -57 -9 -2 -18 18 -10 -11 
-8 31 -14 12 -14 -27 -6 -26 -6 64 -9 -10 -9 -24 -13 14 
-5 7 -9 20 -26 -4 -17 5 -7 -34 -10 19 -16 -4 -8 -35 
-11 2 -15 -24 -13 -4 -17 6 -10 -38 -11 52 -8 14 -4 -21 
-28 -3 -24 5 -13 -5 -15 -45 -7 34 -15 4 -18 27 -10 22 
-14 -57 -14 -3 -6 -9 -14 24 -30 -16 -18 21 -10 66 -12 -49 
-11 11 -15 -7 -15 7 -15 31 -13 -46 -12 10 -16 1 -22 -6 
-18 31 -12 15 -22 66 -6 -53 -25 -10 -36 7 0 -47 -19 51 
-15 -8 4 1 -20 14 -13 25 -14 -21 -29 -60 -21 -23 -16 23 
-15 59 -16 -22 -13 -32 -32 -8 -14 -24 2 32 -22 -41 -13 10 
-13 -1 -17 11 -12 45 -15 -17 -12 -2 -16 -16 -12 19 -25 -12 
-15 -26 6 50 -20 -30 -8 14 -8 28 -18 -13 -3 32 -24 -42 
-14 9 1 19 -12 -10 4514 3173 100 MP stroke
1 46 -5 15 -10 -6 -8 -2 -9 -1 -6 15 -10 -14 -11 -4 
-5 2 -9 4 -7 7 -5 9 -13 -13 -5 -1 -1 31 -15 -28 
2 34 1 32 -28 -92 -15 -25 -5 -1 2 33 6 55 -9 -9 
3 51 1 39 -15 -40 -10 -14 -14 -30 -2 26 -1 31 -21 -51 
-1 19 -5 6 -12 -17 2 35 -13 -42 0 26 -8 -14 -24 -110 
3 68 -15 -40 -11 -34 12 107 -13 -34 -6 4 0 23 -7 -11 
-3 14 -8 -18 -2 16 -8 -14 -9 -17 0 30 -3 6 -5 -8 
-4 -3 -3 -7 -7 -29 0 5 -3 0 -4 -3 0 19 -10 -37 
2 24 0 12 -7 -25 3 23 -5 -24 0 13 -1 1 -3 -18 
3 22 -2 -5 2 14 -2 -6 1 1 0 -5 -2 -22 3 14 
-2 -26 3 21 2 8 -2 -21 7 28 0 -14 2 1 -2 -28 
2 3 13 64 -3 -37 -3 -38 5 17 9 42 0 -25 -2 -42 
18 105 9 36 -3 -49 4859 3070 100 MP stroke
1 -24 0 -45 -2 -42 10 42 11 55 -4 -46 1 -17 0 -20 
3 2 7 25 -6 -68 1 -20 5 1 -1 -56 16 87 12 65 
-4 -55 4 -8 -1 -26 2 -5 10 41 1 -20 5 1 3 -8 
3 -13 4 1 1 -17 8 22 2 -18 3 2 15 64 1 -22 
-3 -35 4 0 3 -9 7 23 7 23 0 -16 6 3 5 -2 
-2 -34 7 4 4 -5 4 -15 9 9 -1 -30 5 5 7 7 
5 -8 6 1 1 -15 23 60 17 59 -4 -52 1 -32 0 -37 
3 -17 7 -7 9 -6 14 19 -2 -29 4 -6 20 45 6 5 
1 -10 13 16 3 -4 7 17 25 30 9 -20 -3 -29 1 -35 
8 -34 16 6 3 -6 4 21 18 16 4 14 12 -2 29 -29 
7 -11 -5 20 4 1 11 -8 25 -12 2 16 0 38 29 -34 
6 18 4 18 19 -35 0 30 8 28 11 1 16 -46 21 -40 
-3 57 9 8 18 -12 4244 3296 100 MP stroke
3 51 20 -40 21 -19 -2 63 8 1 13 -23 9 21 17 -10 
10 6 16 3 16 39 13 48 25 -115 7 -20 2 126 15 -6 
13 15 15 29 12 10 22 26 20 -10 7 3 13 17 16 -13 
19 -26 8 65 18 -5 27 -90 -1 106 16 43 24 -16 15 42 
21 -19 11 4 14 13 16 7 12 24 17 4 23 3 28 -18 
15 21 13 21 15 -11 12 25 14 15 16 -3 12 26 11 40 
24 -26 25 -30 19 27 8 42 14 9 26 -17 -8 58 14 1 
35 -24 14 -5 41 -162 12 82 2 127 33 -62 4 61 15 5 
18 -1 12 40 26 -30 9 -7 15 -22 24 -15 25 -6 11 31 
9 26 19 -10 18 -30 34 -117 2 98 2 66 29 -82 8 48 
28 -47 20 -9 13 42 31 -93 3 63 8 62 15 -12 11 25 
11 -35 8 23 35 19 16 -21 10 19 17 -8 -10 12 23 20 
30 6 -4 33 22 -80 2731 2729 100 MP stroke
29 -114 0 90 9 57 16 -4 5 37 14 -23 7 13 6 -2 
17 -9 -11 4 2 -21 20 38 1 11 18 -2 13 9 2 5 
15 41 8 1 6 18 12 5 8 -70 3 32 0 50 7 -43 
1 -39 6 -17 12 14 5 27 9 51 4 24 3 -17 6 3 
3 6 4 0 2 -4 3 -2 4 31 2 27 1 5 3 -1 
6 -1 2 -5 0 10 1 3 9 -6 7 16 -7 13 -1 9 
1 14 -3 8 1 -17 -4 -20 0 27 1 24 -5 -6 -1 -17 
0 -19 -1 1 -2 -20 5 16 -4 19 -16 4 -9 38 -3 -7 
-6 -26 -7 0 -6 -7 -11 -29 -8 -5 -2 32 -16 -33 -12 -73 
1 -18 -8 40 -11 53 -13 18 -11 -17 -12 10 -11 23 -6 8 
-17 -5 -16 -60 -17 -27 -25 27 -2 -41 -10 10 -21 59 -9 -4 
-15 -35 -13 -18 -17 -18 -13 -13 -13 -19 -40 -53 -16 3 -1 61 
-17 1 -7 -1 -19 6 2906 2565 100 MP stroke
-19 21 -13 -2 -23 -48 -13 -13 -20 14 -21 22 -13 -5 -20 -38 
-17 -43 -18 -14 -15 61 -18 33 -19 -27 -13 18 -21 56 -17 12 
-17 -17 -16 -23 -16 -27 -21 -17 -16 25 -18 14 -17 -24 -16 -19 
-15 9 -14 26 -24 -10 -20 -4 -16 0 -17 -26 -18 9 -15 14 
-13 8 -31 -2 -14 16 -11 -12 -25 -62 -8 35 -22 1 -22 -43 
-10 1 -18 -12 -17 -20 -15 20 -12 13 -23 -23 -18 13 -12 22 
-19 0 -11 19 -17 -25 -19 -42 -18 -8 -19 -2 -11 -7 -17 -7 
-11 19 -16 -4 -22 -15 -14 -4 -16 -18 -11 -14 -19 -4 -15 40 
-12 42 -27 -64 -15 -45 -8 12 -13 8 -16 -4 -13 -16 -11 4 
-28 -42 -15 -10 -13 -24 -29 -38 -1 87 -5 48 -20 -29 -4 24 
-16 2 -25 -32 -10 -8 -13 3 -18 0 -12 -12 -16 -15 -12 29 
-8 28 -24 -56 -19 -16 -10 28 -12 17 -12 15 -15 7 -18 -37 
-14 -47 -18 -15 -17 12 4507 2849 100 MP stroke
-11 26 -11 20 -14 16 -16 -1 -16 -17 -13 -23 -18 16 -14 46 
-15 -27 -14 15 -9 15 -17 -61 -12 13 -11 8 -21 -40 -15 23 
-14 -21 -13 16 -15 -21 -12 0 -6 83 -16 -38 -13 -30 -12 2 
-17 -14 -11 11 -14 -26 -11 -2 -12 -13 -12 5 -6 61 -12 3 
-12 -8 -11 7 -10 5 -11 5 -10 3 -9 2 -11 -21 -13 -11 
-10 -3 -8 -2 -11 -2 -10 2 -8 1 -11 -19 -8 7 -11 -10 
-10 -2 -3 36 -9 -21 -11 -22 -7 7 -8 9 -10 2 -10 3 
-7 -3 -12 -28 -7 5 -6 -3 -8 -3 -5 30 -8 -30 -11 -33 
-8 -10 -6 8 -9 4 -12 -53 -7 -12 -7 3 -12 -19 -5 -1 
-8 2 -6 27 -5 -8 -12 -20 0 28 -11 -38 -22 -52 11 59 
2 7 -19 -18 -3 46 -2 -1 -8 -8 -8 9 -5 -9 -10 -21 
-8 -21 2 6 -8 -8 -7 -8 -4 -4 -8 -21 -4 0 -5 3 
-5 -8 -6 -10 -7 -17 5458 3066 100 MP stroke
-5 -17 -5 -11 -5 7 -6 2 -4 4 -4 15 -5 -2 -4 -16 
-4 -19 -5 -3 -7 -8 -5 -7 -4 -15 -4 -4 -3 -8 -5 -18 
-2 13 -7 0 5 40 9 82 -10 -20 2 -28 -5 -28 -9 -53 
11 47 1 21 -2 -7 -2 -8 -3 -24 2 0 -1 -4 2 -2 
0 -17 1 1 6 23 12 21 -11 -72 -8 -55 15 55 9 57 
0 -78 7 17 4 -5 -6 -44 1 -41 7 -25 4 -10 6 5 
5 14 0 -60 3 -41 12 67 7 -9 7 4 15 64 4 -23 
3 -23 8 13 0 -22 9 34 16 30 5 -42 7 -12 5 -17 
4 -22 7 -30 8 -16 17 74 6 -23 4 -38 10 33 6 -20 
7 -11 5 -29 17 58 13 25 1 -69 13 67 7 27 11 -1 
8 -41 3 -63 19 122 -2 -33 -1 -79 18 73 8 -6 11 -8 
10 6 11 7 4 -58 3 -62 20 79 12 8 9 8 12 -16 
7 -100 12 8 11 8 5078 3450 100 MP stroke
12 8 9 -8 8 -35 13 23 10 -38 12 22 13 21 6 -90 
15 34 19 55 7 -31 9 -29 13 -2 8 -12 17 7 17 63 
10 -7 15 17 10 65 4 -14 8 -62 15 1 19 54 15 -7 
12 -39 12 30 17 -9 15 -26 8 -55 12 -22 14 4 12 -10 
17 62 12 -5 14 -2 14 9 11 -36 15 34 13 -22 18 49 
17 90 8 -73 19 87 13 35 6 -84 18 26 13 -43 11 -14 
17 36 14 -18 13 -8 15 -7 14 25 11 -2 13 4 22 62 
20 12 8 -47 10 -18 16 14 10 -1 23 58 24 65 7 -52 
12 -20 12 2 8 -39 21 62 18 17 5 -69 17 26 16 5 
9 -26 25 53 17 13 6 -25 13 -3 15 20 15 33 11 -25 
15 16 15 15 14 -53 17 11 11 12 24 4 19 17 -3 -37 
18 -2 21 17 13 5 15 11 10 -16 7 -43 11 -7 30 37 
18 9 5 4 21 17 3735 3265 100 MP stroke
12 8 15 -1 19 7 14 15 18 -16 12 -22 15 -6 15 28 
16 24 22 -11 16 -6 16 -6 14 11 12 14 11 -10 16 8 
21 5 8 8 27 8 31 16 9 15 19 24 5 27 18 -7 
28 -8 12 -5 14 44 19 37 14 -26 16 -24 16 29 17 -21 
17 -4 16 35 13 2 11 13 24 -33 20 -4 11 28 12 -13 
18 23 22 1 15 5 18 15 17 -22 15 2 14 5 12 -14 
27 -31 18 13 14 -6 20 -5 11 54 24 -7 18 2 17 -6 
23 -22 9 45 19 -13 21 -36 14 13 18 27 22 20 24 -8 
13 2 18 -17 22 -26 17 10 19 24 18 27 23 -20 17 2 
30 -70 36 -107 3 52 8 56 23 2 15 21 22 -1 21 -5 
20 0 24 -4 17 13 11 -17 20 -3 22 3 19 -7 26 36 
3 -44 0 -22 52 37 39 -35 0 37 11 68 16 -26 18 -13 
31 -72 20 2 18 38 1992 3086 100 MP stroke
24 -16 15 46 12 16 19 15 20 -16 21 -48 21 6 10 -23 
16 13 20 2 16 15 22 52 -3 -43 -1 -12 26 -24 18 -13 
17 26 16 15 11 25 21 -54 15 24 15 90 22 -51 21 -12 
19 48 15 10 17 12 18 -3 17 5 17 16 15 -11 16 -23 
16 13 16 21 15 -5 17 10 17 1 16 1 10 31 13 12 
24 -13 15 5 11 7 16 -4 12 -10 11 -42 13 -19 12 33 
12 10 8 -5 7 -6 10 -26 16 -22 11 -13 7 -17 10 -63 
10 -30 9 -51 7 -83 5 -49 4 -77 5 -43 0 -75 6 -71 
13 82 5 -49 0 -93 -6 -85 14 -156 20 64 -22 -180 -5 -10 
9 215 -5 167 3 227 -2 153 -2 91 -1 66 -8 43 -3 8 
-13 2 -2 92 5 49 -10 9 -2 42 0 22 -4 25 -13 -19 
-21 -20 -4 17 -4 5 -11 31 -5 7 -9 -35 -10 -23 -8 -6 
-10 33 -11 32 -12 6 1237 2767 100 MP stroke
-8 -30 -11 -30 -11 -4 -6 4 -10 -10 -20 -10 -17 -11 -6 -29 
-10 -2 -12 19 -9 -12 -11 7 -8 -18 -18 -43 -16 18 -14 25 
-18 -19 -6 -60 -14 -15 -12 44 -11 -3 -20 -32 -6 -23 -20 60 
-20 38 -8 -28 -17 18 -9 0 -15 49 -12 -31 -13 -39 -16 30 
-13 15 -31 153 -12 -10 -1 -129 -16 40 -13 8 -22 -20 -10 -20 
-21 -12 -34 40 -14 3 -13 -23 -14 16 -20 14 -13 -9 -10 -29 
-27 -27 -20 -10 -18 21 -19 14 -18 -5 -19 -30 -16 -46 -23 -36 
-12 -36 -20 -6 -31 12 -19 -45 -18 -34 -21 -49 -23 -22 -16 -52 
-18 -39 -25 26 -21 -80 -23 -45 -9 -66 -9 -143 -30 -25 -22 79 
-21 -42 -21 -268 -18 -200 -28 -2 -23 -6 -16 -35 -23 -16 -25 -45 
-23 -47 -10 -203 -25 166 -40 231 -18 -32 -17 36 -24 65 -19 1 
-18 11 -19 151 -30 57 -24 -36 -23 56 -28 87 -18 56 -27 -23 
-24 -22 -19 -73 -23 82 2979 3562 100 MP stroke
-24 134 -18 -50 -22 -17 -46 33 -18 2 -12 1 -32 46 -9 73 
-33 -68 -18 -21 -14 -12 -56 -164 -13 118 -7 139 -27 -25 -20 -12 
-25 -25 -15 113 -45 -44 -27 -50 3 127 -24 -15 -20 -10 -22 17 
-15 -29 -22 66 -38 14 -11 -9 -22 7 -24 -3 -5 78 -37 -59 
-32 -123 3 136 -19 37 -25 -28 -12 64 -30 -81 -12 40 -23 -8 
-36 -119 3 110 -23 -42 -14 -9 -5 126 -37 -33 -9 -23 -32 -86 
-26 17 12 115 -21 -30 -13 43 -13 11 -20 -21 -10 26 -18 0 
-11 22 -16 -11 -17 11 -13 4 -19 -4 -7 20 -16 -28 -16 26 
-9 22 -13 -10 -10 27 -15 -10 -10 20 -12 14 -14 -5 -9 20 
-25 -52 -14 8 1 71 -15 -17 -17 -6 -11 16 -7 -15 -5 1 
-13 1 -11 15 -8 10 -12 -3 -5 30 -17 -36 -17 -32 2 66 
-10 17 -11 5 -7 29 -15 -1 -6 40 -5 37 -14 -23 -11 -9 
-8 -1 -9 -4 -8 9 4594 2811 100 MP stroke
-10 1 -8 12 -9 2 -12 -4 -6 23 -10 7 -7 1 -1 7 
-8 1 -1 24 1 23 -8 12 -13 -9 -13 -16 -2 25 -1 12 
-7 1 -6 -7 -8 -1 1 37 -9 -4 -9 -8 6 39 -5 5 
-6 3 0 27 -2 13 -2 9 -6 -11 -3 2 0 22 -4 4 
-3 4 -4 7 -3 13 -4 5 -4 1 -2 14 -4 10 2 18 
6 21 -6 3 -6 3 -2 5 -5 0 -1 13 0 9 -4 -3 
-4 2 -4 6 -1 11 -2 11 -4 9 3 23 4 26 -7 3 
-6 4 3 10 -4 2 -2 9 -1 1 -4 -5 -4 6 -2 1 
1 3 -6 -6 0 2 8 18 -7 -6 -5 -2 1 13 -3 5 
0 -2 -6 -5 -2 2 1 1 -6 -2 0 -2 -2 -4 -2 -3 
2 5 -3 3 1 0 -1 -1 -4 -8 -3 -10 -2 -10 -1 -8 
-5 -13 3 -2 6 11 -5 -7 -2 -5 1 0 -1 2 0 2 
-4 -20 -2 -6 -1 -7 4886 2379 100 MP stroke
-4 -20 4 12 5 4 -1 -12 -1 -9 -1 -9 -2 -6 -1 -5 
2 1 -3 -11 -1 -7 6 6 1 -5 1 -5 0 -49 1 -5 
2 1 0 -4 1 -9 4 -7 5 11 1 -14 -1 -26 3 1 
3 2 8 33 1 -20 -4 -51 9 21 5 4 1 12 4 20 
0 -31 2 -18 3 -2 5 -5 3 -11 8 2 10 10 4 4 
4 -5 -2 4 -1 32 5 -15 3 -11 3 9 4 -12 3 -3 
3 -18 9 25 0 -97 9 39 3 -12 8 22 7 30 -1 -34 
8 39 1 -17 3 -10 5 12 0 -36 9 36 3 -21 -1 -37 
5 13 5 0 8 42 1 -22 0 -32 9 41 2 -16 1 -41 
4 0 4 -3 4 -1 6 3 3 -14 7 16 3 -7 2 -18 
10 44 2 -16 3 -13 6 31 -1 -58 5 -47 6 -4 0 -21 
12 40 13 35 2 -17 3 -3 3 -18 4 10 7 19 -2 -69 
6 7 6 10 1 -47 4568 2812 100 MP stroke
13 72 3 -21 2 -20 10 50 -1 -52 7 9 5 -17 -1 -65 
6 8 7 7 6 10 4 -12 15 82 10 55 -2 -73 0 -41 
5 -3 12 52 4 -21 1 -39 6 20 0 -63 15 83 7 23 
-6 -98 16 101 5 -15 0 -45 12 50 0 -52 5 18 5 9 
0 -53 12 47 11 29 1 -23 2 -17 8 10 4 -19 5 5 
12 48 -1 -54 11 50 16 83 -5 -86 1 -38 0 -51 11 7 
20 111 -4 -50 6 3 10 37 -1 -49 12 57 6 9 -2 -66 
0 -39 4 -6 12 65 3 -5 -3 -70 7 18 15 66 -2 -44 
3 -8 13 61 -3 -56 8 25 5 13 0 -44 20 92 4 -2 
-1 -48 -1 -28 2 -9 9 42 -1 -41 15 48 11 35 -5 -73 
2 -24 1 -39 12 37 5 1 -3 -65 12 34 11 21 11 21 
8 11 7 3 3 -7 6 -11 14 52 -2 -48 4 -19 18 67 
2 -39 3 -22 6 -13 4027 2858 100 MP stroke
7 9 18 56 5 -19 -4 -47 5 -18 11 20 8 -12 6 -18 
10 17 -2 -59 15 44 34 129 -4 -66 -4 -56 19 48 0 -32 
6 -14 4 -18 5 -10 19 48 1 -28 5 -17 6 -15 14 9 
33 114 2 -35 -5 -76 4 -12 -1 -43 13 28 11 17 9 -1 
10 9 7 -9 16 26 9 0 9 -2 27 50 9 -20 -10 -82 
14 10 13 12 0 -45 10 2 10 -3 11 -11 11 -3 8 -3 
9 -18 7 -23 22 73 13 26 2 -76 14 2 11 -33 12 -23 
13 11 19 10 17 39 -5 -21 14 -27 16 -22 5 16 27 57 
13 -14 19 49 18 7 13 8 13 -11 8 8 13 -16 12 6 
10 -21 13 -64 10 7 14 -13 17 -21 12 2 14 25 11 23 
13 47 11 89 16 -44 26 -60 1 0 6 11 22 5 6 0 
18 5 15 9 12 -18 23 7 9 -1 9 -41 13 9 14 -8 
15 19 9 -3 15 -42 2964 3034 100 MP stroke
10 -1 14 6 16 27 12 14 17 -25 11 -9 16 4 14 45 
14 52 16 -36 8 -3 27 -46 17 -1 -2 69 16 -81 9 -38 
19 34 21 7 2 16 19 -61 11 -17 8 2 28 -95 6 49 
3 134 16 21 11 59 14 -15 12 -77 11 -22 15 -59 11 8 
9 7 7 19 11 11 11 46 8 120 9 -99 11 -74 7 36 
6 24 16 -62 12 -83 -3 140 9 -39 13 -136 1 95 3 53 
9 16 12 -51 3 -22 8 45 20 -123 6 22 0 78 6 -72 
3 52 4 69 4 51 9 -29 2 -58 4 0 11 16 5 -6 
10 -164 5 34 0 147 8 -64 4 -16 5 33 5 -8 1 3 
5 -33 5 20 5 -7 -2 1 4 22 7 4 -1 40 4 14 
4 0 0 -16 5 24 1 37 2 35 5 56 -1 34 0 46 
4 13 -2 19 -3 -19 -1 -40 -1 -7 0 20 1 56 -1 40 
-1 -1 -1 -32 0 34 2230 2702 100 MP stroke
1 30 -2 -23 -1 32 1 49 -3 -19 -5 -21 -4 20 -3 22 
-4 28 -4 22 -3 -11 -4 -13 -4 -17 -4 -13 -7 22 -1 9 
-3 -23 -10 -10 -9 10 -4 28 -5 10 -8 -1 -7 21 -9 8 
-9 -11 -5 -26 -7 -31 -10 0 -11 10 -12 5 -8 -17 -8 -11 
-10 9 -10 5 -10 22 -8 -8 -9 -16 -15 -8 -10 -20 -9 7 
-12 -1 -9 -10 -11 -11 -13 -17 -12 5 -11 -2 -11 -16 -16 14 
-15 20 -12 -4 -11 -8 -9 -7 -12 -2 -14 -5 -13 -5 -12 -21 
-9 -2 -15 5 -20 -5 -16 -5 -10 -19 -10 2 -14 25 -12 4 
-17 -10 -13 -12 -8 -15 -17 15 -17 0 -11 -28 -13 -8 -12 -2 
-12 9 -16 38 -13 13 -13 -3 -14 -35 -12 -34 -14 -4 -13 20 
-10 1 -13 -20 -15 7 -13 9 -10 -2 -15 7 -16 -27 -12 -25 
-15 1 -13 -13 -14 21 -13 -17 -10 -37 -20 33 -11 -4 -15 -1 
-25 37 -3 -33 -6 -6 3246 2822 100 MP stroke
-19 1 -4 -33 -15 -2 -26 10 -13 -5 -20 -4 3 -7 22 36 
-19 36 -14 -11 -5 -12 -21 2 -5 -32 -19 -18 -21 1 -9 -1 
-14 15 -9 -8 -19 -3 -7 17 -16 18 -50 -48 -23 -59 -8 -21 
-17 -31 -11 9 -15 -4 -12 1 -11 27 -14 6 -12 2 -13 -7 
-13 1 -13 -19 -14 9 -11 9 -10 -17 -16 -5 -10 -24 -12 -2 
-16 -6 -9 -28 -16 4 -12 4 -12 -8 -14 12 1 52 -11 25 
-13 -29 -10 11 -17 -26 -16 20 -15 12 -8 -57 -21 47 -19 18 
2 -41 -12 -9 -13 -36 -5 -10 -17 7 -21 36 -9 -20 -10 -37 
-26 45 -8 -36 -1 -44 -14 14 -11 1 -10 -5 -12 -11 -12 3 
-10 -5 -15 4 -11 -19 -10 -22 -15 22 -6 -9 -19 44 -16 27 
1 -63 -10 -16 -10 -8 -17 29 -13 8 2 -52 -10 -6 -17 17 
-21 33 -4 -41 -11 45 -30 134 4 -88 2 -66 -4 -45 2 -71 
-19 38 -11 18 -4 -18 4440 3197 100 MP stroke
-5 -8 -13 5 -14 -3 1 -67 -14 6 -13 23 1 -63 -13 -22 
-12 14 -5 -25 -9 -5 -4 -7 5 -12 -13 15 -15 21 1 -29 
-7 -15 -5 -23 -5 -23 -15 5 -3 -13 0 -1 3 21 -5 11 
-17 14 -5 19 -6 31 2 -1 3 12 -23 49 -3 -73 11 -36 
-12 25 -8 -4 -4 -12 -5 -8 1 -9 -3 -6 -5 -14 -4 -7 
-4 -21 -3 5 -6 85 -2 -40 2 -116 0 91 1 27 -1 -105 
-12 -20 -6 -4 6 -4 -6 17 -9 -8 3 -17 -2 -12 -4 -4 
6 6 -4 0 -8 -45 0 -6 0 1 -2 -52 -2 81 -2 -1 
1 -168 0 -16 3 49 -4 16 -7 13 4 -12 -2 3 -1 -8 
6 10 -6 -11 -3 -11 0 -40 -5 -29 -2 9 0 -22 -1 -30 
-1 -23 -3 -9 2 -4 2 25 -1 -17 -1 -23 -2 -1 1 5 
2 27 -1 -4 3 29 1 31 -3 1 1 5 1 13 3 44 
2 44 2 48 1 -3 4740 3613 100 MP stroke
-2 -28 1 26 1 58 3 64 2 42 3 93 6 7 -4 -51 
1 70 8 32 -1 30 4 27 2 -16 0 55 2 -9 4 24 
3 52 1 -16 3 38 1 0 4 23 2 30 1 -7 6 52 
3 17 4 21 4 13 2 0 6 17 1 -23 6 21 4 10 
4 -3 10 28 -1 -31 3 -22 5 10 3 -17 6 -6 7 17 
11 5 2 -14 2 -11 8 -6 4 -10 8 18 7 -20 4 -45 
7 12 8 41 4 -40 3 -45 8 -5 6 -30 7 0 6 1 
11 32 7 11 2 -54 13 2 3 -27 2 -62 17 25 8 -21 
-1 -19 3 11 14 9 4 -11 4 -28 17 21 -2 -51 0 -46 
8 0 6 -9 17 99 8 36 5 -31 -3 -96 -2 -86 21 119 
10 49 -1 -92 6 11 5 -3 5 -34 4 1 5 11 2 -33 
3 -27 4 14 3 8 3 -37 2 -27 4 17 8 25 4 6 
1 -5 2 3 -2 -54 4297 3457 100 MP stroke
0 -50 12 82 2 32 -4 -49 9 54 6 10 -6 -88 -2 -13 
3 47 0 -39 -3 -64 1 9 5 51 1 7 -1 5 4 42 
0 3 -1 12 0 11 -5 -22 1 20 1 -4 -2 -2 1 58 
-3 -2 1 -9 2 9 -3 -25 0 13 -2 -15 0 13 4 60 
-7 -29 -7 -10 2 50 -2 -27 -1 -8 4 37 -1 -5 2 47 
0 28 -10 -35 -5 -67 1 -29 -2 42 -3 27 0 24 -3 9 
-5 5 -1 0 2 1 1 19 -7 -32 -1 11 0 50 -1 0 
9 48 -7 -44 -13 -14 1 61 -1 3 -1 11 -4 -68 -4 -9 
1 106 0 5 -1 7 -5 9 -4 -6 0 20 -1 13 -4 28 
-6 -12 2 -1 1 25 0 4 -1 12 -12 -34 -4 -27 1 -3 
-5 -10 0 27 -2 12 -2 19 1 29 -3 10 -3 19 -7 -13 
-10 -36 3 -7 8 27 -4 11 -4 -8 -1 9 -3 7 -1 17 
-1 20 -1 9 -1 7 4409 2910 100 MP stroke
-2 1 2 10 -4 -12 -10 -23 1 23 3 30 -4 -7 1 -4 
3 18 -1 -29 -2 -14 0 20 -1 -7 -1 29 -2 15 2 7 
1 22 -3 -34 2 -6 -3 -30 -3 -39 1 46 -9 -1 -3 0 
5 33 -4 -8 1 6 0 6 -1 6 3 1 0 -8 2 -8 
1 -16 1 2 1 5 -1 20 2 23 1 -5 1 2 3 4 
-1 -2 -1 6 5 15 1 3 -11 -26 -1 3 3 27 -2 5 
3 11 -3 -16 -3 -31 0 14 -5 0 0 -6 2 29 2 8 
2 16 5 16 4 -16 0 -1 4 -20 2 -10 0 28 2 -2 
3 -3 2 0 1 3 2 -15 0 27 1 20 2 -4 1 12 
3 -12 1 -2 1 7 2 0 3 0 3 -16 3 6 0 7 
2 -3 2 -2 4 11 4 16 2 11 2 -2 2 -5 1 -6 
2 7 7 13 0 -2 1 -7 5 -3 2 8 5 11 4 -10 
7 -11 5 0 2 -3 4331 2728 100 MP stroke
13 -6 3 -2 2 3 12 -5 0 5 7 9 12 0 5 3 
11 6 6 11 6 12 10 11 6 3 6 -10 6 -2 7 -6 
7 -4 5 7 12 13 6 23 12 6 23 6 1 7 3 2 
12 -8 3 -9 14 9 9 9 9 -5 11 -7 4 -1 15 9 
4 1 11 -51 15 -1 2 31 23 3 9 2 3 26 20 22 
1 16 6 18 13 8 9 -4 19 -24 7 3 7 13 13 -29 
7 -34 8 -44 14 3 9 6 8 16 10 47 9 -16 15 -5 
9 23 5 0 17 -8 11 -9 8 15 15 23 5 -16 4 -20 
7 0 3 50 9 -25 18 8 13 33 5 -30 9 21 10 14 
1 -39 4 -28 6 27 3 16 7 -6 6 39 2 -13 11 27 
7 76 -1 17 6 -33 4 -51 3 24 5 56 2 16 1 9 
3 -17 4 5 8 49 1 20 0 -13 6 24 4 28 0 15 
2 8 0 -3 1 19 3587 2281 100 MP stroke
2 39 -5 1 -2 -31 4 -40 7 -16 4 69 -2 65 3 35 
2 1 -5 -22 2 8 -1 -18 -6 -12 -2 31 1 33 8 36 
-1 15 -1 8 2 -12 -4 -42 6 9 -6 -1 -13 -18 5 -6 
0 6 -3 22 1 22 3 -18 1 -23 -6 -26 -2 -10 -5 23 
-6 10 4 -10 -1 -65 -2 -50 1 0 -3 -13 -3 -23 -2 52 
-8 -2 -7 -51 1 7 2 -2 -2 -31 -8 -31 4 4 -3 22 
-17 -50 2 -70 -6 -18 -10 34 6 31 -8 -6 -5 -16 -3 -18 
-5 26 -3 -6 -11 -37 -4 -14 -5 -6 -7 -37 -5 -28 -10 -9 
0 54 -13 24 -19 -2 0 -25 -2 -60 -5 -29 -14 10 -7 -8 
3 -24 -19 -12 -16 -14 -6 1 -11 4 -6 21 -13 27 -8 -5 
-4 2 -14 23 -14 -8 -16 0 -4 7 -8 4 -15 6 -1 -15 
-19 -57 -22 -21 -3 40 -15 -5 -10 -21 -9 44 -11 -12 -4 -33 
-22 4 -20 29 -10 12 4081 2599 100 MP stroke
-16 -59 -11 -10 -16 6 -11 -1 -13 6 -33 -2 -13 -38 2 -19 
-20 42 -11 -15 -13 -24 -29 -15 -15 -16 -12 46 -10 19 -16 -5 
-17 0 -5 -10 -24 -17 -27 -3 -7 53 -17 8 -16 -44 -14 -6 
-20 -11 -17 2 -17 -13 -16 -5 -15 -6 -17 16 -20 37 -19 -5 
-18 -41 -15 -31 -15 18 -18 36 -14 14 -21 -9 -13 -10 -16 7 
-19 -9 -11 -13 -33 -47 -19 -10 2 19 -19 -10 -15 43 -13 58 
-22 -12 -18 -44 -11 -8 -11 -2 -14 -30 -13 7 -17 11 -11 7 
-19 12 -30 -7 -8 9 -13 10 -19 1 -11 -1 -14 41 -11 38 
-20 -31 -17 -7 -14 -1 -17 3 -12 6 -19 -10 -15 -4 -16 -19 
-16 0 -10 30 -22 -2 -16 -1 -19 12 -20 -4 -10 -17 -16 -55 
-12 0 -16 19 -17 5 -5 58 -22 10 -20 -10 -4 30 -15 -13 
-14 -13 -10 21 -15 -11 -10 -5 -20 -7 -15 20 -10 14 -26 -52 
-9 -8 1 57 -17 8 5600 2618 100 MP stroke
-10 3 -8 3 -22 -21 -11 15 3 44 -22 -55 -17 -25 2 42 
-18 -28 -9 10 1 30 -12 -9 -8 9 -8 -1 -8 6 -15 -27 
-14 -11 3 38 -9 -10 -10 -8 -5 -23 -9 -26 -5 9 -9 -15 
-6 0 -6 8 -6 9 -5 4 -7 -6 -6 8 -8 -15 -1 12 
-3 9 -6 -10 -5 -11 -7 -21 -3 19 -5 3 -5 -5 -4 -6 
-6 -11 1 26 -6 -5 -1 8 1 14 -10 -34 -1 8 -1 10 
0 11 -1 7 1 2 -11 -48 -7 -34 2 2 -2 1 1 14 
-1 9 -3 0 -1 -3 0 5 -1 6 0 2 -2 -5 -2 -7 
1 4 -2 -8 -1 3 -1 2 -3 -17 2 7 -2 -1 0 4 
-3 25 -2 6 3 -13 -3 -6 2 -6 -1 -8 -3 -6 2 0 
-4 -8 2 15 -4 -8 -5 -10 12 43 -3 -6 -7 -30 3 19 
-4 14 1 -12 0 -10 -1 -11 1 -9 -1 -1 2 2 -1 0 
2 13 1 -9 0 6 5970 2708 100 MP stroke
3 24 -2 -29 2 3 -1 9 -3 -29 6 19 1 -9 1 -6 
4 18 0 -19 2 -2 2 -3 2 -10 4 13 2 -1 2 -14 
3 7 4 9 0 -22 3 -3 2 -3 5 -5 9 40 0 -35 
5 -10 10 48 -1 -43 5 -7 10 26 5 -22 4 -8 2 -31 
7 0 13 44 1 -37 4 -26 11 23 4 -18 8 -7 10 5 
8 -3 6 -10 11 25 19 54 -3 -72 5 -23 23 73 1 -63 
6 -34 8 -10 8 -14 15 23 3 -41 18 43 16 29 5 -34 
12 -2 9 -15 11 -6 3 -53 23 69 30 93 -3 -88 6 -36 
13 5 10 -23 11 -4 8 -27 11 1 13 10 24 65 8 -25 
3 -52 26 73 -4 -92 4 -44 32 117 6 -28 3 -47 16 11 
14 5 9 -12 9 -13 11 -13 7 -34 11 -4 9 -20 17 31 
31 99 9 -14 -1 -70 13 -13 15 1 10 -14 6 -37 19 25 
27 69 3 -51 11 -21 5167 3060 100 MP stroke
37 93 9 -31 -7 -96 7 -36 14 12 28 73 23 28 0 -39 
7 -35 15 -19 13 13 11 -6 10 -28 25 45 20 7 7 -32 
13 4 12 -4 10 -11 12 -6 12 14 18 17 13 -36 16 3 
13 -15 7 -30 27 41 17 5 -3 -11 13 -15 13 -14 14 15 
27 -2 11 22 14 8 22 -7 1 -5 8 -5 20 9 7 -12 
18 -3 10 0 4 -14 27 22 20 7 8 -14 13 24 15 12 
12 -6 11 4 15 -5 9 -6 13 7 17 9 14 11 16 7 
12 1 17 -1 11 9 16 15 14 1 6 6 25 -36 7 -7 
5 44 32 -21 12 4 12 24 18 30 6 32 11 -9 13 -5 
13 -7 14 -9 17 9 14 -24 16 10 16 37 13 -44 17 1 
13 24 13 -12 11 52 18 6 16 -11 8 38 26 -34 6 40 
13 15 31 -17 8 8 32 -78 11 64 7 36 34 -68 -5 97 
11 5 15 -13 7 34 3797 2845 100 MP stroke
21 -31 15 27 35 -41 15 -2 8 19 23 -21 2 57 17 -19 
13 -4 13 26 35 -66 10 62 0 93 20 -31 23 -6 13 -41 
9 -29 14 47 13 -4 10 20 13 28 14 -27 8 57 22 -50 
16 -34 -2 106 14 -22 14 8 25 -16 19 -5 -3 41 15 -67 
11 24 13 -4 17 -37 10 40 15 2 8 45 15 -11 11 -15 
3 42 4 -32 4 9 28 2 18 -51 2 -9 9 0 10 38 
6 19 -8 45 8 -12 8 -12 2 41 25 -58 9 -18 0 67 
9 -18 18 -1 19 12 2 -35 10 22 11 20 8 -12 12 -12 
6 3 8 12 2 3 6 39 7 -11 0 -40 8 10 -2 22 
-2 -8 5 -42 7 -2 7 40 -2 58 6 27 16 -74 8 -28 
-1 73 2 -12 3 -11 4 21 8 0 1 -4 4 -19 5 34 
0 26 7 -10 1 2 -1 -17 9 -15 3 16 2 18 2 -2 
-1 -45 5 -6 8 48 2875 2573 100 MP stroke
1 24 -1 32 3 -1 -1 -16 0 10 -1 0 -2 -2 1 -22 
-2 -14 3 49 -6 7 -7 -21 12 18 -2 18 -9 5 0 -19 
-3 13 2 12 -5 11 -4 23 5 0 -7 -24 -10 -28 -1 -8 
0 -15 -1 -5 0 23 -2 27 -5 23 -1 31 -4 -12 -9 -32 
-7 8 1 22 1 -10 -7 -52 1 -58 -1 -26 -10 26 -3 29 
-4 24 -8 2 -4 -2 -5 23 -2 -27 -6 -32 -3 -27 1 -17 
-10 33 -7 27 -6 -17 -8 -27 -5 14 -4 36 -4 33 -5 -56 
0 -64 -6 3 -13 -34 -6 -33 -4 -8 -7 -12 -4 -9 -1 29 
-8 46 -9 11 -3 -29 -13 3 -11 19 -4 47 -6 -18 -3 -51 
-8 23 -13 29 -5 24 -17 -43 -8 -74 -1 -42 -20 -17 -6 -9 
0 4 -17 26 -9 38 -6 -31 -9 0 -13 13 -14 10 -10 -13 
-10 9 -4 -13 -9 -64 -13 12 -8 1 -18 10 -16 58 -12 50 
-13 1 -11 14 -10 -20 3414 2644 100 MP stroke
-13 -41 -18 -35 -16 -4 -14 12 -14 -44 -12 10 -13 44 -13 9 
-18 -18 -17 32 -13 -16 -14 -52 -13 23 -16 13 -17 13 -12 23 
-19 -6 -19 -9 -15 -23 -15 -45 -14 5 -16 18 -16 52 -15 8 
-16 -36 -19 -7 -16 -13 -15 49 -18 16 -18 -12 -17 -52 -11 -63 
-14 32 -21 -24 -16 -33 -16 3 -16 42 -19 11 -15 -40 -10 -33 
-25 -42 -18 27 -7 99 -21 -14 -16 -86 -14 1 -19 25 -8 30 
-19 8 -25 -65 -14 -62 -12 41 -14 47 -17 -1 -10 16 -16 -8 
-13 -22 -7 2 -27 -51 -18 5 -7 63 -16 -9 -13 7 -27 -26 
-8 8 4 54 -25 -71 -23 -64 -10 15 -9 53 -25 -20 -13 20 
3 52 -20 -54 -9 34 -8 5 -28 -82 -13 14 -9 9 -11 -9 
-14 -7 -16 -14 -11 40 -15 35 -9 40 -14 -23 -23 -54 -9 -1 
-9 -11 -16 -3 -11 6 -14 41 -15 15 -9 2 -13 -4 -10 4 
-10 -7 -19 -32 -10 48 4867 2811 100 MP stroke
-12 18 -15 0 -12 -13 -15 -35 -9 6 -14 -23 -9 -13 -7 31 
-20 -23 -18 -16 -11 11 -8 19 -12 -5 -13 -14 -10 9 -10 16 
-6 30 -11 -11 -11 5 -11 2 -13 -19 -11 5 -21 -43 -9 5 
-9 18 -11 -10 -5 22 -24 -76 -14 -21 0 59 -11 -5 -9 5 
-9 16 -6 29 -9 -1 -8 0 -8 22 -20 -46 -15 -11 -9 22 
-8 15 -7 13 -10 -32 -10 -14 -11 17 -8 20 -10 -5 -11 0 
-8 5 -9 -9 -5 8 -10 -3 -10 -12 -6 9 -8 -1 -7 -23 
-15 -42 -16 -34 -5 0 -7 6 -10 7 -4 18 -6 4 -12 -13 
-7 19 -7 11 -11 -16 -8 -16 -16 -68 -15 -39 5 66 -2 28 
-14 -38 -1 26 -4 20 -9 -23 -3 19 -6 -9 -6 -11 -13 -18 
-16 -58 -1 23 -2 28 -7 -17 -7 -11 -1 19 -1 45 -5 13 
-6 -2 -13 -33 -7 1 0 32 -13 -36 -6 -8 0 19 -6 -11 
-2 13 -4 12 -5 19 5754 2913 100 MP stroke
-5 8 -7 -51 -7 -34 0 9 -3 -5 -4 -12 -6 -29 -9 -31 
1 32 1 28 -4 -1 -2 13 -7 -30 -5 -23 0 32 -3 -11 
-7 -27 -1 26 -1 0 -5 13 0 52 -4 -18 -5 -26 0 -3 
-4 -7 0 -10 -5 -66 -3 3 1 20 -4 -28 2 27 -3 -24 
-3 -24 0 10 -1 -1 2 12 -2 -7 3 -8 1 -14 -1 -5 
4 19 -2 -12 3 27 -1 -8 -1 -36 3 -14 -3 -7 10 42 
5 6 1 1 5 -1 0 -32 5 1 1 -8 3 13 6 7 
0 -15 6 15 2 -16 1 -17 5 -27 2 -18 6 -1 4 -4 
0 -11 2 -41 6 54 4 77 4 -17 7 -10 0 -17 6 6 
20 21 11 -12 0 -26 -1 -25 4 -30 12 25 13 24 -5 -96 
2 -51 16 75 7 2 4 -3 5 2 6 -31 5 -13 4 -32 
7 -7 4 -1 10 36 9 18 -1 -83 13 25 10 40 3 -44 
8 14 6 -3 8 4 5580 3338 100 MP stroke
3 3 3 -23 4 -15 6 -26 16 57 11 92 4 9 3 -79 
4 -77 7 13 5 -16 8 2 15 117 8 42 3 -81 2 -108 
9 101 13 137 0 -159 2 -94 14 89 10 3 6 4 2 -30 
9 34 7 23 1 -56 10 23 3 -43 5 -9 16 73 6 -18 
8 23 7 6 -2 -55 8 6 6 1 4 -9 11 26 9 26 
5 -11 8 20 1 -29 1 -15 12 42 1 -61 6 4 15 69 
5 -28 3 -14 3 -27 7 -6 4 -26 4 -2 17 92 7 -13 
3 -32 4 10 8 81 9 26 -2 -155 11 26 13 67 0 -61 
8 42 6 3 1 -62 3 -26 11 33 13 45 1 -47 5 -5 
6 11 4 -10 4 26 6 12 14 -4 1 -56 3 16 9 30 
-1 -47 13 45 12 51 1 -18 3 -22 2 -10 2 -27 -3 -48 
13 74 13 76 2 -14 4 -14 1 -26 7 27 -2 -6 -1 -15 
13 80 2 -1 2 -14 4991 3270 100 MP stroke
4 12 -1 -19 4 26 -1 -26 1 -9 3 38 3 -10 5 23 
0 12 0 -17 1 10 1 -15 2 5 -1 -2 0 24 3 17 
-2 -5 1 6 2 -2 -5 -45 -2 12 12 78 6 26 -4 2 
0 4 -1 -24 -1 -5 -2 -10 -8 -21 10 55 11 54 -8 -46 
2 6 2 45 -8 -67 -2 -55 -1 -2 3 34 1 24 1 13 
5 33 -2 -25 2 52 3 58 -5 -67 -3 -17 -5 -16 12 29 
14 71 -5 -18 0 3 0 -6 -2 -17 3 -4 -4 -35 4 28 
9 20 -1 -10 1 9 5 -3 2 11 2 -1 3 1 1 8 
4 11 0 9 4 -1 10 14 2 -7 2 11 8 28 2 -7 
1 -2 8 -1 4 8 6 15 8 -8 1 -12 3 -1 7 -6 
3 0 4 -12 5 -11 10 18 4 -29 8 -13 19 78 1 -1 
-3 -30 6 19 7 3 5 -6 4 -6 7 -5 3 -17 12 21 
14 34 1 -21 8 -4 4733 2951 100 MP stroke
7 -15 5 1 9 16 8 -3 9 21 8 -8 14 22 11 16 
5 -23 8 6 6 -23 9 -10 10 2 11 11 9 11 8 -9 
11 15 9 13 12 12 6 -41 14 1 14 36 -4 -54 11 16 
11 -3 14 -5 12 21 -5 -73 20 45 10 17 7 -12 27 55 
-2 -85 15 21 25 66 -3 -73 10 -27 14 6 12 -12 11 -19 
13 -5 15 -18 8 -30 15 37 13 -9 6 -48 14 17 13 19 
12 -11 16 8 16 5 11 -47 14 -11 13 7 14 -24 13 -15 
11 -16 14 8 15 16 22 13 21 13 13 -6 18 0 16 26 
14 6 13 -16 14 6 20 -8 17 9 19 -1 20 35 23 55 
13 25 13 44 23 39 12 11 23 -8 14 -15 14 9 47 9 
16 25 0 24 24 7 16 8 16 -6 18 1 20 26 18 26 
19 -13 35 -44 18 -6 17 11 25 -9 15 5 19 5 18 4 
23 0 31 -18 24 -6 3338 2847 100 MP stroke
21 -18 19 -28 19 16 18 6 20 -8 21 15 25 -12 32 -21 
25 -10 19 -30 22 3 21 5 23 -25 23 -24 24 -6 27 15 
23 -12 27 -12 26 -12 17 -17 23 -1 25 6 21 13 25 4 
26 -43 20 -11 21 0 26 -12 26 -6 23 4 23 6 20 3 
21 -10 28 -10 22 5 14 -9 23 -7 31 -27 18 -4 20 6 
28 1 15 36 24 -16 28 -34 17 17 24 -27 20 -3 22 18 
22 -39 15 11 22 31 25 -6 23 -11 19 17 19 -6 18 23 
22 2 23 -15 14 20 47 -51 34 -15 -6 36 25 -11 20 19 
15 22 26 -44 10 23 30 27 20 1 17 23 30 -10 10 8 
44 -46 31 5 -1 20 44 -32 15 21 -3 35 40 -38 9 33 
26 -27 44 2 -1 7 25 1 29 26 -6 52 20 -9 18 3 
12 34 23 -7 13 -5 25 7 17 19 7 16 20 -8 17 7 
16 13 17 -20 17 18 1234 2941 100 MP stroke
15 24 15 9 16 11 8 -16 14 37 13 6 10 -47 20 31 
16 61 11 35 11 5 15 -50 13 -14 4 44 10 4 10 4 
10 14 10 4 9 23 13 -4 13 -24 11 11 -3 14 -8 -37 
12 -13 5 21 -3 25 12 0 -1 -19 9 1 30 26 5 -3 
9 -36 2 -17 -9 -3 6 5 -22 -65 -9 -33 12 -9 -11 -66 
5 -5 0 -47 -5 -80 2 -77 -8 -121 5 -99 -3 -108 1 -109 
-4 -243 -12 -399 20 1 12 173 -4 120 -2 119 0 172 3 132 
-13 29 1 49 -14 93 -41 94 -10 67 -2 80 -7 34 -8 30 
-3 27 13 37 -4 26 -16 6 -2 37 -1 52 -7 12 -7 13 
-8 -11 -6 -51 -9 -8 -10 38 -5 15 -3 3 -3 10 -7 4 
-11 -3 -6 6 -11 5 -9 -63 -5 -18 -5 37 -5 -8 -17 -30 
-3 -9 0 7 -31 3 -14 25 3 10 -12 -22 -5 -14 -13 -30 
-16 -45 1 11 -17 32 1269 2973 100 MP stroke
-23 10 -9 -11 -11 -3 -11 5 -10 -16 -5 -26 -19 14 -32 44 
-1 7 -11 30 -20 4 -5 -21 -19 -6 -11 -64 -18 -3 -27 47 
-10 14 -18 8 -15 5 -16 13 -15 21 -13 15 -37 30 -28 33 
-10 -24 -20 -28 -21 -21 -22 12 -27 13 -23 45 -20 3 -23 41 
-22 -10 -22 -36 -22 12 -21 -5 -21 -9 -19 -18 -22 28 -23 1 
-24 -27 -18 23 -17 13 -20 -37 -19 -23 -20 -5 -22 -1 -33 29 
-31 2 -16 -4 -16 -20 -18 -21 -43 123 -23 -5 6 -134 -31 22 
-19 -40 -18 -32 -31 29 -10 -27 -28 38 -12 -51 -24 -14 -40 82 
-1 -104 -14 -2 -24 38 -18 -60 -19 -3 -17 -62 -24 -52 -13 -9 
-17 0 -24 2 -21 -40 -19 -44 -19 -33 -22 19 -19 0 -22 -31 
-13 -52 -16 -27 -27 29 -15 -16 -22 -7 -19 -14 -15 -34 -17 -84 
-15 -64 -20 -44 -15 6 -22 100 -21 10 -21 11 -18 -53 -7 -81 
-18 -17 -9 -18 -21 -35 3142 3670 100 MP stroke
-18 -95 -6 -83 -24 21 -8 -25 -24 31 -13 -1 -8 -27 -27 45 
6 -47 -42 70 -1 -85 30 -25 -51 14 5 -19 -10 -5 -43 54 
-6 -44 -28 98 -14 10 -17 32 16 -128 26 91 -26 -43 -1 -6 
-27 105 -19 12 11 -48 -29 59 8 74 -5 -18 -72 -9 -27 49 
46 -88 27 111 -18 -17 -13 17 -6 14 -10 11 -11 -19 -6 33 
-14 10 -5 25 -2 19 -53 -122 -12 -8 13 24 -25 12 6 -18 
-13 -26 -12 16 9 35 -22 -4 2 38 -13 7 -19 -28 6 21 
-18 -4 -8 -1 0 36 -6 -49 -13 -34 -5 65 1 30 -15 -16 
-2 3 -9 -4 -8 -10 -7 28 -19 15 3 -24 -17 7 -15 36 
-1 -15 -17 -56 -3 12 -4 44 -5 -1 -7 12 -13 -2 -6 0 
-19 -31 -6 -44 -3 49 -14 21 -7 3 -12 31 7 -50 4 -41 
-15 -5 -7 28 -13 -2 -5 3 -2 26 -11 -2 -5 6 -7 8 
-7 10 -8 14 -6 10 4061 3444 100 MP stroke
-9 -16 -8 -20 1 34 -5 6 -7 -13 -4 16 -5 0 -4 -1 
-5 10 -5 16 -9 -32 -3 1 -1 42 -4 -12 7 36 -1 0 
-8 -22 2 61 -4 -5 -7 6 1 50 -2 23 -2 11 -1 15 
-1 32 -1 16 -3 18 0 43 -1 27 -2 41 -2 45 1 42 
-1 40 -5 44 5 69 6 61 -7 46 1 44 0 48 -1 58 
5 67 -6 60 0 56 9 77 1 72 -5 53 -1 59 0 115 
2 54 2 51 2 47 0 40 -4 31 1 28 0 48 3 23 
0 19 4 12 1 6 -1 1 -2 1 -4 -4 8 -1 4 -2 
1 -8 5 -7 0 -11 2 -13 4 -12 3 -10 4 -12 3 -19 
3 -16 2 -16 3 -18 4 -18 6 -17 5 -10 1 -18 4 -16 
5 -9 1 -21 1 -24 7 -12 4 -11 3 -10 3 -11 -1 -17 
1 -18 -4 -26 0 -16 16 0 1 -22 -1 -10 8 -6 -3 -34 
2 -10 4 -7 0 -18 4039 2154 100 MP stroke
7 -3 2 -18 -3 -19 2 -6 3 3 1 -19 0 -34 5 10 
3 -3 -1 -19 0 -5 -1 -18 -3 3 -1 -1 0 -24 -3 -10 
2 0 0 2 -1 -10 -2 -3 -4 -5 1 -23 -6 -16 -5 -7 
-2 -10 -9 -17 1 0 6 17 -2 -3 0 -5 -1 -7 -5 -15 
-2 -1 -5 -13 -7 -10 -3 1 -7 -18 2 9 11 30 -6 -12 
-4 -5 -1 3 -7 -25 -1 3 -6 -4 -4 -12 -5 -9 -10 -20 
9 33 2 14 -8 -24 2 6 -2 1 -7 -3 -3 -5 -3 -1 
-4 4 -3 4 -2 1 -4 -8 -4 17 -2 -6 0 -17 -3 15 
-1 -22 4 -1 -4 26 -7 -3 2 -12 0 -17 -4 8 0 -5 
-3 6 -5 29 2 -20 -1 2 -7 21 -1 -4 0 -4 1 -9 
-1 5 -3 3 0 -3 -4 12 -3 7 1 2 0 7 -2 3 
-3 2 3 8 -2 3 -1 -1 1 15 -4 6 5 20 -3 5 
-2 -2 5 19 -14 -39 4193 2404 100 MP stroke
-2 -11 7 29 -4 -9 2 6 -1 13 1 1 2 1 0 -1 
3 8 3 3 3 4 2 -3 7 -4 3 -2 0 2 3 5 
-7 -29 1 -2 11 18 1 -7 8 7 6 1 -1 -4 5 4 
5 2 4 0 3 -8 4 3 5 -1 7 -6 6 -7 9 12 
7 6 -1 -18 12 20 1 -3 -2 -19 17 38 8 15 -1 -13 
0 -31 4 -1 5 5 5 4 9 7 16 23 1 -19 -5 -32 
13 35 9 20 -3 -21 1 -13 11 11 3 -9 -1 -28 12 16 
7 4 0 -20 3 -11 8 5 13 22 -1 -21 4 -8 11 17 
0 -24 8 10 5 2 -1 -43 8 1 4 -4 -1 -27 9 12 
8 1 6 1 10 15 -2 -38 5 -15 8 8 1 -11 9 25 
3 -18 8 4 19 73 3 -11 -1 -51 0 -36 1 -34 6 -12 
5 -9 6 0 7 0 8 -7 5 -13 8 -10 8 -7 4 -14 
9 -3 10 4 5 -16 3740 2645 100 MP stroke
8 -6 7 2 6 -11 13 12 9 -2 -1 -37 10 8 9 8 
6 -4 11 15 6 -13 11 0 9 15 8 13 8 -3 22 18 
22 37 -8 -55 2 -9 10 9 9 -14 18 16 3 -1 18 14 
14 1 9 -29 18 -5 -3 -40 24 2 14 21 1 20 27 40 
4 -24 4 -31 14 0 13 23 15 12 11 2 29 -3 10 -7 
1 0 11 25 14 0 30 -28 5 0 4 -14 17 9 12 45 
16 14 12 0 30 -38 9 -6 7 19 25 -9 -3 1 27 -22 
13 14 -9 41 27 -24 13 23 23 -14 30 -47 2 17 5 18 
10 3 14 0 11 13 14 4 17 11 12 -6 13 -24 12 29 
15 2 13 9 12 -4 16 -40 21 -13 21 6 -2 57 8 7 
19 -45 8 6 22 -30 6 24 18 -12 30 -54 -1 57 17 -28 
18 -47 -4 84 13 -6 15 -22 10 7 10 11 12 -5 18 9 
16 -21 29 -47 11 22 2525 2670 100 MP stroke
-17 52 2 8 13 5 12 8 14 0 11 -4 14 -9 8 -20 
10 -25 11 6 14 6 16 -8 3 -18 29 -18 45 -39 16 -42 
0 56 1 60 21 -39 17 0 -4 43 8 -3 13 4 16 -51 
13 -10 1 14 5 42 9 -10 8 -24 5 -1 12 -96 10 -15 
-2 91 7 -3 5 13 9 -16 9 -62 2 3 8 -17 3 -32 
3 -1 7 -29 2 -13 4 -17 1 -29 4 -31 6 -2 3 -8 
4 -44 2 -3 2 14 -4 -28 3 -71 3 9 -1 25 4 -82 
-2 43 0 -23 5 -169 0 251 -6 11 -1 54 3 26 -3 42 
-1 42 1 3 -4 26 -5 13 0 -13 -4 -6 -2 42 -2 17 
-6 -25 1 15 1 37 -6 41 -3 63 -5 13 -5 6 -6 -13 
-3 -37 0 50 -5 30 -3 -7 -3 3 -7 -6 -8 16 -6 9 
-6 -20 -9 -17 0 -1 -4 -6 -11 -23 1 9 -9 39 -10 15 
-5 -1 -8 -31 -6 1 2257 2612 100 MP stroke
-11 35 -4 -11 -6 5 -16 -5 -4 -22 -10 -14 -13 -28 -5 2 
-12 -4 -6 5 -12 5 -13 -22 -5 -21 -12 21 -8 39 -17 -25 
-18 -36 2 10 -13 13 -14 3 -9 -25 -16 -1 -15 6 -14 -19 
-13 6 -15 12 -15 -2 -14 16 -16 -8 -12 -13 -11 -4 -16 -8 
-17 -23 -16 -1 -15 7 -14 -5 -17 38 -13 -23 -13 -12 -18 13 
-12 -16 -20 19 -19 -11 -10 2 -33 -15 -20 -50 2 1 -20 -23 
-15 -18 -15 35 -20 19 -13 -9 -20 -18 -16 9 -15 4 -18 6 
-15 -1 -18 -14 -14 6 -20 2 -17 -3 -12 -1 -17 -4 -9 1 
-17 -13 -16 -2 -15 -1 -16 3 -10 11 -22 3 -11 -29 -18 -14 
-30 12 -2 -36 -10 -6 -14 41 -19 21 -28 15 0 -19 -9 -11 
-15 -1 -24 14 -38 77 5 -67 3 -34 -15 15 -7 -27 -17 31 
-8 8 -11 -6 -17 11 -9 9 -11 -11 -4 -19 -21 23 -26 -2 
-1 -50 -6 -14 -14 -1 3602 2856 100 MP stroke
-7 2 -12 1 -8 0 -11 46 -24 81 -7 -17 -1 -29 -16 23 
-7 -12 -6 -20 -11 -11 -11 19 -8 -12 -3 -47 -9 7 -9 1 
-8 1 -10 9 -7 -22 -10 11 -8 -2 -9 -4 -9 -5 -5 -12 
-9 20 -7 -7 -7 3 -13 16 -9 -3 -6 -6 -9 -3 -10 6 
-10 -11 -8 -6 -7 -3 -18 33 -9 -2 0 -60 -16 41 -8 -12 
-2 -44 -8 9 -7 -15 -8 4 -8 5 -14 48 -5 -20 1 -60 
-13 41 -3 -43 -8 3 -10 68 -2 -26 -11 7 -8 -19 -12 26 
-13 43 1 -53 -12 27 -8 -1 2 -64 -13 -2 -7 -31 -5 -26 
-20 43 -7 -4 -11 24 -15 30 2 -56 -10 -9 -10 -11 -15 13 
-15 14 5 -93 -11 -14 -11 -10 -7 -13 -16 37 -5 -43 -13 4 
-10 -3 -8 -5 -16 36 -8 -25 -14 5 -5 -34 -11 -8 -22 29 
-2 -66 -4 -25 -9 -28 -10 -35 -19 15 -11 -15 -12 -7 -19 29 
-10 -16 1 -69 -13 -11 4498 3286 100 MP stroke
-12 -1 -6 -11 -22 50 -10 -9 0 -31 -13 -2 -10 -23 -14 -17 
-14 -9 -10 -9 -13 -8 -12 -31 -10 -33 -12 8 -11 22 -12 -16 
-13 -26 -12 -5 -9 4 -14 -13 -16 -1 -11 4 -12 -19 -11 -2 
-14 -13 -15 -9 -7 42 -24 -51 -31 -28 3 9 3 42 -12 -3 
-11 34 -15 10 -9 27 -16 9 -12 16 -10 28 -19 -19 -4 15 
-18 -66 -22 -64 1 72 -11 16 -15 0 -10 12 -10 8 -11 15 
-11 4 -12 2 -15 -26 -10 17 -15 10 -10 19 -10 -14 -26 -103 
-5 43 -4 52 -10 8 -10 30 -21 -62 -4 51 -2 68 -11 -27 
-9 3 -14 -18 -10 0 -10 -3 -7 8 -14 -46 -17 -75 2 80 
-6 38 -9 6 -4 28 -8 -33 -6 -1 -8 15 -10 0 -15 -37 
-5 28 -1 55 -13 -66 -6 4 -9 13 -10 -6 -3 53 -14 -52 
-9 6 0 59 -6 4 -7 23 -18 -80 -16 -73 6 68 -2 37 
-9 -9 -4 9 -21 -75 5534 3327 100 MP stroke
-15 -28 4 44 -1 33 -1 26 -8 -19 -7 -17 -6 -13 -12 -35 
2 37 -4 9 -8 -5 0 39 -9 -7 -1 16 -4 -16 -4 -13 
2 40 -9 -23 -2 -18 -8 -32 -17 -16 0 13 -4 -12 -4 8 
-5 9 -10 -2 2 7 -3 -14 -5 -13 -2 8 -10 -11 -5 -9 
1 20 -4 21 -6 5 -4 13 2 15 -6 -6 -3 -3 -2 5 
-14 -31 -5 -17 1 18 -7 4 -9 -1 0 -3 -2 0 -6 10 
-2 21 -7 -3 -9 -9 0 12 -4 -2 -4 0 -7 7 -8 -22 
1 -8 -4 2 -4 12 -8 8 -5 -10 -1 16 -17 -14 -1 4 
1 20 -16 -11 2 21 -5 0 -8 -2 1 3 -9 -21 1 19 
-8 -3 -14 -2 1 13 1 17 1 11 -8 -26 -9 -21 3 -11 
-1 4 -4 11 -8 6 -3 7 0 -1 -7 0 1 -13 2 -3 
-11 4 -9 1 -1 -10 -1 0 -5 21 0 -5 -1 -7 -3 5 
-1 -7 -2 -15 0 -26 5952 3298 100 MP stroke
-7 12 -3 -2 4 -24 -6 17 -9 9 2 -4 1 -8 -8 0 
-2 13 -2 19 -8 29 1 5 1 4 -2 15 -5 -5 -5 -20 
1 -44 -4 -23 -4 1 -4 17 -6 26 4 -35 -4 -2 -8 14 
0 -20 1 -17 -3 -35 -8 5 -3 -20 0 -30 -5 19 -1 -7 
-2 -8 -4 5 -4 -10 -3 3 0 2 -2 -8 -6 31 -3 34 
-3 16 -7 35 0 -14 -5 13 -5 19 3 -92 -5 -39 -1 23 
-3 6 -9 8 0 -32 -4 6 -8 33 1 -33 -5 -13 -6 -7 
-1 -25 -1 -20 -6 5 -7 47 0 -16 -2 -19 -6 27 -3 -9 
-5 18 -5 18 -5 30 -15 36 -8 -15 4 -28 -2 -23 -5 -34 
-2 6 -6 24 -3 -18 -2 -16 -7 13 -2 11 1 -6 -4 -14 
-8 15 -4 31 1 -25 -6 42 -6 42 1 -34 -5 28 -4 -32 
0 -6 -5 16 0 -52 1 129 -2 36 1 -20 -1 114 0 -72 
-1 6 2 -31 2 56 6251 3176 100 MP stroke
-1 -89 -1 -88 3 67 2 -30 -1 -82 4 -53 2 2 2 0 
3 8 2 -17 7 23 4 32 -1 -65 5 -2 5 1 6 1 
6 50 3 -23 5 -11 4 -14 3 -25 10 -33 7 -26 6 27 
3 -11 -1 30 7 6 9 -21 5 3 6 -5 6 42 6 16 
6 15 5 6 6 -25 5 -22 5 -34 6 -12 5 -34 5 -28 
8 -4 8 -61 4 16 4 -4 5 -54 5 -8 4 -12 5 42 
3 -11 1 -1 7 60 6 26 5 13 5 -18 5 -18 5 -13 
5 -12 4 -11 3 -11 5 2 4 -31 3 21 3 0 4 -12 
4 24 4 -55 5 5 3 -12 4 31 5 44 2 -47 8 82 
2 -34 1 -54 5 58 0 -63 3 72 3 -22 0 -45 2 -3 
-4 -192 3 33 2 -48 2 -13 7 155 -1 -139 8 145 9 164 
-1 -43 3 -4 4 54 -1 -87 -5 -184 2 97 2 -63 1 -8 
5 125 0 -14 7 173 5877 3566 100 MP stroke
3 -5 -1 -103 6 88 0 -20 2 90 1 2 -2 -62 3 77 
0 -36 -3 -13 4 66 3 4 -4 -46 1 48 -1 -105 1 18 
3 82 0 -78 0 35 -5 9 -1 18 4 56 1 12 0 17 
0 -17 4 17 0 -22 -4 -85 -2 1 -5 -29 1 16 3 47 
-1 5 -2 105 -2 61 2 -79 -2 32 -2 49 1 -3 -4 21 
-2 35 4 51 -7 2 -12 -14 -4 13 -8 -69 -4 22 -2 44 
-6 -40 -1 24 -7 -27 -7 16 -6 28 -14 -69 -9 -59 -8 -58 
-5 64 -9 62 -7 62 -6 14 -11 -64 -4 88 -9 8 -9 44 
-7 115 -17 -115 -7 -17 -4 67 -14 41 -11 53 6088 2972 71 MP stroke
gr

c8
0 sg
%%IncludeResource: font Helvetica
/Helvetica /WindowsLatin1Encoding 120 FMSR

1382  294 mt 
(Experiment 1a - Analog magnetometers - RMSE of position - f\
unction of distance) s
2501 4939 mt 
(Distance to center of sensor network [m]) s
 605 2825 mt  -90 rotate
(RMSE [mm]) s
90 rotate

end %%Color Dict

eplot
%%EndObject

epage
end

showpage

%%Trailer
%%EOF
