%!PS-Adobe-2.0 EPSF-1.2
%%Creator: MATLAB, The MathWorks, Inc. Version 7.13.0.564 (R2011b). Operating System: Microsoft Windows 7.
%%Title: ..\figures\analog_par_ori_bias.eps
%%CreationDate: 11/13/2012  17:43:25
%%DocumentNeededFonts: Helvetica
%%DocumentProcessColors: Cyan Magenta Yellow Black
%%Extensions: CMYK
%%Pages: 1
%%BoundingBox:    52   199   552   602
%%EndComments

%%BeginProlog
% MathWorks dictionary
/MathWorks 160 dict begin
% definition operators
/bdef {bind def} bind def
/ldef {load def} bind def
/xdef {exch def} bdef
/xstore {exch store} bdef
% operator abbreviations
/c  /clip ldef
/cc /concat ldef
/cp /closepath ldef
/gr /grestore ldef
/gs /gsave ldef
/mt /moveto ldef
/np /newpath ldef
/cm /currentmatrix ldef
/sm /setmatrix ldef
/rm /rmoveto ldef
/rl /rlineto ldef
/s {show newpath} bdef
/sc {setcmykcolor} bdef
/sr /setrgbcolor ldef
/sg /setgray ldef
/w /setlinewidth ldef
/j /setlinejoin ldef
/cap /setlinecap ldef
/rc {rectclip} bdef
/rf {rectfill} bdef
% page state control
/pgsv () def
/bpage {/pgsv save def} bdef
/epage {pgsv restore} bdef
/bplot /gsave ldef
/eplot {stroke grestore} bdef
% orientation switch
/portraitMode 0 def /landscapeMode 1 def /rotateMode 2 def
% coordinate system mappings
/dpi2point 0 def
% font control
/FontSize 0 def
/FMS {/FontSize xstore findfont [FontSize 0 0 FontSize neg 0 0]
  makefont setfont} bdef
/ISOLatin1Encoding where {pop /WindowsLatin1Encoding 256 array bdef
ISOLatin1Encoding WindowsLatin1Encoding copy pop
/.notdef/.notdef/quotesinglbase/florin/quotedblbase/ellipsis/dagger
/daggerdbl/circumflex/perthousand/Scaron/guilsinglleft/OE/.notdef/.notdef
/.notdef/.notdef/quoteleft/quoteright/quotedblleft/quotedblright/bullet
/endash/emdash/tilde/trademark/scaron/guilsinglright/oe/.notdef/.notdef
/Ydieresis WindowsLatin1Encoding 128 32 getinterval astore pop}
{/WindowsLatin1Encoding StandardEncoding bdef} ifelse
/reencode {exch dup where {pop load} {pop StandardEncoding} ifelse
  exch dup 3 1 roll findfont dup length dict begin
  { 1 index /FID ne {def}{pop pop} ifelse } forall
  /Encoding exch def currentdict end definefont pop} bdef
/isroman {findfont /CharStrings get /Agrave known} bdef
/FMSR {3 1 roll 1 index dup isroman {reencode} {pop pop} ifelse
  exch FMS} bdef
/csm {1 dpi2point div -1 dpi2point div scale neg translate
 dup landscapeMode eq {pop -90 rotate}
  {rotateMode eq {90 rotate} if} ifelse} bdef
% line types: solid, dotted, dashed, dotdash
/SO { [] 0 setdash } bdef
/DO { [.5 dpi2point mul 4 dpi2point mul] 0 setdash } bdef
/DA { [6 dpi2point mul] 0 setdash } bdef
/DD { [.5 dpi2point mul 4 dpi2point mul 6 dpi2point mul 4
  dpi2point mul] 0 setdash } bdef
% macros for lines and objects
/L {lineto stroke} bdef
/MP {3 1 roll moveto 1 sub {rlineto} repeat} bdef
/AP {{rlineto} repeat} bdef
/PDlw -1 def
/W {/PDlw currentlinewidth def setlinewidth} def
/PP {closepath eofill} bdef
/DP {closepath stroke} bdef
/MR {4 -2 roll moveto dup  0 exch rlineto exch 0 rlineto
  neg 0 exch rlineto closepath} bdef
/FR {MR stroke} bdef
/PR {MR fill} bdef
/L1i {{currentfile picstr readhexstring pop} image} bdef
/tMatrix matrix def
/MakeOval {newpath tMatrix currentmatrix pop translate scale
0 0 1 0 360 arc tMatrix setmatrix} bdef
/FO {MakeOval stroke} bdef
/PO {MakeOval fill} bdef
/PD {currentlinewidth 2 div 0 360 arc fill
   PDlw -1 eq not {PDlw w /PDlw -1 def} if} def
/FA {newpath tMatrix currentmatrix pop translate scale
  0 0 1 5 -2 roll arc tMatrix setmatrix stroke} bdef
/PA {newpath tMatrix currentmatrix pop	translate 0 0 moveto scale
  0 0 1 5 -2 roll arc closepath tMatrix setmatrix fill} bdef
/FAn {newpath tMatrix currentmatrix pop translate scale
  0 0 1 5 -2 roll arcn tMatrix setmatrix stroke} bdef
/PAn {newpath tMatrix currentmatrix pop translate 0 0 moveto scale
  0 0 1 5 -2 roll arcn closepath tMatrix setmatrix fill} bdef
/vradius 0 def /hradius 0 def /lry 0 def
/lrx 0 def /uly 0 def /ulx 0 def /rad 0 def
/MRR {/vradius xdef /hradius xdef /lry xdef /lrx xdef /uly xdef
  /ulx xdef newpath tMatrix currentmatrix pop ulx hradius add uly
  vradius add translate hradius vradius scale 0 0 1 180 270 arc 
  tMatrix setmatrix lrx hradius sub uly vradius add translate
  hradius vradius scale 0 0 1 270 360 arc tMatrix setmatrix
  lrx hradius sub lry vradius sub translate hradius vradius scale
  0 0 1 0 90 arc tMatrix setmatrix ulx hradius add lry vradius sub
  translate hradius vradius scale 0 0 1 90 180 arc tMatrix setmatrix
  closepath} bdef
/FRR {MRR stroke } bdef
/PRR {MRR fill } bdef
/MlrRR {/lry xdef /lrx xdef /uly xdef /ulx xdef /rad lry uly sub 2 div def
  newpath tMatrix currentmatrix pop ulx rad add uly rad add translate
  rad rad scale 0 0 1 90 270 arc tMatrix setmatrix lrx rad sub lry rad
  sub translate rad rad scale 0 0 1 270 90 arc tMatrix setmatrix
  closepath} bdef
/FlrRR {MlrRR stroke } bdef
/PlrRR {MlrRR fill } bdef
/MtbRR {/lry xdef /lrx xdef /uly xdef /ulx xdef /rad lrx ulx sub 2 div def
  newpath tMatrix currentmatrix pop ulx rad add uly rad add translate
  rad rad scale 0 0 1 180 360 arc tMatrix setmatrix lrx rad sub lry rad
  sub translate rad rad scale 0 0 1 0 180 arc tMatrix setmatrix
  closepath} bdef
/FtbRR {MtbRR stroke } bdef
/PtbRR {MtbRR fill } bdef
/stri 6 array def /dtri 6 array def
/smat 6 array def /dmat 6 array def
/tmat1 6 array def /tmat2 6 array def /dif 3 array def
/asub {/ind2 exch def /ind1 exch def dup dup
  ind1 get exch ind2 get sub exch } bdef
/tri_to_matrix {
  2 0 asub 3 1 asub 4 0 asub 5 1 asub
  dup 0 get exch 1 get 7 -1 roll astore } bdef
/compute_transform {
  dmat dtri tri_to_matrix tmat1 invertmatrix 
  smat stri tri_to_matrix tmat2 concatmatrix } bdef
/ds {stri astore pop} bdef
/dt {dtri astore pop} bdef
/db {2 copy /cols xdef /rows xdef mul dup 3 mul string
  currentfile exch readhexstring pop
  dup 0 3 index getinterval /rbmap xdef
  dup 2 index dup getinterval /gbmap xdef
  1 index dup 2 mul exch getinterval /bbmap xdef pop pop}bdef
/it {gs np dtri aload pop moveto lineto lineto cp c
  cols rows 8 compute_transform 
  rbmap gbmap bbmap true 3 colorimage gr}bdef
/il {newpath moveto lineto stroke}bdef
currentdict end def
%%EndProlog

%%BeginSetup
MathWorks begin

0 cap

end
%%EndSetup

%%Page: 1 1
%%BeginPageSetup
%%PageBoundingBox:    52   199   552   602
MathWorks begin
bpage
%%EndPageSetup

%%BeginObject: obj1
bplot

/dpi2point 12 def
portraitMode 0204 7344 csm

  422   110  5998  4844 MR c np
85 dict begin %Colortable dictionary
/c0 { 0.000000 0.000000 0.000000 sr} bdef
/c1 { 1.000000 1.000000 1.000000 sr} bdef
/c2 { 0.900000 0.000000 0.000000 sr} bdef
/c3 { 0.000000 0.820000 0.000000 sr} bdef
/c4 { 0.000000 0.000000 0.800000 sr} bdef
/c5 { 0.910000 0.820000 0.320000 sr} bdef
/c6 { 1.000000 0.260000 0.820000 sr} bdef
/c7 { 0.000000 0.820000 0.820000 sr} bdef
c0
1 j
1 sg
   0    0 6913 5185 PR
6 w
0 4225 5356 0 0 -4225 899 4614 4 MP
PP
-5356 0 0 4225 5356 0 0 -4225 899 4614 5 MP stroke
4 w
DO
SO
6 w
0 sg
 899  389 mt 6255  389 L
 899 4614 mt 6255 4614 L
6255 4614 mt 6255  389 L
 899 4614 mt  899  389 L
 899 4614 mt 6255 4614 L
 899 4614 mt  899  389 L
1434 4614 mt 1434 4560 L
1434  389 mt 1434  442 L
%%IncludeResource: font Helvetica
/Helvetica /WindowsLatin1Encoding 120 FMSR

1318 4759 mt 
(0.16) s
1970 4614 mt 1970 4560 L
1970  389 mt 1970  442 L
1854 4759 mt 
(0.18) s
2505 4614 mt 2505 4560 L
2505  389 mt 2505  442 L
2422 4759 mt 
(0.2) s
3041 4614 mt 3041 4560 L
3041  389 mt 3041  442 L
2925 4759 mt 
(0.22) s
3576 4614 mt 3576 4560 L
3576  389 mt 3576  442 L
3460 4759 mt 
(0.24) s
4112 4614 mt 4112 4560 L
4112  389 mt 4112  442 L
3996 4759 mt 
(0.26) s
4648 4614 mt 4648 4560 L
4648  389 mt 4648  442 L
4532 4759 mt 
(0.28) s
5183 4614 mt 5183 4560 L
5183  389 mt 5183  442 L
5100 4759 mt 
(0.3) s
5719 4614 mt 5719 4560 L
5719  389 mt 5719  442 L
5603 4759 mt 
(0.32) s
6254 4614 mt 6254 4560 L
6254  389 mt 6254  442 L
6138 4759 mt 
(0.34) s
 899 2808 mt  925 2808 L
6255 2808 mt 6228 2808 L
 899 2990 mt  925 2990 L
6255 2990 mt 6228 2990 L
 899 3192 mt  925 3192 L
6255 3192 mt 6228 3192 L
 899 3422 mt  925 3422 L
6255 3422 mt 6228 3422 L
 899 3687 mt  925 3687 L
6255 3687 mt 6228 3687 L
 899 4001 mt  925 4001 L
6255 4001 mt 6228 4001 L
 899 4385 mt  925 4385 L
6255 4385 mt 6228 4385 L
 899 2808 mt  952 2808 L
6255 2808 mt 6201 2808 L
 640 2852 mt 
(10) s
%%IncludeResource: font Helvetica
/Helvetica /WindowsLatin1Encoding 80 FMSR

 773 2778 mt 
(0) s
 899 1616 mt  925 1616 L
6255 1616 mt 6228 1616 L
 899  918 mt  925  918 L
6255  918 mt 6228  918 L
 899  424 mt  925  424 L
6255  424 mt 6228  424 L
 899  389 mt 6255  389 L
 899 4614 mt 6255 4614 L
6255 4614 mt 6255  389 L
 899 4614 mt  899  389 L
gs 899 389 5357 4226 MR c np
/c8 { 0.000000 0.000000 1.000000 sr} bdef
c8
34 1097 32 533 34 472 32 373 32 285 33 247 32 198 32 162 
31 139 32 117 31 95 30 77 31 61 30 48 31 36 30 24 
28 16 31 7 28 1 28 -2 28 -7 29 -9 30 -11 27 -12 
29 -12 27 -12 30 -11 28 -10 28 -9 28 -8 26 -8 28 -7 
27 -6 27 -6 29 -6 24 -6 27 -8 29 -7 27 -8 23 -9 
26 -10 27 -11 25 -11 28 -12 25 -12 26 -13 26 -13 24 -13 
26 -13 24 -13 26 -12 27 -12 23 -12 25 -10 20 -11 22 -9 
25 -9 22 -9 22 -8 22 -7 24 -6 22 -6 23 -5 23 -5 
21 -4 21 -3 20 -3 24 -3 24 -1 16 -1 20 -1 23 0 
21 0 21 1 21 1 18 1 19 1 23 2 20 0 21 1 
20 0 17 0 20 -1 21 -1 21 -3 19 -2 19 -4 17 -5 
18 -7 21 -5 19 -6 19 -8 17 -8 19 -9 18 -10 17 -10 
20 -11 15 -11 18 -12 3686 1164 100 MP stroke
18 -12 14 -12 17 -11 17 -12 18 -12 15 -10 17 -11 17 -10 
14 -8 16 -7 14 -5 17 -6 15 -4 14 -2 16 -3 13 -3 
16 -2 15 -4 15 -3 14 -3 12 -5 16 -7 12 -5 13 -6 
14 -8 14 -8 14 -7 12 -8 17 -9 12 -8 14 -7 14 -8 
11 -8 17 -7 8 -7 17 -7 27 -7 0 -6 7 -7 17 -7 
8 -8 15 -7 11 -9 8 -8 25 -10 10 -10 -1 -11 15 -12 
9 -13 10 -13 13 -13 9 -14 13 -13 8 -14 10 -12 12 -12 
9 -12 12 -8 8 -7 11 -6 11 -5 8 -3 11 0 8 1 
12 2 8 5 11 5 12 5 6 6 21 7 13 6 -2 7 
11 6 11 5 7 5 10 4 8 3 9 2 10 2 10 1 
10 0 9 0 9 -1 9 0 9 -1 9 -1 8 0 10 -1 
8 1 10 0 9 2 10 2 11 3 6 4 15 5 17 6 
-2 7 8 7 13 9 2518 1552 100 MP stroke
6 9 13 10 8 10 10 11 10 12 7 12 11 12 8 12 
11 13 10 13 9 13 11 13 10 13 9 14 9 13 9 13 
9 14 20 14 9 13 -1 14 13 13 8 13 7 13 12 12 
5 12 12 12 6 10 9 10 11 9 8 8 10 8 8 7 
10 6 9 5 8 6 10 4 7 5 11 5 10 4 10 5 
10 5 8 5 11 5 8 5 11 6 9 5 9 6 10 6 
6 6 11 6 9 6 9 6 10 6 7 5 9 6 7 6 
11 6 9 6 9 6 8 6 8 6 9 6 10 6 10 7 
7 7 8 7 10 7 8 7 10 8 9 8 9 8 10 8 
7 8 10 9 8 9 9 8 8 9 7 9 9 8 8 9 
9 8 9 8 7 7 7 8 8 7 7 6 11 6 15 5 
1 5 3 5 12 4 4 3 10 3 7 2 7 2 10 2 
5 1 10 1 7 2 1642 784 100 MP stroke
8 1 7 1 7 1 9 1 6 2 9 2 7 2 7 2 
9 3 6 3 8 3 4 4 6 3 7 4 5 4 9 4 
4 4 6 3 6 4 5 3 7 2 3 2 6 1 4 1 
5 0 5 -2 3 -2 5 -3 3 -4 5 -5 4 -6 3 -7 
3 -8 9 -8 9 -8 -8 -9 5 -9 14 -8 2 -9 4 -8 
3 -7 3 -7 3 -6 4 -5 7 -4 -7 -3 -3 -3 4 -2 
3 -1 3 0 1 1 3 1 0 2 4 3 9 4 0 10 
2 6 -2 7 1 7 2 7 -1 7 -1 7 -8 7 -8 6 
0 4 -2 3 -3 1 -3 0 -4 -3 -2 -5 -4 -7 -3 -9 
-3 -10 -4 -13 -3 -13 -3 -15 -4 -15 -4 -15 3 -14 -1 -14 
-6 -11 -4 -11 -5 -8 0 -6 -4 -4 -6 -1 -1 0 -11 3 
-10 3 -4 6 -5 6 -3 7 -5 7 -3 6 -5 6 -6 6 
-4 5 -5 3 -5 3 1526 888 100 MP stroke
-5 1 -5 0 -5 -1 -5 -2 -5 -4 -5 -4 -5 -5 -6 -5 
-6 -7 -4 -7 -6 -7 -5 -7 -5 -7 -5 -8 -4 -7 -6 -8 
-5 -7 -4 -7 -4 -7 -6 -7 -5 -6 -7 -6 -7 -7 -5 -6 
-5 -6 -2 -6 -3 -6 -5 -6 -8 -5 -8 -7 -2 -6 -7 -6 
-7 -6 -4 -6 -4 -7 -2 -5 -4 -6 -4 -6 -8 -6 -4 -5 
-2 -6 -6 -5 -2 -6 -7 -5 -6 -6 1 -5 -7 -6 -3 -5 
-2 -7 -6 -5 -4 -6 -4 -7 -3 -7 -6 -8 -2 -8 -1 -9 
-6 -9 -5 -11 -6 -9 -5 -13 -4 -10 -5 -13 -4 -12 -4 -14 
-2 -12 -3 -15 -4 -12 -2 -13 -4 -13 -5 -11 -3 -10 -5 -10 
-4 -7 -4 -6 -3 -4 -3 -2 -3 1 -3 1 -4 4 -4 5 
-4 6 -3 9 -4 8 -4 9 -3 8 -3 8 -3 6 -3 5 
-2 4 -3 2 -3 -1 -3 -2 -3 -3 -3 -6 -3 -6 -3 -8 
-2 -9 -3 -9 -2 -10 1940 1399 100 MP stroke
-3 -9 -5 -13 -1 -6 -4 -6 -4 -6 0 -6 -2 -4 -3 -3 
-2 -2 -3 -1 -3 0 -5 1 0 1 -1 1 -4 2 -2 1 
-3 2 -2 1 -2 1 -4 0 -2 -1 -2 0 -3 -2 -2 -2 
-2 -3 -1 -3 -3 -4 -1 -4 -3 -5 -3 -4 0 -5 -3 -4 
-4 -5 3 -5 -2 -4 -3 -4 1 -4 -4 -4 0 -4 -2 -4 
-3 -3 0 -4 -3 -3 -2 -4 -3 -4 -3 -3 0 -5 -4 -4 
-1 -6 0 -5 -6 -6 -1 -5 -1 -7 -2 -6 -4 -6 -2 -7 
1 -6 -7 -6 -2 -6 0 -5 -4 -4 -2 -4 -4 -4 -4 -2 
-1 -2 -5 -2 -8 -1 -2 0 2 0 -3 0 -3 1 -3 1 
-6 0 0 1 -2 0 -3 1 -3 1 -6 0 -6 1 -8 0 
5 0 -4 0 -5 0 -2 0 -5 0 -5 0 2 0 -4 0 
-12 0 -1 -1 1 -1 -2 -1 -10 0 0 -3 1 -1 -3 -1 
-4 -2 1 -2 -6 -2 2196 1644 100 MP stroke
-1 -2 -3 -2 -6 -3 1 -2 -8 -3 -1 -4 1 -3 -12 -4 
1 -4 -5 -4 -16 -5 -1 -4 2 -3 -2 -4 2 -3 -2 -2 
-8 -2 -1 0 3 0 -6 1 -2 3 -1 3 -4 4 0 5 
-2 6 -3 6 -3 6 -3 7 -3 6 -3 6 -3 6 -4 6 
-2 5 -4 4 -3 4 -3 2 -5 2 0 2 -8 0 -4 0 
0 -1 -7 -1 0 -2 -6 -2 -4 -3 -1 -2 -7 -2 1 -3 
-13 -2 -12 -2 7 -2 -4 -2 1 -2 1 -1 -4 -2 -6 -2 
-9 -2 4 -2 -1 -3 -10 -3 -1 -3 1 -4 -2 -5 -3 -4 
-3 -5 -8 -5 -3 -6 2 -5 -2 -5 -4 -6 -9 -4 -1 -5 
4 -4 -8 -3 -4 -4 1 -2 0 -2 -7 -2 -4 -1 4 -1 
-5 0 -3 -1 0 1 -4 0 0 1 -3 0 -2 0 0 2 
-4 1 -1 1 1 1 -1 1 -2 1 1 1 -2 1 -2 0 
0 2 -1 0 -1 1 2464 1718 100 MP stroke
0 1 -1 1 0 2 -1 1 0 9 1 1 1 2 0 1 
2 2 0 2 -1 1 2 2 1 1 1 2 1 1 0 2 
2 1 1 1 2 1 1 0 1 0 2 0 1 0 2 -2 
3 -2 1 -3 2 -3 3 -5 3 -6 2 -7 2 -8 2 -10 
2 -12 3 -13 2 -14 3 -15 1 -17 2 -16 2 -17 1 -17 
3 -18 1 -11 -4 -13 2 -10 2 -7 1 -4 2 0 2 4 
3 7 2 10 1 12 9 17 10 16 1 19 2 21 3 20 
2 19 5 18 1 18 2 16 3 15 2 14 3 11 2 10 
3 9 3 7 2 6 1 5 1 3 2 3 1 1 2 1 
1 1 1 -1 0 -3 2 -2 -1 -4 1 -5 -1 -6 -1 -7 
1 -7 -1 -9 0 -9 -1 -10 -1 -12 -1 -11 -2 -12 -1 -11 
0 -12 -3 -11 -13 -9 -8 -9 7 -4 4 -5 -7 1 -14 0 
-4 3 -1 8 -10 8 2390 1770 100 MP stroke
5 17 4 13 -6 16 -4 17 -4 17 -5 17 -5 17 -4 16 
-5 15 -5 13 -4 11 -6 10 -4 8 -4 5 -5 4 -5 2 
-6 1 -4 -2 -5 -2 -5 -4 -5 -5 -6 -5 -5 -6 -6 -7 
-5 -6 -6 -6 -5 -6 -5 -5 -6 -4 -4 -4 -8 -3 -5 -2 
-7 0 -18 -1 -11 0 4 8 3 3 -8 6 -7 6 -5 7 
-6 7 -5 8 -7 7 -5 8 -6 7 -7 8 -5 6 -7 6 
-6 5 -7 4 -6 2 -7 2 -8 0 -6 -1 -8 -2 -6 -3 
-7 -4 -8 -5 -7 -6 -8 -5 -7 -6 -7 -6 -8 -5 -8 -4 
-8 -3 -6 -2 -8 -1 -8 1 -8 2 -9 5 -8 5 -8 7 
-8 8 -9 9 -9 11 -10 10 -9 11 -9 11 -11 11 -9 10 
-11 9 -10 9 -9 8 -11 8 -9 7 -11 6 -11 7 -10 5 
-10 6 -10 6 -11 7 -11 7 -10 7 -10 8 -10 9 -12 10 
-10 10 -12 10 -10 10 3079 1342 100 MP stroke
-10 11 -11 10 -10 10 -11 10 -10 9 -10 9 -10 7 -9 6 
-10 6 -9 3 -10 3 -9 2 -9 0 -9 -1 -8 -2 -9 -4 
-8 -3 -8 -5 -8 -5 -8 -6 -4 -6 -14 -5 -18 -8 -5 -4 
-6 -6 5 -2 4 -4 -11 -2 -3 -3 -7 -2 -6 -2 -3 -2 
-7 -2 -3 -1 -6 -2 -4 -2 -4 -1 -6 -2 -1 -2 -6 -2 
-2 -1 -4 -1 -3 -1 -1 0 -5 1 0 1 -4 3 -1 3 
-2 3 -3 5 0 5 -3 5 2 6 -2 5 -2 6 1 5 
-2 4 1 5 -1 3 1 4 0 4 1 1 -2 0 3 0 
0 -2 2 -2 0 -2 4 -3 0 -4 4 -4 3 -4 1 -6 
5 -6 0 -7 6 -7 6 -8 0 -9 3 -10 4 -10 4 -11 
4 -11 4 -11 5 -12 5 -13 6 -12 4 -13 7 -13 5 -14 
6 -14 6 -15 6 -16 6 -16 6 -18 7 -18 7 -20 7 -21 
8 -23 9 -24 7 -26 3241 1681 100 MP stroke
8 -28 16 -29 4 -31 -1 -32 16 -34 1 -35 0 -41 31 -32 
12 -40 -14 -38 14 -41 18 -37 -2 -39 16 -40 16 -40 1 -31 
8 -34 9 -31 7 -28 10 -24 10 -22 9 -17 11 -13 9 -8 
11 -6 20 -2 6 2 -1 2 19 6 8 7 10 7 11 6 
6 6 18 3 13 -3 11 0 8 -3 1 -6 9 -11 7 -14 
12 -17 6 -20 8 -23 20 -24 3 -27 3 -29 9 -27 10 -28 
17 -29 1 -27 4 -25 15 -26 2 -21 14 -19 15 -17 0 -15 
4 -12 17 -10 13 -8 -4 -5 11 -4 18 -4 1 -3 5 2 
9 3 8 4 10 5 7 5 16 5 8 5 -2 6 14 8 
15 4 9 5 10 8 6 0 14 4 15 0 -2 4 10 6 
5 2 -2 4 17 2 2 9 13 7 19 9 -4 11 20 11 
19 12 -6 14 2 14 24 15 11 16 -14 15 20 17 16 14 
0 16 18 15 0 13 2364 2562 100 MP stroke
12 14 9 11 2 9 17 8 -1 7 14 6 6 4 5 3 
15 3 -1 2 16 2 3 2 7 3 13 1 -1 3 16 2 
1 3 9 3 10 2 -1 1 17 1 -3 -1 12 -1 5 -4 
8 -6 28 -7 -11 -10 3 -12 3 -14 -3 -16 15 -18 0 -19 
16 -20 -3 -21 1 -20 19 -20 -5 -18 10 -17 -1 -17 2 -10 
12 -7 -4 -9 13 7 2 4 2 5 12 13 4 13 16 21 
7 20 -3 24 3 24 11 26 1 26 0 26 12 26 0 25 
11 24 10 22 -2 22 13 19 2 19 4 17 11 17 -1 14 
5 14 8 14 3 12 11 13 9 13 0 13 11 13 4 13 
-1 14 11 15 3 14 7 15 7 16 4 15 9 15 3 15 
8 15 5 14 6 13 8 12 3 11 10 11 3 9 7 9 
6 7 2 6 14 6 3 6 3 4 11 4 0 5 3 4 
7 4 6 5 5 5 1760 1951 100 MP stroke
6 6 6 7 6 8 5 8 8 9 11 11 -2 11 5 11 
8 11 2 11 10 10 3 10 7 10 12 8 1 7 3 7 
7 5 6 4 6 3 6 2 7 1 5 1 7 1 5 0 
6 2 7 1 5 3 7 3 4 5 6 6 7 8 6 8 
2 10 5 12 12 13 4 15 7 14 7 15 4 15 9 15 
4 15 9 14 6 12 6 12 8 10 3 9 9 7 5 5 
7 4 8 2 2 0 14 -2 6 -2 1 -4 7 -5 7 -6 
7 -7 4 -6 4 -6 6 -6 7 -5 8 -4 7 -3 8 -2 
5 -1 7 1 8 3 7 4 9 5 6 8 8 8 7 10 
7 10 8 12 6 12 8 13 5 13 7 13 6 13 6 12 
7 12 6 11 6 11 4 9 6 9 6 7 5 6 8 5 
5 4 6 4 4 2 5 1 7 2 5 0 7 0 4 0 
5 0 5 0 4 0 1154 1393 100 MP stroke
7 1 4 0 6 1 3 1 4 2 5 2 4 2 6 2 
4 2 5 3 5 0 3 5 3 2 3 3 4 3 3 3 
4 3 5 3 2 3 4 3 3 4 4 4 4 5 3 5 
5 5 2 6 4 7 3 6 1 7 5 8 2 6 4 8 
2 7 1 7 3 7 0 7 3 6 4 6 2 7 3 6 
2 5 3 6 2 5 3 5 1 4 3 5 2 5 1 2 
3 4 2 2 2 1 1 1 1 -1 2 -1 1 -2 3 -4 
2 -3 2 -4 2 -3 1 -4 3 -4 1 -2 1 -3 1 -1 
1 -1 3 -1 1 1 2 1 1 2 2 2 2 3 0 4 
2 3 0 4 1 4 0 28 -1 2 1 2 0 4 1 1 
0 7 2 3 0 3 2 4 1 5 0 6 3 6 1 6 
2 7 1 8 0 8 1 8 1 8 1 8 0 28 1 7 
1 5 0 10 -3 4 937 1012 100 MP stroke
-1 4 0 10 -1 3 0 2 -1 3 -1 2 0 3 -1 2 
0 2 -1 3 1 2 0 1 -4 3 -3 3 -2 2 -2 2 
-2 1 -4 1 -3 1 -2 1 -4 0 -3 0 -4 0 -4 -1 
-3 0 -4 -1 -3 0 -5 0 1 1 -2 0 -5 1 -5 3 
-9 4 -4 3 -3 4 -6 5 -4 5 -5 5 -5 5 -5 5 
-6 5 -5 5 -6 5 -6 4 -6 3 -5 3 -6 2 -7 2 
-5 1 -6 1 -6 0 -5 0 -6 -1 -4 -1 -6 -1 -6 -1 
-5 -1 -6 -2 -4 -1 -5 -1 -5 0 -5 -1 -3 0 -5 0 
-5 1 -4 1 -5 1 -4 1 -4 2 -8 2 -1 3 -1 2 
-6 3 -4 2 -4 3 -4 3 -4 3 -4 3 -4 2 -3 3 
-5 2 -4 2 -3 1 -7 2 -6 1 1 1 -4 0 -9 0 
-1 0 1 0 -8 1 -7 0 1 0 -3 0 -7 0 -2 0 
0 1 -3 0 -2 1 1308 854 100 MP stroke
-2 0 -2 0 -1 0 -2 -1 -1 -1 -2 -2 -1 -4 -1 -4 
-3 -5 -1 -6 -2 -8 -3 -8 -2 -9 -2 -10 -1 -11 -2 -10 
3 -11 -1 -10 -6 -10 0 -8 -5 -7 -9 -6 0 -3 4 -2 
-2 1 -4 3 0 4 -3 7 -4 8 0 10 -3 11 -2 12 
-4 12 -10 12 -2 12 0 10 -2 10 -2 8 -3 7 -2 5 
-2 4 -2 1 -5 0 -1 -1 0 -3 -4 -4 -5 -5 1 -5 
4 -5 0 -5 -5 -5 -1 -4 -5 -2 -3 -2 -2 0 -4 1 
-1 3 -8 3 -10 4 1 6 -2 7 -6 8 -2 8 3 9 
5 9 -4 9 -3 10 3 10 -9 11 -3 10 6 9 -10 10 
-5 9 1 9 -3 8 0 8 -3 7 -2 6 1 5 -2 4 
0 4 -2 3 -2 2 0 1 -2 1 -2 0 -1 0 1 0 
-1 -1 0 -1 -1 -2 -1 -1 0 -3 -1 -2 0 -3 -1 -1 
1 -1 -1 -1 -1 -1 1494 717 100 MP stroke
1 -1 -2 0 -3 -1 -1 -1 -1 0 -1 -1 -1 0 -1 -1 
-2 -1 -1 -1 -1 -1 -2 -1 -1 0 -1 -1 -1 0 -3 -1 
-2 -1 -2 0 -3 -1 -2 -1 -2 -1 -3 -1 -2 -1 -1 -1 
-3 -1 -1 -1 -3 -1 -4 0 -2 -1 -3 -1 -1 0 -3 0 
-3 1 -2 0 -3 1 -3 2 -2 1 -3 2 -4 3 -4 2 
-1 3 -3 2 -3 3 -3 2 -3 3 -1 2 -3 2 -2 2 
-2 1 -2 1 -2 0 -2 0 -2 0 -2 -1 -2 -2 -1 -2 
0 -2 -1 -3 0 -6 -1 -4 0 -12 1 -4 1 -3 0 -4 
1 -4 1 -3 1 -3 1 -3 1 -2 0 -2 1 -1 1 -1 
-1 0 2 0 1 1 1 1 2 1 1 2 3 2 1 3 
3 3 5 3 0 3 2 4 4 3 1 4 4 4 4 4 
0 3 3 4 3 3 -1 3 3 3 2 2 3 2 2 2 
-1 1 3 1 1 -1 1552 708 100 MP stroke
2 0 2 -1 2 -2 3 -2 1 -3 3 -2 1 -4 2 -3 
3 -3 2 -4 3 -3 2 -3 3 -3 3 -2 1 -3 4 -1 
1 -2 2 -1 3 -1 1 0 1 -1 2 0 2 0 2 0 
1 -1 2 0 1 -1 2 -2 0 -1 2 -3 1 -2 0 -3 
1 -3 0 -3 2 -4 2 -3 0 -4 1 -2 1 -3 1 -2 
0 -1 2 -1 1 1 1 1 2 2 1 4 1 4 1 5 
1 5 1 7 0 7 3 7 0 7 2 8 1 8 1 7 
2 7 0 7 3 6 1 5 -1 5 1 5 1 3 1 3 
1 2 2 0 -1 -1 -1 -1 0 -3 -1 -4 -1 -5 -1 -5 
-1 -6 -1 -7 0 -8 -1 -9 -2 -9 0 -9 -1 -10 -1 -11 
-1 -10 0 -22 -1 -10 0 -31 -1 -9 -1 -10 -1 -9 -1 -8 
-1 -8 -2 -8 -2 -7 -2 -6 -3 -7 -3 -5 -4 -5 -3 -5 
-4 -4 -5 -3 -4 -3 1506 933 100 MP stroke
-2 -3 -5 -3 -7 -2 -3 -3 -6 -2 -6 -2 -4 -2 -6 -3 
-4 -2 -4 -3 -6 -3 -6 -4 -5 -3 -4 -4 -7 -4 -5 -4 
-5 -4 -7 -4 -5 -4 -5 -4 -5 -4 -5 -5 -5 -3 -5 -3 
-5 -4 -4 -3 -3 -2 -6 -3 -4 -2 -3 -2 -6 -2 -4 -2 
-5 -2 -5 -2 -3 -2 -4 -2 -5 -2 -3 -2 -5 -2 -4 -2 
-3 -3 -5 -2 -3 -3 -4 -3 -3 -3 -3 -3 -4 -2 -3 -2 
-2 -2 -2 -3 -2 -1 -3 -2 -2 -1 -1 0 -2 -1 -1 1 
-2 0 -1 1 -2 1 1 2 0 2 -1 3 -1 4 -1 3 
-1 5 0 5 -1 5 -1 6 -1 7 -1 7 -1 7 1 8 
-1 8 -1 9 0 8 -1 9 0 9 -1 8 -1 9 0 8 
-2 8 -1 8 -1 6 -1 7 0 5 -1 5 0 4 -2 4 
1 3 0 2 -2 2 -3 0 -2 1 -1 0 -2 -1 -2 -1 
-3 -2 -4 -1 -1 -2 1784 895 100 MP stroke
-4 -2 -4 -2 -2 -2 -4 -1 -3 0 -2 -1 -4 1 -4 1 
-3 3 -3 3 -3 3 -4 5 -5 6 -3 6 -3 6 -5 8 
-4 7 -5 7 -5 8 -4 7 -5 7 -5 6 -6 6 -5 5 
-6 4 -5 3 -7 3 -6 1 -7 0 -8 0 -6 -1 -7 -2 
-7 -2 -6 -3 -8 -3 -8 -3 -6 -3 -7 -3 -8 -3 -9 -2 
-8 -2 -8 -1 -8 -1 -8 0 -8 0 -8 1 -7 2 -7 2 
-9 3 -7 3 -9 3 -8 4 -8 4 -8 4 -8 4 -10 4 
-6 4 -8 3 -8 3 -7 3 -9 2 -9 2 -7 2 -9 1 
-8 1 -8 0 -9 0 -9 0 -9 0 -8 0 -9 0 -8 1 
-10 1 -9 1 -9 1 -9 2 -9 3 -8 2 -9 4 -11 3 
-9 4 -10 3 -9 4 -9 3 -10 3 -8 2 -10 2 -9 2 
-8 0 -11 1 -11 -1 -11 -1 -10 -2 -10 -2 -9 -2 -9 -4 
-11 -3 -10 -3 -11 -4 2509 751 100 MP stroke
-10 -4 -10 -5 -11 -4 -11 -4 -10 -5 -11 -4 -12 -4 -11 -5 
-10 -4 -12 -4 -11 -4 -10 -4 -11 -3 -10 -3 -11 -3 -11 -2 
-11 -2 -9 -2 -11 -1 -12 0 -11 0 -12 0 -9 1 -11 1 
-9 1 -11 1 -13 1 -10 0 -10 1 -10 0 -10 -1 -11 -1 
-11 -2 -11 -3 -10 -4 -11 -4 -11 -6 -10 -7 -10 -7 -10 -8 
-11 -9 -10 -9 -10 -10 -9 -9 -10 -10 -12 -9 -8 -9 -9 -8 
-9 -7 -9 -6 -9 -5 -9 -3 -9 -2 -9 0 -9 1 -9 3 
-8 4 -8 5 -8 7 -8 8 -8 8 -9 9 -9 9 -8 10 
-8 9 -8 8 -6 8 -6 6 -9 6 -8 4 -6 2 -8 1 
-8 -2 -8 -2 -7 -4 -9 -6 -8 -7 -7 -8 -7 -10 -8 -10 
-7 -11 -6 -12 -8 -11 -7 -12 -6 -11 -13 -11 -6 -10 1 -9 
-9 -8 -6 -7 -6 -7 -7 -5 -4 -5 -6 -3 -5 -3 -6 -2 
-5 -2 -4 -1 -8 -1 3391 1023 100 MP stroke
-4 0 -7 -1 -4 0 -5 0 -13 0 -4 -1 -9 -1 -4 0 
-5 -1 -11 -2 -4 -1 0 -2 -7 -1 -5 -2 -3 -2 -5 -2 
-5 -3 -6 -3 -5 -2 -6 -3 -5 -4 -4 -4 -10 -4 -8 -4 
3 -4 -6 -5 -13 -4 0 -5 -3 -4 -6 -5 -8 -4 -10 -3 
0 -3 -7 -2 -7 -1 3 -1 -10 1 -8 2 1 3 -4 4 
-8 5 -9 6 3 7 -7 9 -21 9 -4 10 3 11 -3 11 
-6 12 -7 12 -3 11 -4 11 -8 12 -5 10 -7 11 -4 10 
-4 9 -15 10 -7 10 2 9 0 10 -6 10 -11 11 0 11 
-6 10 -6 13 0 13 -11 12 -1 13 -2 13 -7 12 -6 13 
-8 10 1 10 -8 7 -5 6 3 0 -10 1 0 -4 -6 1 
-10 -5 1 -8 -6 -10 -4 -11 -3 -12 -6 -14 -4 -13 -8 -13 
-1 -13 -1 -11 -3 -10 -2 -9 -3 -8 -2 -5 -6 -4 -4 -2 
1 -1 -4 1 -3 2 3876 876 100 MP stroke
1 4 -6 4 -6 5 2 6 -3 6 -4 7 -3 8 -3 6 
-3 9 -4 7 0 16 -8 9 -3 8 1 9 -1 9 0 10 
-1 9 -4 11 -1 10 -1 11 -4 10 1 12 -3 11 -2 11 
2 11 -2 11 0 10 -3 9 0 18 -1 7 1 5 -2 4 
0 6 -2 0 2 0 -3 -4 0 -10 1 -4 -1 -6 2 -6 
1 -4 1 -5 0 -4 1 -4 2 -2 0 -3 1 -2 1 -1 
1 0 4 0 1 0 0 2 4 1 1 2 3 2 1 2 
4 2 6 2 0 3 -1 2 4 4 3 3 1 3 2 4 
3 4 4 4 2 3 6 4 9 3 -1 2 2 2 6 -2 
1 -3 6 4 3 1 5 -2 5 -1 3 -3 5 -2 2 -1 
5 -1 5 -1 6 0 4 1 3 1 7 1 1 3 5 2 
6 3 3 3 8 4 3 3 4 3 5 3 4 2 6 1 
4 3 5 0 5 1 3746 565 100 MP stroke
6 0 5 0 3 -1 6 -1 5 0 5 -2 6 0 5 -1 
5 0 5 -1 6 0 5 0 4 0 8 0 7 1 4 1 
4 0 6 1 5 0 4 1 7 0 4 0 5 -1 4 0 
4 0 5 -1 4 -1 5 -1 4 -1 4 0 4 0 4 0 
3 1 3 1 5 3 4 3 4 5 4 6 4 6 5 8 
3 9 6 11 5 10 2 12 6 13 5 13 4 12 4 12 
5 11 5 10 3 9 4 3 3 6 5 5 3 0 5 -2 
3 -5 4 -7 4 -8 4 -12 4 -12 5 -13 4 -14 5 -15 
4 -15 5 -14 4 -14 5 -14 5 -12 4 -11 4 -9 5 -8 
5 -6 5 -5 4 -2 6 -2 4 0 5 2 5 2 4 3 
6 5 5 4 5 5 4 4 5 4 5 4 5 2 5 2 
4 1 4 0 3 -2 3 -2 6 -3 4 -4 4 -5 3 -5 
3 -6 4 -6 2 -6 3301 604 100 MP stroke
4 -7 4 -6 4 -6 3 -5 3 -5 4 -5 2 -3 4 -3 
3 -3 4 -1 4 -1 1 0 3 0 5 2 3 2 3 2 
3 3 2 4 2 3 3 4 2 5 2 4 3 4 2 4 
2 4 1 4 2 2 2 3 3 2 2 1 1 0 3 -1 
2 -1 2 -2 2 -3 3 -4 3 -4 3 -5 2 -6 2 -6 
3 -7 2 -7 3 -7 3 -7 2 -7 1 -7 4 -7 3 -7 
1 -5 2 -6 2 -5 1 -5 2 -4 1 -4 1 -3 2 -3 
0 -4 1 -2 1 -3 0 -3 1 -3 1 -4 0 -3 1 -4 
-1 -5 0 -4 1 -6 0 -5 1 -5 1 -6 1 -5 1 -6 
2 -5 0 -9 2 -4 1 -3 1 -3 1 -2 2 -1 1 0 
2 1 1 2 1 1 1 3 2 2 1 2 1 1 0 2 
1 2 1 1 0 -1 1 -1 0 -2 1 -2 0 -16 1 -5 
0 -17 -1 -7 1 -6 3127 854 100 MP stroke
-1 -7 -1 -7 0 -13 1 -7 0 -7 -1 -7 0 -19 -1 -6 
-1 -5 1 -5 -1 -5 1 -5 0 -5 -1 -5 1 -4 0 -5 
-1 -5 0 -4 -1 -6 1 -5 0 -12 -1 -6 0 -6 -1 -6 
-2 -7 0 -12 -1 -6 1 -5 0 -9 1 -4 0 -3 1 -3 
0 -1 1 -2 1 -2 0 -1 -1 -2 0 -3 1 -2 -1 -2 
-1 -4 1 -4 -1 -5 -2 -5 -1 -6 -1 -7 -2 -8 -1 -9 
-2 -9 -1 -10 -2 -10 -2 -10 -2 -10 -2 -11 -1 -10 -1 -10 
-1 -9 -1 -9 -2 -7 0 -7 -1 -6 -1 -5 -1 -4 -1 -3 
0 -3 -1 -1 0 -6 1 -2 1 -4 0 -32 1 -10 0 -20 
1 -12 -1 -11 1 -10 -1 -10 -1 -10 1 -8 0 -26 -1 -2 
1 -2 -1 -1 -1 0 2 0 -1 0 -1 0 1 0 -2 -2 
0 -2 -1 -3 0 -17 1 -6 0 -13 1 -7 1 -6 0 -6 
1 -6 0 -9 1 -3 3158 1508 100 MP stroke
1 -3 2 -3 2 -2 1 -2 2 -2 3 -2 1 -2 3 -2 
6 -2 1 -2 1 -2 5 -1 2 -2 4 -2 5 -2 4 -1 
5 -3 5 -1 6 0 5 -2 5 -1 7 -1 5 -1 6 -1 
5 0 6 -1 7 0 5 -1 6 0 6 -1 6 -2 6 -1 
6 -2 6 -3 7 -4 6 -3 7 -3 7 -4 6 -5 9 -5 
4 -6 13 -6 13 -5 -1 -6 7 -6 8 -6 13 -6 14 -6 
-3 -5 10 -5 11 -6 5 -5 11 -4 5 -5 11 -6 10 -4 
6 -5 10 -5 5 -5 11 -5 6 -5 9 -4 9 -5 5 -4 
10 -3 4 -3 11 -2 6 -2 7 -1 11 0 -1 0 18 0 
10 1 0 1 10 2 4 2 18 3 5 3 4 4 16 4 
-2 4 20 6 14 6 -7 6 4 6 11 7 17 8 1 7 
9 8 14 7 -4 7 10 7 5 7 11 7 11 6 -5 6 
13 5 4 5 4 4 2515 1582 100 MP stroke
17 3 1 4 4 2 5 3 7 2 6 2 5 2 10 2 
4 3 9 3 6 3 4 3 17 4 5 4 0 5 9 4 
7 5 8 6 7 5 7 6 6 5 8 6 8 6 7 5 
7 6 6 6 7 6 5 6 6 7 11 6 2 7 2 8 
8 8 4 8 6 9 11 10 3 10 0 12 11 11 8 12 
0 12 4 12 12 12 3 12 0 12 7 12 5 10 5 10 
5 9 2 9 9 7 8 6 0 5 3 4 5 3 3 1 
5 1 4 1 3 -1 5 -1 3 -1 4 -2 3 -2 4 -1 
6 -2 0 -2 1 -1 5 0 2 -1 3 0 3 0 2 1 
4 0 2 1 4 1 3 0 2 0 2 0 2 -1 4 -1 
2 -2 2 -2 3 -2 2 -3 3 -4 2 -3 3 -4 3 -3 
4 -4 3 -3 4 -2 4 -2 -2 -2 5 0 6 0 0 1 
3 3 3 3 4 4 2050 1257 100 MP stroke
4 5 4 5 4 7 2 6 8 7 4 8 0 7 4 8 
3 7 3 7 4 7 3 7 3 6 4 6 4 5 4 5 
4 5 3 5 5 4 4 4 5 4 4 4 3 4 5 4 
3 4 5 4 10 4 1 5 2 4 6 5 4 5 5 5 
4 5 6 5 6 5 6 5 6 6 5 5 6 5 5 6 
6 5 6 5 6 5 9 6 7 5 6 5 8 5 5 4 
8 5 7 5 8 5 8 5 7 5 8 6 7 5 8 6 
8 5 9 6 10 7 6 6 9 7 8 7 8 7 11 7 
4 7 14 7 14 7 -1 7 7 6 10 7 8 6 10 6 
6 6 9 5 8 5 8 4 10 4 7 4 8 3 8 3 
8 2 10 3 8 1 8 2 7 1 8 2 8 1 9 1 
10 1 8 0 9 1 7 1 8 1 8 1 8 1 9 1 
7 1 9 1 7 1 1410 798 100 MP stroke
8 2 10 2 6 1 8 2 8 3 7 2 7 2 6 3 
9 3 6 2 7 3 8 3 6 3 8 3 5 3 8 2 
7 3 6 1 15 2 5 1 1 0 9 0 4 0 5 -1 
8 -2 5 -2 7 -3 5 -2 5 -3 6 -4 5 -3 7 -3 
5 -4 8 -3 11 -3 0 -3 3 -3 8 -3 4 -3 6 -3 
4 -3 6 -2 7 -3 4 -3 5 -3 3 -3 5 -3 5 -4 
4 -4 6 -4 1 -4 6 -5 6 -6 2 -5 4 -6 2 -7 
9 -7 9 -7 3 -7 6 -8 4 -8 2 -8 4 -9 4 -8 
2 -8 3 -8 4 -8 2 -7 2 -7 2 -6 3 -6 2 -5 
-1 -4 2 -3 1 -1 -1 -1 2 0 1 2 0 3 3 4 
0 5 -1 6 1 7 0 15 -1 8 -5 9 3 9 3 9 
1 8 0 8 -8 8 1 7 5 6 -7 6 -1 5 0 5 
-3 4 -1 2 -3 2 1026 853 100 MP stroke
-2 2 -2 1 -3 0 -1 -1 -3 -1 -3 -1 -3 -1 -4 -2 
-4 -2 -4 -2 -4 -1 -5 -2 -3 -2 -4 -1 -4 -1 -4 -1 
-6 -1 -7 -1 1 0 -1 0 -8 0 -5 0 -4 0 -4 0 
-5 0 -5 0 -4 -1 -10 -1 -7 -1 2 -2 -3 -4 -12 -1 
-9 -4 -5 -4 -7 -5 -7 -5 -8 -5 -6 -7 -6 -6 -9 -7 
-3 -6 -4 -7 -7 -7 -6 -6 -10 -5 -7 -5 -4 -5 -6 -5 
-6 -4 -5 -4 -4 -3 -7 -3 -3 -3 -3 -4 -7 -3 -5 -2 
-7 -3 -13 -3 -8 -4 1 -5 -6 -5 -8 -6 -3 -7 -12 -8 
-6 -9 0 -10 -5 -10 -8 -11 -6 -11 -6 -12 -8 -11 -6 -12 
-7 -12 -8 -12 -7 -11 -7 -10 -5 -10 -5 -9 -7 -8 -6 -8 
-6 -8 -6 -6 -7 -6 -5 -6 -7 -5 -6 -5 -6 -6 -7 -6 
-5 -5 -7 -6 -6 -6 -5 -7 -7 -7 -5 -6 -9 -8 -5 -7 
-8 -8 -9 -7 -3 -8 1573 1325 100 MP stroke
-16 -7 -7 -9 -1 -8 -7 -9 -6 -9 -15 -10 -7 -12 1 -10 
-11 -12 -5 -13 -7 -12 -9 -14 -6 -13 -9 -18 -6 -13 -7 -14 
-6 -13 -7 -15 -7 -13 -7 -15 -8 -14 -8 -14 -6 -13 -9 -12 
-8 -14 -7 -11 -8 -11 -7 -10 -8 -11 -7 -12 -6 -8 -5 -12 
-12 -8 -14 -10 0 -8 -2 -9 -12 -8 -1 -8 -11 -7 -16 -7 
0 -6 -5 -2 -8 -3 -10 1 -13 0 1 2 -3 5 -8 5 
-8 6 -9 7 -6 7 -8 7 -7 7 -16 6 -8 7 3 5 
-11 6 -7 4 -7 3 -13 -1 -5 4 -5 5 -8 2 -6 1 
-7 1 -8 0 -4 1 -12 0 -11 0 1 0 -6 0 -6 -1 
-14 0 -18 -1 7 -1 -2 -2 -14 -2 -1 -2 -3 -3 -6 -3 
-6 -3 -5 -4 -5 -4 -6 -4 -5 -3 -5 -4 -5 -3 -5 -2 
-5 -2 -6 -2 -6 -1 -4 0 -6 1 -4 2 -8 2 -2 2 
1 3 -11 3 -7 2 2244 1723 100 MP stroke
0 2 -4 2 -9 1 -5 0 2 -1 -8 -3 -4 -3 -4 -5 
-12 -7 -2 -7 -2 -9 -6 -9 -5 -10 -10 -11 -2 -12 0 -11 
-7 -11 -8 -10 1 -9 -3 -8 -11 -7 -2 -4 -1 -2 -6 0 
-12 -2 -9 5 1 4 -3 13 -1 10 -1 12 -5 12 -4 13 
-4 13 -3 13 -6 12 -2 12 -5 11 -7 10 0 8 -5 8 
-5 7 1 5 -5 5 -4 4 -3 3 -4 4 -5 3 -3 2 
-5 3 -4 3 -3 3 -5 2 -2 3 -5 3 -3 3 -2 3 
-9 3 0 2 -4 3 -4 2 0 2 -7 1 0 1 -4 1 
-4 1 -7 0 1 0 -5 0 -2 0 -1 -1 -6 0 1 -1 
-5 -1 -2 -2 -2 -1 -5 -1 2 -1 -6 -2 0 -1 -3 -1 
-5 -1 4 -2 -3 -1 -3 0 1 0 -1 0 1 0 -3 -1 
1 0 -1 -1 1 -1 -2 -1 1 -2 -1 -2 -1 -3 0 -6 
-2 -3 -4 -4 2 -4 2562 1675 100 MP stroke
-1 -4 0 -3 1 -3 -1 -3 1 -2 -1 -2 -3 0 0 15 
-1 5 -1 4 1 5 -1 5 0 4 1 5 -1 4 1 3 
0 3 1 2 0 2 1 -1 -1 -2 1 -3 -2 -3 0 -3 
-1 -4 -3 -5 2 -5 -1 -5 -2 -5 1 -6 -4 -5 -2 -6 
0 -10 1 -5 -3 -4 1 -4 -2 -3 0 -2 -1 -2 -1 -1 
0 -1 -2 0 -1 1 -1 1 0 1 -2 1 -1 1 0 1 
-2 1 -1 0 1 0 -2 -2 -1 -2 -1 -2 -1 -2 -1 -3 
0 -3 -1 -4 0 -3 -1 -3 0 -12 0 1 1 2 1 3 
-1 4 1 5 0 6 1 8 1 8 0 8 1 9 0 9 
2 9 1 8 -1 8 1 7 1 5 2 4 0 3 1 1 
1 -2 0 -3 1 -5 1 -7 0 -8 1 -11 1 -11 2 -12 
-1 -13 2 -13 0 -14 1 -12 2 -13 -2 -11 4 -10 -4 -7 
-10 -11 0 -8 7 8 2581 1804 100 MP stroke
8 5 -2 6 0 8 1 9 0 11 1 11 -2 13 1 13 
-1 12 0 23 -1 10 -1 9 -1 8 0 7 -1 6 0 10 
-1 4 0 7 -1 2 -1 2 0 1 -1 2 -1 1 -2 0 
-1 -1 -2 -1 -1 -2 -3 -2 -1 -3 -1 -3 -2 -4 -2 -4 
-3 -5 -1 -5 -2 -4 -3 -4 -1 -4 -5 -3 2 -3 -7 -1 
-13 -8 9 8 4 1 -7 3 0 4 -4 4 -1 6 -2 6 
-3 6 0 7 -3 7 -3 6 -3 7 -3 6 -2 6 -4 5 
-2 5 -4 3 -4 3 -4 2 -3 1 -2 0 -5 0 -3 -1 
-4 -1 -4 -2 -2 -1 -3 -2 -3 -1 -4 -1 -4 0 -3 0 
-4 1 -4 1 -3 2 -5 3 -4 3 -4 3 -4 4 -4 4 
-3 5 -5 4 -4 5 -3 4 -4 4 -4 4 -4 4 -3 4 
-5 4 -4 3 -4 4 -4 3 -4 3 -4 3 -4 3 -4 3 
-5 3 -4 3 -4 3 2816 1504 100 MP stroke
-5 3 -4 3 -4 3 -4 3 -5 3 -4 3 -5 3 -4 3 
-4 3 -4 2 -4 3 -4 2 -4 2 -5 2 -4 2 -5 2 
-3 2 -3 2 -4 2 -4 3 -5 3 -4 4 -4 4 -4 4 
-3 5 -4 5 -5 6 -4 6 -4 6 -5 5 -4 6 -5 6 
-4 5 -5 5 -4 5 -5 4 -3 3 -5 3 -4 2 -4 2 
-5 1 -4 1 -5 0 -4 0 -4 0 -5 0 -5 0 -5 1 
-5 0 -5 1 -4 2 -5 2 -4 3 -4 3 -6 4 -5 4 
-5 6 -5 5 -4 5 -4 6 -5 5 -5 5 -5 5 -6 4 
-5 3 -5 3 -5 3 -5 2 -6 1 -7 1 -6 0 -6 0 
-7 -1 -5 -1 -6 -1 -7 -2 -7 -2 -6 -1 -8 -2 -6 -2 
-7 -2 -6 -1 -7 -1 -7 0 -7 0 -8 0 -7 1 -6 2 
-8 3 -7 4 -7 4 -7 5 -7 5 -7 6 -7 6 -7 6 
-7 6 -8 6 -7 6 3329 1244 100 MP stroke
-7 5 -7 5 -6 4 -7 3 -6 3 -7 3 -7 2 -6 1 
-7 0 -5 1 -7 1 -6 0 -7 0 -7 1 -6 0 -7 2 
-6 1 -7 2 -6 3 -6 3 -7 4 -6 4 -7 5 -6 6 
-6 5 -6 6 -5 6 -6 7 -6 6 -5 5 -7 6 -4 5 
-9 4 -10 4 1 3 -5 2 -7 1 -4 1 -7 -1 -4 -1 
-6 -3 -6 -3 -4 -4 -8 -4 -3 -5 -9 -5 -11 -5 0 -5 
-9 -5 -6 -4 2 -4 -7 -2 -5 -2 -5 -1 -6 0 -5 0 
-7 2 -5 3 -6 3 -6 3 -5 4 -8 4 -4 4 -7 5 
-6 4 -7 4 -6 3 -6 3 -7 2 -5 2 -7 1 -6 1 
-6 0 -7 0 -5 -1 -7 -1 -5 -2 -6 -1 -6 -2 -4 -2 
-6 -2 -4 -2 -7 -1 -5 -1 -5 -1 -5 0 -4 1 -7 1 
-5 2 -4 3 -6 4 -2 4 -9 5 -6 6 0 6 -4 7 
-4 7 -3 7 -4 7 3897 1086 100 MP stroke
-4 8 -3 7 -3 6 -4 6 -2 5 -4 4 -4 4 0 2 
-2 1 -3 -1 -1 -1 -2 -3 -2 -4 -1 -5 -1 -6 -2 -6 
-1 -8 0 -8 -1 -8 -1 -9 0 -35 -1 -8 0 -8 -1 -7 
0 -25 1 -6 0 -4 1 -5 1 -5 0 -5 2 -4 3 -5 
0 -5 1 -6 2 -5 1 -6 2 -6 2 -6 2 -7 2 -6 
2 -7 2 -7 2 -6 3 -6 3 -7 3 -6 2 -5 3 -6 
4 -4 4 -4 3 -4 4 -4 2 -2 4 -2 3 -3 4 -1 
4 -2 4 -2 5 -1 4 -2 4 -1 5 -2 5 -2 6 -3 
5 -2 6 -4 5 -4 6 -4 5 -6 5 -7 7 -7 4 -8 
7 -10 5 -10 6 -11 8 -12 3 -12 14 -13 9 -13 0 -13 
7 -13 6 -12 12 -12 9 -10 -2 -10 9 -9 8 -7 5 -7 
11 -6 5 -5 8 -5 8 -4 7 -5 8 -5 5 -6 14 -7 
14 -9 -2 -11 6 -12 3602 1646 100 MP stroke
19 -16 5 -19 1 -22 11 -23 7 -26 7 -29 9 -32 6 -32 
13 -35 4 -32 -1 -35 8 -33 8 -31 11 -30 8 -29 11 -18 
19 -20 0 -13 2 -14 20 -3 10 -7 11 0 18 7 1 5 
-3 9 9 9 9 11 8 11 9 10 9 11 9 9 6 9 
13 10 15 6 7 6 8 6 10 2 8 0 6 3 1 0 
9 0 8 0 6 -2 10 0 5 0 10 -1 15 3 8 2 
7 2 8 1 6 1 7 1 7 -1 6 -2 8 -1 3 0 
3 -3 8 -1 6 -4 5 0 7 -1 5 0 6 2 6 3 
5 4 6 6 5 8 6 10 5 13 5 14 4 16 5 18 
6 20 5 22 7 23 4 24 5 26 6 26 3 27 5 28 
4 28 6 27 10 27 4 26 4 25 5 23 4 22 4 19 
4 18 5 15 4 14 4 11 3 9 4 7 4 6 4 3 
4 3 3 2 4 0 2935 1452 100 MP stroke
4 1 4 0 4 1 3 2 4 2 4 4 5 5 4 7 
2 8 4 11 3 12 3 15 4 17 1 18 3 20 2 21 
2 23 0 22 1 24 1 23 1 23 0 22 1 21 1 21 
0 18 -1 17 -1 15 0 13 -1 12 -2 10 -1 8 -1 7 
-1 6 -2 4 -1 4 -2 3 -3 4 -3 3 -3 4 -2 5 
-4 5 -4 6 -2 8 -4 8 -6 9 -4 10 -3 11 -4 12 
-5 12 -4 14 -5 14 -7 14 -5 14 -4 15 -6 14 -5 14 
-5 13 -6 13 -7 13 -6 12 -5 11 -6 9 -6 10 -6 8 
-7 7 -9 6 -7 5 -4 4 -7 4 -7 2 -8 1 -6 1 
-7 1 -7 -1 -6 -1 -7 -1 -7 -2 -6 -2 -9 -3 -7 -3 
-7 -4 -9 -4 -9 -4 -8 -5 -9 -4 -9 -5 -9 -5 -9 -4 
-9 -5 -9 -4 -9 -3 -9 -4 -8 -2 -9 -2 -8 -2 -9 -1 
-12 -2 -9 -1 -11 -1 3299 771 100 MP stroke
-10 0 -8 -2 -10 -1 -11 -2 -12 -2 -11 -3 -10 -3 -10 -4 
-11 -4 -12 -5 -12 -5 -10 -5 -13 -5 -11 -5 -10 -5 -12 -4 
-14 -4 -12 -3 -13 -2 -13 -2 -12 -1 -13 1 -14 1 -12 2 
-11 4 -14 4 -12 5 -13 5 -14 6 -11 7 -14 7 -14 7 
-13 7 -14 8 -14 7 -14 7 -12 7 -12 7 -12 7 -14 6 
-15 6 -12 6 -12 5 -12 6 -11 5 -14 5 -11 5 -12 5 
-14 5 -11 6 -12 5 -13 6 -12 6 -11 6 -14 7 -15 7 
-12 6 -13 7 -12 6 -11 5 -9 5 -14 4 -14 4 -11 2 
-10 2 -11 1 -11 -1 -6 -1 -19 -2 -19 -3 2 -3 -8 -5 
-12 -4 -6 -5 -12 -2 -8 -3 -8 -2 -9 -2 -9 1 -13 2 
-6 4 -8 4 -6 9 -6 8 -7 10 -4 11 -9 13 -4 13 
-5 13 -6 12 -4 11 -12 11 -5 10 1 6 -3 5 -4 4 
-8 2 -3 0 1 -2 4337 486 100 MP stroke
-3 -3 -6 -5 0 -3 1 -5 -5 -6 -1 -4 -1 -5 -1 -4 
0 -6 0 1 2 1 0 2 1 3 3 3 2 2 0 4 
1 3 1 4 6 3 3 3 0 2 8 3 -2 2 -1 2 
7 2 1 1 1 1 6 2 16 0 2 2 -4 1 5 1 
-5 3 8 2 9 3 -1 2 5 5 1 5 12 5 4 6 
1 6 13 6 -1 7 9 7 7 6 -1 6 6 6 4 5 
13 4 2 4 5 2 10 0 -1 0 6 -1 6 -3 7 -3 
4 -5 9 -6 12 -6 -1 -7 12 -7 6 -7 1 -7 7 -8 
6 -6 15 -7 1 -6 8 -6 12 -5 -2 -5 10 -3 5 -4 
14 -4 11 -3 -4 -3 13 -3 4 -3 6 -3 10 -2 5 -3 
9 -2 6 -3 8 -3 7 -2 13 -3 8 -3 -3 -3 12 -3 
6 -3 5 -3 10 -3 3 -3 12 -3 4 -3 8 -4 18 -3 
3 -4 2 -4 10 -3 3871 573 100 MP stroke
7 -5 8 -3 8 -4 6 -3 7 -4 7 -3 5 -4 8 -2 
7 -3 10 -3 9 -2 4 -2 11 -3 9 -3 8 -2 8 -3 
8 -4 8 -4 7 -5 9 -5 8 -6 8 -7 11 -8 12 -8 
7 -9 8 -10 19 -10 4 -11 1 -11 14 -10 5 -10 10 -11 
11 -9 7 -8 11 -8 7 -6 11 -4 8 -4 9 -1 10 0 
8 1 11 3 9 3 9 5 10 5 7 5 13 6 9 5 
10 4 12 3 9 2 10 0 8 -1 10 -3 9 -4 9 -7 
8 -8 10 -9 10 -10 8 -12 10 -13 10 -13 9 -13 9 -14 
10 -13 11 -12 8 -12 11 -11 9 -10 8 -9 12 -8 7 -7 
12 -6 12 -5 11 -4 11 -4 9 -3 12 -2 8 -2 11 -2 
11 -1 9 -2 14 -1 8 -1 13 0 9 -1 9 0 26 1 
9 1 0 1 11 3 9 3 11 4 11 5 10 5 10 7 
10 7 9 7 12 8 2946 920 100 MP stroke
9 9 8 9 12 9 10 9 12 8 10 9 5 8 22 7 
13 7 -2 6 9 6 10 4 8 4 8 3 10 2 8 2 
11 1 21 1 4 1 2 0 16 0 6 1 8 0 9 1 
6 1 11 1 6 2 10 3 11 2 8 4 9 4 5 4 
10 4 5 5 11 5 19 5 4 5 1 6 10 5 6 5 
7 5 8 5 7 5 6 5 5 4 8 4 9 4 8 4 
6 3 6 3 6 3 5 3 7 2 5 2 5 2 7 2 
5 2 7 2 4 2 5 1 7 2 4 2 6 1 4 2 
4 2 7 2 9 1 6 2 4 1 7 1 5 1 5 1 
7 -1 3 0 6 -1 4 -1 8 -2 12 -3 0 -2 8 -4 
10 -4 -2 -3 6 -5 5 -4 2 -4 7 -5 7 -4 6 -3 
5 -4 6 -3 4 -4 4 -3 3 -3 2 -3 6 -4 6 -4 
3 -4 4 -5 4 -6 2255 760 100 MP stroke
3 -6 3 -7 3 -8 1 -9 5 -10 5 -10 3 -11 4 -12 
4 -12 3 -12 3 -12 5 -12 5 -13 0 -12 3 -12 4 -12 
3 -11 5 -12 2 -10 4 -11 3 -10 1 -10 3 -10 0 -9 
4 -10 4 -9 1 -9 3 -10 2 -11 2 -11 1 -11 1 -13 
2 -13 2 -15 0 -16 2 -17 1 -17 1 -19 1 -19 0 -41 
1 -21 0 -80 1 -19 -1 -19 0 -18 1 -18 -1 -18 0 -36 
-1 -19 -1 -20 0 -20 -1 -21 -1 -22 -1 -22 -2 -24 0 -23 
-2 -23 -2 -24 -2 -23 -2 -22 -1 -21 -1 -20 -2 -18 -1 -16 
-3 -15 -1 -13 -1 -10 -1 -9 -2 -7 -2 -6 -2 -3 0 -3 
-2 -2 -2 -3 -2 -2 -2 -3 -2 -3 -2 -5 -1 -7 -1 -9 
-2 -11 -3 -15 -2 -16 -2 -20 -2 -23 -2 -26 -2 -29 -2 -31 
-3 -34 -2 -36 -3 -37 -6 -39 -2 -39 -2 -40 -4 -41 2 -34 
0 -38 -3 -34 -2 -32 2240 2496 100 MP stroke
-7 -30 -3 -29 -1 -25 -3 -23 -2 -22 -2 -20 -3 -19 2 -17 
0 -19 -5 -16 -3 -17 -5 -16 -7 -14 -5 -16 -3 -16 -5 -16 
-4 -15 -4 -15 -5 -13 -5 -11 -5 -10 -5 -8 -5 -5 -6 -3 
-5 0 -5 2 -6 3 -6 5 -6 6 -6 9 1 10 -2 9 
-12 10 -6 9 1 9 -7 7 -12 7 -6 2 -6 5 -7 -8 
-5 3 2 0 -4 -7 -14 -10 -4 -14 0 -15 -8 -17 -15 -23 
-8 -26 2 -23 -12 -30 -6 -34 -2 -30 -15 -32 -7 -31 -11 -29 
-7 -31 2 -26 -10 -23 -6 -21 -6 -17 -8 -16 -3 -10 -8 -8 
-5 -5 -8 -2 -6 1 -5 6 -8 8 -5 16 -6 16 -6 21 
-14 25 -5 29 2 30 -14 32 0 62 -23 42 -6 32 4 32 
-3 19 -9 35 -15 31 -8 22 -5 23 -8 17 -5 18 -7 16 
-6 14 4 12 -2 2 -15 18 -11 4 -4 6 -7 3 -4 3 
1 -6 -7 5 -21 -6 2811 2695 100 MP stroke
-7 -4 0 -6 -13 -7 -2 -10 -4 -5 -5 -10 3 -15 -19 8 
-9 -1 -1 4 -17 7 -3 13 -3 17 -7 25 -5 30 -15 35 
-2 41 -3 42 -6 49 -6 48 -8 53 5 54 -8 50 -12 52 
3 48 -7 46 -7 43 -6 39 -6 35 -7 32 -5 28 -8 24 
-25 20 -7 16 5 20 -5 14 2 13 -8 11 -6 10 -4 10 
-9 10 -3 9 -9 10 -11 10 -1 10 -2 11 -12 11 -7 12 
1 12 -6 11 -4 12 -5 11 -4 11 -11 11 -16 9 10 11 
-3 9 -16 8 3 8 -9 7 -7 6 0 6 -12 6 0 6 
-6 6 -9 6 2 6 -6 7 -5 7 -11 8 -11 9 9 8 
-9 12 -16 8 8 14 -10 13 -18 9 7 17 5 13 -5 13 
-9 13 -2 14 0 12 -6 11 -3 10 -4 9 -4 9 -2 7 
-9 6 -4 4 1 4 -4 4 -8 2 -2 2 0 2 -6 2 
-2 2 -4 2 -4 2 3329 1316 100 MP stroke
-2 3 -7 3 -5 4 1 5 -5 5 -8 5 0 6 -4 7 
-6 7 0 7 -12 7 -1 7 4 7 -9 6 0 7 -3 6 
-6 6 1 5 -5 5 -2 5 -2 4 -6 5 1 4 -3 4 
-7 4 -1 4 0 4 -5 4 -5 5 0 4 -4 5 -4 6 
2 5 -4 6 -4 5 0 6 -4 5 -1 6 -1 4 -4 5 
1 3 -4 4 0 2 -2 2 -5 0 2 1 0 -1 -1 -1 
0 -2 -2 -2 1 -3 -2 -3 1 -3 0 -3 -1 -4 1 -3 
-1 -2 2 -3 0 -3 -1 -2 2 -2 -1 -1 2 -1 1 -1 
1 0 -1 0 3 1 1 1 0 2 2 0 1 1 -1 1 
2 -1 3 0 0 -3 -1 -2 3 -4 2 -3 0 -21 1 -6 
1 -6 2 -5 0 -6 2 -5 1 -5 -1 -4 3 -4 1 -3 
0 -2 3 -2 1 -1 2 0 2 1 0 1 3 2 2 1 
-1 2 1 1 1 2 3418 1203 100 MP stroke
5 1 2 1 -2 0 1 0 6 -1 1 -1 -3 -2 8 -2 
5 -2 -1 -3 0 -3 -1 -3 5 -3 3 -3 -2 -2 5 -2 
5 -1 -1 -1 5 0 2 1 1 1 5 2 0 2 1 3 
5 3 0 2 6 2 3 2 0 1 6 0 1 -1 2 -2 
6 -3 -2 -5 5 -6 8 -7 -1 -8 7 -9 4 -9 1 -10 
9 -10 0 -10 3 -10 5 -9 7 -8 8 -8 -1 -6 9 -6 
4 -4 -1 -4 9 -3 3 -2 12 -2 2 -1 -2 -2 16 -1 
1 -2 4 -2 11 -2 -1 -4 5 -4 5 -5 6 -5 4 -6 
6 -6 12 -7 2 -7 1 -7 10 -6 9 -7 -1 -5 10 -6 
5 -4 -3 -4 12 -3 0 -3 8 -2 13 -2 -3 -1 11 -1 
2 -1 4 -2 9 -1 -1 -2 11 -2 2 -2 5 -3 11 -3 
-1 -4 11 -4 2 -4 8 -5 16 -4 -6 -5 2 -4 11 -3 
3 -4 0 -3 13 -2 3005 1516 100 MP stroke
7 -2 0 -1 12 -1 1 0 7 1 9 1 -1 1 7 2 
6 2 13 2 5 2 2 2 14 2 -2 1 13 2 6 0 
1 1 19 -1 -8 -1 11 -2 17 -2 -5 -4 16 -4 5 -5 
2 -5 8 -6 5 -7 19 -6 1 -7 9 -7 23 -7 -3 -6 
-3 -6 17 -5 5 -5 3 -4 18 -3 -3 -3 5 -1 22 -1 
-1 -1 7 1 5 0 9 1 19 2 -2 2 12 2 9 2 
0 2 8 3 6 2 16 1 3 1 5 1 15 1 -2 0 
6 0 8 -1 6 -1 7 -2 8 -1 6 -2 6 -2 16 -3 
2 -2 6 -3 12 -2 -1 -3 6 -2 6 -3 12 -3 7 -3 
2 -3 12 -3 0 -3 9 -4 6 -4 2 -4 12 -4 -1 -5 
10 -5 4 -5 6 -6 19 -5 -8 -6 3 -7 7 -6 2 -7 
10 -6 2 -7 10 -7 5 -6 5 -7 9 -5 1 -6 9 -5 
3 -5 6 -4 7 -4 2348 1751 100 MP stroke
2 -3 8 -2 3 -2 7 -1 4 0 4 1 6 1 3 3 
4 3 -4 2 14 6 12 5 -2 6 6 5 2 6 7 6 
4 6 4 6 8 6 1 5 10 6 1 4 8 5 10 4 
-3 4 11 4 2 3 3 2 9 3 -1 1 10 2 1 0 
5 0 6 -1 1 -2 23 -2 8 -3 -6 -4 4 -4 -2 -5 
1 -6 4 -5 9 -7 4 -6 1 -6 10 -6 -1 -5 3 -4 
9 -4 -1 -3 9 -2 6 -2 0 1 13 0 5 2 -5 3 
7 2 10 4 -1 4 -1 3 8 4 4 3 -1 4 7 2 
7 3 0 2 3 2 5 1 4 1 4 0 5 0 9 0 
1 -1 5 0 10 -1 -3 -1 6 -1 10 -1 -2 -1 10 -1 
12 -2 -5 -1 2 -2 16 -1 5 -2 -4 -2 5 -2 4 -2 
4 -2 13 -2 4 -2 -4 -2 21 -1 29 -2 -4 -1 -1 -1 
5 -1 -9 0 16 0 1872 1725 100 MP stroke
24 0 -2 2 -1 1 1 1 0 3 14 2 18 3 -2 3 
-3 3 15 4 1 3 7 4 10 4 0 3 19 4 9 4 
-10 4 15 3 19 4 -2 3 -3 4 16 4 3 4 6 4 
25 4 -4 5 -3 4 18 5 1 5 7 5 14 5 -2 5 
6 4 16 5 2 3 7 4 22 2 -3 2 -3 1 17 0 
8 -2 11 -1 -1 -3 15 -2 4 -3 0 -3 11 -1 0 -4 
10 -1 8 -1 2 -1 15 1 3 0 8 2 12 2 -1 3 
14 4 9 4 -2 6 11 7 6 8 3 10 7 11 7 12 
6 14 7 15 9 16 7 17 6 18 8 19 6 19 7 19 
6 20 8 19 6 19 8 19 6 18 9 18 15 16 1 16 
2 15 9 14 4 13 8 11 6 11 6 9 7 8 5 7 
9 6 4 4 6 3 7 2 4 1 7 -1 3 -2 9 -3 
10 -4 0 -5 4 -6 1213 1179 100 MP stroke
6 -6 3 -7 6 -7 7 -7 3 -6 5 -7 5 -5 4 -5 
5 -4 4 -2 2 -2 5 0 4 2 4 4 3 5 3 7 
3 9 1 11 3 12 1 14 1 14 2 16 2 16 2 17 
0 17 1 16 1 16 2 15 1 14 0 50 -1 6 2 5 
0 3 -2 3 0 2 -2 2 -2 1 -1 2 -1 1 -1 2 
-2 3 -2 3 -3 4 -1 4 -3 6 -5 6 -2 8 -4 8 
-4 9 -4 9 -5 10 -5 10 -5 11 -3 10 -5 11 -5 10 
-4 10 -5 10 -6 10 -5 8 -6 9 -5 8 -5 7 -4 7 
-5 6 -6 5 -6 5 -7 5 -7 3 -6 4 -7 3 -6 2 
-7 2 -8 2 -9 1 -6 1 -7 1 -10 0 -8 1 -6 0 
-9 0 -9 0 -9 0 -8 0 -9 0 -9 0 -9 0 -9 -1 
-11 0 -9 -1 -9 -1 -11 -2 -10 -1 -9 -2 -10 -3 -9 -3 
-9 -3 -9 -4 -10 -4 1518 748 100 MP stroke
-11 -5 -10 -6 -9 -5 -11 -6 -10 -7 -11 -6 -10 -7 -9 -7 
-12 -6 -10 -7 -10 -7 -11 -6 -10 -7 -11 -6 -11 -6 -10 -6 
-11 -6 -11 -6 -12 -7 -10 -6 -10 -7 -13 -8 -11 -7 -10 -9 
-11 -8 -10 -9 -11 -10 -12 -10 -10 -10 -12 -11 -13 -11 -10 -11 
-12 -11 -13 -11 -11 -11 -14 -11 -12 -11 -13 -11 -13 -10 -11 -11 
-14 -11 -11 -10 -10 -11 -14 -10 -11 -10 -12 -10 -12 -11 -11 -9 
-12 -10 -14 -9 -11 -9 -15 -8 -13 -8 -11 -8 -12 -7 -11 -5 
-12 -5 -11 -5 -12 -3 -13 -3 -13 -2 -12 -1 -12 -1 -10 -1 
-11 0 -12 -1 -13 -1 -12 -2 -14 -3 -14 -4 -11 -4 -12 -6 
-11 -7 -13 -9 -13 -10 -11 -12 -11 -12 -12 -14 -15 -16 -12 -16 
-13 -17 -13 -16 -9 -17 -13 -17 -11 -16 -13 -15 -12 -14 -11 -13 
-14 -12 -10 -10 -13 -8 -10 -7 -13 -5 -12 -4 -7 -2 -24 -1 
-15 1 2 1 -14 2 2671 1525 100 MP stroke
-14 3 -11 3 -12 3 -9 3 -12 3 -12 3 -10 3 -11 2 
-11 2 -11 2 -10 3 -10 2 -11 2 -11 3 -9 4 -10 5 
-9 5 -10 7 -9 8 -9 9 -9 10 -9 12 -9 13 -8 15 
-8 15 -8 16 -8 16 -8 17 -7 16 -9 16 -8 16 -8 15 
-8 13 -7 13 -7 9 -8 11 -7 11 -8 8 -7 6 -6 6 
-7 6 -6 4 -6 5 -8 5 -3 4 -9 5 -10 5 1 6 
-17 6 -8 7 9 7 -10 8 -1 7 -7 9 -14 8 2 8 
-9 8 -4 8 -2 7 -10 8 0 7 -6 6 -3 6 -1 6 
-6 6 0 5 -7 5 -3 6 1 5 -7 6 -2 6 -1 7 
-2 7 -6 8 -3 8 2 9 -1 9 -1 10 -3 10 -1 10 
1 10 -1 9 0 19 -3 8 -1 8 1 7 -1 6 1 6 
3 4 1 4 -1 3 1 2 -1 2 1 0 -1 0 2 -1 
0 -2 1 -2 2 -2 3203 842 100 MP stroke
0 -2 3 -2 1 -2 0 -2 4 -1 -2 -1 1 -1 4 0 
-1 0 3 1 2 2 1 2 4 3 0 3 3 4 3 4 
1 4 2 3 2 4 1 3 2 3 3 2 2 1 0 1 
5 0 1 -2 3 -2 4 -2 4 -3 0 -4 5 -3 3 -4 
-2 -4 4 -3 1 -3 2 -2 6 -2 -1 -1 3 0 2 0 
4 3 1 2 -1 3 4 4 1 3 0 4 3 5 0 19 
-1 2 0 2 -1 0 -1 0 -1 -1 -1 -1 -1 -2 -1 -2 
-1 -3 -1 -4 -1 -3 -1 -5 -1 -5 -2 -5 0 -5 -1 -7 
-1 -6 0 -6 -1 -6 0 -14 1 -7 -1 -8 1 -7 1 -8 
1 -7 2 -8 1 -7 2 -9 1 -7 2 -8 2 -7 1 -7 
1 -6 1 -6 1 -6 1 -6 1 -5 1 -4 1 -5 1 -4 
1 -4 1 -4 2 -3 0 -4 2 -3 1 -5 1 -5 2 -7 
2 -6 3 -6 0 -8 3092 1063 100 MP stroke
2 -8 2 -9 2 -10 3 -9 2 -10 3 -9 3 -10 2 -8 
3 -7 2 -6 4 -5 2 -4 4 -3 4 -2 2 -2 5 -1 
3 1 3 -1 0 1 4 1 1 0 1 0 4 0 -1 0 
1 0 1 0 2 -1 2 0 2 0 1 0 3 0 2 1 
2 0 1 1 1 0 1 1 -1 0 0 -2 1 1 0 -3 
1 -1 -1 0 0 -3 2 -1 1 -2 0 -1 1 -1 -1 1 
1 1 0 16 -2 3 0 6 -1 3 0 3 -1 2 -1 1 
-1 2 -1 2 -1 1 -1 -1 -1 -1 0 -1 -1 -3 -1 -3 
0 -4 1 -5 0 -11 1 -6 0 -6 1 -7 0 -6 1 -7 
1 -6 1 -5 1 -5 1 -3 2 -4 1 -2 1 -2 2 -1 
1 0 2 1 1 1 1 1 1 1 1 1 2 1 2 -1 
1 0 0 -2 1 -2 1 -4 0 -4 1 -6 0 -13 1 -8 
0 -16 1 -9 1 -9 2989 1291 100 MP stroke
1 -8 0 -8 1 -9 0 -8 1 -8 1 -8 1 -9 1 -8 
2 -8 1 -10 1 -9 1 -9 1 -8 1 -9 1 -9 1 -9 
0 -18 -1 -9 1 -8 1 -8 0 -15 1 -7 0 -6 1 -6 
0 -6 1 -5 0 -4 2 -5 2 -3 0 -4 3 -4 2 -5 
1 -3 2 -2 2 -2 2 -3 3 -3 3 -2 2 -3 2 -2 
4 -3 3 -3 4 -3 4 -3 3 -2 6 -3 3 -4 6 -4 
11 -4 0 -5 3 -5 6 -5 3 -5 6 -6 6 -6 6 -5 
6 -5 6 -6 7 -4 6 -3 7 -4 7 -2 8 -2 7 -2 
7 0 9 0 7 0 7 2 9 1 10 1 10 3 10 4 
10 3 10 4 10 3 11 3 10 3 11 2 12 2 11 2 
11 1 12 1 10 1 11 1 12 0 12 2 12 1 11 1 
12 2 12 3 12 2 12 6 12 5 14 6 12 6 14 8 
12 8 11 9 28 10 2420 1549 100 MP stroke
13 10 -3 10 20 11 11 11 9 11 31 10 8 11 2 11 
16 10 12 11 12 11 13 10 13 10 14 11 13 12 12 11 
13 11 12 12 12 13 12 12 13 13 13 12 13 13 13 13 
12 13 12 13 12 13 12 13 12 12 11 12 11 12 12 12 
11 12 11 12 12 11 11 12 12 11 12 12 10 11 10 12 
12 11 11 11 12 11 13 10 11 10 12 10 10 9 11 8 
12 8 10 6 10 6 12 5 10 4 11 3 10 2 11 2 
9 1 10 1 10 0 10 1 12 1 9 1 11 2 10 2 
10 3 12 5 6 5 17 7 12 7 0 9 9 9 8 10 
16 11 12 11 -2 12 9 12 8 12 6 11 10 12 6 10 
8 11 7 10 8 9 8 9 7 8 8 8 7 7 7 6 
6 6 8 6 10 6 7 5 7 6 7 5 8 6 8 5 
7 6 8 6 6 6 1400 684 100 MP stroke
8 6 7 7 6 7 7 6 6 7 6 6 8 7 6 6 
6 5 6 5 4 5 5 4 5 2 5 2 9 2 3 0 
0 -1 4 -2 3 -2 5 -4 4 -4 4 -5 4 -6 3 -6 
4 -6 3 -7 3 -6 4 -7 3 -6 3 -6 3 -6 4 -5 
5 -4 3 -4 3 -3 4 -2 3 -2 3 -1 2 0 3 1 
2 1 4 1 3 2 1 3 2 2 2 3 3 2 2 3 
2 2 1 2 1 2 2 1 1 1 2 0 2 0 1 -1 
2 -2 1 -1 1 -2 1 -2 1 -3 1 -3 2 -2 2 -3 
1 -2 1 -3 0 -2 2 -3 2 -2 0 -2 1 -3 0 -8 
-1 -3 -1 -4 -1 -3 0 -4 -1 -4 -3 -5 -1 -5 -2 -5 
-1 -6 -2 -6 -2 -6 -2 -7 -1 -7 -2 -6 -2 -7 -1 -7 
-2 -7 -2 -7 -2 -6 -2 -6 -2 -6 -1 -5 -2 -5 -3 -4 
-2 -3 -2 -3 -3 -3 1220 860 100 MP stroke
-3 -2 -4 -2 -2 -1 -2 -1 -4 -1 -3 0 -4 -1 -4 0 
-3 -1 -4 -1 -3 -2 -4 -2 -3 -2 -5 -2 -4 -3 -4 -3 
-4 -4 -3 -4 -3 -4 -3 -4 -3 -5 -3 -4 -4 -5 -3 -5 
-3 -4 -3 -5 -3 -4 -3 -4 -3 -4 -2 -5 -4 -4 -3 -4 
-4 -4 -4 -4 -3 -4 -3 -4 -4 -5 -3 -4 -4 -5 -3 -5 
-3 -5 -5 -5 -4 -5 -3 -6 -3 -5 -4 -6 -4 -6 -3 -5 
-3 -6 -3 -6 -3 -6 -5 -7 -3 -6 -5 -7 -7 -6 0 -7 
-2 -7 -6 -7 -2 -8 -5 -7 -4 -8 -3 -8 -5 -8 -3 -8 
-4 -8 -4 -9 -4 -8 -5 -8 -5 -9 -6 -8 -4 -9 -4 -8 
-5 -9 -6 -9 -4 -8 -4 -9 -4 -9 -5 -9 -5 -9 -4 -9 
-5 -9 -3 -10 -5 -9 -4 -10 -4 -10 -9 -10 -1 -10 -1 -10 
-7 -10 -3 -10 -5 -10 -5 -10 -4 -10 -5 -10 -5 -10 -6 -10 
-6 -11 -6 -11 -7 -10 1606 1471 100 MP stroke
-5 -12 -6 -11 -5 -12 -6 -13 -6 -12 -5 -14 -6 -14 -5 -14 
-5 -15 -5 -15 -5 -16 -4 -16 -4 -16 -4 -17 -5 -17 -4 -17 
-4 -17 -5 -17 -2 -17 -8 -17 -7 -17 0 -16 -4 -16 -4 -16 
-5 -14 -8 -15 -3 -13 -6 -12 -5 -12 -5 -11 -3 -10 -3 -11 
-6 -7 -4 -8 -12 -9 -3 -6 0 -8 -11 -6 -7 -8 -7 -6 
-7 -7 -5 -5 -9 -8 -2 -4 -3 -7 -6 -6 -5 -6 -12 -7 
-5 -8 0 -6 -8 -7 -5 -7 -11 -8 -16 -6 -2 -6 -2 -7 
-9 -6 -6 -6 -2 -4 -5 -5 -9 -2 -2 -3 -12 -3 -12 -2 
1 0 -13 0 -5 1 -3 3 -14 1 -7 6 -16 7 -4 5 
-3 10 -11 7 2 10 -18 9 -2 11 2 10 -25 10 0 11 
-7 10 -14 10 1 10 -15 10 -7 10 -2 9 -18 10 3 10 
-5 9 -21 9 1 10 -9 8 -12 9 1 8 -15 7 -3 6 
-6 5 -12 4 1 3 2218 1869 100 MP stroke
-24 1 -4 0 10 -3 -19 -4 0 -6 -5 -8 -12 -10 2 -12 
-12 -14 -2 -15 -5 -17 -9 -18 0 -19 -9 -19 -4 -19 2 -19 
-7 -18 -5 -16 -10 -15 -2 -12 5 -10 -12 -6 -7 -5 0 1 
-10 4 0 5 -2 11 -1 11 -2 13 -8 14 1 15 -11 16 
-6 15 6 16 -7 14 -4 14 0 12 -3 12 -3 10 -5 9 
-2 9 -4 7 -4 6 -6 7 -4 6 3 5 -10 4 -4 5 
-1 4 -8 4 0 3 -5 4 -5 3 1 3 -5 3 -7 3 
-2 3 1 2 -8 3 -5 2 0 2 -3 3 -8 2 -3 3 
1 3 -7 3 -5 3 1 5 -5 4 -2 5 0 6 -4 6 
-5 7 -1 8 0 8 -9 9 -4 9 0 9 -5 10 -4 11 
-5 10 -5 10 -4 9 -5 10 -6 9 -5 8 -6 7 -5 6 
-5 5 -7 4 -4 3 -5 1 -5 -1 -5 -2 -6 -4 -6 -6 
-5 -8 -6 -9 -6 -10 2641 1697 100 MP stroke
-6 -12 -6 -13 -4 -13 -5 -13 -6 -14 -5 -13 -7 -12 -4 -11 
-9 -11 -11 -10 -1 -1 -8 -3 -12 -3 -5 3 -7 5 -1 5 
-5 7 -10 9 -5 12 -9 11 -6 13 -7 13 -8 14 -5 15 
-9 15 -5 16 -9 17 -8 17 -7 18 -8 19 -7 20 -9 20 
-8 21 -9 22 -8 21 -8 21 -11 20 -7 18 -10 16 -8 13 
-7 9 -10 4 -7 -2 -9 -10 -7 -17 -8 -27 -9 -38 -8 -49 
-9 -63 -8 -79 -10 -92 -9 -112 -8 -138 -10 -161 -9 -182 -11 -221 
3063 2603 57 MP stroke
gr

c8
0 sg
%%IncludeResource: font Helvetica
/Helvetica /WindowsLatin1Encoding 120 FMSR

1950  294 mt 
(Experiment 2a - Analog magnetometers - Bias of orientation) s
2502 4902 mt 
(Distance to center of sensor network [m]) s
 558 2855 mt  -90 rotate
(Bias [degree]) s
90 rotate

end %%Color Dict

eplot
%%EndObject

epage
end

showpage

%%Trailer
%%EOF
