%!PS-Adobe-2.0 EPSF-1.2
%%Creator: MATLAB, The MathWorks, Inc. Version 7.13.0.564 (R2011b). Operating System: Microsoft Windows 7.
%%Title: ..\figures\digital_all_ori_rmse.eps
%%CreationDate: 11/13/2012  17:43:58
%%DocumentNeededFonts: Helvetica
%%DocumentProcessColors: Cyan Magenta Yellow Black
%%Extensions: CMYK
%%Pages: 1
%%BoundingBox:    52   196   542   602
%%EndComments

%%BeginProlog
% MathWorks dictionary
/MathWorks 160 dict begin
% definition operators
/bdef {bind def} bind def
/ldef {load def} bind def
/xdef {exch def} bdef
/xstore {exch store} bdef
% operator abbreviations
/c  /clip ldef
/cc /concat ldef
/cp /closepath ldef
/gr /grestore ldef
/gs /gsave ldef
/mt /moveto ldef
/np /newpath ldef
/cm /currentmatrix ldef
/sm /setmatrix ldef
/rm /rmoveto ldef
/rl /rlineto ldef
/s {show newpath} bdef
/sc {setcmykcolor} bdef
/sr /setrgbcolor ldef
/sg /setgray ldef
/w /setlinewidth ldef
/j /setlinejoin ldef
/cap /setlinecap ldef
/rc {rectclip} bdef
/rf {rectfill} bdef
% page state control
/pgsv () def
/bpage {/pgsv save def} bdef
/epage {pgsv restore} bdef
/bplot /gsave ldef
/eplot {stroke grestore} bdef
% orientation switch
/portraitMode 0 def /landscapeMode 1 def /rotateMode 2 def
% coordinate system mappings
/dpi2point 0 def
% font control
/FontSize 0 def
/FMS {/FontSize xstore findfont [FontSize 0 0 FontSize neg 0 0]
  makefont setfont} bdef
/ISOLatin1Encoding where {pop /WindowsLatin1Encoding 256 array bdef
ISOLatin1Encoding WindowsLatin1Encoding copy pop
/.notdef/.notdef/quotesinglbase/florin/quotedblbase/ellipsis/dagger
/daggerdbl/circumflex/perthousand/Scaron/guilsinglleft/OE/.notdef/.notdef
/.notdef/.notdef/quoteleft/quoteright/quotedblleft/quotedblright/bullet
/endash/emdash/tilde/trademark/scaron/guilsinglright/oe/.notdef/.notdef
/Ydieresis WindowsLatin1Encoding 128 32 getinterval astore pop}
{/WindowsLatin1Encoding StandardEncoding bdef} ifelse
/reencode {exch dup where {pop load} {pop StandardEncoding} ifelse
  exch dup 3 1 roll findfont dup length dict begin
  { 1 index /FID ne {def}{pop pop} ifelse } forall
  /Encoding exch def currentdict end definefont pop} bdef
/isroman {findfont /CharStrings get /Agrave known} bdef
/FMSR {3 1 roll 1 index dup isroman {reencode} {pop pop} ifelse
  exch FMS} bdef
/csm {1 dpi2point div -1 dpi2point div scale neg translate
 dup landscapeMode eq {pop -90 rotate}
  {rotateMode eq {90 rotate} if} ifelse} bdef
% line types: solid, dotted, dashed, dotdash
/SO { [] 0 setdash } bdef
/DO { [.5 dpi2point mul 4 dpi2point mul] 0 setdash } bdef
/DA { [6 dpi2point mul] 0 setdash } bdef
/DD { [.5 dpi2point mul 4 dpi2point mul 6 dpi2point mul 4
  dpi2point mul] 0 setdash } bdef
% macros for lines and objects
/L {lineto stroke} bdef
/MP {3 1 roll moveto 1 sub {rlineto} repeat} bdef
/AP {{rlineto} repeat} bdef
/PDlw -1 def
/W {/PDlw currentlinewidth def setlinewidth} def
/PP {closepath eofill} bdef
/DP {closepath stroke} bdef
/MR {4 -2 roll moveto dup  0 exch rlineto exch 0 rlineto
  neg 0 exch rlineto closepath} bdef
/FR {MR stroke} bdef
/PR {MR fill} bdef
/L1i {{currentfile picstr readhexstring pop} image} bdef
/tMatrix matrix def
/MakeOval {newpath tMatrix currentmatrix pop translate scale
0 0 1 0 360 arc tMatrix setmatrix} bdef
/FO {MakeOval stroke} bdef
/PO {MakeOval fill} bdef
/PD {currentlinewidth 2 div 0 360 arc fill
   PDlw -1 eq not {PDlw w /PDlw -1 def} if} def
/FA {newpath tMatrix currentmatrix pop translate scale
  0 0 1 5 -2 roll arc tMatrix setmatrix stroke} bdef
/PA {newpath tMatrix currentmatrix pop	translate 0 0 moveto scale
  0 0 1 5 -2 roll arc closepath tMatrix setmatrix fill} bdef
/FAn {newpath tMatrix currentmatrix pop translate scale
  0 0 1 5 -2 roll arcn tMatrix setmatrix stroke} bdef
/PAn {newpath tMatrix currentmatrix pop translate 0 0 moveto scale
  0 0 1 5 -2 roll arcn closepath tMatrix setmatrix fill} bdef
/vradius 0 def /hradius 0 def /lry 0 def
/lrx 0 def /uly 0 def /ulx 0 def /rad 0 def
/MRR {/vradius xdef /hradius xdef /lry xdef /lrx xdef /uly xdef
  /ulx xdef newpath tMatrix currentmatrix pop ulx hradius add uly
  vradius add translate hradius vradius scale 0 0 1 180 270 arc 
  tMatrix setmatrix lrx hradius sub uly vradius add translate
  hradius vradius scale 0 0 1 270 360 arc tMatrix setmatrix
  lrx hradius sub lry vradius sub translate hradius vradius scale
  0 0 1 0 90 arc tMatrix setmatrix ulx hradius add lry vradius sub
  translate hradius vradius scale 0 0 1 90 180 arc tMatrix setmatrix
  closepath} bdef
/FRR {MRR stroke } bdef
/PRR {MRR fill } bdef
/MlrRR {/lry xdef /lrx xdef /uly xdef /ulx xdef /rad lry uly sub 2 div def
  newpath tMatrix currentmatrix pop ulx rad add uly rad add translate
  rad rad scale 0 0 1 90 270 arc tMatrix setmatrix lrx rad sub lry rad
  sub translate rad rad scale 0 0 1 270 90 arc tMatrix setmatrix
  closepath} bdef
/FlrRR {MlrRR stroke } bdef
/PlrRR {MlrRR fill } bdef
/MtbRR {/lry xdef /lrx xdef /uly xdef /ulx xdef /rad lrx ulx sub 2 div def
  newpath tMatrix currentmatrix pop ulx rad add uly rad add translate
  rad rad scale 0 0 1 180 360 arc tMatrix setmatrix lrx rad sub lry rad
  sub translate rad rad scale 0 0 1 0 180 arc tMatrix setmatrix
  closepath} bdef
/FtbRR {MtbRR stroke } bdef
/PtbRR {MtbRR fill } bdef
/stri 6 array def /dtri 6 array def
/smat 6 array def /dmat 6 array def
/tmat1 6 array def /tmat2 6 array def /dif 3 array def
/asub {/ind2 exch def /ind1 exch def dup dup
  ind1 get exch ind2 get sub exch } bdef
/tri_to_matrix {
  2 0 asub 3 1 asub 4 0 asub 5 1 asub
  dup 0 get exch 1 get 7 -1 roll astore } bdef
/compute_transform {
  dmat dtri tri_to_matrix tmat1 invertmatrix 
  smat stri tri_to_matrix tmat2 concatmatrix } bdef
/ds {stri astore pop} bdef
/dt {dtri astore pop} bdef
/db {2 copy /cols xdef /rows xdef mul dup 3 mul string
  currentfile exch readhexstring pop
  dup 0 3 index getinterval /rbmap xdef
  dup 2 index dup getinterval /gbmap xdef
  1 index dup 2 mul exch getinterval /bbmap xdef pop pop}bdef
/it {gs np dtri aload pop moveto lineto lineto cp c
  cols rows 8 compute_transform 
  rbmap gbmap bbmap true 3 colorimage gr}bdef
/il {newpath moveto lineto stroke}bdef
currentdict end def
%%EndProlog

%%BeginSetup
MathWorks begin

0 cap

end
%%EndSetup

%%Page: 1 1
%%BeginPageSetup
%%PageBoundingBox:    52   196   542   602
MathWorks begin
bpage
%%EndPageSetup

%%BeginObject: obj1
bplot

/dpi2point 12 def
portraitMode 0204 7344 csm

  422   110  5883  4881 MR c np
85 dict begin %Colortable dictionary
/c0 { 0.000000 0.000000 0.000000 sr} bdef
/c1 { 1.000000 1.000000 1.000000 sr} bdef
/c2 { 0.900000 0.000000 0.000000 sr} bdef
/c3 { 0.000000 0.820000 0.000000 sr} bdef
/c4 { 0.000000 0.000000 0.800000 sr} bdef
/c5 { 0.910000 0.820000 0.320000 sr} bdef
/c6 { 1.000000 0.260000 0.820000 sr} bdef
/c7 { 0.000000 0.820000 0.820000 sr} bdef
c0
1 j
1 sg
   0    0 6913 5185 PR
6 w
0 4225 5356 0 0 -4225 899 4614 4 MP
PP
-5356 0 0 4225 5356 0 0 -4225 899 4614 5 MP stroke
4 w
DO
SO
6 w
0 sg
 899  389 mt 6255  389 L
 899 4614 mt 6255 4614 L
6255 4614 mt 6255  389 L
 899 4614 mt  899  389 L
 899 4614 mt 6255 4614 L
 899 4614 mt  899  389 L
 899 4614 mt  899 4614 L
 899 4614 mt  899 4614 L
 899 4614 mt  899 4614 L
 899 4614 mt  899 4614 L
 899 4614 mt  899 4614 L
 899 4614 mt  899 4614 L
 899 4614 mt  899 4614 L
 899 4614 mt  899 4614 L
 899 4614 mt  899 4614 L
 899 4614 mt  899 4614 L
 899 4614 mt  899 4614 L
 899 4614 mt  899 4614 L
 899 4614 mt  899 4614 L
 899 4614 mt  899 4614 L
 899 4614 mt  899 4614 L
 899 4614 mt  899 4614 L
 899 4614 mt  899 4614 L
 899 4614 mt  899 4614 L
1168 4614 mt 1168 4560 L
1168  389 mt 1168  442 L
%%IncludeResource: font Helvetica
/Helvetica /WindowsLatin1Encoding 120 FMSR

1023 4796 mt 
(10) s
%%IncludeResource: font Helvetica
/Helvetica /WindowsLatin1Encoding 80 FMSR

1156 4722 mt 
(-0.9) s
 899 4614 mt  899 4614 L
 899 4614 mt  899 4614 L
 899 4614 mt  899 4614 L
 899 4614 mt  899 4614 L
 899 4614 mt  899 4614 L
 899 4614 mt  899 4614 L
 899 4614 mt  899 4614 L
 899 4614 mt  899 4614 L
 899 4614 mt  899 4614 L
 899 4614 mt  899 4614 L
 899 4614 mt  899 4614 L
 899 4614 mt  899 4614 L
 899 4614 mt  899 4614 L
 899 4614 mt  899 4614 L
 899 4614 mt  899 4614 L
 899 4614 mt  899 4614 L
 899 4614 mt  899 4614 L
 899 4614 mt  899 4614 L
2215 4614 mt 2215 4560 L
2215  389 mt 2215  442 L
%%IncludeResource: font Helvetica
/Helvetica /WindowsLatin1Encoding 120 FMSR

2070 4796 mt 
(10) s
%%IncludeResource: font Helvetica
/Helvetica /WindowsLatin1Encoding 80 FMSR

2203 4722 mt 
(-0.7) s
 899 4614 mt  899 4614 L
 899 4614 mt  899 4614 L
 899 4614 mt  899 4614 L
 899 4614 mt  899 4614 L
 899 4614 mt  899 4614 L
 899 4614 mt  899 4614 L
 899 4614 mt  899 4614 L
 899 4614 mt  899 4614 L
 899 4614 mt  899 4614 L
 899 4614 mt  899 4614 L
 899 4614 mt  899 4614 L
 899 4614 mt  899 4614 L
 899 4614 mt  899 4614 L
 899 4614 mt  899 4614 L
 899 4614 mt  899 4614 L
 899 4614 mt  899 4614 L
 899 4614 mt  899 4614 L
 899 4614 mt  899 4614 L
3262 4614 mt 3262 4560 L
3262  389 mt 3262  442 L
%%IncludeResource: font Helvetica
/Helvetica /WindowsLatin1Encoding 120 FMSR

3117 4796 mt 
(10) s
%%IncludeResource: font Helvetica
/Helvetica /WindowsLatin1Encoding 80 FMSR

3250 4722 mt 
(-0.5) s
 899 4614 mt  899 4614 L
 899 4614 mt  899 4614 L
 899 4614 mt  899 4614 L
 899 4614 mt  899 4614 L
 899 4614 mt  899 4614 L
 899 4614 mt  899 4614 L
 899 4614 mt  899 4614 L
 899 4614 mt  899 4614 L
 899 4614 mt  899 4614 L
 899 4614 mt  899 4614 L
 899 4614 mt  899 4614 L
 899 4614 mt  899 4614 L
 899 4614 mt  899 4614 L
 899 4614 mt  899 4614 L
 899 4614 mt  899 4614 L
 899 4614 mt  899 4614 L
 899 4614 mt  899 4614 L
 899 4614 mt  899 4614 L
4308 4614 mt 4308 4560 L
4308  389 mt 4308  442 L
%%IncludeResource: font Helvetica
/Helvetica /WindowsLatin1Encoding 120 FMSR

4163 4796 mt 
(10) s
%%IncludeResource: font Helvetica
/Helvetica /WindowsLatin1Encoding 80 FMSR

4296 4722 mt 
(-0.3) s
 899 4614 mt  899 4614 L
 899 4614 mt  899 4614 L
 899 4614 mt  899 4614 L
 899 4614 mt  899 4614 L
 899 4614 mt  899 4614 L
 899 4614 mt  899 4614 L
 899 4614 mt  899 4614 L
 899 4614 mt  899 4614 L
 899 4614 mt  899 4614 L
 899 4614 mt  899 4614 L
 899 4614 mt  899 4614 L
 899 4614 mt  899 4614 L
 899 4614 mt  899 4614 L
 899 4614 mt  899 4614 L
 899 4614 mt  899 4614 L
 899 4614 mt  899 4614 L
 899 4614 mt  899 4614 L
 899 4614 mt  899 4614 L
5355 4614 mt 5355 4560 L
5355  389 mt 5355  442 L
%%IncludeResource: font Helvetica
/Helvetica /WindowsLatin1Encoding 120 FMSR

5210 4796 mt 
(10) s
%%IncludeResource: font Helvetica
/Helvetica /WindowsLatin1Encoding 80 FMSR

5343 4722 mt 
(-0.1) s
 899 4614 mt  899 4614 L
 899 4614 mt  899 4614 L
 899 4614 mt  899 4614 L
 899 4614 mt  899 4614 L
 899 4614 mt  899 4614 L
 899 4614 mt  899 4614 L
 899 4614 mt  899 4614 L
 899 4614 mt  899 4614 L
 899 4614 mt  899 4614 L
 899 4614 mt  899 4614 L
 899 4614 mt  899 4614 L
 899 4614 mt  899 4614 L
 899 4614 mt  899 4614 L
 899 4614 mt  899 4614 L
 899 4614 mt  899 4614 L
 899 4614 mt  899 4614 L
 899 4614 mt  899 4614 L
 899 4614 mt  899 4614 L
 899 4614 mt  925 4614 L
6255 4614 mt 6228 4614 L
 899 4614 mt  952 4614 L
6255 4614 mt 6201 4614 L
%%IncludeResource: font Helvetica
/Helvetica /WindowsLatin1Encoding 120 FMSR

 640 4658 mt 
(10) s
%%IncludeResource: font Helvetica
/Helvetica /WindowsLatin1Encoding 80 FMSR

 773 4584 mt 
(-2) s
 899 4359 mt  925 4359 L
6255 4359 mt 6228 4359 L
 899 4210 mt  925 4210 L
6255 4210 mt 6228 4210 L
 899 4105 mt  925 4105 L
6255 4105 mt 6228 4105 L
 899 4023 mt  925 4023 L
6255 4023 mt 6228 4023 L
 899 3956 mt  925 3956 L
6255 3956 mt 6228 3956 L
 899 3899 mt  925 3899 L
6255 3899 mt 6228 3899 L
 899 3850 mt  925 3850 L
6255 3850 mt 6228 3850 L
 899 3807 mt  925 3807 L
6255 3807 mt 6228 3807 L
 899 3769 mt  925 3769 L
6255 3769 mt 6228 3769 L
 899 3769 mt  952 3769 L
6255 3769 mt 6201 3769 L
%%IncludeResource: font Helvetica
/Helvetica /WindowsLatin1Encoding 120 FMSR

 640 3813 mt 
(10) s
%%IncludeResource: font Helvetica
/Helvetica /WindowsLatin1Encoding 80 FMSR

 773 3739 mt 
(-1) s
 899 3514 mt  925 3514 L
6255 3514 mt 6228 3514 L
 899 3365 mt  925 3365 L
6255 3365 mt 6228 3365 L
 899 3260 mt  925 3260 L
6255 3260 mt 6228 3260 L
 899 3178 mt  925 3178 L
6255 3178 mt 6228 3178 L
 899 3111 mt  925 3111 L
6255 3111 mt 6228 3111 L
 899 3054 mt  925 3054 L
6255 3054 mt 6228 3054 L
 899 3005 mt  925 3005 L
6255 3005 mt 6228 3005 L
 899 2962 mt  925 2962 L
6255 2962 mt 6228 2962 L
 899 2924 mt  925 2924 L
6255 2924 mt 6228 2924 L
 899 2924 mt  952 2924 L
6255 2924 mt 6201 2924 L
%%IncludeResource: font Helvetica
/Helvetica /WindowsLatin1Encoding 120 FMSR

 640 2968 mt 
(10) s
%%IncludeResource: font Helvetica
/Helvetica /WindowsLatin1Encoding 80 FMSR

 773 2894 mt 
(0) s
 899 2669 mt  925 2669 L
6255 2669 mt 6228 2669 L
 899 2520 mt  925 2520 L
6255 2520 mt 6228 2520 L
 899 2415 mt  925 2415 L
6255 2415 mt 6228 2415 L
 899 2333 mt  925 2333 L
6255 2333 mt 6228 2333 L
 899 2266 mt  925 2266 L
6255 2266 mt 6228 2266 L
 899 2209 mt  925 2209 L
6255 2209 mt 6228 2209 L
 899 2160 mt  925 2160 L
6255 2160 mt 6228 2160 L
 899 2117 mt  925 2117 L
6255 2117 mt 6228 2117 L
 899 2079 mt  925 2079 L
6255 2079 mt 6228 2079 L
 899 2079 mt  952 2079 L
6255 2079 mt 6201 2079 L
%%IncludeResource: font Helvetica
/Helvetica /WindowsLatin1Encoding 120 FMSR

 640 2123 mt 
(10) s
%%IncludeResource: font Helvetica
/Helvetica /WindowsLatin1Encoding 80 FMSR

 773 2049 mt 
(1) s
 899 1824 mt  925 1824 L
6255 1824 mt 6228 1824 L
 899 1675 mt  925 1675 L
6255 1675 mt 6228 1675 L
 899 1570 mt  925 1570 L
6255 1570 mt 6228 1570 L
 899 1488 mt  925 1488 L
6255 1488 mt 6228 1488 L
 899 1421 mt  925 1421 L
6255 1421 mt 6228 1421 L
 899 1364 mt  925 1364 L
6255 1364 mt 6228 1364 L
 899 1315 mt  925 1315 L
6255 1315 mt 6228 1315 L
 899 1272 mt  925 1272 L
6255 1272 mt 6228 1272 L
 899 1234 mt  925 1234 L
6255 1234 mt 6228 1234 L
 899 1234 mt  952 1234 L
6255 1234 mt 6201 1234 L
%%IncludeResource: font Helvetica
/Helvetica /WindowsLatin1Encoding 120 FMSR

 640 1278 mt 
(10) s
%%IncludeResource: font Helvetica
/Helvetica /WindowsLatin1Encoding 80 FMSR

 773 1204 mt 
(2) s
 899  979 mt  925  979 L
6255  979 mt 6228  979 L
 899  830 mt  925  830 L
6255  830 mt 6228  830 L
 899  725 mt  925  725 L
6255  725 mt 6228  725 L
 899  643 mt  925  643 L
6255  643 mt 6228  643 L
 899  576 mt  925  576 L
6255  576 mt 6228  576 L
 899  519 mt  925  519 L
6255  519 mt 6228  519 L
 899  470 mt  925  470 L
6255  470 mt 6228  470 L
 899  427 mt  925  427 L
6255  427 mt 6228  427 L
 899  389 mt  925  389 L
6255  389 mt 6228  389 L
 899  389 mt  952  389 L
6255  389 mt 6201  389 L
%%IncludeResource: font Helvetica
/Helvetica /WindowsLatin1Encoding 120 FMSR

 640  433 mt 
(10) s
%%IncludeResource: font Helvetica
/Helvetica /WindowsLatin1Encoding 80 FMSR

 773  359 mt 
(3) s
 899  389 mt 6255  389 L
 899 4614 mt 6255 4614 L
6255 4614 mt 6255  389 L
 899 4614 mt  899  389 L
gs 899 389 5357 4226 MR c np
/c8 { 0.000000 0.000000 1.000000 sr} bdef
c8
16 -46 9 46 22 30 14 -16 18 -118 17 10 18 74 14 -13 
16 57 13 -24 16 29 9 -121 13 -146 7 111 11 28 4 -14 
6 59 1 41 -5 -104 0 104 -2 0 -3 -118 -6 54 0 -101 
-6 154 -8 28 -12 -34 -11 -81 -10 -14 -12 -63 -14 -16 -14 -22 
-11 -87 -10 -60 -11 25 -9 27 -14 198 -7 -92 -9 97 -6 25 
-7 -26 -3 -67 -6 90 -4 66 -2 38 1 -60 -1 -3 -3 -72 
3 -37 3 -46 0 -6 2 -23 5 56 2 13 5 30 -1 -39 
1 44 -2 -2 3 -102 -2 34 4 14 -1 50 2 12 -5 13 
-2 -104 -8 -213 -1 200 -4 79 -6 -61 -7 -112 -4 56 -7 -5 
-9 40 -8 -9 -8 -26 -7 61 -7 50 -7 -107 -6 -23 -5 -106 
-9 89 -3 -174 -3 5 -7 -73 -4 370 -6 -27 3 -59 -7 -91 
-8 54 -5 159 -6 -39 -5 14 -6 -43 -7 -6 -6 107 -8 -65 
-8 45 -8 -74 -7 149 1999 2507 100 MP stroke
-8 -17 -11 74 -10 -114 -10 36 -11 -29 -10 76 -11 -55 -12 -1 
-11 22 -11 92 -10 -70 -8 67 -9 -34 -8 67 -11 32 -9 16 
-12 5 -11 9 -9 -10 -8 49 -9 -34 -8 37 -11 -95 -11 52 
-11 -32 -6 115 -16 -67 -7 24 -3 -57 -11 -41 -16 104 -22 -52 
-16 -34 -15 -22 -1 -109 -15 136 -4 -16 -8 26 -18 -8 -2 12 
-11 1 -17 86 -3 -12 -9 39 -11 -58 -2 51 -9 -47 -8 6 
-6 -24 -4 -26 0 47 -5 11 -1 10 -6 35 5 51 -2 -61 
-3 -23 2 33 -4 -41 -1 97 -1 19 -2 2 -1 -25 20 0 
-24 -20 3 0 11 59 -7 -45 -3 -45 -6 -24 2 -7 -5 4 
-10 1 -5 59 -5 32 -7 -38 -6 55 -6 16 -4 20 -8 -33 
-5 -18 -5 6 -4 -52 -9 -51 -9 -9 -3 -11 -3 76 -2 -63 
-3 -61 -1 -47 -3 -69 2 -65 1 -36 3 -158 -1 -426 5 -175 
6 275 -2 176 11 155 2590 2701 100 MP stroke
2 -22 5 203 9 -53 8 -2 0 -58 4 27 5 -56 2 -11 
8 -118 2 118 1 64 1 87 -1 -27 -2 70 -4 -34 -2 10 
-6 -205 -5 -85 -5 21 -5 260 -8 -61 -8 72 -9 -86 -7 69 
-10 -12 -9 -72 -10 -52 -11 24 -12 -34 -10 119 -11 -61 -10 109 
-13 42 -10 10 -14 -88 -13 8 -10 48 -13 40 -13 -43 -14 80 
-12 -138 -12 45 -13 -33 -12 111 -14 -75 -11 33 -11 15 -12 94 
-14 -44 -10 -141 -12 72 -12 75 -13 -132 -12 105 -7 -3 8 128 
-28 -157 -19 -118 -11 -160 -10 13 -14 -10 -4 82 -2 32 -25 -108 
-4 -198 -14 9 -8 31 -12 165 -5 -14 -13 71 -9 -47 -9 -135 
-6 -408 -8 170 -1 -7 -6 -76 -4 -141 -5 1 -2 510 -4 87 
0 121 -2 -53 1 39 0 -119 4 -135 6 -89 4 239 6 99 
8 28 6 9 10 -258 8 -45 9 52 10 -14 11 -431 8 426 
9 67 10 38 11 5 3061 2717 100 MP stroke
9 -3 12 121 10 129 10 -220 9 -356 9 56 10 -23 8 204 
9 182 5 -12 6 40 11 -124 6 81 10 -170 5 77 8 20 
7 2 8 -32 5 -114 8 38 7 49 7 8 6 83 5 -84 
4 66 6 -147 2 16 3 -677 3 301 5 40 1 -294 4 398 
2 -185 5 241 2 222 3 -104 -2 231 7 -23 -1 132 12 26 
9 -45 3 59 5 -41 9 -164 5 2 7 -68 5 -49 7 -353 
7 307 8 242 7 44 7 -82 5 -64 9 71 4 -167 10 5 
4 83 10 -74 4 55 9 -39 6 143 9 -90 4 -46 11 -97 
7 -108 6 38 7 -2 10 171 5 104 8 -25 6 -192 9 -182 
3 284 9 67 4 55 8 -238 1 -74 12 -366 -3 276 25 543 
66 529 -1 -36 9 5 5 18 3 -6 9 16 -1 -80 -56 -741 
17 -5 3 94 12 125 7 -80 15 182 9 -32 10 55 14 56 
17 28 10 -39 20 1 2366 2449 100 MP stroke
17 16 17 -48 20 6 14 -17 25 91 19 0 20 -71 22 16 
23 56 23 41 25 -6 29 -33 23 18 29 -27 21 -15 30 -2 
26 -69 30 26 26 57 26 28 32 -30 23 -94 26 -13 27 -41 
26 8 23 -155 22 88 26 84 23 21 18 -73 23 -87 15 99 
20 114 14 -179 16 54 14 -20 13 -53 15 -100 12 137 10 -19 
13 58 5 44 11 -5 12 -34 18 77 9 -114 20 21 23 -28 
2 54 17 78 14 -60 21 -66 21 9 37 52 3 9 21 -90 
17 82 29 -4 20 -33 27 72 59 505 21 -46 19 9 23 3 
21 17 17 -12 23 0 9 -3 25 -6 4 -27 19 36 4 -5 
4 24 9 15 -3 1 7 -8 0 21 2 -17 1 21 -11 -46 
7 32 -5 -27 -12 17 3 -30 -8 46 -2 -54 -14 80 20 -503 
-1 -261 -5 73 -3 31 -7 -43 -3 159 -3 -168 -5 24 -1 69 
-1 52 -11 -99 -7 33 968 2606 100 MP stroke
-10 40 -4 -156 -14 128 -11 96 -15 2 -10 57 -12 15 -18 -48 
-11 23 -19 38 -16 -68 -16 -34 -22 -11 -18 90 -18 -11 -19 -70 
-16 -32 -15 -14 -18 -27 -15 16 -15 1 -18 28 -20 50 -11 7 
-13 13 -9 -11 -12 27 -12 27 -8 20 -5 25 -8 -24 7 -2 
-1 -69 -1 -38 -6 25 -6 -2 0 19 4 28 -3 23 -1 -36 
3 34 1 -60 -1 -65 -1 26 2 -33 0 90 -7 39 1 -119 
3 1 -10 49 -2 23 -11 -65 -4 11 -8 11 -6 0 -8 -42 
-11 16 -25 55 -8 3 -13 -45 -10 -103 -16 -32 -10 -238 -16 143 
-13 -240 -10 248 -15 98 -18 59 -17 15 -17 -32 -17 13 -18 -100 
-20 38 -15 52 -21 18 -17 -86 -20 19 -17 -256 -19 -31 -18 67 
-16 159 -17 -31 -15 3 -13 -184 -16 -168 -12 10 -21 272 -8 -112 
-18 155 -17 118 -13 -76 -10 202 -12 -77 -10 5 -12 -157 -10 154 
-11 -22 -10 41 -11 33 2084 2555 100 MP stroke
-9 -63 -8 -57 -8 -4 -8 161 -5 62 -7 -51 -5 -274 -6 -65 
-4 -115 -3 156 -2 25 -2 165 -1 125 -1 13 0 -7 0 1 
4 4 2 9 3 -8 5 15 5 -10 6 9 7 -30 6 -41 
10 -64 10 -4 11 23 10 27 14 11 12 -29 17 -11 9 -68 
16 -106 15 48 19 128 14 -71 14 -1 21 -66 18 103 18 -10 
16 -80 25 47 18 107 12 -125 18 -19 23 -6 9 22 15 80 
19 -25 13 -120 12 -89 14 56 11 -59 11 90 8 -110 8 151 
6 120 4 -39 3 -49 1 29 1 -26 -1 100 -1 -50 -5 -53 
-3 -29 -7 62 -5 -35 -7 -106 -7 78 -7 35 -6 84 -12 32 
-8 -66 -8 -1 -10 146 -13 -94 -5 26 -10 32 -6 -21 -21 8 
-15 40 0 -70 -9 -71 -10 28 -8 172 -11 23 -13 -69 -12 -20 
-12 -57 -14 76 -6 2 -15 -81 -11 -27 -16 65 -18 88 -12 13 
-16 -6 -15 9 -17 0 2012 2407 100 MP stroke
-22 -45 -18 -31 -19 -60 -20 18 -25 58 -21 14 -23 0 -22 -18 
-23 -28 -25 88 -22 2 -22 13 -25 -5 -22 -89 -24 32 -23 37 
-22 13 -23 26 -21 53 -23 33 -20 -91 -20 -84 -22 3 -19 -9 
-22 -67 -21 62 -20 95 -21 58 -19 31 -20 -40 -21 -36 -20 -14 
-16 -50 -19 71 -20 76 -19 38 -19 2 -18 14 -20 12 -20 -21 
-16 -24 -21 41 -16 26 -19 1 -17 48 -17 29 -14 10 -17 -6 
-12 10 -15 0 -10 3 -18 -6 -10 29 -8 3 -8 2 -2 -1 
-8 -15 -2 -1 -4 -15 0 1 -2 -12 3 -42 2 25 4 -16 
4 8 9 14 6 -8 10 30 9 -20 9 -35 13 -11 13 28 
11 -12 13 14 12 -36 15 2 11 4 16 -27 13 -17 15 13 
12 -20 14 -91 15 -36 14 52 13 -19 16 45 10 4 13 12 
11 -64 11 9 11 43 8 -43 7 -47 10 21 0 -1 10 1 
5 7 3 78 3 20 2715 2238 100 MP stroke
11 16 0 17 7 -24 -3 -54 4 -24 3 -16 1 -44 -3 45 
2 -26 1 -55 -1 2 1 -16 -2 -7 -3 0 3 -5 -1 -7 
-2 13 3 2 -1 21 2 12 2 14 2 32 2 11 2 2 
2 0 4 -39 3 -4 4 10 3 2 4 -23 4 -5 4 25 
5 -36 4 33 5 1 5 24 6 34 5 -10 5 -4 4 13 
6 61 4 1 5 1 4 5 7 -107 2 -88 6 -45 1 79 
4 77 5 -45 0 -2 10 -68 -1 -25 3 8 3 -22 3 -31 
2 36 4 -82 1 -30 2 36 3 6 5 -27 2 -12 3 32 
1 119 4 -27 0 51 3 -40 3 -6 4 59 3 -56 4 87 
2 -21 2 -12 5 14 6 -17 7 -17 6 72 8 49 6 -66 
12 -73 11 -1 9 84 10 57 11 -90 8 31 14 -14 13 36 
17 13 13 -11 9 -2 12 -20 15 28 13 24 13 0 13 -60 
17 26 14 13 8 61 2238 2259 100 MP stroke
16 22 15 -26 11 -10 12 -20 11 -8 10 -45 8 -32 14 -38 
10 -23 11 2 6 -30 14 -15 9 22 10 26 11 -12 11 80 
11 -24 11 3 11 -48 12 -68 12 22 11 68 10 34 16 49 
12 -65 10 -14 9 -91 15 -40 9 -76 20 -60 2 -3 10 167 
9 -21 7 -68 15 38 8 -154 4 -121 10 -172 8 -179 5 265 
3 -86 3 75 2 71 6 79 1 -124 2 -94 1 29 3 80 
2 92 0 142 1 -182 -1 207 3 -6 1 104 -3 38 -1 48 
-1 11 -2 35 -2 -116 -1 20 -6 -8 -1 5 -11 -28 -8 25 
-10 33 -5 14 -7 18 -5 -34 -5 24 -6 48 -10 20 -10 -41 
-8 3 -15 -20 -15 -7 -6 2 -14 -10 -18 -16 -14 21 -17 42 
-17 -33 -12 -53 -21 37 -16 -100 -18 23 -18 9 -19 -204 -19 113 
-17 28 -18 126 -18 7 -19 35 -17 16 -14 28 -16 22 -19 -183 
-13 58 -16 -103 -15 13 2308 2571 100 MP stroke
-11 83 -15 -113 -11 20 -8 97 -11 -30 -9 80 -15 -56 -7 -6 
-5 126 -10 -48 -11 -42 0 52 -22 64 -11 19 -23 61 -12 8 
2 16 7 43 -4 -8 0 -40 1 -49 4 64 2 5 5 39 
8 15 14 28 19 -53 15 -123 23 -58 0 22 6 -38 10 -8 
8 -8 7 5 13 72 9 -17 12 3 10 -45 13 -78 11 22 
12 -2 11 -78 16 -196 9 270 13 -32 11 13 18 30 12 13 
15 -52 13 -24 14 65 13 -23 11 37 16 -39 16 -102 16 92 
11 -59 15 -101 15 63 11 55 18 20 9 51 14 -109 10 3 
12 50 10 -59 9 119 5 -14 11 32 9 80 5 6 3 -32 
2 -5 1 -30 -3 -7 -2 -11 -8 46 -7 -52 -5 40 -13 18 
-13 -68 -15 -17 -14 -1 -15 -35 -18 19 -22 -5 -18 46 -23 35 
-24 -39 -23 -47 -22 -19 -25 -85 -24 97 -27 54 -19 -42 -56 20 
-36 245 -17 -66 -6 -110 2363 2389 100 MP stroke
-29 56 -22 81 -28 -58 -22 26 -14 -323 -25 -84 -23 66 -23 -88 
-21 -16 -26 98 -15 208 -21 -51 -21 -48 -21 64 -21 117 -17 7 
-23 -23 -18 -22 -17 6 -17 19 -17 13 -22 22 -13 45 -17 6 
-13 -27 -12 -4 -12 9 -17 -22 -11 -51 -14 -62 -11 21 -14 -33 
-12 -31 -11 105 -10 -61 -15 -83 -10 -164 -7 76 -7 79 -9 -25 
-12 -45 -9 -115 -9 169 -11 106 -9 -46 -8 -6 -10 31 -8 64 
-6 91 -9 69 -8 4 -6 16 -6 18 -5 -98 -9 33 -6 -72 
-6 20 -6 -23 -7 -117 -3 -73 -6 81 -4 135 -7 21 -3 3 
-6 -65 -3 0 -6 -29 -6 -12 -6 -91 -4 -71 -4 54 -6 -54 
-8 -68 -3 47 -11 115 27 81 21 292 -19 -68 1 70 -16 -68 
6 86 -43 -376 -1 -119 26 513 -22 -122 2 78 -17 -100 -44 -991 
-5 -2 -6 -649 -7 834 -6 212 -6 44 -9 110 -5 132 -4 38 
-6 36 -7 61 -6 -20 3423 2377 100 MP stroke
-10 51 -3 -99 -4 -196 -6 78 -4 126 -8 37 -4 9 -6 15 
-5 -79 -4 22 -4 -4 -5 -49 -4 -58 -5 37 -5 -123 -4 28 
-3 16 -3 2 -2 -39 -4 -96 -2 -28 -4 82 -1 -5 -1 -52 
-1 39 -2 -27 -1 -104 -1 -81 0 8 1 102 0 -10 1 -290 
1 -296 1 503 0 -38 1 84 2 162 1 135 0 -1 2 74 
1 23 2 75 1 -19 5 -78 -1 6 0 167 1 18 3 15 
0 -24 2 0 0 10 3 -107 5 -46 -3 -129 2 -80 1 126 
2 -27 6 -67 4 10 -7 101 4 112 6 22 1 4 -2 -1 
-2 -45 3 -4 4 1 3 -83 -2 58 -2 -16 -1 -8 6 34 
-3 -22 4 78 -5 37 -1 2 -1 27 5 -12 -6 14 3 -71 
4 19 -6 41 -4 26 5 -21 -1 -6 -3 19 -3 4 2 9 
2 -26 -1 36 1 -45 -5 60 -1 630 -10 -366 3 63 1 -62 
3 27 -4 -22 -1 33 3496 1922 100 MP stroke
1 -11 7 19 1 -36 3 22 0 -31 4 31 0 -63 15 409 
11 -657 3 -51 11 -138 12 63 7 -254 16 739 9 40 6 -36 
0 14 -1 4 20 -69 -16 93 8 -15 -3 59 17 -68 -6 -1138 
-8 952 13 -152 -3 102 2 -137 -2 -26 -1 131 2 -50 3 -110 
12 114 3 -111 -13 101 6 -69 1 20 -2 21 10 -10 3 -26 
0 58 3 -44 1 41 1 -10 -1 57 -1 -30 -1 2 -2 26 
0 -23 -2 -26 0 10 -1 -3 -2 44 -2 8 -3 -9 4 -15 
-2 59 -2 -6 -9 -18 -3 30 -4 -2 -6 3 -2 3 -5 -50 
-6 -20 -8 13 -5 3 -7 -47 -7 -5 -3 -37 -13 -15 -4 -45 
-4 -67 -8 2 -7 35 -7 99 -7 60 -8 -25 -6 19 -4 -10 
-6 -16 -8 22 -8 -1 -8 40 -8 -7 -12 38 -8 37 -7 -7 
-9 -8 -8 5 -6 -1 -10 -50 -6 -12 -5 42 -7 -8 -6 -10 
-6 -29 -6 -33 -6 32 3628 2147 100 MP stroke
-8 16 -2 -5 -3 -10 -4 -23 -3 5 -4 -20 -3 -17 -4 13 
-6 -65 -2 -84 -3 -28 -3 28 1 -4 -4 -125 -5 -79 0 47 
-2 93 -3 -52 -3 -4 1 -60 -4 54 0 16 -3 -32 -5 -145 
4 141 -8 -80 -2 -69 0 126 -7 -174 -3 96 -3 87 -6 105 
5 19 8 40 -5 -14 -2 -65 -5 31 6 -21 7 152 -11 -232 
4 101 -4 20 6 20 0 1 1 11 -2 4 4 15 -1 -60 
2 -2 0 9 1 3 -1 37 1 2 -1 28 -1 32 -1 7 
-2 -9 0 34 -2 -35 -1 -18 -3 -39 -1 -19 -3 -3 -2 -7 
-4 80 -2 32 -4 -17 -2 12 -4 15 -4 17 -4 -30 -3 -38 
-5 40 -3 26 -5 -36 -2 14 -5 -9 -4 -24 -4 16 -4 64 
-4 11 -4 34 -4 7 -4 -10 -4 9 -4 4 -4 -72 -6 -73 
-4 35 -5 17 -5 -22 -4 -71 -6 47 -6 -56 -5 41 -7 38 
-5 29 -6 44 -7 8 3881 2172 100 MP stroke
-6 31 -5 41 -8 -8 -7 29 -7 -8 -8 -11 -7 25 -7 41 
-8 -7 -6 -37 -7 -22 -8 -35 -7 -30 -4 9 -6 3 -9 39 
-5 40 -7 -3 -6 18 -7 -5 -6 -13 -6 0 -6 -20 -6 7 
-5 30 -6 5 -4 -5 -5 9 -5 -35 -5 -1 -5 2 -5 -25 
-4 -9 -5 -4 -4 -32 -3 -33 -5 -14 -3 21 -4 60 -4 42 
-2 13 -4 -3 -3 -15 -3 35 -3 17 -3 12 -3 1 -3 22 
-3 14 -3 24 -3 13 -3 -9 -2 -21 -2 -5 -2 -4 3 -30 
-3 -5 -1 6 -3 7 -1 6 -2 10 -6 35 -1 -7 -2 -13 
-3 -3 1 -3 -12 -28 -9 -31 2 3 -4 -1 1 10 -5 20 
7 -12 6 -2 -3 -33 0 -8 -3 -46 -3 -19 0 -53 -3 -3 
-4 16 -2 -6 -2 -46 -1 -55 -3 -17 -4 26 -2 39 -2 32 
-2 49 -3 -26 -2 -85 -2 -142 -2 -8 -2 96 -2 -5 -2 36 
-2 9 -2 -3 -2 21 4241 2252 100 MP stroke
-2 -11 -1 -1 -2 30 -1 -35 -3 63 -1 2 -1 24 -1 26 
-2 43 -1 -59 -2 46 -1 -50 -2 -27 -1 19 -2 4 -1 32 
-2 -1 -1 6 -2 -4 0 -58 -2 -38 -1 -43 -1 67 -1 -137 
-1 24 -1 -36 -2 -15 0 -87 -1 -3 -2 87 -1 39 -2 -26 
-2 -99 -2 59 -2 76 -2 -107 -2 136 -3 -21 -3 7 -4 88 
-3 20 -4 41 -4 34 -4 23 -4 8 -5 33 -6 31 -6 -5 
-5 1 -6 38 -7 7 -6 7 -7 -53 -6 -17 -7 12 -6 -4 
-7 16 -7 36 -7 24 -8 38 -7 60 -7 75 -7 48 -7 -20 
-7 -1 -7 15 -6 34 -6 -6 -6 12 -7 35 -6 31 -5 9 
-6 10 -6 -3 -5 -11 -6 1 -5 22 -5 13 -5 25 -4 3 
-5 13 -4 0 -5 11 -4 19 -4 11 -4 11 -4 14 -4 -8 
-4 0 -4 10 -3 7 -4 6 -3 4 -3 0 -4 2 -3 4 
-3 10 -3 1 -3 -7 4611 1482 100 MP stroke
-3 -6 -3 5 -3 5 -3 5 -3 3 -2 0 -3 2 -3 2 
-3 -4 -3 -7 -3 -10 -3 -1 -2 -10 -3 -8 -2 -5 -3 0 
-2 -2 -2 -4 -1 -5 -2 0 -2 -3 -1 -1 -2 -4 -1 -3 
-2 -1 -2 -2 -1 -2 -2 -2 -2 2 -1 -2 -1 2 -2 -10 
-1 -4 -1 2 -1 -2 -1 6 -1 -7 -1 8 0 -6 -1 3 
0 -5 1 2 0 2 1 -1 1 -1 1 1 1 0 1 -5 
2 -6 1 -7 2 3 2 -7 2 -8 2 -10 3 3 2 -5 
2 -5 3 -6 2 -4 3 -5 3 0 2 -1 3 -3 2 4 
3 4 3 -8 2 1 3 -4 3 0 2 -5 3 1 2 13 
3 0 2 -7 3 -1 2 -13 2 -5 2 -12 2 9 1 5 
2 5 2 -3 1 2 1 0 1 -5 0 -1 1 -2 0 6 
0 -4 -1 -5 -1 0 -1 6 -2 1 -1 0 -2 -12 -2 -16 
-1 -2 -2 -19 -2 1 4616 1682 100 MP stroke
-3 -17 -2 0 -3 5 -2 3 -3 -13 -3 -4 -3 -11 -4 0 
-4 -6 -4 9 -4 7 -5 -5 -5 -7 -5 12 -5 5 -6 5 
-6 -11 -6 16 -6 -9 -6 20 -7 -2 -7 -5 -7 -6 -7 9 
-8 3 -8 -10 -7 25 -9 -2 -8 7 -9 -10 -10 -7 -9 14 
-9 8 -9 -9 -9 10 -10 -14 -10 9 -10 6 -9 -1 -10 9 
-9 -9 -10 -11 -10 3 -10 0 -10 -21 -10 -14 -10 -10 -9 -5 
-10 -18 -9 -35 -9 -30 -9 -9 -9 9 -9 40 -9 7 -9 5 
-9 18 -9 4 -9 11 -9 1 -8 26 -9 18 -9 5 -8 2 
-9 -35 -9 -4 -8 -46 -9 -28 -8 -40 -9 -10 -8 -7 -8 2 
-9 -19 -8 47 -8 -4 -8 21 -7 -7 -8 34 -8 -4 -8 9 
-7 -60 -8 44 -7 8 -7 14 -7 24 -7 -66 -7 5 -6 40 
-7 14 -7 28 -6 -5 -6 -6 -6 -16 -6 8 -6 -10 -6 -17 
-5 -15 -6 9 -5 1 5348 1753 100 MP stroke
-5 8 -5 12 -4 7 -5 -1 -4 28 -5 1 -4 -2 -5 15 
-4 -5 -4 -9 -5 0 -4 20 -4 4 -4 4 -4 22 -5 5 
-4 15 -4 19 -4 18 -4 15 -4 19 -4 25 -4 16 -4 14 
-4 12 -4 4 -4 -15 -4 5 -4 2 -5 7 -3 5 -4 -2 
-5 6 -4 17 -4 11 -3 10 -5 9 -4 14 -4 14 -4 6 
-4 1 -4 1 -4 13 -4 15 -4 8 -4 8 -4 1 -4 2 
-4 2 -4 1 -4 8 -4 5 -4 4 -4 3 -5 3 -4 2 
-4 2 -4 2 -4 1 -5 0 -4 0 -4 3 -5 3 -4 7 
-4 -3 -5 1 -5 0 -4 0 -4 2 -5 1 -4 1 -5 2 
-4 1 -4 4 -5 2 -3 -2 -4 1 -4 -3 -4 6 -4 -9 
-4 2 -4 3 -3 -1 -4 2 -4 -1 -3 1 -4 3 -3 4 
-4 -1 -4 3 -3 1 -4 1 -3 4 -4 1 -4 -2 -3 -2 
-4 -2 -3 -1 -4 -1 5752 1285 100 MP stroke
-3 2 -4 0 -3 3 -4 -4 -4 -1 -3 2 -4 2 -4 1 
-3 -1 -4 2 -3 2 -4 1 -3 -3 -4 -5 -3 2 -4 -2 
-3 -5 -4 2 -3 -3 -4 1 -4 -6 -3 0 -4 2 -3 2 
-4 -1 -3 -2 -4 -3 -4 5 -3 2 -4 2 -3 0 -4 -5 
-3 3 -4 5 -3 5 -3 7 -3 -1 -3 -1 -3 -1 -3 -2 
-3 -1 -3 -3 -3 -3 -3 4 -2 -2 -3 1 -3 -6 -2 -2 
-3 -2 -2 -9 -2 -7 -3 2 -2 -2 -2 6 -3 -2 -2 -2 
-2 0 -2 0 -2 1 -2 -11 -2 1 -1 -1 -2 1 -2 19 
-1 0 -2 4 -1 3 -2 3 -1 -2 -1 -2 -1 -2 -1 -2 
-1 3 -1 0 -1 0 -1 2 -1 -6 0 -2 -1 2 -1 -1 
0 -1 -1 -5 0 1 -1 1 0 -1 -1 -1 0 6 -1 4 
0 7 -1 -3 0 -3 -1 3 0 -3 -1 0 0 -5 -1 -15 
0 -1 0 25 -1 7 5973 1280 100 MP stroke
0 12 0 -19 0 17 -1 1 0 -2 0 5 -1 -2 0 -5 
0 2 -1 1 0 -3 -1 2 0 2 -2 2 -1 -1 -1 -1 
-1 0 1 0 -2 -3 -1 -2 -1 0 -1 0 -1 0 -1 0 
1 0 -2 -2 -1 0 -1 0 -1 -1 0 -1 -1 -1 -1 -1 
0 -1 -1 -1 -1 -1 0 -1 -1 -1 0 -1 -1 -1 0 -1 
-1 -1 -1 -1 0 -2 -1 -1 0 1 0 -1 -1 -2 0 -2 
-1 -1 0 -2 -1 -2 0 -2 -1 0 0 -3 -1 -1 -1 0 
-1 0 0 -2 -1 -1 -1 -2 0 -2 -1 -1 0 1 -1 -1 
0 -1 -1 1 -1 -1 0 -1 -1 -1 0 1 -1 -1 0 -2 
-1 0 0 -2 -2 -2 0 1 -1 -1 0 1 -1 1 0 -3 
0 3 -1 -1 0 -6 0 5 1 1 0 1 0 -3 1 -5 
0 8 0 -1 -1 2 0 1 -1 1 0 -7 -1 2 0 -3 
-1 -1 0 -2 -1 2 6025 1329 100 MP stroke
0 -4 -1 -1 -1 -6 -1 0 -1 3 0 -1 -1 1 -1 -1 
-1 -4 -2 -2 -1 0 -1 -1 -1 2 -1 -4 -1 0 -2 1 
-1 0 -1 0 -2 4 -1 1 -2 -3 -1 0 -2 2 -2 0 
-1 -1 -2 -1 -2 4 -1 4 -2 0 -2 -1 -2 3 -1 2 
-2 1 -2 1 -2 0 -1 1 -2 -1 -2 0 -2 1 -2 0 
-1 2 -2 2 -2 1 -2 -2 -1 3 -2 2 -2 1 -1 1 
-2 3 -2 2 -1 2 -2 1 -2 0 -1 1 -2 0 -2 0 
-2 2 -1 0 -2 1 -2 0 -2 1 -1 0 -2 2 -2 1 
-1 2 -2 0 -1 2 -2 0 -1 2 -2 1 -1 2 -1 1 
-1 2 -2 0 -1 2 -1 -1 -1 1 -1 -2 -1 0 -1 2 
-1 1 -1 0 -1 1 -1 1 -1 1 0 2 -1 1 0 4 
1 1 1 1 0 2 1 1 1 2 1 1 1 2 1 0 
1 2 1 1 1 2 6138 1263 100 MP stroke
2 1 1 1 2 2 2 1 2 1 2 3 2 2 2 2 
2 1 2 2 2 2 3 2 2 1 3 2 2 2 2 2 
3 2 3 2 2 1 2 2 3 1 2 1 2 0 2 0 
2 1 2 1 2 1 2 1 1 1 2 0 1 1 1 1 
1 0 -1 0 0 2 -1 1 -1 0 -2 -1 -2 0 -1 0 
-3 -1 -2 0 -3 -1 -3 -1 -3 0 -3 -1 -3 -1 -4 0 
-3 0 -4 -1 -4 -1 -3 0 -4 0 -4 -2 -4 -1 -3 -1 
-4 0 -4 0 -4 -1 -4 0 -3 -1 -4 -1 -3 -2 -3 -3 
-3 -2 -3 -1 -2 -2 -3 -3 -2 0 -2 -1 -2 -2 -2 0 
-2 1 -2 -2 -1 -1 -2 -2 -1 -1 -2 -1 -1 -1 -1 0 
-1 0 -1 -1 0 -1 -1 -1 -1 -2 -1 1 0 -1 -1 -1 
-1 0 -1 -1 -1 1 -1 1 -1 -1 -1 -1 -1 -1 -1 0 
-1 0 -1 0 1 0 6208 1263 100 MP stroke
-2 2 -1 0 -1 2 -1 0 0 2 -1 1 -1 1 0 1 
-1 2 -1 1 -1 1 -1 0 -1 2 -1 1 -1 -1 -1 1 
-1 0 -1 -1 -2 2 -1 1 -1 1 -2 1 -2 2 -1 1 
-2 1 -1 1 -2 0 -2 0 -1 0 -2 -1 -1 0 -1 0 
-2 -1 -1 -2 -1 -1 -1 -1 -1 -1 -1 -1 0 -2 -1 0 
0 -1 0 1 -1 1 1 0 -1 0 2 -3 1 -2 1 -3 
1 1 1 1 1 0 2 0 1 0 1 2 2 1 1 3 
2 1 2 -1 2 1 2 1 2 1 2 0 2 1 2 1 
3 3 2 4 2 2 3 1 2 1 3 1 2 0 3 -3 
2 1 3 -2 2 -1 2 -1 3 -3 2 1 3 0 2 -1 
2 0 3 -4 2 3 2 0 2 0 2 6 2 2 2 1 
2 0 2 -1 1 -1 2 -6 2 0 1 3 1 4 2 0 
1 4 1 6 1 6 6153 1216 100 MP stroke
1 -1 1 2 1 -1 1 2 1 0 -1 0 2 3 1 2 
0 5 1 4 0 1 0 -2 0 1 1 2 0 12 0 -1 
1 1 1 1 1 0 1 0 1 0 1 0 1 0 1 0 
1 0 2 -1 1 -1 2 0 2 0 1 0 2 0 2 0 
2 -1 3 0 2 0 2 0 2 0 3 -1 2 -2 2 0 
3 0 2 -1 3 0 3 -1 2 -1 3 0 3 0 2 0 
3 -1 3 0 3 0 3 0 3 -1 3 0 3 -2 3 -1 
2 0 3 0 3 -1 3 -1 3 0 3 -1 3 0 3 -1 
3 -1 3 -1 3 -1 2 -1 3 -1 3 0 3 -2 2 -1 
3 0 2 -2 3 -1 2 -1 2 -1 3 -1 1 -1 3 0 
1 -1 2 -1 2 -1 2 -1 1 -1 1 -1 2 0 1 0 
1 -1 1 -1 0 -2 -1 0 -1 0 -1 0 -1 0 -1 0 
-2 0 -1 -1 -2 -1 5992 1230 100 MP stroke
-2 1 -2 -1 -3 0 -2 0 -3 0 -3 1 -4 0 -3 0 
-4 1 -4 0 -4 1 -5 0 -4 0 -5 0 -4 0 -5 1 
-5 0 -6 1 -5 1 -5 0 -5 1 -5 1 -6 1 -5 0 
-5 1 -5 1 -5 1 -5 1 -5 1 -4 1 -5 1 -4 1 
-5 1 -4 1 -4 1 -4 1 -4 0 -3 1 -3 1 -3 1 
-3 0 -2 1 -3 1 -1 1 -2 0 -1 0 -1 0 -1 0 
-1 1 1 -1 1 0 1 0 1 0 1 0 2 -1 1 0 
2 0 2 0 2 0 2 -1 3 0 2 -1 3 0 3 0 
3 -1 3 0 3 -1 3 0 4 0 3 0 3 -1 4 0 
3 -1 4 0 3 0 4 -1 4 0 3 0 4 0 4 -1 
3 0 4 0 4 0 4 -1 4 0 4 -1 4 0 4 -1 
5 0 4 -1 4 0 4 -1 4 0 5 0 4 0 4 0 
4 0 4 0 4 0 6015 1217 100 MP stroke
4 0 4 -1 4 0 4 0 4 0 4 1 4 0 4 1 
5 -1 4 1 4 0 4 0 4 0 4 0 4 0 4 -1 
4 0 4 0 4 0 3 0 4 0 3 0 4 0 3 -1 
4 0 3 0 3 0 4 0 3 -1 3 -1 3 0 4 0 
3 0 3 -1 3 -1 3 -1 3 0 3 0 3 -1 3 -2 
3 -1 3 -1 3 -2 2 -2 3 -1 3 0 3 -1 2 0 
3 0 2 -1 3 -1 2 -1 3 -1 2 -2 2 -2 2 0 
2 -2 1 0 2 0 2 -1 2 -1 1 -1 2 -1 2 -1 
2 -1 2 -1 2 -1 2 -1 2 0 3 0 2 -1 3 0 
2 1 3 -1 3 0 3 0 3 0 3 1 3 0 3 1 
4 0 3 0 3 -1 3 -1 4 -3 3 -1 4 -1 3 0 
3 0 4 0 3 -2 3 -1 3 -1 4 -1 3 0 4 0 
3 -1 4 1 3 1 5710 1263 100 MP stroke
4 1 3 1 4 0 4 0 3 0 4 -1 4 -1 3 -1 
4 -1 4 0 3 0 4 1 3 0 3 0 4 1 3 0 
3 -1 3 -2 3 -1 3 0 3 -1 3 -1 3 0 3 -1 
2 0 3 -2 2 -2 2 -2 3 -1 2 0 2 -1 2 -4 
2 0 2 -2 2 -4 2 -1 1 -4 2 -1 2 -3 1 -2 
2 -2 1 -2 2 -2 1 -3 1 -3 2 -3 1 -4 1 -3 
1 -4 1 -6 0 -2 1 -2 1 -1 0 -4 1 -1 1 -2 
0 -1 1 -3 0 -2 1 1 0 -9 -1 -4 0 -5 -1 -1 
0 -5 -1 -5 0 -2 -1 -1 0 -2 -1 0 0 -2 -1 -8 
-1 1 0 -5 -1 -4 0 1 -1 -3 -1 -2 -1 -2 0 -4 
0 1 -1 2 0 5 -1 -1 0 -23 1 0 1 -8 0 2 
1 0 1 -6 1 -1 2 -3 1 -7 2 -3 1 2 2 -4 
3 -3 2 -2 3 -7 5570 1466 100 MP stroke
3 -10 3 -4 4 3 3 -2 4 -8 5 -10 5 -7 5 -8 
5 -4 6 -9 6 -12 6 -6 7 -15 7 -8 8 -11 7 -20 
8 -18 9 -15 8 -19 9 -20 9 -18 10 -17 10 -18 9 -18 
11 -26 11 -28 11 -32 11 -52 11 -63 12 -67 12 -52 12 -90 
13 -116 13 -180 13 -157 13 -148 13 15 13 150 13 87 13 34 
15 56 13 52 15 129 13 71 15 49 13 41 15 45 10 15 
20 25 15 45 12 24 14 26 11 9 15 8 13 17 15 15 
13 10 14 30 14 7 14 17 13 3 14 -3 14 9 13 19 
13 13 13 5 12 6 12 19 13 19 12 11 13 3 9 -10 
12 7 12 6 11 4 11 4 9 6 10 11 10 12 10 9 
8 2 9 10 7 -2 8 -1 8 7 6 5 7 -2 6 -10 
5 -16 6 -7 5 0 4 -3 5 -4 5 -7 4 9 3 20 
4 11 3 3 2 -9 4599 1615 100 MP stroke
2 1 3 -5 2 -5 1 -7 0 -10 2 -7 3 -4 3 -17 
1 -11 2 -4 1 -3 1 -9 1 1 1 15 1 7 1 -7 
1 -13 2 6 1 0 1 -6 1 2 1 -29 0 -24 1 -2 
0 -22 -1 3 0 17 -1 -10 0 -15 -1 -8 -1 3 -1 -4 
-1 -6 -1 -1 -2 -18 -1 -19 -2 -16 -3 -29 -2 -16 -3 -28 
-2 -11 -3 -18 -3 -2 -2 14 -4 -22 -2 -55 -4 16 -3 11 
-4 53 -3 28 -4 22 -4 -20 -3 1 -4 19 -4 5 -3 -1 
-4 24 -4 -4 -4 24 -3 -2 -4 1 -4 0 -3 31 -4 18 
-4 11 -3 -5 -4 -15 -3 -7 -4 -14 -3 11 -4 10 -3 -41 
-4 -12 -3 1 -3 34 -4 5 -3 -10 -3 4 -3 4 -3 -8 
-3 -7 -2 -19 -3 -6 -3 -4 -2 17 -3 -14 -2 -16 -2 -3 
-2 -3 -2 -17 -2 -16 -2 -6 -1 5 -1 37 -1 21 -1 31 
0 34 0 -10 1 5 4753 1786 100 MP stroke
1 -13 1 24 2 12 2 -5 3 -2 2 10 3 42 3 -2 
4 10 3 -1 4 7 3 11 5 -8 4 4 4 7 4 7 
6 0 5 -7 4 -2 5 -5 5 12 5 -1 5 10 6 -4 
5 13 6 11 6 15 6 -8 6 0 6 10 7 4 7 0 
6 3 7 -9 8 1 7 2 8 -3 8 -7 8 10 8 -2 
9 -5 9 -2 9 14 9 1 9 3 10 -3 10 -5 10 -10 
10 1 11 -6 10 8 11 6 10 -2 11 -9 12 2 11 -2 
12 -5 11 5 12 1 13 -5 12 2 13 3 12 2 13 -1 
13 -6 14 1 13 -11 13 -2 14 -8 14 -4 14 -5 14 4 
14 -2 14 -4 14 4 14 5 14 -14 16 -12 17 -3 14 -2 
15 1 15 -1 14 -10 15 -3 15 -6 15 -15 16 -11 15 -15 
15 -6 17 -17 13 -12 15 4 16 -12 14 -14 16 -25 14 -14 
18 -23 15 -20 16 -22 3781 1927 100 MP stroke
15 4 15 -4 16 -10 14 -4 15 -19 13 -7 13 -1 12 -25 
12 0 13 -6 11 -21 11 -8 11 -26 9 -20 10 -17 8 16 
8 39 7 -11 6 -12 6 23 5 0 4 -6 4 4 3 -31 
4 -6 2 12 3 0 2 29 1 -24 2 -19 2 -23 1 -13 
1 0 1 -12 0 -34 1 0 0 25 0 -50 0 37 -1 -7 
0 -19 -1 -17 0 37 0 -4 -1 -8 0 4 0 -173 1 -33 
0 8 1 -92 0 21 1 -23 1 17 1 51 1 -48 1 -13 
1 -30 1 22 1 30 2 27 1 -8 2 -41 2 -41 1 -84 
2 -38 2 69 2 -38 2 57 2 -58 2 63 2 24 2 112 
1 6 3 -33 2 -21 3 3 2 -3 3 -21 2 3 3 49 
3 59 3 -30 3 5 4 -6 3 -12 4 22 3 -23 3 -71 
4 -51 3 -85 4 22 3 -28 3 -64 3 82 2 48 3 20 
3 -146 3 22 2 146 3411 2487 100 MP stroke
2 -30 2 -24 2 153 2 68 2 82 2 18 2 -83 2 -64 
2 -22 1 38 2 69 1 -3 1 -13 2 -3 1 1 0 -21 
1 -13 0 52 -1 73 -1 2 -1 12 -2 -1 -2 -19 -3 -6 
-3 45 -5 -2 -3 -15 -4 -24 -5 -4 -4 -1 -5 46 -14 -27 
-6 -41 -4 -54 -6 -49 -5 -23 -5 -22 -6 92 -5 23 -5 33 
-5 -28 -4 0 -4 -17 -5 86 -3 -55 -5 -44 -3 22 -4 26 
-3 -11 -4 -70 -4 35 -4 -8 -3 14 -2 16 -3 -47 -3 -18 
-2 -49 -2 -38 0 -45 -4 -11 -1 -36 -3 133 0 56 -1 41 
-1 -35 0 40 -2 21 -2 -16 -2 -55 1 -30 -2 66 0 44 
-1 31 0 -36 2 18 -1 -129 0 -39 1 -9 0 47 1 36 
4 -17 2 2 -1 44 0 44 4 21 -1 -37 1 20 1 -43 
1 41 -4 11 4 -46 1 -86 2 33 3 -30 7 -39 0 -57 
7 56 2 48 1 35 3523 2338 100 MP stroke
-2 -36 16 -66 8 -132 3 66 5 -44 4 -27 6 41 2 39 
-3 56 5 4 8 -78 -2 58 5 75 1 52 4 35 4 -213 
8 -83 5 -12 5 43 5 95 3 34 5 10 5 27 4 6 
4 -33 6 -40 4 -1 4 29 4 -30 6 47 4 58 5 40 
5 -85 5 -47 5 -275 5 57 5 68 5 -33 5 -70 6 -40 
6 -83 6 130 5 101 5 90 6 -167 5 -52 7 -10 5 -149 
5 36 6 102 5 -11 5 -52 6 277 4 67 6 33 7 -11 
4 21 4 31 5 6 5 60 4 50 3 23 4 -66 4 25 
4 29 4 2 4 -9 3 -64 4 2 3 50 4 1 3 -23 
3 -7 3 19 2 -4 4 -31 2 13 -2 65 7 25 -5 34 
10 -30 -2 13 -1 3 9 -14 -5 23 3 -1 4 -11 1 3 
3 -3 1 8 2 0 1 4 2 -6 3 -12 0 9 4 -7 
4 -21 -3 11 4 -15 3136 2236 100 MP stroke
1 -19 2 -11 1 -23 0 4 1 11 0 -44 -1 5 -1 -6 
-2 -25 -1 -17 -2 4 -2 15 -1 -1 -2 3 -3 -20 -2 -18 
-3 -5 -2 -24 -3 -22 -3 -15 -4 -16 -3 -9 -3 -2 -4 19 
-4 -17 -3 -2 -6 7 -3 -26 -4 12 -3 -20 -5 3 -4 -26 
-4 4 -4 -6 -4 20 -4 -16 -4 21 -3 2 -3 18 -5 32 
5 33 -1 4 -6 32 -2 -67 -3 -40 -1 -101 -3 1 -1 6 
-2 -19 -1 79 -1 23 -1 81 -1 24 0 -31 0 12 1 51 
1 -14 1 34 1 18 3 -38 1 48 2 45 3 16 2 24 
4 -12 3 -32 3 29 3 24 4 -18 3 -20 4 12 5 -11 
5 19 5 -9 6 -3 5 34 7 32 4 17 6 51 6 1 
6 55 6 -2 6 -14 7 -20 9 22 4 -32 3 -78 9 -42 
7 -38 6 14 7 14 7 15 8 -18 6 0 9 5 8 20 
8 -3 6 60 9 -16 3035 2169 100 MP stroke
5 6 11 -41 10 -3 0 51 7 12 5 28 6 -12 5 5 
4 9 4 -12 5 -3 4 12 2 21 3 5 2 24 2 0 
1 -1 1 -16 0 4 -1 -29 -4 31 3 -38 -1 -17 -1 6 
4 60 -5 6 -3 -3 -5 -15 -4 17 -4 0 -2 1 -7 -19 
-8 9 -4 -24 -7 -4 -8 -9 -10 29 -9 -38 -9 -75 -7 -25 
-9 -61 -9 -21 -10 74 -9 58 -10 -73 -9 -60 -10 -26 -10 -26 
-9 -72 -11 -72 -9 -64 -11 67 -10 123 -8 36 -7 11 -12 10 
-8 -85 -13 -115 -12 33 -10 -140 -10 -54 -10 -129 -10 -104 -9 -6 
-9 -164 -10 368 -9 -207 -9 129 -8 180 -8 116 -8 126 -8 9 
-9 75 -6 -7 -8 48 -6 53 -5 31 -7 -4 -8 -22 -8 -3 
-8 6 -8 -3 -8 27 -7 34 -7 31 -7 5 -7 -12 -8 -42 
-6 0 -6 -4 -6 -35 -7 29 -6 36 -6 42 -5 29 -6 -16 
-6 -6 -5 -18 -6 2 3536 2080 100 MP stroke
-6 -1 -6 -31 -7 7 -8 43 -6 28 -7 15 -8 -18 -7 -4 
-7 18 -6 -2 -7 -10 -7 16 -7 -12 -6 -15 -7 15 -6 -5 
-7 2 -7 -10 -6 -5 -8 -19 -7 -57 -7 -1 -6 -53 -8 9 
-8 -8 -7 -29 -8 5 -7 -11 -8 -47 -7 49 -7 -9 -8 1 
-8 -14 -6 -8 -7 -1 -9 33 -7 23 -7 -2 -8 24 -7 25 
-8 17 -7 8 -8 33 -8 22 -7 23 -8 9 -7 11 -8 19 
-7 23 -7 -3 -8 2 -7 16 -6 -10 -6 1 -7 7 -4 10 
-6 15 -6 16 -5 14 -5 11 -6 21 -4 7 -5 -5 -3 -6 
-4 6 -4 -4 -3 11 -2 5 -4 16 -2 -2 -2 7 -2 2 
-2 -3 -1 -4 -2 5 -1 3 -1 -4 0 -11 -1 -9 0 -66 
-1 -7 -1 -6 -1 -6 0 35 -1 -3 0 -15 -1 -5 -1 -17 
-1 13 -1 14 -1 -45 -1 6 -1 0 -2 -3 -1 -1 -2 4 
-2 21 -2 -12 -2 -12 4025 1965 100 MP stroke
-2 -8 -2 -4 -2 0 -2 -5 -2 -1 -2 -2 -3 -6 -2 -16 
-3 -5 -3 -19 -3 -30 -3 22 -3 -17 -3 -22 -3 -22 -3 -39 
-3 35 -4 -5 -3 -5 -3 -7 -3 -50 -3 25 -3 -38 -4 -25 
-3 -19 -3 14 -3 9 -3 30 -4 -16 -3 18 -3 3 -4 -27 
-3 -44 -3 49 -4 27 -3 15 -4 -45 -3 17 -3 -34 -3 -37 
-4 39 -3 -34 -3 -30 -3 -29 -3 -24 -3 30 -3 42 -2 -95 
-2 74 -3 -2 -2 39 -1 -67 -1 16 -2 -14 -1 7 0 27 
-1 -61 0 -428 0 176 1 -145 0 30 1 407 0 114 1 12 
0 57 0 -128 0 110 -1 58 0 -30 -1 -19 0 20 -1 11 
-1 -1 0 18 -1 21 -1 -12 -1 17 -1 20 -1 -23 -1 -3 
-1 -4 0 -45 -2 -4 0 9 -1 -8 -1 52 -1 -12 -1 -21 
0 -104 -1 31 0 -70 -1 61 2 -23 0 -78 -1 33 0 -91 
-1 112 0 74 0 -74 4197 2211 100 MP stroke
-1 51 0 16 -1 4 0 79 0 -16 -1 86 0 -2 -1 56 
-1 34 -1 -10 0 14 -1 15 0 -1 -1 -4 -1 -3 -1 8 
0 34 -1 -7 -1 13 -1 6 -1 -11 -1 2 -2 -14 -1 6 
-2 8 -2 21 -1 12 -3 14 -2 2 -2 -27 -3 1 -2 17 
-3 20 -3 -2 -3 18 -3 -29 -3 19 -4 20 -4 4 -3 -6 
-4 -3 -5 8 -4 -10 -4 -10 -5 2 -4 -5 -5 6 -5 -3 
-5 7 -4 8 -5 -9 -5 2 -6 12 -5 -11 -5 -10 -5 -28 
-5 23 -5 4 -6 3 -5 22 -6 -6 -5 16 -5 12 -6 3 
-5 4 -5 3 -5 -4 -5 1 -5 -2 -5 -10 -5 -10 -4 -13 
-5 -6 -4 -6 -5 -4 -4 4 -4 -9 -5 -6 -4 -27 -4 8 
-4 19 -3 -22 -3 6 -4 -18 -3 3 -2 6 -3 -6 -2 -1 
-3 1 -2 8 -2 0 -2 -5 -2 9 -1 -30 -1 -8 -2 3 
0 -9 -1 -17 -1 -10 4492 1878 100 MP stroke
0 -8 -1 -39 0 8 0 -2 1 -23 0 -40 1 -18 0 -10 
1 -15 1 -14 1 -11 1 -19 1 -17 1 6 2 -21 1 -24 
1 -29 1 -11 2 -23 1 -29 1 -29 2 -29 1 -41 2 -10 
1 -51 1 11 2 19 1 17 1 -10 1 33 1 -14 0 11 
1 -126 1 -59 0 129 0 -286 0 225 -1 35 0 -37 0 208 
-1 -32 -1 -190 0 -8 -1 26 -1 36 -1 13 -2 38 -1 -32 
-1 123 -1 21 -2 -51 -2 -15 -1 -16 -1 -4 -2 -66 -2 -123 
-1 -142 -1 131 -2 -176 -1 -168 -2 274 -1 265 -1 -63 -1 -28 
-2 -101 -1 -29 -1 -108 -1 -261 -1 230 -1 186 -1 28 0 -95 
-1 21 0 177 1 24 1 18 1 0 1 -41 1 29 2 92 
1 2 2 -19 2 28 2 -41 2 -15 3 49 2 -46 3 4 
3 31 2 -43 3 -67 3 61 4 3 3 -25 4 -102 3 -85 
4 -11 4 122 4 51 4440 2341 100 MP stroke
4 -35 4 -101 4 78 4 -5 4 -9 5 -8 4 71 5 -17 
4 65 5 -10 5 25 5 -71 5 3 5 -21 4 -15 6 36 
5 3 5 -58 5 -142 5 -62 5 -141 5 129 5 7 5 146 
5 39 5 29 5 -17 5 -10 5 -14 6 -13 4 12 6 31 
4 32 5 35 5 31 5 19 4 -36 5 21 4 9 5 -17 
4 7 4 -17 4 66 3 -159 4 21 4 15 4 -23 3 59 
3 -139 3 -277 4 266 3 -67 3 -56 3 -102 4 155 3 182 
3 47 3 59 3 24 3 66 3 -32 4 -26 2 -8 3 -18 
4 15 3 -51 3 69 3 -23 3 59 3 55 3 56 3 -57 
4 50 3 49 3 47 4 -13 3 6 3 11 4 14 3 14 
3 -16 4 24 3 12 4 3 3 13 4 -6 3 -15 4 13 
3 -10 3 -9 3 -17 3 19 4 44 3 -16 3 16 4 27 
3 13 4 32 3 -13 4053 1864 100 MP stroke
4 -19 4 -1 4 18 4 0 5 15 4 1 5 9 5 5 
5 -11 5 -19 5 -20 5 -2 5 13 5 8 6 -21 5 26 
5 -7 5 -6 5 -10 5 -2 5 -19 5 16 5 -9 5 2 
5 -18 5 6 5 -2 5 21 4 4 5 -5 5 -25 5 -30 
5 0 4 -13 5 10 5 2 5 4 4 -1 5 14 4 10 
4 -9 4 2 4 15 4 12 4 -4 4 -9 3 -8 4 -6 
4 15 3 -2 3 -4 4 -8 3 -11 4 23 3 -1 3 -31 
3 -1 4 19 3 2 4 -4 2 15 3 6 4 -19 3 -3 
3 -47 2 -30 3 -2 2 -33 2 28 2 -5 2 -26 1 7 
1 9 0 31 1 -25 0 -2 -1 -13 -1 13 -1 -18 -1 -25 
-2 21 -2 -11 -2 -8 -2 -22 -2 19 -3 -36 -4 -26 -3 65 
-3 -2 -4 35 -4 -30 -4 -43 -5 -22 -4 12 -5 -3 -5 -41 
-5 -43 -5 22 -6 -52 3832 2234 100 MP stroke
-6 -33 -6 -78 -6 28 -6 -80 -7 6 -6 -216 -7 94 -7 31 
-7 31 -7 84 -7 -31 -7 120 -8 67 -7 60 -8 43 -7 12 
-7 36 -8 45 -8 30 -7 10 -8 11 -8 31 -8 7 -8 22 
-8 11 -8 24 -8 7 -9 2 -8 17 -9 10 -8 28 -9 25 
-9 -10 -9 -11 -9 3 -9 3 -9 15 -9 10 -9 20 -9 -5 
-9 -6 -9 -1 -9 6 -9 -16 -8 -22 -9 -19 -8 -28 -8 0 
-9 5 -8 15 -8 -11 -8 11 -9 30 -8 3 -8 -15 -8 -44 
-7 1 -9 -10 -8 13 -8 1 -8 4 -8 -10 -7 11 -8 11 
-8 -11 -8 2 -7 -6 -7 -1 -8 10 -7 -8 -7 7 -7 -5 
-7 -2 -6 -5 -7 -4 -7 -13 -6 9 -7 -21 -7 -15 -6 27 
-8 5 -6 1 -7 15 -6 4 -7 8 -6 -20 -7 -17 -6 -19 
-7 -8 -7 -29 -6 -21 -6 -23 -7 -12 -6 19 -7 8 -7 -9 
-6 7 -6 -12 -7 13 4577 1952 100 MP stroke
-6 5 -6 -16 -6 34 -5 -19 -6 -9 -5 -10 -6 -55 -5 -36 
-5 -5 -5 7 -5 -81 -4 77 -5 -11 -3 8 -4 19 -4 -35 
-4 25 -3 -34 -3 -19 -3 -102 -3 -74 -3 52 -2 88 -3 68 
-2 17 -2 97 -2 -29 -1 23 -1 50 -2 18 0 10 -1 42 
0 -11 0 86 1 36 0 15 0 -4 1 23 1 16 1 13 
1 22 2 -36 1 7 2 -19 2 58 2 20 2 26 3 -2 
2 18 3 9 2 24 2 10 3 31 2 -1 3 14 2 7 
3 5 2 6 3 7 3 -9 2 1 3 -6 3 12 3 1 
3 0 3 1 3 2 3 -1 4 3 3 2 4 -2 3 -8 
4 1 4 -2 3 2 4 -2 4 3 4 -6 4 1 5 -6 
4 -2 5 -8 5 -5 4 -5 5 -4 5 -2 4 4 5 -8 
4 -3 4 -6 5 -2 4 -9 4 -6 5 -14 5 -6 4 -7 
5 0 4 -6 5 2 4488 1567 100 MP stroke
5 -7 5 1 5 -12 4 -3 5 -4 5 -2 4 -3 5 4 
5 -1 5 -1 6 1 5 -5 5 -13 6 -4 6 -15 5 -1 
6 -15 7 -13 6 -10 6 -7 6 -23 6 0 7 -16 7 -9 
5 -19 7 -6 7 -2 7 -6 5 -24 7 -4 5 -16 6 -5 
6 -20 8 -4 6 -19 7 2 6 -8 4 -17 1 -20 4 -17 
10 -6 3 5 4 -16 4 -20 4 -25 5 -52 3 -19 3 8 
3 -30 3 -13 4 8 3 31 2 -34 1 13 2 -19 2 41 
0 -9 1 -7 0 -25 -1 36 -1 -40 -4 7 2 -25 -4 -46 
-3 -74 -1 -82 -3 -144 -1 73 -3 -103 -2 -109 -4 -1415 -13 1448 
-24 29 -8 -98 -1 1 -6 109 -4 137 -6 -29 3 -16 4 -22 
-8 120 -5 128 -7 35 -6 -60 -8 34 -7 22 -7 54 -6 75 
-7 -2 -5 65 -9 47 -6 31 -3 17 -7 48 -6 6 -6 38 
-2 -6 -1 4 -6 1 4400 1785 100 MP stroke
-6 -18 -4 7 -3 11 -13 32 -3 15 -4 20 -4 7 -1 0 
-9 22 -5 -3 -5 24 -5 4 -5 -1 -4 3 -5 2 -5 -35 
-4 -5 -4 28 -2 -20 -5 -27 -3 -2 -3 -23 -3 26 -5 -11 
-4 -3 -3 -43 -4 -16 -4 6 -2 -6 -4 -28 -3 -75 -4 48 
-3 19 -3 -4 -3 23 -2 0 -3 -129 -2 193 -3 7 -2 5 
-2 0 -2 8 -1 -6 -2 13 -2 21 -2 -8 -2 35 -2 -14 
-2 28 -2 12 -2 -8 -2 10 -1 -8 -3 11 -2 7 -1 0 
-2 10 -2 -7 -2 2 -1 9 -2 -10 -2 3 -2 8 -2 -18 
-2 -10 -2 -16 -1 -4 -3 11 -2 -24 -2 -5 -2 -46 -3 -26 
-2 -18 -3 13 -3 4 -3 -12 -3 0 -3 16 -4 5 -4 -13 
-4 3 -4 19 -4 8 -5 -7 -5 1 -5 15 -5 3 -5 -10 
-5 -16 -6 -11 -6 22 -5 12 -6 18 -6 -9 -7 -3 -6 22 
-7 1 -6 25 -7 -2 4750 1668 100 MP stroke
-7 10 -7 -2 -7 1 -7 -9 -8 12 -7 6 -7 -5 -7 -21 
-8 4 -7 -5 -8 -2 -8 17 -7 -1 -7 -32 -8 5 -7 13 
-7 -2 -8 6 -7 7 -7 0 -7 -1 -7 -19 -7 8 -7 12 
-8 -3 -7 13 -7 1 -7 15 -7 5 -8 13 -7 16 -7 -11 
-8 -25 -7 2 -8 6 -8 18 -7 -4 -8 -11 -8 -7 -8 0 
-8 8 -8 -6 -8 6 -8 12 -9 4 -8 1 -9 0 -8 3 
-8 -3 -9 2 -9 8 -8 0 -9 -9 -8 -3 -9 -2 -9 1 
-9 -6 -9 3 -9 7 -8 -7 -9 2 -9 1 -8 2 -9 3 
-8 -2 -9 -2 -8 2 -8 1 -8 5 -8 -2 -7 -1 -8 0 
-7 4 -7 1 -7 -2 -6 2 -7 7 -7 7 -6 8 -6 7 
-6 5 -5 7 -5 3 -5 3 -5 4 -4 1 -4 0 -4 2 
-3 -1 -3 5 -3 1 -3 3 -3 3 -2 1 -2 2 -2 2 
-2 2 -2 2 -1 2 5430 1529 100 MP stroke
-2 3 -1 -3 0 1 -2 0 1 -2 -1 3 0 2 1 3 
0 1 1 5 0 -4 1 -3 1 -2 1 -2 0 -1 1 -1 
1 2 1 5 0 3 1 -2 1 -5 0 -2 1 -3 0 -5 
1 -2 0 -9 -1 -5 0 -3 0 3 -1 -2 -1 0 1 0 
-3 -6 -1 -6 -1 5 -2 2 -2 -4 -2 -2 -2 -2 -3 1 
-3 -2 -3 -1 -4 -1 -5 5 -4 0 -5 4 -5 3 -5 4 
-6 -1 -6 2 -7 4 -6 3 -7 5 -8 6 -7 7 -8 4 
-8 5 -8 2 -9 5 -8 6 -9 3 -10 3 -9 4 -9 4 
-10 4 -10 4 -10 5 -9 3 -10 2 -10 4 -10 2 -10 1 
-10 3 -9 3 -10 -1 -10 1 -9 -1 -10 1 -10 0 -9 -1 
-10 -1 -9 0 -9 -2 -9 0 -9 -1 -9 2 -9 -1 -8 2 
-8 3 -8 -3 -8 3 -8 0 -8 2 -7 0 -7 1 -7 0 
-8 2 -6 1 -7 0 5910 1454 100 MP stroke
-7 2 -7 0 -6 3 -6 2 -7 1 -5 2 -6 2 -6 3 
-5 2 -5 2 -6 3 -5 3 -5 3 -4 2 -5 2 -4 3 
-4 3 -4 3 -4 3 -3 1 -3 3 -3 3 -2 3 -1 1 
-2 2 -1 2 0 2 -1 2 0 2 1 1 1 2 1 2 
2 2 1 1 3 2 2 2 3 2 4 1 3 2 4 1 
4 1 5 2 4 0 5 0 5 0 5 0 5 0 5 -1 
6 0 5 -2 5 -1 6 -2 5 0 6 0 5 -1 6 -2 
5 0 5 -1 5 -1 5 -1 5 -1 5 -3 4 0 5 -2 
4 -1 4 -1 4 -2 4 -1 4 -2 4 -2 3 -2 4 -2 
3 -2 3 -2 3 -1 3 -2 2 -2 3 -3 2 -3 2 -3 
2 -2 2 -3 1 -4 1 -4 2 -2 1 -2 1 -4 0 -5 
1 -4 1 -3 1 -4 1 -6 1 -4 0 -5 1 -3 0 -4 
1 -6 0 -14 -1 -1 5813 1497 100 MP stroke
0 -1 -2 -5 0 -2 -1 -5 0 -2 -1 -4 -1 -1 0 -2 
-1 1 -1 -2 0 2 -1 3 0 3 -1 2 0 4 -1 0 
0 1 0 -3 1 -1 0 2 1 -2 0 -3 1 -3 1 -2 
1 -3 1 -1 1 -3 1 -5 1 -7 2 -2 1 -2 1 -6 
2 -8 1 -7 2 -2 1 -5 2 -5 1 -9 2 -13 2 -5 
1 -6 2 -8 1 -6 2 -10 1 -11 2 -12 2 -9 1 -9 
2 -12 2 -7 2 -12 2 -12 2 -11 1 -24 2 -6 2 -9 
2 -6 1 -5 2 0 1 -17 1 -23 2 -17 1 -3 1 3 
2 -13 1 -11 2 5 1 -2 2 7 2 -12 2 -4 2 18 
2 -3 3 4 2 3 3 -4 2 0 3 -2 2 11 3 0 
3 8 3 -6 2 -2 3 2 3 3 3 5 3 2 3 11 
3 -1 3 14 3 13 3 7 3 15 4 18 3 10 3 6 
3 12 4 18 3 23 5667 1677 100 MP stroke
3 21 3 1 3 12 2 -4 3 3 2 4 3 5 2 11 
2 18 2 13 2 10 2 15 3 18 2 13 2 14 2 5 
2 2 2 12 2 9 2 14 2 9 2 8 2 9 2 11 
2 8 2 5 3 6 2 7 2 8 2 5 2 4 3 1 
2 2 2 5 2 3 2 2 3 -1 2 -2 2 2 2 6 
2 1 2 -1 1 3 2 1 2 2 2 -2 1 -3 2 -4 
1 -3 1 -8 1 -2 2 4 1 -2 1 -3 1 1 0 -1 
1 2 1 -3 0 -5 1 -1 0 -1 0 7 1 -1 0 -3 
0 3 -1 1 0 4 -1 4 0 5 -1 7 -1 0 0 4 
-1 4 -1 7 -1 3 0 4 -1 3 0 5 -1 2 0 4 
-1 5 0 5 -1 4 0 8 -1 3 0 -4 0 1 1 3 
0 2 1 -3 1 -1 1 1 1 -1 1 -8 1 -3 1 -2 
2 -1 1 -3 2 -1 5551 1340 100 MP stroke
2 -3 2 -6 2 -6 2 -6 2 -4 2 -6 2 -7 3 -7 
2 -8 2 -10 3 -3 3 -6 2 -5 3 -2 3 0 3 -1 
3 -5 3 -7 3 0 3 -9 3 -4 3 -2 3 -1 3 -5 
4 -4 3 -7 3 -7 3 -6 4 -3 3 -6 3 -3 4 -4 
3 -7 3 -8 4 -9 3 -2 4 -8 3 -8 4 -9 3 -6 
4 -5 4 -6 4 -10 4 -8 4 -8 4 -8 4 -4 4 -7 
5 -11 4 -15 4 -13 4 -14 4 -12 5 -13 3 -6 5 -14 
4 -14 4 -5 4 -10 4 -11 4 -16 4 -23 4 -8 4 2 
4 -10 4 -3 4 -12 4 -11 5 -6 4 -1 5 -5 4 13 
4 6 4 -10 5 -11 4 -6 4 -7 4 1 4 -39 4 -35 
5 30 3 -3 3 -3 4 6 4 -23 3 14 5 -13 3 -15 
4 28 4 1 2 -1 3 -15 2 -21 3 -10 2 -38 2 0 
2 -30 1 -7 1 -22 5214 2047 100 MP stroke
1 -14 3 -17 0 17 -1 95 4 69 -1 26 -2 17 2 4 
0 55 1 22 -1 13 -2 5 -1 -6 -2 6 -3 23 -1 2 
-2 -6 -1 -4 -4 13 -1 1 -3 27 -4 9 -3 8 -3 20 
-3 3 -4 7 -3 14 -4 -2 -5 16 -4 11 -4 0 -5 6 
-4 5 -4 17 -6 4 -5 9 -4 10 -6 5 -4 0 -5 9 
-6 13 -5 12 -4 13 -5 5 -5 0 -4 5 -5 11 -4 6 
-4 0 -4 10 -5 4 -3 7 -6 -3 -3 2 -5 9 -2 4 
-5 -2 -4 -11 -3 -2 -4 3 -3 -7 -3 -6 -2 -2 -3 0 
-3 3 -3 3 -2 -3 -2 0 -1 -6 -3 -3 -2 -6 -3 1 
-2 1 -3 -7 -2 2 -3 -10 -2 0 -3 4 -3 -5 -3 -4 
-3 -11 -3 -6 -3 -11 -3 -5 -4 -2 -3 -3 -4 3 -4 3 
-4 3 -4 -13 -4 9 -4 -3 -4 -4 -4 4 -4 -4 -4 2 
-4 8 -4 12 -4 -1 5516 1526 100 MP stroke
-4 5 -4 6 -5 -6 -4 8 -4 5 -5 5 -4 6 -4 6 
-4 8 -5 7 -4 7 -4 10 -4 7 -4 7 -4 7 -4 3 
-4 2 -3 6 -4 8 -3 3 -4 5 -4 5 -4 2 -3 8 
-4 2 -3 1 -4 5 -4 2 -3 5 -3 4 -3 3 -4 1 
-4 2 -3 2 -3 0 -3 -1 -3 -1 -3 2 -3 -1 -3 -2 
-2 -1 -3 -2 -3 -2 -2 -4 -3 -3 -2 -2 -3 -1 -2 -4 
-1 -3 -2 -1 -2 -2 -2 -6 -1 -2 -3 -3 -1 -2 -1 -5 
-1 -4 -2 -6 -1 -4 0 -3 -1 -4 -1 -1 0 -4 -1 -6 
0 -4 -1 -6 0 -31 1 -7 0 -7 1 -6 1 -6 1 -4 
1 -3 2 -7 2 -4 2 -6 2 -5 2 -9 2 -9 3 -9 
3 -6 3 -8 3 -7 3 -9 3 -13 4 -13 3 -4 4 -8 
4 -11 4 -12 4 -13 4 -13 5 -6 4 -1 5 -10 4 -4 
5 -2 5 -4 4 -17 5612 1731 100 MP stroke
5 -14 5 -17 5 -2 5 -14 4 -14 5 1 5 -1 4 -7 
5 -17 5 -11 4 -8 5 -21 4 -10 5 -26 4 -14 5 -13 
4 -21 5 5 5 -2 4 -17 5 -63 4 7 5 -27 5 -60 
5 -29 4 -37 5 -56 4 -20 5 -23 5 3 4 -83 5 -102 
4 0 5 77 4 -13 5 -32 4 -77 5 -100 4 99 5 45 
4 78 4 27 4 4 4 17 4 72 4 81 4 26 3 28 
4 36 3 42 3 8 3 51 3 33 3 27 2 1 3 10 
2 12 3 22 2 14 2 2 2 -2 2 9 2 23 2 37 
1 23 2 11 1 29 1 12 1 10 1 13 1 15 0 21 
1 -11 0 7 -1 -2 0 3 -1 -14 0 -2 -1 2 -1 3 
-1 -7 -1 -8 -1 -12 -1 -17 -1 -20 -1 -8 -1 -15 -1 -9 
-1 -13 0 -21 -1 -4 -1 -16 -1 -24 0 -56 0 7 1 3 
1 19 1 24 1 9 5358 1835 100 MP stroke
2 6 2 15 2 20 2 13 2 11 3 14 2 20 4 11 
3 11 3 10 3 9 4 6 4 9 4 5 4 7 4 5 
4 8 5 6 4 3 5 7 5 4 5 3 5 6 5 1 
5 2 5 6 6 6 5 -4 5 -3 5 -1 6 7 5 2 
5 2 5 2 5 4 5 2 5 -1 5 -1 5 2 5 0 
5 -6 5 3 4 4 5 -2 5 -1 4 3 5 3 4 1 
5 -2 4 0 4 -1 4 -1 5 -5 4 5 4 -8 4 -5 
4 2 4 2 4 -7 4 -4 4 -3 3 -4 4 -7 4 -6 
3 0 4 -5 3 -7 3 -7 3 -8 3 -18 3 -14 3 -22 
3 -2 3 -4 3 -10 2 -4 3 -1 2 -7 3 -1 2 6 
3 -9 2 -9 3 -19 3 -29 2 -8 3 -21 2 -8 3 -13 
3 12 3 0 3 12 3 -6 3 -3 3 8 4 19 3 0 
4 11 3 20 4 17 4985 1769 100 MP stroke
4 1 3 13 4 -9 4 3 4 10 4 -8 5 0 4 10 
4 13 5 -6 5 -10 5 -12 5 -7 5 -1 6 16 5 -14 
6 -7 6 12 7 13 6 3 7 -7 7 0 7 8 7 -23 
8 1 8 3 8 6 9 -1 9 -18 9 -15 9 -21 9 17 
10 13 9 -5 10 -31 10 -3 9 21 10 15 10 16 9 -16 
10 2 10 21 10 -1 9 30 10 -9 9 -8 10 20 9 27 
9 9 8 13 9 -10 8 -13 8 6 8 13 8 -6 8 -9 
7 0 7 12 8 -16 8 -7 7 -8 7 -4 7 8 7 -18 
8 4 7 -17 7 9 7 -7 7 -6 8 -1 7 -33 7 -18 
7 -16 7 -5 7 5 7 -5 7 -3 6 0 7 9 7 3 
6 5 6 -32 7 -8 5 -18 6 -13 5 4 6 1 5 8 
4 5 4 14 4 -22 4 -6 3 16 3 20 3 37 2 -17 
2 -26 1 19 1 21 4323 1810 100 MP stroke
0 2 1 -12 0 8 -1 15 0 13 -1 -2 -1 -6 -1 -9 
-1 9 -2 6 -1 -9 -2 -11 -2 5 -2 -10 -1 -5 -2 5 
-1 -12 -2 -16 -1 -6 -1 -9 -1 -12 0 -44 1 -19 1 5 
1 9 2 6 2 -16 3 -7 3 6 3 -10 4 3 4 -6 
4 4 5 7 5 14 6 9 6 3 6 -31 6 4 7 1 
7 14 8 21 7 -2 8 0 8 9 9 10 9 14 8 10 
9 1 10 4 9 4 10 5 10 -5 10 3 10 -15 11 -3 
10 4 11 -18 11 16 10 1 11 -3 12 12 10 2 11 -5 
13 0 11 -1 12 0 10 -7 12 -9 11 -13 13 7 12 -16 
12 0 13 3 12 7 13 -13 12 -22 13 -8 12 7 13 2 
12 -15 13 -5 13 -26 12 25 13 3 13 -5 13 -8 13 9 
14 -2 13 8 13 8 13 3 14 6 13 -12 13 -18 13 -23 
14 -25 12 31 16 3 3603 1955 100 MP stroke
15 10 12 -26 13 -11 12 -33 13 -38 12 -27 12 -42 12 38 
11 11 11 -17 12 -3 10 -36 10 35 10 -5 10 0 8 12 
9 3 9 -30 7 -8 7 11 7 -14 7 -11 6 -64 5 -41 
5 5 5 -4 4 -3 5 5 2 -75 3 48 2 36 2 -18 
1 6 1 -34 0 -39 -1 5 -1 -4 -1 28 -1 12 -2 -7 
-3 15 -3 47 -3 -13 -5 30 -5 22 -4 -32 -7 -78 -6 -48 
-7 39 -7 -14 -8 -2 -7 -4 -10 -140 -9 -15 -9 -28 -10 -10 
-10 -57 -10 -54 -10 -44 -10 136 -13 82 -11 -78 -12 -118 -10 -184 
-12 138 -12 83 -12 90 -12 41 -13 -6 -12 -45 -13 -27 -12 194 
-12 -7 -13 -105 -12 89 -12 77 -13 75 -12 30 -12 44 -12 -12 
-12 14 -12 -53 -11 26 -12 32 -11 -12 -11 -17 -12 -31 -11 13 
-10 -2 -10 -5 -10 -29 -9 38 -11 6 -9 -15 -9 10 -8 -77 
-8 -12 -8 -19 -7 2 3915 2300 100 MP stroke
-7 -109 -7 69 -6 -20 -7 -53 -5 74 -6 8 -5 -9 -3 59 
-6 35 -4 25 -4 5 -4 -10 -4 -68 -3 -89 -4 6 -3 -36 
-3 15 -3 9 -3 18 -3 -6 -3 -62 -3 -69 -2 53 -4 -81 
-2 71 -3 75 -3 66 -2 -33 -4 3 -3 13 -3 98 -3 48 
-3 1 -2 33 -3 59 -3 27 -3 12 -3 17 -3 59 -2 2 
-3 21 -3 1 -2 -5 -2 10 -3 19 -2 5 -2 15 -2 15 
-1 -3 -2 -1 -2 19 -2 4 -1 -16 -2 11 -1 29 -2 13 
-1 30 -2 2 -1 6 -2 10 -2 12 -1 -7 -2 -16 -2 -2 
-1 -23 -3 3 -1 2 -2 -12 -2 -9 -1 -18 -2 -10 -1 10 
-2 -12 -1 -10 -1 -2 -1 8 -1 1 -1 3 -1 7 -1 10 
-2 8 -1 -10 -2 3 -2 -18 -1 -27 -1 22 -2 10 0 6 
-1 -6 -2 -19 -1 0 -2 18 0 9 -1 -4 -1 10 -1 -6 
0 -10 -1 -14 -1 -5 4151 1898 100 MP stroke
-1 5 0 -27 -1 -31 0 73 1 12 0 -62 1 -76 0 -21 
0 31 1 58 -1 -9 1 -6 1 -16 0 -20 1 -20 0 39 
-1 11 0 17 0 -14 -1 -31 -1 20 -1 5 -1 -77 -1 -29 
-2 -21 -1 16 -1 -10 -2 -39 -1 -11 -2 8 -2 7 -2 5 
-2 -36 -3 -48 -2 -59 -3 -61 -2 38 -3 -18 -3 -35 -3 -64 
-3 105 -3 -6 -3 -129 -3 -114 -3 -115 -4 136 -3 67 -3 6 
-4 90 -3 59 -3 71 -4 -54 -3 6 -3 28 -4 13 -3 -21 
-3 33 -3 -8 -3 58 -2 5 -3 31 -2 47 -3 6 -2 2 
-2 19 -2 46 -2 17 -2 32 -1 27 -1 24 -2 15 -1 -13 
-1 37 -1 -26 0 -4 -1 14 0 -1 0 58 1 28 0 16 
1 -7 1 -8 1 -10 1 -18 1 -25 1 -27 1 -10 2 -7 
2 -16 1 8 1 -10 1 -44 2 -25 1 -20 2 -29 2 -18 
1 -28 2 28 1 -41 4251 2096 100 MP stroke
2 -39 2 -46 2 -31 2 -17 1 -32 2 16 2 -31 2 -7 
1 -47 2 28 2 -19 1 -41 1 -8 2 -20 1 -19 1 -20 
1 45 2 -15 0 -15 2 -97 1 33 1 35 1 60 1 -34 
1 -61 1 -16 1 63 1 -3 0 -19 2 -155 1 33 0 -23 
1 96 2 20 1 -44 1 26 1 -38 1 -52 2 -106 1 17 
1 -271 1 238 1 -7 1 135 2 36 1 105 1 108 2 -71 
2 -61 2 28 2 44 3 9 2 -124 3 -15 2 53 3 76 
3 61 3 90 4 1 3 9 4 32 4 45 4 44 4 7 
4 -57 5 24 4 47 4 28 5 46 5 18 5 9 5 -35 
4 34 5 13 5 -58 5 21 6 -4 5 27 6 -7 5 18 
6 -16 6 5 6 8 7 -20 7 10 5 -24 8 8 6 1 
7 26 7 25 7 -17 8 -32 8 22 7 -24 7 -11 8 12 
8 -20 7 -11 9 -25 3929 2066 100 MP stroke
9 -5 8 -27 9 39 8 23 11 -29 6 -7 10 15 13 29 
9 -10 12 -18 10 5 11 29 11 12 13 -37 11 -7 13 7 
11 18 13 12 12 -68 13 -10 12 -1 13 -3 12 5 14 -19 
12 11 13 -14 14 4 14 3 14 -29 14 -41 13 -67 13 -105 
14 -8 13 -38 12 -3 13 -3 10 14 14 -7 12 48 10 77 
11 -40 10 -21 11 -3 10 53 7 -11 11 41 2 -1 14 -74 
9 25 6 -26 8 -47 8 -36 7 -39 5 -16 7 -23 5 -63 
6 -44 5 8 5 12 6 -3 6 34 5 51 4 -40 3 64 
5 63 3 25 4 50 4 26 1 10 4 40 4 -31 3 14 
4 -46 2 -95 2 -10 4 17 2 4 2 -61 3 -189 1 49 
3 -141 0 34 4 36 -4 -35 0 -85 -1 -215 2 6 3 136 
-2 -22 -1 -58 -9 54 1 9 -3 -67 -4 322 -2 100 -5 -144 
-5 -28 -5 -235 -5 -75 3274 3012 100 MP stroke
-6 250 -6 200 -9 139 -6 -40 -5 53 -8 -50 -9 -11 -13 -223 
-9 -401 -10 451 -11 104 -10 191 -14 -21 -14 9 -9 11 -12 110 
-12 -47 -9 -4 -12 -17 -8 -44 -18 35 -9 11 -8 -3 -14 44 
-5 8 -12 -5 -8 -37 -9 5 -7 -4 -10 13 -7 -37 -4 -104 
-6 -110 -4 -70 -5 69 -6 -75 -4 -205 -2 -134 -3 182 -5 -64 
-2 66 -1 -79 -3 -140 -4 87 -2 -95 -2 -246 -2 280 -3 -534 
-1 85 -3 240 -2 137 -3 113 -2 97 -1 154 -4 137 -1 40 
-2 72 -1 80 -3 60 1 -56 -3 27 0 -21 -2 -4 -1 -25 
-2 11 -2 -2 1 -82 -4 12 4 -49 -5 -32 1 -44 -2 -75 
-4 -134 0 185 -1 31 -2 65 -1 65 -1 49 0 -53 -4 60 
-1 -94 -2 -36 -1 19 -3 79 0 66 -3 -60 -2 -76 -3 50 
-2 75 -2 72 -2 -42 -3 -82 -3 -1 -3 44 -4 -35 -3 71 
-2 -10 -4 9 -4 -9 3728 2311 100 MP stroke
-4 -7 -4 66 -4 40 -4 35 -5 -28 -4 -33 -5 -30 -4 66 
-6 25 -6 28 -6 -58 -6 -41 -5 -44 -6 -12 -7 13 -4 -34 
-8 -40 -5 46 -6 -9 -7 106 -6 -62 -7 12 -5 17 -6 -20 
-7 -29 -4 81 -9 -23 -6 8 -6 -12 -7 -12 -7 21 -6 -16 
-7 49 -7 -34 -5 13 -6 -20 -6 -25 -6 34 -7 19 -5 41 
-5 -16 -7 38 -6 -2 -5 -18 -7 -8 -5 28 -7 31 -7 -16 
-6 -8 -4 -2 -8 -10 -5 -50 -7 12 -5 51 -8 -45 -3 58 
-5 -12 -6 -4 -2 108 -5 40 -6 13 -6 1 -4 22 -4 17 
-3 -12 -7 -31 -1 2 -3 -21 -6 3 -2 -13 -3 43 -3 -14 
-3 3 -4 -21 -3 11 -2 11 -3 -6 -2 -13 -2 -21 -2 -17 
-3 -2 -1 1 -2 -48 -1 -27 -2 -25 -1 -26 0 -31 -1 18 
0 -14 -1 -28 1 -32 -1 -61 1 4 0 -16 2 0 0 -57 
2 -67 3 -96 2 -11 4143 2566 100 MP stroke
1 74 3 67 3 -188 2 58 3 94 4 49 4 -23 4 -42 
4 -91 4 26 4 16 6 34 3 85 6 14 4 -17 5 -28 
5 -5 5 55 5 -39 5 -92 5 -4 5 62 5 -60 4 71 
6 5 4 -34 5 -55 5 47 4 20 4 17 5 9 4 10 
4 -6 4 -17 4 -73 4 0 4 -30 3 46 4 6 3 -10 
3 71 3 -6 3 17 2 -10 1 -98 2 -13 2 7 2 -10 
1 -19 1 3 1 -30 0 126 0 -50 -1 12 1 51 -1 6 
-1 -19 0 32 -3 -132 -2 2 -3 61 0 96 -5 -101 3 -35 
-5 -199 -1 146 -4 -5 0 201 -3 57 -8 -35 5 59 -10 35 
-4 52 -3 0 -5 19 -4 26 -4 54 -5 9 -2 16 -5 13 
-4 2 -5 12 -6 30 -6 22 -6 -18 -4 -20 -4 2 -6 -5 
-5 6 -7 3 1 5 -2 -14 -11 -42 -1 34 -10 -33 3 12 
-10 -23 -7 5 -5 16 4121 2112 100 MP stroke
1 -2 -2 15 -11 -19 5 44 -10 -47 -4 -47 5 5 -11 -21 
3 10 -3 -42 -8 -60 3 -62 -5 -25 -6 5 -1 -2 -3 -36 
-1 -7 -2 54 -1 58 -1 54 -2 42 -1 14 0 75 -1 8 
0 -16 0 14 1 5 1 23 0 26 0 -7 2 9 2 2 
0 -20 4 -18 -1 -16 2 3 1 4 2 18 1 12 0 -9 
2 2 3 -37 6 2 1 63 4 -7 0 -34 2 -1 3 20 
4 -15 5 -13 4 -50 2 22 2 12 6 7 4 -11 5 -2 
4 5 5 -14 6 -40 6 31 7 55 4 4 7 14 5 -15 
5 -1 4 -6 6 20 6 -19 6 -16 6 -11 6 26 4 -28 
5 -2 8 -3 4 8 6 -7 7 2 7 -15 5 -42 5 -39 
5 5 5 -64 7 -39 6 -33 6 12 7 -59 5 -57 6 -89 
6 -46 6 -14 6 51 8 -30 5 30 7 29 7 15 8 -1 
7 13 8 -77 8 79 3852 2478 100 MP stroke
8 40 8 -14 8 -54 9 -10 8 63 10 27 8 -197 10 -102 
8 77 11 53 9 -128 10 -3 12 -66 9 46 11 36 12 -5 
9 -295 11 54 9 -204 12 535 8 -122 11 -314 13 93 11 183 
9 123 12 120 10 -112 12 -264 10 -1 12 84 10 148 11 137 
10 61 11 111 10 104 13 -34 9 -38 12 -64 11 -23 10 -19 
10 -281 11 -155 11 -14 11 29 10 112 10 109 9 190 14 -68 
7 29 13 -7 11 -8 12 -36 9 102 13 69 10 -122 13 -129 
9 -48 17 -85 6 173 22 35 1 195 38 -175 32 -48 -3 87 
18 -143 4 -130 15 -53 12 18 17 124 17 102 5 -31 18 -12 
13 -21 13 -186 13 -68 15 149 24 35 2 190 18 -25 12 107 
-9 -497 4 297 23 -83 10 188 16 22 14 -17 10 -41 18 -58 
15 33 9 -122 20 91 12 89 11 -4 15 40 11 -29 18 14 
13 -154 9 -8 20 -20 2694 2701 100 MP stroke
9 -156 10 18 14 -76 10 -107 15 -168 11 120 26 571 42 379 
-2 -25 20 63 5 -1 -21 -409 4 -230 18 236 6 -40 12 16 
10 27 12 0 5 -55 13 83 6 -49 8 61 6 -60 11 15 
5 -44 9 4 1 -16 11 5 6 17 13 -71 4 3 9 81 
4 -3 13 -18 -2 -8 9 149 10 -74 13 -61 3 -160 38 638 
9 58 -4 -8 14 4 1 -4 13 -14 -8 22 28 -19 5 12 
-9 7 -2 -638 14 148 6 -184 9 170 6 -433 33 895 8 100 
9 -53 8 33 9 -13 7 -32 2 -5 13 7 -14 -637 4 -186 
9 -41 7 179 8 80 5 150 8 -61 3 0 6 19 4 -15 
7 25 5 -7 3 18 4 -71 2 39 1 -76 7 43 1 56 
-1 34 0 32 3 -31 0 3 -6 5 6 11 17 -45 -7 -88 
4 -7 -7 47 9 -143 -1 -130 2 -76 -10 56 -8 77 9 36 
-7 105 2 36 -3 15 2055 2541 100 MP stroke
2 192 -3 -82 -8 10 -1 -169 -3 -17 -3 7 -2 -23 -7 95 
5 110 -8 -7 -3 -41 -3 -25 -7 13 -4 -16 -1 -237 -9 200 
-3 74 -11 -9 0 -20 1 23 -5 -75 -1 -268 -9 173 -3 -5 
-8 72 -8 101 4 -12 -8 9 -3 -39 -7 -120 -2 -23 -5 -257 
-2 306 -4 -219 -4 -281 -1 -370 -7 558 -12 224 -1 -296 -8 -108 
-1 -142 -4 -450 -5 321 -9 210 -7 112 -3 -49 -8 408 -10 -30 
-5 -2 -7 81 -10 156 -5 24 -10 -77 -4 -45 -13 70 -5 -97 
-5 -414 -13 246 -8 81 -10 99 -12 75 -5 -203 -6 -394 -17 261 
-13 -114 -2 111 -13 64 -11 76 -8 147 -15 33 -6 -34 -10 33 
-7 30 -12 104 0 -85 35 -47 -15 24 -4 -15 -14 -110 -3 32 
-54 153 -13 43 -8 66 -7 38 -10 10 -8 -18 -9 11 -10 -58 
-8 -54 -10 38 -10 39 -8 -67 -9 16 -8 -27 -9 17 -8 -42 
-8 28 -8 -141 -9 -331 2711 2882 100 MP stroke
-8 49 -8 38 -4 -9 -8 -80 -9 -39 -8 -17 -9 134 -8 104 
-8 45 -10 -63 -9 95 -9 37 -10 99 -10 -309 -8 67 -8 194 
-10 38 -9 49 -8 94 -10 37 -8 18 -10 -26 -9 -67 -9 44 
-10 72 -9 -15 -9 37 -10 20 -10 -28 -10 58 -9 25 -10 -10 
-9 -38 -10 -11 -9 -63 -9 -64 -9 7 -9 -63 -9 35 -9 10 
-9 47 -10 37 -8 -88 -10 55 -8 40 -9 70 -9 47 -7 -40 
-8 -57 -9 51 -7 36 -8 14 -6 0 -8 -68 -7 7 -7 -12 
-6 1 -6 -7 -5 -2 -6 3 -5 -12 -5 -10 -4 -2 -4 1 
-5 4 -5 -11 -4 -1 -4 5 -3 -1 -4 -19 -4 -6 -3 -11 
-3 6 -2 21 -2 19 -3 20 -1 11 -2 6 0 -11 -1 -23 
0 19 -1 5 1 18 1 5 1 6 1 -3 3 32 1 -4 
3 -6 2 -12 3 7 3 -10 3 -15 4 -15 4 -10 2 -9 
4 -15 3 18 3 33 3244 2214 100 MP stroke
4 9 3 -20 2 0 2 0 3 31 2 -22 2 -25 1 22 
1 3 1 37 0 11 1 -70 0 -104 -1 -27 -1 24 -1 8 
-1 -7 -2 -78 -2 -49 -1 -26 -3 -99 -2 -15 -3 28 -2 -49 
-1 48 -4 51 -3 146 -4 33 -4 36 -4 -52 -5 53 -4 -49 
-4 52 -4 45 -4 -17 -4 28 -4 33 -4 3 -3 7 -4 -15 
-3 -3 -4 11 -3 -23 -3 -21 -3 -29 -2 -37 -3 -45 -2 -2 
-3 12 -3 47 -1 5 -2 7 -2 2 -2 12 -1 -13 -2 -14 
-1 -63 -1 15 -1 37 -1 -41 -1 -43 0 -98 -1 -7 0 -296 
1 35 1 48 0 47 1 96 1 -41 2 -252 1 96 1 -74 
1 244 2 73 1 48 2 -73 2 14 2 -91 3 -49 3 -73 
3 117 3 -18 2 23 4 -32 3 88 3 138 3 34 4 -84 
2 37 4 -77 3 33 4 52 3 94 4 -63 3 -3 4 -24 
4 36 4 -81 3 -150 3259 2649 100 MP stroke
5 -54 4 98 4 124 5 -7 4 3 4 39 5 -24 5 -70 
4 41 5 48 4 20 5 -15 4 -44 5 -100 4 94 4 21 
4 -22 4 -72 4 105 3 -61 4 33 3 158 4 -5 4 -66 
3 30 3 -8 2 17 2 -170 3 83 2 54 2 -42 2 -36 
1 -47 0 72 1 -1 0 -190 0 1 -1 -12 0 -23 -2 -74 
-1 3 -2 -20 -1 49 -3 96 -2 66 -3 -32 -3 84 -3 -20 
-3 77 -4 30 -3 -78 -4 -14 -4 -189 -4 85 -3 -65 -4 42 
-4 54 -4 126 -5 69 -4 97 -5 62 -5 19 -5 -38 -5 -20 
-5 -22 -6 15 -6 -8 -7 -173 -6 -26 -7 111 -7 -118 -7 -36 
-8 21 -8 -30 -8 69 -8 30 -9 55 -9 24 -8 -83 -9 -19 
-9 -80 -9 -27 -9 -64 -9 74 -9 76 -8 73 -9 -88 -9 3 
-8 -22 -9 -62 -9 62 -8 3 -8 -32 -9 55 -8 -39 -8 74 
-9 -13 -8 65 -8 -28 3505 2428 100 MP stroke
-8 119 -8 -81 -8 36 -8 -21 -8 31 -7 -9 -8 92 -7 16 
-7 20 -7 -19 -7 4 -7 37 -7 -9 -6 -50 -7 -55 -6 -38 
-6 -28 -6 -22 -6 -29 -5 -60 -5 60 -5 -19 -5 -45 -4 -54 
-4 1 -4 -3 -4 69 -3 120 -2 98 -3 -14 -2 15 -2 -52 
-1 -26 -1 -90 -1 86 0 -17 -1 14 1 -6 1 -91 1 -2 
1 27 2 61 3 11 3 -31 3 68 4 -17 4 30 5 -13 
6 33 6 44 6 68 8 40 8 67 9 -2 10 -22 11 6 
12 -35 12 30 13 14 15 -4 15 31 16 4 16 -33 17 -41 
19 6 19 -82 19 -67 21 -32 21 42 22 38 23 13 23 -28 
24 -26 25 26 24 -38 26 -44 26 7 27 -4 26 1 28 19 
27 31 28 41 28 5 27 10 28 -34 28 -1 27 24 27 -10 
27 -37 26 -3 26 -9 27 34 24 22 25 7 23 -23 23 -22 
21 15 21 34 19 -72 2628 2271 100 MP stroke
19 -117 17 16 17 4 16 37 14 -11 13 30 12 52 10 -36 
10 -57 8 -105 7 18 6 123 6 -17 3 10 3 -36 2 24 
0 21 0 -9 -3 3 -3 -24 -3 -55 -4 -114 -6 -24 -4 59 
-7 -172 -7 17 -7 23 -7 79 -8 107 -8 -145 -10 -115 -9 149 
-9 14 -10 68 -8 -74 -10 73 -11 70 -10 41 -11 -10 -10 -15 
-11 -81 -10 57 -11 79 -10 -11 -11 4 -10 33 -10 32 -10 -28 
-11 -26 -9 -106 -13 65 -9 -75 -11 4 -10 47 -11 14 -9 31 
-8 16 -9 13 -10 7 -5 -8 -7 -25 -7 -40 -5 -16 -6 -38 
-5 -9 -4 -31 -4 4 -2 37 -6 4 -3 93 -3 99 -2 8 
1 -10 -1 -5 -1 -29 -2 0 0 18 -1 -24 1 -35 -2 -106 
0 -77 1 -97 0 113 1 -58 -1 42 5 -38 -2 55 1 -109 
0 63 1 25 -1 -37 2 -64 0 196 -1 43 1 -50 0 -19 
-1 -35 3 42 0 -10 2878 2422 100 MP stroke
1 -47 0 -150 2 105 4 51 0 47 4 -13 3 -37 2 44 
3 -36 4 69 4 40 4 29 7 21 5 -6 6 -38 6 12 
7 52 8 8 9 -5 9 -3 10 14 11 37 12 -5 11 9 
12 -5 15 42 12 14 13 -46 14 -23 15 -52 18 -36 15 15 
16 -4 17 10 16 49 16 3 19 -32 16 0 16 26 16 -33 
18 14 14 0 12 0 15 -36 12 -41 11 -11 11 25 10 -29 
7 9 6 32 6 38 3 2 0 -25 2 9 1 -48 -4 4 
-2 2 -6 -54 -2 22 -11 21 -6 -35 -8 -17 -9 -14 -10 17 
-14 -15 -12 33 -12 47 -12 76 -11 27 -15 -29 -14 -27 -25 23 
-9 9 -9 14 -18 1 -10 21 -17 -58 -16 42 -17 -9 -15 53 
-15 -3 -14 -34 -16 -11 -14 24 -15 -14 -14 -71 -10 -73 -16 102 
-28 -44 0 10 -11 30 -9 40 -16 35 -16 -29 -7 8 -15 53 
-11 -34 -12 19 -13 -29 2908 2224 100 MP stroke
-12 16 -10 -18 -5 -83 -13 8 -10 0 -10 -127 -9 54 -8 76 
-8 4 -8 -45 -4 -32 -10 -62 -7 35 -7 30 -4 -64 -6 85 
0 10 -6 30 -6 8 3 25 -3 17 -2 -61 -3 2 0 1 
-1 -43 2 10 -1 20 -5 2 2 -19 4 24 5 105 7 36 
8 -9 1 55 6 -8 1 -17 7 -31 3 -51 5 -27 6 35 
7 24 5 19 7 17 6 -15 7 -29 6 -51 6 -30 7 27 
7 69 7 33 7 -20 4 -10 3 -13 13 -94 4 4 8 -62 
13 11 1 59 14 10 12 -102 8 -100 10 -9 9 57 10 41 
10 -13 11 85 11 -126 11 -71 11 1 6 18 17 -154 5 256 
17 -16 15 -52 12 56 13 43 10 60 12 55 11 -57 13 5 
11 67 13 53 12 -4 12 -49 12 -58 12 -30 11 0 10 -9 
12 26 11 16 12 -58 11 -83 12 -113 9 -140 11 -491 8 356 
11 284 10 -29 9 62 2431 2507 100 MP stroke
10 -89 7 -80 9 59 10 -112 7 129 7 -321 8 -81 5 319 
5 -30 6 -259 4 157 4 56 3 61 4 17 1 43 3 -29 
2 -240 5 166 8 -49 -2 151 -4 80 0 -85 0 95 1 -141 
-2 -78 -2 -622 -2 185 -1 128 -3 319 -2 93 -2 3 -3 -99 
-3 143 -2 -374 -3 -56 -3 105 -5 74 -3 -587 -4 443 -10 13 
-3 263 -6 159 -5 -64 -5 188 -3 -29 -7 32 -5 -90 -6 78 
-6 -96 -6 12 -8 -32 -4 -4 -6 -555 -4 609 -2 15 -12 -98 
-5 61 -9 25 -9 9 -8 79 -8 -335 -9 -47 -6 -824 -9 244 
-8 544 -9 184 -8 -69 -6 93 -8 75 -8 82 -11 -544 -14 141 
-5 109 -5 61 -8 -167 -5 71 -8 108 -4 36 -6 -33 -7 198 
-3 -20 -3 -175 -7 18 -1 -109 -5 134 -7 -27 2 -89 -1 143 
-4 -68 1 72 -4 34 0 -74 3 10 1 43 -1 -246 5 -238 
2 308 2 -106 1 -14 2668 2915 100 MP stroke
6 -105 -2 -737 6 799 5 87 5 -149 5 208 6 90 7 102 
6 2 6 -43 8 103 8 -20 9 -31 9 -130 10 -111 11 -301 
10 -654 12 875 12 136 12 75 13 86 12 -124 15 -9 12 -97 
13 -15 14 35 16 164 10 86 22 84 12 -93 5 -122 18 -42 
11 -684 14 362 11 -130 12 208 11 133 12 -66 12 241 13 3 
11 -32 13 -17 9 -11 11 60 12 -66 9 31 9 -17 10 45 
8 64 7 104 8 95 9 11 7 16 8 61 7 -35 6 -1 
7 -107 6 -51 9 4 10 33 -1 27 6 12 8 13 9 3 
5 -12 7 1 5 20 16 -30 4 -20 15 44 1 -8 0 -26 
9 -48 11 19 6 -43 9 -27 6 8 6 101 2 74 7 -34 
9 12 4 18 5 -13 5 -3 6 -42 5 -87 6 67 -1 32 
1 27 2 15 2 13 -3 31 5 -3 -2 10 -2 3 0 -2 
-5 -5 0 4 0 -7 1915 2368 100 MP stroke
-5 13 -4 -2 -3 15 0 7 -9 11 -3 8 -9 4 -6 -23 
-4 8 -6 29 -15 18 -6 -34 -4 -94 -9 -15 -10 -57 -10 -47 
-9 17 -11 21 -10 -141 -15 -89 -10 114 -13 35 -9 113 -14 -19 
-16 -18 -10 -104 -10 -21 -10 6 -15 69 -11 -55 -13 169 -15 45 
-10 -45 -12 -139 -14 70 -14 -92 -11 -50 -14 -219 -13 226 -10 22 
-13 -17 -13 -69 -15 -66 -11 -121 -12 49 -13 34 -13 87 -13 10 
-10 -8 -12 -70 -10 -69 -12 146 -10 -102 -12 -224 -10 -387 -10 422 
-10 154 -11 -433 -9 122 -11 216 -10 165 -9 157 -11 -56 -7 -102 
-8 -18 -11 82 -5 94 -15 28 -13 -25 -2 -63 -9 63 -8 -14 
-10 68 -6 -72 -10 65 -5 -134 -8 -35 -6 119 -8 -26 -7 32 
-7 -106 -6 197 -10 111 -5 122 -6 -33 -6 -38 -6 -111 -5 -105 
-7 -14 -6 7 -4 52 -6 -19 -4 -115 -6 100 -4 39 -5 -46 
-5 85 -2 11 -4 40 2809 2433 100 MP stroke
-3 -7 -4 19 -4 -34 -3 -31 -1 -37 -4 40 -2 23 -4 29 
-2 35 0 59 -3 -41 -2 -45 0 2 -4 -65 2 -25 -1 -134 
-1 28 -2 23 1 -77 0 -582 -1 269 1 53 -1 241 0 66 
1 60 0 128 0 -185 1 -103 0 179 1 33 1 6 0 26 
2 39 0 83 2 -8 0 -16 2 -97 2 -45 3 -19 1 -85 
1 44 4 29 2 -128 3 -66 3 14 3 77 3 -71 5 97 
3 -58 5 101 5 -97 4 5 5 114 6 -159 5 75 5 -126 
6 -201 6 101 6 43 3 -194 9 419 4 -4 5 67 7 -53 
5 26 6 -51 6 -89 5 -436 6 -97 5 506 5 155 5 180 
4 -11 4 77 3 -32 3 -101 2 -11 3 -44 3 44 1 6 
0 -30 2 -355 1 -17 -2 118 0 53 -5 51 0 -30 -5 -70 
-3 38 -6 -170 -3 238 -1 30 -6 14 -5 -32 -7 -159 -8 -119 
-7 -348 -9 177 -7 -322 2728 3410 100 MP stroke
-9 -265 -9 550 -10 33 -9 419 -9 98 -9 88 -10 -38 -10 34 
-9 -169 -9 -314 -10 102 -9 -113 -10 -163 -9 138 -9 -234 -9 203 
-9 269 -9 -125 -9 276 -8 14 -9 -47 -8 1 -8 -6 -9 -30 
-7 -55 -8 -179 -7 46 -7 -68 -7 44 -7 -14 -6 167 -6 103 
-7 -53 -6 33 -6 70 -5 9 -5 -103 -5 -23 -6 -85 -4 -3 
-5 93 -4 120 -5 -53 -4 -1 -5 101 -4 52 -4 -16 -3 12 
-4 53 -3 5 -4 -42 -3 -186 -3 45 -2 90 -4 34 -1 -87 
-4 -207 0 104 -3 56 -2 109 -1 -25 -2 -94 0 -129 -3 37 
-2 -108 0 145 -1 -74 -2 -44 0 -142 -1 212 -1 89 -1 90 
0 90 0 -26 -1 45 -1 -8 0 160 0 -120 -1 4 0 -13 
-1 -127 -1 -142 -1 -183 -1 -126 -1 61 -1 72 -1 127 0 100 
-1 -13 -1 15 0 -20 3 -212 -6 -116 4 251 1 58 -6 -144 
5 156 3 97 -5 -67 3139 2642 100 MP stroke
6 88 1 -40 0 32 1 37 2 -135 0 155 1 112 1 -75 
0 73 2 -3 -1 4 2 79 2 -5 2 -19 1 86 2 -3 
3 2 1 -64 2 -49 5 -26 -7 -25 -3 -104 7 -63 0 91 
3 107 2 72 3 -58 3 -65 3 -28 2 -22 2 -52 4 -239 
4 -493 2 85 5 -190 3 262 4 85 3 -242 4 103 4 135 
4 -6 3 38 4 311 4 71 3 -76 6 31 2 6 4 15 
4 212 4 23 2 13 2 -2 7 77 -1 63 6 53 4 -4 
4 -1 4 -2 5 -10 4 -3 5 -6 7 -6 4 -12 6 -3 
5 -20 6 -6 6 -23 4 -27 6 -16 6 -31 5 -11 5 8 
6 -54 5 -52 5 -46 6 -31 4 -55 5 -77 6 -11 6 -16 
5 15 7 13 4 45 5 56 6 -51 5 34 4 -106 6 -14 
5 100 5 -61 6 -133 4 34 5 58 5 4 5 131 5 77 
4 -141 4 13 4 -58 2781 2704 100 MP stroke
4 79 3 29 4 -123 3 114 3 -27 3 -56 3 24 1 -62 
2 51 1 -64 2 16 1 81 1 99 0 -20 0 86 1 9 
-1 -184 0 68 -2 106 0 -44 -1 -21 0 -73 -1 50 -2 -3 
-1 -107 -2 -4 -1 4 -1 -172 -3 163 -1 -86 -1 -39 -4 12 
-2 66 -2 89 -2 -50 -3 47 -2 173 -3 49 -3 36 -3 -175 
-4 -9 -2 40 -4 -57 -3 -41 -3 68 -4 -120 -3 68 -3 -52 
-4 -99 -3 -89 -4 77 -3 70 -4 184 -4 109 -4 121 -4 33 
-5 73 -4 -11 -4 18 -4 10 -4 11 -4 13 -4 -2 -4 0 
-3 10 -4 2 -3 0 -4 3 -3 -3 -3 -1 -3 5 -3 -1 
-4 4 -2 -4 -3 -6 -2 -13 -3 -6 -2 -8 -3 -3 -2 -3 
-3 -9 -3 -5 -2 -1 -3 0 -3 -2 -2 -8 -3 -8 -4 -11 
-2 -6 -4 -9 -3 -1 -3 -12 -3 -9 -3 -9 -3 7 -3 -5 
-3 -2 -3 -12 -1 -1 2980 2275 100 MP stroke
-3 -6 -3 -3 -2 -8 -2 -6 -3 -11 -2 -15 -3 -18 -2 -1 
-2 -26 -2 -28 -3 -3 -1 -1 -2 7 -2 8 -2 -1 -1 16 
-2 1 -1 6 -2 6 -1 9 0 17 -1 19 -1 10 -1 9 
-1 1 -1 13 -1 -1 0 1 -1 3 0 8 -1 -9 0 -2 
-1 4 0 1 -1 -9 -1 5 -1 3 -2 -4 -1 -4 -1 -7 
-2 -14 -1 -9 -1 -19 -2 -16 -2 -7 -1 -3 -2 -13 -2 -7 
-2 -4 -2 -22 -2 -8 -3 -24 -3 -31 -3 -17 -3 -7 -4 -19 
-3 -20 -3 -48 -4 -30 -4 52 -4 -2 -4 16 -3 -45 -4 -14 
-4 2 -4 13 -4 -49 -4 -28 -4 -132 -3 -14 -3 225 -3 69 
-4 -69 -3 47 -4 -112 -2 186 -4 19 -5 -71 -2 52 -3 -44 
-4 -4 -3 61 -3 -26 -4 35 -2 -52 -3 11 -3 -36 -4 -40 
-3 -10 -3 31 -3 52 -4 -20 -3 -77 -3 96 -2 1 -2 -141 
-2 -104 -1 0 -1 -76 3210 2807 100 MP stroke
0 -114 0 80 1 -480 1 177 2 -8 2 167 2 128 2 0 
3 -393 4 -84 4 575 4 275 5 -59 6 -151 5 -3 7 -271 
8 211 7 -56 7 -137 9 -77 10 111 10 -64 9 71 10 47 
10 42 11 148 13 -284 12 26 11 186 13 -70 11 66 13 118 
12 83 11 36 8 -46 9 -35 11 -7 10 -124 10 45 9 114 
9 155 9 -81 8 -60 8 -20 7 114 9 -12 3 8 9 -55 
9 -47 5 55 4 -129 0 -62 2 15 0 -227 1 -6 0 132 
-1 232 -1 63 -2 11 -1 44 -3 74 -2 10 -1 -88 -2 -11 
-1 14 -3 70 0 -173 2 47 -3 40 -2 -51 -1 -127 1 85 
0 12 1 -74 0 -227 1 -199 1 102 1 233 1 -83 2 -397 
4 54 6 20 2 393 5 255 3 25 5 -124 6 54 6 84 
6 92 8 -51 7 -108 7 -87 8 81 9 -96 9 10 9 6 
8 -58 10 36 10 76 2720 2515 100 MP stroke
10 -1 11 95 11 18 11 -81 13 -169 10 -149 13 -250 13 198 
14 74 13 34 15 34 14 20 15 81 14 -117 15 195 16 -32 
15 127 15 -28 16 -2 15 16 15 97 15 -74 15 -63 14 74 
15 -67 15 -16 14 -57 16 -105 14 -11 15 11 12 39 14 -103 
13 191 16 15 17 -15 6 37 14 -126 4 2 7 -29 14 -161 
3 -69 13 136 12 183 4 -48 8 69 8 19 8 149 7 76 
5 63 6 13 5 -34 4 -25 4 -16 4 -24 2 -21 3 -20 
2 -31 1 -35 2 -35 2 -23 0 -30 1 -36 0 -32 -2 -25 
-1 -17 -3 -17 -4 -42 -4 -31 -3 -11 -5 90 -4 50 -6 -91 
-7 -103 -10 -472 -4 666 -8 -52 -7 -118 -9 -25 -9 -307 -10 158 
-9 -5 -9 -158 -5 198 -8 151 -9 -72 -9 195 -6 -91 -6 32 
-5 166 -7 1 -6 -14 -6 35 -1 -101 -2 -33 -2 -53 -3 159 
0 -98 2 -30 1 -74 2268 2723 100 MP stroke
2 -95 3 239 4 -126 3 -222 5 77 7 148 6 56 7 -28 
8 151 11 -31 9 103 10 13 10 -90 11 -72 12 62 11 30 
13 -15 12 -124 11 74 13 -67 12 118 12 -161 12 -110 11 57 
12 -52 11 -46 13 16 10 217 8 102 10 23 10 -55 7 -5 
7 -89 11 79 4 4 5 -96 5 64 5 -66 5 110 4 -218 
4 -91 4 31 2 -42 4 35 4 -24 2 55 0 44 2 -51 
-1 -36 1 115 0 -251 -3 131 0 -81 -2 -451 -4 388 -2 4 
-3 117 -4 -72 -5 176 -5 145 -4 20 -7 -55 -7 -176 -2 -455 
-6 579 -6 114 -6 -133 -4 -187 -6 -369 -8 173 -5 284 -6 245 
-5 -2 -4 -139 -5 -100 -5 -32 -4 -94 -3 -59 -3 -240 -3 -360 
2 583 -3 -118 2 -81 -1 125 -1 -34 -4 232 23 -320 3 377 
0 126 1 -97 1 159 1 53 3 -49 4 -77 3 -78 4 90 
5 42 7 -56 6 -146 1975 2861 100 MP stroke
5 -44 7 -1 6 -226 7 102 5 68 6 -508 5 509 6 -234 
5 -12 5 430 4 241 7 4 2 -270 2 -80 2 -48 3 -425 
3 -22 1 183 2 -133 0 373 2 -213 0 347 -1 22 -2 -135 
-1 -37 -4 181 -1 -187 -3 -39 -3 91 -5 33 -4 -162 -5 69 
-6 78 -3 4 -5 9 -6 53 -6 -37 -7 -10 -7 91 -7 -47 
-6 35 -8 -45 -7 -54 -6 -29 -5 198 -7 55 -6 -124 -6 116 
-7 14 -5 -61 -4 19 -6 -252 -4 41 -6 -177 -4 148 -4 133 
-3 52 -4 -122 -3 -25 -4 106 -2 177 2 -68 -5 63 0 -180 
-4 -207 0 39 1 -133 1 -380 0 647 0 -70 2 -86 3 183 
2 97 2 111 3 5 4 -405 3 -437 4 649 5 -184 5 249 
5 -65 5 66 6 23 6 -52 5 -27 6 -86 5 -170 6 130 
6 45 5 37 6 -10 6 -328 5 13 5 -10 4 155 5 -12 
4 175 4 130 4 -241 1947 2972 100 MP stroke
3 152 2 27 2 4 1 42 1 -46 1 -221 0 215 -1 96 
-1 207 1 62 -2 95 -2 10 -1 54 0 -7 -2 1 -2 7 
-2 1 -1 0 -1 1 -3 -2 1 10 6 40 -3 -9 -1 -7 
-2 -3 1 4 -4 -15 4 -9 -1 -14 0 -15 -1 -22 0 -74 
1 -44 2 -29 2 -39 3 -45 1 -46 2 -94 3 -6 1 20 
4 19 4 17 3 -137 2 2 2 -45 3 -31 5 -137 3 -544 
4 608 5 63 4 -812 4 196 4 490 3 -287 4 391 0 -342 
3 -116 3 473 4 66 4 72 3 -8 4 80 2 -325 3 93 
-5 -217 -4 205 3 56 11 -29 7 -51 -3 -504 1 607 0 -45 
-1 -607 -1 661 -1 -274 3 125 -2 -14 -4 146 -1 34 -2 -298 
0 2 -3 31 -5 192 -5 103 -2 -6 -3 162 -3 -13 -7 0 
-1 -152 -7 14 -7 -21 -7 -178 -2 30 -8 154 -6 61 -3 -305 
-9 25 -6 190 -6 43 1948 2758 100 MP stroke
-13 36 -8 -37 -11 26 -10 -12 -11 -146 -11 197 -13 -21 -12 -9 
-13 45 -11 75 -14 -62 -15 100 -11 77 -15 -11 -14 -92 -13 -623 
-13 415 -13 150 -13 -99 -13 149 -13 -26 -12 -64 -14 -28 -12 -108 
-12 -71 -13 -144 -11 -56 -13 -296 -13 526 -11 21 -13 86 -11 -7 
-12 196 -12 14 -11 -197 -11 -178 -12 225 -11 97 -10 41 -11 103 
-10 30 -10 -11 -9 -6 -9 25 -9 44 -8 45 -8 11 -8 15 
-7 61 -8 -7 -24 -30 -5 4 -6 -1 -4 0 -5 -1 -4 -2 
-3 -11 17 22 -1 0 -2 -10 -2 -14 0 -5 1 0 1 4 
1 -8 3 -16 3 -3 3 -7 3 -6 3 -4 5 -19 5 -16 
5 -20 6 -30 8 -11 7 -32 7 1 7 -14 10 -85 9 83 
11 23 10 73 12 -9 11 -31 14 38 12 16 15 57 14 -111 
14 -150 15 -102 16 47 16 -25 16 -28 18 -138 17 -121 16 10 
16 91 18 -199 18 -25 2192 3074 100 MP stroke
19 -58 15 300 20 -180 16 99 16 -86 19 2 15 84 13 -107 
18 -411 14 345 14 156 13 110 15 94 14 -13 12 -41 9 55 
11 27 9 50 7 -29 10 93 7 -7 7 -2 4 36 6 -10 
2 -23 4 21 2 0 1 57 1 -16 0 -36 -2 -70 0 -64 
-3 31 -3 -11 -2 44 -3 14 -5 -42 -6 16 -4 -19 -6 -219 
-6 -535 -8 67 -8 247 -9 27 -7 -534 -5 320 -14 28 -5 351 
-10 -198 -9 -79 -7 347 -15 -223 -9 135 -10 147 -12 -103 -10 -165 
-10 122 -11 50 -12 -34 -10 152 -11 -21 -12 27 -12 -74 -10 174 
-13 82 -11 -82 -12 10 -10 -102 -10 -51 -11 204 -12 -53 -9 -176 
-8 -58 -10 143 -10 -39 -8 38 -8 123 -5 -9 -10 93 -7 -200 
-5 -42 -5 79 -5 16 -3 -87 -3 -166 -4 62 -1 144 1 -7 
0 87 1 -11 2 -66 3 -74 3 85 5 99 7 12 6 75 
6 -117 7 -465 10 69 2274 3040 100 MP stroke
9 -295 7 57 9 98 12 226 11 -40 10 152 13 -135 12 259 
13 -8 13 57 12 -215 13 163 14 -39 13 -7 14 31 13 -183 
14 -181 14 -202 13 316 12 109 14 -286 13 111 12 263 13 -3 
12 63 13 74 11 -19 10 -109 12 31 11 -114 11 -125 8 -93 
9 196 10 19 9 93 7 -183 6 240 7 89 5 -81 3 -46 
4 -42 4 74 5 -197 -1 89 1 113 1 -16 0 85 -3 57 
-2 -4 -4 -63 -5 18 -2 30 -5 -100 -8 32 -7 12 -7 -50 
-7 21 -8 -24 -7 -9 -5 35 -5 153 -8 -15 -7 18 -4 -8 
-7 27 -5 -95 -4 43 -2 -81 -5 -57 -1 -68 -4 -26 -1 -55 
0 69 0 -1 -2 23 -1 -114 0 104 3 159 -3 -47 3 62 
6 -130 1 39 3 49 2 71 3 44 3 -65 6 25 2 7 
4 -7 2 41 3 45 1 11 5 -54 1 -64 1 75 1 28 
0 104 0 -116 -2 -44 1904 2546 100 MP stroke
-3 25 -4 -93 -4 0 -5 -11 -6 0 -7 -21 -9 84 -8 -30 
-9 -80 -9 -47 -12 -4 -12 -123 -13 261 -13 -71 -13 45 -14 -169 
-15 28 -15 60 -16 58 -16 -64 -17 55 -18 -17 -18 73 -18 49 
-19 -47 -19 41 -18 -49 -18 70 -20 22 -20 100 -18 85 -18 -13 
-19 2 -18 -92 -19 36 -17 29 -18 -58 -16 -11 -17 31 -16 -79 
-16 3 -15 55 -17 54 -15 -114 -14 -61 -15 16 -13 -33 -13 38 
-12 105 -12 4 -18 -12 -13 16 -10 -13 -11 -9 -9 -19 -10 10 
-10 -132 -8 -20 -7 30 -8 52 -7 11 -8 76 -7 44 -6 -5 
-6 0 -6 54 -6 -50 -6 -34 -5 -34 -5 -43 -5 45 -5 -25 
-5 56 -5 -12 -4 -27 -4 -38 -4 -9 -4 79 -4 -41 -4 58 
-3 22 -5 -23 -2 -44 1 -3 -5 -30 -1 -96 -5 29 -4 23 
-4 -67 -2 74 -6 77 -1 -67 -1 -50 -6 87 -3 15 -5 -40 
-5 -103 -5 82 -4 -13 2886 2523 100 MP stroke
-5 41 -3 29 -5 -35 -3 19 -5 8 -1 -21 -4 4 -2 33 
-3 -43 0 29 -2 10 -2 8 -2 -2 1 35 -1 -10 2 63 
0 -47 1 -51 0 -84 6 87 1 35 3 33 2 40 4 9 
3 -10 4 20 7 -60 4 -79 7 -7 7 41 3 -47 8 102 
8 1 9 72 5 -37 7 -115 8 -59 8 -89 8 -40 7 -68 
8 191 8 4 7 32 8 65 7 76 8 10 8 -10 7 -59 
8 -110 7 -232 6 -20 8 -106 6 -42 5 -15 6 149 7 146 
5 -94 6 -64 5 133 4 86 4 -71 5 31 4 -58 3 22 
4 -202 5 44 4 5 4 -87 4 168 5 82 4 -61 4 39 
5 -77 5 -239 6 -320 5 228 4 319 6 58 5 135 6 118 
5 15 6 -29 6 -10 6 37 7 -2 5 16 6 -107 8 -181 
7 -518 7 183 8 -97 7 262 8 -87 7 39 8 -2 8 237 
9 -101 8 -92 8 -308 2441 3179 100 MP stroke
10 289 8 -177 10 273 10 -73 8 30 9 5 8 -9 10 -525 
14 442 1 185 9 -175 6 -91 10 -64 7 82 7 185 7 51 
8 -288 8 -432 8 547 6 32 8 -113 8 -191 11 369 8 139 
6 65 7 38 8 75 4 -17 8 -17 4 62 5 96 5 37 
3 -48 3 -117 5 -51 2 74 1 24 3 21 3 -53 2 -238 
3 -124 1 -131 0 177 1 26 0 -109 0 219 -2 104 2 130 
-2 -29 1 19 -2 30 -1 -33 -2 -63 -2 3 -2 -107 -1 31 
-2 -190 -3 -110 -3 -130 -3 71 -4 227 -2 -65 -3 104 -4 136 
-3 115 -5 -64 -5 78 -5 8 -4 38 -3 -63 -4 -12 -6 -13 
-3 -15 -6 -1 -4 -5 -6 -5 -5 -13 -5 -4 -5 -12 -5 30 
-10 -22 -6 23 -5 36 -5 23 -6 27 -5 29 -5 24 -6 22 
-5 27 -5 30 -5 24 -5 33 -4 21 -5 21 -4 13 -4 22 
-4 9 -3 12 -4 13 2373 2102 100 MP stroke
-3 13 -2 12 -3 6 -1 7 -3 11 -1 6 -1 6 -1 3 
-1 8 -1 1 1 1 0 2 1 1 2388 2025 14 MP stroke
gr

c8
0 sg
%%IncludeResource: font Helvetica
/Helvetica /WindowsLatin1Encoding 120 FMSR

1328  294 mt 
(Experiment 3b - Digital magnetometers - RMSE of orientation\
 - function of distance) s
2502 4939 mt 
(Distance to center of sensor network [m]) s
 558 2912 mt  -90 rotate
(RMSE [degree]) s
90 rotate

end %%Color Dict

eplot
%%EndObject

epage
end

showpage

%%Trailer
%%EOF
