%!PS-Adobe-2.0 EPSF-1.2
%%Creator: MATLAB, The MathWorks, Inc. Version 7.13.0.564 (R2011b). Operating System: Microsoft Windows 7.
%%Title: ..\figures\_oridigital_all_std.eps
%%CreationDate: 11/13/2012  17:43:59
%%DocumentNeededFonts: Helvetica
%%DocumentProcessColors: Cyan Magenta Yellow Black
%%Extensions: CMYK
%%Pages: 1
%%BoundingBox:    52   199   549   602
%%EndComments

%%BeginProlog
% MathWorks dictionary
/MathWorks 160 dict begin
% definition operators
/bdef {bind def} bind def
/ldef {load def} bind def
/xdef {exch def} bdef
/xstore {exch store} bdef
% operator abbreviations
/c  /clip ldef
/cc /concat ldef
/cp /closepath ldef
/gr /grestore ldef
/gs /gsave ldef
/mt /moveto ldef
/np /newpath ldef
/cm /currentmatrix ldef
/sm /setmatrix ldef
/rm /rmoveto ldef
/rl /rlineto ldef
/s {show newpath} bdef
/sc {setcmykcolor} bdef
/sr /setrgbcolor ldef
/sg /setgray ldef
/w /setlinewidth ldef
/j /setlinejoin ldef
/cap /setlinecap ldef
/rc {rectclip} bdef
/rf {rectfill} bdef
% page state control
/pgsv () def
/bpage {/pgsv save def} bdef
/epage {pgsv restore} bdef
/bplot /gsave ldef
/eplot {stroke grestore} bdef
% orientation switch
/portraitMode 0 def /landscapeMode 1 def /rotateMode 2 def
% coordinate system mappings
/dpi2point 0 def
% font control
/FontSize 0 def
/FMS {/FontSize xstore findfont [FontSize 0 0 FontSize neg 0 0]
  makefont setfont} bdef
/ISOLatin1Encoding where {pop /WindowsLatin1Encoding 256 array bdef
ISOLatin1Encoding WindowsLatin1Encoding copy pop
/.notdef/.notdef/quotesinglbase/florin/quotedblbase/ellipsis/dagger
/daggerdbl/circumflex/perthousand/Scaron/guilsinglleft/OE/.notdef/.notdef
/.notdef/.notdef/quoteleft/quoteright/quotedblleft/quotedblright/bullet
/endash/emdash/tilde/trademark/scaron/guilsinglright/oe/.notdef/.notdef
/Ydieresis WindowsLatin1Encoding 128 32 getinterval astore pop}
{/WindowsLatin1Encoding StandardEncoding bdef} ifelse
/reencode {exch dup where {pop load} {pop StandardEncoding} ifelse
  exch dup 3 1 roll findfont dup length dict begin
  { 1 index /FID ne {def}{pop pop} ifelse } forall
  /Encoding exch def currentdict end definefont pop} bdef
/isroman {findfont /CharStrings get /Agrave known} bdef
/FMSR {3 1 roll 1 index dup isroman {reencode} {pop pop} ifelse
  exch FMS} bdef
/csm {1 dpi2point div -1 dpi2point div scale neg translate
 dup landscapeMode eq {pop -90 rotate}
  {rotateMode eq {90 rotate} if} ifelse} bdef
% line types: solid, dotted, dashed, dotdash
/SO { [] 0 setdash } bdef
/DO { [.5 dpi2point mul 4 dpi2point mul] 0 setdash } bdef
/DA { [6 dpi2point mul] 0 setdash } bdef
/DD { [.5 dpi2point mul 4 dpi2point mul 6 dpi2point mul 4
  dpi2point mul] 0 setdash } bdef
% macros for lines and objects
/L {lineto stroke} bdef
/MP {3 1 roll moveto 1 sub {rlineto} repeat} bdef
/AP {{rlineto} repeat} bdef
/PDlw -1 def
/W {/PDlw currentlinewidth def setlinewidth} def
/PP {closepath eofill} bdef
/DP {closepath stroke} bdef
/MR {4 -2 roll moveto dup  0 exch rlineto exch 0 rlineto
  neg 0 exch rlineto closepath} bdef
/FR {MR stroke} bdef
/PR {MR fill} bdef
/L1i {{currentfile picstr readhexstring pop} image} bdef
/tMatrix matrix def
/MakeOval {newpath tMatrix currentmatrix pop translate scale
0 0 1 0 360 arc tMatrix setmatrix} bdef
/FO {MakeOval stroke} bdef
/PO {MakeOval fill} bdef
/PD {currentlinewidth 2 div 0 360 arc fill
   PDlw -1 eq not {PDlw w /PDlw -1 def} if} def
/FA {newpath tMatrix currentmatrix pop translate scale
  0 0 1 5 -2 roll arc tMatrix setmatrix stroke} bdef
/PA {newpath tMatrix currentmatrix pop	translate 0 0 moveto scale
  0 0 1 5 -2 roll arc closepath tMatrix setmatrix fill} bdef
/FAn {newpath tMatrix currentmatrix pop translate scale
  0 0 1 5 -2 roll arcn tMatrix setmatrix stroke} bdef
/PAn {newpath tMatrix currentmatrix pop translate 0 0 moveto scale
  0 0 1 5 -2 roll arcn closepath tMatrix setmatrix fill} bdef
/vradius 0 def /hradius 0 def /lry 0 def
/lrx 0 def /uly 0 def /ulx 0 def /rad 0 def
/MRR {/vradius xdef /hradius xdef /lry xdef /lrx xdef /uly xdef
  /ulx xdef newpath tMatrix currentmatrix pop ulx hradius add uly
  vradius add translate hradius vradius scale 0 0 1 180 270 arc 
  tMatrix setmatrix lrx hradius sub uly vradius add translate
  hradius vradius scale 0 0 1 270 360 arc tMatrix setmatrix
  lrx hradius sub lry vradius sub translate hradius vradius scale
  0 0 1 0 90 arc tMatrix setmatrix ulx hradius add lry vradius sub
  translate hradius vradius scale 0 0 1 90 180 arc tMatrix setmatrix
  closepath} bdef
/FRR {MRR stroke } bdef
/PRR {MRR fill } bdef
/MlrRR {/lry xdef /lrx xdef /uly xdef /ulx xdef /rad lry uly sub 2 div def
  newpath tMatrix currentmatrix pop ulx rad add uly rad add translate
  rad rad scale 0 0 1 90 270 arc tMatrix setmatrix lrx rad sub lry rad
  sub translate rad rad scale 0 0 1 270 90 arc tMatrix setmatrix
  closepath} bdef
/FlrRR {MlrRR stroke } bdef
/PlrRR {MlrRR fill } bdef
/MtbRR {/lry xdef /lrx xdef /uly xdef /ulx xdef /rad lrx ulx sub 2 div def
  newpath tMatrix currentmatrix pop ulx rad add uly rad add translate
  rad rad scale 0 0 1 180 360 arc tMatrix setmatrix lrx rad sub lry rad
  sub translate rad rad scale 0 0 1 0 180 arc tMatrix setmatrix
  closepath} bdef
/FtbRR {MtbRR stroke } bdef
/PtbRR {MtbRR fill } bdef
/stri 6 array def /dtri 6 array def
/smat 6 array def /dmat 6 array def
/tmat1 6 array def /tmat2 6 array def /dif 3 array def
/asub {/ind2 exch def /ind1 exch def dup dup
  ind1 get exch ind2 get sub exch } bdef
/tri_to_matrix {
  2 0 asub 3 1 asub 4 0 asub 5 1 asub
  dup 0 get exch 1 get 7 -1 roll astore } bdef
/compute_transform {
  dmat dtri tri_to_matrix tmat1 invertmatrix 
  smat stri tri_to_matrix tmat2 concatmatrix } bdef
/ds {stri astore pop} bdef
/dt {dtri astore pop} bdef
/db {2 copy /cols xdef /rows xdef mul dup 3 mul string
  currentfile exch readhexstring pop
  dup 0 3 index getinterval /rbmap xdef
  dup 2 index dup getinterval /gbmap xdef
  1 index dup 2 mul exch getinterval /bbmap xdef pop pop}bdef
/it {gs np dtri aload pop moveto lineto lineto cp c
  cols rows 8 compute_transform 
  rbmap gbmap bbmap true 3 colorimage gr}bdef
/il {newpath moveto lineto stroke}bdef
currentdict end def
%%EndProlog

%%BeginSetup
MathWorks begin

0 cap

end
%%EndSetup

%%Page: 1 1
%%BeginPageSetup
%%PageBoundingBox:    52   199   549   602
MathWorks begin
bpage
%%EndPageSetup

%%BeginObject: obj1
bplot

/dpi2point 12 def
portraitMode 0204 7344 csm

  422   110  5965  4844 MR c np
85 dict begin %Colortable dictionary
/c0 { 0.000000 0.000000 0.000000 sr} bdef
/c1 { 1.000000 1.000000 1.000000 sr} bdef
/c2 { 0.900000 0.000000 0.000000 sr} bdef
/c3 { 0.000000 0.820000 0.000000 sr} bdef
/c4 { 0.000000 0.000000 0.800000 sr} bdef
/c5 { 0.910000 0.820000 0.320000 sr} bdef
/c6 { 1.000000 0.260000 0.820000 sr} bdef
/c7 { 0.000000 0.820000 0.820000 sr} bdef
c0
1 j
1 sg
   0    0 6913 5185 PR
6 w
0 4225 5356 0 0 -4225 899 4614 4 MP
PP
-5356 0 0 4225 5356 0 0 -4225 899 4614 5 MP stroke
4 w
DO
SO
6 w
0 sg
 899  389 mt 6255  389 L
 899 4614 mt 6255 4614 L
6255 4614 mt 6255  389 L
 899 4614 mt  899  389 L
 899 4614 mt 6255 4614 L
 899 4614 mt  899  389 L
 899 4614 mt  899 4560 L
 899  389 mt  899  442 L
%%IncludeResource: font Helvetica
/Helvetica /WindowsLatin1Encoding 120 FMSR

 866 4759 mt 
(0) s
1664 4614 mt 1664 4560 L
1664  389 mt 1664  442 L
1581 4759 mt 
(0.2) s
2429 4614 mt 2429 4560 L
2429  389 mt 2429  442 L
2346 4759 mt 
(0.4) s
3194 4614 mt 3194 4560 L
3194  389 mt 3194  442 L
3111 4759 mt 
(0.6) s
3959 4614 mt 3959 4560 L
3959  389 mt 3959  442 L
3876 4759 mt 
(0.8) s
4724 4614 mt 4724 4560 L
4724  389 mt 4724  442 L
4691 4759 mt 
(1) s
5489 4614 mt 5489 4560 L
5489  389 mt 5489  442 L
5406 4759 mt 
(1.2) s
6255 4614 mt 6255 4560 L
6255  389 mt 6255  442 L
6172 4759 mt 
(1.4) s
 899 4614 mt  925 4614 L
6255 4614 mt 6228 4614 L
 899 4614 mt  952 4614 L
6255 4614 mt 6201 4614 L
 640 4658 mt 
(10) s
%%IncludeResource: font Helvetica
/Helvetica /WindowsLatin1Encoding 80 FMSR

 773 4584 mt 
(-3) s
 899 4359 mt  925 4359 L
6255 4359 mt 6228 4359 L
 899 4210 mt  925 4210 L
6255 4210 mt 6228 4210 L
 899 4105 mt  925 4105 L
6255 4105 mt 6228 4105 L
 899 4023 mt  925 4023 L
6255 4023 mt 6228 4023 L
 899 3956 mt  925 3956 L
6255 3956 mt 6228 3956 L
 899 3899 mt  925 3899 L
6255 3899 mt 6228 3899 L
 899 3850 mt  925 3850 L
6255 3850 mt 6228 3850 L
 899 3807 mt  925 3807 L
6255 3807 mt 6228 3807 L
 899 3769 mt  925 3769 L
6255 3769 mt 6228 3769 L
 899 3769 mt  952 3769 L
6255 3769 mt 6201 3769 L
%%IncludeResource: font Helvetica
/Helvetica /WindowsLatin1Encoding 120 FMSR

 640 3813 mt 
(10) s
%%IncludeResource: font Helvetica
/Helvetica /WindowsLatin1Encoding 80 FMSR

 773 3739 mt 
(-2) s
 899 3514 mt  925 3514 L
6255 3514 mt 6228 3514 L
 899 3365 mt  925 3365 L
6255 3365 mt 6228 3365 L
 899 3260 mt  925 3260 L
6255 3260 mt 6228 3260 L
 899 3178 mt  925 3178 L
6255 3178 mt 6228 3178 L
 899 3111 mt  925 3111 L
6255 3111 mt 6228 3111 L
 899 3054 mt  925 3054 L
6255 3054 mt 6228 3054 L
 899 3005 mt  925 3005 L
6255 3005 mt 6228 3005 L
 899 2962 mt  925 2962 L
6255 2962 mt 6228 2962 L
 899 2924 mt  925 2924 L
6255 2924 mt 6228 2924 L
 899 2924 mt  952 2924 L
6255 2924 mt 6201 2924 L
%%IncludeResource: font Helvetica
/Helvetica /WindowsLatin1Encoding 120 FMSR

 640 2968 mt 
(10) s
%%IncludeResource: font Helvetica
/Helvetica /WindowsLatin1Encoding 80 FMSR

 773 2894 mt 
(-1) s
 899 2669 mt  925 2669 L
6255 2669 mt 6228 2669 L
 899 2520 mt  925 2520 L
6255 2520 mt 6228 2520 L
 899 2415 mt  925 2415 L
6255 2415 mt 6228 2415 L
 899 2333 mt  925 2333 L
6255 2333 mt 6228 2333 L
 899 2266 mt  925 2266 L
6255 2266 mt 6228 2266 L
 899 2209 mt  925 2209 L
6255 2209 mt 6228 2209 L
 899 2160 mt  925 2160 L
6255 2160 mt 6228 2160 L
 899 2117 mt  925 2117 L
6255 2117 mt 6228 2117 L
 899 2079 mt  925 2079 L
6255 2079 mt 6228 2079 L
 899 2079 mt  952 2079 L
6255 2079 mt 6201 2079 L
%%IncludeResource: font Helvetica
/Helvetica /WindowsLatin1Encoding 120 FMSR

 640 2123 mt 
(10) s
%%IncludeResource: font Helvetica
/Helvetica /WindowsLatin1Encoding 80 FMSR

 773 2049 mt 
(0) s
 899 1824 mt  925 1824 L
6255 1824 mt 6228 1824 L
 899 1675 mt  925 1675 L
6255 1675 mt 6228 1675 L
 899 1570 mt  925 1570 L
6255 1570 mt 6228 1570 L
 899 1488 mt  925 1488 L
6255 1488 mt 6228 1488 L
 899 1421 mt  925 1421 L
6255 1421 mt 6228 1421 L
 899 1364 mt  925 1364 L
6255 1364 mt 6228 1364 L
 899 1315 mt  925 1315 L
6255 1315 mt 6228 1315 L
 899 1272 mt  925 1272 L
6255 1272 mt 6228 1272 L
 899 1234 mt  925 1234 L
6255 1234 mt 6228 1234 L
 899 1234 mt  952 1234 L
6255 1234 mt 6201 1234 L
%%IncludeResource: font Helvetica
/Helvetica /WindowsLatin1Encoding 120 FMSR

 640 1278 mt 
(10) s
%%IncludeResource: font Helvetica
/Helvetica /WindowsLatin1Encoding 80 FMSR

 773 1204 mt 
(1) s
 899  979 mt  925  979 L
6255  979 mt 6228  979 L
 899  830 mt  925  830 L
6255  830 mt 6228  830 L
 899  725 mt  925  725 L
6255  725 mt 6228  725 L
 899  643 mt  925  643 L
6255  643 mt 6228  643 L
 899  576 mt  925  576 L
6255  576 mt 6228  576 L
 899  519 mt  925  519 L
6255  519 mt 6228  519 L
 899  470 mt  925  470 L
6255  470 mt 6228  470 L
 899  427 mt  925  427 L
6255  427 mt 6228  427 L
 899  389 mt  925  389 L
6255  389 mt 6228  389 L
 899  389 mt  952  389 L
6255  389 mt 6201  389 L
%%IncludeResource: font Helvetica
/Helvetica /WindowsLatin1Encoding 120 FMSR

 640  433 mt 
(10) s
%%IncludeResource: font Helvetica
/Helvetica /WindowsLatin1Encoding 80 FMSR

 773  359 mt 
(2) s
 899  389 mt 6255  389 L
 899 4614 mt 6255 4614 L
6255 4614 mt 6255  389 L
 899 4614 mt  899  389 L
gs 899 389 5357 4226 MR c np
/c8 { 0.000000 0.000000 1.000000 sr} bdef
c8
4 -48 3 45 6 25 4 -26 5 -145 4 -20 5 67 4 -67 
4 59 4 -66 4 14 2 -434 4 -48 2 -275 3 -345 1 739 
1 -541 0 474 -1 71 0 265 0 -119 -1 26 -2 -733 0 544 
-1 24 -3 97 -3 73 -3 -356 -2 24 -3 -194 -4 182 -4 -169 
-3 428 -2 -140 -3 -200 -3 120 -4 249 -2 -266 -2 253 -2 -218 
-2 -135 0 -144 -2 418 -2 -29 0 122 0 -265 -1 17 1 -76 
1 89 0 79 0 -121 2 -116 0 -273 2 455 0 -783 0 532 
-1 112 1 -105 0 -145 1 304 -1 -22 1 -15 -1 94 -1 -315 
-2 505 0 -10 -2 -199 -1 146 -2 -121 -2 -45 -1 162 -3 -451 
-2 393 -3 -160 -2 57 -2 207 -2 -93 -1 -172 -2 -30 -2 -49 
-1 354 -1 -66 -2 131 -1 117 -2 -183 1 87 -2 -1027 -3 598 
-1 391 -2 -170 -1 328 -2 -341 -2 -13 -2 -79 -3 -64 -2 227 
-3 -228 -2 394 -2 -46 1595 1992 100 MP stroke
-3 -77 -4 -91 -3 -208 -3 -191 -3 77 -4 11 -3 315 -4 -118 
-3 -164 -4 194 -2 -343 -3 285 -3 -344 -3 520 -3 -117 -4 -277 
-4 -34 -3 342 -2 -78 -3 -44 -3 3 -4 288 -4 -217 -3 134 
-3 186 -5 -596 -2 415 -1 -5 -4 137 -6 112 -8 -307 -5 -114 
-5 -20 -1 465 -5 -120 -2 122 -2 -425 -7 -357 -1 15 -4 193 
-6 311 -1 -178 -4 301 -4 -656 0 618 -4 -526 -3 178 -2 253 
-2 31 0 -244 -1 -124 -1 112 -2 284 2 20 -1 -305 -1 297 
1 -321 -2 437 0 -332 -1 179 -1 3 0 -303 8 189 -9 176 
1 -278 4 383 -3 -197 -1 -148 -2 318 1 -124 -2 53 -4 -15 
-2 -35 -2 260 -3 -362 -2 243 -2 -77 -2 21 -3 -299 -2 24 
-2 -66 -2 -56 -3 364 -4 -189 -1 33 -1 246 -1 -185 -1 -169 
0 34 -2 -300 1 369 1 112 1 147 -1 11 2 24 3 -185 
-1 103 4 -109 1 -25 1798 2099 100 MP stroke
2 253 4 -150 3 -2 0 55 1 -111 2 -1504 1 1189 3 414 
1 -110 0 4 1 -289 -1 -45 0 282 -2 -215 -1 70 -2 95 
-2 136 -2 33 -2 -255 -3 -135 -3 245 -4 -146 -3 26 -4 39 
-4 -611 -3 499 -5 -18 -5 215 -4 -541 -4 286 -5 -55 -5 284 
-4 -38 -6 -122 -5 -150 -5 -305 -5 473 -6 -51 -6 305 -5 -61 
-5 -184 -6 118 -5 -357 -6 233 -5 -95 -5 90 -6 395 -6 -74 
-5 -64 -5 -640 -6 505 -5 129 -6 88 -3 -103 4 349 -14 -195 
-9 -591 -5 424 -5 -101 -6 -1 -2 -380 -2 419 -12 159 -2 -14 
-6 -279 -4 27 -6 22 -3 36 -6 240 -5 25 -4 -81 -3 -202 
-5 93 0 -313 -3 311 -2 -188 -2 47 -2 -70 -1 277 -1 177 
-1 -133 1 112 0 -188 2 -362 3 -348 2 814 3 115 4 -18 
3 -41 5 -261 4 189 5 63 5 -175 5 179 4 -330 5 -16 
5 218 5 -19 4 -80 2002 2159 100 MP stroke
6 206 5 243 5 -250 4 -504 4 321 5 -141 4 271 4 154 
2 -143 3 -17 5 -518 3 403 5 -172 2 -401 4 244 3 -488 
4 94 2 716 3 -9 4 -18 3 -605 2 571 3 -247 1 277 
3 -377 1 234 2 155 1 -316 2 179 0 88 2 228 1 -209 
2 52 1 42 1 -297 0 140 3 173 -1 167 6 19 3 -185 
2 123 2 -57 4 81 2 -88 3 -102 2 -154 3 204 3 58 
3 162 3 -73 4 -292 2 -238 3 274 2 -330 4 92 2 -111 
4 -75 2 274 3 -226 3 422 4 -147 1 152 5 159 2 -339 
3 384 3 -49 4 138 2 62 3 0 3 -226 3 -535 1 619 
4 146 1 125 4 -45 0 93 4 -31 -1 156 10 -264 25 346 
0 -113 3 -18 2 32 1 -14 4 49 -1 -170 -21 273 7 -143 
1 -85 4 -236 3 -8 5 -669 4 378 4 -28 5 122 6 -12 
3 -268 8 118 6 238 1708 1945 100 MP stroke
6 6 7 -305 5 -23 8 347 7 -521 7 379 7 -219 8 135 
7 19 9 -210 9 -56 7 7 9 -741 7 399 9 -16 8 519 
9 -336 8 408 8 162 9 -40 7 -826 7 -257 8 1155 7 -5 
6 18 6 -117 7 12 6 -130 5 -258 6 437 4 -358 5 346 
3 -514 5 -194 3 80 3 373 4 195 3 -220 2 -166 4 -15 
1 136 3 -48 3 -280 4 532 2 -217 5 -190 5 507 1 58 
4 -43 3 -494 5 -5 4 326 9 -244 0 -135 5 734 4 57 
6 113 4 124 6 15 12 100 5 -184 3 -71 5 -95 4 -41 
4 -251 4 -103 2 -20 5 28 0 326 4 -193 1 109 1 -169 
1 43 0 119 1 -155 0 -339 1 293 0 -295 -2 331 1 -177 
-1 -156 -2 511 0 -26 -1 375 -1 -68 -2 279 4 -388 -1 317 
-1 -310 0 21 -2 -198 0 200 -1 -270 -1 -811 0 888 -2 -1 
-1 -396 -2 259 -1 199 1342 1848 100 MP stroke
-3 -562 -2 103 -3 -415 -2 456 -3 -9 -3 -350 -2 -59 -4 490 
-3 -35 -4 97 -4 -56 -4 -98 -4 71 -4 -456 -4 159 -3 204 
-4 80 -3 -89 -3 -30 -4 -71 -5 -324 -2 303 -3 -345 -2 225 
-3 -194 -3 281 -2 127 -1 220 -2 -277 2 125 0 -97 -1 278 
-1 -112 -1 -168 -1 -178 1 141 0 112 -1 173 1 -109 1 -457 
-1 436 0 -203 0 3 -1 292 0 -70 1 8 -3 -283 0 260 
-3 76 -1 -801 -1 554 -2 342 -2 -318 -3 -247 -6 573 -2 0 
-3 -90 -2 -867 -4 519 -3 547 -4 -226 -3 194 -2 -369 -4 -572 
-5 685 -5 -9 -4 -134 -4 12 -5 -66 -5 -118 -4 149 -6 278 
-5 -752 -5 727 -5 -81 -5 -113 -5 -170 -5 350 -5 -8 -4 8 
-4 -176 -5 122 -3 -150 -7 -58 -2 450 -5 109 -5 32 -4 -338 
-3 341 -4 -178 -3 12 -4 -301 -3 241 -4 -295 -3 50 -3 105 
-3 -333 -3 211 -2 -123 1627 2457 100 MP stroke
-3 410 -1 216 -3 -90 -1 -209 -2 219 -1 10 -1 -40 -1 -2 
-1 -128 0 -277 1 -67 1 42 1 -135 1 233 2 -203 2 3 
2 -354 2 276 3 299 3 211 4 -310 3 -81 5 352 3 -103 
5 -82 3 -74 5 101 5 62 6 143 4 -445 4 129 6 51 
6 -34 5 365 4 -1179 8 653 5 466 3 -209 5 115 6 150 
3 -246 4 132 5 -121 4 -572 3 468 4 -119 3 173 3 125 
2 14 2 -75 1 80 1 -12 1 -682 1 313 0 482 -1 -194 
-1 -535 -1 35 -2 241 -1 -14 -2 280 -2 -99 -1 -165 -2 212 
-3 48 -3 -210 -2 -34 -2 305 -4 -471 -1 -253 -3 510 -2 -72 
-6 -165 -4 496 0 -60 -2 157 -3 -240 -2 310 -3 -97 -4 -396 
-4 270 -3 -176 -4 -16 -2 108 -4 61 -3 119 -5 -368 -6 92 
-3 106 -5 19 -4 136 -6 40 -7 -771 -5 387 -6 395 -6 90 
-8 -312 -7 249 -7 -973 1643 2968 100 MP stroke
-8 215 -8 395 -8 6 -7 193 -8 33 -8 -285 -8 304 -9 -303 
-8 -754 -8 403 -8 342 -8 492 -9 123 -7 -200 -8 -315 -8 -41 
-7 295 -9 35 -8 -137 -8 150 -8 35 -8 21 -8 -296 -9 -308 
-8 173 -7 433 -8 30 -8 -552 -8 406 -9 37 -8 -297 -8 -23 
-9 6 -8 406 -9 -329 -7 -178 -9 281 -8 -421 -7 323 -7 111 
-8 -47 -6 -251 -7 -500 -5 360 -8 353 -5 -223 -4 54 -4 32 
-1 14 -4 -264 -1 -57 -2 -24 0 -200 -1 211 2 647 1 -443 
1 212 3 -244 4 189 3 319 5 106 4 -287 5 -140 6 268 
6 268 5 -173 6 -150 6 -279 7 208 5 -46 7 -372 6 520 
7 -154 6 165 6 -14 7 87 6 -40 6 122 6 -350 5 68 
6 249 4 -244 5 -756 5 899 3 -576 3 638 4 -110 0 61 
5 -60 2 38 1 -47 1 23 5 220 0 12 3 79 -2 -401 
2 21 2 155 0 -35 1840 2048 100 MP stroke
-1 164 1 -77 0 -441 -1 -77 1 139 -1 -53 -1 -222 1 265 
0 2 -1 -402 1 259 0 -71 1 -332 0 406 1 204 1 58 
1 57 1 -41 1 -501 2 226 1 253 1 -983 2 722 1 119 
2 149 2 310 2 -15 2 -175 2 -384 2 -13 2 -147 2 303 
2 -269 3 560 1 98 2 24 2 124 2 -210 1 -63 2 167 
1 8 2 -57 2 -126 0 112 3 -559 0 219 1 292 1 -1061 
2 985 0 -443 2 195 0 104 1 225 1 -26 2 -316 1 80 
1 70 1 -9 1 -105 0 128 1 -44 1 -884 2 890 1 -283 
2 490 0 -155 1 120 2 -29 2 -488 3 632 2 13 3 70 
3 -83 4 -21 4 -92 3 -39 4 258 4 -223 3 -267 5 -617 
5 855 6 148 5 -118 3 -115 4 -335 5 313 5 272 5 -271 
4 -29 6 -117 5 214 2 -86 6 98 5 -111 4 -151 3 189 
4 -244 3 -317 3 489 1642 2267 100 MP stroke
5 230 3 -238 3 57 2 -100 5 151 3 87 3 -91 3 -72 
4 171 3 -78 4 -31 3 -57 4 155 4 -87 3 -492 3 418 
5 262 3 -277 3 40 3 -241 4 98 3 207 6 132 0 -97 
3 105 3 -160 2 37 4 113 2 -566 2 561 2 -36 3 -190 
1 -547 1 480 1 -181 1 145 1 111 0 -753 1 757 0 40 
1 69 1 -482 0 449 0 -594 1 134 0 173 -1 221 0 183 
-1 -79 0 108 -1 -523 0 219 -2 -113 0 60 -3 185 -2 294 
-3 -830 -2 -175 -1 35 -2 699 -1 -288 -2 141 -3 94 -3 -398 
-2 -162 -5 500 -4 -256 -2 -390 -4 553 -5 -415 -5 358 -5 248 
-5 -162 -4 -363 -6 355 -5 198 -6 -359 -5 131 -6 447 -6 -166 
-6 -92 -6 -90 -6 -223 -6 275 -6 86 -4 114 -6 92 -6 -332 
-5 -462 -5 717 -6 23 -4 -440 -5 258 -4 -3 -3 -223 -4 -848 
-3 1169 -5 45 -3 -48 1725 2087 100 MP stroke
-1 193 -4 -213 -4 -59 0 -40 -9 102 -4 -22 -8 173 -4 73 
0 -174 3 -26 -2 137 0 -71 0 34 2 -328 1 152 2 240 
3 -88 5 189 7 -210 5 -76 9 130 0 -64 2 206 4 -211 
3 -236 2 -276 5 472 3 74 4 35 4 -118 4 -11 4 -450 
4 225 4 111 6 357 3 6 4 -151 4 -647 6 567 4 -184 
5 157 4 -21 5 51 4 -411 4 460 5 -335 5 69 5 -132 
3 83 5 205 5 -191 3 -642 6 277 2 522 5 -178 3 151 
3 45 3 0 3 -376 1 -25 4 -145 2 634 2 -8 1 -160 
0 -193 1 48 -1 76 -1 139 -2 -50 -2 -176 -2 -314 -4 703 
-3 -96 -5 -62 -4 196 -5 -184 -5 77 -7 -121 -6 217 -7 -98 
-8 -28 -7 -192 -7 211 -9 -81 -8 479 -9 147 -6 24 -19 -363 
-13 375 -6 -151 -2 -337 -11 123 -8 177 -10 -169 -8 77 -5 -58 
-10 112 -9 64 -8 -111 1782 1775 100 MP stroke
-9 -121 -10 20 -6 -215 -9 -45 -8 -59 -9 -131 -8 467 -8 -66 
-9 -359 -8 -225 -7 457 -7 -523 -8 77 -9 152 -6 362 -8 -283 
-5 -424 -6 310 -5 278 -8 -122 -5 -355 -6 596 -6 -181 -6 -417 
-6 414 -5 224 -4 -88 -8 -331 -4 270 -4 39 -3 0 -4 -70 
-6 -247 -5 369 -4 -303 -5 391 -5 -75 -4 -98 -5 -67 -4 -252 
-3 255 -4 298 -4 -66 -3 4 -3 57 -3 -472 -4 12 -4 60 
-2 88 -4 4 -3 348 -2 59 -3 -167 -2 -155 -3 61 -2 85 
-3 -95 -2 -269 -3 308 -3 43 -3 -2 -2 -92 -3 100 -3 60 
-4 251 -2 -19 -6 240 15 -846 11 752 -10 -262 1 166 -9 -258 
3 261 -23 -9 -1 80 14 25 -11 -322 1 321 -9 -160 -25 134 
-2 -121 -4 -171 -4 -30 -3 -75 -3 -363 -5 -392 -3 471 -3 124 
-3 174 -4 -44 -3 -469 -6 503 -2 -288 -2 411 -3 3 -3 8 
-4 -101 -3 -197 -3 108 2223 1977 100 MP stroke
-3 -100 -2 223 -3 -59 -3 -133 -2 -207 -3 -56 -3 281 -2 -506 
-2 -74 -2 -134 -1 -307 -2 737 -2 29 -2 -82 -1 176 0 -462 
-1 186 -1 11 -1 -685 0 906 1 -191 0 267 1 -574 0 458 
2 -99 0 50 0 -416 2 235 0 -343 1 632 1 -463 3 737 
-1 19 0 -328 1 102 0 98 1 95 1 -81 1 55 0 101 
2 -131 3 -189 -2 174 1 224 1 23 1 -66 4 22 1 -71 
-3 -319 2 301 3 130 1 -26 -1 -133 -1 -389 2 -57 2 129 
2 267 -2 -358 -1 317 0 -66 3 -228 -2 146 2 -258 -2 312 
-1 33 0 150 2 -52 -3 63 2 -535 2 195 -3 150 -3 42 
3 -515 0 353 -2 203 -2 206 1 146 1 152 0 162 -3 0 
0 474 -6 -1091 2 24 0 81 2 -256 -2 283 -1 -12 1 110 
4 187 1 -23 1 165 0 -2 3 116 -1 -83 9 726 7 -1165 
1 34 7 222 7 13 2200 1569 100 MP stroke
4 370 9 -129 5 31 3 -162 0 -96 11 -328 -9 385 5 -55 
-2 213 9 -220 -3 436 -5 -675 8 288 -2 -375 1 259 -1 -64 
-1 -254 2 -133 2 37 6 157 2 -133 -7 177 3 -347 0 55 
-1 84 6 -2 1 -739 1 666 1 60 1 -101 0 145 -1 -411 
0 -193 -2 634 0 -78 -1 -42 0 4 -2 -70 0 246 -2 -1 
2 -154 -1 179 -1 -56 -5 -116 -2 104 -2 -265 -3 77 -1 88 
-3 -386 -4 120 -4 154 -3 19 -4 -410 -4 426 -2 165 -7 191 
-3 -140 -2 -11 -4 133 -4 -69 -4 -307 -4 315 -5 -160 -4 -52 
-2 -341 -4 134 -4 -266 -5 451 -5 -29 -5 155 -7 -244 -5 199 
-4 -165 -5 7 -5 -167 -4 -18 -6 240 -4 93 -3 -632 -4 769 
-4 -229 -4 19 -3 103 -4 -287 -5 -99 -1 119 -2 16 -3 52 
-2 70 -2 231 -2 -267 -2 136 -4 -354 -2 219 -1 2 -3 -389 
1 44 -2 382 -3 125 2353 2006 100 MP stroke
0 26 -2 -161 -2 320 -1 96 0 -243 -2 -190 0 200 -3 103 
-2 -85 2 -29 -5 -179 -2 27 0 -135 -4 165 -2 -150 -2 -159 
-4 465 3 21 5 -12 -3 -23 -1 -104 -3 165 3 -454 5 855 
-7 -548 3 -450 -3 -484 4 652 0 209 0 -355 -1 -31 3 150 
-1 -53 2 286 -1 57 1 -187 0 10 0 -191 -1 49 0 144 
-1 73 -1 -191 0 277 -1 -122 -1 18 -2 87 -1 64 -1 35 
-2 -17 -2 -995 -2 852 -2 -195 -2 -55 -3 166 -2 142 -3 -452 
-2 550 -3 -83 -2 -25 -3 -344 -2 -91 -3 344 -3 181 -2 218 
-3 -91 -3 -654 -2 429 -3 96 -3 -71 -3 251 -2 -10 -3 -276 
-4 41 -3 24 -3 181 -3 -319 -4 136 -3 -220 -4 267 -4 -93 
-5 207 -3 -213 -4 88 -5 -8 -5 -412 -3 323 -6 -362 -5 420 
-5 -141 -5 -23 -5 -97 -5 501 -6 -41 -4 -333 -5 -518 -6 631 
-5 232 -4 -97 -4 -2 2560 1946 100 MP stroke
-6 -57 -4 -29 -5 -395 -5 265 -4 -45 -5 -548 -4 232 -5 322 
-5 -119 -3 -60 -5 381 -3 169 -3 -94 -4 -650 -4 364 -4 130 
-4 -537 -3 485 -3 -147 -4 89 -2 204 -4 83 -2 -51 -3 -194 
-3 -32 -2 133 -3 132 -2 -88 -3 -412 -2 -246 -2 -102 -3 139 
-2 467 -2 175 -3 37 -2 18 -2 -119 -2 -693 -2 528 -1 324 
2 13 -2 -65 -1 -94 -2 -33 -1 -32 -2 52 -4 253 -1 -57 
-2 -388 -2 50 0 204 -9 -109 -7 167 1 92 -3 -263 1 -1226 
-4 1297 5 48 5 137 -2 -49 0 73 -3 -473 -2 1 0 218 
-2 -120 -3 10 -2 270 -2 146 -1 -29 -2 -140 -3 -213 -2 -125 
-1 283 -2 270 -2 -13 -2 -64 -2 8 -1 -416 -2 195 -1 144 
-2 -50 -1 -9 -2 -142 -2 40 -2 -305 -1 184 -1 30 -1 187 
-2 -51 -2 -294 0 79 -1 229 -1 197 -2 -960 -1 718 -1 -103 
-1 234 -2 67 -1 -11 2779 1825 100 MP stroke
-1 -223 -1 -55 -1 83 -2 82 0 87 -2 -284 0 114 -1 41 
-1 -166 -1 -476 -1 119 -1 326 -1 249 -1 18 -1 -347 -1 244 
-1 -74 -2 -126 -1 192 -2 -108 -2 73 -2 -118 -3 200 -2 19 
-3 -82 -3 -366 -3 151 -4 155 -3 62 -4 -1190 -4 931 -5 295 
-5 -152 -5 -38 -5 311 -5 0 -6 19 -6 -214 -5 126 -6 19 
-5 178 -6 10 -7 -82 -6 12 -6 -51 -7 177 -6 49 -7 117 
-5 -373 -7 -253 -6 -78 -5 172 -6 -53 -6 322 -6 -49 -5 77 
-5 -71 -5 147 -6 -153 -5 -21 -5 112 -5 -202 -4 -89 -5 126 
-4 15 -4 -394 -5 303 -4 66 -4 -359 -4 394 -4 37 -3 74 
-4 -763 -4 468 -3 -179 -4 -378 -3 583 -3 -272 -3 16 -3 279 
-3 -70 -3 -33 -3 -99 -3 126 -3 283 -3 -57 -3 -354 -2 280 
-3 44 -3 -309 -3 207 -3 144 -3 -53 -3 -218 -2 -369 -3 96 
-3 176 -2 262 -3 22 3131 1936 100 MP stroke
-2 -279 -2 8 -2 -137 -1 277 -2 -193 -2 174 -1 -111 -2 -316 
-1 188 -2 -213 -2 313 -1 172 -2 79 -1 -150 -2 -184 -1 304 
-2 -106 -1 -94 -1 -182 -1 123 -1 -236 -1 369 -1 -217 0 -201 
0 238 -1 131 0 -295 1 270 0 51 1 112 0 -189 1 14 
1 126 1 -58 2 54 1 -451 2 579 1 89 2 -6 2 106 
3 -201 2 -490 2 41 2 227 3 119 2 41 3 130 2 -59 
3 -351 3 228 2 -399 3 340 2 -715 3 296 3 -139 2 458 
3 210 2 43 3 67 2 9 2 -117 3 -122 2 -259 2 360 
2 235 1 -265 2 -144 2 110 1 -413 1 215 1 -102 1 -149 
1 327 0 6 0 -28 1 -276 -1 6 0 32 -1 360 -1 73 
-1 145 -1 -37 -2 34 -1 -178 -2 -363 -1 361 -3 335 -1 -225 
-3 4 -2 -154 -3 -335 -2 496 -3 -303 -3 232 -3 73 -3 -69 
-4 -181 -4 78 -4 12 3128 2148 100 MP stroke
-5 -412 -5 322 -5 -33 -5 321 -6 -223 -6 -22 -5 -39 -7 30 
-6 160 -7 -148 -7 64 -7 151 -7 -122 -8 -226 -8 379 -8 -202 
-9 -166 -8 442 -10 122 -9 -2 -10 -242 -9 -488 -11 413 -9 -2 
-11 213 -10 -344 -10 -202 -10 21 -11 447 -9 -104 -12 -134 -11 304 
-10 80 -12 -241 -10 -117 -12 49 -10 65 -11 -210 -10 401 -11 234 
-10 27 -10 -74 -11 -328 -9 190 -11 -31 -10 -477 -11 56 -10 308 
-11 -80 -10 224 -10 188 -10 66 -11 20 -10 -266 -10 218 -10 -472 
-11 322 -10 124 -10 -50 -11 30 -10 -94 -10 20 -10 -590 -10 -484 
-10 782 -9 -43 -10 347 -10 -98 -10 -47 -9 65 -10 -349 -9 324 
-9 -133 -9 69 -9 234 -9 53 -8 -592 -9 -91 -8 517 -9 25 
-8 -140 -8 -275 -7 150 -8 66 -8 139 -7 -137 -7 -149 -7 272 
-7 -84 -6 -734 -7 256 -6 315 -6 314 -6 -21 -6 -174 -6 121 
-6 -438 -6 351 -5 15 3995 1852 100 MP stroke
-6 -530 -6 354 -6 313 -5 -175 -6 47 -6 -63 -5 -94 -6 -105 
-6 -85 -6 27 -5 397 -6 77 -5 53 -6 58 -6 -60 -5 -980 
-6 308 -6 306 -5 -14 -6 58 -6 258 -5 12 -6 -272 -6 -271 
-5 -163 -6 -336 -6 565 -6 351 -6 -86 -6 -803 -5 836 -6 -400 
-6 248 -6 98 -6 92 -6 -173 -6 -323 -5 197 -6 369 -6 2 
-6 -437 -6 -719 -6 239 -6 272 -6 -36 -6 401 -7 301 -6 9 
-6 -238 -7 -108 -6 -37 -7 322 -6 16 -7 82 -7 -208 -7 -311 
-6 22 -7 233 -7 -213 -6 -142 -7 309 -7 13 -6 280 -7 -2 
-6 56 -6 -147 -6 -755 -6 1003 -6 -231 -6 72 -5 -132 -6 -286 
-6 -82 -6 231 -5 -6 -6 -49 -5 -326 -6 411 -6 -165 -5 191 
-6 -234 -6 400 -5 -37 -6 -66 -6 -476 -5 179 -6 62 -6 170 
-5 -44 -6 -182 -6 373 -6 40 -5 -90 -6 -182 -6 -341 -6 516 
-6 -95 -5 -383 -6 328 4581 1988 100 MP stroke
-6 355 -6 -346 -5 -283 -6 265 -6 48 -5 262 -6 -216 -6 -24 
-6 -238 -6 148 -6 25 -5 -609 -6 1108 -6 -101 -6 -83 -6 88 
-6 -222 -6 -601 -6 88 -6 255 -6 362 -6 -87 -5 -68 -6 140 
-5 180 -5 -239 -6 -173 -5 -25 -5 262 -5 -74 -5 -211 -5 137 
-4 70 -5 -305 -4 202 -4 -489 -5 265 -4 228 -4 34 -4 159 
-4 -265 -4 -73 -4 184 -4 -31 -4 -92 -4 -5 -3 148 -4 -105 
-3 324 -3 -76 -3 218 -3 -77 -3 -308 -3 -214 -2 267 -3 22 
-2 78 -3 -142 -2 -11 -2 -345 -1 288 -2 -721 -2 343 -1 342 
-1 4 -2 26 -1 50 -1 -55 -1 -178 -1 81 -1 30 -1 -110 
0 193 -1 -237 -1 180 0 -4 -1 178 0 -128 -1 -465 0 130 
-1 273 0 300 -1 -40 -1 -33 -1 -90 0 27 -1 -152 -1 11 
0 10 -1 174 0 347 0 -263 -1 224 0 126 0 -351 -1 3 
0 168 0 -1204 0 824 4887 1903 100 MP stroke
-1 78 0 -717 -1 505 0 176 0 -379 -1 -156 0 478 0 -245 
-1 261 0 61 -1 -816 0 346 0 -131 -1 -79 0 247 -1 211 
0 -234 -1 182 0 -206 -1 -566 -1 441 0 150 -1 102 -1 -174 
-1 11 0 -108 -1 -81 -1 -108 -1 8 -1 13 0 274 -1 -12 
-2 155 -1 -71 -1 -213 -1 4 -1 -570 -1 -11 -1 597 -2 218 
-1 -185 -1 -479 -1 675 -1 9 -2 -151 -1 -24 -1 -142 -1 -67 
-1 2 -1 73 -1 83 -1 -97 -1 132 -1 -433 -1 34 -1 409 
0 160 -1 -336 0 -157 -1 254 -1 -796 0 536 0 -161 -1 308 
0 74 -1 131 0 60 -1 -235 0 -259 -1 234 0 178 -1 63 
0 -37 -1 -293 -1 409 0 141 0 -446 -1 19 -1 96 0 20 
-1 48 0 -112 -1 -78 -1 60 0 267 -1 -128 -1 98 0 160 
-1 -486 -1 9 -1 -118 0 211 -1 88 -1 102 -1 11 0 -691 
-1 551 -1 170 0 -115 4957 2413 100 MP stroke
-1 110 -1 -90 -1 -29 -1 24 0 -236 -1 268 -1 27 -1 -132 
0 170 -1 -149 -1 160 0 -346 -1 -197 -1 319 0 270 -1 -163 
-1 -124 0 148 -1 30 0 162 -1 -21 0 -200 -1 87 0 146 
-1 -106 0 328 0 -395 0 220 1 173 0 -105 1 127 0 -288 
0 66 1 260 0 -403 0 217 -1 196 0 -559 -1 12 0 422 
-1 -5 0 -423 -1 68 -1 64 -1 -168 0 -6 -2 79 -1 256 
-1 -395 -1 151 -1 526 -2 -183 -1 -432 -2 216 -2 186 -2 -66 
-1 25 -2 -24 -2 -194 -2 -94 -2 245 -3 -69 -2 -19 -2 -151 
-3 -21 -2 88 -3 303 -2 160 -3 -305 -3 -615 -3 211 -3 -105 
-3 475 -3 206 -3 -331 -3 290 -3 -300 -3 81 -4 120 -3 90 
-3 -354 -3 108 -4 -116 -3 272 -3 -203 -3 294 -4 -150 -3 101 
-3 -144 -4 -434 -3 281 -3 304 -3 -111 -3 -350 -4 -22 -3 110 
-3 -164 -3 305 -3 184 5116 2169 100 MP stroke
-3 29 -3 -272 -3 68 -3 -188 -4 57 -3 -506 -3 271 -3 -155 
-4 415 -3 54 -3 172 -3 -338 -3 -285 -3 90 -3 78 -3 -180 
-3 100 -2 73 -3 77 -2 -50 -3 206 -2 206 -2 -50 -3 72 
-2 -71 -2 -3 -2 63 -2 34 -2 -437 -1 -578 -2 599 -1 -327 
-1 80 -2 256 -1 -222 -1 313 0 15 -1 -129 0 412 0 -918 
0 741 1 -194 1 -144 0 378 1 -278 2 -173 1 381 2 73 
2 -180 2 -271 2 -508 2 681 3 -99 2 -625 3 773 3 -157 
4 458 4 19 3 -341 4 223 4 104 4 -331 4 -99 4 20 
5 70 4 -6 5 -46 4 -64 5 149 5 241 4 -50 5 8 
4 189 5 -145 4 -106 3 123 5 -8 3 183 4 -212 4 -328 
3 270 2 -219 3 337 2 -135 2 -79 1 15 1 -72 -1 108 
0 72 -2 198 -1 21 -2 -75 -3 -139 -3 -32 -4 91 -4 -107 
-5 -301 -5 268 -5 163 5100 2305 100 MP stroke
-5 -244 -6 275 -7 29 -6 -251 -6 189 -7 -337 -7 5 -7 -248 
-7 321 -7 112 -7 262 -7 -57 -8 -2 -7 -275 -7 11 -7 371 
-7 152 -6 -9 -7 -155 -6 -261 -6 159 -5 -138 -5 142 -4 216 
-4 -222 -5 5 -4 83 -4 -640 -3 612 -3 -6 -3 -14 -4 -510 
-2 -692 -3 883 -2 175 -2 -753 -2 809 -1 -218 -2 -242 -2 42 
-1 356 -1 -556 -2 109 -1 288 -2 26 -1 113 -1 -167 -2 534 
-1 0 -2 -276 -2 -64 -1 -288 -2 270 -1 -259 -2 49 -1 309 
-2 -145 -1 96 -2 3 -1 -174 -2 189 -2 -352 -1 342 -1 -1 
-2 -276 -1 538 -2 45 -2 -71 -2 -7 -1 35 -2 -23 -2 -715 
-2 459 -2 144 -3 259 -3 -153 -2 88 -3 -90 -3 -107 -3 -195 
-3 -18 -4 170 -3 156 -3 -241 -3 263 -3 -109 -3 -169 -3 94 
-2 6 -3 25 -2 -44 -2 -104 -2 -46 -1 135 -2 -87 -1 269 
-1 134 -1 -222 -1 -30 5413 2211 100 MP stroke
0 1 0 -611 -1 615 0 189 1 5 0 98 1 5 1 -326 
2 -553 1 221 2 658 2 -75 2 -124 2 -254 3 -150 2 217 
3 53 3 -25 3 278 3 10 4 -489 4 -118 3 350 4 -72 
5 338 4 101 4 -7 5 -130 5 -397 4 428 5 -58 5 163 
4 6 5 -39 5 -193 5 165 4 -269 5 -312 5 376 4 282 
5 -163 5 -300 4 181 5 -78 4 493 5 -268 4 -161 4 -1 
4 378 4 119 3 47 4 -61 3 -161 3 -255 4 433 3 96 
2 -84 3 -162 2 129 3 -162 2 -47 2 343 2 -170 1 54 
2 -699 2 159 2 152 1 75 1 135 1 55 1 1 1 191 
1 -420 0 180 0 -123 1 69 0 356 0 -725 0 676 1 -58 
0 -681 0 385 1 -232 1 332 0 73 1 -347 1 -246 1 63 
1 139 1 142 2 -281 2 -186 2 359 2 -11 2 205 3 2 
3 162 3 -14 3 34 5170 1732 100 MP stroke
3 -87 4 -338 4 -4 4 -363 4 491 4 286 4 121 4 -188 
5 -513 4 312 4 -123 5 -242 5 256 5 -131 4 308 5 11 
5 -103 5 -130 5 -10 6 -223 5 166 5 162 5 95 6 -136 
5 62 6 -343 5 272 5 38 5 -370 6 159 5 -613 5 661 
6 -547 5 457 5 98 5 -114 6 -113 5 -102 5 -331 5 312 
5 347 5 -69 4 -91 5 -23 4 93 5 88 4 -336 4 163 
4 -115 3 -373 4 363 3 343 4 -77 3 -363 3 208 2 138 
2 -21 3 -355 1 180 2 -598 1 247 1 478 0 -146 0 212 
-1 -131 -1 -311 -1 -8 -2 145 -2 86 -2 237 -2 -125 -3 -197 
-3 34 -4 -230 -3 297 -5 52 -5 -161 -5 108 -5 -202 -6 -244 
-7 407 -7 -28 -7 113 -7 -7 -8 58 -8 -19 -8 -352 -9 174 
-9 -358 -9 362 -10 106 -9 -20 -10 -75 -9 -131 -10 -157 -9 204 
-10 23 -9 -95 -10 89 5119 2652 100 MP stroke
-9 -250 -9 16 -9 153 -9 -49 -8 -129 -9 330 -8 -53 -8 -103 
-8 15 -7 -211 -7 427 -7 -133 -6 -26 -5 219 -5 115 -5 -132 
-4 147 -4 -70 -3 62 -2 -327 -3 70 -1 -5 -1 126 -1 113 
0 141 1 -71 1 -542 2 31 2 217 2 288 3 77 2 -150 
4 -182 3 -166 4 47 4 182 4 23 4 -125 5 -218 5 -138 
6 278 5 47 6 147 6 -33 6 -33 6 238 7 -152 6 -287 
7 244 6 -359 7 363 7 -383 6 357 7 -485 7 150 6 -523 
7 937 7 105 7 -142 8 -67 7 146 7 172 8 -11 7 -105 
8 -339 7 20 8 197 8 217 7 123 8 -90 7 -280 8 -4 
7 -372 7 425 8 71 7 216 7 -230 7 -325 7 -294 8 561 
7 -27 7 -181 7 408 7 -125 8 -347 7 170 7 -34 8 17 
7 -519 7 597 7 137 7 37 6 -142 7 -32 7 -91 6 20 
6 -147 6 -225 6 61 4803 2856 100 MP stroke
6 -61 6 488 5 -251 6 333 6 -38 6 -375 5 154 6 130 
5 135 5 -233 6 70 5 -20 5 -379 5 244 5 411 5 2 
5 -24 5 -34 5 -190 4 186 5 217 5 39 4 -79 5 -188 
4 -4 5 97 4 34 4 -39 4 -51 4 -204 3 -6 4 355 
3 -225 3 174 3 -421 3 -60 2 345 3 -158 3 -148 3 -56 
3 299 3 -489 3 288 4 -358 3 408 4 5 4 19 4 -95 
4 11 4 -243 5 214 5 21 4 248 5 -147 5 -324 5 248 
5 315 6 135 5 -21 5 -67 5 -1 6 56 5 36 5 -157 
6 -78 5 -23 5 -79 6 185 5 127 5 230 5 -208 6 -366 
5 124 5 138 6 18 6 -201 5 81 6 119 6 -41 5 135 
6 -166 6 -199 6 6 5 241 6 170 5 -81 5 -20 6 -222 
5 -208 5 131 5 284 5 124 5 -184 5 -226 4 -15 5 -35 
4 194 5 -162 4 -497 4332 2989 100 MP stroke
4 645 4 -219 4 -71 3 -12 4 348 3 -73 4 -168 3 159 
3 -329 3 371 3 -53 3 -271 2 -261 3 625 2 -95 3 157 
2 -250 3 -34 2 88 2 248 2 -105 2 -35 1 25 2 -218 
2 80 1 -196 1 502 2 -50 1 -203 1 -577 1 745 0 -137 
1 -293 1 -141 1 444 0 31 1 -376 0 674 0 -928 0 467 
-1 184 0 22 0 -174 -1 217 0 -667 -1 775 -1 -56 -1 -510 
0 479 -1 67 -1 40 -1 -477 -1 359 -1 -30 -1 -88 -1 173 
0 -221 -1 341 -1 -295 -1 288 -1 75 0 -177 -1 -620 0 665 
-1 16 0 103 0 -98 -1 221 0 -623 0 500 1 -56 0 -210 
1 340 1 -84 1 -340 1 233 2 -22 2 54 2 -112 2 -149 
2 213 3 -76 3 -154 3 284 3 172 4 -147 5 65 4 23 
6 25 5 -114 6 -294 7 -349 7 551 7 -326 8 203 8 -28 
9 -582 9 456 10 24 4149 2386 100 MP stroke
10 1 11 73 10 -263 12 427 11 -77 12 177 13 -38 12 -157 
14 -421 13 205 14 390 15 98 14 39 15 25 15 -214 15 -303 
16 273 16 -708 16 598 17 307 16 161 17 -70 17 -122 17 -344 
17 56 17 67 16 275 18 -14 17 36 18 -485 17 -1223 18 1152 
16 194 18 98 12 -33 24 -172 17 342 15 -255 16 198 13 -416 
17 -17 16 -53 16 338 16 160 16 -50 15 -162 15 30 15 -483 
16 593 14 67 15 -201 14 -10 14 -123 13 86 13 -154 14 520 
13 81 13 -119 10 -287 11 250 13 -179 11 119 11 92 10 -1 
11 -143 9 -186 10 -8 8 -38 9 366 8 -80 7 139 8 31 
5 75 7 -45 6 -394 6 269 5 173 5 -34 5 3 4 52 
5 108 3 -144 4 -538 3 533 3 82 2 -127 3 8 2 -70 
2 -34 1 -103 0 47 2 -71 2 -81 3 190 2 238 1 -77 
1 37 1 -18 1 -153 3057 2005 100 MP stroke
1 -286 1 333 1 -80 1 -519 2 636 1 142 1 -98 1 19 
0 -603 1 176 0 379 0 -334 -1 -233 0 42 -1 28 -1 -39 
-1 201 -1 126 -1 179 -2 -105 -1 -118 -2 -119 -2 -481 -3 191 
-2 385 -2 -73 -3 69 -3 -237 -2 271 -3 16 -3 344 -3 -129 
-4 -65 -3 -140 -3 259 -4 72 -4 -302 -3 -205 -4 127 -3 20 
-4 -81 -3 237 -4 -42 -4 -542 -3 427 -4 22 -4 118 -3 -23 
-4 60 -4 153 -3 -3 -4 95 -3 -864 -4 576 -3 -68 -4 -16 
-3 238 -3 85 -4 -43 -3 -425 -3 337 -4 -259 -3 72 -3 160 
-3 -148 -2 -8 -3 -321 -3 114 -3 -199 -2 532 -3 -50 -2 -191 
-3 18 -2 47 -2 198 -2 167 -1 -34 -2 4 -1 -73 -1 -178 
0 107 -1 138 0 46 1 -86 0 45 1 -166 2 -163 2 202 
2 -180 2 236 3 46 3 251 3 -366 3 -26 4 -421 4 6 
4 391 4 54 4 -79 3190 2029 100 MP stroke
4 116 5 94 5 -17 5 -57 4 -393 5 321 5 -168 5 252 
5 -78 6 66 5 -168 6 -310 5 430 6 -516 6 300 6 -44 
7 205 6 -215 7 183 7 97 7 -115 7 -422 7 211 8 235 
7 289 8 -299 8 -130 9 100 8 -143 9 1 8 186 9 -80 
9 -266 9 151 10 178 9 219 9 -479 10 112 9 -157 10 -53 
10 354 10 -152 10 98 11 -402 10 -594 10 895 11 -354 11 129 
11 339 11 75 10 -97 12 -70 10 93 11 -214 12 4 11 65 
12 194 10 -390 12 -32 11 -135 11 490 11 130 11 -255 12 115 
14 36 9 65 12 -254 11 -18 11 -308 11 222 11 134 11 -274 
12 -345 11 494 11 -375 11 597 10 48 11 -53 10 98 11 -68 
10 -216 10 -158 12 159 10 130 11 151 10 -318 10 -232 10 -124 
10 700 9 -474 9 412 8 -128 8 -167 8 276 8 -88 7 -341 
7 387 6 -97 6 116 2303 2120 100 MP stroke
6 119 5 -163 5 11 4 -193 4 -198 3 605 3 -322 3 -283 
2 145 2 174 2 -29 2 -487 1 -89 1 784 1 -154 2 -248 
0 -77 1 188 1 -124 0 -240 0 286 1 27 0 180 0 -892 
0 531 -1 183 0 197 0 -522 0 519 -1 -139 0 364 0 -427 
0 180 1 100 0 120 0 -129 1 56 0 123 1 -192 0 210 
1 -151 0 20 1 -496 1 -229 0 782 1 -90 1 -26 1 -292 
1 -521 1 634 1 111 1 -288 1 268 2 -173 1 102 1 -321 
1 140 1 416 1 -11 2 -138 1 83 1 46 2 116 1 -293 
2 180 2 -16 1 -26 2 -410 2 129 2 32 2 11 2 246 
2 29 2 -411 2 36 2 255 2 -132 1 28 2 122 2 -286 
1 -142 2 236 2 275 1 42 1 -866 2 594 1 209 1 -302 
1 467 1 202 1 57 2 -228 0 -701 1 486 1 36 1 -41 
1 162 1 97 0 -336 2177 2203 100 MP stroke
1 -81 0 380 1 -335 -1 62 0 -62 -1 126 -1 -129 -1 -483 
-2 121 -2 470 -2 14 -2 -267 -2 213 -3 -745 -3 865 -2 332 
-8 -187 -4 -140 -2 -242 -3 352 -3 107 -4 -18 -3 -109 -3 -213 
-3 -1 -3 -98 -2 -15 -3 -167 -3 498 -1 -482 -3 184 -2 3 
-2 101 -2 -101 -3 16 -2 -651 -2 349 -2 221 -1 312 -2 -278 
-2 125 -1 -364 -1 348 0 83 -3 93 0 62 -2 -621 0 519 
-1 35 0 -187 -2 -3 0 29 -2 94 1 15 -2 72 0 60 
0 -143 0 9 1 107 0 -285 0 229 1 -97 2 -208 2 322 
-1 -1111 0 1090 2 -29 0 38 0 -278 1 -297 0 307 -2 158 
3 -339 0 293 1 -167 2 137 4 -49 0 153 4 -367 1 160 
1 292 -1 -113 10 -335 5 343 1 -54 3 -119 3 322 3 -127 
1 -761 -2 652 3 177 5 -483 -1 -5 3 441 0 222 2 159 
3 -590 5 280 2 86 2211 1901 100 MP stroke
4 -158 2 -472 2 402 3 77 2 10 3 -74 2 -450 3 -1 
3 358 2 18 2 -292 4 108 2 356 3 175 3 -174 2 -33 
3 193 3 -285 3 102 2 129 4 -172 3 -193 3 73 3 -758 
3 830 3 221 3 -482 3 0 3 185 3 -91 3 25 3 179 
3 -38 3 31 3 -70 2 23 3 -67 4 165 2 -167 2 -641 
3 650 2 -68 2 72 2 115 2 -142 2 35 2 -150 2 139 
2 -84 2 108 2 -14 2 -98 1 -405 2 28 2 180 1 -57 
1 -125 2 643 1 33 -1 48 4 -48 -2 10 4 -119 0 -50 
-1 -59 5 -113 -3 -13 1 -253 3 0 0 -14 2 128 0 -164 
1 -104 1 -111 1 -176 1 394 0 166 2 7 2 -49 -1 72 
2 -305 0 -172 1 -52 1 557 0 -566 -1 216 -1 239 0 101 
-1 -160 -1 -207 -1 209 -1 142 -1 -151 -1 128 -2 -68 -1 -188 
-1 -483 -2 572 -2 10 2057 2625 100 MP stroke
-2 133 -1 -64 -2 -12 -2 -18 -2 13 -3 10 -1 -355 -2 96 
-2 -179 -2 -59 -3 553 -2 18 -2 29 -2 -122 -2 145 -2 -74 
-2 52 -1 -689 -3 826 3 158 -1 90 -3 113 -1 -356 -2 130 
0 6 -2 18 0 9 -1 -2 -1 -30 0 -114 -1 90 0 -34 
-1 -324 1 -428 0 517 0 -143 1 67 1 465 0 -624 1 520 
1 293 1 -139 2 -39 1 37 2 13 1 -744 2 350 1 280 
2 -307 2 53 2 120 3 24 2 158 3 100 3 23 3 -99 
3 -72 3 -23 2 -116 4 -132 2 542 4 -27 3 -72 3 -208 
5 273 2 -143 1 -22 5 82 3 121 3 -123 4 -120 3 -10 
4 -407 3 212 4 -96 4 86 4 -103 3 483 4 -237 3 35 
5 -127 5 241 0 -362 3 -731 3 882 3 -1138 2 725 2 -114 
2 387 2 145 2 -17 1 -418 1 68 1 443 1 -17 0 -13 
1 -129 0 -39 0 80 1957 2282 100 MP stroke
-2 -171 1 313 -1 184 0 -41 2 -140 -3 -104 -1 -146 -2 250 
-2 -31 -2 -59 -1 18 -3 7 -4 -62 -2 -259 -3 429 -4 -319 
-5 489 -4 -278 -4 -15 -4 88 -4 181 -5 -11 -4 -126 -5 282 
-5 -334 -4 -425 -5 516 -5 190 -5 111 -5 -37 -5 -40 -5 -345 
-6 192 -4 155 -3 105 -7 48 -4 -208 -6 -175 -7 67 -5 -73 
-5 76 -6 -53 -5 51 -5 81 -5 -78 -5 -211 -5 141 -5 -65 
-4 -269 -5 107 -4 220 -5 -273 -4 251 -4 -277 -4 132 -3 165 
-4 25 -4 -194 -4 -109 -5 279 -4 -83 -5 161 -4 -16 -4 -8 
-5 16 -4 -5 -4 -128 -4 -19 -3 -106 -4 159 -4 164 -4 -67 
-3 -636 -4 532 -3 169 -4 -140 -3 -211 -3 -58 -4 269 -3 -20 
-4 139 -4 74 -5 -15 -4 -103 -4 109 -4 -756 -5 244 -4 -6 
-4 169 -4 -119 -5 173 -4 96 -4 23 -4 52 -4 -169 -4 91 
-5 -76 -4 111 -4 -6 2347 2053 100 MP stroke
-5 -611 -4 347 -5 463 -5 -119 -5 -13 -4 18 -6 -268 -4 -954 
-5 1019 -5 30 -5 57 -5 -206 -5 -61 -4 -509 -5 478 -6 -129 
-4 206 -6 -46 -5 69 -5 136 -5 -481 -5 323 -5 97 -6 -133 
-5 117 -5 -36 -5 -692 -6 592 -5 199 -5 -70 -5 -1 -5 -75 
-4 -44 -5 133 -4 10 -4 -39 -4 -98 -4 4 -4 -192 -4 120 
-3 352 -3 -30 -4 -346 -2 -47 -3 57 -3 311 -2 -152 -2 10 
-3 16 -1 125 -2 -598 -1 360 -2 348 -1 -77 -1 15 0 22 
-1 -81 -1 -110 0 323 0 -107 -1 -35 0 -29 -1 -5 0 108 
-1 72 0 -25 -1 -137 0 -511 -1 291 -1 245 -1 -92 -1 -161 
0 139 -1 212 -2 -9 -1 -337 -2 233 -1 -282 -1 114 -2 205 
-1 54 -1 -27 -2 -295 -2 -387 -2 233 -1 236 -2 -15 -2 100 
-2 43 -3 -57 -2 -276 -2 -169 -3 473 -2 -144 -2 251 -3 -118 
-2 -288 -3 123 -2 120 2632 2168 100 MP stroke
-2 -142 -3 20 -2 -135 -3 217 -2 179 -3 -262 -2 210 -3 79 
-2 -708 -3 611 -2 95 -3 -516 -2 279 -3 -127 -3 274 -2 116 
-3 -126 -3 -36 -2 -145 -3 138 -2 283 -3 -365 -2 281 -3 -55 
-2 59 -2 50 -2 -163 -2 -94 -2 -141 -2 51 -2 414 -1 -41 
-1 19 -1 -236 -1 85 0 161 0 -20 -1 59 0 -46 1 123 
0 -164 0 248 1 -138 0 89 0 -24 1 -113 0 147 0 -1043 
0 442 -1 282 0 -175 -1 193 -1 46 0 3 -1 -310 0 320 
-1 -657 -1 156 0 383 -1 -313 -1 -171 -1 366 0 33 -1 -58 
-1 -346 -1 340 0 410 -1 -17 -1 -179 0 -767 0 859 -1 -373 
0 273 0 -4 1 -147 0 192 -1 -352 0 450 0 -705 0 634 
-1 35 0 -167 0 332 -1 -337 0 -498 0 784 -1 -269 0 -476 
-1 480 0 220 -1 -156 0 -232 -1 -7 0 -301 -1 579 -1 -141 
0 230 -1 -335 0 114 2733 2058 100 MP stroke
0 -264 -1 505 -1 -284 -1 -690 -1 364 -1 489 -1 131 -2 -5 
-1 -590 -1 287 -2 227 -2 16 -2 -274 -2 331 -2 6 -2 80 
-3 23 -2 -84 -3 -55 -2 -561 -3 335 -3 126 -3 74 -4 151 
-3 -12 -4 -33 -3 -179 -4 -581 -4 190 -4 123 -4 228 -4 199 
-4 26 -4 -465 -4 3 -5 341 -4 -335 -4 -189 -5 643 -4 -290 
-5 50 -5 162 -4 -386 -5 258 -4 -617 -4 416 -6 -44 -4 86 
-5 189 -4 -179 -5 38 -4 -55 -4 -261 -4 -67 -4 229 -4 30 
-4 39 -4 -199 -4 276 -4 -183 -4 -537 -4 814 -3 -210 -4 130 
-3 -525 -3 200 -3 140 -2 11 -3 -166 -2 347 -2 -270 -3 -524 
-1 528 -2 87 -2 313 -2 104 -1 -239 -1 -158 -1 14 -1 -399 
-1 208 0 -5 -1 298 0 157 0 -544 0 297 1 -274 0 128 
1 -313 1 -33 0 -196 1 -230 1 603 1 -58 1 379 1 -107 
1 -156 1 -121 2 -24 2966 2600 100 MP stroke
1 287 1 72 1 -24 2 -240 1 352 1 36 2 43 1 -188 
1 -230 1 133 1 33 1 305 0 -7 1 101 1 -234 0 -58 
1 92 0 240 0 -1407 -1 1352 0 -948 -1 1174 0 -94 -1 -239 
0 82 -1 -54 -1 -124 -1 45 -1 -385 -1 326 -1 188 -2 85 
-1 -232 -2 1 -1 -48 -1 201 -2 -209 -1 -7 -1 269 -1 -15 
-2 84 -1 -6 -1 25 -2 115 -1 -113 -1 -91 -1 -111 -1 -23 
-1 3 -1 205 -1 -172 -1 -169 -1 -32 0 -128 0 282 -1 -70 
0 -246 1 -412 0 594 1 262 1 -227 1 119 1 61 1 -361 
2 195 1 9 2 -137 2 150 2 148 2 -211 3 -112 2 -69 
3 381 2 -228 3 -45 3 254 2 20 3 -132 4 -41 3 160 
3 21 4 -891 3 724 4 194 4 -35 3 -172 4 -379 4 82 
4 347 4 -38 4 -508 4 465 4 196 4 -73 4 -240 4 -348 
5 313 4 -102 4 502 2867 1937 100 MP stroke
5 -49 4 -135 5 -506 4 265 4 389 5 -404 4 224 4 200 
4 11 5 -56 4 -303 4 59 5 59 4 22 4 113 4 43 
4 -94 4 -31 4 -223 4 192 4 -292 4 -10 3 3 4 111 
3 310 4 -111 3 179 3 -71 3 -220 3 -793 3 780 3 328 
2 -669 3 665 3 -167 2 159 3 -12 2 -35 3 -188 3 238 
2 -125 2 142 3 -27 2 183 3 -219 3 -363 2 335 2 -55 
3 171 2 -5 3 -211 2 181 2 -257 3 -24 2 258 3 -71 
2 31 3 -78 3 200 3 -311 2 -32 3 98 2 143 3 201 
2 -159 3 -309 3 175 2 108 3 -52 3 -163 2 -471 3 386 
2 436 3 -35 2 -28 3 -3 2 261 3 -135 2 -209 3 82 
3 -131 2 271 3 -88 3 -125 3 -8 3 -144 3 144 3 -297 
3 67 4 267 4 -57 3 -289 4 -18 4 329 4 -26 3 -408 
4 -202 4 646 4 -71 2556 2047 100 MP stroke
4 -233 3 176 4 34 4 -270 3 156 4 22 3 -67 4 -351 
3 436 4 -100 4 -72 3 321 3 70 4 -17 3 -250 3 154 
4 -174 3 236 4 -247 3 -24 3 234 4 42 3 -1117 3 749 
3 -209 2 393 3 110 3 68 2 -49 3 -338 2 -346 3 266 
2 424 3 -269 2 -59 2 317 3 -122 2 -70 2 -303 2 497 
3 74 2 184 2 -302 2 -153 2 136 2 179 2 -146 3 212 
2 117 1 -30 2 -284 1 126 2 -216 1 -401 1 393 1 -88 
0 -21 1 367 0 -507 -1 262 -1 136 0 -221 -1 -307 -2 240 
-1 -173 -2 345 -1 -77 -2 232 -2 91 -3 -279 -2 121 -3 128 
-2 -256 -3 -338 -3 20 -3 49 -3 389 -4 -38 -3 -171 -4 215 
-3 -168 -4 -36 -4 -328 -5 681 -4 44 -5 -314 -4 216 -5 141 
-5 130 -4 -116 -6 52 -5 -472 -5 330 -5 71 -5 -26 -6 -144 
-5 71 -5 24 -6 77 2541 1788 100 MP stroke
-5 -41 -6 -202 -5 -463 -6 315 -6 -668 -6 876 -6 72 -6 173 
-6 -167 -6 -133 -7 -202 -6 281 -7 -152 -6 136 -7 -108 -7 -41 
-7 199 -6 -61 -8 -250 -7 -530 -7 863 -7 -93 -7 -54 -7 -22 
-7 204 -7 -240 -7 -209 -6 314 -7 229 -7 -60 -7 17 -7 -354 
-6 -36 -7 178 -7 236 -6 44 -7 -131 -6 -313 -7 40 -7 140 
-7 -263 -6 66 -7 -324 -7 397 -7 -492 -6 429 -7 -717 -6 610 
-7 394 -6 -56 -7 -310 -6 220 -6 -270 -6 178 -6 -408 -6 223 
-6 47 -6 240 -6 223 -6 -178 -5 266 -7 -382 -6 -793 -6 451 
-6 409 -6 162 -6 98 -6 -162 -6 -156 -6 -198 -6 285 -6 -66 
-6 58 -6 156 -6 30 -6 -213 -6 -171 -6 50 -6 -196 -6 -112 
-6 297 -6 10 -6 298 -6 93 -5 -40 -6 -12 -4 -202 -6 -34 
-5 291 -5 26 -5 20 -4 44 -5 -245 -4 -16 -4 -142 -4 242 
-3 40 -4 112 -3 -104 3141 1798 100 MP stroke
-3 -163 -3 231 -3 28 -3 -104 -2 -109 -3 48 -2 4 -2 191 
-2 -351 -1 -308 -1 274 -1 -106 -1 298 0 353 0 -251 1 -131 
0 147 1 -40 1 40 2 41 1 -42 2 27 1 279 2 -579 
2 67 3 361 2 -297 2 15 3 33 2 -255 2 106 3 297 
2 -391 3 339 2 2 3 -171 2 -14 3 72 3 -202 2 -47 
3 323 2 -443 3 188 3 -19 3 -198 3 -42 3 127 4 -74 
3 199 3 44 4 -60 3 -153 4 -19 4 -179 3 -435 4 676 
4 -407 4 352 4 -257 4 95 5 5 4 302 4 -39 5 5 
4 -212 5 189 4 -161 4 60 4 35 4 170 3 -99 5 -178 
4 82 4 110 5 104 4 -157 4 -87 4 -69 5 -380 4 453 
4 -102 5 99 4 31 4 29 5 -30 4 -269 4 80 5 397 
4 86 5 -126 5 -407 5 189 5 -40 5 64 5 -387 6 416 
5 -125 6 -734 5 970 2874 2114 100 MP stroke
5 -551 6 194 6 -227 5 527 6 -212 5 56 6 121 5 -293 
5 -109 5 15 5 -97 5 467 7 258 5 -187 6 -264 4 87 
4 63 0 -105 4 -187 8 172 3 371 3 54 4 -46 3 56 
4 -46 2 -36 3 -8 2 -70 3 171 3 198 2 43 2 -147 
1 -565 1 262 2 -34 0 191 1 -106 0 -634 -1 776 -1 -115 
-3 183 1 -43 -3 21 -2 -234 -1 -332 -2 449 -1 -125 -2 15 
-2 147 -4 49 -10 305 -20 -56 -7 -262 -1 -218 -4 -408 -4 728 
-5 -261 3 394 3 79 -7 -558 -4 260 -6 15 -5 -73 -7 -48 
-6 213 -5 -80 -5 -77 -7 -20 -4 -378 -8 98 -5 172 -2 -37 
-7 306 -5 -152 -5 262 -2 -160 -1 46 -5 -480 -5 561 -4 10 
-3 -7 -11 -203 -3 35 -3 237 -4 -179 -1 -377 -8 325 -4 -41 
-5 259 -4 -59 -5 -318 -4 54 -3 61 -6 58 -3 39 -4 -97 
-2 -11 -5 174 -2 -143 2984 1953 100 MP stroke
-2 86 -4 -10 -4 100 -4 34 -3 -990 -3 453 -3 202 -3 127 
-3 -126 -4 517 -3 -333 -3 -141 -3 -234 -2 239 -3 62 -2 619 
-2 -257 -3 -20 -2 -98 -2 -222 -1 173 -2 -120 -2 -106 -1 0 
-2 -11 -2 -31 -2 89 -2 -142 -2 79 -2 -260 -1 -183 -2 479 
-2 -90 -2 185 -1 -85 -2 -4 -2 -88 -1 -116 -2 18 -2 -102 
-2 -44 -1 559 -2 -94 -2 -161 -2 -204 -2 -81 -2 553 -2 -233 
-2 113 -2 51 -3 91 -2 34 -3 -134 -2 -95 -4 -32 -3 -163 
-3 140 -3 31 -4 -138 -4 -143 -4 283 -4 106 -5 -361 -4 -17 
-5 266 -5 7 -6 -90 -5 26 -6 225 -5 -270 -6 -150 -6 212 
-6 -201 -7 238 -6 44 -7 68 -7 -113 -7 -113 -7 114 -7 -353 
-7 285 -7 -129 -8 -165 -8 233 -7 -104 -8 173 -8 -60 -8 5 
-8 -56 -8 207 -8 44 -8 204 -8 -109 -7 -69 -8 -655 -8 611 
-8 152 -8 59 -8 -34 3390 1697 100 MP stroke
-8 -56 -7 -155 -8 -311 -8 474 -8 -222 -8 83 -8 27 -8 7 
-8 -31 -9 206 -8 -234 -8 130 -9 -104 -9 -240 -9 114 -9 -114 
-8 -207 -10 313 -9 50 -9 -198 -10 163 -9 -166 -10 -78 -10 33 
-10 -69 -10 -145 -10 149 -10 -459 -10 94 -11 568 -10 -1 -11 -551 
-11 155 -11 190 -10 203 -11 24 -11 -186 -11 171 -11 -286 -11 -11 
-11 9 -11 251 -12 -144 -10 150 -11 -92 -10 59 -11 11 -10 -5 
-10 -109 -10 -394 -10 219 -9 257 -10 43 -8 123 -9 -40 -9 -175 
-9 -51 -8 -73 -8 -100 -8 86 -8 189 -7 -75 -6 -48 -6 29 
-6 -295 -6 15 -5 425 -4 4 -5 -311 -4 -30 -4 -77 -3 199 
-3 -46 -3 66 -3 121 -3 -636 -2 420 -2 -85 -3 172 -2 -77 
1 -20 -2 -115 0 -561 0 955 1 -67 0 -59 1 147 1 -80 
1 104 1 -283 1 126 1 99 1 5 1 -250 1 -9 1 297 
1 -55 1 -295 0 15 4033 2428 100 MP stroke
1 -269 1 -306 0 935 1 -27 -1 -163 0 94 0 -26 -1 -609 
0 -65 -2 631 -1 1 -2 -34 -1 -36 -2 -289 -3 329 -2 -175 
-3 -370 -3 238 -4 461 -5 -283 -4 -222 -5 367 -6 -410 -7 346 
-6 -213 -8 242 -7 -159 -8 25 -8 81 -10 197 -9 -206 -10 -355 
-11 -22 -11 370 -11 -51 -11 -70 -12 -326 -13 -88 -13 558 -13 -577 
-14 691 -13 6 -14 -67 -15 -307 -14 -48 -15 -105 -15 339 -15 60 
-15 82 -15 -882 -15 444 -16 103 -15 297 -15 -193 -15 -47 -15 -282 
-15 239 -15 26 -15 -89 -16 174 -15 -30 -15 -24 -14 36 -15 162 
-14 -108 -15 98 -13 -179 -14 170 -13 -373 -13 33 -13 64 -13 93 
-12 -102 -12 -209 -13 6 -12 77 -11 -290 -12 291 -12 -56 -11 247 
-11 -122 -11 -262 -10 -43 -11 193 -9 58 -10 -91 -10 -186 -9 82 
-9 48 -9 -111 -9 223 -8 -322 -8 206 -8 149 -7 -98 -7 96 
-7 158 -5 -102 -6 -824 4966 3505 100 MP stroke
-4 884 -4 -59 -3 -159 -3 -124 -1 130 -1 54 -1 -424 0 342 
1 85 2 -49 2 -2 3 108 3 236 4 -149 5 -208 5 -201 
6 57 6 34 7 -114 8 358 7 240 8 -137 9 -193 8 226 
9 124 9 -153 9 -297 10 -28 9 301 10 134 9 9 10 -123 
9 176 10 -248 9 258 9 -917 9 796 8 119 9 -262 8 -7 
8 -150 8 -33 7 270 7 -394 7 276 8 -257 6 241 6 28 
6 -339 6 235 6 178 5 24 6 -50 5 6 4 -80 5 -244 
3 50 4 -50 4 328 3 -39 2 45 3 -47 2 6 2 -146 
2 383 1 -17 2 49 1 -347 1 406 2 91 1 -321 1 -476 
2 856 0 -22 1 -132 1 357 1 -103 0 -838 0 652 -1 -111 
0 118 -1 -67 -1 198 -1 99 0 -104 -1 -101 -1 -12 -1 -97 
-1 101 -1 -26 -1 -28 -1 106 -1 -55 -1 309 -1 -129 -1 -236 
-1 41 -1 -53 -1 264 4632 2075 100 MP stroke
0 -95 -1 -173 0 -488 0 571 1 37 0 60 1 -371 1 -206 
1 72 1 -221 1 30 2 115 2 621 1 55 2 -683 2 501 
2 -511 3 552 2 -306 2 294 3 35 2 -373 3 3 2 196 
3 198 2 91 3 -383 2 106 3 -345 3 553 2 94 3 78 
2 -16 3 -763 3 69 3 -9 3 343 3 -18 3 314 3 -28 
2 92 3 -45 3 -296 3 -263 2 631 3 -115 2 -222 2 -231 
2 299 2 64 3 60 2 -114 2 21 2 -212 3 -178 3 367 
3 -89 3 188 3 -153 4 -130 3 -27 4 11 4 97 4 -144 
4 263 5 -209 4 -210 4 284 5 -212 4 299 4 -248 5 255 
4 72 5 363 4 -111 5 -74 5 -532 5 309 5 133 5 -57 
5 172 5 -72 5 -46 5 -28 5 -445 5 710 4 28 5 -29 
4 -67 4 -983 4 748 4 148 3 172 4 46 3 -197 3 -358 
4 457 3 -209 3 -42 4337 2135 100 MP stroke
3 92 3 159 3 -270 3 -40 4 90 3 107 3 -363 3 -22 
3 -105 3 279 3 80 3 -168 3 -651 4 663 3 -229 3 230 
4 111 3 -91 3 -486 4 337 3 -111 3 218 3 -397 3 481 
3 275 3 -28 3 -394 3 -371 3 1 3 385 2 214 3 196 
2 -29 3 -169 2 43 2 -80 2 231 1 9 2 -766 2 242 
1 176 1 -35 2 219 1 66 1 -114 0 -53 1 -104 1 69 
0 -93 0 279 1 13 0 -587 0 300 -1 -118 0 -298 0 406 
-1 6 0 135 -1 -245 -1 -175 -1 384 0 -257 -2 -83 -1 -162 
-1 387 -1 -81 -1 -132 -1 -374 0 81 -1 360 -1 245 0 63 
-1 84 0 -125 -1 -442 0 534 -1 35 0 129 0 -397 1 -213 
0 414 2 180 1 188 1 -55 1 -48 2 -16 2 -62 2 -100 
2 -189 2 288 3 307 3 62 2 -93 3 -315 2 -311 4 296 
3 -301 3 521 3 155 4188 1658 100 MP stroke
4 47 3 -156 4 -63 4 80 4 -329 4 -11 4 165 4 204 
4 -20 5 -95 4 -25 4 -502 5 -212 4 359 5 141 4 -2 
5 -215 4 326 5 -299 4 38 5 -176 5 -79 4 210 5 28 
5 -273 4 -190 5 358 5 -146 5 -84 5 -52 5 337 5 -250 
5 196 5 -358 6 -125 5 -42 6 456 5 -43 6 153 6 129 
5 19 6 -554 6 -23 6 362 5 132 6 73 5 -555 6 281 
6 259 5 -40 5 -60 6 23 5 34 5 159 6 -117 5 21 
5 88 6 -11 5 -89 6 -138 6 31 5 22 6 28 6 11 
6 247 5 -101 5 -137 6 -33 5 -29 5 228 6 66 5 191 
6 -451 4 -10 4 -22 5 178 5 72 4 -655 6 614 4 131 
5 -78 5 32 3 61 3 -82 3 -160 4 20 3 -286 2 -43 
2 466 2 -65 1 59 2 119 4 162 -1 34 -1 -596 5 371 
-1 48 -3 -104 3 -441 3747 2416 100 MP stroke
-1 69 1 317 1 74 -1 23 -3 -209 -2 -366 -2 313 -3 -101 
-2 38 -2 158 -2 206 -4 -104 -2 156 -4 -485 -5 -111 -3 159 
-4 354 -4 -56 -5 -193 -4 69 -5 -518 -6 453 -6 35 -5 -244 
-6 298 -5 102 -6 -126 -7 -91 -7 -227 -5 238 -8 133 -5 109 
-7 35 -7 -95 -7 -447 -5 388 -7 84 -6 -38 -6 -30 -7 -425 
-5 -397 -5 713 -6 -651 -6 538 -5 267 -7 147 -5 -209 -6 58 
-3 204 -7 -111 -4 -181 -5 -5 -5 -276 -4 202 -4 258 -4 -28 
-4 -78 -4 -589 -3 389 -3 -169 -3 227 -2 146 -4 159 -3 -134 
-4 -275 -3 4 -3 162 -4 164 -3 -71 -3 -71 -4 163 -4 53 
-4 -115 -4 -655 -5 -84 -4 773 -5 24 -4 61 -6 -110 -5 -644 
-5 337 -5 264 -6 132 -6 -43 -6 -148 -5 7 -6 -648 -6 504 
-6 -2 -6 35 -6 180 -5 -233 -6 25 -6 224 -6 -131 -6 -169 
-7 368 -6 -201 -6 -100 4204 2211 100 MP stroke
-6 201 -7 144 -6 69 -6 -108 -6 -423 -6 80 -6 231 -6 30 
-5 6 -6 -385 -5 -126 -5 -127 -6 -101 -5 -184 -6 504 -6 92 
-5 -110 -6 -789 -5 944 -5 -273 -6 277 -5 -247 -5 -3 -4 84 
-7 -87 -5 271 -5 -7 -4 -100 -5 -311 -5 303 -4 -128 -4 3 
-5 -315 -4 -215 -4 584 -4 181 -4 -87 -4 89 -4 -39 -3 -532 
-4 274 -2 178 -3 53 -3 11 -2 -2 -3 -245 -3 -45 -2 332 
-2 -221 -2 -37 -2 131 -2 100 -1 -222 -1 -220 -2 219 0 115 
-1 2 0 -4 -1 4 0 -474 -1 143 0 378 0 -159 1 -514 
1 317 0 404 2 8 1 -3 2 12 2 -494 2 -62 3 316 
3 72 4 229 3 -29 4 22 4 -319 4 -14 5 -255 4 352 
5 142 5 -373 6 305 5 65 6 81 6 -8 6 -426 6 368 
7 159 6 -40 7 -259 7 -16 7 -37 7 309 7 132 7 -318 
7 -150 7 305 7 -74 4280 2297 100 MP stroke
7 208 7 -33 7 -360 7 142 7 162 7 -219 7 -56 6 432 
7 -106 7 -98 6 48 7 -23 7 51 6 -62 7 -315 6 460 
7 38 7 -433 6 372 7 -86 7 -71 6 -98 7 -165 7 296 
6 234 7 -440 6 124 6 -208 7 478 6 -176 7 -76 6 82 
6 -162 6 -187 7 504 6 -184 6 -341 6 230 6 75 5 -82 
6 222 5 -248 5 -51 6 456 4 -40 5 -27 4 -347 4 -179 
5 539 4 105 3 75 4 4 3 -372 4 333 3 -364 3 35 
3 256 3 223 2 -46 3 -120 2 87 2 75 2 -54 2 -200 
1 54 2 -306 1 42 0 285 1 105 0 -48 1 -18 0 -238 
-1 67 0 -887 -1 884 -1 29 -1 -295 -1 118 -1 223 -2 157 
-1 -75 -1 -341 -1 66 -2 -182 -1 53 -1 149 -2 213 -1 -15 
-1 -49 -1 -55 -1 125 0 -230 -1 -34 0 -124 1 -133 0 -152 
1 343 2 -26 1 -6 3943 2281 100 MP stroke
2 -209 2 222 3 70 2 -828 3 279 3 162 3 189 4 19 
4 -304 4 21 4 95 5 155 5 -507 5 27 5 102 6 305 
5 116 5 -457 6 125 6 310 6 -337 6 -298 7 155 6 308 
7 -297 7 403 6 169 7 63 7 -1085 7 960 6 254 7 -509 
7 -81 6 -242 6 -268 7 822 6 36 6 -45 7 204 6 -2 
6 -187 6 208 6 -254 6 -509 6 338 6 312 5 -85 6 -80 
5 -27 5 -278 6 46 5 307 5 -238 5 135 5 119 5 -93 
5 215 5 -105 5 -103 4 -136 5 219 4 -272 5 179 4 -205 
5 99 4 306 4 45 4 22 4 68 3 -39 4 -314 3 366 
3 286 4 -182 3 -101 4 19 3 -169 3 -935 3 994 3 157 
3 190 3 11 2 -4 3 -188 3 -717 3 674 3 -25 3 114 
4 151 3 -241 3 -68 4 138 3 -221 4 70 4 57 4 -436 
3 409 4 43 5 345 3485 1749 100 MP stroke
4 -120 4 -251 4 143 5 -389 4 -313 5 728 4 -358 5 90 
5 51 5 216 5 25 5 -401 6 282 6 116 5 -71 7 -753 
6 655 6 132 7 -176 7 -180 7 254 7 -22 8 97 7 285 
8 -348 9 -840 8 551 9 442 9 138 9 2 10 -83 9 -131 
10 -607 10 497 10 119 10 181 10 -6 10 -454 10 353 10 222 
10 -126 9 -161 10 -354 10 248 9 115 10 -132 9 268 9 36 
9 -26 9 19 8 29 9 -332 8 -36 7 85 8 146 7 136 
8 85 7 -312 7 -201 7 -26 7 5 6 133 7 -39 7 46 
7 -79 6 106 7 70 7 -54 6 -53 7 244 6 24 6 -534 
7 218 6 246 6 -76 7 -262 6 -126 6 135 6 170 6 -52 
6 130 6 156 5 -596 5 218 5 28 5 88 5 -121 4 109 
5 6 4 -238 3 145 4 -76 3 231 2 -289 3 188 2 344 
2 -183 1 30 2 -195 2829 2115 100 MP stroke
0 133 1 -508 0 640 0 -112 -1 123 -1 -630 -1 225 -1 -233 
-1 123 -2 -365 -1 578 -2 0 -1 143 -2 -9 -1 -167 -1 -235 
-2 -283 -1 515 0 -175 -1 -46 -1 180 1 -206 0 384 1 -238 
2 -493 1 556 2 -408 2 303 3 70 2 -9 3 -548 4 271 
4 -258 4 53 4 607 5 101 5 -16 5 -83 5 152 6 70 
6 -396 6 273 6 104 7 30 6 -183 8 -6 7 -96 7 -91 
7 4 8 242 7 76 8 -34 8 -153 8 -126 8 -231 8 374 
8 -706 8 770 9 -510 8 166 8 295 9 -72 8 134 9 -218 
9 141 8 -152 9 -114 8 -310 8 470 9 143 9 -66 9 25 
8 -245 9 -275 9 524 9 -213 9 -84 8 88 9 -419 9 422 
9 253 8 -414 9 481 8 -335 9 91 9 -263 9 272 8 -404 
9 99 8 -210 9 526 9 12 9 183 8 -91 8 -349 8 323 
9 232 8 -848 10 520 2304 2251 100 MP stroke
9 309 7 -111 8 108 8 103 7 -40 8 -251 7 220 7 -152 
6 147 7 -72 6 -10 7 35 5 -146 6 -240 6 58 4 96 
5 240 5 116 5 -153 4 -82 3 -101 4 -35 3 -91 3 280 
3 47 3 -400 2 0 3 40 1 307 2 -578 1 464 1 -100 
0 118 1 -394 0 297 -1 166 -1 54 0 45 -1 -409 -2 -39 
-2 283 -1 -308 -3 334 -3 307 -2 -159 -4 47 -3 -273 -4 -133 
-4 -111 -5 253 -4 35 -5 -84 -5 -72 -5 50 -7 182 -5 -179 
-6 -16 -6 291 -6 -427 -7 496 -7 -38 -7 -48 -6 -26 -7 -279 
-7 -349 -8 526 -7 252 -8 51 -7 -119 -8 -17 -8 -42 -8 -198 
-7 87 -8 95 -8 -115 -8 230 -8 -129 -7 51 -8 -217 -8 -4 
-8 -94 -8 -32 -7 125 -8 -377 -7 -265 -8 631 -7 117 -7 -460 
-7 219 -7 423 -6 -31 -8 -121 -6 -149 -6 157 -6 -525 -6 -114 
-5 248 -6 -525 -4 1031 2516 1920 100 MP stroke
-5 22 -4 -37 -5 14 -4 -556 -4 339 -4 -521 -2 433 -5 236 
-2 104 -4 22 -3 -35 -2 -358 -3 182 -2 36 -3 22 -2 -476 
-2 -404 -2 757 -3 240 -2 -218 -2 -45 -2 260 -2 -105 -2 -4 
-2 -207 -2 104 -2 31 -3 -20 -2 -56 -2 -81 -2 -81 -2 -45 
-3 1 -2 -3 -2 -134 -2 22 -2 60 -2 431 -2 -255 -2 103 
-2 -227 -3 -61 -1 25 -2 199 -1 -59 -2 38 -1 -37 -2 -590 
-1 583 -1 437 -2 37 -1 -45 -1 -45 -1 -166 -1 -181 -1 315 
-2 19 -1 -131 -1 18 -1 133 -2 -23 -1 -365 -1 93 -2 -9 
-1 -60 -2 -266 -1 461 -1 -377 -1 236 -1 187 -2 -29 -1 -346 
-1 309 0 -184 -1 316 -1 -262 -1 -154 -1 348 -1 -1 -1 53 
-1 -161 -2 57 -1 -684 -1 806 -1 -280 -1 -114 0 -44 -1 146 
-2 228 0 -149 -2 -483 0 457 -1 -117 -1 254 0 -103 -1 -359 
0 440 -1 47 0 -50 2688 2062 100 MP stroke
-1 1 0 -297 0 717 1 -44 0 -100 -1 -245 1 289 0 32 
0 -232 1 29 -1 -30 1 11 1 -26 0 35 0 -50 1 158 
0 -364 -1 241 0 42 0 -32 -1 24 0 -206 -1 81 -1 147 
0 -239 -1 125 -1 59 -2 -106 0 -227 -2 192 -1 1 -2 -824 
-1 724 -2 189 -1 -121 -2 -133 -2 53 -2 207 -2 -188 -2 -127 
-3 -68 -2 -269 -2 781 -3 40 -3 62 -2 -147 -3 55 -2 -213 
-3 -8 -3 189 -2 -11 -3 -132 -3 156 -3 -130 -2 -68 -3 -153 
-2 335 -3 -100 -3 -639 -2 418 -2 -91 -3 43 -2 48 -2 261 
-2 92 -2 -195 -1 7 -2 -459 -1 -221 -2 450 -1 230 -1 59 
-1 152 -1 70 -1 -13 -1 -99 0 -180 -1 224 0 166 0 -778 
1 538 0 145 1 -23 1 -125 0 -93 1 -225 1 344 1 -79 
1 -60 1 -103 2 309 1 -141 1 -230 1 -23 1 -115 1 -16 
2 43 1 63 1 198 2771 2025 100 MP stroke
2 35 1 -141 2 62 1 -731 2 327 1 -134 1 -316 2 678 
1 -382 2 434 1 20 1 -146 2 -388 1 122 1 291 1 322 
1 -788 1 684 1 -202 1 -26 1 -39 1 48 1 196 0 -325 
2 331 0 113 1 -249 0 225 2 -13 0 -260 1 -92 1 314 
1 76 0 -120 1 -157 1 132 1 -147 1 181 1 -232 1 112 
1 -80 1 195 1 214 1 -255 1 82 1 -691 1 313 1 359 
1 284 1 -240 2 -472 1 301 2 205 2 -465 2 613 2 -31 
2 -25 2 -129 2 -176 3 -115 3 285 3 -405 2 -64 4 739 
3 101 3 -101 3 -217 4 -35 3 271 4 -70 3 -6 4 -64 
4 -58 3 -187 4 -53 4 71 4 152 3 54 5 -37 4 -69 
4 -83 4 184 5 -448 5 -485 4 253 5 247 5 -430 4 687 
6 -6 4 -94 6 -79 5 346 5 -118 5 -400 6 299 5 163 
5 -323 7 104 5 -416 2533 2615 100 MP stroke
6 -272 6 686 6 215 5 88 7 -340 6 11 7 -69 5 134 
6 75 10 -78 6 -243 8 -167 7 342 7 19 8 151 9 -551 
7 235 8 -221 8 302 8 212 8 5 9 28 8 -82 8 -114 
8 -508 8 356 9 47 8 46 9 271 8 142 9 -55 8 -135 
8 -458 8 553 8 -117 8 140 8 -139 7 208 6 39 8 -361 
8 110 5 240 7 -93 6 -449 6 -141 5 378 5 -332 6 539 
1 26 8 -218 5 -15 3 -56 5 -164 4 153 4 220 3 -317 
3 -166 3 371 3 -141 3 -80 3 -182 3 188 3 32 3 193 
2 98 2 -376 3 253 1 251 2 -129 2 -243 1 -3 2 262 
3 -197 1 137 2 -274 1 231 1 -7 3 -309 0 273 2 -258 
1 280 1 -620 1 626 0 86 2 4 -2 -470 0 -53 0 289 
1 114 1 -292 -1 497 0 44 -5 -642 0 -130 -1 436 -2 370 
-2 166 -2 -106 -2 -8 2109 1824 100 MP stroke
-3 -253 -3 -263 -3 -227 -4 505 -4 257 -3 -121 -3 109 -5 -59 
-5 130 -7 -237 -4 112 -6 -260 -6 106 -6 290 -8 -177 -7 -183 
-5 -161 -8 467 -6 -450 -6 -626 -7 930 -4 -14 -10 -150 -6 -44 
-5 42 -8 -13 -3 215 -7 -513 -5 323 -6 153 -4 24 -6 47 
-4 -118 -3 -114 -3 95 -3 -50 -3 100 -3 -43 -3 -90 -1 100 
-2 160 -3 -98 -1 18 -1 -114 -2 -39 -2 156 -1 -118 -2 -475 
-1 223 -2 59 0 -4 -2 -3 -2 101 -1 -18 -1 45 -1 -93 
-3 -534 -1 361 -1 126 0 112 -2 182 0 -485 -2 206 0 -289 
-1 163 -1 -178 -1 259 -1 248 0 -629 -2 37 3 404 -4 92 
1 -194 -1 309 -3 119 0 -232 0 3 -1 -162 -2 185 0 101 
0 -334 -3 310 0 -519 -1 363 -1 -132 -2 94 0 200 -2 -327 
-1 269 -2 -106 -1 152 -2 104 -1 -244 -2 109 -2 44 -2 -181 
-2 19 -2 -828 -2 455 2379 2533 100 MP stroke
-2 219 -3 104 -2 128 -3 -360 -3 233 -2 219 -4 -297 -2 2 
-4 289 -2 -152 -4 128 -4 254 -4 -232 -4 -575 -4 271 -4 73 
-4 40 -3 44 -5 148 -4 -161 -4 -35 -5 173 -4 -214 -5 -422 
-3 229 -5 -447 -4 648 -3 142 -6 -285 -5 332 -4 -821 -5 479 
-4 142 -5 -350 -5 307 -5 -389 -3 559 -5 -167 -4 216 -4 -134 
-5 46 -4 -124 -4 -91 -5 177 -4 140 -4 -81 -5 -374 -4 471 
-5 147 -4 -92 -5 -181 -3 69 -6 -31 -4 98 -5 5 -4 3 
-6 317 -2 -239 -4 60 -4 72 -2 -322 -4 230 -4 -11 -5 -58 
-3 69 -3 54 -2 -166 -5 -61 -1 -261 -3 381 -4 93 -2 -76 
-2 -176 -3 -366 -2 -201 -3 437 -2 140 -2 121 -2 -251 -2 -94 
-2 20 -1 -602 -2 508 -1 311 -2 -481 -1 577 -1 -329 -1 -48 
0 103 -1 149 0 188 0 -85 1 1 0 244 1 -138 0 -81 
2 -589 2 481 1 -116 2682 2208 100 MP stroke
2 200 2 213 2 -162 2 -217 2 143 3 67 3 -235 3 -1 
3 167 4 -231 3 84 4 -67 3 124 4 46 3 -221 4 -175 
4 350 4 189 3 -257 4 -5 4 -244 4 214 4 161 3 -376 
4 267 3 219 4 -98 4 -276 3 -94 3 14 3 114 3 -3 
3 70 3 -41 3 0 3 163 3 84 2 -198 3 -320 2 261 
2 14 3 -120 1 299 2 185 1 -54 1 -678 2 274 1 12 
1 -221 1 136 0 278 0 -798 0 778 -1 7 0 -144 0 200 
-2 -93 -2 71 -2 -344 0 443 -4 -432 3 299 -4 294 0 40 
-4 -195 1 -152 -3 194 -6 -366 4 -238 -8 382 -2 -32 -3 -373 
-3 458 -3 36 -3 -114 -4 83 -2 -333 -3 31 -3 305 -4 83 
-4 -136 -5 294 -4 -249 -3 -287 -4 -235 -4 148 -4 325 -5 195 
0 -281 -1 425 -8 -213 -1 369 -8 -514 3 318 -8 -225 -6 140 
-3 58 0 -93 -1 -138 2665 2163 100 MP stroke
-9 260 4 71 -7 -262 -3 -1104 3 1126 -9 32 3 58 -3 30 
-6 -560 3 479 -4 -44 -5 34 -1 -187 -2 240 -1 -7 -2 -174 
0 -371 -2 238 -1 286 0 -149 0 72 -1 181 0 -307 -1 5 
0 -129 0 71 1 181 0 59 0 -207 1 -470 0 572 0 -69 
2 255 1 -35 1 -963 2 791 0 151 1 -39 1 -151 2 -481 
1 513 -1 78 2 -459 2 652 5 -321 1 427 3 -265 0 -652 
2 50 2 533 3 -166 4 -59 3 282 2 -228 2 -270 4 447 
3 -320 4 -202 3 773 4 -62 5 -23 4 -231 5 -13 4 -44 
5 250 3 113 4 -42 4 -127 4 -263 4 -180 5 472 4 -20 
5 -61 3 1 4 -280 6 80 3 -304 4 192 5 270 5 81 
4 -303 3 -1024 4 1321 4 114 5 -90 4 -500 5 398 4 -661 
4 130 5 539 4 -16 4 -48 5 -484 5 263 3 256 6 -5 
4 -293 6 -71 5 147 2478 2385 100 MP stroke
5 40 6 -37 5 355 6 -90 5 -276 6 -7 6 212 6 187 
6 -238 6 100 6 128 7 49 6 -228 7 -412 8 194 6 -12 
7 201 7 -42 6 35 7 -157 6 148 8 340 5 -141 7 -488 
8 -269 7 556 6 166 7 149 6 -216 7 99 7 178 7 -29 
6 9 7 -318 5 -74 7 147 6 384 8 -123 5 -84 7 -180 
6 -105 6 224 6 -84 6 118 6 -123 6 -134 6 -427 6 521 
5 280 8 -270 4 -11 7 -288 6 -561 6 689 5 -5 7 319 
6 -131 7 210 5 -65 9 39 3 -202 11 -521 1 970 19 -544 
17 430 -2 -227 9 -393 2 302 8 -83 6 -100 8 31 8 164 
3 -58 8 150 7 79 6 -126 7 -179 6 -529 12 572 1 454 
8 -90 5 153 -4 -513 2 438 11 -510 5 364 7 -91 6 -115 
4 -259 9 -122 6 292 4 151 9 -57 5 -208 5 -441 6 723 
5 -335 7 281 6 -14 1853 2096 100 MP stroke
4 -194 8 -292 4 172 4 558 6 106 4 46 6 -101 4 216 
11 -828 16 938 0 -79 7 101 2 -15 -8 -396 1 229 7 -264 
3 62 5 -101 3 -170 5 -160 2 138 5 -104 2 -376 3 504 
2 -191 4 74 2 72 3 72 1 -24 4 244 2 -68 5 -192 
1 -484 3 391 2 110 4 -24 0 326 3 -47 4 180 4 84 
1 143 14 -200 3 122 -2 -54 5 -43 1 -69 4 -100 -3 111 
10 -73 2 90 -3 44 -1 285 5 -45 2 50 3 -47 2 88 
11 -487 3 351 2 -150 3 113 3 -15 2 -66 1 25 4 59 
-4 -51 1 13 3 -42 2 -142 3 -122 1 -228 3 121 1 -162 
2 -238 1 3 2 333 2 -91 1 101 1 -497 0 180 1 109 
2 99 1 -454 -1 158 0 195 1 -76 0 -76 -2 394 2 62 
5 -164 -2 -956 1 595 -2 310 3 -48 0 258 -3 -243 -2 -176 
3 -76 -3 -286 1 131 1609 2517 100 MP stroke
-1 4 1 723 -1 -232 -3 0 0 -152 -1 -1 -1 86 -1 -3 
-2 -479 2 436 -3 -22 -1 -276 -1 188 -2 -65 -1 100 0 279 
-3 -441 -1 85 -4 -4 0 -181 0 203 -1 -515 -1 911 -2 -302 
-1 107 -3 -139 -3 112 2 -61 -3 85 -1 -100 -2 -34 -1 -3 
-1 177 -1 -26 -1 -402 -2 294 0 88 -3 -863 -3 995 -1 -546 
-2 -110 -1 78 -1 -164 -2 310 -3 300 -2 159 -1 -303 -3 349 
-3 -617 -2 105 -3 -27 -3 498 -2 29 -3 -212 -2 -59 -4 157 
-2 -69 -2 221 -5 -93 -2 4 -4 -63 -4 91 -2 -341 -2 404 
-6 -633 -5 667 -1 -666 -4 331 -4 -556 -3 643 -6 52 -2 -119 
-4 278 -3 -187 -4 287 0 -397 13 406 -6 -139 -1 22 -6 -45 
-1 -65 -20 -58 -5 -114 -4 -100 -2 187 -4 -33 -4 -115 -3 -19 
-4 -63 -3 223 -4 -265 -4 -251 -4 503 -3 88 -4 71 -3 -245 
-3 -108 -4 481 -3 -246 1844 2029 100 MP stroke
-4 75 -3 -723 -4 325 -1 284 -4 -111 -4 -197 -3 366 -4 40 
-3 -100 -4 -31 -4 -155 -4 208 -4 112 -4 186 -4 -450 -4 -81 
-4 333 -4 -99 -4 -40 -4 46 -4 95 -4 -65 -4 -712 -4 786 
-5 48 -4 -235 -4 -75 -5 -382 -4 426 -5 -217 -4 385 -5 149 
-4 -115 -5 -155 -4 132 -5 -429 -4 471 -5 40 -4 -105 -4 -40 
-4 35 -5 -298 -5 66 -4 129 -5 115 -4 -204 -4 188 -5 118 
-4 -395 -3 102 -5 -76 -4 73 -3 43 -4 28 -4 -120 -3 -156 
-4 101 -3 -58 -3 -103 -3 -145 -3 -1007 -2 710 -3 328 -2 80 
-2 -184 -3 239 -3 -187 -2 63 -2 69 -2 -26 -2 -660 -2 864 
-1 -18 -2 32 -1 -20 -1 22 -1 86 -1 -296 -1 -10 0 -828 
-1 1079 0 52 0 -151 0 82 1 -128 1 64 1 203 1 -20 
1 -112 1 423 2 -256 2 28 1 -350 2 367 2 -309 2 63 
2 293 1 15 2 -170 2099 2166 100 MP stroke
2 -191 2 -115 1 212 1 -49 1 208 2 -4 0 -156 1 34 
1 163 0 229 0 -357 -1 93 0 25 -1 -56 -1 32 -1 54 
0 -114 -2 56 -1 93 -1 -32 -1 -121 -1 110 -2 -224 -2 166 
-2 59 -2 9 -2 -761 -3 350 -2 349 -2 -195 -2 33 -2 19 
-3 -570 -2 496 -1 -67 -3 280 -1 58 -2 -139 -2 -63 -2 232 
-1 -355 -2 266 -2 79 -1 -6 -1 200 -2 -362 -1 -717 -1 921 
-1 -197 -1 193 -1 -58 -1 65 -1 147 0 -150 -1 -462 -1 403 
0 -122 -1 104 0 193 0 -601 1 -70 0 283 1 181 0 -9 
1 -143 0 -20 1 95 1 -124 1 270 1 62 1 -169 1 55 
1 -191 1 -36 2 176 2 -254 1 85 2 132 1 29 2 -1 
2 -16 2 110 1 -408 2 178 2 -100 2 3 2 73 1 337 
2 -75 2 -345 2 94 2 390 2 -739 2 682 3 -5 2 -165 
2 -325 3 197 2 126 2095 2116 100 MP stroke
2 73 2 -1 3 -516 2 469 3 147 2 9 2 -241 3 -62 
2 53 2 99 2 -138 2 42 2 107 3 -274 1 375 2 -110 
2 85 2 -38 1 -155 2 -124 2 188 1 -82 1 120 1 -564 
1 564 1 -80 1 -159 1 -74 0 502 0 -264 -1 -176 0 347 
-1 -86 -1 20 -1 -25 -1 62 -1 -144 -1 -214 -2 316 -1 -65 
-2 252 -2 77 -2 -137 -2 -25 -2 -1161 -2 858 -1 149 -2 234 
-2 71 -3 -93 -2 -168 -2 19 -2 171 -3 22 -3 -52 -3 -101 
-2 -121 -4 55 -3 -5 -3 99 -3 12 -4 -711 -4 585 -4 65 
-4 -122 -4 108 -4 -220 -5 125 -5 123 -4 77 -5 -355 -5 -108 
-5 76 -5 72 -5 282 -5 -129 -5 -100 -5 198 -5 -367 -4 -78 
-5 168 -5 0 -5 -282 -5 8 -5 122 -5 -42 -5 247 -5 36 
-4 -135 -5 202 -5 33 -5 3 -5 -150 -5 -198 -4 296 -5 -8 
-4 95 -5 -212 -4 398 2282 1872 100 MP stroke
-5 -80 -4 -59 -4 -162 -4 273 -5 18 -4 -5 -4 -29 -3 -119 
-4 -25 -4 115 -4 -132 -3 -77 -3 20 -4 79 -3 -141 -2 285 
-3 -11 -2 -31 -2 13 -3 -322 -1 413 -2 -9 -1 28 -1 -323 
-1 -155 -1 158 -1 -270 0 213 1 85 0 -60 1 171 1 -369 
1 514 2 -446 1 60 3 -147 2 -20 3 302 3 52 3 -44 
5 72 4 64 4 -331 5 450 6 -20 6 8 7 -197 7 29 
8 -340 8 30 9 231 9 80 9 101 10 -143 10 -538 11 605 
11 -94 11 232 12 24 12 -325 12 -285 13 414 12 -247 13 216 
14 133 13 -482 13 384 14 -384 14 46 13 226 14 85 13 -247 
14 286 13 -166 13 31 13 -1029 13 683 13 -43 12 414 12 -56 
12 11 11 101 12 -535 10 243 11 143 10 45 9 -209 9 171 
8 313 8 -203 8 131 7 -126 6 -169 6 -140 6 443 5 93 
4 -20 4 -176 4 -903 1764 2979 100 MP stroke
3 1012 3 -42 2 28 2 -194 2 33 1 -154 0 246 0 -187 
1 18 -1 5 -1 111 -1 -51 -1 -367 -2 418 -2 122 -1 -116 
-3 77 -2 -8 -3 123 -3 -479 -3 577 -3 -271 -4 118 -3 112 
-4 -810 -4 391 -3 -56 -4 183 -4 80 -4 -45 -5 -24 -4 -108 
-4 180 -4 -114 -5 -245 -4 9 -5 242 -3 42 -5 83 -4 -67 
-4 -525 -4 610 -6 -18 -4 32 -4 -65 -5 -206 -4 148 -4 -293 
-4 274 -4 86 -4 44 -2 -22 -3 -126 -3 -431 -3 107 -2 360 
-2 12 -2 161 -2 95 -1 -152 -2 153 -2 -229 -1 129 -1 -29 
0 -70 0 36 -1 -180 -1 283 0 70 0 -156 0 127 -1 -27 
0 -97 1 45 0 -829 0 498 2 57 -1 259 1 -378 0 352 
0 -654 0 649 1 -101 -1 7 0 154 1 -138 0 113 -1 -330 
2 22 0 293 0 0 1 -378 2 -893 0 898 2 -264 1 226 
1 -418 1 677 2 101 1910 2038 100 MP stroke
2 -4 1 -28 3 21 3 -289 2 387 3 164 3 138 4 -375 
3 -43 4 -11 5 -174 5 115 4 45 5 206 5 -388 7 227 
4 133 6 -133 6 -252 6 218 7 95 6 -136 7 -22 6 -121 
7 -172 6 254 8 -557 6 417 6 160 6 -50 7 -169 5 50 
5 181 5 -273 5 127 4 100 4 -293 4 408 2 -97 2 -321 
2 471 2 -137 0 -159 0 105 1 -143 -2 116 -1 -3 -2 162 
-1 -1129 -4 859 -2 -11 -3 -61 -3 205 -4 -28 -5 135 -4 8 
-5 93 -4 38 -4 27 -6 -270 -5 -433 -10 40 -4 236 -3 259 
-7 -211 -4 291 -7 -128 -6 -216 -7 -461 -6 759 -6 11 -6 -164 
-7 -205 -6 410 -6 163 -6 -200 -4 178 -7 -207 -12 29 0 -35 
-5 -109 -4 -231 -7 205 -7 -637 -3 438 -7 449 -5 -415 -5 260 
-6 -121 -6 101 -4 -84 -2 112 -6 26 -5 -188 -5 357 -4 -56 
-4 107 -3 -96 -4 -353 1977 2341 100 MP stroke
-2 360 -5 13 -3 -195 -4 -152 -2 157 -2 290 0 -160 -3 -148 
-3 73 1 95 -1 30 -1 -645 -2 195 0 486 0 -79 1 -15 
-1 -174 -2 159 1 93 2 -51 2 -241 4 302 3 -267 1 375 
3 -81 0 -166 4 -185 1 120 3 216 2 -124 4 -437 2 259 
3 -12 3 -117 3 -55 3 385 3 114 3 -144 4 -298 3 406 
3 -85 2 -46 1 -26 6 -53 2 -389 4 486 5 -55 1 22 
6 139 6 -888 3 950 5 -286 4 181 4 13 5 -262 4 400 
5 -346 5 -27 5 -209 2 198 7 415 3 -552 7 -6 6 273 
5 -12 5 7 5 -474 4 621 5 -147 5 177 5 -91 5 126 
5 -32 4 -375 5 -86 5 444 4 -148 4 -31 5 -101 4 182 
5 -183 4 -458 4 535 4 176 4 214 3 -206 4 -157 4 -38 
3 262 4 -186 2 -181 4 210 3 -118 3 228 2 -509 3 365 
2 237 2 29 2 17 1711 1815 100 MP stroke
2 -433 1 -355 1 340 1 104 1 123 1 -251 0 269 2 -131 
3 53 -1 -70 -1 176 0 56 0 -403 0 183 -1 -91 0 376 
-1 -108 0 -291 -1 -37 -1 243 -1 33 -1 -168 -1 265 0 -704 
-2 431 -1 259 -1 -115 -2 53 -1 -140 -4 82 -1 -270 -2 -106 
-2 503 -1 -13 -2 -22 -2 -46 -2 -390 -2 437 -3 -83 -2 159 
-2 47 -2 63 -2 -434 -2 515 0 -53 -5 -250 -2 44 -3 -67 
-4 -58 -3 172 -3 -116 -3 -6 -3 272 -3 -42 -3 -279 -3 -816 
-4 252 -2 432 -3 276 -3 207 -4 -553 -6 290 -2 -121 -2 -2 
-3 -567 -2 445 -4 -135 -1 35 -2 -331 -3 653 -2 -109 -1 -251 
-3 114 0 195 -2 -87 -3 -45 1 245 -1 -649 -1 17 0 247 
-1 215 0 48 1 90 0 5 0 -525 2 352 1 264 0 -216 
1 -101 2 47 0 88 2 -48 2 -218 2 221 2 -147 2 -572 
3 506 2 33 3 -102 1810 2407 100 MP stroke
3 379 4 3 3 -11 4 -27 4 12 4 13 4 -123 4 153 
5 1 5 23 5 92 4 -100 6 -2 4 -176 5 -127 5 239 
6 189 4 14 8 89 4 -155 2 -267 6 0 5 56 5 261 
3 -58 5 92 4 -414 4 -299 4 381 4 61 4 -184 4 -197 
3 4 4 199 4 -169 3 257 3 38 4 51 2 -214 3 -382 
2 507 3 103 2 121 3 98 2 -112 2 -153 2 -368 2 504 
3 24 3 22 0 -564 2 -12 2 -156 3 -25 2 -424 2 465 
2 385 5 -792 1 622 4 263 1 -255 0 -188 2 456 4 288 
2 -305 2 94 2 -12 2 -349 1 480 2 -55 2 -139 2 22 
1 -179 2 -9 1 -85 2 364 1 -234 0 -109 0 87 1 -159 
1 -35 -1 185 1 -213 0 2 -1 -89 0 -378 -1 146 0 397 
-1 46 -1 -59 -1 77 -1 -152 0 -110 -3 250 -1 -233 -2 182 
-2 -18 -1 250 -2 157 1582 2079 100 MP stroke
-5 94 -1 -80 -2 -34 -2 -30 -3 29 -3 -120 -3 98 -4 -224 
-3 102 -4 287 -4 45 -4 -172 -3 25 -4 -78 -5 -115 -3 24 
-4 124 -3 -200 -5 -108 -4 341 -4 -42 -5 168 -3 -125 -4 -67 
-5 156 -5 -475 -3 -168 -5 565 -5 -414 -3 245 -5 -19 -4 -245 
-6 198 -4 135 -4 214 -5 -210 -4 -37 -5 149 -4 -152 -4 21 
-4 -321 -4 573 -4 -148 -5 -316 -4 -117 -3 478 -4 106 -4 -290 
-4 -299 -4 313 -4 25 -4 217 -4 -93 -3 -157 -3 -86 -4 139 
-2 0 -6 -60 -5 -29 -1 -671 -4 555 -3 -94 -4 296 -2 -195 
-4 24 -2 -31 -4 362 -2 65 -4 -47 -2 -216 -3 216 -3 -290 
-4 144 -2 394 -3 -95 -3 -76 -2 -573 -2 273 -3 119 -3 -123 
-1 -15 -3 52 -2 110 -2 -397 -2 -134 -2 397 -2 -105 -1 -276 
-2 470 -1 22 -2 36 -2 -450 -1 -36 0 354 -2 175 -1 -190 
-2 -581 -1 652 0 131 1902 1987 100 MP stroke
-1 -3 -1 -369 0 171 -2 -52 1 -109 0 133 -1 210 -1 143 
1 -25 0 -627 0 360 -1 50 1 23 0 209 0 -579 0 396 
1 -333 0 339 0 -603 1 264 0 378 1 -5 0 88 1 -176 
1 -326 1 179 0 204 1 -102 2 -545 1 367 1 111 1 188 
2 -979 1 369 2 269 1 289 2 -22 3 -305 2 68 2 349 
2 -559 2 313 2 -196 3 408 2 -56 3 257 1 -109 4 -486 
2 126 2 275 3 15 2 91 2 11 3 -22 2 -265 3 -174 
2 -38 2 193 2 373 2 -121 1 136 2 -143 1 -472 0 -438 
2 454 1 -101 0 546 1 118 1 -65 -1 -135 0 -175 -2 -406 
0 299 -2 -54 -2 30 -2 247 -1 -179 -1 179 -2 64 -2 -12 
-3 -131 -4 -252 -2 -130 -4 168 -3 -25 -4 280 -4 61 -4 -143 
-4 221 -4 55 -4 111 -4 -129 -4 133 -4 -370 -4 -27 -5 236 
-4 -11 -4 -123 -4 -328 1912 2465 100 MP stroke
-4 351 -4 -261 -4 249 -4 -393 -4 525 -4 -118 -4 -254 -4 -80 
-3 -28 -4 -9 -4 84 -3 164 -3 -220 -4 111 -3 -237 -3 0 
-3 343 -3 95 -3 -236 -3 57 -3 208 -3 -37 -2 -193 -3 -286 
-2 516 -3 16 -2 121 -2 -18 -2 -442 -2 248 -2 -109 -2 72 
-2 216 -2 -462 -2 431 -1 169 -2 -469 -2 272 -1 94 -1 65 
-2 -196 -1 -547 -2 535 0 -210 -1 -9 -1 455 -1 59 -1 -67 
0 -606 -1 367 -1 -210 0 224 -1 -786 -1 725 0 176 -1 -184 
0 -210 0 430 -1 84 0 107 0 -450 0 175 -1 148 0 31 
0 -103 -1 -392 0 369 -1 24 0 17 -1 -81 0 -438 0 267 
-1 18 0 163 0 -5 1 -368 -3 -229 2 719 1 -116 -3 -67 
2 28 2 76 -3 -267 3 68 1 -75 0 -177 0 213 1 350 
0 -185 1 -59 0 115 0 -177 1 -350 0 278 1 155 1 -216 
1 -379 0 765 1 -3 2034 1931 100 MP stroke
2 75 0 -259 1 -556 3 735 -4 91 -1 -17 3 142 0 -223 
2 -133 1 221 1 -148 2 -152 1 59 1 -8 1 -1 2 -127 
2 265 1 -61 2 -13 2 -342 2 -58 1 -102 2 315 2 17 
2 -21 2 -268 2 473 1 94 2 -190 3 -583 1 215 2 271 
2 37 2 15 1 129 1 -183 3 59 0 -71 2 189 2 -174 
2 -182 2 -258 2 -166 2 169 3 157 3 -7 2 65 3 -197 
2 112 3 -274 3 156 1 105 3 -98 3 -41 2 217 2 220 
3 -63 3 -2 2 -246 3 -23 1 -182 3 138 2 -417 3 35 
2 370 3 452 2 -22 2 189 3 -463 2 195 2 -91 3 121 
2 -41 2 -56 3 248 2 -132 2 -105 2 130 2 157 2 54 
2 -247 1 -141 2 -138 2 65 1 229 2 -120 1 161 1 -30 
2 -340 1 -159 0 400 1 32 1 21 1 16 0 -67 1 -13 
0 186 0 -539 0 346 1864 2333 100 MP stroke
-1 82 0 -193 -1 -11 0 -229 0 615 -1 -285 -1 -328 0 264 
-1 26 0 233 -1 -25 -1 -397 0 254 -2 18 -1 -153 -1 -452 
-1 808 -1 -338 -1 301 -1 147 -1 89 -2 -191 -1 -134 -1 -326 
-2 344 -1 2 -2 -182 -1 -2 -2 312 -1 73 -2 -29 -1 197 
-2 -85 -1 -272 -2 -488 -2 315 -1 397 -2 -54 -2 152 -2 -236 
-2 -183 -2 -294 -2 -275 -1 95 -2 298 -2 144 -1 -61 -2 -16 
-2 1 -1 -68 -2 -42 -1 -75 -1 -712 -2 323 -1 462 -1 -41 
-2 -48 -1 -445 -1 -327 -1 312 -1 -296 -1 295 -2 315 -1 -162 
-1 -416 -1 482 -2 172 -1 -125 -1 -131 -2 -331 -1 288 -1 122 
-2 -70 -2 181 -1 87 -1 107 -2 -536 -1 0 -2 63 -1 36 
0 179 -2 -136 -1 207 -1 23 -1 113 -1 -39 -2 -162 -1 -396 
-1 426 -1 -222 -1 509 -1 -56 -1 -75 -1 -146 0 -637 -1 407 
-1 -21 -1 -176 -1 151 1986 3036 100 MP stroke
0 23 -1 116 0 -554 0 704 -1 52 0 25 -1 -429 0 365 
-1 -494 0 -131 0 614 -1 66 0 -339 -1 280 0 -573 -1 422 
0 59 -1 186 -1 -51 0 -671 -1 453 -1 151 -1 288 0 -45 
-1 3 -1 -160 -1 -237 -1 251 -1 156 -1 170 -1 -182 -1 1 
-2 -234 -2 222 -1 -156 -2 -575 -2 603 -2 431 -1 53 -2 -77 
-2 -106 -2 -307 -2 -7 -2 39 -2 167 -2 -371 -2 332 -2 425 
-1 -1 -2 -492 -1 524 -2 9 -2 -86 -2 -94 -1 63 -2 19 
-2 159 -1 101 -2 -767 -2 411 -2 -182 -1 -361 -2 523 -1 -308 
-2 247 -1 34 -2 79 -2 -50 -1 -413 -2 265 -2 77 -1 -696 
-2 964 -1 181 -1 -711 -1 255 -1 15 0 -286 0 409 1 94 
1 -215 1 -5 1 116 1 -60 2 129 2 45 2 -332 2 629 
2 -104 3 -390 3 320 4 -322 3 84 4 -737 4 655 4 -71 
6 123 4 -88 5 -717 2026 3036 100 MP stroke
4 628 6 13 5 363 6 -131 6 -258 6 190 6 189 5 -172 
6 119 6 128 5 -38 4 -193 4 209 5 -16 5 -68 4 -32 
5 -18 4 134 4 -215 3 -475 4 535 3 -7 4 9 1 71 
5 -75 4 -209 2 366 1 -514 0 400 1 114 0 214 1 -18 
0 -44 -1 -158 0 -124 -1 -154 -1 259 -1 197 -1 80 0 -222 
-1 -275 0 -250 -2 476 0 -188 0 151 1 -441 -1 249 -1 128 
-1 -140 1 305 0 26 0 -367 1 162 0 -383 1 565 0 2 
1 -340 2 -203 2 316 1 -285 2 533 2 -49 2 -154 3 -969 
2 1005 3 284 3 -173 3 -521 4 434 3 -85 4 71 4 -68 
3 -70 4 192 4 101 4 -247 4 -97 5 397 5 66 4 -139 
5 -344 5 -316 5 481 5 -33 5 81 6 116 6 -199 5 -45 
6 -42 6 228 6 -453 6 136 5 93 6 -275 6 -180 6 125 
5 721 6 -343 5 -225 1729 2414 100 MP stroke
5 429 6 -496 5 3 5 -775 6 960 5 311 5 76 4 -227 
5 -118 5 146 5 64 6 -118 2 219 5 -110 1 -34 2 -221 
5 170 1 140 4 97 4 24 1 -215 3 -49 3 43 2 -227 
2 241 2 211 2 -1 2 -238 1 -307 1 -380 1 144 1 165 
1 30 1 102 0 53 1 2 0 -249 1 -21 0 16 -1 -330 
-1 162 -1 259 -1 30 -1 -123 -1 -128 -1 493 -2 162 -2 -219 
-2 -35 -3 164 -1 263 -3 9 -2 -529 -3 136 -3 358 -3 -419 
-3 -265 -3 343 -2 -318 -3 145 -3 -100 -3 506 -2 43 -2 -729 
-2 611 -2 -32 -2 -3 -2 11 -1 -1223 0 753 -1 266 -1 101 
0 -214 1 -64 0 215 1 150 1 -61 1 -326 1 414 2 -79 
2 -389 2 403 3 -6 3 -102 3 122 3 133 3 -36 4 -621 
4 239 3 257 4 -85 4 117 4 -41 4 -174 4 137 4 150 
3 18 4 -231 4 -505 1609 2771 100 MP stroke
3 837 4 99 4 -37 3 -432 3 375 3 -38 2 -236 2 -38 
3 -357 3 141 1 212 2 -335 1 226 2 -190 1 448 1 -171 
2 52 1 -177 0 28 2 -229 1 68 0 -444 0 536 1 -195 
-1 -551 1 941 0 -403 0 466 -1 -78 0 -298 -1 429 -1 -455 
0 -92 -1 168 -2 -51 -1 362 -1 301 -2 42 -2 -107 -2 -377 
0 237 -2 189 -2 159 -2 -58 -1 -106 -2 -282 -2 -274 -2 316 
-2 339 -1 8 -1 -257 -2 -252 -1 151 -2 21 -1 -465 -1 67 
0 215 0 -80 -1 -50 1 124 0 -642 -1 588 -1 505 7 -381 
1 142 0 -165 0 204 1 -29 0 4 1 -248 1 -435 1 366 
1 26 2 166 2 -181 2 218 1 -400 2 296 2 -89 2 -172 
2 354 1 -52 2 250 2 -139 1 -378 2 299 1 418 2 -19 
1 -531 0 -38 1 55 1 140 1 56 0 -182 0 232 1 -110 
0 -17 0 36 -1 -269 1561 2451 100 MP stroke
0 -254 -1 608 -1 -351 -1 48 -1 -38 -1 -215 -1 148 -2 -175 
-1 -447 -1 16 -2 -990 -2 1504 -1 -414 -3 118 -1 265 -2 -387 
-3 89 -2 637 -2 -117 -2 165 -1 -168 -3 87 -1 -276 -2 299 
-2 24 -2 -223 -1 317 -2 -63 -1 -28 -2 68 -1 -39 -2 -267 
-1 -19 -1 -203 -1 193 -1 19 0 566 0 -243 -2 142 0 -450 
-1 203 0 -100 0 333 1 -4 0 -194 0 36 1 -312 0 360 
1 -27 1 227 0 4 2 -519 1 502 1 60 2 -366 1 144 
2 -235 1 244 2 -101 2 56 1 93 2 -69 2 -52 2 -62 
2 -387 1 419 2 43 2 -46 1 -144 2 -336 1 291 1 36 
2 262 1 180 1 -348 1 180 1 -25 0 -177 1 0 0 352 
0 -51 -1 -809 1 549 -1 344 0 -249 -1 170 0 -434 -1 -68 
0 -100 -1 215 0 92 -1 105 0 -76 2 14 -1 -191 0 -309 
-1 -374 1 427 -1 33 1579 2696 100 MP stroke
0 58 0 -371 1 -20 0 -182 1 435 1 309 0 175 1 -172 
0 -382 2 484 1 126 1 -571 0 296 1 132 1 -29 1 -672 
1 842 1 -229 2 232 1 -31 1 52 1 233 1 -339 1 157 
0 -195 1 65 1 -13 1 54 1 211 1 -133 1 148 1 -555 
1 512 -2 -32 -1 -247 1 90 3 7 2 336 -1 -694 1 540 
0 36 0 -410 -1 375 0 -212 1 -353 -1 -137 -1 450 0 97 
-1 144 0 -121 -1 -100 -1 60 -1 72 -1 100 -1 -3 -1 -55 
-2 33 0 -226 -2 -357 -2 -227 -2 547 -1 105 -2 109 -2 27 
-1 -179 -3 24 -1 106 -2 -449 -4 77 -2 -44 -4 -282 -3 628 
-3 13 -4 -188 -3 -1 -4 -216 -4 -193 -4 386 -4 29 -5 188 
-3 218 -5 -36 -5 -333 -4 512 -4 -248 -5 -90 -4 -281 -4 224 
-4 -8 -5 58 -4 -153 -4 104 -5 -75 -4 65 -4 -330 -4 -123 
-5 510 -4 -49 -4 -32 1702 2283 100 MP stroke
-4 -211 -4 485 -5 -58 -4 -270 -4 368 -4 -142 -4 -298 -4 50 
-4 -108 -3 40 -4 -143 -4 183 -3 130 -3 -114 -3 105 -3 -118 
-3 -46 -3 428 -3 -46 -9 -273 -2 -79 -3 111 -1 89 -2 54 
-2 51 -1 58 7 -37 -1 14 0 -89 -1 -184 0 -661 1 278 
0 127 1 40 1 24 1 9 2 -26 1 109 2 -110 2 -102 
1 -194 3 20 3 254 2 176 3 -18 3 218 4 178 3 -304 
4 -35 4 11 4 -75 5 -72 5 230 4 222 5 200 5 -340 
6 -154 5 233 5 -62 6 -131 6 -896 6 578 6 73 5 224 
6 71 6 -223 6 185 6 -57 5 291 7 -317 5 79 5 -227 
6 185 5 -1 4 -152 5 341 5 34 4 8 4 -695 5 456 
4 -107 4 -406 2 259 3 -13 3 269 2 -127 3 39 2 -317 
2 -313 1 320 2 -290 1 719 1 -161 1 -597 0 853 0 -102 
-1 5 0 121 -1 -230 1559 2409 100 MP stroke
-1 -16 -1 127 -1 -71 -2 277 -1 77 -2 -298 -2 144 -2 24 
-2 -40 -3 11 -2 -162 -1 -252 -5 -244 -1 592 -3 -440 -3 37 
-2 608 -5 -417 -3 288 -3 50 -3 -293 -3 199 -4 119 -3 -16 
-4 -117 -3 -459 -4 240 -3 220 -5 -210 -3 30 -4 353 -4 -325 
-4 11 -3 -475 -3 568 -4 366 -4 6 -3 -255 -3 -80 -3 99 
-3 -10 -3 0 -3 51 -2 -83 -3 261 -3 -270 -1 50 -2 174 
-2 -67 -1 -346 -1 212 -1 31 -1 -464 1 291 0 303 1 -331 
1 -8 1 280 2 67 2 -46 2 164 2 -86 3 -263 3 -74 
3 36 3 -27 3 113 4 239 3 -152 4 -452 4 -69 4 513 
4 -149 5 80 4 -63 4 -93 5 -17 4 -133 4 275 4 -742 
5 634 4 139 4 -508 4 42 4 334 4 -26 4 51 4 -262 
4 329 3 165 4 0 3 -281 3 161 3 -229 4 42 2 -137 
3 385 3 20 2 -55 1553 2134 100 MP stroke
2 10 2 -174 2 251 1 -268 1 -637 1 320 1 173 2 277 
0 -170 0 21 -1 71 0 128 -1 -215 -2 -103 0 243 -2 -187 
-2 -571 -2 202 -2 210 -2 34 -2 245 -2 192 -2 -232 -1 69 
-3 -68 -2 25 -1 -21 -2 273 -1 -364 -2 234 0 63 -2 -38 
0 50 -1 -443 -1 443 1 -669 -1 225 0 -59 0 360 -1 -148 
1 91 2 184 0 -60 1 -547 1 278 1 152 1 -271 1 -473 
1 276 1 172 1 403 1 225 0 -92 1 -576 1 420 0 278 
0 -870 0 434 -1 -362 -1 495 -1 -104 -2 -100 -2 -110 -2 -49 
-2 401 -3 78 -3 105 -2 -491 -4 123 -4 301 -3 69 -4 -342 
-4 260 -5 -650 -4 -152 -5 580 -5 95 -5 -359 -6 112 -6 447 
-5 -178 -6 -207 -7 -94 -6 -49 -6 515 -7 64 -6 -118 -7 -496 
-6 640 -7 -175 -6 -6 -7 -104 -7 -710 -6 748 -6 -54 -7 -281 
-6 317 -6 -85 -6 297 1758 1987 100 MP stroke
-5 -86 -7 202 -6 -521 -5 139 -6 -118 -5 170 -5 -42 -5 99 
-5 -19 -7 -85 -5 122 -4 -80 -5 -27 -4 -31 -3 131 -5 295 
-3 -214 -3 -32 -3 -224 -3 -25 -4 67 -2 289 -3 48 -3 -324 
-2 317 -3 -352 -2 -301 -2 360 -3 79 -2 -334 -2 245 -2 154 
-2 -484 -2 242 -2 200 -1 -20 -2 -214 -2 133 -2 -33 -1 254 
-2 195 -1 -428 1 -77 -3 -228 0 396 -2 -13 -2 -254 -2 140 
-1 -63 -2 220 -1 -301 0 328 -3 -316 -2 89 -2 -92 -2 257 
-2 -140 -2 -290 -2 -234 -2 593 -2 -302 -1 -22 -2 122 -1 300 
-2 -389 -1 325 -1 -224 0 -356 -1 474 -1 117 -1 -663 0 416 
0 -10 1 349 0 100 1 18 2 -299 1 248 1 -331 1 200 
2 6 1 23 2 147 3 -441 2 189 3 15 3 -416 2 446 
3 -36 4 31 4 319 2 -132 3 -237 3 55 4 236 4 18 
3 78 3 -452 4 131 1879 2172 100 MP stroke
3 110 3 -191 3 366 4 72 3 0 3 -141 3 -379 3 238 
3 -11 3 32 3 62 2 -87 2 -14 3 0 2 -96 2 -45 
2 224 2 19 2 -121 2 166 1 -171 2 110 1 -367 2 343 
2 175 2 -206 1 -174 2 212 2 -268 1 191 2 -610 2 661 
3 201 2 -47 1 -175 3 74 2 -362 2 294 2 55 2 -182 
3 18 2 163 3 82 2 75 2 -221 3 -161 3 369 3 -131 
2 9 3 -48 3 -11 3 -371 3 -40 3 464 3 -198 3 -245 
3 489 4 72 3 -203 4 164 3 -428 3 71 3 300 4 22 
3 -254 5 -341 0 495 3 -248 3 -5 3 -385 3 444 2 91 
3 28 3 -766 2 868 3 -264 2 225 3 21 2 -12 4 -218 
3 -269 2 184 2 -12 3 74 2 -420 2 239 1 278 2 275 
2 115 1 -197 1 -199 1 185 1 -449 1 388 0 184 1 -288 
1 208 1 70 0 -154 1647 2082 100 MP stroke
1 68 0 48 0 -50 -1 -104 1 207 -1 -110 0 125 -1 -92 
0 -204 -1 52 0 -229 -1 -69 -1 253 0 244 -1 -23 -1 55 
-2 8 -1 -193 -1 -172 -1 -335 -1 583 -2 -451 -1 446 -2 -91 
-1 136 -1 -229 -1 -159 -2 45 -2 -153 -2 82 -1 -193 -2 -14 
-2 -122 -2 68 -1 90 -2 -460 -3 570 -2 -33 -2 -278 -2 -82 
-2 -267 -2 -613 -2 332 -2 177 -1 61 -2 385 -2 43 -2 297 
-1 -24 -2 -42 -1 -348 -2 69 -1 35 -1 290 -2 129 -1 81 
-1 48 -1 71 0 21 -1 -82 -1 -102 0 -430 -1 600 0 580 
1 84 1722 1453 66 MP stroke
gr

c8
0 sg
%%IncludeResource: font Helvetica
/Helvetica /WindowsLatin1Encoding 120 FMSR

1588  294 mt 
(Experiment 3b - Digital magnetometers - Standard deviation \
of orientation) s
2502 4902 mt 
(Distance to center of sensor network [m]) s
 558 3114 mt  -90 rotate
(sqrt\(Variance\) [degree]) s
90 rotate

end %%Color Dict

eplot
%%EndObject

epage
end

showpage

%%Trailer
%%EOF
