%!PS-Adobe-2.0 EPSF-1.2
%%Creator: MATLAB, The MathWorks, Inc. Version 7.13.0.564 (R2011b). Operating System: Microsoft Windows 7.
%%Title: ..\figures\_oridigital_ort_std.eps
%%CreationDate: 01/09/2013  18:28:14
%%DocumentNeededFonts: Helvetica
%%DocumentProcessColors: Cyan Magenta Yellow Black
%%Extensions: CMYK
%%Pages: 1
%%BoundingBox:    52   199   552   602
%%EndComments

%%BeginProlog
% MathWorks dictionary
/MathWorks 160 dict begin
% definition operators
/bdef {bind def} bind def
/ldef {load def} bind def
/xdef {exch def} bdef
/xstore {exch store} bdef
% operator abbreviations
/c  /clip ldef
/cc /concat ldef
/cp /closepath ldef
/gr /grestore ldef
/gs /gsave ldef
/mt /moveto ldef
/np /newpath ldef
/cm /currentmatrix ldef
/sm /setmatrix ldef
/rm /rmoveto ldef
/rl /rlineto ldef
/s {show newpath} bdef
/sc {setcmykcolor} bdef
/sr /setrgbcolor ldef
/sg /setgray ldef
/w /setlinewidth ldef
/j /setlinejoin ldef
/cap /setlinecap ldef
/rc {rectclip} bdef
/rf {rectfill} bdef
% page state control
/pgsv () def
/bpage {/pgsv save def} bdef
/epage {pgsv restore} bdef
/bplot /gsave ldef
/eplot {stroke grestore} bdef
% orientation switch
/portraitMode 0 def /landscapeMode 1 def /rotateMode 2 def
% coordinate system mappings
/dpi2point 0 def
% font control
/FontSize 0 def
/FMS {/FontSize xstore findfont [FontSize 0 0 FontSize neg 0 0]
  makefont setfont} bdef
/ISOLatin1Encoding where {pop /WindowsLatin1Encoding 256 array bdef
ISOLatin1Encoding WindowsLatin1Encoding copy pop
/.notdef/.notdef/quotesinglbase/florin/quotedblbase/ellipsis/dagger
/daggerdbl/circumflex/perthousand/Scaron/guilsinglleft/OE/.notdef/.notdef
/.notdef/.notdef/quoteleft/quoteright/quotedblleft/quotedblright/bullet
/endash/emdash/tilde/trademark/scaron/guilsinglright/oe/.notdef/.notdef
/Ydieresis WindowsLatin1Encoding 128 32 getinterval astore pop}
{/WindowsLatin1Encoding StandardEncoding bdef} ifelse
/reencode {exch dup where {pop load} {pop StandardEncoding} ifelse
  exch dup 3 1 roll findfont dup length dict begin
  { 1 index /FID ne {def}{pop pop} ifelse } forall
  /Encoding exch def currentdict end definefont pop} bdef
/isroman {findfont /CharStrings get /Agrave known} bdef
/FMSR {3 1 roll 1 index dup isroman {reencode} {pop pop} ifelse
  exch FMS} bdef
/csm {1 dpi2point div -1 dpi2point div scale neg translate
 dup landscapeMode eq {pop -90 rotate}
  {rotateMode eq {90 rotate} if} ifelse} bdef
% line types: solid, dotted, dashed, dotdash
/SO { [] 0 setdash } bdef
/DO { [.5 dpi2point mul 4 dpi2point mul] 0 setdash } bdef
/DA { [6 dpi2point mul] 0 setdash } bdef
/DD { [.5 dpi2point mul 4 dpi2point mul 6 dpi2point mul 4
  dpi2point mul] 0 setdash } bdef
% macros for lines and objects
/L {lineto stroke} bdef
/MP {3 1 roll moveto 1 sub {rlineto} repeat} bdef
/AP {{rlineto} repeat} bdef
/PDlw -1 def
/W {/PDlw currentlinewidth def setlinewidth} def
/PP {closepath eofill} bdef
/DP {closepath stroke} bdef
/MR {4 -2 roll moveto dup  0 exch rlineto exch 0 rlineto
  neg 0 exch rlineto closepath} bdef
/FR {MR stroke} bdef
/PR {MR fill} bdef
/L1i {{currentfile picstr readhexstring pop} image} bdef
/tMatrix matrix def
/MakeOval {newpath tMatrix currentmatrix pop translate scale
0 0 1 0 360 arc tMatrix setmatrix} bdef
/FO {MakeOval stroke} bdef
/PO {MakeOval fill} bdef
/PD {currentlinewidth 2 div 0 360 arc fill
   PDlw -1 eq not {PDlw w /PDlw -1 def} if} def
/FA {newpath tMatrix currentmatrix pop translate scale
  0 0 1 5 -2 roll arc tMatrix setmatrix stroke} bdef
/PA {newpath tMatrix currentmatrix pop	translate 0 0 moveto scale
  0 0 1 5 -2 roll arc closepath tMatrix setmatrix fill} bdef
/FAn {newpath tMatrix currentmatrix pop translate scale
  0 0 1 5 -2 roll arcn tMatrix setmatrix stroke} bdef
/PAn {newpath tMatrix currentmatrix pop translate 0 0 moveto scale
  0 0 1 5 -2 roll arcn closepath tMatrix setmatrix fill} bdef
/vradius 0 def /hradius 0 def /lry 0 def
/lrx 0 def /uly 0 def /ulx 0 def /rad 0 def
/MRR {/vradius xdef /hradius xdef /lry xdef /lrx xdef /uly xdef
  /ulx xdef newpath tMatrix currentmatrix pop ulx hradius add uly
  vradius add translate hradius vradius scale 0 0 1 180 270 arc 
  tMatrix setmatrix lrx hradius sub uly vradius add translate
  hradius vradius scale 0 0 1 270 360 arc tMatrix setmatrix
  lrx hradius sub lry vradius sub translate hradius vradius scale
  0 0 1 0 90 arc tMatrix setmatrix ulx hradius add lry vradius sub
  translate hradius vradius scale 0 0 1 90 180 arc tMatrix setmatrix
  closepath} bdef
/FRR {MRR stroke } bdef
/PRR {MRR fill } bdef
/MlrRR {/lry xdef /lrx xdef /uly xdef /ulx xdef /rad lry uly sub 2 div def
  newpath tMatrix currentmatrix pop ulx rad add uly rad add translate
  rad rad scale 0 0 1 90 270 arc tMatrix setmatrix lrx rad sub lry rad
  sub translate rad rad scale 0 0 1 270 90 arc tMatrix setmatrix
  closepath} bdef
/FlrRR {MlrRR stroke } bdef
/PlrRR {MlrRR fill } bdef
/MtbRR {/lry xdef /lrx xdef /uly xdef /ulx xdef /rad lrx ulx sub 2 div def
  newpath tMatrix currentmatrix pop ulx rad add uly rad add translate
  rad rad scale 0 0 1 180 360 arc tMatrix setmatrix lrx rad sub lry rad
  sub translate rad rad scale 0 0 1 0 180 arc tMatrix setmatrix
  closepath} bdef
/FtbRR {MtbRR stroke } bdef
/PtbRR {MtbRR fill } bdef
/stri 6 array def /dtri 6 array def
/smat 6 array def /dmat 6 array def
/tmat1 6 array def /tmat2 6 array def /dif 3 array def
/asub {/ind2 exch def /ind1 exch def dup dup
  ind1 get exch ind2 get sub exch } bdef
/tri_to_matrix {
  2 0 asub 3 1 asub 4 0 asub 5 1 asub
  dup 0 get exch 1 get 7 -1 roll astore } bdef
/compute_transform {
  dmat dtri tri_to_matrix tmat1 invertmatrix 
  smat stri tri_to_matrix tmat2 concatmatrix } bdef
/ds {stri astore pop} bdef
/dt {dtri astore pop} bdef
/db {2 copy /cols xdef /rows xdef mul dup 3 mul string
  currentfile exch readhexstring pop
  dup 0 3 index getinterval /rbmap xdef
  dup 2 index dup getinterval /gbmap xdef
  1 index dup 2 mul exch getinterval /bbmap xdef pop pop}bdef
/it {gs np dtri aload pop moveto lineto lineto cp c
  cols rows 8 compute_transform 
  rbmap gbmap bbmap true 3 colorimage gr}bdef
/il {newpath moveto lineto stroke}bdef
currentdict end def
%%EndProlog

%%BeginSetup
MathWorks begin

0 cap

end
%%EndSetup

%%Page: 1 1
%%BeginPageSetup
%%PageBoundingBox:    52   199   552   602
MathWorks begin
bpage
%%EndPageSetup

%%BeginObject: obj1
bplot

/dpi2point 12 def
portraitMode 0204 7344 csm

  422   110  5999  4844 MR c np
85 dict begin %Colortable dictionary
/c0 { 0.000000 0.000000 0.000000 sr} bdef
/c1 { 1.000000 1.000000 1.000000 sr} bdef
/c2 { 0.900000 0.000000 0.000000 sr} bdef
/c3 { 0.000000 0.820000 0.000000 sr} bdef
/c4 { 0.000000 0.000000 0.800000 sr} bdef
/c5 { 0.910000 0.820000 0.320000 sr} bdef
/c6 { 1.000000 0.260000 0.820000 sr} bdef
/c7 { 0.000000 0.820000 0.820000 sr} bdef
c0
1 j
1 sg
   0    0 6913 5185 PR
6 w
0 4225 5356 0 0 -4225 899 4614 4 MP
PP
-5356 0 0 4225 5356 0 0 -4225 899 4614 5 MP stroke
4 w
DO
SO
6 w
0 sg
 899  389 mt 6255  389 L
 899 4614 mt 6255 4614 L
6255 4614 mt 6255  389 L
 899 4614 mt  899  389 L
 899 4614 mt 6255 4614 L
 899 4614 mt  899  389 L
 899 4614 mt  899 4560 L
 899  389 mt  899  442 L
%%IncludeResource: font Helvetica
/Helvetica /WindowsLatin1Encoding 120 FMSR

 816 4759 mt 
(0.1) s
1970 4614 mt 1970 4560 L
1970  389 mt 1970  442 L
1854 4759 mt 
(0.15) s
3041 4614 mt 3041 4560 L
3041  389 mt 3041  442 L
2958 4759 mt 
(0.2) s
4112 4614 mt 4112 4560 L
4112  389 mt 4112  442 L
3996 4759 mt 
(0.25) s
5183 4614 mt 5183 4560 L
5183  389 mt 5183  442 L
5100 4759 mt 
(0.3) s
6255 4614 mt 6255 4560 L
6255  389 mt 6255  442 L
6139 4759 mt 
(0.35) s
 899 4614 mt  925 4614 L
6255 4614 mt 6228 4614 L
 899 4614 mt  952 4614 L
6255 4614 mt 6201 4614 L
 640 4658 mt 
(10) s
%%IncludeResource: font Helvetica
/Helvetica /WindowsLatin1Encoding 80 FMSR

 773 4584 mt 
(-3) s
 899 4296 mt  925 4296 L
6255 4296 mt 6228 4296 L
 899 4110 mt  925 4110 L
6255 4110 mt 6228 4110 L
 899 3978 mt  925 3978 L
6255 3978 mt 6228 3978 L
 899 3875 mt  925 3875 L
6255 3875 mt 6228 3875 L
 899 3792 mt  925 3792 L
6255 3792 mt 6228 3792 L
 899 3721 mt  925 3721 L
6255 3721 mt 6228 3721 L
 899 3660 mt  925 3660 L
6255 3660 mt 6228 3660 L
 899 3606 mt  925 3606 L
6255 3606 mt 6228 3606 L
 899 3557 mt  925 3557 L
6255 3557 mt 6228 3557 L
 899 3557 mt  952 3557 L
6255 3557 mt 6201 3557 L
%%IncludeResource: font Helvetica
/Helvetica /WindowsLatin1Encoding 120 FMSR

 640 3601 mt 
(10) s
%%IncludeResource: font Helvetica
/Helvetica /WindowsLatin1Encoding 80 FMSR

 773 3527 mt 
(-2) s
 899 3239 mt  925 3239 L
6255 3239 mt 6228 3239 L
 899 3053 mt  925 3053 L
6255 3053 mt 6228 3053 L
 899 2921 mt  925 2921 L
6255 2921 mt 6228 2921 L
 899 2819 mt  925 2819 L
6255 2819 mt 6228 2819 L
 899 2735 mt  925 2735 L
6255 2735 mt 6228 2735 L
 899 2665 mt  925 2665 L
6255 2665 mt 6228 2665 L
 899 2603 mt  925 2603 L
6255 2603 mt 6228 2603 L
 899 2549 mt  925 2549 L
6255 2549 mt 6228 2549 L
 899 2501 mt  925 2501 L
6255 2501 mt 6228 2501 L
 899 2501 mt  952 2501 L
6255 2501 mt 6201 2501 L
%%IncludeResource: font Helvetica
/Helvetica /WindowsLatin1Encoding 120 FMSR

 640 2545 mt 
(10) s
%%IncludeResource: font Helvetica
/Helvetica /WindowsLatin1Encoding 80 FMSR

 773 2471 mt 
(-1) s
 899 2183 mt  925 2183 L
6255 2183 mt 6228 2183 L
 899 1997 mt  925 1997 L
6255 1997 mt 6228 1997 L
 899 1865 mt  925 1865 L
6255 1865 mt 6228 1865 L
 899 1763 mt  925 1763 L
6255 1763 mt 6228 1763 L
 899 1679 mt  925 1679 L
6255 1679 mt 6228 1679 L
 899 1608 mt  925 1608 L
6255 1608 mt 6228 1608 L
 899 1547 mt  925 1547 L
6255 1547 mt 6228 1547 L
 899 1493 mt  925 1493 L
6255 1493 mt 6228 1493 L
 899 1445 mt  925 1445 L
6255 1445 mt 6228 1445 L
 899 1445 mt  952 1445 L
6255 1445 mt 6201 1445 L
%%IncludeResource: font Helvetica
/Helvetica /WindowsLatin1Encoding 120 FMSR

 640 1489 mt 
(10) s
%%IncludeResource: font Helvetica
/Helvetica /WindowsLatin1Encoding 80 FMSR

 773 1415 mt 
(0) s
 899 1127 mt  925 1127 L
6255 1127 mt 6228 1127 L
 899  941 mt  925  941 L
6255  941 mt 6228  941 L
 899  809 mt  925  809 L
6255  809 mt 6228  809 L
 899  706 mt  925  706 L
6255  706 mt 6228  706 L
 899  623 mt  925  623 L
6255  623 mt 6228  623 L
 899  552 mt  925  552 L
6255  552 mt 6228  552 L
 899  491 mt  925  491 L
6255  491 mt 6228  491 L
 899  437 mt  925  437 L
6255  437 mt 6228  437 L
 899  389 mt  925  389 L
6255  389 mt 6228  389 L
 899  389 mt  952  389 L
6255  389 mt 6201  389 L
%%IncludeResource: font Helvetica
/Helvetica /WindowsLatin1Encoding 120 FMSR

 640  433 mt 
(10) s
%%IncludeResource: font Helvetica
/Helvetica /WindowsLatin1Encoding 80 FMSR

 773  359 mt 
(1) s
 899  389 mt 6255  389 L
 899 4614 mt 6255 4614 L
6255 4614 mt 6255  389 L
 899 4614 mt  899  389 L
gs 899 389 5357 4226 MR c np
/c8 { 0.000000 0.000000 1.000000 sr} bdef
c8
6 4 5 -11 4 -15 2 -27 13 54 1 -55 4 -71 5 -61 
2 -126 -1 -231 8 -56 14 156 -1 -457 7 -395 4 -10 5 44 
4 309 6 -88 6 -26 4 110 2 -61 10 -416 9 -221 6 371 
9 -94 1 -504 4 735 7 -206 11 -94 8 317 3 49 10 -71 
-1 -472 14 30 9 516 4 184 9 -127 6 -678 3 -27 2 802 
17 -507 8 -341 2 699 14 -194 2 -41 5 -362 3 661 11 -67 
14 -772 2 -2 10 514 2 27 10 -347 5 38 5 253 17 241 
5 -209 14 -164 11 340 -6 -541 8 433 7 -48 15 -550 6 448 
7 -77 3 358 18 -182 0 73 12 121 8 6 17 -305 3 -421 
7 593 6 -105 11 -12 20 503 8 -334 12 -157 4 -540 10 844 
8 142 8 -13 20 -361 13 -55 18 -188 21 59 -6 481 7 71 
13 -189 22 250 8 -91 12 84 6 81 23 156 10 67 0 139 
27 -370 10 318 13 46 3076 1551 100 MP stroke
9 53 14 45 11 -274 12 -157 11 -123 28 125 14 74 4 392 
18 99 10 -219 15 -278 12 -196 18 315 13 142 16 -95 16 148 
13 -420 11 66 13 -184 13 521 14 230 16 -287 9 -121 22 -758 
12 835 18 -335 11 612 13 -222 13 -219 13 -632 9 571 18 219 
17 -184 13 -194 12 428 16 -600 11 774 11 65 13 -265 10 -302 
13 257 15 19 13 -280 13 394 10 336 10 -897 10 341 12 -312 
11 621 13 -626 10 767 11 -99 12 -411 12 200 8 142 9 22 
7 -342 10 -306 8 416 14 -179 7 58 8 -166 7 366 11 80 
6 -39 11 -541 0 250 9 -415 8 374 11 99 2 56 7 -47 
8 -149 6 241 3 105 5 -273 4 -6 8 296 5 -506 7 404 
-3 239 7 -469 2 81 5 -906 -3 1110 -1 -1026 0 637 3 6 
0 116 -3 -12 -2 206 0 -206 -4 196 -3 9 -7 -197 -2 -34 
-1 203 -10 36 -6 -246 2208 1909 100 MP stroke
-8 569 -5 139 -8 -389 -9 65 -10 -39 -6 335 -10 -347 -9 180 
-12 -300 -10 -534 -12 661 -11 278 -14 -276 -10 208 -14 -28 -12 -201 
-14 -73 -15 438 -15 -126 -15 -315 -12 -198 -14 533 -19 -363 -13 -326 
-20 81 -17 160 -6 68 -24 -161 -13 -549 -17 579 -14 34 -16 421 
-22 -197 -16 99 -17 -117 -16 -25 -14 61 -21 17 -20 -82 -16 129 
-22 -92 -24 -513 -8 766 -17 -195 -21 -287 -14 -74 -18 219 -15 0 
-23 93 -13 -442 -33 566 -6 112 -13 37 -19 -328 -21 428 -13 99 
-29 -111 -13 -468 -8 -185 -20 98 -15 29 -18 192 -17 304 -19 -12 
-15 -194 -15 -252 -14 217 -23 -67 -16 -71 -10 201 -25 -261 -11 173 
-18 -298 -12 278 -12 -67 -18 170 -11 -338 -21 221 -10 115 -14 -442 
-11 445 -16 -270 -10 165 -17 -179 -20 -654 -11 820 -15 -31 -9 63 
-13 -661 -14 403 -13 -388 -10 304 -14 -234 -13 13 -19 497 -10 21 
-15 -31 -8 -263 -14 107 3670 1752 100 MP stroke
-9 -260 -20 31 -16 350 -9 105 -12 -37 -12 -291 -11 -167 -13 118 
-16 -12 -20 -313 -9 -61 -2 6 -23 420 -7 -109 -9 -306 -23 -243 
-8 77 -12 58 -8 -82 -8 81 -9 571 -17 -292 -22 54 0 -83 
-17 86 -9 -482 -16 -24 -15 452 -5 -11 -12 -410 -12 -367 -10 273 
-13 198 -10 -45 -12 111 -6 503 -15 -721 -13 119 -9 167 -21 -114 
-9 203 -5 -56 -12 -144 -10 -135 -16 -231 1 286 -14 -4 -6 52 
-13 -135 -4 -324 -15 346 -8 -537 -5 -199 -8 501 -15 113 -3 87 
0 814 -9 -160 -17 -107 -5 -130 -6 -141 -5 -452 -7 258 -14 131 
-1 -982 -2 661 -10 377 2 -482 -12 227 -1 -197 -4 214 -4 -109 
-1 1002 -4 -325 -16 -144 0 -492 -4 275 -1 -174 -4 192 0 -224 
-4 -172 0 126 -9 286 -1 -328 -1 118 -3 -56 -2 -150 2 -419 
-5 630 -3 -108 -1 199 1 195 -2 2 0 4 -3 47 4 -695 
1 327 0 323 0 -101 4453 2319 100 MP stroke
1 -273 -1 238 3 -54 1 76 3 57 2 81 2 -276 4 -65 
2 107 2 168 6 111 5 -120 5 -149 1 -85 8 483 1 108 
10 -110 5 -718 7 208 6 -424 9 -507 10 882 6 406 6 400 
17 -224 13 136 4 -504 12 273 11 379 12 155 16 -191 14 -110 
3 267 18 -36 8 19 9 -172 13 -19 11 -107 15 -93 17 5 
10 -50 14 -73 16 23 16 -75 9 -58 16 -37 12 467 16 -242 
14 -250 7 339 17 -103 18 -497 13 141 12 -264 16 35 11 144 
17 329 16 -390 16 398 10 -194 11 143 10 -29 17 -205 11 -64 
26 86 11 203 5 45 21 307 10 -99 7 -323 14 -213 8 617 
22 -589 13 72 17 212 2 358 11 -25 20 -545 10 416 11 -143 
5 106 13 88 16 177 9 -49 22 59 0 105 22 -27 13 -62 
12 88 11 122 13 -55 16 340 17 -140 8 94 15 -311 15 -975 
20 807 14 -352 8 203 3374 1912 100 MP stroke
17 369 16 -237 21 451 15 -325 14 102 13 -131 20 -74 19 -79 
14 12 18 -322 17 654 18 99 18 -450 17 286 13 -859 14 502 
25 289 20 -600 13 463 17 -39 19 -101 17 -93 20 382 13 -9 
29 -552 9 432 17 61 22 -206 16 -341 19 48 15 424 19 413 
12 -89 24 -341 16 69 17 -57 17 -413 17 557 20 -106 18 -1056 
16 1285 18 26 17 -270 16 2 19 -498 22 760 19 62 13 -595 
21 286 31 71 2 -42 16 -467 19 319 16 101 19 128 16 206 
21 -229 28 45 1 -242 18 111 17 -286 20 -315 18 594 16 186 
16 164 18 -542 19 549 18 -77 18 -568 17 483 17 -239 18 -135 
20 8 19 -41 17 279 19 -270 21 -294 16 70 19 -8 13 -459 
28 734 18 401 4 0 21 -648 17 669 20 -250 26 -153 2 248 
19 -209 17 327 16 -491 14 232 15 -817 14 733 17 -64 11 -537 
27 469 12 505 10 -181 1667 1653 100 MP stroke
2 -305 9 287 19 -359 9 323 17 181 12 -730 16 -310 11 207 
13 781 12 -474 15 469 10 206 17 -463 10 7 14 248 16 227 
15 -185 17 -185 9 36 11 -192 11 -5 8 -92 10 487 11 102 
9 -205 6 -47 0 258 15 -489 13 223 5 60 9 -436 1 192 
8 -259 3 529 3 60 1 -131 5 -61 2 188 0 -371 -17 335 
4 129 -9 -168 26 -164 3 415 -11 -449 3 396 -18 -270 -30 -102 
-2 -440 -11 564 -6 -272 -10 151 -9 -32 -11 -132 -10 321 -11 16 
-12 -680 -15 355 -12 -152 -14 30 -15 161 -15 139 -15 -646 -17 536 
-16 -185 -10 833 -29 -103 -6 -532 -18 259 -19 -1349 -20 925 -16 237 
-22 275 -24 -89 -18 101 -23 -24 -19 -640 -22 701 -21 -200 -21 -136 
-22 172 -27 -301 -18 -447 -21 748 -19 -321 -21 66 -21 57 -29 -332 
-20 731 -20 81 -22 -62 -20 -237 -14 -219 -27 -358 -22 517 -22 -440 
-19 564 -22 130 -21 -63 2238 1481 100 MP stroke
-21 -478 -20 246 -22 47 -17 228 -19 110 -16 -281 -19 -48 -29 -195 
-12 530 -20 -694 -15 383 -17 293 -22 -225 -23 -364 -17 140 -19 125 
-17 244 -20 137 -13 134 -30 -872 -14 273 -19 223 -15 -19 -19 45 
-21 60 -19 -25 -18 -138 -18 36 -13 -711 -20 556 -27 100 -15 30 
-16 -500 -15 442 -18 -91 -29 -76 -13 246 -16 -261 -17 257 -15 66 
-12 -56 -19 -480 -23 466 -19 -193 -16 221 -16 24 -16 -78 -14 -410 
-25 370 -14 202 -16 -785 -15 527 -14 -89 -29 -382 -9 309 -11 -140 
-16 -113 -19 -854 -20 457 -13 -350 -15 448 -13 -59 -14 -91 -13 -1240 
-17 1148 -15 -134 -14 25 -15 74 -13 19 -19 135 -20 -299 -6 405 
-19 -45 0 97 -18 -299 -6 -43 -18 306 -10 -379 -15 367 -15 -365 
3 847 -13 -115 -20 7 -10 143 -19 -424 0 -222 -2 -337 -12 67 
-7 36 -5 400 -6 -19 -4 -669 -15 852 5 -190 -9 -96 -2 -131 
-9 269 1 -409 -9 452 3727 2331 100 MP stroke
-2 -530 0 153 -4 201 -5 -141 -2 64 -3 -91 -5 -731 -5 158 
-2 436 -7 457 2 8 -3 -176 -3 145 -4 113 -1 -38 6 139 
0 18 -4 -111 -3 -9 -3 -83 -5 -282 -2 -343 -3 118 -6 772 
-2 -8 8 -261 -6 -295 -3 412 -2 -194 -13 -283 1 7 -2 62 
-6 18 -1 -151 4 -21 -19 514 -2 -224 0 131 0 -47 -9 -313 
-6 417 0 -71 -3 -672 -6 -169 -1 403 -4 -69 -6 400 -5 -894 
-2 548 -2 268 -3 251 -11 263 -4 -108 7 262 -8 -316 -5 -489 
-8 799 4 -777 -13 628 -1 -151 -4 -397 -8 482 -2 -312 -4 331 
-9 152 -2 211 -5 223 -2 -267 -4 -839 -7 1127 -6 -78 -3 90 
-3 -241 -10 -114 -5 450 -7 -351 0 -103 -8 176 -9 -573 3 544 
-4 -478 -9 -173 -11 122 -14 -168 4 -139 -5 46 -10 397 -8 -35 
3 -21 -9 -594 -9 250 -11 52 -3 170 -7 28 -3 158 -11 -630 
-6 333 -6 83 -4 22 4138 2280 100 MP stroke
-5 -129 -6 14 -7 87 -7 282 -7 130 2 -175 -8 163 -4 -287 
-5 111 2 -86 -5 -70 -3 -133 -10 433 3 277 -3 -17 0 -324 
-8 459 2 -68 0 87 -1 -421 -2 73 5 -355 -4 326 -1 -98 
-4 211 11 163 -3 -90 3 335 2 -45 1 39 7 -402 4 214 
0 1 5 -135 1 -42 9 -231 5 -56 7 -332 6 -266 3 222 
8 153 5 258 1 24 7 23 7 -69 6 -709 8 368 8 -99 
8 -66 6 -190 9 592 9 -389 9 72 7 -144 9 372 7 -241 
13 210 13 -142 7 -52 12 303 1 18 14 -266 12 -22 6 89 
7 -429 17 543 6 278 4 63 7 157 18 -645 9 180 9 -72 
7 331 10 -67 4 -647 17 919 9 34 9 -31 12 -191 9 -30 
6 469 14 -261 14 -242 5 587 12 -1 16 -69 3 -316 7 250 
12 -402 15 80 8 -351 9 -8 6 22 13 171 7 97 15 -193 
10 250 11 -10 8 -313 3616 2169 100 MP stroke
13 -643 14 747 5 354 8 -230 16 -490 16 744 9 -76 11 -585 
10 338 10 290 12 321 7 -428 22 -379 8 -190 6 747 23 -382 
-1 472 18 51 11 52 3 -249 22 -102 4 -189 9 360 9 95 
12 -726 19 131 3 433 23 -112 5 -879 9 1031 10 -64 9 -164 
10 539 11 -49 8 -79 12 -770 8 72 13 569 12 100 9 75 
13 -120 9 253 10 -219 8 37 8 -272 9 -457 12 633 9 112 
10 -514 10 246 10 -598 7 877 10 -500 9 379 9 -158 9 -339 
13 168 8 -259 12 524 9 -132 12 269 11 94 1 -334 11 376 
7 -123 10 20 8 -385 8 -248 12 289 8 333 6 -86 9 -67 
8 -86 7 180 8 -179 9 420 6 -380 8 -266 9 -140 6 688 
8 -192 8 371 8 -24 6 -396 8 -457 7 742 7 -124 7 -248 
8 -88 4 -137 7 457 7 -80 8 -62 8 380 8 -584 7 -79 
6 -25 5 -84 9 331 2684 1697 100 MP stroke
6 -209 5 305 8 -214 7 -315 7 456 6 21 5 -1118 6 1045 
5 371 7 -539 5 299 4 -265 7 243 5 51 5 -259 4 -1042 
4 962 3 -241 5 827 4 -392 5 143 5 -47 3 -252 2 195 
3 -516 3 -56 3 674 2 -110 3 205 3 -456 3 -179 1 265 
1 660 1 -173 1 -255 0 214 2 -60 2 -119 -2 -496 -1 189 
-1 260 -2 -65 -2 98 -1 -142 -1 119 -1 -62 -3 -287 -2 -60 
-5 -23 -6 552 -1 -676 -5 481 -3 23 -4 -349 -5 207 -5 335 
-4 -194 -5 -221 -6 215 -5 -115 -5 266 -8 -232 -6 183 -6 4 
-8 -423 -8 -63 -8 6 -7 -58 -6 787 -18 -178 -9 -379 -7 -341 
-9 268 -9 472 -9 90 -9 -717 -9 576 -15 -258 -2 131 -9 68 
-9 181 -8 74 -15 -337 -6 256 -7 -81 -14 56 -12 -250 -3 -153 
-10 270 -8 -502 -10 3 -9 639 -10 -243 -8 26 -6 307 -5 -201 
-14 132 -7 243 -2 -235 2933 1402 100 MP stroke
-13 -75 -6 -218 -12 -553 -5 268 -5 -77 -8 610 -9 -42 -7 174 
-12 -243 -18 -428 3 106 -6 300 -12 -400 -3 114 -7 114 -9 -757 
-3 56 -20 -93 -13 508 3 349 -5 261 -6 -314 -8 -178 -4 -93 
-11 -6 -8 404 -14 -431 -6 423 -3 122 -10 -525 -6 376 -5 72 
-8 -295 -9 134 -12 321 -10 -217 -6 222 -9 -863 -7 220 -9 488 
-9 -250 -9 370 -13 -235 -7 -50 -11 85 -8 8 -11 -336 -12 318 
-9 -53 -13 285 -10 261 -9 -396 -10 224 -14 -420 -16 -139 2 -243 
-19 514 -7 67 -15 -224 -5 -202 -18 -53 -17 254 -3 -710 -11 -26 
-21 -52 -8 196 -7 -47 -16 121 -16 -303 1 -409 -29 221 -13 412 
4 112 -21 31 -2 56 -8 151 -13 -433 -16 680 -5 -952 -10 361 
-18 -11 -1 225 -14 -203 -11 -388 -6 132 -10 76 -1 240 -14 -991 
-7 656 -8 -12 -13 -62 -20 178 7 10 -9 84 -9 -732 -7 168 
-4 838 -7 -245 -4 395 3841 2016 100 MP stroke
-7 -230 -10 404 -5 -445 -5 -138 -5 -689 -6 619 -1 -138 -3 400 
-5 -342 -4 189 -1 204 -7 38 -2 -174 1 -437 -1 236 0 -724 
0 739 1 190 -1 -140 2 104 0 -174 -4 602 4 -213 2 27 
5 -619 4 104 4 58 7 526 6 227 -1 -435 2 167 6 -560 
1 238 10 -30 9 137 2 23 3 -357 4 -276 4 354 5 -567 
4 821 9 -636 4 276 4 -127 3 251 5 67 5 -323 7 -102 
8 500 14 522 -5 -456 4 351 7 -209 0 129 14 -469 1 27 
10 240 7 332 0 -850 5 190 6 -144 3 -1136 2 1454 6 -232 
6 5 6 -145 3 -540 7 891 4 -260 8 430 5 -730 1 1056 
6 -388 2 190 5 -248 6 -1185 5 1321 3 -228 3 -774 1 599 
4 -315 3 162 1 -5 3 744 2 -218 4 499 2 -275 -2 396 
5 -488 3 -22 5 -151 0 -6 -1 -202 2 362 0 -508 1 179 
2 -85 -1 453 -1 145 3601 1983 100 MP stroke
-1 224 3 -633 -2 681 -4 -670 4 551 -1 -168 0 -30 -9 -69 
2 -128 -1 -28 -2 -105 -2 296 4 -180 -3 335 -2 -121 1 -379 
-1 -254 1 458 -4 -139 7 348 -5 -105 -1 -117 2 -400 -1 569 
-3 493 -3 15 2 -276 -2 -16 1 310 -4 192 -1 -530 -2 31 
-1 192 -3 151 1 -219 -4 -359 -1 494 -2 -101 0 -304 -1 133 
1 -110 -8 249 -3 121 4 -20 0 100 -9 -287 8 206 -4 -86 
1 -240 -3 105 -6 -10 1 39 -1 91 -3 -85 -2 57 -2 -456 
-1 498 -3 317 -3 -158 -1 -204 -1 -83 -1 136 0 -29 -2 254 
-2 -15 -3 245 -1 -461 -1 -1176 -1 768 -3 438 -3 80 -2 -160 
0 -369 -3 58 1 -432 -2 375 -3 255 0 130 -1 -401 -10 247 
4 93 -1 -602 1 544 -2 234 -4 142 2 -563 0 -507 0 892 
-6 -129 -1 -554 4 132 -7 601 -5 17 3 315 2 -112 -1 -1216 
-9 1097 0 59 -1 -226 3732 1637 100 MP stroke
-1 162 0 -486 -4 151 -4 -75 -1 -552 -3 800 -2 191 -3 113 
-3 -584 0 -126 -3 -214 -3 810 -6 159 2 -392 -4 344 8 -209 
-5 146 -5 -401 -6 -328 -3 439 -4 313 -11 -168 -4 58 -12 -352 
7 -744 -9 812 -6 -69 -7 167 -1 -551 -11 496 -4 23 -5 -161 
-4 -335 -9 239 -6 319 -5 318 -3 -775 -8 375 -9 -19 -1 -285 
-5 282 -16 34 0 118 -4 -155 -10 -61 -11 104 1 -302 -10 352 
-4 -234 -9 -375 -5 -196 -9 848 -5 -24 -9 -204 -5 50 -9 238 
-4 49 -11 -243 -2 -380 -13 674 -8 -535 -4 -2 -8 115 -3 -302 
-16 -232 -8 -122 1 469 -9 -529 -8 -117 -7 -142 -4 87 -8 -165 
-8 630 -9 207 -2 46 -7 -207 -9 -204 -8 514 -8 -5 -5 -1033 
-7 435 -10 575 -5 -374 -7 -1312 -8 411 -8 664 -6 -93 -8 616 
-4 -272 -4 587 -7 -77 -6 79 -13 -1374 -9 265 -8 666 -6 -144 
-9 223 -11 208 -8 -248 4312 2145 100 MP stroke
-7 -450 -8 -122 -8 208 -8 406 -10 -256 -8 -216 -8 -141 -8 5 
-9 -445 -10 936 -5 3 -9 -191 -8 -975 -11 1296 -7 -338 -5 706 
-11 -798 -11 334 -7 -62 -14 277 -3 35 -9 -449 -10 345 -7 -407 
-4 329 -14 -903 -14 867 -4 -461 -9 311 -6 -410 -10 512 -8 25 
-11 -230 -6 64 -10 -58 -8 -48 -9 42 -10 375 -8 15 -10 -849 
-10 527 0 -241 -6 169 -11 586 -11 -123 -8 -124 -9 116 -4 -430 
-9 181 -8 99 -11 -1107 -10 468 -6 348 -11 -251 -10 -48 0 145 
-11 241 -6 -382 -7 398 -6 -220 -9 0 -5 550 -7 -262 -3 155 
-10 -353 -7 274 -7 70 -4 -167 -5 -182 -3 224 -7 0 -4 165 
-10 -626 -6 261 -10 -375 -4 139 -12 413 -7 392 -2 -89 -5 -666 
-5 25 -5 -97 -6 -648 -5 1123 -9 -64 -8 -224 -3 -52 -5 -296 
-6 -578 -2 581 -9 -232 2 44 -2 87 -5 629 -2 21 -2 -346 
-5 350 -3 276 -4 -37 5019 2026 100 MP stroke
-2 55 0 55 2 -150 0 90 -2 -209 0 -181 1 -726 0 -230 
2 753 0 10 2 -99 2 451 2 -334 2 150 3 378 2 152 
3 -12 -1 -692 2 541 2 -36 4 -92 3 -29 3 290 4 -221 
6 -111 3 -368 4 535 4 -7 4 218 0 19 2 -800 7 412 
1 133 11 -422 0 -351 2 151 5 -85 4 143 4 518 2 -376 
6 -14 5 161 8 596 3 -633 0 -406 11 666 6 -730 -2 294 
5 -190 5 384 4 -243 4 -167 4 73 8 -290 3 611 5 42 
7 -420 6 557 2 -535 7 68 6 668 5 -317 3 154 5 -47 
4 -126 7 -23 4 -94 3 192 5 82 12 204 6 131 8 -244 
12 -419 -4 413 5 344 5 -2 9 -102 6 135 9 -68 0 -307 
7 -165 6 845 12 -67 2 -57 10 -373 1 -103 3 100 11 -214 
3 602 7 98 8 -190 7 114 8 -460 7 534 9 19 10 -261 
6 97 1 115 15 -127 4586 1598 100 MP stroke
1 202 6 220 4 -449 6 115 12 -203 11 140 1 102 10 345 
4 -344 11 -21 3 9 13 245 3 136 6 -191 7 -277 7 250 
0 -196 13 -753 10 469 3 285 12 35 3 -145 6 -125 8 235 
5 -487 10 -2 5 -315 8 821 6 25 11 -638 4 507 5 -192 
4 -221 11 183 5 457 2 79 6 -547 5 -1167 4 1385 9 148 
4 36 8 -208 6 259 3 -74 4 -543 7 289 9 150 1 182 
5 -297 5 209 6 74 7 174 9 48 2 -411 7 -425 6 293 
3 194 8 -201 4 -397 0 480 8 63 12 -212 3 -124 7 128 
4 131 5 -123 5 332 3 86 6 -159 9 -393 5 107 8 520 
3 -233 5 52 3 -165 4 -33 5 25 8 451 4 -500 11 -489 
3 441 -1 36 3 -90 5 413 5 -88 6 -394 11 -385 3 498 
2 128 5 -739 0 578 7 -168 3 432 8 51 5 -186 2 -38 
8 258 1 -120 4 -691 4024 2246 100 MP stroke
1 -275 11 725 4 547 1 -547 3 248 4 207 6 20 2 -196 
6 -39 5 -230 0 -343 3 114 1 490 3 12 9 -201 5 -467 
1 59 0 471 2 189 1 -268 5 64 3 159 3 -40 3 0 
-1 -113 1 101 1 -582 3 450 4 120 0 -30 3 240 1 -453 
3 -601 -2 135 -3 -396 2 877 -3 506 3 -189 4 41 1 -106 
2 228 -7 -619 2 22 -2 15 2 127 2 11 -2 64 -1 431 
-1 -634 -5 607 -5 180 -2 -126 -1 -1064 -3 519 -3 270 2 5 
-2 163 -7 -253 -6 -373 -5 182 -3 -495 -5 548 1 286 -3 -12 
-7 -440 -9 -338 -4 457 -14 -462 -4 779 -4 -468 -3 222 -8 63 
-4 -118 -11 510 -8 -41 -2 -480 -15 456 -4 -230 -5 53 -11 -696 
-8 -183 -7 519 -10 577 -10 -117 -7 -854 -9 362 -10 207 -14 260 
-6 -45 -8 -399 -8 259 -7 -234 -8 510 -16 -79 -11 -264 -11 -116 
-5 -377 -20 712 -2 8 4267 1452 100 MP stroke
-13 132 -9 -118 -14 -946 -19 486 -9 78 -12 -202 -8 367 -11 202 
-10 137 -15 -221 -9 -184 -19 -77 -9 25 -17 197 -10 2 -14 452 
-14 -57 -14 -640 -11 629 -19 -245 -14 -124 -14 -518 -15 269 -18 448 
-14 -73 -15 216 -17 -23 -16 -246 -15 -23 -16 -174 -15 -67 -20 208 
-16 143 -19 -199 -16 -222 -17 355 -14 -52 -17 183 -14 -23 -26 -114 
-17 2 -22 -356 -13 -220 -22 413 -13 169 -21 -36 -25 105 -25 -3 
-15 131 -7 -276 -23 -199 -17 177 -19 -49 -16 -1164 -19 1222 -17 235 
-19 -455 -15 256 -16 41 -20 -118 -16 -116 -15 -81 -16 -11 -18 67 
-15 274 -16 -276 -14 290 -16 -72 -13 37 -16 -239 -17 -16 -14 153 
-14 -199 -15 -1053 -14 915 -16 355 -12 -93 -17 277 -12 -235 -22 -251 
-4 -307 -12 319 -13 314 -13 162 -11 -656 -13 580 -7 167 -11 -177 
-8 -295 -15 228 -11 -994 -9 837 -14 251 -8 -267 -11 -600 -13 837 
1 -383 -17 -340 -14 53 5723 2141 100 MP stroke
2 264 -18 63 -6 -659 -16 278 0 -9 -10 -182 -7 100 -4 -407 
-10 206 -6 35 -3 237 -14 -203 -6 -173 -8 -774 -8 1073 -8 114 
-3 -991 -9 654 -3 -353 -9 477 -7 -321 -4 -120 -5 322 -2 -790 
-6 770 -8 190 -1 -81 -4 -137 -1 -327 -6 484 -4 -205 1 -576 
-2 439 -1 -256 -1 406 -1 -3 0 116 -1 -72 7 -9 0 384 
-1 -217 1 59 -2 -250 -1 218 2 49 -1 210 18 -222 2 -74 
-1 -240 2 13 4 231 0 147 14 241 9 105 -2 -1309 5 447 
2 642 6 -41 7 -515 16 728 4 -245 2 -372 9 306 22 -518 
-6 -257 13 557 9 -286 1 -162 27 474 2 -1104 -1 1110 6 434 
21 -384 10 -235 11 536 8 -753 14 255 21 492 11 -307 2 -637 
24 585 11 -176 1 520 28 18 9 -639 15 306 11 44 7 544 
20 -952 17 250 24 -281 4 633 15 -31 10 -93 41 248 18 -111 
-5 -648 14 116 12 497 5373 2221 100 MP stroke
47 -157 -6 -484 9 224 12 -88 33 84 8 -102 10 38 17 197 
15 -51 11 335 20 -93 22 326 13 -279 21 -1235 8 865 21 212 
4 10 19 -32 23 116 6 191 8 -143 17 -317 16 -157 20 755 
17 -528 14 -336 2 -82 21 617 11 -283 22 160 11 389 22 -431 
11 28 7 335 14 -143 16 -148 18 462 14 -726 19 -560 2 766 
15 219 10 434 12 -55 22 -912 22 758 1 -8 17 -118 9 -1343 
15 1595 7 56 17 162 20 -311 15 -437 17 479 3 -61 15 409 
10 -106 13 -528 14 417 21 260 11 3 16 -70 12 -102 14 83 
12 -116 26 -207 2 325 19 214 14 236 12 -421 9 -57 14 210 
13 46 12 85 27 -1632 9 1194 12 -19 11 37 13 -650 14 770 
12 -15 24 -40 9 -624 16 889 12 -578 13 151 18 389 18 -228 
14 -43 17 316 11 269 18 -54 15 -331 17 251 20 -239 15 -14 
16 -7 25 338 -7 -20 3948 1237 100 MP stroke
41 -161 12 56 7 -20 16 -286 18 160 9 15 35 93 26 129 
-2 -319 23 -89 11 296 20 -56 18 -84 20 -89 18 -816 20 463 
14 551 17 47 20 58 19 -102 19 -176 22 -19 14 219 20 -89 
17 -153 22 130 23 -111 14 -68 17 344 16 -97 17 -674 19 594 
31 -226 1 94 26 62 20 -284 1 406 22 -535 13 103 21 83 
23 156 4 160 12 -449 11 101 17 558 11 -180 14 -474 13 231 
14 -144 13 341 12 -417 8 323 13 203 14 -454 12 132 9 0 
11 161 10 158 7 234 15 130 7 -291 19 55 3 70 8 -142 
4 -355 11 -459 7 209 5 351 12 -239 2 161 5 -240 8 179 
5 -413 8 267 3 -286 10 507 0 -49 4 -354 4 -126 5 619 
4 -863 2 891 4 -38 6 -282 5 142 -1 -154 8 -44 -2 463 
1 -163 2 -267 0 -39 2 143 1 293 -1 197 2 -176 -3 -147 
-2 35 1 -139 -4 473 2833 1229 100 MP stroke
3 -53 -6 168 -6 -63 1 -504 -5 145 0 95 -5 205 -3 -392 
-7 -12 -4 -27 -5 201 -7 -673 -7 416 -7 89 -5 151 -8 -250 
-10 -148 -6 158 -8 131 -7 -118 -7 291 -12 -99 -8 -115 -10 -99 
-7 269 -13 -633 -12 -212 -7 478 -13 465 -10 -71 -15 -463 -11 -26 
-13 214 -12 156 -13 -2 -13 -434 -15 246 -12 -279 -14 51 -15 191 
-13 247 -15 230 -16 -798 -14 593 -16 -250 -14 -273 -19 682 -16 -250 
-19 -180 -11 424 -25 -57 -12 -120 -19 -490 -16 559 -18 -307 -19 261 
-20 111 -13 -225 -23 -10 -29 207 -4 106 -22 -242 -15 -59 -20 401 
-19 32 -20 47 -17 -175 -20 -305 -22 -406 -19 446 -17 135 -15 277 
-25 112 -18 0 -20 -732 -16 215 -23 285 -22 -199 -14 333 -21 -54 
-14 -572 -35 67 -20 402 -4 -67 -22 -23 -14 -803 -21 536 -22 -226 
-15 19 -18 71 -20 18 -19 67 -20 -288 -16 120 -17 273 -16 259 
-20 -405 -19 320 -17 -303 4232 1746 100 MP stroke
-17 299 -14 11 -18 110 -17 -445 -22 -69 -21 423 -2 -81 -22 -154 
-12 106 -20 -215 -15 -25 -16 186 -12 -481 -16 -336 -23 583 -9 44 
-11 -356 -19 438 -7 -88 -23 -268 -16 68 -12 -385 -9 324 -15 44 
-13 -183 -3 472 -17 -464 -15 340 -11 -192 -8 -286 -11 -82 -12 265 
-15 170 -9 -396 -7 704 -13 -403 -14 -144 -6 -658 -16 190 -2 148 
-7 -225 -12 495 -9 81 -8 -964 -8 730 -7 308 -15 -563 -4 -20 
-10 -172 -2 42 -6 42 -11 -298 -8 582 4 -559 -8 -316 -1 1200 
-10 -219 -6 -451 -2 139 -5 -25 -4 -97 -4 522 -4 -18 -4 -187 
-1 76 -2 134 -3 -842 -5 1038 -1 5 0 94 -5 -387 -2 -1034 
-3 971 -2 -93 -1 441 -2 -92 0 -55 -1 -130 0 -412 0 240 
1 336 0 240 2 23 1 -186 0 -328 -4 327 3 174 -1 296 
10 -321 9 -295 -1 126 8 319 4 -166 0 -32 5 -437 1 -205 
4 -66 2 -112 0 561 4907 2297 100 MP stroke
6 -361 3 340 6 -278 3 234 5 -516 3 159 6 347 6 16 
1 193 1 -714 4 332 1 429 5 9 1 96 17 -29 0 -215 
5 103 5 -133 0 -651 4 832 4 -159 2 380 7 -586 9 366 
-1 -147 6 113 4 165 10 -526 1 63 1 -150 3 739 5 -800 
10 833 -4 -736 6 341 1 36 3 434 3 -118 14 73 9 91 
-2 -1062 4 326 1 576 8 -315 15 518 0 -174 1 -1148 -1 1224 
4 -252 4 108 11 102 1 -838 8 384 -2 -19 7 107 -1 281 
9 -668 2 153 5 -216 7 585 2 -701 8 784 -9 154 10 -474 
0 -553 3 451 -6 602 8 -236 11 -247 1 53 2 -193 0 163 
2 248 15 -3 3 -59 2 -323 1 -210 4 480 11 -1208 7 1048 
0 -382 2 200 4 204 10 -371 8 563 0 -583 2 535 6 -390 
11 298 3 -844 4 458 3 38 13 570 2 -338 4 -460 7 75 
10 236 8 -2 0 442 4479 1995 100 MP stroke
7 -36 7 -275 14 246 1 -880 2 1087 6 -130 13 -250 8 322 
2 -752 1 632 5 -83 21 586 4 -157 2 -525 -3 373 13 -210 
10 -664 5 -43 8 -263 -2 1183 11 -254 13 -666 7 208 8 336 
4 -401 8 9 6 275 8 189 10 -391 14 153 11 416 5 -605 
6 158 9 -764 8 532 13 184 12 434 10 111 9 -677 7 401 
7 288 7 6 23 -467 7 -1016 4 624 10 417 6 -23 21 260 
6 96 13 -902 9 552 3 -28 12 -130 14 215 9 -427 10 -327 
9 612 11 -114 12 -924 12 1108 12 433 9 -308 5 -246 10 501 
6 117 31 -932 15 41 -5 34 13 500 17 111 1 -44 20 351 
17 -32 9 -139 11 -160 12 -354 25 149 1 -416 15 -58 12 921 
16 -274 12 -558 15 483 22 479 18 -490 9 484 19 329 7 -66 
36 -875 12 589 22 -346 8 540 15 166 19 184 16 -209 22 -136 
17 315 17 -544 16 38 3417 1788 100 MP stroke
23 -127 18 194 16 -158 17 6 18 9 16 -133 22 -219 19 -147 
19 793 16 -368 15 391 21 87 21 -283 16 170 18 -57 18 -99 
19 114 16 137 26 83 8 -511 10 -381 20 577 15 245 18 -440 
16 391 14 -408 13 -343 33 74 5 -138 12 358 17 646 10 -275 
16 3 20 -865 8 861 16 -259 12 -12 12 498 22 50 8 -525 
16 523 8 -340 12 309 11 -615 16 375 20 -324 1 336 18 -142 
11 -80 17 -361 11 717 17 -453 12 362 19 238 21 -155 12 -87 
16 -268 15 -482 13 761 17 253 16 6 15 -416 13 170 14 -318 
15 411 17 -73 13 -715 13 415 15 78 15 136 16 83 14 -156 
14 -336 13 414 14 -421 17 363 16 309 10 -870 15 626 10 -265 
13 207 14 96 3 105 14 4 14 -460 11 436 13 -40 12 -212 
14 235 9 -481 20 125 11 217 4 124 14 -555 10 313 12 -8 
9 -109 11 -44 10 4 1972 1884 100 MP stroke
11 284 10 -96 9 -4 10 126 10 -8 10 -700 7 801 16 7 
14 104 5 -185 11 -673 5 418 15 104 7 -310 4 190 7 26 
4 -304 7 169 5 35 9 370 7 -206 8 -911 6 971 7 -243 
5 248 5 89 6 -255 3 -265 8 198 5 377 6 -217 4 44 
5 111 2 187 -1 -314 7 28 5 318 1 -776 2 268 0 -144 
5 31 0 731 -5 -426 5 -393 -2 588 1 -42 -1 -68 -1 57 
2 -95 -2 -34 -9 -198 7 494 -20 147 14 -12 -1 -58 -10 -429 
-11 224 4 -112 -13 103 -11 102 -3 23 -7 -271 -5 149 -6 -250 
-8 -492 -7 160 -9 790 -8 115 -10 -15 -8 -828 -11 750 -8 -170 
-14 -187 -5 -82 -9 -403 -16 572 -10 -470 -10 844 -11 -38 -18 -454 
-16 257 -13 -446 -12 300 -13 255 -9 -313 -23 -59 -16 -87 -12 35 
-15 -35 -13 -189 -23 249 -14 163 -14 -353 -14 -8 -18 -715 -16 673 
-18 -528 -13 946 -17 -145 2225 1669 100 MP stroke
-13 -67 -25 -217 -18 535 -5 -241 -17 10 -12 -490 -20 411 -18 54 
-13 254 -14 -153 -12 -395 -16 257 -19 -120 -17 -121 -13 98 -14 329 
-16 -372 -13 428 -21 223 -13 80 -12 -312 -14 5 -15 72 -15 39 
-15 -75 -14 -119 -14 -534 -23 558 -6 76 -10 189 -22 -86 -17 -55 
-3 -377 -14 -371 -13 -291 -18 727 -10 -379 -13 490 -12 127 -14 84 
-14 -68 -14 -86 -10 -342 -16 326 -10 -73 -21 66 -15 -143 0 -273 
-17 161 -7 367 -24 -236 -8 147 -14 -525 -10 244 -17 -347 -13 337 
-16 -43 -10 155 -12 -348 -8 158 -22 -347 -12 23 -16 -207 -12 -1007 
-4 1049 -17 -387 -10 520 -13 122 -10 62 -17 -976 -8 110 -21 598 
-2 -422 -17 332 -13 -304 -22 722 -4 -625 -22 65 -6 382 -9 -544 
-13 73 -15 227 -17 -50 -3 -230 -17 233 -7 -753 -15 638 -8 -238 
-17 202 -13 -245 -9 -356 -14 408 0 106 -14 -97 -20 249 -4 -9 
-2 468 -24 -278 -7 -811 3540 3218 100 MP stroke
-5 -187 -16 1066 -23 -583 2 30 -7 367 -10 -367 -8 175 -8 20 
-13 -43 -10 -62 6 -348 -14 -68 -5 384 -5 -244 -2 83 -21 253 
-6 -223 1 -425 1 669 -3 -620 -7 193 -4 -74 -8 839 4 -336 
-11 13 1 -223 -1 496 -5 -36 -6 -45 3 115 -5 -570 0 172 
-1 154 0 324 -1 20 4 -242 1 136 0 -180 0 251 -1 -538 
1 139 0 -1078 1 1276 0 24 4 132 3 -432 6 220 0 138 
3 -436 1 -180 2 671 4 -105 4 -295 0 60 0 -597 1 265 
2 268 3 196 0 -756 0 854 -1 13 0 292 0 -110 12 -15 
0 -253 1 6 -1 -451 3 780 -1 -363 1 -52 0 73 -2 134 
2 -236 -2 273 3 10 0 153 -1 -233 -4 289 3 -223 4 -372 
3 166 0 -595 -1 267 1 185 2 269 2 -37 0 -286 1 443 
0 -146 3 -219 -1 -824 2 1144 -4 -175 11 635 -2 -382 -2 -338 
3 167 0 117 1 53 3652 2349 100 MP stroke
0 -540 -1 227 1 -395 1 408 0 161 -1 -32 2 -479 2 440 
0 -99 0 104 2 -194 -1 385 5 10 2 48 0 -553 0 551 
1 -91 2 34 4 -70 1 -217 -4 60 9 574 4 45 -4 -389 
4 240 -4 153 8 -112 6 -157 -1 149 0 -45 2 144 9 -483 
3 262 -2 -136 8 356 5 234 0 -273 1 -392 -3 361 9 -295 
4 -157 -2 712 2 -1239 7 917 0 463 6 -225 0 -254 3 -17 
1 -31 -1 -597 4 468 4 -29 4 88 -4 -180 5 -205 10 473 
-3 -52 3 -140 1 157 7 -528 0 244 3 294 3 -221 6 380 
0 -275 5 -597 6 758 3 34 -1 362 6 -393 8 -46 -2 228 
7 -267 8 336 2 -233 -1 -597 3 539 8 -441 4 272 2 -117 
1 -93 10 40 3 -217 2 353 4 -25 1 98 5 147 6 -586 
3 93 2 254 7 186 -1 -223 5 163 3 -228 1 33 8 38 
3 -137 3 -304 4 -658 3391 3537 100 MP stroke
8 946 -2 -437 4 505 3 -512 0 49 3 519 1 -335 0 880 
12 -398 4 156 0 -279 1 -371 1 340 3 -111 -1 406 6 -193 
4 -717 3 358 0 -898 3 1227 3 -1032 -1 1214 5 -194 2 -132 
7 238 2 -62 8 -537 0 59 0 -28 2 366 4 185 1 151 
14 223 2 -203 3 -143 2 -175 1 -44 -2 458 7 -403 5 38 
3 -155 5 313 2 91 3 -268 3 -67 3 -626 6 900 3 110 
-3 -549 9 77 2 211 14 -355 12 -446 -4 554 2 -237 -2 88 
3 189 4 -524 5 228 -1 691 4 159 5 -532 7 -64 3 295 
10 395 -2 -576 8 270 2 -84 4 -129 9 -673 3 813 7 186 
2 -26 6 -118 3 -95 6 55 9 -172 1 116 8 -6 3 136 
11 200 3 -119 5 -179 6 26 8 -220 6 468 7 40 4 -84 
6 143 7 -201 15 -174 1 479 9 212 5 -357 12 147 8 -46 
3 434 9 83 8 -136 2973 1532 100 MP stroke
11 -81 14 -276 6 242 9 311 11 -494 11 320 11 257 9 -113 
13 -364 9 -54 12 259 12 -27 11 208 12 -6 12 -292 12 0 
12 318 10 -129 11 -510 13 -270 13 587 11 137 11 -233 13 -614 
10 944 12 -605 14 240 13 118 11 -172 9 396 10 -539 14 315 
9 -33 18 -188 8 338 5 -902 12 -41 8 575 12 -660 8 650 
12 320 7 153 12 -46 8 66 10 -445 5 258 4 131 14 -127 
13 -357 8 280 9 -86 5 187 3 176 16 -343 9 120 9 -13 
7 94 9 -43 6 -74 7 88 8 191 9 -281 9 -61 9 -724 
5 316 6 499 6 213 6 -447 6 250 5 401 7 -660 6 429 
5 -440 4 111 3 157 4 -224 2 -16 3 12 6 -309 4 299 
2 -21 2 16 1 67 4 277 1 37 1 -284 2 -230 3 -22 
4 158 1 410 1 -696 1 565 1 -14 2 -48 2 -391 3 -164 
2 606 1 199 1 156 2210 1244 100 MP stroke
2 -521 2 161 4 -445 2 -13 2 528 1 76 3 -94 2 45 
2 45 5 -159 4 -433 3 411 3 310 3 -342 3 -120 6 70 
5 -1106 4 104 6 1112 3 353 5 -564 3 -196 7 339 3 -169 
2 -1103 6 680 3 592 5 -250 5 153 3 -136 4 143 4 18 
1 -1082 4 1017 3 -92 2 -106 -1 5 2 41 0 176 1 10 
-1 -921 -2 1019 0 -238 -2 -274 -3 570 -3 -684 -3 648 -4 -479 
-4 214 -5 -303 -4 -351 -6 460 -11 -141 -2 -662 -4 902 -7 -196 
-4 467 -8 -328 -7 414 -11 -170 -11 252 -16 -524 -14 364 -11 -585 
-3 657 -12 69 -9 -364 -11 343 -9 96 0 -17 -11 -430 -15 -194 
-10 73 -12 58 -10 -148 -8 271 -10 -366 -15 -356 -29 256 5 82 
-6 -131 -8 -373 -13 513 -10 90 -12 -121 -7 -192 -20 -40 -18 436 
5 -12 -10 -599 -12 -193 -18 705 -6 -137 -16 -309 -1 -200 -11 610 
-9 33 -14 -554 -10 54 2581 2722 100 MP stroke
-18 359 -1 -551 -12 310 -7 -52 -12 538 -4 -480 -18 144 -2 78 
-9 -460 -8 358 -9 -413 -7 626 -11 -66 -6 -478 -7 436 -9 -520 
-7 190 -10 -388 -6 384 -3 -68 -8 189 -3 213 -9 195 -13 179 
-1 -261 -7 -65 -4 -693 -5 -4 -5 398 -4 48 -6 -348 0 1046 
-4 -568 -7 -317 -5 479 -4 -43 -2 -498 -3 407 -2 171 -4 -74 
-2 -397 -2 -193 -4 -192 -2 854 -3 119 0 -77 -1 -46 -1 -882 
0 516 -3 134 -1 79 0 340 -1 -273 -4 -40 1 239 1 -219 
4 15 0 -223 1 -506 3 532 -1 155 2 42 1 46 2 232 
1 5 -8 153 4 -161 5 -636 0 -33 2 163 2 -430 2 330 
5 141 1 49 4 224 -1 -399 1 -36 5 412 2 194 -2 -213 
2 -1125 7 1412 3 -241 2 204 4 130 -2 -442 2 270 -2 -1144 
3 1739 -6 -49 0 -433 13 -454 -3 -85 7 390 0 6 -8 -2 
-2 -479 -1 -58 -1 70 2812 2594 100 MP stroke
1 302 -1 261 1 -100 -4 190 7 -437 9 654 -5 -121 4 -141 
-1 -360 -3 -11 1 83 0 229 -3 -214 -8 -205 -6 210 2 -67 
-4 -182 -5 -132 -1 396 -5 -170 -5 -68 1 23 -6 -43 -2 -89 
-7 243 0 163 -8 -458 -5 328 -1 -550 -3 -498 -3 925 -3 -258 
-3 -81 -3 55 -3 263 -2 122 -3 -379 -2 -134 -3 656 1 -282 
0 3 -5 221 0 -705 -4 448 0 -121 2 264 -4 153 5 9 
0 177 -2 -562 0 123 0 -473 0 307 -1 93 0 121 -1 260 
-2 6 2 -19 -1 -432 -1 580 1 13 -2 188 0 174 0 -182 
-1 303 -2 -357 1 -454 -1 -148 0 351 -3 195 0 346 0 -60 
-1 6 -1 -23 0 -393 -2 197 -1 259 -2 -326 -2 -704 0 776 
-4 -511 -1 491 -2 239 0 -7 -3 93 -3 2 -1 -111 -1 282 
-2 221 -3 -14 -2 -646 -2 364 -1 86 -2 -21 -3 -821 -3 525 
1 -796 -3 438 -6 -427 2962 2470 100 MP stroke
-3 222 -1 -424 -1 684 -6 62 -3 453 -1 166 -4 -887 -4 610 
-3 13 -5 -208 -1 -407 -6 -187 -3 562 -7 -315 -4 483 -2 -155 
-7 135 -8 -172 -4 -328 -5 50 -7 268 -9 349 -9 67 -6 61 
-8 -610 -10 95 -7 437 -9 -133 -10 -174 -10 145 -9 171 -9 -59 
-10 25 -12 -44 3165 1515 35 MP stroke
gr

c8
0 sg
%%IncludeResource: font Helvetica
/Helvetica /WindowsLatin1Encoding 120 FMSR

2044  294 mt 
(Digital magnetometers - Standard deviation of orientation) s
2502 4902 mt 
(Distance to center of sensor network [m]) s
 558 3114 mt  -90 rotate
(sqrt\(Variance\) [degree]) s
90 rotate

end %%Color Dict

eplot
%%EndObject

epage
end

showpage

%%Trailer
%%EOF
