%!PS-Adobe-2.0 EPSF-1.2
%%Creator: MATLAB, The MathWorks, Inc. Version 7.13.0.564 (R2011b). Operating System: Microsoft Windows 7.
%%Title: ..\figures\_posdigital_all_std.eps
%%CreationDate: 11/13/2012  17:43:57
%%DocumentNeededFonts: Helvetica
%%DocumentProcessColors: Cyan Magenta Yellow Black
%%Extensions: CMYK
%%Pages: 1
%%BoundingBox:    52   199   549   602
%%EndComments

%%BeginProlog
% MathWorks dictionary
/MathWorks 160 dict begin
% definition operators
/bdef {bind def} bind def
/ldef {load def} bind def
/xdef {exch def} bdef
/xstore {exch store} bdef
% operator abbreviations
/c  /clip ldef
/cc /concat ldef
/cp /closepath ldef
/gr /grestore ldef
/gs /gsave ldef
/mt /moveto ldef
/np /newpath ldef
/cm /currentmatrix ldef
/sm /setmatrix ldef
/rm /rmoveto ldef
/rl /rlineto ldef
/s {show newpath} bdef
/sc {setcmykcolor} bdef
/sr /setrgbcolor ldef
/sg /setgray ldef
/w /setlinewidth ldef
/j /setlinejoin ldef
/cap /setlinecap ldef
/rc {rectclip} bdef
/rf {rectfill} bdef
% page state control
/pgsv () def
/bpage {/pgsv save def} bdef
/epage {pgsv restore} bdef
/bplot /gsave ldef
/eplot {stroke grestore} bdef
% orientation switch
/portraitMode 0 def /landscapeMode 1 def /rotateMode 2 def
% coordinate system mappings
/dpi2point 0 def
% font control
/FontSize 0 def
/FMS {/FontSize xstore findfont [FontSize 0 0 FontSize neg 0 0]
  makefont setfont} bdef
/ISOLatin1Encoding where {pop /WindowsLatin1Encoding 256 array bdef
ISOLatin1Encoding WindowsLatin1Encoding copy pop
/.notdef/.notdef/quotesinglbase/florin/quotedblbase/ellipsis/dagger
/daggerdbl/circumflex/perthousand/Scaron/guilsinglleft/OE/.notdef/.notdef
/.notdef/.notdef/quoteleft/quoteright/quotedblleft/quotedblright/bullet
/endash/emdash/tilde/trademark/scaron/guilsinglright/oe/.notdef/.notdef
/Ydieresis WindowsLatin1Encoding 128 32 getinterval astore pop}
{/WindowsLatin1Encoding StandardEncoding bdef} ifelse
/reencode {exch dup where {pop load} {pop StandardEncoding} ifelse
  exch dup 3 1 roll findfont dup length dict begin
  { 1 index /FID ne {def}{pop pop} ifelse } forall
  /Encoding exch def currentdict end definefont pop} bdef
/isroman {findfont /CharStrings get /Agrave known} bdef
/FMSR {3 1 roll 1 index dup isroman {reencode} {pop pop} ifelse
  exch FMS} bdef
/csm {1 dpi2point div -1 dpi2point div scale neg translate
 dup landscapeMode eq {pop -90 rotate}
  {rotateMode eq {90 rotate} if} ifelse} bdef
% line types: solid, dotted, dashed, dotdash
/SO { [] 0 setdash } bdef
/DO { [.5 dpi2point mul 4 dpi2point mul] 0 setdash } bdef
/DA { [6 dpi2point mul] 0 setdash } bdef
/DD { [.5 dpi2point mul 4 dpi2point mul 6 dpi2point mul 4
  dpi2point mul] 0 setdash } bdef
% macros for lines and objects
/L {lineto stroke} bdef
/MP {3 1 roll moveto 1 sub {rlineto} repeat} bdef
/AP {{rlineto} repeat} bdef
/PDlw -1 def
/W {/PDlw currentlinewidth def setlinewidth} def
/PP {closepath eofill} bdef
/DP {closepath stroke} bdef
/MR {4 -2 roll moveto dup  0 exch rlineto exch 0 rlineto
  neg 0 exch rlineto closepath} bdef
/FR {MR stroke} bdef
/PR {MR fill} bdef
/L1i {{currentfile picstr readhexstring pop} image} bdef
/tMatrix matrix def
/MakeOval {newpath tMatrix currentmatrix pop translate scale
0 0 1 0 360 arc tMatrix setmatrix} bdef
/FO {MakeOval stroke} bdef
/PO {MakeOval fill} bdef
/PD {currentlinewidth 2 div 0 360 arc fill
   PDlw -1 eq not {PDlw w /PDlw -1 def} if} def
/FA {newpath tMatrix currentmatrix pop translate scale
  0 0 1 5 -2 roll arc tMatrix setmatrix stroke} bdef
/PA {newpath tMatrix currentmatrix pop	translate 0 0 moveto scale
  0 0 1 5 -2 roll arc closepath tMatrix setmatrix fill} bdef
/FAn {newpath tMatrix currentmatrix pop translate scale
  0 0 1 5 -2 roll arcn tMatrix setmatrix stroke} bdef
/PAn {newpath tMatrix currentmatrix pop translate 0 0 moveto scale
  0 0 1 5 -2 roll arcn closepath tMatrix setmatrix fill} bdef
/vradius 0 def /hradius 0 def /lry 0 def
/lrx 0 def /uly 0 def /ulx 0 def /rad 0 def
/MRR {/vradius xdef /hradius xdef /lry xdef /lrx xdef /uly xdef
  /ulx xdef newpath tMatrix currentmatrix pop ulx hradius add uly
  vradius add translate hradius vradius scale 0 0 1 180 270 arc 
  tMatrix setmatrix lrx hradius sub uly vradius add translate
  hradius vradius scale 0 0 1 270 360 arc tMatrix setmatrix
  lrx hradius sub lry vradius sub translate hradius vradius scale
  0 0 1 0 90 arc tMatrix setmatrix ulx hradius add lry vradius sub
  translate hradius vradius scale 0 0 1 90 180 arc tMatrix setmatrix
  closepath} bdef
/FRR {MRR stroke } bdef
/PRR {MRR fill } bdef
/MlrRR {/lry xdef /lrx xdef /uly xdef /ulx xdef /rad lry uly sub 2 div def
  newpath tMatrix currentmatrix pop ulx rad add uly rad add translate
  rad rad scale 0 0 1 90 270 arc tMatrix setmatrix lrx rad sub lry rad
  sub translate rad rad scale 0 0 1 270 90 arc tMatrix setmatrix
  closepath} bdef
/FlrRR {MlrRR stroke } bdef
/PlrRR {MlrRR fill } bdef
/MtbRR {/lry xdef /lrx xdef /uly xdef /ulx xdef /rad lrx ulx sub 2 div def
  newpath tMatrix currentmatrix pop ulx rad add uly rad add translate
  rad rad scale 0 0 1 180 360 arc tMatrix setmatrix lrx rad sub lry rad
  sub translate rad rad scale 0 0 1 0 180 arc tMatrix setmatrix
  closepath} bdef
/FtbRR {MtbRR stroke } bdef
/PtbRR {MtbRR fill } bdef
/stri 6 array def /dtri 6 array def
/smat 6 array def /dmat 6 array def
/tmat1 6 array def /tmat2 6 array def /dif 3 array def
/asub {/ind2 exch def /ind1 exch def dup dup
  ind1 get exch ind2 get sub exch } bdef
/tri_to_matrix {
  2 0 asub 3 1 asub 4 0 asub 5 1 asub
  dup 0 get exch 1 get 7 -1 roll astore } bdef
/compute_transform {
  dmat dtri tri_to_matrix tmat1 invertmatrix 
  smat stri tri_to_matrix tmat2 concatmatrix } bdef
/ds {stri astore pop} bdef
/dt {dtri astore pop} bdef
/db {2 copy /cols xdef /rows xdef mul dup 3 mul string
  currentfile exch readhexstring pop
  dup 0 3 index getinterval /rbmap xdef
  dup 2 index dup getinterval /gbmap xdef
  1 index dup 2 mul exch getinterval /bbmap xdef pop pop}bdef
/it {gs np dtri aload pop moveto lineto lineto cp c
  cols rows 8 compute_transform 
  rbmap gbmap bbmap true 3 colorimage gr}bdef
/il {newpath moveto lineto stroke}bdef
currentdict end def
%%EndProlog

%%BeginSetup
MathWorks begin

0 cap

end
%%EndSetup

%%Page: 1 1
%%BeginPageSetup
%%PageBoundingBox:    52   199   549   602
MathWorks begin
bpage
%%EndPageSetup

%%BeginObject: obj1
bplot

/dpi2point 12 def
portraitMode 0204 7344 csm

  422   110  5965  4844 MR c np
85 dict begin %Colortable dictionary
/c0 { 0.000000 0.000000 0.000000 sr} bdef
/c1 { 1.000000 1.000000 1.000000 sr} bdef
/c2 { 0.900000 0.000000 0.000000 sr} bdef
/c3 { 0.000000 0.820000 0.000000 sr} bdef
/c4 { 0.000000 0.000000 0.800000 sr} bdef
/c5 { 0.910000 0.820000 0.320000 sr} bdef
/c6 { 1.000000 0.260000 0.820000 sr} bdef
/c7 { 0.000000 0.820000 0.820000 sr} bdef
c0
1 j
1 sg
   0    0 6913 5185 PR
6 w
0 4225 5356 0 0 -4225 899 4614 4 MP
PP
-5356 0 0 4225 5356 0 0 -4225 899 4614 5 MP stroke
4 w
DO
SO
6 w
0 sg
 899  389 mt 6255  389 L
 899 4614 mt 6255 4614 L
6255 4614 mt 6255  389 L
 899 4614 mt  899  389 L
 899 4614 mt 6255 4614 L
 899 4614 mt  899  389 L
 899 4614 mt  899 4560 L
 899  389 mt  899  442 L
%%IncludeResource: font Helvetica
/Helvetica /WindowsLatin1Encoding 120 FMSR

 866 4759 mt 
(0) s
1664 4614 mt 1664 4560 L
1664  389 mt 1664  442 L
1581 4759 mt 
(0.2) s
2429 4614 mt 2429 4560 L
2429  389 mt 2429  442 L
2346 4759 mt 
(0.4) s
3194 4614 mt 3194 4560 L
3194  389 mt 3194  442 L
3111 4759 mt 
(0.6) s
3959 4614 mt 3959 4560 L
3959  389 mt 3959  442 L
3876 4759 mt 
(0.8) s
4724 4614 mt 4724 4560 L
4724  389 mt 4724  442 L
4691 4759 mt 
(1) s
5489 4614 mt 5489 4560 L
5489  389 mt 5489  442 L
5406 4759 mt 
(1.2) s
6255 4614 mt 6255 4560 L
6255  389 mt 6255  442 L
6172 4759 mt 
(1.4) s
 899 4614 mt  925 4614 L
6255 4614 mt 6228 4614 L
 899 4614 mt  952 4614 L
6255 4614 mt 6201 4614 L
 640 4658 mt 
(10) s
%%IncludeResource: font Helvetica
/Helvetica /WindowsLatin1Encoding 80 FMSR

 773 4584 mt 
(-2) s
 899 4359 mt  925 4359 L
6255 4359 mt 6228 4359 L
 899 4210 mt  925 4210 L
6255 4210 mt 6228 4210 L
 899 4105 mt  925 4105 L
6255 4105 mt 6228 4105 L
 899 4023 mt  925 4023 L
6255 4023 mt 6228 4023 L
 899 3956 mt  925 3956 L
6255 3956 mt 6228 3956 L
 899 3899 mt  925 3899 L
6255 3899 mt 6228 3899 L
 899 3850 mt  925 3850 L
6255 3850 mt 6228 3850 L
 899 3807 mt  925 3807 L
6255 3807 mt 6228 3807 L
 899 3769 mt  925 3769 L
6255 3769 mt 6228 3769 L
 899 3769 mt  952 3769 L
6255 3769 mt 6201 3769 L
%%IncludeResource: font Helvetica
/Helvetica /WindowsLatin1Encoding 120 FMSR

 640 3813 mt 
(10) s
%%IncludeResource: font Helvetica
/Helvetica /WindowsLatin1Encoding 80 FMSR

 773 3739 mt 
(-1) s
 899 3514 mt  925 3514 L
6255 3514 mt 6228 3514 L
 899 3365 mt  925 3365 L
6255 3365 mt 6228 3365 L
 899 3260 mt  925 3260 L
6255 3260 mt 6228 3260 L
 899 3178 mt  925 3178 L
6255 3178 mt 6228 3178 L
 899 3111 mt  925 3111 L
6255 3111 mt 6228 3111 L
 899 3054 mt  925 3054 L
6255 3054 mt 6228 3054 L
 899 3005 mt  925 3005 L
6255 3005 mt 6228 3005 L
 899 2962 mt  925 2962 L
6255 2962 mt 6228 2962 L
 899 2924 mt  925 2924 L
6255 2924 mt 6228 2924 L
 899 2924 mt  952 2924 L
6255 2924 mt 6201 2924 L
%%IncludeResource: font Helvetica
/Helvetica /WindowsLatin1Encoding 120 FMSR

 640 2968 mt 
(10) s
%%IncludeResource: font Helvetica
/Helvetica /WindowsLatin1Encoding 80 FMSR

 773 2894 mt 
(0) s
 899 2669 mt  925 2669 L
6255 2669 mt 6228 2669 L
 899 2520 mt  925 2520 L
6255 2520 mt 6228 2520 L
 899 2415 mt  925 2415 L
6255 2415 mt 6228 2415 L
 899 2333 mt  925 2333 L
6255 2333 mt 6228 2333 L
 899 2266 mt  925 2266 L
6255 2266 mt 6228 2266 L
 899 2209 mt  925 2209 L
6255 2209 mt 6228 2209 L
 899 2160 mt  925 2160 L
6255 2160 mt 6228 2160 L
 899 2117 mt  925 2117 L
6255 2117 mt 6228 2117 L
 899 2079 mt  925 2079 L
6255 2079 mt 6228 2079 L
 899 2079 mt  952 2079 L
6255 2079 mt 6201 2079 L
%%IncludeResource: font Helvetica
/Helvetica /WindowsLatin1Encoding 120 FMSR

 640 2123 mt 
(10) s
%%IncludeResource: font Helvetica
/Helvetica /WindowsLatin1Encoding 80 FMSR

 773 2049 mt 
(1) s
 899 1824 mt  925 1824 L
6255 1824 mt 6228 1824 L
 899 1675 mt  925 1675 L
6255 1675 mt 6228 1675 L
 899 1570 mt  925 1570 L
6255 1570 mt 6228 1570 L
 899 1488 mt  925 1488 L
6255 1488 mt 6228 1488 L
 899 1421 mt  925 1421 L
6255 1421 mt 6228 1421 L
 899 1364 mt  925 1364 L
6255 1364 mt 6228 1364 L
 899 1315 mt  925 1315 L
6255 1315 mt 6228 1315 L
 899 1272 mt  925 1272 L
6255 1272 mt 6228 1272 L
 899 1234 mt  925 1234 L
6255 1234 mt 6228 1234 L
 899 1234 mt  952 1234 L
6255 1234 mt 6201 1234 L
%%IncludeResource: font Helvetica
/Helvetica /WindowsLatin1Encoding 120 FMSR

 640 1278 mt 
(10) s
%%IncludeResource: font Helvetica
/Helvetica /WindowsLatin1Encoding 80 FMSR

 773 1204 mt 
(2) s
 899  979 mt  925  979 L
6255  979 mt 6228  979 L
 899  830 mt  925  830 L
6255  830 mt 6228  830 L
 899  725 mt  925  725 L
6255  725 mt 6228  725 L
 899  643 mt  925  643 L
6255  643 mt 6228  643 L
 899  576 mt  925  576 L
6255  576 mt 6228  576 L
 899  519 mt  925  519 L
6255  519 mt 6228  519 L
 899  470 mt  925  470 L
6255  470 mt 6228  470 L
 899  427 mt  925  427 L
6255  427 mt 6228  427 L
 899  389 mt  925  389 L
6255  389 mt 6228  389 L
 899  389 mt  952  389 L
6255  389 mt 6201  389 L
%%IncludeResource: font Helvetica
/Helvetica /WindowsLatin1Encoding 120 FMSR

 640  433 mt 
(10) s
%%IncludeResource: font Helvetica
/Helvetica /WindowsLatin1Encoding 80 FMSR

 773  359 mt 
(3) s
 899  389 mt 6255  389 L
 899 4614 mt 6255 4614 L
6255 4614 mt 6255  389 L
 899 4614 mt  899  389 L
gs 899 389 5357 4226 MR c np
/c8 { 0.000000 0.000000 1.000000 sr} bdef
c8
4 64 3 -31 6 72 4 -44 5 -43 4 -16 5 -131 4 -51 
4 168 4 -90 4 21 2 -359 4 65 2 -170 3 240 1 148 
1 -190 0 120 -1 47 0 78 0 -192 -1 123 -2 -80 0 3 
-1 -6 -3 161 -3 -71 -3 -295 -2 177 -3 -182 -4 74 -4 165 
-3 29 -2 -104 -3 -42 -3 224 -4 -112 -2 -330 -2 129 -2 327 
-2 -234 0 -146 -2 117 -2 217 0 164 0 -584 0 266 -1 -85 
1 98 1 -37 0 195 0 -47 2 -273 0 -410 2 241 0 309 
0 -109 -1 161 1 -69 0 90 1 -673 -1 495 1 109 -1 -110 
-1 258 -2 -372 0 9 -2 302 -1 -127 -2 160 -2 69 -1 140 
-3 -3 -2 -136 -3 -54 -2 -9 -2 56 -2 96 -1 -32 -2 -158 
-2 -42 -1 -148 -1 264 -2 225 -1 -111 -2 -350 1 489 -2 -52 
-3 -134 -1 -31 -2 144 -1 60 -2 -262 -2 29 -2 -38 -3 -89 
-2 -45 -3 271 -2 104 1593 2499 100 MP stroke
-2 -150 -3 -243 -4 -17 -3 177 -3 -31 -3 -123 -4 -79 -3 -60 
-4 221 -3 -76 -4 -114 -2 245 -3 0 -3 -221 -3 40 -3 -36 
-4 106 -4 136 -3 -133 -2 -164 -3 82 -3 -72 -4 8 -4 -193 
-3 403 -3 187 -5 -29 -2 -9 -1 -420 -4 531 -6 82 -8 -50 
-5 -77 -5 173 -1 -239 -5 218 -2 -130 -2 -31 -7 266 -1 -217 
-4 -276 -6 92 -1 -136 -4 191 -4 11 0 136 -4 -247 -3 44 
-2 35 -2 169 0 -261 -1 -90 -1 222 -2 -231 2 -366 -1 470 
-1 -182 1 284 -2 25 0 -162 -1 -147 -1 124 0 302 8 -98 
-9 112 1 -101 4 156 -3 -301 -1 -131 -2 -55 1 542 -2 52 
-4 -93 -2 -87 -2 -6 -3 -238 -2 182 -2 -94 -2 -93 -3 -139 
-2 -100 -2 -27 -2 344 -3 -8 -4 26 -1 13 -1 -38 -1 -120 
-1 80 0 -27 -2 -676 1 529 1 161 1 118 -1 -46 2 28 
3 136 -1 -331 4 130 1799 2731 100 MP stroke
1 -26 2 55 4 -58 3 -83 0 29 1 55 2 -119 1 -501 
3 315 1 229 0 70 1 -201 -1 -107 0 137 -2 54 -1 2 
-2 28 -2 126 -2 -197 -2 99 -3 -29 -3 -171 -4 346 -3 -88 
-4 -285 -4 29 -3 305 -5 -61 -5 -129 -4 -111 -4 107 -5 -53 
-5 -86 -4 -39 -6 191 -5 92 -5 -339 -5 149 -6 225 -6 -9 
-5 -171 -5 319 -6 -12 -5 -279 -6 -420 -5 421 -5 102 -6 356 
-6 -269 -5 -374 -5 257 -6 118 -5 -139 -6 351 -3 -232 4 -127 
-14 435 -9 -234 -5 78 -5 110 -6 -349 -2 152 -2 -14 -12 256 
-2 97 -6 -265 -4 60 -6 11 -3 -30 -6 -84 -5 160 -4 -48 
-3 116 -5 28 0 -210 -3 -131 -2 111 -2 164 -2 -194 -1 23 
-1 227 -1 -55 1 -186 0 157 2 21 3 -194 2 70 3 164 
4 186 3 -84 5 -200 4 89 5 18 5 8 5 -109 4 -264 
5 22 5 -215 5 279 2006 2703 100 MP stroke
4 -125 6 356 5 68 5 -231 4 -508 4 411 5 189 4 -73 
4 117 2 -95 3 -66 5 -149 3 162 5 -149 2 -464 4 135 
3 -417 4 405 2 378 3 -19 4 60 3 -352 2 -66 3 -232 
1 131 3 -16 1 342 2 -326 1 -241 2 353 0 122 2 184 
1 -67 2 110 1 28 1 -349 0 189 3 -64 -1 357 6 -15 
3 18 2 -198 2 -129 4 221 2 -11 3 -50 2 19 3 -213 
3 67 3 412 3 -147 4 -260 2 -150 3 112 2 92 4 -160 
2 -385 4 452 2 132 3 4 3 -338 4 326 1 86 5 -18 
2 -151 3 -487 3 444 4 26 2 182 3 -94 3 -150 3 -23 
1 192 4 -16 1 106 4 6 0 253 4 -61 -1 132 10 -218 
25 272 0 -177 3 69 2 -108 1 37 4 84 -1 -86 -21 230 
7 -251 1 0 4 -89 3 33 5 -196 4 -320 4 352 5 141 
6 -89 3 -191 8 -246 1714 3142 100 MP stroke
6 102 6 148 7 -88 5 27 8 94 7 34 7 -40 7 -72 
8 -425 7 592 9 -549 9 118 7 -141 9 383 7 -185 9 -238 
8 410 9 -483 8 589 8 -55 9 160 7 -341 7 199 8 53 
7 -62 6 -2 6 -16 7 140 6 -15 5 -90 6 -141 4 109 
5 94 3 -232 5 -156 3 -475 3 746 4 -54 3 34 2 -67 
4 13 1 -195 3 -53 3 -41 4 504 2 -91 5 25 5 -320 
1 1 4 270 3 29 5 50 4 -212 9 259 0 176 5 -468 
4 260 6 194 4 86 6 35 12 41 5 36 3 -85 5 -194 
4 -260 4 -236 4 143 2 157 5 -367 0 52 4 212 1 184 
1 -189 1 397 0 -160 1 188 0 -304 1 -118 0 168 -2 -161 
1 59 -1 66 -2 237 0 -32 -1 98 -1 40 -2 266 4 -197 
-1 96 -1 -132 0 1 -2 -189 0 -61 -1 -718 -1 695 0 -142 
-2 370 -1 -304 -2 -33 1341 2891 100 MP stroke
-1 -66 -3 161 -2 -98 -3 -327 -2 503 -3 -157 -3 167 -2 -330 
-4 -6 -3 -4 -4 -17 -4 -55 -4 -1 -4 -60 -4 -297 -4 31 
-3 285 -4 164 -3 -197 -3 164 -4 -77 -5 -62 -2 -202 -3 380 
-2 -21 -3 5 -3 -27 -2 -185 -1 118 -2 -58 2 337 0 -580 
-1 413 -1 -52 -1 86 -1 -88 1 339 0 -2 -1 -222 1 364 
1 -17 -1 -157 0 8 0 -32 -1 -490 0 446 1 -196 -3 -61 
0 233 -3 -16 -1 57 -1 -69 -2 155 -2 -96 -3 -133 -6 -352 
-2 504 -3 -8 -2 -50 -4 238 -3 -142 -4 -111 -3 76 -2 -203 
-4 -410 -5 478 -5 182 -4 -54 -4 -28 -5 -388 -5 286 -4 239 
-6 -283 -5 -270 -5 57 -5 446 -5 -103 -5 -20 -5 208 -5 -22 
-4 -90 -4 -69 -5 -202 -3 17 -7 298 -2 -9 -5 162 -5 38 
-4 -150 -3 -59 -4 53 -3 22 -4 -264 -3 0 -4 -25 -3 87 
-3 6 -3 -222 -3 -47 1625 3117 100 MP stroke
-2 117 -3 260 -1 149 -3 -111 -1 -552 -2 589 -1 38 -1 -221 
-1 28 -1 -259 0 43 0 -293 1 170 1 23 1 19 1 92 
2 -102 2 75 2 -558 2 695 3 -185 3 250 4 -188 3 -51 
5 298 3 -234 5 28 3 96 5 -37 5 67 6 45 4 -156 
4 13 6 -12 6 195 5 65 4 -190 8 36 5 10 3 -201 
5 279 6 -549 3 492 4 192 5 -279 4 -427 3 105 4 150 
3 53 3 318 2 -135 2 -115 1 37 1 -25 1 96 1 -451 
0 441 -1 -28 -1 -50 -1 -64 -2 -111 -1 -424 -2 602 -2 -166 
-1 -231 -2 365 -3 -232 -3 -239 -2 557 -2 -16 -4 -35 -1 -448 
-3 222 -2 331 -6 -134 -4 320 0 -90 -2 -63 -3 -106 -2 -104 
-3 77 -4 -101 -4 -61 -3 134 -4 -88 -2 274 -4 -176 -3 121 
-5 60 -6 -5 -3 -292 -5 106 -4 13 -6 14 -7 -73 -5 92 
-6 166 -6 44 -8 -474 1629 3197 100 MP stroke
-7 466 -7 -191 -8 78 -8 63 -8 -119 -7 94 -8 -302 -8 33 
-8 13 -9 16 -8 83 -8 -304 -8 212 -8 185 -9 -19 -7 124 
-8 32 -8 -427 -7 98 -9 259 -8 -156 -8 241 -8 35 -8 -194 
-8 -124 -9 -332 -8 384 -7 112 -8 115 -8 -151 -8 10 -9 140 
-8 -185 -8 -33 -9 -120 -8 435 -9 -520 -7 141 -9 204 -8 -110 
-7 86 -7 163 -8 -41 -6 60 -7 -98 -5 -160 -8 -84 -5 178 
-4 43 -4 18 -1 -258 -4 64 -1 -82 -2 164 0 113 -1 -127 
2 123 1 -114 1 -214 3 347 4 -74 3 75 5 -18 4 -88 
5 47 6 167 6 36 5 -64 6 -270 6 -131 7 129 5 141 
7 -417 6 341 7 -240 6 284 6 -52 7 -95 6 49 6 194 
6 -121 5 -186 6 341 4 -123 5 -126 5 -455 3 298 3 86 
4 46 0 -115 5 170 2 67 1 52 1 130 5 -105 0 9 
3 -77 -2 -177 2 -112 1842 3114 100 MP stroke
2 372 0 -110 -1 -233 1 13 0 55 -1 -92 1 -5 -1 -449 
-1 161 1 82 0 37 -1 127 1 18 0 -76 1 -260 0 -30 
1 320 1 22 1 253 1 -106 1 62 2 -198 1 93 1 -31 
2 -146 1 199 2 -141 2 391 2 50 2 -5 2 -512 2 -28 
2 61 2 186 2 138 3 138 1 131 2 -27 2 25 2 -158 
1 98 2 68 1 -268 2 76 2 196 0 -74 3 24 0 -373 
1 285 1 -73 2 -148 0 21 2 155 0 -223 1 173 1 60 
2 -207 1 -50 1 -158 1 118 1 76 0 -87 1 197 1 -105 
2 65 1 3 2 114 0 -5 1 29 2 -194 2 64 3 209 
2 0 3 65 3 27 4 -114 4 -127 3 37 4 59 4 -148 
3 -232 5 113 5 234 6 86 5 7 3 -214 4 -7 5 -197 
5 556 5 -211 4 -322 6 187 5 1 2 181 6 -94 5 -556 
4 -156 3 454 4 120 1648 2972 100 MP stroke
3 -251 3 80 5 308 3 10 3 -8 2 -32 5 47 3 -16 
3 28 3 68 4 -281 3 198 4 224 3 -164 4 -53 4 -9 
3 -233 3 313 5 -93 3 52 3 9 3 -309 4 179 3 9 
6 305 0 -177 3 13 3 -123 2 220 4 -351 2 43 2 245 
2 220 3 -251 1 -131 1 -619 1 783 1 -120 1 -90 0 72 
1 221 0 -181 1 74 1 -6 0 193 0 -300 0 257 1 -241 
0 -82 -1 110 0 101 -1 162 0 -18 -1 -197 0 -356 -2 464 
0 137 -3 -27 -2 -29 -3 -263 -2 196 -1 -22 -2 -266 -1 213 
-2 145 -3 -9 -3 -467 -2 88 -5 56 -4 362 -2 38 -4 -173 
-5 -83 -5 -164 -5 -34 -5 158 -4 -125 -6 222 -5 -46 -6 -183 
-5 119 -6 185 -6 -70 -6 -158 -6 305 -6 -109 -6 -89 -6 16 
-4 62 -6 -69 -6 70 -5 -157 -5 -5 -6 -19 -4 350 -5 -255 
-4 -19 -3 117 -4 121 1714 2537 100 MP stroke
-3 -185 -5 73 -3 -67 -1 -241 -4 533 -4 -76 0 7 -9 -184 
-4 76 -8 91 -4 77 0 -165 3 -387 -2 254 0 16 2 -135 
1 295 2 1 3 0 5 -270 7 234 5 -44 9 196 0 -202 
2 65 4 24 3 -196 2 68 5 -156 3 130 4 15 4 25 
4 79 4 -542 4 382 4 97 6 -51 3 -31 4 21 4 -133 
6 -216 4 -78 5 324 4 -14 5 -209 4 -98 4 -214 5 420 
5 -307 5 353 3 43 5 -257 5 -49 3 202 6 -56 2 -600 
5 607 3 -21 3 181 3 -300 3 -340 1 557 4 28 2 -5 
2 142 1 -134 0 -351 1 237 -1 61 -1 -76 -2 -19 -2 40 
-2 -41 -4 398 -3 -27 -5 -20 -4 14 -5 87 -5 -239 -7 42 
-6 144 -7 3 -8 -162 -7 293 -7 54 -9 -21 -8 -3 -9 20 
-6 62 -19 -4 -13 118 -6 -210 -2 125 -11 -193 -8 212 -10 -88 
-8 124 -5 -49 -10 -3 1765 2356 100 MP stroke
-9 -150 -8 -6 -9 -102 -10 143 -6 -354 -9 142 -8 -213 -9 -290 
-8 200 -8 -227 -9 512 -8 -129 -7 113 -7 -290 -8 16 -9 280 
-6 111 -8 -173 -5 -437 -6 403 -5 199 -8 -252 -5 20 -6 248 
-6 -452 -6 341 -6 -110 -5 355 -4 55 -8 -79 -4 -152 -4 180 
-3 -280 -4 51 -6 -19 -5 -66 -4 10 -5 96 -5 -65 -4 -152 
-5 -163 -4 -118 -3 -159 -4 720 -4 -69 -3 9 -3 127 -3 -244 
-4 -530 -4 559 -2 77 -4 -11 -3 146 -2 117 -3 -340 -2 101 
-3 -125 -2 118 -3 -117 -2 -168 -3 111 -3 347 -3 -161 -2 -116 
-3 240 -3 21 -4 -42 -2 40 -6 73 15 -431 11 426 -10 -776 
1 571 -9 74 3 216 -23 -220 -1 -126 14 266 -11 -773 1 775 
-9 -138 -25 245 -2 105 -4 -82 -4 -338 -3 -397 -3 206 -5 279 
-3 44 -3 -33 -3 16 -4 -89 -3 68 -6 118 -2 -57 -2 -14 
-3 34 -3 20 -4 -84 2217 2531 100 MP stroke
-3 -20 -3 -64 -3 -54 -2 140 -3 -16 -3 -202 -2 -13 -3 6 
-3 10 -2 -150 -2 -64 -2 19 -1 262 -2 -214 -2 24 -2 -204 
-1 332 0 -164 -1 91 -1 12 -1 -514 0 582 0 -226 1 146 
0 155 1 70 0 -275 2 -266 0 388 2 -27 0 -231 1 273 
1 23 3 -71 -1 -184 0 277 1 -187 0 273 1 -17 1 -212 
1 -18 0 248 2 117 3 11 -2 -209 1 280 1 86 1 -110 
4 -67 1 -64 -3 -377 2 307 3 277 1 -69 -1 -117 -1 -231 
2 -199 2 -392 2 704 -2 112 -1 -128 0 -51 3 -104 -2 39 
2 79 -2 -160 -1 23 0 -302 2 339 -3 -107 2 -161 2 315 
-3 -65 -3 182 3 -372 0 175 -2 -187 -2 288 1 -180 1 -362 
0 359 0 -188 -3 746 0 -94 -6 -170 2 -151 2 0 -2 171 
-1 17 1 -22 4 -2 1 7 1 -154 0 289 3 50 -1 249 
9 -474 7 153 1 79 2214 2408 100 MP stroke
7 168 7 105 4 -251 9 19 5 -268 3 87 0 -288 0 415 
11 -188 -9 331 5 -39 -2 149 9 -203 -3 2 -5 -46 8 109 
-2 -337 1 -265 -1 345 -1 213 2 -136 2 -354 6 252 2 -177 
-7 260 3 -259 0 165 -1 33 6 -219 1 86 1 69 1 -103 
1 37 0 225 -1 -243 0 -97 -2 85 0 107 0 -273 -1 349 
0 -43 -2 -86 0 99 -2 94 2 -400 -1 200 -1 105 -5 -21 
-2 65 -2 -150 -3 85 -1 77 -3 -294 -4 79 -4 38 -3 -601 
-4 294 -4 104 -2 307 -7 176 -3 -190 -2 238 -4 -50 -4 -68 
-4 0 -4 65 -5 -557 -4 532 -2 74 -4 -74 -4 68 -5 48 
-5 -143 -5 -226 -7 141 -5 40 -4 69 -5 -69 -5 83 -4 -78 
-6 -244 -4 252 -3 39 -4 -175 -4 68 -4 107 -3 -82 -4 92 
-5 83 -1 -5 -2 -39 -3 -268 -2 378 -2 139 -2 -170 -2 -123 
-4 -272 -2 414 -1 11 2346 2307 100 MP stroke
-3 10 1 -208 -2 -69 -3 138 0 35 -2 49 -2 -111 -1 116 
0 43 -2 -51 0 -194 -3 130 -2 67 2 -243 -5 64 -2 32 
0 130 -4 -75 -2 32 -2 -186 -4 221 3 -152 5 56 -3 79 
-1 -343 -3 163 3 29 5 164 -7 -175 3 -69 -3 -407 4 237 
0 413 0 -4 -1 -300 3 -173 -1 168 2 115 -1 49 1 -96 
0 -134 -1 -78 0 546 -1 -61 -1 48 0 -205 -1 -125 -1 -27 
-2 159 -1 255 -1 -110 -2 -132 -2 73 -2 139 -2 -155 -2 -121 
-3 -73 -2 -45 -3 -28 -2 204 -3 226 -2 -100 -3 -105 -2 -245 
-3 208 -3 -47 -2 230 -3 -448 -3 384 -2 -17 -3 -10 -3 -145 
-3 84 -2 132 -3 -142 -4 -153 -3 229 -3 149 -3 -185 -4 112 
-3 -18 -4 51 -4 120 -5 4 -3 -258 -4 -396 -5 456 -5 22 
-3 -104 -6 47 -5 -137 -5 97 -5 109 -5 90 -5 -232 -6 149 
-4 160 -5 26 -6 -218 2547 2368 100 MP stroke
-5 -61 -4 10 -4 -611 -6 289 -4 146 -5 -95 -5 -170 -4 211 
-5 -304 -4 518 -5 196 -5 43 -3 -227 -5 -1 -3 -26 -3 319 
-4 -70 -4 -112 -4 -233 -4 -69 -3 187 -3 96 -4 101 -2 102 
-4 -6 -2 -160 -3 98 -3 132 -2 -130 -3 -114 -2 185 -3 -391 
-2 133 -2 145 -3 -13 -2 207 -2 -17 -3 -83 -2 -9 -2 -146 
-2 -47 -2 258 -1 -144 2 130 -2 123 -1 -178 -2 -95 -1 -327 
-2 458 -4 -105 -1 -57 -2 -56 -2 110 0 66 -9 -136 -7 19 
1 126 -3 -97 1 -32 -4 91 5 59 5 204 -2 55 0 -164 
-3 -315 -2 216 0 151 -2 -230 -3 -205 -2 -51 -2 339 -1 42 
-2 5 -3 -347 -2 423 -1 -32 -2 -49 -2 -582 -2 155 -2 177 
-1 331 -2 -257 -1 -60 -2 180 -1 -130 -2 48 -2 181 -2 142 
-1 -95 -1 32 -1 -91 -2 -30 -2 172 0 27 -1 40 -1 -78 
-2 -47 -1 -43 -1 -81 2775 2099 100 MP stroke
-1 184 -2 -208 -1 -13 -1 -456 -1 378 -1 125 -2 43 0 95 
-2 -339 0 -81 -1 394 -1 62 -1 85 -1 -221 -1 -282 -1 167 
-1 -9 -1 -427 -1 376 -1 -85 -2 7 -1 -319 -2 555 -2 85 
-2 -338 -3 -81 -2 -477 -3 684 -3 67 -3 97 -4 47 -3 -36 
-4 -229 -4 -97 -5 21 -5 355 -5 -293 -5 400 -5 55 -6 21 
-6 -307 -5 -168 -6 15 -5 475 -6 -63 -7 88 -6 -122 -6 -9 
-7 -348 -6 425 -7 23 -5 15 -7 -217 -6 -63 -5 37 -6 190 
-6 -53 -6 14 -5 68 -5 -225 -5 124 -6 80 -5 -188 -5 -162 
-5 -103 -4 -83 -5 173 -4 -64 -4 -148 -5 188 -4 66 -4 -279 
-4 352 -4 -11 -3 4 -4 -294 -4 72 -3 -189 -4 228 -3 -35 
-3 366 -3 -356 -3 161 -3 -283 -3 -45 -3 -83 -3 200 -3 82 
-3 -273 -3 188 -2 -105 -3 -215 -3 383 -3 305 -3 -78 -3 -109 
-3 -29 -2 -10 -3 -196 3123 2378 100 MP stroke
-3 394 -2 143 -3 4 -2 -342 -2 -521 -2 177 -1 284 -2 129 
-2 -128 -1 172 -2 115 -1 -480 -2 379 -2 -246 -1 188 -2 -178 
-1 123 -2 181 -1 -104 -2 -217 -1 106 -1 -487 -1 676 -1 -112 
-1 -24 -1 -74 0 86 0 -21 -1 138 0 -253 1 114 0 60 
1 49 0 86 1 -9 1 -33 1 -206 2 80 1 110 2 -382 
1 140 2 192 2 274 3 -175 2 -200 2 20 2 -16 3 195 
2 -100 3 -248 2 107 3 -5 3 -317 2 314 3 -63 2 -309 
3 214 3 94 2 138 3 148 2 83 3 72 2 -264 2 142 
3 -89 2 -76 2 155 2 93 1 -355 2 -543 2 496 1 -82 
1 211 1 -51 1 -182 1 89 0 -378 1 94 -1 23 0 -23 
-1 118 -1 344 -1 323 -1 -62 -2 -481 -1 168 -2 125 -1 41 
-3 203 -1 -41 -3 -270 -2 -57 -3 129 -2 7 -3 7 -3 -267 
-3 45 -3 114 -4 -98 3120 2235 100 MP stroke
-4 -84 -4 278 -5 -32 -5 -152 -5 79 -5 -241 -6 176 -6 18 
-5 -37 -7 109 -6 143 -7 -139 -7 -58 -7 39 -7 12 -8 -98 
-8 276 -8 31 -9 -79 -8 -58 -10 -88 -9 38 -10 113 -9 10 
-11 -131 -9 -77 -11 250 -10 -69 -10 -157 -10 -312 -11 606 -9 72 
-12 -82 -11 136 -10 112 -12 -351 -10 -392 -12 -54 -10 375 -11 525 
-10 -161 -11 -23 -10 47 -10 -54 -11 -188 -9 93 -11 -310 -10 516 
-11 35 -10 -135 -11 -370 -10 343 -10 137 -10 -16 -11 -262 -10 5 
-10 208 -10 103 -11 -510 -10 317 -10 -361 -11 137 -10 226 -10 -3 
-10 52 -10 -353 -10 51 -9 148 -10 44 -10 193 -10 151 -9 -146 
-10 1 -9 -177 -9 -218 -9 -335 -9 881 -9 25 -8 -103 -9 -387 
-8 -41 -9 325 -8 224 -8 -330 -7 -14 -8 202 -8 105 -7 -121 
-7 120 -7 191 -7 -95 -6 -268 -7 -188 -6 -269 -6 726 -6 7 
-6 -91 -6 -67 -6 113 3984 1398 100 MP stroke
-6 120 -5 -333 -6 -169 -6 -162 -6 436 -5 -237 -6 72 -6 197 
-5 -279 -6 -100 -6 -144 -6 -256 -5 269 -6 204 -5 69 -6 13 
-6 -259 -5 237 -6 75 -6 -34 -5 -174 -6 52 -6 7 -5 168 
-6 -300 -6 453 -5 -348 -6 -38 -6 79 -6 100 -6 -186 -6 -17 
-5 -203 -6 95 -6 178 -6 -714 -6 705 -6 3 -6 -44 -5 140 
-6 18 -6 -377 -6 160 -6 183 -6 55 -6 -691 -6 149 -6 307 
-7 318 -6 184 -6 42 -7 -33 -6 -109 -7 -37 -6 225 -7 94 
-7 36 -7 -439 -6 -83 -7 203 -7 -171 -6 88 -7 88 -7 -141 
-6 237 -7 -67 -6 -38 -6 174 -6 -122 -6 -124 -6 283 -6 -139 
-5 -171 -6 121 -6 -175 -6 -270 -5 -283 -6 238 -5 -47 -6 -63 
-6 507 -5 -57 -6 14 -6 154 -5 -109 -6 -223 -6 71 -5 278 
-6 -253 -6 137 -5 -7 -6 189 -6 177 -6 -2 -5 -181 -6 -556 
-6 493 -6 145 -6 -211 4570 1534 100 MP stroke
-5 207 -6 -100 -6 -164 -6 -80 -5 85 -6 118 -6 16 -5 -179 
-6 112 -6 -8 -6 -273 -6 28 -6 -49 -5 259 -6 319 -6 -302 
-6 26 -6 -124 -6 187 -6 -116 -6 92 -6 121 -6 -19 -6 -8 
-5 -174 -6 86 -5 336 -5 -115 -6 -201 -5 -132 -5 55 -5 81 
-5 -829 -5 565 -4 110 -5 -106 -4 -46 -4 99 -5 251 -4 90 
-4 -105 -4 -172 -4 120 -4 145 -4 -75 -4 -126 -4 88 -4 -174 
-3 -32 -4 172 -3 154 -3 -166 -3 -71 -3 161 -3 -216 -3 112 
-2 -29 -3 104 -2 -73 -3 -127 -2 -119 -2 70 -1 -190 -2 413 
-2 -49 -1 -99 -1 -49 -2 292 -1 -111 -1 -134 -1 -128 -1 313 
-1 134 -1 -185 0 108 -1 -426 -1 141 0 -8 -1 -2 0 145 
-1 -111 0 212 -1 -264 0 217 -1 7 -1 143 -1 -436 0 156 
-1 -57 -1 82 0 30 -1 43 0 69 0 -228 -1 83 0 243 
0 -170 -1 -7 0 -211 4887 1709 100 MP stroke
0 285 -1 57 0 -347 0 154 -1 81 0 -209 0 273 -1 -198 
0 284 0 -115 -1 62 0 66 -1 -352 0 184 0 -120 -1 86 
0 -233 0 87 -1 -24 0 157 0 -93 -1 -136 0 296 -1 154 
-1 -253 0 -361 -1 260 -1 30 -1 98 0 -43 -1 -97 -1 19 
-1 120 -1 22 0 143 -1 40 -2 -61 -1 94 -1 -359 -1 86 
-1 -70 -1 -217 -1 156 -2 53 -1 -92 -1 83 -1 249 -1 10 
-2 -264 -1 30 -1 124 -1 7 -1 -114 -1 -124 -1 174 -1 163 
-1 -110 -1 81 -1 -62 -1 12 0 6 -1 -152 0 -27 -1 3 
-1 -42 0 171 -1 -64 0 -265 -1 360 0 -70 -1 -42 0 -340 
-1 -120 0 406 -1 224 0 136 -1 -86 -1 -56 0 -92 -1 -137 
-1 275 0 -87 -1 107 0 -383 -1 153 -1 159 0 37 -1 113 
-1 -322 0 240 -1 -143 -1 199 -1 -73 0 -248 -1 156 -1 65 
-1 159 0 -375 -1 409 4956 1229 100 MP stroke
-1 -21 0 -99 -1 83 -1 43 -1 -157 -1 -295 0 -353 -1 333 
-1 267 -1 -178 0 -95 -1 -310 -1 497 0 -46 -1 -80 -1 -104 
0 320 -1 17 -1 -543 0 107 -1 108 0 127 -1 25 0 -52 
-1 50 0 51 -1 -172 0 238 0 -303 0 164 1 205 0 -197 
1 41 0 -238 0 185 1 198 0 -468 -1 356 0 -86 0 16 
-1 -102 0 91 -1 -315 0 15 -1 -118 -1 39 -1 14 0 36 
-2 -114 -1 179 -1 -207 -1 -252 -1 537 -2 -192 -1 -415 -2 439 
-2 115 -2 -20 -1 98 -2 -136 -2 -103 -2 -175 -2 172 -3 38 
-2 59 -2 -69 -3 -6 -2 -226 -3 236 -2 187 -3 -207 -3 -228 
-3 -340 -3 342 -3 16 -3 232 -3 60 -3 8 -3 -333 -3 147 
-4 106 -3 130 -3 -208 -3 98 -4 -2 -3 -71 -3 -92 -3 265 
-4 -154 -3 112 -3 -454 -4 404 -3 105 -3 -63 -3 -506 -3 225 
-4 283 -3 -24 -3 -432 5110 2371 100 MP stroke
-3 -56 -3 465 -3 -1 -3 -144 -3 -66 -3 -292 -4 -169 -3 331 
-3 296 -3 47 -4 -485 -3 257 -3 278 -3 -264 -3 25 -3 148 
-3 52 -3 -153 -3 -21 -2 -261 -3 119 -2 92 -3 161 -2 110 
-2 -95 -3 -20 -2 55 -2 169 -2 -75 -2 -15 -2 -377 -1 -38 
-2 154 -1 51 -1 -40 -2 -293 -1 209 -1 207 0 -132 -1 136 
0 68 0 -145 1 20 1 -326 0 387 1 -61 2 -25 1 -37 
2 101 2 -169 2 -133 2 198 2 -335 3 294 2 28 3 -363 
3 438 4 47 4 -186 3 -293 4 380 4 222 4 -187 4 -111 
4 8 5 304 4 -224 5 -148 4 240 5 85 5 -112 4 -342 
5 -95 4 497 5 -26 4 -90 3 127 5 29 3 -30 4 -208 
4 21 3 55 2 -110 3 89 2 -669 2 518 1 240 1 61 
-1 -43 0 -506 -2 513 -1 -132 -2 -238 -3 311 -3 -111 -4 248 
-4 45 -5 -400 -5 -10 5095 2297 100 MP stroke
-5 -19 -5 111 -6 -141 -7 151 -6 -102 -6 81 -7 -118 -7 206 
-7 -60 -7 209 -7 -36 -7 -120 -7 -61 -8 229 -7 -135 -7 -134 
-7 68 -7 209 -6 50 -7 -264 -6 -301 -6 318 -5 -41 -5 181 
-4 -205 -4 -32 -5 288 -4 -2 -4 -255 -3 206 -3 -208 -3 41 
-4 183 -2 30 -3 -91 -2 -89 -2 -495 -2 523 -1 137 -2 -92 
-2 -220 -1 56 -1 17 -2 8 -1 -413 -2 205 -1 187 -1 3 
-2 395 -1 23 -2 -286 -2 -331 -1 412 -2 17 -1 -36 -2 -171 
-1 164 -2 -158 -1 56 -2 -101 -1 -62 -2 -4 -2 151 -1 124 
-1 -46 -2 -128 -1 302 -2 56 -2 -77 -2 52 -1 -30 -2 -226 
-2 -299 -2 360 -2 -43 -3 -58 -3 13 -2 194 -3 -308 -3 -140 
-3 306 -3 11 -4 -374 -3 153 -3 80 -3 214 -3 36 -3 -193 
-3 54 -2 -348 -3 625 -2 -120 -2 -143 -2 -215 -1 72 -2 175 
-1 23 -1 55 -1 -74 5412 2082 100 MP stroke
-1 -151 0 114 0 -143 -1 256 0 -114 1 -291 0 362 1 146 
1 -217 2 165 1 -159 2 110 2 5 2 -7 2 -44 3 -249 
2 214 3 -19 3 -332 3 263 3 176 4 -130 4 15 3 16 
4 104 5 -114 4 80 4 -6 5 -54 5 -347 4 409 5 28 
5 194 4 44 5 28 5 -96 5 -133 4 -162 5 365 5 47 
4 72 5 -125 5 -213 4 -248 5 -28 4 603 5 -13 4 -107 
4 39 4 -163 4 -3 3 156 4 -69 3 20 3 -122 4 -109 
3 133 2 21 3 -94 2 99 3 -129 2 -85 2 151 2 78 
1 154 2 -783 2 484 2 123 1 -344 1 217 1 118 1 -132 
1 234 1 -171 0 103 0 -330 1 114 0 263 0 -574 0 212 
1 51 0 -333 0 262 1 -360 1 278 0 -87 1 -19 1 46 
1 -137 1 -10 1 258 2 -323 2 113 2 85 2 112 2 -149 
3 61 3 72 3 94 5173 2143 100 MP stroke
3 9 3 -62 4 -188 4 -321 4 267 4 21 4 70 4 201 
4 11 5 -230 4 -271 4 338 5 -484 5 275 5 -133 4 155 
5 -232 5 59 5 -53 5 -21 6 -114 5 -67 5 305 5 125 
6 -235 5 264 6 -12 5 -51 5 203 5 -187 6 -37 5 -443 
5 559 6 -424 5 509 5 -48 5 -100 6 -664 5 661 5 73 
5 116 5 -264 5 -103 4 -255 5 382 4 -142 5 -254 4 522 
4 102 4 18 3 -512 4 394 3 -159 4 -317 3 175 3 337 
2 163 2 60 3 -341 1 -445 2 528 1 -6 1 170 0 -881 
-1 420 -1 532 -1 -30 -2 -402 -2 -90 -2 -255 -2 24 -3 512 
-3 -224 -4 -62 -3 -134 -5 444 -5 -273 -5 -219 -5 -267 -6 202 
-7 444 -7 87 -7 217 -7 -74 -8 -1369 -8 1536 -8 -68 -9 -269 
-9 -97 -9 -364 -10 -178 -9 374 -10 141 -9 -383 -10 305 -9 291 
-10 22 -9 -730 -10 801 5119 2263 100 MP stroke
-9 -394 -9 96 -9 -102 -9 531 -8 104 -9 -263 -8 -116 -8 -80 
-8 150 -7 165 -7 403 -7 6 -6 -545 -5 -457 -5 698 -5 -67 
-4 50 -4 230 -3 -21 -2 -31 -3 -272 -1 254 -1 -238 -1 272 
0 73 0 -20 1 -115 1 -163 2 196 2 -302 2 136 3 55 
2 115 4 -101 3 -249 4 427 4 -191 4 -139 4 -421 5 426 
5 6 6 98 5 297 6 -217 6 127 6 -249 6 66 7 221 
6 -653 7 462 6 114 7 -300 7 149 6 12 7 -153 7 -364 
6 127 7 620 7 112 7 60 8 -274 7 -215 7 311 8 107 
7 13 8 -451 7 -127 8 233 8 14 7 387 8 -98 7 -127 
8 236 7 -517 7 118 8 23 7 300 7 -227 7 -163 7 122 
8 149 7 -288 7 -3 7 188 7 -47 8 -493 7 625 7 60 
8 -203 7 -439 7 498 7 -110 7 -216 6 264 7 120 7 70 
6 86 6 -172 6 -32 4809 1906 100 MP stroke
6 -308 6 396 6 142 5 -92 6 58 6 -171 6 20 5 308 
6 -263 5 -81 5 -244 6 484 5 115 5 -168 5 76 5 62 
5 -218 5 -319 5 423 5 -143 4 211 5 121 5 -71 4 -162 
5 -165 4 46 5 275 4 -21 4 -139 4 46 4 -307 3 131 
4 255 3 -104 3 207 3 -219 3 -560 2 707 3 99 3 -267 
3 59 3 -35 3 -78 3 -1 4 -414 3 520 4 -85 4 8 
4 -136 4 -6 4 -97 5 -248 5 450 4 152 5 -294 5 -168 
5 223 5 -124 6 388 5 47 5 -169 5 143 6 -177 5 112 
5 131 6 -17 5 76 5 -210 6 -204 5 188 5 304 5 -68 
6 -223 5 140 5 76 6 -117 6 -106 5 -30 6 32 6 234 
5 58 6 -49 6 -179 6 -581 5 606 6 195 5 56 5 -143 
6 -307 5 204 5 -355 5 194 5 280 5 -52 5 -120 4 72 
5 -101 4 203 5 79 4336 1410 100 MP stroke
4 -213 4 -9 4 -155 4 153 3 -177 4 -54 3 89 4 89 
3 185 3 -89 3 -53 3 -207 3 300 2 -120 3 -10 2 178 
3 171 2 -103 3 32 2 -259 2 3 2 -88 2 -32 1 130 
2 -160 2 180 1 232 1 -125 2 77 1 -82 1 4 1 33 
0 -390 1 321 1 -404 1 -44 0 153 1 -150 0 525 0 -1054 
0 817 -1 58 0 -50 0 29 -1 29 0 -165 -1 95 -1 -78 
-1 -283 0 387 -1 70 -1 -88 -1 27 -1 -198 -1 102 -1 -24 
-1 234 0 -116 -1 127 -1 -298 -1 196 -1 -48 0 -438 -1 260 
0 381 -1 -25 0 4 0 -122 -1 -102 0 -208 0 510 1 -48 
0 -251 0 96 1 1 1 -160 1 145 1 -14 2 -77 2 -325 
2 101 2 52 2 -33 3 -492 3 216 3 236 3 214 4 -268 
5 -263 4 266 6 -640 5 694 6 148 7 -269 7 83 7 -110 
8 2 8 -166 9 119 4168 2193 100 MP stroke
9 67 10 43 10 41 11 -222 10 95 12 -439 11 485 12 -224 
13 154 12 164 14 -535 13 308 14 -106 15 318 14 -30 15 208 
15 13 15 -199 16 338 16 -184 16 -113 17 -95 16 190 17 -76 
17 181 17 -79 17 -322 17 231 16 61 18 -85 17 -116 18 -58 
17 170 18 -158 16 148 18 -176 12 114 24 -73 17 150 15 -368 
16 266 13 -226 17 248 16 136 16 -197 16 25 16 2 15 -219 
15 133 15 179 16 -185 14 -53 15 14 14 -142 14 -148 13 369 
13 -325 14 164 13 -92 13 34 10 99 11 196 13 47 11 -79 
11 105 10 -170 11 42 9 -46 10 106 8 161 9 -178 8 -188 
7 -2 8 272 5 3 7 19 6 177 6 -537 5 109 5 78 
5 235 4 19 5 52 3 -28 4 -222 3 6 3 185 2 -134 
3 -219 2 203 2 78 1 -111 0 120 2 -125 2 -41 3 -137 
2 150 1 131 1 45 3059 1968 100 MP stroke
1 -240 1 -258 1 176 1 104 1 107 1 70 2 -1 1 -222 
1 136 1 -111 0 97 1 -302 0 543 0 -628 -1 358 0 1 
-1 115 -1 -62 -1 -74 -1 -338 -1 545 -2 10 -1 -124 -2 6 
-2 21 -3 -210 -2 197 -2 -156 -3 -25 -3 182 -2 -32 -3 100 
-3 58 -3 -84 -4 0 -3 -141 -3 219 -4 7 -4 76 -3 9 
-4 -155 -3 226 -4 -400 -3 383 -4 -19 -4 -6 -3 -53 -4 -383 
-4 347 -3 42 -4 -33 -4 257 -3 2 -4 -49 -3 -218 -4 75 
-3 -162 -4 -147 -3 138 -3 -67 -4 -311 -3 203 -3 -123 -4 393 
-3 36 -3 -88 -3 -136 -2 -94 -3 -123 -3 -223 -3 -3 -2 -30 
-3 121 -2 -98 -3 791 -2 -158 -2 -374 -2 253 -1 236 -2 -237 
-1 74 -1 124 0 -1 -1 -182 0 -107 1 75 0 80 1 -267 
2 -64 2 194 2 106 2 91 3 14 3 148 3 -300 3 112 
4 -147 4 135 4 -241 3198 2182 100 MP stroke
4 -151 4 199 4 -168 5 221 5 198 5 -55 4 -101 5 100 
5 123 5 -24 5 -144 6 -1133 5 997 6 16 5 86 6 135 
6 -123 6 -257 7 173 6 106 7 -83 7 -111 7 -148 7 175 
7 116 8 120 7 -108 8 -774 8 682 9 70 8 -189 9 241 
8 -161 9 2 9 5 9 -186 10 125 9 -98 9 223 10 -66 
9 150 10 -233 10 -4 10 3 10 66 11 -38 10 312 10 -160 
11 -145 11 0 11 23 11 107 10 58 12 -81 10 -2 11 -331 
12 -64 11 210 12 -231 10 193 12 -62 11 26 11 17 11 101 
11 -100 12 -185 14 257 9 49 12 -27 11 -140 11 -51 11 -12 
11 14 11 171 12 -125 11 -215 11 205 11 -112 10 158 11 -47 
10 -97 11 -354 10 17 10 197 12 341 10 -210 11 193 10 -327 
10 102 10 115 10 68 9 -67 9 14 8 276 8 -304 8 -287 
8 31 7 339 7 -55 2315 2402 100 MP stroke
6 276 6 -69 6 -435 5 290 5 6 4 -24 4 134 3 -84 
3 -351 3 32 2 182 2 33 2 35 2 36 1 -184 1 -9 
1 120 2 -64 0 -71 1 120 1 -277 0 -487 0 621 1 22 
0 -128 0 401 -1 38 0 -538 0 252 -1 19 0 250 0 -475 
1 127 0 -19 0 434 1 -166 0 -173 1 215 0 -305 1 96 
0 59 1 -31 1 -18 0 58 1 165 1 -77 1 -175 1 54 
1 191 1 -133 1 -15 1 -339 2 127 1 128 1 102 1 -12 
1 128 1 -193 2 24 1 48 1 117 2 93 1 28 2 -205 
2 83 1 -40 2 -26 2 149 2 -53 2 -63 2 -143 2 -459 
2 30 2 199 2 375 2 35 1 -8 2 -37 2 -511 1 541 
2 -474 2 240 1 102 1 -403 2 383 1 121 1 -93 1 -276 
1 263 1 171 2 -153 0 57 1 -40 1 -17 1 -206 1 290 
1 133 0 43 1 -2 2176 2187 100 MP stroke
0 -154 0 150 1 65 -1 -86 0 -198 -1 150 -1 -40 -1 -29 
-2 138 -2 -90 -2 -133 -2 -266 -2 -311 -3 440 -3 346 -2 83 
-8 -54 -4 -165 -2 -97 -3 -37 -3 256 -4 -16 -3 -69 -3 -94 
-3 -155 -3 -85 -2 311 -3 -87 -3 60 -1 15 -3 -7 -2 -155 
-2 -118 -2 368 -3 26 -2 -123 -2 -197 -2 222 -1 2 -2 -22 
-2 -182 -1 199 -1 -481 0 545 -3 0 0 -47 -2 98 0 90 
-1 -102 0 120 -2 -283 0 141 -2 -56 1 -252 -2 38 0 -696 
0 856 1 -296 0 341 0 -52 1 -128 2 110 2 -189 -1 -130 
0 182 2 95 0 -288 0 257 1 47 0 124 -2 -193 3 -234 
0 244 1 113 2 -105 4 151 0 98 4 -133 1 -24 1 -292 
-1 51 10 279 5 -170 1 113 3 -19 3 -145 3 150 1 -349 
-2 5 3 444 5 56 -1 -176 3 -302 0 533 2 82 3 -255 
5 28 2 4 4 -10 2207 2338 100 MP stroke
2 -177 2 162 3 -253 2 38 3 -84 2 -59 3 409 3 -7 
2 4 2 -191 4 -175 2 346 3 -308 3 -21 2 291 3 3 
3 -434 3 247 2 93 4 -30 3 50 3 -66 3 43 3 78 
3 -248 3 -23 3 290 3 -80 3 -245 3 114 3 114 3 14 
3 92 3 11 2 -41 3 86 4 -64 2 -58 2 -45 3 -88 
2 -253 2 271 2 266 2 127 2 -291 2 -63 2 31 2 -543 
2 384 2 117 2 -295 1 -4 2 -277 2 702 1 -169 1 -199 
2 250 1 2 -1 -421 4 -285 -2 426 4 -191 0 -403 -1 368 
5 231 -3 -100 1 -94 3 -86 0 31 2 -647 0 752 1 -107 
1 -49 1 -69 1 61 0 28 2 117 2 13 -1 46 2 11 
0 -627 1 318 1 166 0 60 0 -454 0 320 -1 -145 -1 432 
0 132 -1 -104 -1 -284 -1 13 -1 358 -1 -13 -1 -47 -2 16 
-1 -26 -1 -18 -2 -28 2055 2793 100 MP stroke
-2 -22 -2 108 -1 17 -2 -67 -2 47 -2 -639 -3 174 -1 585 
-2 14 -2 -70 -2 -55 -3 -57 -2 -345 -2 279 -2 285 -2 0 
-2 -135 -2 106 -1 152 -3 -135 3 -114 -1 -7 -3 -44 -1 118 
-2 263 0 81 -2 -6 0 -111 -1 -301 -1 144 0 105 -1 154 
0 -65 -1 -108 1 -86 0 -92 0 190 1 -152 1 98 0 45 
1 229 1 61 1 -375 2 216 1 15 2 101 1 -177 2 -38 
1 -248 2 -40 2 239 2 -238 3 206 2 52 3 -50 3 -35 
3 51 3 -66 3 -48 2 197 4 -35 2 -150 4 21 3 63 
3 -206 5 326 2 17 1 34 5 -159 3 221 3 -123 4 -151 
3 -234 4 370 3 -64 4 -9 4 -173 4 23 3 -513 4 564 
3 -389 5 77 5 166 0 -141 3 -9 3 -105 3 88 2 36 
2 98 2 56 2 11 2 11 1 -360 1 211 1 222 1 46 
0 13 1 -118 0 -151 1957 2803 100 MP stroke
0 319 -2 -149 1 -241 -1 303 0 81 2 -59 -3 -175 -1 237 
-2 38 -2 -216 -2 -104 -1 205 -3 -226 -4 -548 -2 771 -3 95 
-4 -241 -5 143 -4 -14 -4 -23 -4 182 -4 -4 -5 -112 -4 -277 
-5 413 -5 -3 -4 109 -5 -101 -5 -268 -5 232 -5 254 -5 -81 
-5 -170 -6 -4 -4 247 -3 -35 -7 -13 -4 -252 -6 -192 -7 334 
-5 -101 -5 -161 -6 -240 -5 -265 -5 853 -5 8 -5 -84 -5 -201 
-5 -18 -4 -34 -5 84 -4 83 -5 -156 -4 -42 -4 319 -4 -313 
-3 51 -4 -37 -4 -75 -4 146 -5 76 -4 5 -5 -43 -4 87 
-4 -33 -5 218 -4 -90 -4 -337 -4 361 -3 -587 -4 405 -4 82 
-4 -124 -3 -181 -4 39 -3 269 -4 -195 -3 215 -3 -174 -4 4 
-3 210 -4 -210 -4 60 -5 -57 -4 -95 -4 -218 -4 512 -5 -41 
-4 -46 -4 28 -4 -86 -5 -69 -4 135 -4 -144 -4 275 -4 -78 
-4 189 -5 -104 -4 -166 2343 2439 100 MP stroke
-4 225 -5 82 -4 -80 -5 -143 -5 89 -5 16 -4 85 -6 38 
-4 -40 -5 -372 -5 94 -5 97 -5 42 -5 176 -4 -220 -5 93 
-6 10 -4 135 -6 -213 -5 -21 -5 111 -5 68 -5 -259 -5 266 
-6 -152 -5 -27 -5 108 -5 -70 -6 -57 -5 73 -5 -110 -5 -66 
-5 149 -4 32 -5 83 -4 -44 -4 -69 -4 135 -4 -398 -4 200 
-4 -29 -3 149 -3 15 -4 -166 -2 215 -3 148 -3 -14 -2 -157 
-2 -127 -3 29 -1 99 -2 -60 -1 20 -2 -89 -1 -77 -1 14 
0 -169 -1 -167 -1 287 0 274 0 -366 0 346 -1 -254 0 179 
-1 -332 0 275 -1 113 0 24 -1 -234 0 -404 -1 -13 -1 574 
-1 -325 -1 511 0 81 -1 -185 -2 13 -1 -354 -2 200 -1 144 
-1 -56 -2 -252 -1 175 -1 57 -2 -109 -2 -430 -2 548 -1 -162 
-2 -163 -2 198 -2 142 -3 -317 -2 195 -2 270 -3 111 -2 -329 
-2 209 -3 -45 -2 257 2627 1886 100 MP stroke
-3 -103 -2 -110 -2 -128 -3 73 -2 -110 -3 54 -2 137 -3 81 
-2 -27 -3 100 -2 -304 -3 218 -2 -14 -3 -76 -2 75 -3 -321 
-3 187 -2 211 -3 -172 -3 14 -2 -125 -3 190 -2 150 -3 -333 
-2 228 -3 -417 -2 241 -2 238 -2 -200 -2 151 -2 -68 -2 -69 
-2 21 -1 93 -1 12 -1 -146 -1 -73 0 42 0 -25 -1 59 
0 179 0 -201 1 -26 0 166 0 -272 0 227 1 -88 0 245 
0 -150 1 -60 0 112 0 -642 0 489 -1 -150 0 -211 0 233 
-1 -141 -1 121 0 140 -1 236 0 -308 -1 137 -1 66 0 -254 
-1 -93 -1 -209 -1 387 0 -498 -1 216 -1 482 -1 -46 0 91 
-1 61 -1 -224 0 -67 0 342 -1 -149 0 -49 1 28 0 -87 
-1 -144 0 -80 0 160 -1 44 0 270 -1 -211 0 -278 -1 233 
0 -256 -1 164 0 228 -1 -81 0 -236 -1 -28 0 -158 -1 175 
-1 66 0 -58 -1 75 2733 2214 100 MP stroke
0 111 0 -60 -1 -130 -1 258 -1 49 -1 -158 -1 64 -1 -73 
-2 74 -1 259 -1 -75 -2 -13 -2 -282 -2 305 -2 -115 -2 19 
-2 -50 -3 -129 -2 -56 -3 41 -2 -57 -3 97 -3 146 -3 7 
-4 102 -3 -247 -4 -409 -3 585 -4 74 -4 -67 -4 -543 -4 190 
-4 182 -4 30 -4 180 -4 62 -5 -58 -4 -133 -4 -43 -5 120 
-4 -106 -5 -81 -5 41 -4 81 -5 -248 -4 123 -4 -24 -6 90 
-4 55 -5 -73 -4 35 -5 64 -4 -163 -4 232 -4 42 -4 -215 
-4 -81 -4 7 -4 105 -4 -110 -4 330 -4 -468 -4 238 -3 -389 
-4 -172 -3 542 -3 -330 -3 -310 -2 441 -3 7 -2 204 -2 -45 
-3 -124 -1 68 -2 262 -2 -277 -2 272 -1 218 -1 -90 -1 -32 
-1 -697 -1 376 0 -39 -1 19 0 451 0 -439 1 -237 0 482 
1 83 1 -1 0 -218 1 84 1 -427 1 0 1 554 1 -5 
1 -478 1 119 2 98 2966 2113 100 MP stroke
1 -163 1 -15 1 -27 2 16 1 342 1 -122 2 -10 1 -227 
1 55 1 192 1 -263 1 319 0 73 1 72 1 114 0 -305 
1 -128 0 -119 0 597 -1 -277 0 -359 0 186 -1 187 0 24 
-1 54 0 225 -1 23 -1 -350 -1 0 -1 -215 -1 -174 -1 562 
-2 47 -1 -93 -2 -152 -1 -169 -1 -23 -2 182 -1 -116 -1 43 
-1 177 -2 -401 -1 138 -1 -455 -2 547 -1 -89 -1 104 -1 140 
-1 156 -1 -289 -1 58 -1 162 -1 -13 -1 -270 0 191 0 -207 
-1 84 0 -116 0 153 1 130 0 -204 1 -183 1 221 1 -427 
1 569 1 -32 2 -276 1 -156 2 201 2 110 2 36 2 110 
3 128 2 -177 3 -389 2 187 3 196 3 36 2 -25 3 153 
4 -76 3 -95 3 -76 4 58 3 75 4 -58 4 20 3 -52 
4 -176 4 167 4 -177 4 288 4 -233 4 75 4 -305 4 169 
4 277 4 61 5 -281 2875 2168 100 MP stroke
4 -135 4 92 5 -190 4 97 5 185 4 -79 4 -28 5 288 
4 -399 4 -181 4 420 5 170 4 -177 4 -124 5 -115 4 73 
4 199 4 -136 4 -73 4 -106 4 182 4 45 4 -97 4 58 
3 132 4 54 3 -36 4 -66 3 137 3 -77 3 69 3 1 
3 -32 3 -92 2 119 3 -12 3 118 2 68 3 -164 2 -128 
3 -14 3 19 2 60 2 51 3 -114 2 -93 3 43 3 -52 
2 89 2 -38 3 -161 2 30 3 -232 2 102 2 227 3 -103 
2 -80 3 -210 2 176 3 70 3 194 3 -217 2 32 3 209 
2 -70 3 109 2 -584 3 81 3 358 2 80 3 0 3 -129 
2 -160 3 -83 2 298 3 -336 2 205 3 169 2 46 3 58 
2 -25 3 -309 3 166 2 374 3 -156 3 -83 3 -83 3 -477 
3 256 3 51 3 195 4 163 4 -238 3 -178 4 66 4 69 
4 88 3 -77 4 118 2564 2158 100 MP stroke
4 -257 4 218 4 -35 3 -50 4 154 4 19 3 -37 4 -228 
3 -213 4 149 3 125 4 112 4 -47 3 -1 3 119 4 -207 
3 133 3 221 4 -335 3 -260 4 106 3 258 3 70 4 6 
3 -30 3 -16 3 -140 2 12 3 -174 3 239 2 92 3 32 
2 -91 3 -283 2 301 3 -430 2 215 2 253 3 33 2 47 
2 -47 2 -271 3 7 2 134 2 1 2 -12 2 -552 2 139 
2 -103 3 218 2 502 1 3 2 -196 1 -39 2 -156 1 252 
1 59 1 -54 0 106 1 -200 0 133 -1 -110 -1 50 0 -12 
-1 -118 -2 87 -1 -300 -2 249 -1 -337 -2 250 -2 -41 -3 237 
-2 -156 -3 -173 -2 -37 -3 -460 -3 406 -3 -76 -3 606 -4 -70 
-3 -49 -4 -120 -3 -155 -4 -111 -4 282 -5 -76 -4 103 -5 57 
-4 -13 -5 18 -5 141 -4 -230 -6 116 -5 -334 -5 308 -5 -243 
-5 100 -6 187 -5 8 2530 2170 100 MP stroke
-5 -162 -6 -105 -5 -43 -6 -4 -5 258 -6 -116 -6 108 -6 29 
-6 38 -6 -30 -6 -729 -6 837 -7 -50 -6 -3 -7 -17 -6 -72 
-7 148 -7 33 -7 -48 -6 28 -8 -23 -7 -145 -7 95 -7 102 
-7 -53 -7 -253 -7 209 -7 107 -7 -69 -6 -61 -7 -11 -7 -220 
-7 109 -7 -193 -6 251 -7 89 -7 -166 -6 176 -7 125 -6 -183 
-7 -211 -7 254 -7 37 -6 -89 -7 -270 -7 231 -7 -102 -6 195 
-7 -22 -6 -282 -7 -388 -6 630 -7 -87 -6 -35 -6 134 -6 47 
-6 80 -6 -165 -6 -256 -6 506 -6 -118 -6 -103 -5 -139 -7 212 
-6 -9 -6 -284 -6 286 -6 79 -6 20 -6 87 -6 -58 -6 -19 
-6 272 -6 4 -6 -71 -6 -119 -6 -103 -6 199 -6 -139 -6 -264 
-6 8 -6 3 -6 56 -6 53 -6 34 -6 194 -5 -224 -6 -357 
-4 277 -6 193 -5 -371 -5 263 -5 131 -4 -204 -5 53 -4 88 
-4 -518 -4 547 -3 8 3134 2010 100 MP stroke
-4 72 -3 -284 -3 17 -3 111 -3 -15 -3 -209 -2 137 -3 139 
-2 63 -2 -91 -2 -52 -1 208 -1 -237 -1 184 -1 -493 0 774 
0 -68 1 -338 0 140 1 87 1 180 2 -21 1 -117 2 -202 
1 264 2 -263 2 44 3 242 2 -108 2 -159 3 -366 2 197 
2 -44 3 185 2 -299 3 415 2 20 3 120 2 -113 3 167 
3 -90 2 -45 3 -351 2 -14 3 179 3 -127 3 125 3 -142 
3 195 4 -185 3 -287 3 101 4 -518 3 724 4 133 4 -356 
3 88 4 128 4 135 4 22 4 34 4 -240 5 52 4 -59 
4 77 5 99 4 1 5 101 4 -302 4 245 4 -121 4 -177 
3 393 5 -66 4 -169 4 1 5 72 4 45 4 -63 4 39 
5 -289 4 -132 4 311 5 -79 4 -76 4 160 5 -360 4 414 
4 -51 5 -108 4 391 5 -138 5 -43 5 -168 5 -353 5 -292 
5 554 6 -228 5 160 2885 2373 100 MP stroke
6 195 5 18 5 -121 6 -268 6 210 5 -14 6 53 5 93 
6 3 5 -257 5 -232 5 179 5 164 5 -37 7 -83 5 325 
6 66 4 -150 4 -2 0 -65 4 82 8 47 3 -14 3 -78 
4 127 3 -106 4 103 2 -29 3 -255 2 8 3 181 3 -354 
2 315 2 168 1 75 1 143 2 -158 0 -393 1 281 0 7 
-1 112 -1 89 -3 -299 1 209 -3 50 -2 -71 -1 -515 -2 243 
-1 79 -2 -166 -2 104 -4 303 -10 86 -20 -311 -7 -68 -1 0 
-4 247 -4 -148 -5 -172 3 360 3 -39 -7 -182 -4 -38 -6 50 
-5 -167 -7 37 -6 416 -5 -81 -5 -119 -7 53 -4 -524 -8 353 
-5 170 -2 28 -7 -21 -5 -172 -5 51 -2 -326 -1 -195 -5 573 
-5 108 -4 -227 -3 32 -11 308 -3 41 -3 -352 -4 107 -1 -319 
-8 362 -4 -239 -5 17 -4 262 -5 -3 -4 145 -3 24 -6 -132 
-3 -2 -4 -100 -2 -4 2977 2119 100 MP stroke
-5 99 -2 -151 -2 124 -4 -53 -4 212 -4 81 -3 9 -3 -206 
-3 -244 -3 -302 -3 271 -4 551 -3 -128 -3 -152 -3 -193 -2 -156 
-3 135 -2 87 -2 179 -3 -200 -2 -373 -2 308 -1 82 -2 -362 
-2 287 -1 226 -2 -259 -2 147 -2 104 -2 -184 -2 52 -2 91 
-1 -17 -2 32 -2 -85 -2 -63 -1 -137 -2 221 -2 -193 -1 78 
-2 169 -2 -255 -2 170 -1 -274 -2 167 -2 177 -2 164 -2 -127 
-2 -19 -2 144 -2 90 -2 -300 -3 -337 -2 532 -3 -17 -2 -345 
-4 143 -3 2 -3 -234 -3 48 -4 36 -4 110 -4 -432 -4 132 
-5 200 -4 -123 -5 476 -5 -97 -6 5 -5 -184 -6 83 -5 -8 
-6 8 -6 -256 -6 357 -7 -455 -6 271 -7 148 -7 -174 -7 142 
-7 -180 -7 322 -7 -131 -7 -75 -8 122 -8 -95 -7 62 -8 228 
-8 -90 -8 -277 -8 121 -8 -135 -8 197 -8 123 -8 83 -7 40 
-8 -71 -8 -88 -8 147 3374 1761 100 MP stroke
-8 -127 -8 184 -8 -148 -7 -294 -8 146 -8 249 -8 -54 -8 -271 
-8 -149 -8 119 -8 219 -9 -22 -8 116 -8 -111 -9 23 -9 -339 
-9 432 -9 -160 -8 87 -10 12 -9 38 -9 -287 -10 381 -9 -286 
-10 -485 -10 384 -10 389 -10 -394 -10 98 -10 -128 -10 -204 -11 583 
-10 30 -11 9 -11 -87 -11 -185 -10 180 -11 240 -11 -22 -11 -145 
-11 23 -11 -10 -11 -41 -11 44 -12 119 -10 -139 -11 -275 -10 365 
-11 -96 -10 -1 -10 -142 -10 -43 -10 -222 -9 262 -10 75 -8 37 
-9 -170 -9 99 -9 -96 -8 210 -8 38 -8 -223 -8 -24 -7 54 
-6 22 -6 -144 -6 136 -6 -131 -5 155 -4 112 -5 -112 -4 -273 
-4 314 -3 59 -3 -164 -3 126 -3 -102 -3 73 -2 110 -2 -13 
-3 -54 -2 -7 1 -8 -2 201 0 36 0 -476 0 426 1 -104 
0 14 1 -212 1 4 1 75 1 191 1 -29 1 -299 1 -413 
1 575 1 -45 1 141 4035 1712 100 MP stroke
1 -203 1 -81 0 100 1 122 1 -181 0 57 1 245 -1 -98 
0 181 -1 -104 0 24 -2 -3 -1 26 -2 -200 -1 86 -2 172 
-3 -83 -2 -319 -3 154 -3 147 -4 -20 -5 -13 -4 -280 -5 410 
-6 -123 -7 -23 -6 46 -8 7 -7 156 -8 47 -8 -95 -10 -37 
-9 -363 -10 177 -11 83 -11 -512 -11 547 -11 105 -12 18 -13 -238 
-13 214 -13 -103 -14 26 -13 152 -14 -92 -15 -480 -14 535 -15 132 
-15 16 -15 -220 -15 71 -15 -475 -15 259 -16 257 -15 104 -15 -363 
-15 180 -15 111 -15 -29 -15 -50 -15 -83 -16 -633 -15 610 -15 -41 
-14 237 -15 79 -14 -222 -15 -62 -13 36 -14 -95 -13 -72 -13 197 
-13 -44 -13 42 -12 94 -12 -115 -13 -94 -12 -52 -11 23 -12 23 
-12 82 -11 103 -11 -230 -11 -91 -10 -363 -11 420 -9 38 -10 148 
-10 -176 -9 -15 -9 113 -9 40 -9 -115 -8 179 -8 -145 -8 -24 
-7 234 -7 22 -7 -76 4955 1561 100 MP stroke
-5 5 -6 -143 -4 -189 -4 -109 -3 106 -3 274 -1 45 -1 -84 
-1 94 0 185 1 -278 2 -471 2 144 3 153 3 205 4 74 
5 121 5 43 6 -16 6 -172 7 -487 8 497 7 191 8 -69 
9 -52 8 -101 9 -45 9 118 9 -615 10 596 9 -88 10 187 
9 -62 10 -278 9 -155 10 466 9 -5 9 -279 9 119 8 -126 
9 245 8 -171 8 -222 8 82 7 97 7 89 7 -94 8 -313 
6 117 6 315 6 -96 6 -11 6 -62 5 -51 6 -52 5 -3 
4 124 5 -69 3 52 4 133 4 4 3 -263 2 21 3 -58 
2 193 2 -69 2 85 1 125 2 -174 1 82 1 -37 2 44 
1 -68 1 -264 2 536 0 -35 1 -127 1 53 1 -301 0 108 
0 -197 -1 -281 0 534 -1 1 -1 17 -1 74 0 161 -1 -185 
-1 235 -1 -83 -1 -160 -1 241 -1 -111 -1 -156 -1 -4 -1 266 
-1 -91 -1 174 -1 -195 4630 1557 100 MP stroke
-1 65 -1 -29 0 -201 -1 -15 0 387 0 -118 1 -157 0 30 
1 -168 1 104 1 53 1 204 1 37 2 -421 2 182 1 -50 
2 -399 2 573 2 63 3 142 2 -258 2 -326 3 58 2 152 
3 57 2 62 3 -162 2 214 3 -418 2 232 3 -180 3 137 
2 -100 3 126 2 -213 3 254 3 50 3 -92 3 58 3 -199 
3 142 3 -24 2 600 3 -240 3 36 3 -380 2 317 3 185 
2 -236 2 -130 2 141 2 -342 3 197 2 -606 2 347 2 327 
3 -50 3 24 3 -308 3 315 3 -204 4 -127 3 222 4 -76 
4 17 4 -376 4 257 5 69 4 -151 4 262 5 -650 4 218 
4 126 5 -270 4 122 5 500 4 -36 5 1 5 -44 5 35 
5 -5 5 -156 5 140 5 -160 5 -252 5 31 5 -463 5 896 
4 -115 5 105 4 -197 4 218 4 -190 4 -542 3 596 4 158 
3 1 3 -90 4 159 4343 1479 100 MP stroke
3 29 3 -155 3 -9 3 74 3 -125 3 -267 4 -241 3 471 
3 -252 3 400 3 -604 3 454 3 -251 3 -2 3 364 4 62 
3 -261 3 124 4 -142 3 -71 3 4 4 197 3 -215 3 15 
3 149 3 186 3 -23 3 -52 3 -244 3 -180 3 8 3 227 
2 -89 3 87 2 36 3 74 2 53 2 173 2 97 1 -411 
2 -184 2 236 1 -59 1 120 2 -59 1 86 1 -219 0 -83 
1 -12 1 -122 0 452 1 -92 0 -172 0 33 -1 104 0 -217 
0 225 -1 -117 0 116 -1 -48 -1 -189 -1 164 0 -54 -2 -411 
-1 421 -1 39 -1 63 -1 -83 -1 -599 0 -315 -1 556 -1 501 
0 -27 -1 17 0 -301 -1 182 0 25 -1 -39 0 378 0 -422 
1 167 0 222 2 -17 1 138 1 -96 1 -19 2 -118 2 -44 
2 120 2 -161 2 -7 3 356 3 71 2 -36 3 -329 2 21 
4 -110 3 -120 3 318 4191 1539 100 MP stroke
3 63 4 89 3 -104 4 -5 4 18 4 -128 4 -186 4 -87 
4 198 4 22 5 99 4 15 4 -180 5 -373 4 449 5 -96 
4 -81 5 -104 4 60 5 26 4 -46 5 -99 5 -146 4 -200 
5 655 5 58 4 -30 5 -308 5 315 5 -204 5 -331 5 422 
5 72 5 -34 5 -37 6 -163 5 -150 6 -208 5 232 6 429 
6 71 5 -14 6 -130 6 -70 6 -137 5 -40 6 180 5 20 
6 -41 6 -89 5 -88 5 58 6 -286 5 85 5 295 6 -107 
5 33 5 -523 6 64 5 417 6 -383 6 227 5 189 6 -90 
6 -1159 6 928 5 159 5 -68 6 206 5 21 5 -121 6 -311 
5 355 6 67 4 -161 4 -206 5 142 5 156 4 -395 6 399 
4 -217 5 -97 5 296 3 90 3 74 3 -51 4 -79 3 -56 
2 271 2 18 2 -34 1 20 2 21 4 140 -1 -26 -1 -45 
5 6 -1 -86 -3 39 3750 1680 100 MP stroke
3 11 -1 -45 1 -121 1 -50 -1 -407 -3 359 -2 193 -2 -70 
-3 -127 -2 58 -2 20 -2 26 -4 -455 -2 316 -4 20 -5 -106 
-3 -168 -4 324 -4 124 -5 -284 -4 122 -5 16 -6 -154 -6 -244 
-5 510 -6 -58 -5 65 -6 -252 -7 329 -7 -280 -5 222 -8 73 
-5 -23 -7 92 -7 -37 -7 -228 -5 143 -7 153 -6 -221 -6 -71 
-7 -56 -5 -212 -5 180 -6 -335 -6 244 -5 408 -7 90 -5 -193 
-6 -193 -3 265 -7 -64 -4 159 -5 9 -5 -41 -4 -20 -4 -112 
-4 115 -4 -14 -4 -362 -3 180 -3 -65 -3 435 -2 -188 -4 -173 
-3 30 -4 71 -3 55 -3 -31 -4 -134 -3 -150 -3 56 -4 125 
-4 298 -4 -275 -4 -110 -5 46 -4 212 -5 -129 -4 -133 -6 27 
-5 113 -5 147 -5 124 -6 -174 -6 -452 -6 13 -5 -53 -6 423 
-6 150 -6 74 -6 -44 -6 -153 -5 -189 -6 29 -6 189 -6 -94 
-6 112 -7 23 -6 42 4198 1610 100 MP stroke
-6 -155 -6 187 -7 116 -6 -71 -6 -359 -6 132 -6 200 -6 63 
-6 -72 -5 -22 -6 -25 -5 -43 -5 -53 -6 -62 -5 -33 -6 -368 
-6 443 -5 -273 -6 15 -5 191 -5 134 -6 63 -5 4 -5 -219 
-4 59 -7 139 -5 150 -5 -47 -4 -47 -5 -134 -5 -253 -4 234 
-4 -23 -5 -492 -4 278 -4 59 -4 205 -4 91 -4 -178 -4 -295 
-3 188 -4 98 -2 289 -3 -38 -3 -200 -2 -472 -3 203 -3 304 
-2 -14 -2 -233 -2 169 -2 124 -2 110 -1 -211 -1 -424 -2 475 
0 96 -1 40 0 3 -1 -67 0 92 -1 -112 0 74 0 -176 
0 64 1 -193 1 390 0 -5 2 -143 1 -9 2 -208 2 134 
2 151 3 -106 3 -161 4 -229 3 219 4 339 4 -127 4 -374 
5 -149 4 341 5 312 5 -210 6 -628 5 550 6 -559 6 664 
6 -438 6 -102 7 626 6 -45 7 -490 7 307 7 -228 7 428 
7 -281 7 -72 7 326 4294 1659 100 MP stroke
7 -328 7 286 7 112 7 -409 7 583 7 -58 7 -170 7 -111 
7 84 6 -62 7 137 7 -16 6 -110 7 -23 7 109 6 14 
7 -79 6 -328 7 303 7 343 6 -302 7 66 7 -284 6 136 
7 -61 7 -225 6 248 7 149 6 258 6 -277 7 -108 6 136 
7 62 6 47 6 -261 6 -398 7 219 6 256 6 16 6 -259 
6 189 5 -95 6 298 5 -37 5 10 6 -326 4 131 5 14 
4 -29 4 -93 5 267 4 -101 3 40 4 -166 3 367 4 -331 
3 291 3 -35 3 -184 3 -95 2 96 3 33 2 111 2 20 
2 -79 2 -10 1 23 2 -37 1 -76 0 -431 1 489 0 83 
1 -50 0 11 -1 15 0 -147 -1 76 -1 22 -1 -167 -1 176 
-1 -156 -2 -48 -1 35 -1 -17 -1 173 -2 -260 -1 125 -1 44 
-2 22 -1 -102 -1 -4 -1 -65 -1 -95 0 -191 -1 217 0 303 
0 -105 1 -413 0 460 3947 1768 100 MP stroke
1 -427 2 -133 1 251 2 -265 2 533 3 -785 2 460 3 -204 
3 236 3 193 4 -277 4 -25 4 269 4 -213 5 100 5 0 
5 48 5 154 6 -11 5 -101 5 208 6 -207 6 -30 6 105 
6 -335 7 -136 6 408 7 82 7 -151 6 -194 7 486 7 -114 
7 -299 6 315 7 -115 7 3 6 5 6 21 7 -583 6 377 
6 -341 7 115 6 155 6 112 6 64 6 -41 6 -103 6 218 
6 -166 5 126 6 -221 5 198 5 61 6 -26 5 -263 5 213 
5 -182 5 -35 5 210 5 86 5 109 5 -63 4 -409 5 225 
4 -250 5 380 4 44 5 -62 4 -50 4 -107 4 84 4 -293 
3 169 4 -253 3 336 3 255 4 -44 3 39 4 -58 3 -69 
3 -174 3 172 3 274 3 -8 3 31 2 -12 3 -173 3 -156 
3 72 3 229 3 152 4 -210 3 -80 3 -190 4 21 3 220 
4 -229 4 259 4 -424 3497 2182 100 MP stroke
3 162 4 361 5 67 4 -128 4 48 4 -45 5 -133 4 -316 
5 466 4 -86 5 -201 5 -297 5 509 5 -39 5 -478 6 343 
6 -116 5 254 7 -512 6 485 6 -485 7 414 7 55 7 -369 
7 100 8 -5 7 11 8 85 9 20 8 98 9 -128 9 120 
9 -74 10 -279 9 451 10 -430 10 204 10 -130 10 251 10 -41 
10 -138 10 232 10 18 10 -73 9 -203 10 233 10 -36 9 -101 
10 -58 9 102 9 -165 9 106 9 -279 8 166 9 39 8 35 
7 141 8 -55 7 -142 8 117 7 103 7 -87 7 -216 7 -104 
6 200 7 -69 7 -117 7 103 6 30 7 -109 7 -67 6 73 
7 151 6 -106 6 -34 7 61 6 61 6 45 7 -88 6 24 
6 -463 6 251 6 465 6 -233 6 58 5 -40 5 83 5 -43 
5 28 5 136 4 18 5 -381 4 -95 3 285 4 88 3 -89 
2 188 3 59 2 -252 2834 2114 100 MP stroke
2 41 1 -52 2 -602 0 616 1 74 0 143 0 -348 -1 -62 
-1 226 -1 -85 -1 173 -1 -177 -2 -17 -1 -262 -2 221 -1 -334 
-2 398 -1 -496 -1 394 -2 -150 -1 379 0 -41 -1 -427 -1 -110 
1 197 0 61 0 -226 1 297 2 -393 1 400 2 -62 2 96 
3 -157 2 138 3 98 4 -131 4 -119 4 55 4 84 5 220 
5 34 5 -266 5 101 6 251 6 -47 6 -378 6 -446 7 74 
6 642 8 -27 7 33 7 -66 7 -58 8 -150 7 -39 8 327 
8 112 8 -15 8 -1 8 -210 8 -222 8 5 9 170 8 60 
8 -186 9 119 8 94 9 -146 9 26 8 -135 9 94 8 -136 
8 287 9 -538 9 -18 9 205 8 -83 9 98 9 271 9 -109 
9 -154 8 111 9 -355 9 258 9 88 8 215 9 -404 8 310 
9 -229 9 82 9 81 8 -113 9 196 8 4 9 -134 9 52 
9 48 8 -55 8 47 2339 2279 100 MP stroke
8 -180 9 75 8 -257 10 149 9 42 7 199 8 21 8 33 
7 -136 8 -265 7 -153 7 240 6 89 7 35 6 39 7 -360 
5 160 6 172 6 -120 4 -384 5 279 5 27 5 3 4 307 
3 3 4 -212 3 4 3 33 3 20 3 4 2 -170 3 146 
1 -88 2 226 1 -231 1 -204 0 208 1 -19 0 -17 0 136 
-1 142 -1 -31 0 139 -1 -344 -2 -282 -2 200 -1 -7 -3 345 
-3 95 -2 -236 -4 -29 -3 -74 -4 179 -4 -57 -5 -53 -4 -225 
-5 -155 -5 307 -5 98 -7 -197 -5 321 -6 -15 -6 -328 -6 113 
-7 194 -7 140 -7 -124 -6 2 -7 -98 -7 -93 -8 -92 -7 185 
-8 89 -7 -183 -8 208 -8 -516 -8 14 -7 146 -8 187 -8 -667 
-8 494 -8 96 -7 -113 -8 -120 -8 121 -8 110 -8 -193 -7 465 
-8 -128 -7 -317 -8 109 -7 5 -7 47 -7 173 -7 -221 -6 63 
-8 122 -6 -87 -6 0 2489 2501 100 MP stroke
-6 -44 -6 33 -5 163 -6 60 -4 -134 -5 -8 -4 6 -5 92 
-4 -98 -4 120 -4 -63 -2 -152 -5 -72 -2 189 -4 152 -3 82 
-2 -83 -3 -118 -2 -134 -3 36 -2 -70 -2 170 -2 -97 -3 -8 
-2 -150 -2 386 -2 -95 -2 -41 -2 48 -2 123 -2 -25 -2 -246 
-3 -10 -2 244 -2 22 -2 -409 -2 432 -3 -65 -2 -43 -2 -106 
-2 25 -2 -224 -2 488 -2 -72 -2 -183 -2 15 -3 119 -1 -166 
-2 -132 -1 248 -2 -288 -1 -237 -2 436 -1 -273 -1 319 -2 -83 
-1 -92 -1 13 -1 114 -1 18 -1 -105 -2 32 -1 73 -1 -195 
-1 203 -2 126 -1 -12 -1 -7 -2 -149 -1 -30 -2 172 -1 120 
-1 -75 -1 -93 -1 -11 -2 -29 -1 269 -1 -215 0 -31 -1 193 
-1 -93 -1 -296 -1 347 -1 -271 -1 85 -1 158 -2 -305 -1 35 
-1 289 -1 171 -1 -173 0 3 -1 -51 -2 -133 0 -29 -2 112 
0 -2 -1 -187 -1 405 2686 2068 100 MP stroke
0 -33 -1 -400 0 208 -1 119 0 24 -1 -356 0 -292 0 724 
1 113 0 -181 -1 96 1 -127 0 -74 0 68 1 201 -1 -214 
1 47 1 -322 0 397 0 -160 1 -16 0 153 0 -87 -1 61 
0 -251 -1 200 0 103 -1 10 -1 -226 0 203 -1 -263 -1 233 
-2 -13 0 -107 -2 219 -1 -134 -2 65 -1 152 -2 -351 -1 335 
-2 -20 -2 -455 -2 235 -2 172 -2 -179 -3 -127 -2 201 -2 232 
-3 -160 -3 -9 -2 -119 -3 -143 -2 -106 -3 196 -3 263 -2 27 
-3 -207 -3 -265 -3 265 -2 -67 -3 9 -2 -64 -3 360 -3 54 
-2 -223 -2 22 -3 -386 -2 86 -2 398 -2 -109 -2 -91 -1 154 
-2 49 -1 -167 -2 -169 -1 -229 -1 576 -1 -54 -1 155 -1 -128 
-1 -409 0 503 -1 -79 0 60 0 -468 0 126 1 132 0 72 
1 24 1 -117 0 -418 1 408 1 151 1 -197 1 4 1 72 
2 -233 1 -292 1 -126 2778 2754 100 MP stroke
1 698 1 -416 1 291 2 137 1 74 1 -137 2 -62 1 7 
2 33 1 -105 2 76 1 -61 1 153 2 -286 1 109 2 -56 
1 24 1 225 2 -47 1 -118 1 -5 1 50 1 143 1 -460 
1 74 1 -52 1 408 1 -79 1 37 0 -93 2 28 0 38 
1 -340 0 311 2 60 0 -23 1 -101 1 -101 1 109 0 -446 
1 417 1 57 1 -16 1 67 1 36 1 -109 1 43 1 66 
1 -34 1 -71 1 -439 1 382 1 164 1 -121 1 261 1 -184 
2 33 1 -192 2 287 2 -46 2 -198 2 154 2 100 2 -40 
2 -109 3 -284 3 290 3 -78 2 214 4 98 3 90 3 -270 
3 -10 4 43 3 140 4 -62 3 -178 4 -112 4 -114 3 251 
4 38 4 -55 4 -241 3 378 5 -68 4 -226 4 133 4 81 
5 -348 5 125 4 100 5 -55 5 -11 4 38 6 -29 4 -261 
6 437 5 -443 5 17 2566 2521 100 MP stroke
5 285 6 -179 5 206 5 104 7 -316 5 210 6 -87 6 -389 
6 366 5 223 7 48 6 -273 7 85 5 -72 6 97 10 -147 
6 -3 8 -136 7 167 7 -28 8 215 9 -448 7 282 8 76 
8 -71 8 -101 8 -46 9 68 8 212 8 -17 8 -226 8 141 
9 64 8 -470 9 470 8 -281 9 219 8 48 8 -61 8 58 
8 -65 8 -59 8 252 7 37 6 -173 8 -114 8 3 5 -6 
7 -244 6 -94 6 266 5 -189 5 -303 6 234 1 0 8 -66 
5 54 3 170 5 -102 4 50 4 343 3 -92 3 -225 3 169 
3 -146 3 -393 3 192 3 20 3 53 3 304 2 79 2 -26 
3 -484 1 439 2 138 2 -359 1 14 2 55 3 5 1 103 
2 10 1 -220 1 52 3 73 0 -806 2 686 1 311 1 26 
1 -381 0 31 2 376 -2 -390 0 -94 0 222 1 223 1 -127 
-1 199 0 -90 -5 84 2100 2203 100 MP stroke
0 -62 -1 -3 -2 -561 -2 578 -2 101 -2 -83 -3 -115 -3 18 
-3 -8 -4 -637 -4 688 -3 -133 -3 100 -5 110 -5 -114 -7 -428 
-4 -129 -6 -21 -6 399 -6 226 -8 -295 -7 -719 -5 877 -8 -85 
-6 -79 -6 -73 -7 235 -4 228 -10 -287 -6 241 -5 -125 -8 69 
-3 -185 -7 146 -5 -54 -6 -16 -4 156 -6 33 -4 -179 -3 -118 
-3 -17 -3 291 -3 -67 -3 -91 -3 148 -1 -98 -2 -18 -3 133 
-1 33 -1 -10 -2 -329 -2 -16 -1 359 -2 -26 -1 -153 -2 105 
0 -510 -2 66 -2 399 -1 117 -1 -51 -1 -262 -3 81 -1 -109 
-1 -35 0 233 -2 18 0 24 -2 243 0 -273 -1 -399 -1 386 
-1 -15 -1 -8 0 35 -2 -123 3 68 -4 97 1 -102 -1 -341 
-3 370 0 97 0 -58 -1 -41 -2 -118 0 -274 0 542 -3 -221 
0 50 -1 -54 -1 -25 -2 17 0 -367 -2 181 -1 193 -2 -121 
-1 -140 -2 110 -1 -137 2367 2720 100 MP stroke
-2 498 -2 -22 -2 -203 -2 -247 -2 233 -2 103 -2 64 -3 -8 
-2 -108 -3 -219 -3 377 -2 -71 -4 -168 -2 5 -4 240 -2 -291 
-4 46 -4 157 -4 72 -4 -127 -4 -53 -4 -194 -4 158 -3 9 
-5 -103 -4 186 -4 143 -5 -392 -4 -160 -5 196 -3 -54 -5 190 
-4 -5 -3 211 -6 -315 -5 -261 -4 245 -5 111 -4 1 -5 -55 
-5 93 -5 -144 -3 -77 -5 97 -4 128 -4 102 -5 110 -4 -345 
-4 2 -5 310 -4 71 -4 -212 -5 -109 -4 290 -5 -99 -4 -66 
-5 -88 -3 -98 -6 -272 -4 542 -5 161 -4 24 -6 -70 -2 -138 
-4 118 -4 20 -2 -395 -4 256 -4 -82 -5 64 -3 -12 -3 38 
-2 29 -5 -292 -1 292 -3 63 -4 251 -2 -353 -2 -97 -3 -12 
-2 59 -3 -203 -2 381 -2 35 -2 -23 -2 8 -2 -510 -1 349 
-2 -325 -1 108 -2 232 -1 -29 -1 -19 -1 160 0 -96 -1 -71 
0 -430 0 548 1 225 2688 2032 100 MP stroke
0 -33 1 -216 0 -255 2 466 2 32 1 -348 2 276 2 -201 
2 -27 2 315 2 -112 3 21 3 -77 3 -64 3 -159 4 -82 
3 -129 4 152 3 44 4 159 3 -100 4 -13 4 -336 4 566 
3 -32 4 -91 4 20 4 -371 4 426 3 -79 4 -36 3 -168 
4 -9 4 54 3 9 3 50 3 -7 3 -124 3 -181 3 -246 
3 519 3 49 3 -15 2 -353 3 16 2 -225 2 405 3 -96 
1 270 2 44 1 -386 1 38 2 249 1 -232 1 258 1 -13 
0 -197 0 429 -1 -8 0 -185 -2 -157 -2 -47 -2 -267 0 350 
-4 -157 3 -216 -4 522 0 7 -4 -146 1 240 -3 -273 -6 -91 
4 68 -8 212 -2 11 -3 1 -3 -42 -3 -21 -3 11 -4 -86 
-2 -290 -3 205 -3 286 -4 52 -4 -530 -5 61 -4 393 -3 -61 
-4 4 -4 -64 -4 44 -5 -118 0 -212 -1 256 -8 12 -1 -234 
-8 429 3 -259 -8 192 2655 2286 100 MP stroke
-6 7 -3 -268 0 -108 -1 314 -9 -152 4 -54 -7 61 -3 196 
3 160 -9 62 3 -106 -3 93 -6 22 3 -166 -4 -314 -5 30 
-1 343 -2 -68 -1 75 -2 -75 0 -461 -2 154 -1 301 0 13 
0 -149 -1 -124 0 101 0 -22 -1 10 0 -270 0 121 1 -87 
0 320 0 -196 1 140 0 261 0 -190 2 -10 1 -185 1 -92 
2 327 0 118 1 79 1 8 2 -409 1 -133 -1 344 2 -82 
2 101 5 31 1 1 3 105 0 -58 2 -211 2 -166 3 133 
4 245 3 37 2 75 2 -57 4 -172 3 -90 4 31 3 255 
4 -227 5 77 4 59 5 -15 4 -278 5 197 3 -108 4 -489 
4 51 4 369 4 291 5 -141 4 -119 5 -111 3 -1 4 196 
6 -499 3 282 4 83 5 20 5 37 4 52 3 -40 4 -111 
4 35 5 -193 4 32 5 122 4 175 4 -126 5 100 4 75 
4 -165 5 38 5 -116 2502 2535 100 MP stroke
3 99 6 -14 4 71 6 -75 5 -80 5 -81 6 -365 5 482 
6 -213 5 455 6 -208 6 -51 6 23 6 104 6 -125 6 -464 
7 321 6 109 7 -59 8 105 6 40 7 98 7 -208 6 -216 
7 277 6 162 8 44 5 -75 7 -329 8 176 7 -8 6 106 
7 -90 6 -668 7 674 7 104 7 -45 6 -123 7 -19 5 -110 
7 95 6 266 8 -162 5 -17 7 -60 6 -42 6 -49 6 -26 
6 263 6 -24 6 -152 6 70 6 62 5 35 8 100 4 -234 
7 31 6 -282 6 109 5 -27 7 -27 6 -208 7 509 5 28 
9 -213 3 281 11 -359 1 47 19 214 17 187 -2 -87 9 13 
2 -356 8 218 6 -121 8 -48 8 -330 3 453 8 -287 7 11 
6 22 7 -224 6 106 12 433 1 -167 8 -179 5 80 -4 82 
2 105 11 -144 5 96 7 -105 6 -210 4 -61 9 254 6 118 
4 -86 9 32 5 -42 1882 2720 100 MP stroke
5 -76 6 49 5 -144 7 95 6 109 4 152 8 -140 4 -265 
4 117 6 50 4 50 6 -10 4 -388 11 586 16 302 0 -242 
7 7 2 -164 -8 -33 1 298 7 -172 3 23 5 -117 3 -180 
5 69 2 -41 5 65 2 -40 3 55 2 2 4 2 2 -147 
3 40 1 130 4 5 2 -329 5 83 1 159 3 -43 2 6 
4 79 0 -216 3 339 4 146 4 -24 1 200 14 -799 3 647 
-2 -90 5 -45 1 102 4 -9 -3 65 10 -64 2 107 -3 -196 
-1 358 5 -78 2 -9 3 0 2 52 11 -485 3 129 2 28 
3 5 3 54 2 23 1 196 4 43 -4 -179 1 -41 3 -82 
2 -2 3 -277 1 172 3 -48 1 14 2 -99 1 -158 2 -119 
2 165 1 -46 1 20 0 143 1 85 2 -55 1 -255 -1 158 
0 166 1 -135 0 -607 -2 349 2 114 5 216 -2 -143 1 328 
-2 -126 3 -254 0 -169 1605 3104 100 MP stroke
0 68 -3 70 -2 427 3 -292 -3 240 1 -212 -1 143 1 295 
-1 -202 -3 -163 0 202 -1 77 -1 -139 -1 -375 -2 130 2 246 
-3 -30 -1 46 -1 -643 -2 181 -1 111 0 217 -3 76 -1 -141 
-4 50 0 55 -1 -336 -1 246 -2 -155 -1 306 -3 -28 -3 -157 
2 -116 -3 -194 -1 440 -2 206 -1 -129 -1 -214 -1 82 -1 192 
-2 18 0 -48 -3 -19 -3 -147 -1 80 -2 171 -1 79 -1 -23 
-2 -188 -3 76 -2 188 -1 -241 -3 -40 -3 -418 -2 -17 -3 207 
-3 248 -2 58 -3 -423 -2 395 -4 -421 -2 364 -2 97 -5 -178 
-2 -26 -4 205 -4 87 -2 -119 -2 -195 -6 245 -5 33 -1 -160 
-4 -48 -4 93 -3 44 -6 92 -2 -628 -4 329 -3 92 -4 186 
0 146 13 -29 -6 -133 -1 160 -6 3 -1 193 -20 -507 -5 11 
-4 246 -2 44 -4 11 -4 -97 -3 -93 -4 -44 -3 80 -4 -196 
-4 -893 -4 964 -3 99 1827 2511 100 MP stroke
-4 66 -3 -179 -3 -35 -4 -56 -3 -48 -4 75 -3 -564 -4 631 
-1 180 -4 -122 -4 -421 -3 9 -4 396 -3 -10 -4 -130 -4 -44 
-4 203 -4 170 -4 74 -4 -349 -4 -253 -4 274 -4 7 -4 58 
-4 -37 -4 71 -4 -129 -4 -468 -4 439 -5 226 -4 -344 -4 9 
-5 -68 -4 52 -5 -9 -4 119 -5 224 -4 -99 -5 -299 -4 261 
-5 -399 -4 90 -5 393 -4 133 -4 -205 -4 -2 -5 -9 -5 -195 
-4 192 -5 -6 -4 78 -4 157 -5 -41 -4 -430 -3 -18 -5 271 
-4 24 -3 -66 -4 -65 -4 -39 -3 -88 -4 -309 -3 12 -3 7 
-3 102 -3 -128 -2 225 -3 -56 -2 -56 -2 -26 -3 216 -3 -325 
-2 179 -2 8 -2 -5 -2 -153 -2 230 -1 -56 -2 -21 -1 -135 
-1 317 -1 64 -1 -264 -1 52 0 -602 -1 806 0 128 0 -686 
0 542 1 -360 1 333 1 -68 1 -29 1 104 1 239 2 -88 
2 -198 1 89 2 -60 2108 2828 100 MP stroke
2 254 2 -243 2 215 1 -57 2 -56 2 0 2 -266 1 187 
1 0 1 143 2 -29 0 -350 1 337 1 209 0 -334 -1 247 
0 3 -1 -50 -1 -102 -1 149 0 32 -2 -78 -1 -25 -1 154 
-1 -46 -1 -184 -2 48 -2 -190 -2 172 -2 117 -2 -14 -3 -150 
-2 216 -2 -73 -2 89 -2 -330 -3 -161 -2 123 -1 297 -3 95 
-1 15 -2 -3 -2 -237 -2 262 -1 -67 -2 -10 -2 112 -1 -59 
-1 -72 -2 -40 -1 120 -1 85 -1 86 -1 -198 -1 -123 -1 15 
-1 120 0 87 -1 29 -1 -72 0 -303 -1 148 0 277 0 -642 
0 551 1 -295 0 169 1 59 0 81 1 84 0 -86 1 -78 
1 174 1 -9 1 8 1 -434 1 210 1 68 1 68 2 52 
2 -91 1 104 2 -88 1 -310 2 -154 2 380 2 213 1 -85 
2 -50 2 177 2 -244 2 -51 1 175 2 -309 2 -128 2 185 
2 184 2 144 2 -80 2107 2355 100 MP stroke
3 -163 2 206 2 -180 3 -40 2 167 2 -120 2 195 3 25 
2 -164 3 -112 2 340 2 66 3 -245 2 -559 2 238 2 118 
2 -47 2 139 3 -113 1 114 2 165 2 -114 2 -326 1 161 
2 19 2 162 1 -55 1 92 1 -553 1 482 1 -226 1 -77 
1 76 0 298 0 -42 -1 -152 0 158 -1 -85 -1 -265 -1 224 
-1 137 -1 -49 -1 85 -2 -414 -1 -101 -2 380 -2 35 -2 -188 
-2 254 -2 -111 -2 -217 -1 -146 -2 368 -2 -13 -3 51 -2 89 
-2 -176 -2 -127 -3 -383 -3 570 -3 100 -2 76 -4 -74 -3 107 
-3 -182 -3 -64 -4 326 -4 -81 -4 -194 -4 -309 -4 324 -4 169 
-5 -42 -5 30 -4 57 -5 -15 -5 -192 -5 -446 -5 364 -5 199 
-5 32 -5 -59 -5 -248 -5 25 -4 178 -5 -158 -5 -53 -5 -110 
-5 89 -5 -189 -5 447 -5 -196 -5 333 -4 -246 -5 243 -5 -310 
-5 207 -5 132 -5 37 2260 2197 100 MP stroke
-4 31 -5 -7 -4 -100 -5 -249 -4 -105 -5 241 -4 166 -4 201 
-4 115 -5 -119 -4 -419 -4 321 -3 172 -4 -103 -4 -193 -4 86 
-3 -223 -3 -30 -4 111 -3 292 -2 -150 -3 -119 -2 12 -2 -22 
-3 111 -1 -80 -2 -107 -1 230 -1 -47 -1 -58 -1 -492 -1 -163 
0 749 0 -249 1 94 0 -129 1 264 1 -183 1 -145 2 226 
1 127 3 -123 2 -44 3 -208 3 -142 3 409 5 -10 4 65 
4 75 5 -419 6 -29 6 125 7 -440 7 130 8 551 8 -200 
9 -264 9 446 9 -83 10 -31 10 120 11 -267 11 120 11 66 
12 6 12 74 12 -77 13 -151 12 114 13 100 14 -35 13 -177 
13 65 14 144 14 -84 13 -136 14 157 13 -97 14 -83 13 -500 
13 519 13 -76 13 20 13 -440 12 182 12 107 12 -128 11 -248 
12 308 10 22 11 -542 10 -832 9 1419 9 -29 8 7 8 -280 
8 313 7 -36 6 -56 1793 2743 100 MP stroke
6 -82 6 241 5 174 4 -104 4 -132 4 -177 3 219 3 -99 
2 -25 2 42 2 19 1 19 0 -65 1 -220 -1 2 -1 130 
-1 -40 -1 -163 -2 231 -2 93 -1 -75 -3 -79 -2 -42 -3 9 
-3 -235 -3 487 -3 -197 -4 118 -3 -238 -4 15 -4 27 -3 -141 
-4 -593 -4 395 -4 231 -5 105 -4 -182 -4 331 -4 -162 -5 -160 
-4 115 -5 19 -3 -51 -5 -198 -4 267 -4 -36 -4 -7 -6 -82 
-4 227 -4 -231 -5 -552 -4 325 -4 -159 -4 387 -4 -24 -4 60 
-2 99 -3 101 -3 -318 -3 172 -2 46 -2 -51 -2 290 -2 100 
-1 -174 -2 125 -2 -181 -1 148 -1 -9 0 -210 0 200 -1 -190 
-1 166 0 -470 0 474 -1 15 0 -3 1 -187 0 -423 2 487 
-1 -3 1 -205 0 278 0 -307 0 291 1 -387 -1 416 0 97 
1 50 0 -174 -1 -434 2 510 0 -150 0 157 1 -172 2 -687 
0 615 2 -91 1 290 1914 2705 100 MP stroke
1 -304 1 328 2 114 2 -127 1 -157 3 -159 3 80 2 186 
3 210 3 29 4 -434 3 102 4 58 5 47 5 -197 4 -6 
5 150 5 -279 7 170 4 399 6 -135 6 -375 6 32 7 394 
6 -156 7 13 6 -222 7 -183 6 425 8 -319 6 186 6 136 
6 -286 7 105 5 55 5 -29 5 -280 5 204 4 235 4 -243 
4 -37 2 157 2 -54 2 126 2 -141 0 -225 1 63 -2 250 
-1 -313 -2 241 -1 -191 -4 124 -2 -288 -3 398 -3 -68 -4 -6 
-5 -175 -4 175 -5 127 -4 143 -4 -52 -6 -300 -5 205 -10 137 
-4 -175 -3 45 -7 75 -4 -259 -7 150 -6 -136 -7 189 -6 130 
-6 34 -6 -288 -7 51 -6 209 -6 -8 -6 -99 -4 240 -7 -296 
-12 63 0 21 -5 102 -4 -81 -7 55 -7 -482 -3 319 -7 -33 
-5 -111 -5 131 -6 87 -6 17 -4 -82 -2 176 -6 -85 -5 88 
-5 -323 -4 -107 -4 -18 1970 3043 100 MP stroke
-3 343 -4 46 -2 168 -5 -324 -3 0 -4 30 -2 39 -2 130 
0 -12 -3 -62 -3 -274 1 299 -1 -71 -1 -337 -2 296 0 231 
1 -27 -1 -167 -2 94 1 -47 2 -78 2 197 4 248 3 -107 
1 -169 3 160 0 -203 4 -226 1 254 3 -37 2 108 4 -296 
2 -34 3 -36 3 292 3 32 3 -138 3 -421 3 174 4 417 
3 -161 3 -21 2 -376 1 698 6 -54 2 -306 4 146 5 -6 
1 -48 6 77 6 -83 3 -66 5 -353 4 692 4 -147 5 -60 
4 -43 5 175 5 -369 5 -53 2 468 7 31 3 -76 7 -100 
6 -636 5 354 5 -113 5 -136 4 280 5 119 5 -56 5 -3 
5 -27 5 232 4 -134 5 -321 5 204 4 219 4 -36 5 48 
4 -383 5 128 4 329 4 42 4 -198 4 232 3 -68 4 -524 
4 491 3 -288 4 417 2 -55 4 -141 3 -31 3 49 2 -212 
3 128 2 259 2 -163 1713 2580 100 MP stroke
2 -174 2 -187 1 -74 1 141 1 203 1 -51 1 -130 0 6 
2 177 3 88 -1 -149 -1 97 0 90 0 -441 0 391 -1 -227 
0 159 -1 28 0 -214 -1 -169 -1 363 -1 130 -1 -97 -1 -116 
0 -18 -2 138 -1 -163 -1 -37 -2 210 -1 11 -4 -202 -1 -689 
-2 718 -2 99 -1 175 -2 -204 -2 71 -2 -145 -2 66 -3 -30 
-2 177 -2 -129 -2 -147 -2 77 -2 449 0 -165 -5 -199 -2 -118 
-3 -82 -4 476 -3 -22 -3 -328 -3 -261 -3 520 -3 64 -3 -132 
-3 -355 -4 61 -2 175 -3 -17 -3 144 -4 95 -6 35 -2 -345 
-2 -103 -3 222 -2 -6 -4 -138 -1 96 -2 -76 -3 312 -2 -309 
-1 -24 -3 1 0 -118 -2 -201 -3 178 1 130 -1 174 -1 110 
0 -272 -1 75 0 80 1 -78 0 -214 0 240 2 60 1 -103 
0 -161 1 -531 2 555 0 38 2 -13 2 -109 2 74 2 -82 
2 103 3 276 2 -175 1813 2752 100 MP stroke
3 -100 3 159 4 -170 3 -8 4 49 4 72 4 -137 4 -79 
4 -26 5 -32 5 99 5 -185 4 236 6 201 4 -96 5 -179 
5 -41 6 315 4 -58 8 179 4 -81 2 -278 6 49 5 -15 
5 125 3 104 5 -44 4 -623 4 154 4 90 4 188 4 -143 
4 -179 3 103 4 52 4 -7 3 94 3 76 4 13 2 -95 
3 -379 2 360 3 172 2 -98 3 196 2 -107 2 -147 2 -144 
2 101 3 98 3 -203 0 168 2 10 2 -138 3 -386 2 610 
2 -14 2 -89 5 100 1 -171 4 408 1 -96 0 -195 2 182 
4 -126 2 43 2 46 2 -106 2 -212 1 369 2 44 2 -171 
2 -407 1 58 2 207 1 -170 2 258 1 341 0 -784 1 -2 
1 -15 -1 335 1 -284 0 -47 -1 26 0 2 -1 -90 0 274 
-1 -100 -1 19 -1 66 -1 -167 0 319 -3 136 -1 -203 -2 -150 
-2 229 -1 243 -2 21 1582 2730 100 MP stroke
-5 82 -1 59 -2 -71 -2 -360 -3 436 -3 -95 -3 11 -4 -519 
-3 390 -4 72 -4 153 -4 -30 -3 -80 -4 -364 -5 -618 -3 1048 
-4 -84 -3 -283 -5 216 -4 -126 -4 191 -5 136 -3 -185 -4 -363 
-5 250 -5 -147 -3 78 -5 -155 -5 53 -3 0 -5 98 -4 -466 
-6 481 -4 13 -4 -36 -5 69 -4 -41 -5 99 -4 -36 -4 69 
-4 -245 -4 175 -4 164 -5 -61 -4 -110 -3 206 -4 23 -4 -203 
-4 -183 -4 338 -4 -14 -4 -19 -4 -137 -3 -228 -3 -501 -4 548 
-2 87 -6 36 -5 -90 -1 142 -4 80 -3 -139 -4 -553 -2 235 
-4 364 -2 -305 -4 358 -2 103 -4 -52 -2 -112 -3 226 -3 -330 
-4 167 -2 266 -3 -29 -3 1 -2 -606 -2 240 -3 223 -3 -50 
-1 33 -3 -43 -2 15 -2 -175 -2 -171 -2 63 -2 49 -1 -49 
-2 211 -1 72 -2 -283 -2 -8 -1 183 0 226 -2 -218 -1 -293 
-2 134 -1 380 0 53 1902 2591 100 MP stroke
-1 -247 -1 82 0 -473 -2 313 1 176 0 -32 -1 120 -1 176 
1 -114 0 -532 0 395 -1 -182 1 26 0 -509 0 863 1 -273 
0 219 0 -249 1 135 0 101 1 -184 0 363 1 -308 1 -207 
1 386 0 -258 1 -278 2 402 1 -218 1 264 1 66 2 -577 
1 179 2 -142 1 377 2 -257 3 177 2 100 2 200 2 -116 
2 -106 2 -91 3 226 2 111 3 -187 1 0 4 200 2 -77 
2 -228 3 265 2 -179 2 -37 3 324 2 -160 3 -120 2 -192 
2 217 2 -111 2 195 1 291 2 -169 1 -216 0 -360 2 43 
1 320 0 -264 1 108 1 299 -1 176 0 -223 -2 -391 0 210 
-2 -23 -2 53 -2 -207 -1 197 -1 -265 -2 301 -2 262 -3 -560 
-4 182 -2 280 -4 -242 -3 -103 -4 235 -4 71 -4 -112 -4 106 
-4 155 -4 119 -4 25 -4 -129 -4 -120 -4 92 -5 86 -4 -83 
-4 -103 -4 117 -4 -6 1916 2425 100 MP stroke
-4 -126 -4 3 -4 95 -4 32 -4 -23 -4 -59 -4 -109 -3 -152 
-4 193 -4 118 -3 -149 -3 -317 -4 271 -3 -154 -3 123 -3 83 
-3 135 -3 -150 -3 -133 -3 301 -3 -297 -2 -6 -3 -14 -2 202 
-3 87 -2 -82 -2 -94 -2 -76 -2 -109 -2 144 -2 -27 -2 230 
-2 -447 -2 501 -1 11 -2 -418 -2 215 -1 -233 -1 450 -2 -30 
-1 -326 -2 193 0 139 -1 94 -1 73 -1 -330 -1 474 0 -181 
-1 -39 -1 -74 0 -286 -1 303 -1 -179 0 -350 0 339 -1 77 
0 240 0 -389 -1 362 0 -241 0 346 -1 61 0 -392 -1 -90 
0 166 -1 88 0 127 -1 -22 0 -479 -1 97 0 348 1 -56 
-3 -433 2 482 1 49 -3 -113 2 -504 2 -180 -3 341 3 -29 
1 311 0 -202 1 -179 0 -63 1 226 0 135 1 -206 0 244 
1 -134 1 -28 1 32 0 130 1 51 2 -130 0 195 1 -195 
3 109 -4 132 -1 -43 2033 2345 100 MP stroke
3 -5 0 -246 2 -302 1 342 1 24 2 10 1 73 1 42 
1 100 2 -141 2 -212 1 -17 2 172 2 -299 2 138 1 136 
2 -393 2 250 2 31 2 -209 2 277 1 -48 2 -630 3 274 
1 213 2 -122 2 -186 2 35 1 118 1 317 3 -230 0 71 
2 -326 2 -113 2 203 2 -12 2 -45 2 -80 3 119 3 254 
2 -32 3 43 2 -125 3 -292 3 178 1 160 3 117 3 129 
2 190 2 -59 3 -200 3 -49 2 37 3 105 1 -174 3 163 
2 -124 3 25 2 -210 3 303 2 6 2 -2 3 -165 2 -185 
2 498 3 -121 2 139 2 -58 3 53 2 -139 2 3 2 -113 
2 -377 2 524 2 -138 1 -53 2 87 2 -406 1 -64 2 9 
1 148 1 -288 2 628 1 -114 0 121 1 -108 1 88 1 34 
0 -96 1 43 0 -226 0 557 -1 -303 0 64 -1 -6 0 -207 
0 36 -1 -105 -1 374 1868 2439 100 MP stroke
0 -30 -1 156 0 -245 -1 -51 -1 -123 0 220 -2 -120 -1 284 
-1 -224 -1 -67 -1 -248 -1 458 -1 -117 -1 79 -2 -24 -1 -685 
-1 404 -2 311 -1 56 -2 17 -1 -369 -2 261 -1 196 -2 -45 
-1 70 -2 -3 -1 -82 -2 -321 -2 75 -1 242 -2 71 -2 -42 
-2 -81 -2 -115 -2 -239 -2 -215 -1 54 -2 158 -2 -61 -1 200 
-2 -53 -2 58 -1 -121 -2 -183 -1 87 -1 -51 -2 -78 -1 53 
-1 -4 -2 100 -1 -19 -1 -169 -1 -19 -1 5 -1 -289 -2 475 
-1 -73 -1 -202 -1 286 -2 -24 -1 -250 -1 160 -2 89 -1 31 
-1 -266 -2 111 -2 148 -1 -67 -1 62 -2 -136 -1 -72 -2 74 
-1 87 0 114 -2 -135 -1 -131 -1 102 -1 -50 -1 56 -2 -106 
-1 -22 -1 -191 -1 168 -1 -100 -1 241 -1 119 -1 -64 0 -88 
-1 -37 -1 -175 -1 176 -1 -81 0 -34 -1 66 0 -267 -1 150 
0 216 -1 12 0 116 1989 2829 100 MP stroke
-1 15 0 -248 0 18 -1 53 0 -12 0 244 -1 17 0 -19 
-1 -452 0 131 -1 310 -1 110 0 -109 -1 -53 -1 -393 -1 419 
0 -64 -1 191 -1 -20 -1 0 -1 -90 -1 77 -1 130 -1 -176 
-1 30 -2 33 -2 21 -1 54 -2 102 -2 -69 -2 75 -1 6 
-2 85 -2 -299 -2 129 -2 -62 -2 -29 -2 103 -2 -119 -2 45 
-2 208 -1 -25 -2 -229 -1 15 -2 188 -2 -246 -2 134 -1 -60 
-2 48 -2 -214 -1 343 -2 -83 -2 -82 -2 26 -1 129 -2 -165 
-1 69 -2 -167 -1 -225 -2 393 -2 138 -1 -716 -2 320 -2 -42 
-1 -190 -2 502 -1 384 -1 -188 -1 -78 -1 65 0 -240 0 274 
1 -93 1 -23 1 -281 1 112 1 24 2 255 2 -106 2 60 
2 -558 2 665 3 -91 3 -400 4 118 3 -195 4 -110 4 302 
4 -248 6 350 4 -96 5 185 4 -175 6 -168 5 -254 6 438 
6 -7 6 -274 6 136 1987 2793 100 MP stroke
5 348 6 -275 6 59 5 134 4 -94 4 -380 5 333 5 -116 
4 131 5 47 4 -97 4 -86 3 72 4 -258 3 128 4 -225 
1 -387 5 715 4 244 2 45 1 -226 0 -206 1 413 0 184 
1 -92 0 -177 -1 -232 0 -29 -1 -38 -1 285 -1 176 -1 -47 
0 -219 -1 -157 0 -97 -2 148 0 -92 0 107 1 -261 -1 129 
-1 68 -1 97 1 -114 0 255 0 -314 1 52 0 6 1 -78 
0 298 1 -16 2 -46 2 -199 1 298 2 70 2 -175 2 190 
3 -236 2 223 3 90 3 -153 3 -49 4 34 3 -63 4 85 
4 -189 3 191 4 -40 4 135 4 -65 4 -321 5 347 5 41 
4 -61 5 -328 5 298 5 -119 5 -89 5 211 6 -38 6 -6 
5 -63 6 93 6 40 6 -178 6 11 5 -71 6 77 6 43 
6 -249 5 277 6 96 5 78 5 -414 6 -274 5 258 5 -87 
6 275 5 -1 5 163 1692 2522 100 MP stroke
4 -143 5 77 5 -11 5 -24 6 7 2 166 5 -362 1 254 
2 16 5 -61 1 -1 4 -10 4 -87 1 175 3 -170 3 -88 
2 -254 2 406 2 146 2 -46 2 -100 1 -186 1 -381 1 103 
1 -9 1 139 1 -33 0 55 1 27 0 -82 0 49 1 -155 
0 -66 -1 -40 -1 18 -1 460 -1 -73 -1 -85 -1 -114 -1 296 
-2 114 -2 -41 -2 -77 -3 3 -1 219 -3 -32 -2 -385 -3 69 
-3 155 -3 132 -3 -225 -3 -22 -2 -347 -3 308 -3 58 -3 194 
-2 74 -2 -164 -2 56 -2 -18 -2 -148 -2 125 -1 -123 0 -74 
-1 199 -1 -212 0 -262 1 286 0 13 1 108 1 -256 1 181 
1 -292 2 313 2 2 2 -523 3 726 3 -46 3 -48 3 -344 
3 399 4 -113 4 -140 3 136 4 195 4 -95 4 -366 4 190 
4 -15 4 131 3 -1285 4 1169 4 102 3 218 4 -87 4 -10 
3 -484 3 528 3 60 1589 2480 100 MP stroke
2 -174 2 -13 3 -141 3 -8 1 9 2 -108 1 -171 2 76 
1 51 1 141 2 -340 1 -229 0 271 2 -85 1 56 0 12 
0 -8 1 -91 -1 368 1 55 0 -402 0 496 -1 -244 0 -155 
-1 -314 -1 310 0 240 -1 170 -2 -32 -1 -60 -1 43 -2 203 
-2 -113 -2 49 0 -221 -2 264 -2 -33 -2 36 -1 21 -2 -208 
-2 -185 -2 166 -2 197 -1 -28 -1 -120 -2 -340 -1 158 -2 101 
-1 -269 -1 295 0 -130 -1 30 1 -434 0 108 -1 109 -1 45 
7 287 1 -17 0 -183 0 200 1 -361 0 432 1 -232 1 28 
1 -455 1 358 2 73 2 5 2 -22 1 -163 2 75 2 -71 
2 -10 2 50 1 -82 2 210 2 -7 1 -189 2 133 1 231 
2 114 1 -297 0 -34 1 -3 1 -96 1 80 0 -131 0 42 
1 -190 0 202 0 -17 -1 -164 0 61 -1 -167 -1 -130 -1 224 
-1 -137 -1 64 -1 22 1567 3323 100 MP stroke
-2 -397 -1 -15 -1 287 -2 -57 -2 27 -1 -27 -3 -330 -1 -113 
-2 226 -3 369 -2 249 -2 -52 -2 -33 -1 -126 -3 74 -1 -215 
-2 278 -2 -11 -2 9 -1 141 -2 -31 -1 -599 -2 381 -1 300 
-2 -329 -1 -107 -1 223 -1 -59 -1 24 0 294 0 -124 -2 -44 
0 -159 -1 201 0 4 0 -4 1 -10 0 143 0 -2 1 -200 
0 -174 1 200 1 246 0 69 2 -309 1 333 1 14 2 -48 
1 -95 2 123 1 -152 2 -51 2 -136 1 184 2 113 2 -146 
2 -87 2 86 1 4 2 21 2 -136 1 -236 2 114 1 149 
1 -151 2 -1 1 365 1 -33 1 -26 1 -149 0 261 1 -199 
0 261 -1 -255 1 -67 -1 326 0 -11 -1 -24 0 -323 -1 -177 
0 -229 -1 239 0 218 -1 114 0 -75 2 -133 -1 -29 0 168 
-1 -91 1 -164 -1 119 0 104 0 -125 0 63 1 -1 0 310 
1 -52 1 -223 0 107 1576 2934 100 MP stroke
1 27 0 95 2 -195 1 230 1 -312 0 -79 1 -62 1 28 
1 283 1 -89 1 124 2 -287 1 235 1 15 1 185 1 31 
1 -188 0 -104 1 -133 1 204 1 -25 1 174 1 -32 1 17 
1 -113 1 159 -2 -121 -1 -351 1 350 3 -72 2 92 -1 -215 
1 192 0 70 0 -172 -1 143 0 -629 1 219 -1 -306 -1 608 
0 126 -1 -233 0 194 -1 161 -1 -109 -1 -104 -1 -277 -1 263 
-1 31 -2 90 0 -313 -2 425 -2 -316 -2 -241 -1 752 -2 -334 
-2 40 -1 -579 -3 391 -1 109 -2 -35 -4 -248 -2 -70 -4 -164 
-3 227 -3 185 -4 -98 -3 -108 -4 -36 -4 -438 -4 527 -4 147 
-5 -36 -3 65 -5 117 -5 -23 -4 40 -4 -171 -5 -41 -4 -75 
-4 -133 -4 128 -5 -106 -4 10 -4 81 -5 -115 -4 248 -4 73 
-4 -513 -5 442 -4 -12 -4 142 -4 -31 -4 15 -5 -382 -4 -192 
-4 568 -4 115 -4 -142 1731 2901 100 MP stroke
-4 -443 -4 395 -3 -79 -4 -78 -4 211 -3 62 -3 -206 -3 -88 
-3 -53 -3 102 -3 55 -3 54 -9 112 -2 -91 -3 7 -1 -94 
-2 91 -2 39 -1 30 7 -141 -1 4 0 48 -1 -10 0 -377 
1 -429 0 30 1 232 1 299 1 71 2 118 1 8 2 -107 
2 -251 1 9 3 245 3 70 2 -78 3 137 3 85 4 -3 
3 -264 4 102 4 -52 4 -32 5 154 5 -70 4 177 5 195 
5 -413 6 -115 5 252 5 -375 6 136 6 161 6 -121 6 241 
5 -63 6 -447 6 81 6 292 6 38 5 120 7 -216 5 26 
5 -145 6 147 5 138 4 -71 5 8 5 220 4 38 4 -398 
5 97 4 68 4 -104 2 -672 3 705 3 -92 2 -44 3 8 
2 -215 2 155 1 39 2 74 1 87 1 -577 1 771 0 -476 
0 215 -1 207 0 -96 -1 -235 -1 168 -1 -183 -1 286 -2 117 
-1 -24 -2 -620 -2 348 1569 3164 100 MP stroke
-2 65 -2 25 -3 -88 -2 -335 -1 304 -5 130 -1 -320 -3 21 
-3 -50 -2 133 -5 136 -3 40 -3 137 -3 -183 -3 53 -4 74 
-3 179 -4 -311 -3 -210 -4 164 -3 27 -5 -254 -3 296 -4 173 
-4 -338 -4 -113 -3 -12 -3 122 -4 443 -4 8 -3 -108 -3 -257 
-3 203 -3 -39 -3 33 -3 80 -2 46 -3 -44 -3 -3 -1 -74 
-2 24 -2 -50 -1 -216 -1 217 -1 102 -1 -405 1 183 0 344 
0 -196 1 -206 1 -290 1 504 2 50 2 10 2 104 2 -256 
3 -23 3 -123 3 -49 3 80 3 232 4 199 3 -152 4 -329 
4 192 4 145 4 -337 5 -192 4 402 4 23 5 91 4 -194 
4 201 4 -268 5 -36 4 60 4 289 4 -3 4 -112 4 -148 
4 98 4 -99 4 209 3 11 4 -21 3 127 3 -22 3 -207 
4 75 2 -227 3 87 3 260 2 -3 2 93 2 -263 2 44 
1 76 1 -293 1 -150 1544 3349 100 MP stroke
1 483 2 80 0 -210 0 3 -1 -28 0 141 -1 -444 -2 201 
0 144 -2 -20 -2 -179 -2 81 -2 -397 -2 227 -2 149 -2 185 
-2 -16 -1 131 -3 -31 -2 10 -1 -47 -2 29 -1 48 -2 129 
0 -151 -2 257 0 -149 -1 -271 -1 -9 1 42 -1 -253 0 550 
0 -445 -1 308 1 43 2 -258 0 119 1 6 1 -30 1 79 
1 169 1 66 1 -339 1 197 1 -65 1 161 0 -2 1 51 
1 -213 0 409 0 -634 0 277 -1 -116 -1 287 -1 -34 -2 181 
-2 -288 -2 -358 -2 355 -3 -71 -3 -175 -2 17 -4 -43 -4 136 
-3 279 -4 -123 -4 -171 -5 98 -4 -53 -5 -70 -5 164 -5 18 
-6 -129 -6 14 -5 -36 -6 -116 -7 -297 -6 394 -6 359 -7 60 
-6 -76 -7 -379 -6 126 -7 130 -6 142 -7 -21 -7 -83 -6 -232 
-6 -65 -7 307 -6 -29 -6 71 -6 58 -5 -51 -7 109 -6 -404 
-5 87 -6 -18 -5 136 1792 2675 100 MP stroke
-5 57 -5 148 -5 -136 -7 -588 -5 604 -4 -55 -5 153 -4 -62 
-3 -153 -5 35 -3 -16 -3 197 -3 -100 -3 -63 -4 71 -2 -69 
-3 57 -3 -319 -2 381 -3 -258 -2 -197 -2 182 -3 -96 -2 178 
-2 287 -2 -235 -2 -406 -2 306 -2 122 -1 -62 -2 -69 -2 -306 
-2 29 -1 -226 -2 527 -1 -136 1 9 -3 218 0 -383 -2 263 
-2 -7 -2 -9 -1 55 -2 -182 -1 58 0 108 -3 -237 -2 110 
-2 47 -2 89 -2 -53 -2 -143 -2 218 -2 24 -2 -280 -1 290 
-2 -112 -1 8 -2 -95 -1 47 -1 227 0 -394 -1 96 -1 185 
-1 -82 0 -16 0 173 1 -278 0 100 0 -164 1 10 2 240 
1 -126 1 -129 1 81 2 -129 1 322 2 278 3 -476 2 213 
3 81 3 -467 2 38 3 139 4 115 4 185 2 -75 3 -110 
3 105 4 153 4 7 3 -27 3 -241 4 -91 3 83 3 -233 
3 379 4 117 3 28 1863 2533 100 MP stroke
3 -154 3 -238 3 133 3 -74 3 210 3 89 2 -379 2 86 
3 258 2 -505 2 413 2 12 2 -65 2 72 2 -141 1 165 
2 51 1 -210 2 251 2 51 2 -193 1 50 2 11 2 -7 
1 8 2 -47 2 -223 3 297 2 167 1 -122 3 43 2 -161 
2 -431 2 141 2 -43 3 296 2 165 3 1 2 131 2 -172 
3 -535 3 448 3 -11 2 4 3 -229 3 131 3 17 3 109 
3 -280 3 18 3 64 3 28 4 215 3 -202 4 197 3 -423 
3 122 3 35 4 -86 3 227 5 95 0 -269 3 -150 3 130 
3 166 3 -86 2 131 3 -290 3 -386 2 470 3 -75 2 28 
3 137 2 201 4 10 3 -261 2 -9 2 -226 3 256 2 134 
2 -111 1 -149 2 255 2 146 1 -20 1 -257 1 -130 1 353 
1 47 0 -87 1 -75 1 -94 1 45 0 -137 1 437 0 43 
0 -155 -1 -233 1 -39 1646 2903 100 MP stroke
-1 42 0 279 -1 -29 0 108 -1 -80 0 -361 -1 195 -1 -15 
0 59 -1 -505 -1 562 -2 -9 -1 1 -1 -127 -1 139 -1 -66 
-2 -76 -1 -284 -2 137 -1 80 -1 -28 -1 -385 -2 -130 -2 34 
-2 233 -1 -230 -2 144 -2 112 -2 81 -1 -14 -2 78 -3 -140 
-2 -35 -2 -45 -2 5 -2 111 -2 -496 -2 349 -2 27 -1 -37 
-2 65 -2 72 -2 188 -1 1 -2 -92 -1 -349 -2 -84 -1 223 
-1 195 -2 143 -1 107 -1 126 -1 34 0 -112 -1 -36 -1 -207 
0 -299 0 270 -1 267 0 603 1 82 1722 2022 62 MP stroke
gr

c8
0 sg
%%IncludeResource: font Helvetica
/Helvetica /WindowsLatin1Encoding 120 FMSR

1663  294 mt 
(Experiment 3b - Digital magnetometers - Standard deviation \
of position) s
2502 4902 mt 
(Distance to center of sensor network [m]) s
 558 3028 mt  -90 rotate
(sqrt\(Variance\) [mm]) s
90 rotate

end %%Color Dict

eplot
%%EndObject

epage
end

showpage

%%Trailer
%%EOF
