%!PS-Adobe-2.0 EPSF-1.2
%%Creator: MATLAB, The MathWorks, Inc. Version 7.13.0.564 (R2011b). Operating System: Microsoft Windows 7.
%%Title: ..\figures\analog_all_pos_bias.eps
%%CreationDate: 11/13/2012  17:43:32
%%DocumentNeededFonts: Helvetica
%%DocumentProcessColors: Cyan Magenta Yellow Black
%%Extensions: CMYK
%%Pages: 1
%%BoundingBox:    56   199   549   602
%%EndComments

%%BeginProlog
% MathWorks dictionary
/MathWorks 160 dict begin
% definition operators
/bdef {bind def} bind def
/ldef {load def} bind def
/xdef {exch def} bdef
/xstore {exch store} bdef
% operator abbreviations
/c  /clip ldef
/cc /concat ldef
/cp /closepath ldef
/gr /grestore ldef
/gs /gsave ldef
/mt /moveto ldef
/np /newpath ldef
/cm /currentmatrix ldef
/sm /setmatrix ldef
/rm /rmoveto ldef
/rl /rlineto ldef
/s {show newpath} bdef
/sc {setcmykcolor} bdef
/sr /setrgbcolor ldef
/sg /setgray ldef
/w /setlinewidth ldef
/j /setlinejoin ldef
/cap /setlinecap ldef
/rc {rectclip} bdef
/rf {rectfill} bdef
% page state control
/pgsv () def
/bpage {/pgsv save def} bdef
/epage {pgsv restore} bdef
/bplot /gsave ldef
/eplot {stroke grestore} bdef
% orientation switch
/portraitMode 0 def /landscapeMode 1 def /rotateMode 2 def
% coordinate system mappings
/dpi2point 0 def
% font control
/FontSize 0 def
/FMS {/FontSize xstore findfont [FontSize 0 0 FontSize neg 0 0]
  makefont setfont} bdef
/ISOLatin1Encoding where {pop /WindowsLatin1Encoding 256 array bdef
ISOLatin1Encoding WindowsLatin1Encoding copy pop
/.notdef/.notdef/quotesinglbase/florin/quotedblbase/ellipsis/dagger
/daggerdbl/circumflex/perthousand/Scaron/guilsinglleft/OE/.notdef/.notdef
/.notdef/.notdef/quoteleft/quoteright/quotedblleft/quotedblright/bullet
/endash/emdash/tilde/trademark/scaron/guilsinglright/oe/.notdef/.notdef
/Ydieresis WindowsLatin1Encoding 128 32 getinterval astore pop}
{/WindowsLatin1Encoding StandardEncoding bdef} ifelse
/reencode {exch dup where {pop load} {pop StandardEncoding} ifelse
  exch dup 3 1 roll findfont dup length dict begin
  { 1 index /FID ne {def}{pop pop} ifelse } forall
  /Encoding exch def currentdict end definefont pop} bdef
/isroman {findfont /CharStrings get /Agrave known} bdef
/FMSR {3 1 roll 1 index dup isroman {reencode} {pop pop} ifelse
  exch FMS} bdef
/csm {1 dpi2point div -1 dpi2point div scale neg translate
 dup landscapeMode eq {pop -90 rotate}
  {rotateMode eq {90 rotate} if} ifelse} bdef
% line types: solid, dotted, dashed, dotdash
/SO { [] 0 setdash } bdef
/DO { [.5 dpi2point mul 4 dpi2point mul] 0 setdash } bdef
/DA { [6 dpi2point mul] 0 setdash } bdef
/DD { [.5 dpi2point mul 4 dpi2point mul 6 dpi2point mul 4
  dpi2point mul] 0 setdash } bdef
% macros for lines and objects
/L {lineto stroke} bdef
/MP {3 1 roll moveto 1 sub {rlineto} repeat} bdef
/AP {{rlineto} repeat} bdef
/PDlw -1 def
/W {/PDlw currentlinewidth def setlinewidth} def
/PP {closepath eofill} bdef
/DP {closepath stroke} bdef
/MR {4 -2 roll moveto dup  0 exch rlineto exch 0 rlineto
  neg 0 exch rlineto closepath} bdef
/FR {MR stroke} bdef
/PR {MR fill} bdef
/L1i {{currentfile picstr readhexstring pop} image} bdef
/tMatrix matrix def
/MakeOval {newpath tMatrix currentmatrix pop translate scale
0 0 1 0 360 arc tMatrix setmatrix} bdef
/FO {MakeOval stroke} bdef
/PO {MakeOval fill} bdef
/PD {currentlinewidth 2 div 0 360 arc fill
   PDlw -1 eq not {PDlw w /PDlw -1 def} if} def
/FA {newpath tMatrix currentmatrix pop translate scale
  0 0 1 5 -2 roll arc tMatrix setmatrix stroke} bdef
/PA {newpath tMatrix currentmatrix pop	translate 0 0 moveto scale
  0 0 1 5 -2 roll arc closepath tMatrix setmatrix fill} bdef
/FAn {newpath tMatrix currentmatrix pop translate scale
  0 0 1 5 -2 roll arcn tMatrix setmatrix stroke} bdef
/PAn {newpath tMatrix currentmatrix pop translate 0 0 moveto scale
  0 0 1 5 -2 roll arcn closepath tMatrix setmatrix fill} bdef
/vradius 0 def /hradius 0 def /lry 0 def
/lrx 0 def /uly 0 def /ulx 0 def /rad 0 def
/MRR {/vradius xdef /hradius xdef /lry xdef /lrx xdef /uly xdef
  /ulx xdef newpath tMatrix currentmatrix pop ulx hradius add uly
  vradius add translate hradius vradius scale 0 0 1 180 270 arc 
  tMatrix setmatrix lrx hradius sub uly vradius add translate
  hradius vradius scale 0 0 1 270 360 arc tMatrix setmatrix
  lrx hradius sub lry vradius sub translate hradius vradius scale
  0 0 1 0 90 arc tMatrix setmatrix ulx hradius add lry vradius sub
  translate hradius vradius scale 0 0 1 90 180 arc tMatrix setmatrix
  closepath} bdef
/FRR {MRR stroke } bdef
/PRR {MRR fill } bdef
/MlrRR {/lry xdef /lrx xdef /uly xdef /ulx xdef /rad lry uly sub 2 div def
  newpath tMatrix currentmatrix pop ulx rad add uly rad add translate
  rad rad scale 0 0 1 90 270 arc tMatrix setmatrix lrx rad sub lry rad
  sub translate rad rad scale 0 0 1 270 90 arc tMatrix setmatrix
  closepath} bdef
/FlrRR {MlrRR stroke } bdef
/PlrRR {MlrRR fill } bdef
/MtbRR {/lry xdef /lrx xdef /uly xdef /ulx xdef /rad lrx ulx sub 2 div def
  newpath tMatrix currentmatrix pop ulx rad add uly rad add translate
  rad rad scale 0 0 1 180 360 arc tMatrix setmatrix lrx rad sub lry rad
  sub translate rad rad scale 0 0 1 0 180 arc tMatrix setmatrix
  closepath} bdef
/FtbRR {MtbRR stroke } bdef
/PtbRR {MtbRR fill } bdef
/stri 6 array def /dtri 6 array def
/smat 6 array def /dmat 6 array def
/tmat1 6 array def /tmat2 6 array def /dif 3 array def
/asub {/ind2 exch def /ind1 exch def dup dup
  ind1 get exch ind2 get sub exch } bdef
/tri_to_matrix {
  2 0 asub 3 1 asub 4 0 asub 5 1 asub
  dup 0 get exch 1 get 7 -1 roll astore } bdef
/compute_transform {
  dmat dtri tri_to_matrix tmat1 invertmatrix 
  smat stri tri_to_matrix tmat2 concatmatrix } bdef
/ds {stri astore pop} bdef
/dt {dtri astore pop} bdef
/db {2 copy /cols xdef /rows xdef mul dup 3 mul string
  currentfile exch readhexstring pop
  dup 0 3 index getinterval /rbmap xdef
  dup 2 index dup getinterval /gbmap xdef
  1 index dup 2 mul exch getinterval /bbmap xdef pop pop}bdef
/it {gs np dtri aload pop moveto lineto lineto cp c
  cols rows 8 compute_transform 
  rbmap gbmap bbmap true 3 colorimage gr}bdef
/il {newpath moveto lineto stroke}bdef
currentdict end def
%%EndProlog

%%BeginSetup
MathWorks begin

0 cap

end
%%EndSetup

%%Page: 1 1
%%BeginPageSetup
%%PageBoundingBox:    56   199   549   602
MathWorks begin
bpage
%%EndPageSetup

%%BeginObject: obj1
bplot

/dpi2point 12 def
portraitMode 0204 7344 csm

  469   110  5918  4844 MR c np
85 dict begin %Colortable dictionary
/c0 { 0.000000 0.000000 0.000000 sr} bdef
/c1 { 1.000000 1.000000 1.000000 sr} bdef
/c2 { 0.900000 0.000000 0.000000 sr} bdef
/c3 { 0.000000 0.820000 0.000000 sr} bdef
/c4 { 0.000000 0.000000 0.800000 sr} bdef
/c5 { 0.910000 0.820000 0.320000 sr} bdef
/c6 { 1.000000 0.260000 0.820000 sr} bdef
/c7 { 0.000000 0.820000 0.820000 sr} bdef
c0
1 j
1 sg
   0    0 6913 5185 PR
6 w
0 4225 5356 0 0 -4225 899 4614 4 MP
PP
-5356 0 0 4225 5356 0 0 -4225 899 4614 5 MP stroke
4 w
DO
SO
6 w
0 sg
 899  389 mt 6255  389 L
 899 4614 mt 6255 4614 L
6255 4614 mt 6255  389 L
 899 4614 mt  899  389 L
 899 4614 mt 6255 4614 L
 899 4614 mt  899  389 L
 899 4614 mt  899 4560 L
 899  389 mt  899  442 L
%%IncludeResource: font Helvetica
/Helvetica /WindowsLatin1Encoding 120 FMSR

 866 4759 mt 
(0) s
1664 4614 mt 1664 4560 L
1664  389 mt 1664  442 L
1581 4759 mt 
(0.2) s
2429 4614 mt 2429 4560 L
2429  389 mt 2429  442 L
2346 4759 mt 
(0.4) s
3194 4614 mt 3194 4560 L
3194  389 mt 3194  442 L
3111 4759 mt 
(0.6) s
3959 4614 mt 3959 4560 L
3959  389 mt 3959  442 L
3876 4759 mt 
(0.8) s
4724 4614 mt 4724 4560 L
4724  389 mt 4724  442 L
4691 4759 mt 
(1) s
5489 4614 mt 5489 4560 L
5489  389 mt 5489  442 L
5406 4759 mt 
(1.2) s
6255 4614 mt 6255 4560 L
6255  389 mt 6255  442 L
6172 4759 mt 
(1.4) s
 899 4614 mt  925 4614 L
6255 4614 mt 6228 4614 L
 899 4614 mt  952 4614 L
6255 4614 mt 6201 4614 L
 687 4658 mt 
(10) s
%%IncludeResource: font Helvetica
/Helvetica /WindowsLatin1Encoding 80 FMSR

 820 4584 mt 
(0) s
 899 4190 mt  925 4190 L
6255 4190 mt 6228 4190 L
 899 3942 mt  925 3942 L
6255 3942 mt 6228 3942 L
 899 3766 mt  925 3766 L
6255 3766 mt 6228 3766 L
 899 3629 mt  925 3629 L
6255 3629 mt 6228 3629 L
 899 3518 mt  925 3518 L
6255 3518 mt 6228 3518 L
 899 3423 mt  925 3423 L
6255 3423 mt 6228 3423 L
 899 3342 mt  925 3342 L
6255 3342 mt 6228 3342 L
 899 3270 mt  925 3270 L
6255 3270 mt 6228 3270 L
 899 3205 mt  925 3205 L
6255 3205 mt 6228 3205 L
 899 3205 mt  952 3205 L
6255 3205 mt 6201 3205 L
%%IncludeResource: font Helvetica
/Helvetica /WindowsLatin1Encoding 120 FMSR

 687 3249 mt 
(10) s
%%IncludeResource: font Helvetica
/Helvetica /WindowsLatin1Encoding 80 FMSR

 820 3175 mt 
(1) s
 899 2781 mt  925 2781 L
6255 2781 mt 6228 2781 L
 899 2533 mt  925 2533 L
6255 2533 mt 6228 2533 L
 899 2357 mt  925 2357 L
6255 2357 mt 6228 2357 L
 899 2221 mt  925 2221 L
6255 2221 mt 6228 2221 L
 899 2109 mt  925 2109 L
6255 2109 mt 6228 2109 L
 899 2015 mt  925 2015 L
6255 2015 mt 6228 2015 L
 899 1933 mt  925 1933 L
6255 1933 mt 6228 1933 L
 899 1861 mt  925 1861 L
6255 1861 mt 6228 1861 L
 899 1797 mt  925 1797 L
6255 1797 mt 6228 1797 L
 899 1797 mt  952 1797 L
6255 1797 mt 6201 1797 L
%%IncludeResource: font Helvetica
/Helvetica /WindowsLatin1Encoding 120 FMSR

 687 1841 mt 
(10) s
%%IncludeResource: font Helvetica
/Helvetica /WindowsLatin1Encoding 80 FMSR

 820 1767 mt 
(2) s
 899 1373 mt  925 1373 L
6255 1373 mt 6228 1373 L
 899 1125 mt  925 1125 L
6255 1125 mt 6228 1125 L
 899  949 mt  925  949 L
6255  949 mt 6228  949 L
 899  812 mt  925  812 L
6255  812 mt 6228  812 L
 899  701 mt  925  701 L
6255  701 mt 6228  701 L
 899  607 mt  925  607 L
6255  607 mt 6228  607 L
 899  525 mt  925  525 L
6255  525 mt 6228  525 L
 899  453 mt  925  453 L
6255  453 mt 6228  453 L
 899  389 mt  925  389 L
6255  389 mt 6228  389 L
 899  389 mt  952  389 L
6255  389 mt 6201  389 L
%%IncludeResource: font Helvetica
/Helvetica /WindowsLatin1Encoding 120 FMSR

 687  433 mt 
(10) s
%%IncludeResource: font Helvetica
/Helvetica /WindowsLatin1Encoding 80 FMSR

 820  359 mt 
(3) s
 899  389 mt 6255  389 L
 899 4614 mt 6255 4614 L
6255 4614 mt 6255  389 L
 899 4614 mt  899  389 L
gs 899 389 5357 4226 MR c np
/c8 { 0.000000 0.000000 1.000000 sr} bdef
c8
3 282 4 175 4 127 4 100 3 81 4 66 3 53 4 44 
3 34 3 27 4 19 3 14 3 7 4 2 3 -3 3 -6 
3 -11 3 -14 2 -18 3 -19 3 -22 2 -23 3 -25 2 -25 
2 -26 2 -26 2 -26 2 -24 2 -24 2 -22 2 -20 1 -19 
1 -17 1 -15 1 -13 2 -11 1 -9 0 -8 1 -6 0 -5 
1 -5 0 -13 -1 -3 0 -9 -1 -5 -1 -7 -1 -7 0 -8 
-2 -10 -1 -10 -1 -12 -1 -12 -2 -14 -1 -14 -2 -15 -2 -16 
-2 -16 -2 -16 -2 -16 -3 -16 -2 -15 -2 -16 -3 -14 -3 -13 
-3 -13 -3 -12 -3 -11 -3 -10 -3 -9 -3 -9 -3 -7 -4 -8 
-4 -8 -3 -8 -4 -8 -4 -9 -4 -11 -4 -11 -4 -12 -4 -14 
-4 -15 -4 -17 -5 -18 -4 -21 -5 -22 -4 -24 -5 -26 -4 -26 
-3 -28 -9 -29 -6 -30 1 -31 -6 -31 -5 -29 -4 -25 -5 -21 
-4 -12 -5 -2 -4 3 4756 2164 100 MP stroke
-5 13 -5 20 -4 26 -5 29 -4 32 -5 32 -4 30 -4 28 
-5 26 -4 24 -4 20 -4 17 -4 15 -5 14 -3 12 -5 9 
-3 8 -4 6 -4 7 -3 5 -4 6 -3 6 -3 5 -3 6 
-3 7 -3 8 -3 9 -3 10 -3 12 -2 15 -3 15 -2 18 
-3 19 -2 19 -3 21 -2 21 -2 21 -3 20 -2 19 -2 18 
-2 17 -2 15 -2 14 -2 12 -3 10 -1 10 -3 8 -1 8 
-2 6 -2 7 -2 6 -2 6 -2 7 -1 7 -2 8 -2 9 
-2 9 -1 11 -1 12 -2 13 -1 15 -2 14 -1 16 -1 16 
-2 16 -1 15 -1 16 -1 15 -1 14 0 13 -1 13 -1 11 
-1 9 -1 8 0 6 -1 5 0 3 -1 1 0 -1 -1 -3 
0 -4 1 -5 0 -19 1 -7 1 -6 0 -7 1 -6 1 -5 
2 -5 1 -5 1 -4 2 -4 2 -3 1 -4 2 -3 2 -4 
2 -4 3 -5 2 -6 4924 1225 100 MP stroke
3 -7 3 -8 2 -9 4 -11 3 -12 3 -13 4 -14 4 -15 
4 -16 3 -17 5 -17 4 -18 4 -17 5 -17 5 -17 5 -15 
4 -13 6 -12 5 -10 5 -8 6 -6 6 -4 5 -2 4 0 
6 2 7 3 5 4 7 4 6 5 7 5 9 5 7 5 
7 3 7 3 7 2 8 1 7 0 8 -1 7 -2 8 -3 
8 -4 8 -5 8 -6 8 -6 8 -7 9 -8 8 -7 9 -8 
8 -8 9 -8 9 -9 8 -9 10 -9 9 -10 8 -10 10 -11 
9 -12 9 -13 9 -13 10 -14 9 -13 10 -15 10 -15 9 -16 
10 -14 10 -15 10 -14 11 -13 9 -12 10 -10 11 -10 10 -7 
11 -5 9 -5 11 -2 12 -1 9 -1 11 1 9 1 10 1 
11 0 10 1 11 -1 11 -2 10 -4 11 -6 11 -7 11 -9 
11 -10 10 -12 11 -12 11 -13 11 -12 10 -12 11 -11 11 -8 
11 -7 11 -3 11 -2 4129 1939 100 MP stroke
12 1 10 2 10 4 11 4 11 3 11 3 10 2 11 1 
10 -1 10 -3 11 -4 10 -7 9 -7 11 -9 10 -11 9 -11 
9 -14 10 -15 9 -15 9 -18 9 -18 9 -18 9 -20 8 -19 
9 -20 8 -19 8 -17 9 -16 8 -13 8 -10 7 -5 8 -1 
7 2 7 6 8 9 6 12 7 14 7 15 6 15 6 17 
6 17 6 17 5 16 5 14 5 13 5 11 5 10 4 7 
4 4 4 3 3 -1 3 -3 3 -5 2 -9 3 -10 2 -13 
2 -15 2 -18 2 -18 1 -19 1 -20 1 -20 1 -19 1 -19 
0 -17 1 -14 0 -26 0 3 -1 7 0 7 -1 6 0 6 
-1 5 -1 2 -1 -1 -1 -4 -1 -7 -1 -11 -1 -12 -1 -15 
-1 -18 -1 -19 -1 -17 -2 -17 -1 -17 -1 -15 -1 -11 -1 -12 
-2 -5 -1 3 -1 3 -1 8 -1 5 -1 8 -1 5 -1 8 
0 11 -1 9 -1 9 3725 2330 100 MP stroke
0 9 -1 9 0 18 -1 7 0 16 1 8 0 12 1 7 
0 15 1 9 1 12 0 15 1 17 1 19 0 21 1 25 
1 25 2 27 1 27 1 27 2 27 1 26 2 25 2 22 
2 21 2 18 2 16 2 13 3 11 2 9 3 6 2 3 
3 2 3 0 2 -3 3 -5 3 -6 4 -9 3 -10 3 -12 
3 -13 3 -16 3 -17 4 -18 3 -19 3 -21 4 -22 3 -23 
4 -23 4 -23 3 -21 4 -20 4 -19 4 -14 4 -12 4 -7 
4 -3 4 2 5 4 4 7 4 9 5 11 4 13 5 13 
4 14 5 14 5 13 4 13 5 13 4 13 5 11 4 12 
5 10 4 10 5 10 4 9 5 8 4 8 4 6 5 6 
5 5 4 3 5 3 5 1 4 0 5 -2 5 -3 4 -4 
5 -5 5 -6 5 -6 4 -6 4 -7 5 -7 4 -6 3 -6 
4 -5 5 -4 4 -3 3417 1971 100 MP stroke
4 -3 4 -2 4 -2 4 -3 4 -2 5 -4 4 -4 4 -6 
4 -8 4 -9 4 -12 5 -13 4 -15 4 -18 5 -21 4 -22 
4 -25 4 -26 5 -27 4 -28 5 -28 4 -27 4 -25 3 -22 
4 -20 5 -15 5 -12 3 -6 5 -4 4 -1 4 0 5 1 
5 3 4 5 4 5 4 4 5 5 4 6 5 7 4 7 
5 8 4 9 5 11 4 10 5 11 4 9 4 9 5 8 
4 6 5 6 5 2 4 1 5 -1 5 -3 4 -6 4 -9 
4 -10 5 -13 4 -15 5 -16 4 -18 4 -18 4 -18 5 -18 
4 -17 4 -15 5 -14 4 -11 4 -8 4 -5 5 -5 4 -1 
4 -1 5 -1 4 -2 4 -2 4 -4 5 -4 4 -6 5 -6 
4 -7 5 -7 4 -4 5 -3 4 0 5 3 4 7 5 10 
4 13 5 14 4 15 4 15 5 15 4 14 5 13 4 12 
5 9 4 8 4 7 2987 2361 100 MP stroke
4 5 5 3 5 2 4 0 4 -2 5 -3 4 -4 5 -5 
4 -7 5 -7 10 -9 2 -9 1 -11 7 -11 4 -11 5 -11 
5 -12 5 -12 5 -12 5 -11 6 -11 5 -11 5 -9 6 -10 
5 -11 6 -10 5 -10 6 -10 6 -9 6 -8 7 -8 5 -6 
7 -6 7 -5 6 -5 6 -5 7 -5 6 -5 7 -4 7 -4 
7 -5 7 -4 7 -3 7 -4 7 -2 7 1 8 2 8 3 
7 5 8 8 7 10 8 12 8 13 8 13 9 15 8 14 
8 14 9 13 8 12 9 10 8 8 9 7 9 5 9 4 
9 2 9 1 9 0 10 0 9 -1 9 -1 10 -1 10 -1 
9 0 10 0 10 1 10 2 10 3 10 3 10 3 10 4 
10 4 11 5 10 4 11 4 11 4 10 4 11 3 11 3 
11 3 11 1 11 2 12 1 11 0 11 0 12 -1 12 -1 
11 -1 12 -2 11 -2 2218 2443 100 MP stroke
12 -2 12 -2 12 -2 12 -2 12 -2 13 -1 13 -1 12 -2 
13 0 12 0 13 -1 13 1 12 0 13 1 13 0 12 1 
12 0 12 -1 11 -1 12 -1 12 -3 10 -3 11 -5 11 -6 
11 -7 10 -9 10 -10 11 -12 9 -13 8 -15 10 -16 7 -18 
9 -18 10 -20 8 -21 8 -22 7 -22 8 -23 9 -22 7 -23 
6 -22 8 -21 7 -20 6 -19 7 -18 6 -16 7 -14 6 -13 
6 -11 5 -10 6 -8 6 -7 5 -6 4 -5 5 -4 6 -3 
6 -2 4 -2 5 -2 9 -1 4 -1 3 0 5 0 3 0 
5 1 5 0 3 1 4 2 4 1 5 2 3 2 5 3 
4 2 4 3 4 3 4 3 4 3 4 2 4 3 5 3 
4 2 8 2 5 1 -1 2 6 0 4 1 4 -1 5 0 
1 -1 2 -1 4 -1 3 0 4 1 3 2 3 3 2 4 
2 7 2 9 3 10 1520 2877 100 MP stroke
2 12 2 13 1 14 2 14 1 15 1 13 0 14 1 12 
0 10 -1 9 0 8 -1 6 -1 4 0 2 -1 1 -2 0 
-1 -2 -3 -4 -2 -4 -3 -5 -2 -7 -3 -7 -4 -7 -1 -8 
-4 -8 -3 -8 -3 -9 -5 -8 -3 -8 -5 -8 -6 -8 -2 -7 
-5 -8 -3 -7 -2 -7 -7 -7 -3 -6 -3 -6 -7 -7 -4 -6 
-4 -6 -3 -7 -4 -6 -4 -7 -3 -7 -6 -7 -4 -7 -1 -7 
-3 -8 -4 -8 -4 -8 -2 -9 -3 -8 -3 -8 -2 -8 -2 -9 
-2 -8 -3 -7 -1 -8 -1 -7 -1 -7 -1 -7 0 -21 -1 -7 
0 -25 1 -10 -1 -11 2 -11 -1 -12 -1 -13 1 -14 0 -14 
1 -14 1 -14 0 -13 1 -12 1 -10 1 -9 0 -5 1 -3 
-1 3 2 6 0 8 2 11 1 12 1 13 2 13 1 14 
0 14 3 13 2 12 3 10 1 10 2 8 1 7 1 5 
1 3 1 1 2 0 1630 3111 100 MP stroke
1 -1 2 -3 2 -5 0 -6 1 -6 2 -8 1 -8 1 -8 
1 -8 2 -8 1 -6 1 -7 0 -4 3 -3 1 -2 1 0 
2 2 0 2 2 4 1 4 -1 4 2 4 2 4 2 1 
0 1 1 -2 1 -5 2 -8 0 -26 1 -20 -1 -24 0 -29 
2 -34 -1 -42 3 -39 -1 -52 3 -55 6 -39 -2 -58 4 -37 
-9 -51 -8 -42 13 -11 2 -12 -3 2 2 10 -3 35 2 37 
-2 53 -2 59 2 48 -7 74 -7 43 -1 65 0 52 -1 46 
-1 41 -6 36 -5 30 2 25 -3 21 -3 16 -1 12 -1 8 
-2 5 2 2 -3 0 -6 -3 2 -5 0 -7 -5 -8 -1 -9 
-1 -10 -2 -10 -2 -10 -3 -10 -2 -10 -1 -9 -2 -9 -3 -7 
-2 -7 -1 -6 -2 -5 -3 -5 -3 -3 -2 -3 -3 -2 -2 -2 
-1 -1 -3 -1 -3 -1 -1 0 -2 -1 -2 0 -1 0 -3 -1 
-4 0 -2 0 -3 -1 1694 3180 100 MP stroke
-4 -1 -5 -1 -2 0 -3 -1 -1 0 -4 0 -3 1 -3 0 
-3 1 -1 1 -3 1 -4 2 -2 1 -3 2 -3 2 -3 1 
-4 2 -4 1 -3 1 -3 0 -2 1 -6 0 -5 -1 -3 0 
-4 -1 -4 -1 -3 -2 -5 -1 -4 -2 -2 -1 -3 -1 -5 -1 
-3 0 -3 0 -4 1 -4 2 -4 2 -4 3 -4 4 -3 4 
-4 5 -3 5 -4 5 -4 5 -3 5 -3 5 -2 4 -3 4 
-3 2 -2 3 -3 1 -2 1 -3 -1 -2 -1 -2 -1 -1 -3 
-2 -2 -2 -3 -1 -4 0 -3 -1 -4 0 -12 1 0 1 1 
1 1 1 3 1 2 1 4 2 3 2 4 2 5 2 5 
1 4 3 5 3 5 1 5 3 4 3 4 3 4 2 4 
2 4 3 3 3 3 3 3 4 3 3 2 3 2 4 2 
2 2 3 1 5 1 4 0 3 1 3 -1 3 0 3 -1 
2 -1 4 -1 3 -2 1787 3066 100 MP stroke
3 -2 3 -1 3 -2 3 -2 3 -1 2 -1 3 -1 2 -1 
3 0 3 0 2 0 3 1 2 1 2 1 2 1 2 2 
2 1 3 2 0 2 2 2 3 2 2 2 2 2 1 2 
2 1 2 2 1 1 2 1 1 1 2 0 1 0 1 -1 
1 -1 1 -2 1 -2 1 -3 2 -4 2 -4 0 -6 1 -6 
1 -7 0 -8 2 -10 1 -10 1 -11 0 -13 1 -14 1 -15 
0 -36 1 -20 2 -22 0 -106 1 -33 -1 -35 1 -37 0 -83 
1 -46 1 -49 0 -50 -1 -52 1 -54 0 -105 1 -47 0 -39 
2 -32 0 -28 1 1 -2 11 1 17 0 19 -1 21 2 22 
1 21 0 101 -1 18 0 36 -1 18 1 17 0 54 -1 18 
1 17 -1 16 0 15 1 14 -1 13 1 10 0 18 1 -3 
0 -7 2 -10 0 -14 1 -17 1 -19 0 -22 3 -22 -1 -22 
2 -17 2 -12 -1 -6 1683 3735 100 MP stroke
3 8 -1 6 4 24 0 38 21 33 12 -4 -1 34 1 21 
1 18 4 7 -16 38 -11 0 7 21 -2 10 3 17 2 17 
1 16 3 19 0 18 3 19 1 18 2 18 3 17 -1 16 
3 15 1 15 2 13 1 12 1 12 3 11 0 11 2 10 
1 10 2 10 1 9 0 9 2 9 1 8 2 8 0 14 
3 7 0 5 2 4 3 4 0 3 1 1 1 1 1 0 
1 -1 1 -3 -1 -3 1 -3 1 -5 1 -5 3 -5 1 -6 
1 -6 2 -6 2 -6 2 -5 1 -5 3 -5 3 -3 2 -4 
3 -2 3 -2 3 -1 3 0 3 1 3 1 4 1 5 3 
1 2 4 3 7 3 0 5 1 4 4 4 3 5 3 5 
3 5 3 5 4 6 3 5 3 5 3 6 2 5 3 5 
2 6 2 4 3 5 2 4 1 4 2 3 2 3 1 3 
2 2 1 1 1 1 1494 3066 100 MP stroke
1 0 2 -1 1 -2 -1 -3 0 -3 1 -5 -1 -4 -2 -6 
0 -6 -1 -8 -1 -8 -2 -8 -1 -10 -1 -10 -2 -11 -2 -12 
-2 -12 -2 -14 -2 -14 -2 -15 -2 -16 -2 -16 -2 -18 -3 -18 
-2 -19 -2 -20 -2 -21 -1 -21 -2 -23 -2 -24 -2 -24 -1 -26 
-2 -26 -2 -28 -1 -30 -2 -31 -1 -32 -1 -34 -1 -37 -1 -38 
-1 -41 -1 -43 -1 -46 -1 -50 0 -107 -1 -58 0 -183 1 -57 
0 -48 1 -36 0 -20 1 -4 1 9 1 19 1 22 1 25 
1 22 1 20 1 16 1 14 1 11 1 9 3 4 0 18 
1 19 1 24 2 32 3 35 0 47 1 48 2 52 1 53 
2 52 1 51 1 49 1 47 2 44 1 42 1 39 1 36 
0 34 2 32 1 30 1 27 0 26 1 24 1 23 0 21 
1 20 0 36 1 17 0 70 -1 12 0 11 -1 10 0 10 
-1 9 0 9 -1 8 1509 3125 100 MP stroke
-1 7 0 7 -1 6 -2 6 -1 5 -1 5 0 4 -1 4 
-2 3 -1 3 -2 3 -1 2 -1 3 -2 2 -2 2 -1 1 
-1 2 -1 1 -2 2 -1 1 -1 1 -1 1 -1 1 -1 -1 
0 -1 1 -2 0 -4 1 -3 1 -3 0 -9 1 -6 1 -6 
0 -7 2 -7 1 -8 0 -8 2 -9 2 -9 1 -8 0 -7 
1 -6 1 -5 1 -2 0 1 2 3 1 8 0 11 1 15 
2 18 0 22 3 24 3 26 0 55 3 29 -1 27 1 27 
3 26 1 24 0 23 1 20 2 19 0 16 2 14 0 22 
1 7 1 6 0 3 1 1 1 0 1 -3 -1 -4 1 -7 
0 -8 1 -10 1 -12 0 -13 1 -16 0 -57 1 -22 2 -24 
-1 -26 1 -24 2 -28 0 -25 3 -27 0 -50 1 -23 -1 -21 
0 -19 1 -15 -1 -13 0 -8 -1 -6 0 -1 -1 4 1 5 
0 6 -1 7 0 7 1483 3150 100 MP stroke
-1 6 0 10 -1 3 0 2 -1 -1 0 -7 -1 -7 0 -10 
-1 -11 0 -30 -1 -19 0 -21 -3 -24 -2 -26 1 -28 -1 -31 
-1 -34 0 -37 -1 -39 0 -42 -2 -45 0 -49 -1 -51 0 -111 
-1 -56 2 -55 -1 -48 0 -60 0 54 1 45 0 103 2 51 
1 49 0 46 4 43 0 40 -1 36 3 33 1 31 0 27 
4 25 0 23 2 20 2 18 -1 16 4 15 2 12 1 11 
3 9 0 8 4 6 1 5 0 4 4 2 2 2 2 0 
3 -1 1 -2 2 -3 1 -4 1 -5 1 -7 3 -6 1 -9 
2 -10 3 -11 -1 -12 2 -14 1 -16 1 -17 1 -19 1 -22 
3 -23 0 -25 1 -28 2 -30 0 -31 2 -35 1 -37 1 -40 
2 -42 0 -44 2 -48 1 -49 0 -48 1 -50 0 -48 1 -43 
0 -37 1 -25 1 -9 0 4 1 24 2 33 1 41 0 44 
1 45 1 46 0 85 1410 3765 100 MP stroke
1 39 0 36 1 35 1 31 1 31 1 28 1 28 0 28 
1 27 0 57 1 30 0 31 2 32 1 32 -1 34 1 30 
0 35 -2 29 0 57 1 24 1 23 0 76 -1 5 0 4 
-1 -1 0 -3 -1 -3 -1 -3 0 -6 -1 -4 -1 -3 -1 -5 
0 -4 -1 -6 -1 -7 -1 -8 -1 -9 -1 -12 -1 -14 0 -17 
-2 -20 0 -51 -1 -31 0 -35 -1 -38 0 -49 -1 -40 -1 -57 
-1 -50 0 -112 -3 -54 -3 -56 2 -49 -1 -46 0 -41 -1 -35 
-2 -30 0 -25 -1 -23 0 -21 -1 -19 -1 -20 -1 -26 -2 -26 
1 -20 -1 -27 -1 -27 0 -28 -2 -21 -1 -16 -1 -7 -1 3 
-1 17 -1 25 0 34 -2 39 0 40 -2 41 0 76 -1 34 
-1 30 -1 28 -1 24 -1 22 -1 18 0 16 -2 14 0 12 
1 9 -1 8 -1 9 -1 4 0 12 -1 3 0 4 -1 2 
-1 1 -1 1 0 -2 1459 3664 100 MP stroke
-1 -2 0 -23 -1 -9 0 -35 -1 -14 1 -14 1 -15 0 -27 
1 -11 0 -9 1 -7 1 -2 1 1 0 5 1 9 1 13 
0 16 1 19 1 20 1 22 2 22 0 23 -1 22 1 22 
1 22 1 20 2 20 1 19 1 18 0 17 1 16 2 16 
1 14 1 14 1 13 1 13 2 12 1 12 1 12 1 11 
1 12 0 12 1 11 1 12 2 13 0 12 1 13 3 14 
1 13 1 14 1 14 0 14 1 14 0 28 1 14 0 13 
1 13 0 35 1 10 1 9 1 8 1 7 -1 6 0 5 
2 4 1 2 0 2 1 0 1 -2 0 -6 1 -4 1 -7 
1 -7 1 -8 1 -10 0 -10 2 -12 1 -13 0 -42 1 -15 
1 -16 -1 -16 1 -16 1 -16 1 -16 1 -16 0 -15 1 -14 
0 -14 1 -13 1 -13 0 -12 2 -12 2 -11 0 -11 1 -11 
0 -23 1 -12 0 -78 1386 3536 100 MP stroke
-1 -20 0 -22 -1 -24 0 -25 -1 -27 0 -28 -1 -28 -1 -28 
-2 -27 -1 -24 -1 -20 -1 -16 -1 -10 -2 -4 -2 3 -2 8 
-2 12 -1 16 -2 19 -1 19 -2 19 -3 19 -2 17 -1 17 
-2 14 -2 12 -3 10 -4 8 1 7 -3 4 -3 2 -3 0 
-1 -3 -1 -4 -2 -5 0 -6 -3 -8 -2 -7 1 -7 -2 -9 
0 -14 -1 -6 0 -14 -1 -3 0 -9 1 -3 -1 -3 1 -5 
0 -6 1 -7 0 -9 -1 -11 0 -64 -1 -21 -1 -22 -1 -25 
0 -23 -1 -25 0 -24 1 -23 -2 -19 -1 -14 -2 -9 -1 -2 
0 6 -1 14 -2 20 -2 26 -1 30 -3 33 -2 33 -1 34 
-3 33 -2 32 -2 30 -2 27 -2 25 -4 22 -1 19 -3 16 
-1 12 -3 7 -2 4 -1 0 -3 -4 -1 -8 -4 -14 -2 -16 
-1 -18 -2 -22 -1 -23 -4 -25 0 -18 -4 -22 -1 -11 20 -3 
4 -12 -7 25 3 0 1497 3791 100 MP stroke
-7 30 -4 17 1 11 -1 10 -4 13 -4 9 3 2 -3 3 
-22 -20 -10 -31 4 21 -10 -38 6 28 20 11 0 -15 -6 -4 
0 -41 -3 -8 0 -26 1 -28 -23 58 -15 -18 4 27 -5 12 
-1 21 -1 23 -4 22 1 25 -6 22 -1 20 -2 22 -6 19 
-2 18 0 34 2 15 2 15 -1 15 -1 15 1 14 -2 16 
-1 16 0 31 -1 15 -2 15 0 28 -1 12 -1 12 -1 11 
1 10 -1 9 0 7 -1 7 -1 6 1 4 0 4 -1 2 
0 1 -1 -1 0 -1 -1 -3 -1 -4 0 -5 -1 -7 0 -8 
-1 -9 0 -10 -2 -11 0 -13 -2 -13 -1 -14 -1 -15 0 -15 
1 -16 -1 -17 -2 -16 -1 -18 0 -35 -1 -17 -1 -18 0 -17 
-1 -18 -1 -17 -2 -18 0 -17 -1 -16 -1 -16 -1 -15 -1 -15 
-1 -13 -3 -12 -2 -11 -2 -8 -2 -6 -1 -5 -1 -1 -2 0 
-2 3 -2 5 -2 7 1649 3718 100 MP stroke
-2 8 -2 10 -2 10 -2 12 -2 11 -1 12 -2 11 -3 10 
-1 10 -2 9 -2 9 -4 5 -1 8 0 6 -4 4 0 4 
-2 2 -3 3 -2 1 -1 2 -2 1 -2 1 -1 1 -2 2 
-1 2 1 3 -3 3 -2 5 0 10 -2 7 -1 7 1 7 
-1 8 -1 8 0 8 1 8 0 8 1 8 0 7 -2 7 
0 7 2 7 0 18 1 5 0 6 1 5 1 5 1 5 
2 5 1 5 0 5 2 4 1 4 2 4 2 3 2 3 
1 2 1 2 2 1 1 0 2 -1 2 -1 2 -3 2 -3 
2 -3 2 -5 2 -5 2 -6 2 -6 2 -7 2 -7 2 -7 
2 -8 2 -8 1 -7 2 -8 2 -7 2 -8 2 -6 2 -7 
2 -6 1 -6 3 -5 2 -5 2 -4 2 -3 2 -3 2 -1 
2 -1 2 0 1 2 2 3 1 4 2 6 1 7 1 8 
1 9 1 10 2 12 1609 3450 100 MP stroke
0 12 1 13 3 13 1 13 1 14 1 13 0 14 1 14 
0 14 1 14 2 14 1 15 1 14 1 15 1 15 1 16 
1 15 1 16 2 17 2 16 0 17 1 17 0 17 2 17 
1 16 1 17 2 15 0 15 2 15 0 13 1 12 2 12 
0 10 2 9 0 7 1 6 2 5 -1 4 2 2 -1 1 
1 -1 0 -3 2 -3 0 -5 -2 -5 1 -7 2 -7 -1 -7 
-2 -9 1 -9 -2 -9 3 -9 -1 -9 -2 -10 0 -9 -3 -10 
4 -9 -4 -11 2 -9 25 -11 5 -16 -3 -13 1 -18 -1 -21 
-1 -24 -2 -27 4 -35 -18 -24 -21 -46 6 -33 -3 -40 -1 -40 
1 -37 -3 -39 0 -32 -3 -32 1 -25 1 -23 -1 -21 1 -19 
-2 -19 1 -20 1 -20 -1 -21 1 -24 -1 -23 2 -27 0 -25 
-1 -26 0 -51 1 -24 -1 -26 1 -20 1 -22 0 -36 -1 -17 
2 -14 0 -29 1 -4 1579 4101 100 MP stroke
1 -1 0 2 1 4 0 8 -1 10 2 10 1 11 1 10 
-1 10 1 8 1 8 0 6 2 5 1 4 0 2 1 -1 
3 2 1 -4 1 -2 1 -6 -1 -7 3 -8 1 -13 -1 -12 
1 -16 -1 -16 0 -24 2 -15 -1 -21 1 -19 0 -18 -1 -14 
0 -9 0 6 -1 14 0 22 -2 28 -3 22 0 38 2 46 
0 36 -2 40 1 36 -2 38 -4 34 1 36 0 32 -2 32 
-1 30 -1 28 -2 27 -1 25 -1 24 -2 23 -1 21 0 19 
-2 18 -1 17 -1 15 -1 13 -1 12 -1 10 -2 9 -1 8 
-1 6 -1 6 -1 4 -1 3 0 2 -1 2 -1 0 -1 1 
-1 0 -1 0 -2 -1 -1 0 -1 0 1 0 -2 0 0 3 
-1 2 0 12 1 5 0 6 1 6 2 7 1 8 1 8 
2 9 1 9 0 9 1 11 -2 9 2 11 4 10 2 10 
1 11 1 10 1 11 1587 3258 100 MP stroke
2 11 2 11 2 11 2 11 1 12 1 11 1 12 2 12 
1 11 2 11 2 11 3 10 2 10 2 10 1 8 2 8 
2 8 1 6 2 6 1 5 2 5 1 4 1 3 3 3 
1 3 0 2 1 2 1 1 1 2 1 1 0 2 1 1 
1 2 0 11 -1 2 1 3 -1 2 -1 3 1 3 -1 2 
-1 3 0 3 -2 2 -1 3 -1 3 -2 2 -2 3 -1 2 
-2 3 -2 2 -2 3 -2 2 -1 2 -3 2 -3 2 -2 2 
-1 2 -3 2 -3 2 -2 2 -2 3 -3 2 -3 2 -2 3 
-2 2 -3 3 -2 2 -2 3 -3 3 -3 3 -3 3 -2 2 
-4 3 -3 3 -2 2 -3 2 -3 2 -4 1 -3 1 -3 1 
-4 0 -4 0 -4 0 -3 -1 -4 0 -4 -1 -3 -1 -4 -1 
-4 0 -4 0 -4 0 -4 2 -5 1 -4 3 -4 4 -5 4 
-4 6 -4 7 -5 7 1709 2883 100 MP stroke
-5 8 -5 10 -5 9 -5 11 -5 11 -5 11 -6 11 -6 11 
-5 12 -5 11 -6 12 -6 11 -6 10 -6 11 -6 10 -5 10 
-6 9 -6 9 -5 9 -6 8 -7 8 -7 7 -4 7 -6 6 
-9 6 -4 6 -7 5 -8 5 -6 5 -8 4 -7 3 -7 3 
-7 3 -8 2 -7 2 -7 2 -7 1 -6 1 -9 1 -9 1 
-7 0 -7 0 -7 0 -8 0 -8 -1 -7 -1 -8 -1 -7 -1 
-9 -2 -9 -2 -8 -2 -8 -4 -7 -3 -8 -5 -8 -5 -8 -6 
-7 -6 -8 -8 -8 -9 -6 -9 -10 -10 -8 -12 -4 -12 -7 -14 
-7 -14 -9 -15 -7 -16 -6 -16 -8 -17 -5 -17 -6 -16 -7 -16 
-8 -16 -6 -15 -8 -14 -6 -13 -7 -11 -8 -11 -6 -9 -8 -7 
-7 -7 -7 -5 -8 -5 -5 -4 -7 -4 -6 -3 -1 -5 -7 -2 
-6 -3 -6 -2 -7 -3 -5 -3 -6 -5 -5 -4 -6 -5 -5 -7 
-5 -6 -5 -6 -5 -8 2362 3024 100 MP stroke
-5 -8 -4 -9 -4 -9 -4 -9 -5 -9 -4 -7 -2 -6 -6 0 
-6 0 -3 3 -4 8 -3 9 -3 13 -3 16 -4 18 -3 17 
-2 18 -3 17 -2 17 -4 15 -3 14 -2 11 -4 10 -2 8 
-3 6 -2 4 -3 3 -3 1 -2 0 -2 -1 -2 -3 -2 -3 
-3 -3 -2 -3 -2 -3 -1 -2 -3 -2 -3 -1 -2 0 -4 3 
-1 3 1 3 -2 5 -3 5 -3 6 -2 5 -2 5 -3 4 
-3 5 -3 4 -3 2 -3 1 -3 0 -2 -3 -3 -3 -3 -5 
-2 -7 -3 -8 -3 -9 -2 -12 -2 -13 -3 -15 -3 -16 -5 -19 
-6 -20 -2 -22 -2 -24 -4 -27 -3 -28 -3 -31 -1 -32 -3 -33 
-5 -31 -1 -26 -3 -21 -4 -9 -4 3 -4 18 -4 30 -4 42 
-4 48 -3 51 -4 51 -4 52 -3 48 -4 44 -3 42 -5 37 
-3 34 -4 30 -4 26 -3 23 -4 19 -3 15 -4 12 -4 9 
-3 6 -3 3 -3 1 2668 2613 100 MP stroke
-4 -1 -3 -3 -3 -5 -3 -6 -3 -7 -3 -8 -3 -8 -3 -8 
-3 -7 -3 -8 -3 -7 -3 -6 -3 -5 -2 -4 -3 -4 -3 -5 
-2 -2 -3 -1 -3 2 -2 4 -3 3 -2 4 -3 4 -2 5 
-2 5 -3 4 -2 3 -3 2 -3 -1 -2 -2 -2 -4 -3 -5 
-2 -7 -3 -8 -2 -10 -3 -10 -3 -10 -3 -10 -2 -8 -3 -8 
-3 -8 -3 -7 -2 -4 -3 0 -3 1 -3 0 -3 0 -2 2 
-3 3 -3 5 -3 5 -3 6 -3 6 -3 7 -2 7 -3 7 
-3 6 -2 6 -3 5 -2 5 -2 3 -3 2 -2 2 -2 3 
-2 3 -2 3 -2 3 -3 5 -1 6 -2 6 -2 7 -2 7 
-2 5 -1 3 -2 1 -1 -2 -2 -6 -2 -10 -2 -14 -2 -20 
-2 -26 -2 -31 -1 -37 -3 -45 -2 -51 -2 -58 -2 -66 -2 -75 
-2 -82 -3 -88 -2 -100 -3 -88 -3 -85 -2 -82 -3 -75 -5 -49 
-5 -22 1 13 -3 19 2917 3724 100 MP stroke
-4 13 -2 -21 -7 46 -4 59 0 59 -4 45 -4 55 -4 51 
-4 42 -4 39 -4 47 -5 40 -4 35 -4 31 -5 22 -4 18 
-5 13 -4 7 -5 12 -5 10 -4 11 -5 15 -5 8 -5 5 
-5 5 -5 3 -5 1 -5 -1 -5 0 -5 1 -5 -6 -5 -5 
-5 -5 -5 -9 -4 -11 -5 -16 -5 6 -5 0 -5 -2 -5 -3 
-4 4 -5 2 -5 5 -5 8 -4 13 -5 6 -5 2 -4 6 
-4 8 -5 7 -4 7 -5 8 -4 11 -4 15 -4 22 -4 24 
-4 25 -4 27 -4 33 -4 32 -4 31 -3 27 -4 25 -4 22 
-3 20 -3 14 -4 12 -3 8 -3 4 -3 0 -4 -6 -3 -9 
-3 -15 -3 -17 -3 -19 -3 -25 -3 -29 -3 -34 -3 -36 -2 -40 
-3 -39 -3 -38 -2 -36 -3 -28 -2 -17 -3 -13 -2 4 -2 12 
-3 14 -2 11 -2 17 -1 19 -3 5 -1 8 -2 3 -2 -6 
-2 -16 -2 -18 0 -15 3288 3039 100 MP stroke
-3 -17 -3 -22 0 -19 -1 -6 -2 7 -1 15 -2 9 -1 14 
-1 33 -1 41 -2 32 -1 31 -1 26 -1 20 -1 17 -1 16 
-1 14 -1 12 -1 10 -1 10 -1 10 0 11 -1 11 -1 15 
-1 17 -1 17 0 18 -1 17 0 32 -1 17 0 20 0 -24 
1 -20 0 -62 1 -42 0 -51 1 -62 1 -70 1 -78 1 -82 
0 -87 1 -72 1 -49 1 -10 1 14 2 54 1 65 1 49 
2 35 0 34 2 24 2 14 -1 5 5 -1 -6 2 -13 -9 
3 -14 1 -11 -2 -16 7 -17 -2 -20 5 -11 7 -7 -1 -2 
2 10 1 16 6 28 11 37 1 42 2 49 3 48 1 49 
1 49 3 47 4 46 3 43 1 39 1 37 2 33 2 28 
1 26 1 24 2 21 2 18 2 16 2 14 2 12 2 11 
1 9 1 9 2 8 1 8 1 8 1 7 1 8 2 7 
0 8 1 8 1 8 3228 2301 100 MP stroke
0 7 3 8 1 8 0 8 1 8 0 8 2 7 1 8 
1 7 3 7 -1 6 1 5 2 6 0 4 2 4 1 3 
1 2 1 1 2 0 1 -2 1 -2 3 -3 2 -4 1 -6 
3 -6 2 -9 1 -9 4 -10 2 -12 3 -12 1 -14 3 -15 
1 -17 0 -17 5 -19 2 -21 3 -21 3 -23 3 -24 4 -26 
4 -28 5 -29 4 -33 1 -35 5 -38 3 -41 2 -44 4 -48 
5 -53 5 -58 2 -63 4 -67 5 -72 3 -80 6 -88 6 -81 
3 -57 5 -47 5 -4 4 23 4 72 5 83 5 83 5 86 
5 81 5 77 5 72 5 66 4 63 5 58 6 55 6 51 
5 48 5 44 6 41 5 37 6 34 6 31 5 27 6 24 
6 21 6 18 5 14 7 11 5 8 6 6 6 2 6 -1 
5 -3 6 -6 6 -9 6 -10 5 -12 6 -14 5 -15 6 -16 
6 -17 5 -17 6 -16 2865 2332 100 MP stroke
5 -16 6 -16 5 -15 5 -14 6 -12 5 -11 5 -10 5 -9 
5 -6 6 -6 5 -5 5 -4 5 -3 6 -3 5 -2 5 -3 
5 -2 5 -2 5 -3 5 -3 5 -3 5 -3 5 -4 5 -4 
5 -4 5 -4 5 -4 5 -3 5 -3 5 -2 5 -2 5 -1 
5 0 5 0 4 0 5 1 5 1 5 1 4 1 5 0 
5 0 4 -2 5 -2 4 -4 5 -6 4 -7 4 -9 5 -10 
4 -13 4 -14 4 -15 4 -17 4 -17 4 -19 4 -19 4 -18 
4 -17 4 -17 3 -16 4 -14 4 -12 3 -9 4 -7 4 -5 
3 -3 4 0 4 0 3 3 4 3 3 4 4 5 4 5 
3 5 4 5 3 5 3 5 4 3 3 3 4 3 3 2 
4 1 3 1 3 -1 4 -1 3 -2 4 -3 3 -4 4 -4 
3 -5 4 -4 3 -5 4 -5 4 -4 3 -4 4 -4 4 -3 
4 -2 4 -2 4 -1 2440 2783 100 MP stroke
4 -1 4 -1 5 1 4 1 5 1 3 2 5 2 5 3 
5 4 4 5 6 6 5 7 5 7 5 8 5 8 6 9 
5 9 5 9 6 8 5 8 6 8 6 7 5 6 6 6 
7 5 6 5 5 5 6 4 6 4 5 4 6 3 6 3 
6 4 5 3 5 4 7 4 6 3 6 4 6 3 6 3 
6 4 6 3 6 4 6 3 6 3 6 2 6 3 6 2 
6 2 6 2 6 1 6 2 5 1 4 0 4 1 5 0 
5 0 5 -1 5 0 4 -1 5 -1 4 -1 5 -1 3 -1 
4 -1 4 -1 4 -1 4 -2 3 -1 6 -2 5 -2 1 -3 
4 -3 4 -3 3 -5 3 -5 3 -6 5 -7 3 -8 2 -9 
4 -11 2 -11 2 -13 4 -15 2 -15 2 -17 2 -18 2 -20 
1 -20 2 -22 2 -22 3 -24 1 -24 1 -24 1 -25 1 -25 
1 -24 1 -24 2 -24 2006 3009 100 MP stroke
2 -24 0 -22 2 -22 1 -20 0 -20 1 -19 1 -17 1 -17 
1 -15 0 -15 1 -13 1 -11 0 -10 1 -9 1 -6 -2 -4 
1 -1 2 2 0 4 1 7 1 10 1 13 3 16 1 18 
2 20 2 21 2 22 3 24 2 24 3 25 3 26 3 26 
3 26 2 26 3 26 4 26 4 25 2 25 4 24 3 24 
2 22 2 21 1 20 4 18 2 17 0 16 3 14 1 12 
1 10 3 9 2 7 0 14 1 2 -1 1 0 -3 -1 -1 
1 -2 -1 -3 -1 -1 -1 -2 -2 -1 -2 0 -1 0 -2 2 
-2 2 -3 3 -1 4 -3 4 -2 5 -2 6 -3 5 -1 6 
-3 6 -3 6 -3 6 -3 5 -3 5 -4 5 -3 4 -1 4 
-4 4 -3 4 -2 3 -4 3 -2 3 -4 2 -3 3 -3 3 
-2 2 -1 3 -2 3 -3 3 -2 3 -4 3 -2 3 -2 3 
-3 3 -2 3 -3 3 2020 2489 100 MP stroke
-2 3 -2 2 -2 2 -3 2 -2 1 -2 1 -2 0 -2 -1 
-2 -1 -3 -2 -1 -2 -3 -3 -2 -4 -1 -5 -2 -5 -1 -6 
-1 -6 -3 -7 -2 -7 -1 -7 -2 -8 -1 -9 -1 -8 -1 -9 
-2 -9 -1 -9 -1 -9 0 -9 -2 -9 -1 -10 0 -9 -1 -9 
-1 -9 0 -10 -1 -9 -1 -10 -1 -9 0 -21 -1 -10 0 -11 
2 -12 0 -12 1 -12 1 -13 -1 -13 1 -14 0 -28 1 -14 
1 -15 1 -14 0 -15 2 -14 2 -14 -1 -13 1 -14 1 -13 
1 -13 2 -12 0 -13 2 -13 1 -13 1 -14 2 -15 1 -16 
1 -17 1 -17 1 -19 2 -18 1 -18 2 -17 1 -17 2 -16 
2 -15 1 -11 2 -9 2 -6 1 -4 2 -2 1 -1 2 0 
1 1 2 1 2 2 1 1 1 1 3 1 2 1 0 1 
2 0 1 0 2 0 1 0 1 -1 2 -1 1 -1 1 0 
1 0 2 0 1 1 2004 3249 100 MP stroke
2 1 1 3 1 3 2 4 1 5 2 7 1 7 1 8 
2 10 1 10 2 11 2 11 2 12 1 11 3 12 1 11 
2 11 2 11 3 10 2 9 2 8 2 7 3 7 2 6 
3 4 2 4 3 4 2 2 5 2 4 1 -1 1 3 1 
3 1 2 0 3 0 3 1 3 0 2 1 3 0 4 1 
2 1 3 1 3 1 3 0 3 1 3 0 3 0 3 -1 
3 -1 3 -2 3 -3 4 -3 3 -4 3 -6 3 -6 2 -7 
2 -8 3 -8 3 -9 1 -9 3 -10 4 -9 2 -9 3 -9 
3 -7 3 -6 2 -5 3 -3 3 -1 3 1 3 3 2 5 
3 7 2 10 3 12 3 14 2 16 3 17 2 20 3 21 
2 22 3 23 2 23 2 25 3 24 3 23 2 23 1 20 
7 22 6 16 1 16 2 13 3 10 2 7 2 4 3 1 
2 -2 2 -4 2 -8 1756 2769 100 MP stroke
3 -10 3 -12 -1 -13 -5 -17 3 -16 3 -16 1 -17 3 -16 
1 -16 2 -15 1 -13 2 -12 2 -11 0 -8 3 -7 1 -6 
1 -4 2 -2 0 -1 2 -1 0 2 2 1 0 3 1 3 
2 4 0 4 1 4 1 4 0 5 1 4 0 4 1 4 
0 4 1 4 0 6 1 3 0 6 1 1 0 -1 -1 -1 
0 -3 -1 -2 -1 -1 0 -2 -1 -2 0 -3 -1 -2 -1 -2 
0 -2 -1 -2 -1 -2 -1 -3 -1 -2 -1 -3 -2 -3 -1 -4 
0 -4 -1 -5 -1 -5 -1 -7 -1 -7 -1 -9 -1 -11 -1 -12 
-2 -13 -1 -16 -1 -17 -1 -19 -1 -21 -2 -24 -1 -26 -1 -28 
-1 -30 -2 -32 -2 -34 -1 -35 -1 -36 -2 -37 -1 -36 -2 -35 
-2 -33 -1 -30 -2 -27 -2 -24 -1 -22 -2 -18 -2 -17 -2 -17 
-2 -18 -2 -17 -2 -22 -1 -16 -3 -29 -2 -14 7 -8 1 -24 
-5 15 0 -6 -3 12 1786 3770 100 MP stroke
-2 14 -3 20 -2 27 -1 34 -3 41 -2 47 -3 53 -3 55 
-1 56 -4 57 -1 55 -4 54 -2 51 -1 47 -13 47 -9 38 
1 40 -4 34 -3 30 -3 27 -2 24 -3 20 -3 17 -1 15 
-4 12 -3 10 -1 8 -3 7 -3 5 -3 3 -1 3 -4 1 
-2 1 -2 1 -3 0 -3 0 -2 0 -2 0 -4 0 -2 0 
-3 0 -3 0 -2 1 -2 0 -4 0 -2 1 -3 0 -2 0 
-4 0 -2 0 -2 0 -4 0 -3 -1 -2 -1 -4 -1 -3 -2 
-3 -1 -3 -3 -3 -2 -3 -3 -3 -3 -3 -4 -3 -4 -3 -4 
-4 -5 -3 -5 -1 -5 -4 -6 -4 -6 -2 -7 -3 -7 -4 -8 
-3 -8 -2 -9 -3 -9 -3 -9 -4 -10 -2 -11 -2 -11 -5 -12 
-3 -12 -2 -12 -3 -13 -2 -13 -4 -13 -3 -13 -3 -13 -2 -13 
-3 -14 -4 -13 -3 -13 -2 -14 -3 -13 -3 -14 -3 -14 -3 -15 
-3 -15 -2 -17 -3 -18 2072 3233 100 MP stroke
-3 -19 -3 -21 -3 -24 -3 -26 -2 -29 -4 -31 -4 -34 -2 -36 
-4 -37 -3 -35 -3 -32 -4 -27 -1 -11 -7 -9 2 20 18 29 
-1 28 -6 34 -1 30 -8 31 -1 24 -5 22 -4 16 -1 11 
-6 9 0 4 -8 3 -3 0 -1 -2 -22 0 -13 -5 1 6 
-5 5 -3 8 -4 9 -5 10 -3 11 -3 11 -2 12 -5 13 
-4 13 -2 12 -4 12 -4 12 -3 11 -3 11 -4 10 -3 10 
-3 11 -2 10 -3 9 -4 9 -3 8 -3 9 -4 8 -3 9 
-3 8 -2 8 -3 8 -3 8 -4 9 -3 8 -1 9 -3 8 
-3 8 -3 8 -2 8 -2 8 -2 8 -2 8 -3 7 -2 7 
-1 7 -2 7 -1 7 -1 8 -2 8 0 8 -2 8 -1 9 
-2 9 0 20 -5 9 9 10 13 9 -3 9 0 9 -1 8 
-3 8 4 7 -9 8 -14 5 0 6 -1 7 -1 5 0 5 
-1 5 -1 5 0 3 2325 2764 100 MP stroke
-1 4 0 3 -2 2 -1 1 1 1 -2 -1 -2 -1 1 -2 
-1 -2 -2 -4 0 -4 2 -5 -1 -5 -2 -6 3 -6 -1 -7 
1 -8 3 -8 -2 -8 1 -9 2 -8 1 -8 1 -8 2 -8 
1 -8 2 -7 2 -6 1 -5 2 -3 3 -2 2 -1 3 0 
2 1 1 2 3 3 3 4 4 3 5 4 0 4 1 4 
3 3 3 3 3 3 3 1 2 2 3 0 4 0 3 -1 
5 -1 4 -3 2 -2 4 -4 2 -3 4 -4 4 -5 -3 -4 
0 -4 4 -5 2 -5 4 -5 4 -4 7 -3 7 -4 1 -3 
5 -3 3 -3 3 -2 3 -3 2 -2 5 -3 6 -3 3 -3 
2 -3 3 -4 4 -5 3 -5 3 -6 4 -7 3 -7 3 -8 
3 -9 4 -10 3 -10 3 -11 4 -11 3 -11 3 -13 3 -12 
3 -13 3 -13 3 -13 3 -13 3 -14 3 -14 3 -14 2 -14 
3 -14 3 -14 2 -13 2102 3219 100 MP stroke
3 -11 2 -11 2 -8 3 -5 2 -2 2 2 2 5 2 9 
2 13 3 15 3 17 1 19 1 20 2 20 1 19 1 19 
2 18 1 16 2 14 1 13 1 10 2 9 1 8 0 6 
2 4 0 5 6 2 1 0 -1 1 1 0 -1 1 0 2 
-1 2 0 3 -1 4 -1 4 0 5 -1 6 -1 7 -1 7 
0 8 -1 9 -1 9 -2 8 -2 10 0 8 -2 10 -1 9 
-1 8 -1 8 -1 8 -1 7 -1 6 -2 6 -2 5 -1 4 
-2 4 -2 4 -2 3 -1 3 -2 2 -1 2 0 4 -2 2 
-2 2 -1 2 -2 2 -2 2 -2 2 -2 2 -3 2 -2 1 
-2 2 -2 2 -3 1 -3 1 -2 1 -3 1 -3 2 -3 0 
-2 1 -3 1 -4 1 -3 0 -3 1 -3 0 -3 0 -4 0 
-3 -1 -3 -1 -3 -1 -4 -2 -3 -3 -3 -3 -3 -5 -3 -5 
-3 -6 -3 -7 -3 -9 2185 2818 100 MP stroke
-3 -8 -3 -10 -2 -10 -3 -12 -3 -11 -2 -12 -3 -12 -2 -11 
-2 -11 -2 -10 -2 -10 -1 -8 -1 -7 -2 -6 -1 -5 -1 -3 
-1 -2 -1 0 -1 0 1 0 -2 3 0 5 -1 2 1 2 
-1 1 1 2 0 1 1 -1 1 -1 1 1 0 2 1 2 
1 3 0 4 1 5 1 7 1 6 1 7 0 7 1 6 
0 12 1 1 0 -1 -1 -3 0 -24 -1 -11 0 -13 -1 -15 
-1 -17 -1 -18 -1 -18 -1 -19 -1 -18 -1 -18 -1 -18 -1 -15 
-2 -15 -1 -12 -1 -11 -2 -9 -2 -7 -1 -4 -2 -3 -2 -2 
-2 1 -2 2 -3 3 -2 4 -2 5 -2 6 -3 7 -2 7 
-3 8 -3 7 -2 8 -3 8 -3 8 -2 9 -4 8 -3 8 
-2 8 -4 9 -2 8 -3 9 -3 9 -3 9 -3 9 -3 9 
-3 10 -3 10 -3 10 -3 10 -3 10 -2 11 -3 10 -3 10 
-2 10 -3 10 -3 10 2330 2880 100 MP stroke
-2 9 -3 9 -2 9 -2 8 -3 8 -2 7 -3 6 -1 6 
-3 6 -2 5 -2 4 -2 3 -1 4 -2 2 -2 2 -1 2 
-2 1 -1 0 -2 0 -2 0 -1 -1 -1 -1 -1 -1 -2 -2 
-1 -2 -1 -2 -1 -3 -1 -2 -1 -3 -1 -3 -1 -3 -1 -2 
0 -3 -1 -2 -1 -2 -1 -2 -1 -1 -1 -1 0 -1 -1 -1 
-1 0 -1 1 -1 1 -1 1 0 1 -1 2 0 1 -1 2 
-1 2 0 2 -1 2 -1 2 0 2 -1 2 0 2 -1 1 
-1 0 1 0 -2 -3 0 -39 1 -6 0 -7 1 -6 0 -6 
1 -6 1 -6 1 -5 0 -5 2 -4 1 -4 1 -3 1 -2 
2 -2 1 -1 1 0 2 0 2 1 1 1 2 2 1 3 
2 2 2 3 2 3 1 3 2 3 2 3 1 3 2 3 
1 2 1 2 2 1 1 0 1 0 2 -1 0 -1 1 -3 
1 -2 1 -4 0 -3 2355 2887 100 MP stroke
1 -5 0 -20 1 -5 0 -5 -1 -6 0 -5 -1 -5 0 -5 
-1 -5 1 -4 -1 -4 -7 -4 0 -3 1 -2 -3 -2 -3 -2 
-2 0 -3 1 -3 2 -3 3 -2 4 -4 6 -3 6 -2 8 
-3 9 -3 9 -4 11 -4 10 -3 11 -4 10 -4 11 -3 9 
-5 9 -3 9 -1 8 -4 6 -4 6 -4 4 -5 3 -4 2 
-5 0 -4 0 -5 -2 -4 -3 -4 -3 -6 -5 -4 -5 -4 -5 
-5 -5 -5 -6 -5 -5 -5 -4 -5 -5 -5 -4 -5 -3 -5 -2 
-5 -2 -5 -1 -5 0 -5 0 -6 1 -5 1 -5 1 -5 2 
-6 2 -5 1 -6 2 -6 1 -5 1 -5 0 -5 1 -6 -1 
-6 -1 -5 -3 -6 -3 -5 -4 -7 -6 -5 -6 -7 -8 -7 -8 
-6 -8 -6 -9 -6 -9 -8 -9 -6 -8 -5 -7 -8 -5 -3 -4 
-5 -3 -10 0 -5 2 -4 5 -6 6 -6 7 -6 7 -7 10 
-6 12 -6 10 -7 11 2773 2891 100 MP stroke
-6 10 -5 9 -6 9 -6 6 -6 6 -7 4 -5 3 -6 0 
-5 -2 -5 -2 -6 -3 -6 -4 -7 -4 -6 -5 -6 -5 -6 -2 
-6 0 -6 1 -5 5 -5 8 -6 12 -5 17 -5 19 -7 22 
-5 25 -3 27 -5 26 -5 28 -5 27 -6 25 -4 24 -5 22 
-4 19 -5 17 -4 13 -4 11 -5 7 -4 5 -4 1 -3 -2 
-4 -4 -4 -7 -3 -10 -4 -12 -3 -15 -3 -16 -3 -16 -3 -18 
-3 -18 -3 -17 -3 -17 -2 -15 -3 -11 -2 -10 -3 -8 -2 -7 
-2 -5 -2 -3 -2 -3 -2 -1 -2 0 -2 -2 -2 0 -1 -1 
-2 -1 -3 -2 0 -1 -2 -1 -2 0 -1 0 -2 1 -1 2 
-1 3 -1 4 -1 5 -1 6 -1 7 0 7 -1 8 0 32 
1 8 0 7 1 7 0 11 1 4 0 5 1 2 1 1 
1 0 1 -1 1 -2 2 -2 1 -4 2 -5 1 -4 2 -6 
2 -6 2 -6 2 -6 3043 2655 100 MP stroke
2 -5 3 -4 2 -1 2 1 2 2 3 5 2 7 3 8 
3 10 3 12 2 12 3 13 3 14 2 13 4 12 3 12 
3 11 3 11 3 10 3 9 3 8 3 8 2 7 3 7 
3 7 2 6 3 6 3 6 2 5 3 6 2 5 2 5 
3 5 2 5 3 4 2 4 2 3 2 4 3 2 2 2 
3 0 2 0 2 -1 2 -3 2 -3 2 -5 2 -5 1 -7 
2 -7 1 -9 2 -9 1 -9 1 -10 2 -9 0 -8 2 -8 
0 -8 2 -5 0 -4 1 -3 1 0 -1 0 2 4 0 5 
1 6 0 23 1 9 2 8 -1 7 0 12 -1 4 0 3 
-1 2 -1 -3 -2 -3 4 -7 -2 -8 -3 -10 4 -14 -2 -15 
-1 -18 -1 -20 -2 -22 0 -24 -1 -25 -2 -25 -1 -23 -1 -22 
-1 -19 -2 -13 -1 -7 -1 -3 -1 3 -1 7 -2 9 -1 13 
-2 16 -1 14 -1 14 2931 2633 100 MP stroke
-2 14 -1 14 -1 12 0 12 -2 10 -1 9 -2 8 -1 6 
-2 4 -4 3 -1 1 -2 -2 -2 -6 -1 -8 -2 -13 -2 -16 
-2 -20 -2 -25 -1 -29 -2 -33 -2 -38 -2 -44 -2 -48 -1 -52 
-1 -55 -2 -59 -2 -58 -1 -54 -2 -49 -2 -40 -2 -31 -1 -22 
-1 -4 -3 1 -1 2 -2 9 -2 12 -1 12 -2 18 -2 18 
-1 21 -2 27 -2 29 -2 30 -2 31 -1 30 -2 29 -2 24 
-2 22 -1 18 -2 14 -2 9 -3 11 -2 6 -2 0 -2 0 
-2 -1 -2 -3 -1 -6 -2 -6 -2 -6 -2 -4 -3 -4 -2 -3 
-2 -2 -2 -1 -2 1 -3 3 -2 5 -2 4 -2 3 -2 5 
-3 5 -2 4 -2 4 -3 6 -3 4 -2 3 -3 4 -2 6 
-2 6 -3 7 -2 6 -3 8 -3 9 -2 8 -3 7 -3 6 
-3 5 -3 2 -3 0 -2 -2 -3 -4 -3 -7 -3 -9 -3 -8 
-3 -11 -3 -10 -3 -10 3134 2849 100 MP stroke
-3 -7 -3 -8 -4 -1 -3 3 -3 6 -3 8 -3 9 -3 11 
-3 16 -3 16 -3 18 -3 18 -3 20 -3 20 -3 20 -2 19 
-3 20 -3 19 -3 20 -2 21 -3 20 -3 16 -2 18 -3 15 
-2 14 -3 13 -2 11 -2 10 -3 8 -2 6 -2 6 -3 4 
-2 2 -2 1 -2 -1 -2 -1 -2 -3 -2 -3 -2 -4 -2 -5 
-2 -5 -2 -3 -2 -4 -2 -5 -2 -4 -2 -6 -1 -3 -2 0 
-2 -1 -2 2 -1 4 -2 6 -2 9 -2 12 -1 15 -2 21 
-2 25 -2 28 -1 30 -2 32 -2 34 -1 35 -2 34 -2 34 
-1 32 -2 30 -1 29 -2 26 -1 23 -2 21 -1 19 -2 15 
-1 13 -2 10 -1 7 -1 5 -2 2 -1 0 -1 -1 -1 -4 
-2 -5 -1 -6 -1 -7 -1 -7 -1 -8 -1 -7 -1 -8 -1 -6 
-1 -4 -1 -4 0 -2 -1 0 -1 1 -1 3 0 4 -1 6 
-1 7 -1 7 0 7 3321 1986 100 MP stroke
-1 8 0 8 -1 7 0 7 -1 7 0 14 -1 6 0 34 
1 8 0 17 1 9 0 30 1 10 0 10 1 11 1 10 
0 9 1 9 0 9 1 8 1 7 1 7 0 5 1 4 
1 4 1 2 1 1 2 0 1 -2 1 -3 2 -5 1 -6 
1 -8 2 -9 2 -11 1 -12 1 -14 1 -15 1 -16 1 -17 
1 -18 1 -19 0 -20 2 -20 1 -21 -1 -20 0 -20 1 -20 
0 -19 1 -18 -1 -17 1 -16 0 -15 -1 -13 0 -22 -1 -8 
0 -8 -1 -6 -2 -5 -2 -4 -2 -3 -2 -3 -1 -3 -3 -2 
-3 -3 -2 -3 -3 -3 -3 -4 -3 -4 -4 -6 -3 -6 -4 -6 
-4 -8 -4 -9 -4 -9 -5 -9 -4 -9 -5 -9 -6 -9 -5 -8 
-5 -8 -6 -7 -6 -7 -6 -6 -6 -6 -7 -5 -6 -6 -7 -7 
-7 -6 -7 -8 -7 -8 -7 -10 -7 -11 -8 -13 -8 -14 -7 -15 
-8 -16 -7 -16 -8 -18 3496 2455 100 MP stroke
-8 -18 -8 -17 -8 -18 -8 -15 -8 -12 -9 -10 -8 -7 -9 -2 
-8 1 -9 6 -8 11 -9 14 -9 17 -9 21 -9 22 -9 23 
-9 25 -9 25 -9 23 -9 22 -9 24 -10 23 -9 20 -9 19 
-9 17 -10 15 -9 14 -9 12 -10 11 -9 9 -9 7 -9 6 
-10 5 -9 4 -9 4 -9 3 -10 3 -9 4 -9 6 -9 8 
-10 7 -9 11 -9 12 -9 14 -10 18 -9 20 -9 22 -9 24 
-9 25 -9 26 -9 26 -9 26 -9 24 -9 24 -9 22 -9 22 
-9 21 -9 20 -9 17 -9 17 -8 17 -9 15 -8 15 -8 15 
-8 14 -9 14 -8 14 -8 13 -7 14 -8 13 -8 12 -8 12 
-7 12 -8 10 -7 9 -7 8 -8 7 -7 6 -7 4 -7 3 
-7 1 -7 -1 -7 -2 -6 -4 -7 -6 -7 -8 -6 -10 -6 -11 
-6 -13 -7 -14 -5 -16 -6 -17 -5 -17 -5 -18 -6 -18 -5 -18 
-5 -17 -5 -16 -5 -15 4303 1725 100 MP stroke
-5 -13 -4 -11 -5 -9 -5 -6 -5 -4 -5 -3 -5 -1 -4 -1 
-4 0 -5 1 -4 1 -5 -1 -5 -2 -4 -2 -5 -5 -4 -6 
-5 -8 -4 -10 -5 -13 -4 -14 -5 -15 -5 -18 -4 -19 -4 -21 
-4 -20 -4 -22 -5 -20 -5 -19 -4 -18 -4 -13 -6 -9 -4 -4 
-4 2 -6 7 -5 12 -5 17 -6 21 -5 23 -6 26 -6 26 
-7 27 -7 25 -5 25 -6 24 -6 21 -6 20 -7 17 -6 16 
-7 13 -6 11 -7 10 -6 9 -7 6 -7 6 -7 6 -7 5 
-6 5 -7 6 -7 6 -8 7 -8 10 -8 10 -8 13 -7 13 
-9 16 -7 17 -9 18 -8 19 -8 19 -8 20 -8 20 -9 19 
-8 19 -8 18 -10 18 -7 16 -9 15 -10 13 -8 12 -9 10 
-8 9 -9 7 -9 6 -9 3 -10 3 -8 0 -10 0 -9 -2 
-8 -3 -10 -4 -9 -5 -9 -5 -10 -5 -9 -5 -10 -5 -9 -5 
-9 -4 -9 -4 -9 -3 4963 1338 100 MP stroke
-10 -1 -9 -1 -9 0 -9 1 -10 3 -10 2 -9 3 -9 4 
-10 3 -8 4 -11 3 -10 3 -9 3 -9 4 -10 3 -9 3 
-10 3 -9 4 -10 4 -10 5 -9 6 -10 6 -9 8 -10 7 
-12 9 -10 8 -9 9 -10 9 -9 8 -9 9 -9 8 -11 8 
-11 8 -10 6 -9 6 -8 6 -10 5 -10 5 -11 5 -11 4 
-7 3 -10 3 -10 3 -9 3 -10 2 -9 2 -10 2 -9 1 
-10 2 -9 0 -9 1 -10 0 -8 0 -9 -1 -10 0 -8 -1 
-10 0 -9 -1 -8 0 -9 0 -8 0 -10 1 -7 2 -10 2 
-10 3 -6 3 -7 4 -9 5 -7 5 -9 5 -7 5 -8 6 
-7 5 -8 5 -7 5 -7 5 -7 5 -7 3 -7 4 -6 3 
-7 2 -7 3 -6 2 -6 1 -6 2 -6 1 -6 1 -5 2 
-5 1 -6 2 -5 2 -4 2 -5 3 -5 4 -4 4 -4 4 
-4 5 -3 6 -4 6 5785 997 100 MP stroke
-2 6 -3 7 -3 6 -2 7 -2 7 -2 6 -2 5 -1 6 
-2 4 -1 4 0 3 -1 2 -1 2 -1 1 1 -1 1 -1 
0 -2 1 -1 1 -2 1 -2 1 -2 2 -1 2 -2 2 -1 
2 -1 1 -1 3 -1 3 0 1 0 2 1 3 1 3 1 
3 2 2 3 4 3 4 3 4 4 3 3 3 3 4 3 
4 2 4 2 4 1 5 -1 4 -2 4 -3 4 -5 4 -7 
5 -8 5 -9 5 -11 4 -13 5 -14 5 -15 4 -17 4 -18 
5 -19 5 -20 4 -20 5 -22 4 -21 5 -22 4 -23 5 -22 
5 -23 4 -22 4 -22 5 -22 4 -22 5 -20 4 -20 5 -20 
4 -19 4 -18 4 -18 4 -18 4 -17 4 -17 4 -16 4 -17 
4 -17 4 -18 4 -18 3 -19 4 -19 3 -21 4 -22 4 -23 
3 -25 3 -27 4 -29 3 -31 4 -33 3 -36 4 -36 3 -38 
3 -41 3 -39 5 -40 5508 2052 100 MP stroke
3 -37 3 -32 4 -28 3 -19 3 -6 3 10 4 17 3 26 
3 32 4 36 3 39 3 41 3 40 3 40 3 38 3 37 
3 35 3 33 3 32 2 29 3 29 2 27 3 25 2 25 
2 22 2 22 3 20 2 19 1 18 2 17 2 15 2 14 
2 14 1 12 2 11 1 11 1 9 1 9 1 8 1 8 
1 7 2 6 0 7 1 6 1 7 0 14 1 7 -1 7 
0 20 -1 5 0 6 -1 5 0 3 -1 4 -1 2 -1 2 
-1 1 -2 1 -1 0 -1 0 -1 0 -1 1 -2 1 -1 1 
-2 2 -1 2 -1 3 -2 4 -1 3 -2 4 -1 4 -1 4 
-2 3 0 4 -1 3 -2 4 -1 3 -3 3 -2 3 -1 3 
-1 2 -2 2 -1 2 -1 2 -1 1 -1 2 -1 1 -1 1 
-1 0 -1 -1 0 -12 1 -2 0 -2 1 -1 1 0 1 1 
1 1 0 1 1 2 5448 1189 100 MP stroke
1 2 1 3 1 2 1 4 1 3 2 4 1 4 1 5 
1 5 1 5 2 6 1 5 1 6 2 6 1 5 2 6 
1 5 2 5 1 5 2 4 1 4 2 3 1 2 2 2 
1 1 1 0 2 -1 2 -1 1 -2 1 -2 2 -3 1 -3 
1 -4 2 -3 1 -3 1 -3 1 -4 1 -3 1 -3 1 -3 
0 -4 1 -3 0 -3 1 -4 0 -4 1 -5 0 -26 -1 -5 
0 -7 -1 -2 -1 -1 -1 1 0 1 -2 3 -1 3 -1 4 
-1 4 -1 5 -1 3 -1 4 -2 3 -1 2 -2 1 -1 0 
-1 -2 -2 -2 -1 -4 -1 -6 -2 -6 -1 -8 -1 -9 -2 -11 
-1 -11 -1 -13 -2 -13 -1 -14 -1 -15 -2 -16 -1 -15 -1 -16 
-1 -16 -1 -15 -1 -15 -2 -14 0 -13 -1 -13 -1 -11 0 -51 
1 -7 1 -7 1 -7 1 -9 1 -11 2 -11 2 -13 2 -15 
2 -16 2 -18 3 -19 5421 1597 100 MP stroke
3 -21 4 -21 3 -23 3 -25 4 -26 4 -27 3 -30 5 -31 
4 -33 5 -34 4 -38 5 -39 5 -40 5 -41 5 -42 6 -40 
5 -37 6 -29 5 -19 6 -6 6 9 6 22 6 34 6 41 
6 45 7 46 6 45 7 43 7 42 6 39 6 36 7 33 
7 29 7 27 7 24 6 21 6 17 8 16 6 13 7 12 
8 9 7 7 6 6 6 4 6 3 6 1 6 1 7 1 
5 0 6 0 6 -1 5 0 7 -1 4 0 6 1 5 0 
4 1 8 2 4 3 2 3 7 3 5 4 5 4 5 4 
5 5 4 5 4 4 4 4 5 4 4 3 3 3 4 2 
4 2 3 2 5 0 3 1 3 0 4 0 4 0 3 0 
3 1 3 1 3 1 3 3 3 4 3 5 3 6 2 6 
4 8 2 8 2 9 2 9 2 9 3 9 2 9 2 9 
2 8 2 6 2 6 4955 1398 100 MP stroke
2 5 2 4 2 2 1 1 1 0 1 -1 2 -2 1 -2 
1 -4 1 -4 1 -5 1 -4 1 -4 0 -4 1 -3 0 -2 
1 -1 1 2 0 3 1 3 0 20 1 5 0 14 1 4 
-1 4 0 22 -3 5 2 6 1 5 -1 6 1 6 0 7 
-1 5 1 6 -1 5 1 6 0 16 0 -1 1 -2 1 -2 
0 -4 1 -5 0 -5 1 -5 2 -6 0 -6 2 -6 1 -6 
2 -5 1 -4 1 -3 2 -2 2 0 2 1 2 2 2 3 
2 5 3 5 2 6 3 6 3 6 2 6 3 5 3 4 
3 3 3 1 3 -1 3 -3 3 -6 4 -8 3 -11 4 -13 
3 -16 4 -18 3 -21 4 -24 3 -26 4 -28 3 -31 4 -31 
4 -32 4 -31 3 -32 3 -32 4 -30 4 -28 3 -26 3 -23 
4 -19 4 -16 3 -13 3 -11 4 -9 3 -9 3 -5 3 -3 
3 -6 4 -7 3 -9 4770 1859 100 MP stroke
3 -11 2 -13 3 -16 3 -19 3 -22 2 -24 3 -29 2 -32 
3 -36 2 -39 3 -45 2 -48 2 -52 2 -56 2 -60 2 -62 
2 -67 2 -67 2 -59 1 -50 2 -40 2 -25 1 -9 2 10 
1 15 2 13 1 17 1 35 2 35 2 34 1 25 1 30 
2 20 1 19 2 29 1 35 1 28 2 28 1 29 2 30 
1 29 2 28 1 25 2 25 1 24 1 20 2 18 1 17 
2 16 1 12 2 9 1 8 2 6 2 4 1 3 2 2 
1 1 2 2 2 5 1 4 2 5 2 7 1 8 2 10 
2 10 1 14 2 14 2 15 1 14 2 17 2 17 2 17 
2 15 2 15 1 15 2 14 2 13 2 13 2 11 2 11 
2 9 2 9 2 9 1 8 2 7 2 7 2 7 2 6 
1 6 2 6 2 5 1 5 2 4 2 4 1 3 2 4 
2 2 2 1 1 1 4595 1692 100 MP stroke
2 -1 2 -2 2 -3 2 -4 2 -6 2 -8 2 -8 2 -9 
2 -8 3 -8 2 -8 2 -8 2 -7 2 -5 3 -5 2 -2 
2 0 2 1 2 1 3 2 2 2 2 3 3 2 2 1 
2 1 3 1 2 0 3 -2 2 -1 2 -3 3 -3 2 -3 
3 -4 2 -5 3 -4 2 -4 3 -4 2 -3 3 -2 2 -2 
3 0 2 0 3 0 2 0 3 1 2 1 3 0 2 -1 
2 -2 3 -2 2 -3 3 -4 2 -5 3 -5 2 -6 2 -6 
2 -7 2 -7 3 -4 2 -5 3 -5 2 -5 2 -4 2 -4 
3 -4 2 -4 2 -4 2 -3 2 -5 2 -5 3 -5 2 -6 
2 -7 2 -8 2 -8 2 -10 2 -10 2 -11 2 -11 2 -11 
2 -10 2 -10 2 -10 1 -10 2 -11 2 -11 1 -10 2 -11 
2 -13 2 -15 2 -16 2 -17 1 -18 2 -16 2 -13 2 -10 
1 -8 2 -1 2 2 4379 2203 100 MP stroke
2 7 2 11 1 14 2 16 2 17 2 16 2 15 2 14 
1 14 2 12 2 11 1 10 2 8 2 8 2 7 1 5 
2 4 2 1 3 0 2 -4 1 -6 3 -7 2 -11 2 -14 
2 -19 2 -23 1 -27 2 -32 2 -37 2 -44 2 -48 2 -55 
2 -59 2 -60 2 -58 2 -48 2 -27 0 41 4 62 3 71 
2 74 2 74 2 67 1 60 2 58 3 53 1 47 2 41 
2 36 2 32 2 28 1 26 2 22 2 19 2 18 1 15 
2 13 2 12 1 11 2 11 2 10 1 10 2 9 2 10 
1 10 2 9 2 10 3 10 2 10 1 9 3 10 2 9 
3 8 2 8 2 8 3 6 2 6 3 5 2 4 3 2 
4 2 2 1 2 0 3 -2 5 -2 5 -3 2 -4 4 -5 
2 -5 1 -6 6 -6 4 -7 3 -7 5 -7 4 -7 3 -8 
4 -7 4 -7 4 -7 4156 1625 100 MP stroke
5 -6 4 -6 5 -6 4 -6 5 -5 5 -4 4 -4 5 -4 
5 -2 5 -3 5 -2 5 -1 5 -1 5 -2 5 -1 5 -2 
5 -2 5 -3 5 -4 5 -4 5 -6 5 -7 5 -7 6 -9 
5 -10 5 -11 6 -12 5 -13 5 -13 5 -13 6 -14 6 -13 
5 -13 6 -12 5 -11 6 -11 5 -10 6 -8 6 -7 6 -7 
5 -5 6 -5 6 -3 6 -3 5 -2 6 -1 6 -1 6 -1 
6 0 5 -1 7 0 6 0 6 -1 6 -1 6 -1 6 -2 
6 -3 7 -3 6 -4 7 -5 6 -6 6 -7 7 -7 6 -8 
6 -10 7 -10 6 -10 6 -11 6 -12 7 -12 6 -12 6 -13 
6 -11 6 -11 7 -9 5 -9 7 -6 6 -3 5 -2 7 1 
5 4 6 7 6 7 6 10 5 11 6 11 6 11 5 10 
6 10 5 8 6 6 5 5 6 2 5 0 5 -2 5 -5 
5 -7 5 -10 5 -12 3603 2044 100 MP stroke
5 -15 5 -18 5 -20 5 -23 4 -26 5 -28 4 -31 5 -33 
6 -36 4 -38 3 -41 4 -42 4 -43 4 -44 4 -44 5 -42 
3 -36 3 -31 3 -24 3 -17 3 -9 5 -3 3 2 2 6 
2 11 3 10 2 9 3 6 2 6 2 3 3 -1 3 -1 
0 -8 3 -1 1 -5 2 -5 2 -2 1 -2 1 2 3 6 
0 25 3 17 1 20 0 25 1 26 1 30 0 29 1 30 
0 30 1 29 0 79 1 23 -1 21 0 18 1 16 -1 15 
-1 12 0 33 -2 6 1 4 0 14 -1 4 0 6 -1 6 
0 7 -1 8 0 18 -1 9 0 30 -1 9 0 9 -1 8 
0 15 -1 2 0 -8 -1 -8 0 -22 -1 -15 0 -16 -1 -19 
0 -43 1 -24 0 -147 1 -20 0 -19 1 -15 0 -27 1 -2 
0 1 1 5 0 9 1 10 0 12 1 14 0 14 1 15 
0 16 1 15 1 15 3467 2278 100 MP stroke
1 14 1 14 1 12 1 11 1 11 1 9 1 7 0 6 
1 4 1 2 0 1 1 -1 1 -3 1 -5 0 -6 1 -7 
1 -9 0 -10 1 -11 1 -12 1 -12 1 -13 0 -13 1 -13 
1 -13 0 -14 1 -13 0 -13 2 -13 1 -13 -1 -13 1 -12 
0 -36 1 -11 0 -10 1 -11 0 -9 1 -9 0 -9 1 -9 
0 -8 1 -8 2 -4 2 -4 0 -3 -1 -2 1 1 2 2 
-1 5 -2 7 1 9 0 11 1 13 0 50 1 19 0 220 
-1 17 1 15 0 32 1 14 0 137 1 7 0 13 1 5 
0 10 1 2 0 1 1 -1 -1 -1 1 -2 0 -29 1 -7 
0 -34 -1 -10 0 -10 1 -11 -1 -11 0 -23 -1 -11 1 -11 
-1 -11 0 -19 -1 -9 0 -9 -1 -8 0 -7 -1 -7 0 -6 
-1 -5 -1 -6 -1 -6 -1 -5 -1 -6 -1 -8 -1 -7 -1 -7 
-1 -7 -2 -9 -1 -11 3443 2263 100 MP stroke
-1 -11 -2 -14 -1 -14 -2 -17 -1 -17 -1 -17 -2 -20 -1 -20 
-2 -21 -2 -21 -1 -21 -2 -19 -1 -18 -2 -16 -2 -15 -1 -11 
-2 -10 -3 -7 -2 -7 -2 -5 -2 -4 -2 -4 -2 -5 -2 -6 
-2 -6 -2 -9 -2 -8 -2 -4 -1 -5 -2 -8 -2 -9 -2 -4 
-2 -3 -2 -2 -2 0 -1 3 -2 5 -2 8 -2 10 -1 15 
-2 16 -1 17 -2 16 -1 17 -1 17 -2 16 -1 15 -1 9 
-1 6 -1 7 -1 3 -1 0 -1 -2 -1 -4 -1 -7 -1 -7 
0 -9 -1 -10 -1 -11 0 -9 -1 -9 0 -19 -1 -9 0 -41 
1 -11 0 -32 1 -18 0 -19 1 -20 1 -19 0 -22 1 -19 
1 -20 0 -21 1 -19 1 -21 1 -19 1 -16 1 -13 1 -11 
1 -2 1 15 2 23 1 30 2 37 1 45 1 50 2 50 
2 46 1 50 2 46 2 43 2 40 3 36 2 33 2 30 
3 27 2 24 2 21 3490 2254 100 MP stroke
3 18 3 15 2 12 3 9 3 7 3 5 3 2 3 -1 
3 -3 3 -4 3 -6 4 -8 3 -11 3 -12 4 -13 4 -16 
3 -18 4 -19 4 -20 4 -23 4 -27 4 -29 4 -32 4 -36 
4 -40 4 -43 4 -47 4 -51 5 -55 4 -56 5 -56 4 -54 
5 -47 5 -34 5 -14 5 1 5 14 5 25 5 29 6 27 
5 31 5 27 6 23 6 18 5 15 6 14 6 13 6 10 
6 6 6 5 6 6 7 3 6 2 6 3 7 4 6 5 
6 4 7 5 7 6 6 7 7 9 6 12 7 13 7 16 
6 18 7 20 7 21 7 20 6 23 7 22 6 21 7 21 
7 19 7 19 6 18 7 17 6 16 7 15 6 16 6 14 
7 15 6 13 6 14 6 14 7 13 6 13 6 12 6 11 
6 11 6 9 6 8 5 8 6 5 6 5 5 3 6 2 
5 1 5 0 5 -2 2970 2153 100 MP stroke
6 -3 3 -3 5 -5 7 -6 4 -6 3 -7 5 -7 5 -8 
4 -8 4 -8 4 -9 4 -8 3 -9 3 -8 4 -9 3 -8 
3 -8 2 -8 3 -8 2 -8 3 -7 2 -8 2 -8 2 -7 
1 -8 2 -8 1 -8 1 -8 1 -9 1 -8 1 -9 1 -9 
0 -9 1 -8 0 -16 -1 -7 0 -16 -1 -4 0 -1 -1 -1 
-1 1 0 2 -1 4 -2 4 -1 6 -1 6 -2 7 -1 8 
-1 7 -2 8 -2 8 -1 7 -2 7 -2 7 -1 6 -2 5 
-2 5 -2 4 -2 3 -3 3 -2 3 -2 2 -2 1 -2 2 
-2 2 -1 2 -3 2 -3 1 -2 1 -3 1 -3 -1 -3 -1 
-2 -2 -4 -4 -3 -6 -2 -9 -4 -11 -3 -14 -2 -17 -3 -20 
-3 -23 -4 -28 -2 -31 -2 -33 -4 -37 -3 -40 -3 -44 -3 -45 
-3 -47 -3 -50 -3 -52 -4 -52 -2 -51 -3 -51 -3 -49 -3 -46 
-3 -41 -3 -38 -3 -31 3016 3205 100 MP stroke
-3 -18 -2 -10 -3 -3 -4 4 -3 9 -2 3 -3 1 -3 -1 
-2 -12 -3 -19 -3 -25 -3 -43 -3 -47 -3 -47 -2 -41 -3 -26 
-3 7 -3 63 -3 84 -3 89 -2 85 -3 75 -3 67 -3 60 
-2 46 -3 38 -2 32 -1 24 -3 17 -2 12 -3 6 -2 2 
-2 -1 -3 -4 -2 -6 -2 -7 -3 -4 -2 -4 -2 -3 -2 1 
-3 4 -1 7 -1 9 -3 7 -2 8 -2 8 -2 5 -2 5 
-3 1 -2 -3 -1 -7 -2 -11 -2 -15 -3 -18 -2 -24 -1 -28 
-2 -34 -2 -40 -2 -43 -2 -46 -2 -52 -1 -52 -2 -57 -2 -65 
-1 -58 -2 -39 -2 -41 -1 -23 -2 11 -1 32 -2 50 -1 64 
-2 63 -1 66 -1 63 -2 58 -1 51 -1 47 -1 40 -2 34 
-1 28 -1 24 -1 18 -1 12 -1 5 -1 0 0 -5 -1 -11 
-1 -17 0 -22 -1 -31 0 -38 -1 -41 -1 -40 0 -83 -1 -50 
0 -116 -1 -27 0 -3 3203 3221 100 MP stroke
0 119 1 41 0 99 1 53 0 99 1 45 0 46 1 42 
1 40 1 35 0 33 1 28 1 26 1 22 1 19 1 16 
1 12 2 9 1 7 1 3 2 2 1 1 2 -3 1 -4 
2 -4 1 -5 2 -5 2 -5 2 -3 2 -3 2 -1 2 0 
2 1 2 3 2 5 2 5 2 6 3 5 2 8 3 8 
3 8 2 8 3 8 2 8 3 8 3 8 3 8 2 8 
3 8 3 8 3 8 3 8 3 7 4 8 3 8 3 7 
3 8 3 7 4 8 3 9 3 9 4 9 3 10 3 10 
4 11 4 11 3 12 4 12 4 13 3 13 4 13 4 13 
4 13 4 12 4 11 4 9 4 9 4 7 4 4 5 2 
4 0 4 -4 4 -5 4 -9 4 -12 4 -15 4 -17 5 -21 
4 -23 4 -26 4 -28 5 -30 4 -32 4 -34 5 -33 4 -34 
4 -34 5 -31 4 -30 2933 2473 100 MP stroke
4 -26 5 -22 4 -17 4 -12 5 -6 4 -1 5 5 4 8 
5 13 4 19 4 20 5 21 4 22 5 23 4 22 5 21 
4 20 5 18 5 17 4 15 5 14 4 12 5 11 4 9 
5 8 5 7 5 7 5 6 5 5 4 5 5 5 5 5 
5 5 5 6 4 5 5 5 5 6 4 4 6 4 4 4 
5 3 4 2 5 1 5 0 4 -1 4 -2 5 -4 5 -5 
4 -5 4 -7 4 -8 5 -8 4 -8 4 -9 4 -8 4 -8 
4 -7 4 -6 4 -5 3 -3 4 -2 4 -1 3 0 4 2 
3 2 4 3 3 4 3 4 4 5 3 4 3 4 3 3 
3 2 3 2 3 0 3 -1 3 -2 3 -3 3 -5 2 -6 
2 -8 3 -8 3 -10 2 -10 2 -11 3 -12 2 -12 2 -11 
1 -12 2 -10 2 -10 2 -9 2 -8 1 -6 1 -4 1 -3 
2 -2 0 1 1 1 2566 2397 100 MP stroke
1 3 1 4 1 5 0 6 1 6 0 46 -1 4 0 3 
-1 3 0 1 -1 1 -1 1 -1 0 -1 -1 -2 -1 -1 -1 
-1 -2 -2 -3 -1 -2 -2 -3 -2 -3 -2 -4 -2 -4 -2 -4 
-1 -5 -3 -5 -2 -5 -2 -6 -3 -6 -2 -6 -3 -6 -3 -7 
-2 -6 -3 -7 -3 -6 -3 -5 -2 -5 -3 -4 -3 -4 -4 -3 
-3 -1 -2 -1 -3 0 -3 0 -3 2 -2 2 -3 3 -3 3 
-3 4 -3 3 -2 3 -3 3 -3 3 -3 2 -3 1 -3 1 
-3 -1 -3 -1 -3 -2 -3 -3 -3 -4 -3 -5 -3 -5 -3 -6 
-3 -6 -3 -7 -3 -8 -3 -8 -3 -9 -3 -8 -2 -10 -3 -9 
-3 -10 -2 -11 -3 -10 -3 -10 -3 -10 -3 -10 -2 -10 -3 -9 
-3 -8 -3 -7 -3 -6 -3 -6 -3 -5 -2 -4 -3 -3 -3 -2 
-3 -2 -3 -2 -3 -2 -2 -1 -3 0 -3 -1 -2 0 -3 -1 
-3 0 -2 1 -3 2 2794 2619 100 MP stroke
-2 3 -2 3 -3 3 -2 4 -2 5 -2 6 -2 6 -2 7 
-2 6 -1 6 -2 6 -2 6 -2 5 -1 4 -1 3 -2 2 
-1 0 -2 -1 -1 -4 -1 -5 -1 -8 -1 -11 -1 -12 -1 -16 
-1 -18 -2 -20 0 -23 -1 -25 -1 -26 -1 -27 -1 -28 -1 -27 
0 -24 -1 -23 -1 -18 0 -14 -1 -9 -2 -4 0 4 -1 7 
0 8 -1 9 0 11 -1 12 -1 11 0 12 -1 11 0 11 
-1 10 0 19 -1 9 0 7 -1 6 0 4 -1 -2 0 -13 
-1 -4 0 -5 1 -3 0 -1 0 30 1 15 0 81 1 22 
0 21 1 17 0 17 1 13 1 10 0 8 1 4 1 0 
1 -3 1 -7 1 -9 1 -14 1 -16 1 -21 2 -23 1 -27 
1 -28 2 -28 2 -25 1 -24 1 -18 2 -14 2 -6 2 2 
3 9 2 16 2 23 2 25 3 29 3 29 2 29 3 27 
3 25 4 22 3 20 2796 2533 100 MP stroke
3 17 4 13 4 10 3 9 4 5 4 2 5 -1 4 -3 
4 -5 5 -7 5 -9 4 -10 5 -11 5 -11 5 -13 5 -13 
5 -12 6 -13 5 -12 6 -12 5 -11 6 -12 6 -10 6 -11 
6 -9 6 -9 6 -8 6 -7 6 -6 6 -6 7 -4 6 -4 
6 -2 6 -3 6 -2 7 -3 5 -2 6 -3 7 -2 6 -4 
5 -4 6 -5 6 -8 5 -8 5 -10 5 -11 5 -14 4 -14 
5 -17 4 -19 5 -21 4 -22 4 -24 4 -25 3 -27 4 -29 
3 -29 4 -31 3 -32 3 -34 3 -34 3 -35 2 -36 2 -36 
3 -37 2 -38 1 -39 2 -39 2 -39 1 -38 1 -37 1 -38 
1 -38 1 -36 1 -37 1 -32 0 -34 1 -23 0 -8 1 -14 
0 6 1 10 1 20 0 91 1 35 0 69 1 35 0 64 
1 29 0 28 -1 26 -1 25 1 23 0 22 -2 21 0 20 
-1 18 -1 17 -1 17 2469 3203 100 MP stroke
-1 17 -1 15 -1 14 -1 14 0 14 -1 14 -2 13 -1 13 
-1 13 -2 13 -1 14 -2 13 -2 13 -1 14 -2 13 -2 12 
-2 12 -2 11 -2 11 -3 8 -2 9 -2 9 -3 7 -2 7 
-2 7 -3 6 -2 6 -2 6 -4 6 -1 6 -2 7 -3 6 
-2 6 -3 5 -3 6 -3 5 -3 4 -2 4 -3 3 -3 3 
-3 2 -3 1 -3 2 -3 0 -3 1 -3 1 -2 1 -2 1 
-3 1 -3 2 -2 4 -3 4 -3 6 -2 7 -2 9 -2 11 
-2 12 -3 13 -3 14 -2 15 -2 15 -2 16 -3 14 -1 14 
-2 12 -2 11 -3 9 -1 7 -2 5 -2 3 -2 0 -2 -1 
-1 -4 -2 -5 -2 -6 -2 -8 -1 -9 -1 -10 -2 -10 -1 -9 
-1 -10 -1 -8 -1 -8 -1 -5 -1 -5 -2 -3 -1 -1 -1 1 
-2 2 -1 3 -1 4 -1 5 0 6 -1 5 -1 5 -1 3 
-1 3 0 2 -1 0 2656 2674 100 MP stroke
-1 -2 -1 -3 0 -5 -1 -6 -1 -9 0 -10 -1 -11 -1 -13 
0 -13 -1 -14 0 -15 -1 -15 0 -15 -1 -14 0 -12 -1 -11 
0 -10 -1 -9 0 -7 -1 -6 0 -5 -1 0 0 3 -1 4 
0 9 -1 3 0 14 -1 4 0 32 1 8 0 10 1 10 
0 21 1 9 0 7 1 8 1 6 0 5 1 3 1 2 
1 0 1 -1 1 -3 1 -4 1 -6 2 -5 1 -5 2 -6 
1 -7 2 -6 2 -7 1 -6 2 -6 2 -5 2 -5 2 -4 
3 -4 2 -3 2 0 2 1 3 2 2 3 3 5 3 6 
3 5 3 8 3 8 3 7 3 8 4 7 3 6 4 6 
3 5 4 4 4 4 4 5 4 5 4 5 4 5 5 7 
4 8 4 9 4 10 5 12 4 13 4 13 5 15 5 15 
4 15 5 16 5 15 4 15 5 14 5 14 5 12 4 11 
5 10 5 8 5 7 2476 2460 100 MP stroke
4 4 5 3 5 2 4 0 5 -2 5 -3 4 -5 5 -5 
5 -7 4 -7 4 -9 4 -8 4 -9 4 -8 4 -9 4 -9 
4 -8 3 -8 4 -8 4 -7 3 -7 4 -7 3 -6 3 -6 
3 -6 3 -6 3 -6 2 -5 3 -6 1 -6 2 -6 3 -6 
1 -7 2 -6 1 -7 1 -7 1 -7 2 -7 1 -7 1 -7 
0 -33 -1 -4 -1 -3 0 -1 0 1 -1 -3 -1 1 -1 1 
0 2 -1 3 0 4 -1 4 0 4 -1 4 -1 3 -1 3 
0 1 -1 -2 0 -9 -1 -7 0 -9 -1 -11 0 -11 -1 -13 
0 -82 1 -5 1 -3 0 -4 1 1 1 1 1 2 1 1 
2 1 1 1 1 0 1 -1 1 -3 1 -3 2 -5 1 -6 
1 -7 2 -9 2 -10 1 -9 2 -12 2 -12 2 -12 2 -13 
2 -12 2 -12 3 -12 2 -12 2 -11 2 -10 3 -9 2 -8 
3 -6 2 -6 3 -4 2306 3057 100 MP stroke
3 -5 3 -4 2 -4 4 -3 2 -4 3 -2 3 -3 3 -2 
3 -1 3 -1 3 -1 3 0 3 1 4 3 3 2 3 5 
3 4 3 6 3 6 2 6 3 7 3 6 3 6 3 5 
3 5 3 3 3 3 2 2 3 0 3 0 2 -2 3 -3 
3 -4 2 -5 3 -6 3 -5 2 -7 3 -6 2 -7 2 -7 
3 -7 2 -7 2 -5 2 -6 2 -6 2 -5 1 -4 2 -5 
2 -5 1 -4 1 -5 2 -4 1 -5 1 -5 1 -5 1 -6 
0 -6 1 -6 1 -7 0 -8 1 -9 0 -9 1 -11 0 -64 
1 -13 -1 -13 0 -43 -1 -8 0 -2 -1 1 0 2 -1 4 
-1 6 -1 8 0 10 -1 12 -1 12 -1 12 -1 13 -1 13 
-1 12 -2 11 -1 10 -1 8 -1 7 -2 7 -1 5 -1 3 
-2 2 -1 1 -1 1 -2 -1 -1 0 -1 -1 -1 -1 -2 0 
-1 0 -1 1 -1 1 2197 3193 100 MP stroke
-2 2 -1 3 -1 4 -2 5 -1 6 -1 6 -1 7 -2 7 
-1 8 -1 8 -2 9 -1 9 -1 9 -1 9 -2 10 -1 9 
-1 9 -2 9 -1 9 -1 9 -1 8 -2 8 -1 7 -2 6 
-1 6 -2 5 -1 5 -2 4 -2 3 -1 3 -2 2 -1 1 
-1 1 -2 1 -1 0 -2 0 -1 0 -2 1 -1 0 -2 1 
-1 2 -2 2 -1 3 -1 4 -2 5 -1 6 -2 7 -1 7 
-1 8 -1 8 -2 8 -1 8 -1 8 -1 8 -1 7 -1 5 
-1 6 -1 5 -1 5 0 6 -1 5 -1 6 -1 7 -1 7 
-1 8 0 7 -1 8 -1 8 0 8 -1 8 -1 8 -1 6 
0 6 -1 5 0 4 -1 4 0 3 -1 3 0 6 -1 3 
0 34 1 1 0 2 1 1 1 0 -1 0 2 -2 1 -1 
1 -1 1 0 1 1 1 1 1 1 0 1 1 2 1 1 
1 2 1 1 0 1 2276 2701 100 MP stroke
1 1 1 1 1 0 1 0 1 0 -1 0 2 -3 0 -1 
1 -2 0 -2 1 -3 1 -2 0 -5 1 -3 0 -5 1 -2 
0 -4 1 -1 0 -3 1 -1 0 -4 1 -1 0 -2 1 -1 
0 -2 1 -2 0 -2 1 -3 1 -3 1 -3 0 -3 1 -2 
1 -3 0 -7 1 -2 1 -3 1 -3 0 -2 1 -1 0 -2 
1 -1 1 -1 1 -1 1 -1 0 -3 -1 -2 2 -3 2 -5 
-3 -3 -1 -5 1 -6 -1 -6 1 -7 0 -17 2 -10 1 -10 
1 -11 2 -12 1 -12 -1 -13 0 -55 1 -14 -1 -14 0 -14 
1 -13 0 -13 -1 -12 0 -43 -1 -5 0 -6 -1 -2 1 -2 
-1 0 -1 0 1 0 -2 -2 0 -3 -1 -3 0 -4 -1 -6 
0 -6 -1 -8 -1 -9 0 -36 -1 -15 0 -33 -1 -17 0 -37 
-2 -17 0 -18 1 -16 -1 -16 0 -13 -1 -9 0 -7 1 -4 
-1 -3 0 3 -1 6 2255 3382 100 MP stroke
-1 8 0 11 -1 12 -1 13 0 15 -1 15 0 15 -1 16 
0 16 -1 14 -1 15 0 13 -1 12 0 12 -1 12 0 11 
-1 10 -1 9 2 10 -1 9 -1 8 -1 9 -1 8 0 9 
-1 8 -1 8 0 8 -1 8 -1 7 0 7 -1 5 0 6 
-1 4 0 4 -1 3 -1 1 0 1 -1 -1 0 -9 -1 -5 
1 -5 0 -5 -1 -6 0 -41 1 -7 1 -7 0 -26 1 -7 
0 -11 1 -5 1 -4 0 -4 1 -4 1 -3 0 -3 1 -3 
1 -3 1 -2 1 -1 1 1 1 1 1 2 1 4 1 4 
1 7 1 8 0 20 3 11 1 13 0 15 1 15 1 15 
3 14 3 13 1 13 1 11 2 10 1 7 1 7 1 5 
2 4 1 2 2 1 2 -1 3 -1 2 -1 2 -2 2 -3 
2 -2 1 -2 3 -1 1 -2 2 -1 2 -1 2 1 2 0 
2 1 2 1 2 2 2204 3001 100 MP stroke
1 2 2 3 2 2 2 2 2 3 2 4 1 3 2 3 
2 3 2 3 2 3 2 3 2 3 1 3 2 3 2 4 
2 3 2 3 2 3 2 4 2 4 2 3 2 3 2 3 
2 2 1 2 2 2 2 1 2 0 2 0 2 -1 2 -2 
1 -3 2 -3 2 -4 2 -4 1 -6 2 -6 2 -6 1 -7 
2 -8 2 -7 1 -8 2 -8 2 -7 1 -8 2 -7 1 -7 
2 -6 2 -6 1 -6 2 -5 1 -5 2 -5 1 -5 1 -5 
1 -5 2 -5 1 -6 2 -5 1 -6 1 -7 2 -6 1 -7 
2 -6 1 -7 2 -7 1 -7 2 -6 1 -6 2 -5 1 -4 
2 -3 1 -3 2 -1 1 0 1 1 2 3 1 3 1 5 
2 6 1 7 1 8 1 9 1 9 1 10 1 11 0 11 
1 11 1 10 1 11 0 11 1 10 1 10 1 10 1 9 
1 8 0 8 1 8 2055 2979 100 MP stroke
1 6 1 7 1 5 1 5 1 5 1 4 2 4 1 3 
1 3 1 3 2 2 1 2 1 1 1 2 2 0 1 1 
2 0 1 0 2 -1 1 -1 2 -2 1 -2 2 -3 2 -3 
1 -4 2 -4 2 -5 2 -6 2 -6 2 -7 1 -8 2 -7 
2 -9 2 -8 2 -9 1 -9 2 -9 2 -9 2 -9 1 -8 
2 -8 2 -8 2 -7 1 -5 2 -5 1 -3 2 -2 1 0 
2 1 1 3 1 4 1 6 1 7 2 9 1 9 1 10 
2 11 1 10 1 10 1 10 1 9 1 9 0 7 1 6 
1 6 2 4 1 3 1 2 1 1 2 1 2 0 1 -1 
2 0 1 0 1 1 1 1 2 2 1 4 2 5 1 6 
2 7 2 9 1 10 1 11 2 11 1 12 2 13 2 13 
1 13 3 12 3 12 1 11 2 11 2 10 2 9 2 8 
2 6 2 6 3 5 1906 2748 100 MP stroke
2 3 1 3 3 1 2 1 3 -1 2 -1 2 -2 3 -2 
3 -4 2 -3 3 -5 2 -4 2 -5 4 -5 2 -6 2 -5 
3 -6 2 -5 3 -6 3 -6 3 -6 2 -7 4 -6 2 -6 
2 -7 4 -6 2 -7 3 -7 3 -7 3 -7 2 -7 0 -7 
1 -7 4 -8 1 -7 3 -7 2 -7 3 -8 2 -7 2 -7 
2 -6 2 -7 2 -7 2 -7 1 -6 2 -7 2 -6 1 -7 
2 -6 1 -7 2 -6 1 -7 1 -6 1 -6 1 -7 1 -6 
1 -6 1 -7 1 -6 1 -7 1 -7 0 -6 1 -7 1 -7 
0 -7 1 -7 0 -16 1 -7 0 -35 1 -9 -1 -10 0 -67 
-1 -13 0 -26 -1 -15 -1 -14 0 -15 -1 -15 0 -33 -1 -16 
-1 -18 -1 -17 -1 -18 0 -18 -1 -18 -2 -19 -1 -19 -1 -19 
-1 -19 -1 -20 -1 -20 -1 -19 -1 -21 -1 -20 -1 -20 -2 -20 
-1 -20 -1 -19 -2 -19 1802 3769 100 MP stroke
-2 -18 -1 -17 -1 -16 -2 -13 -1 -12 -2 -10 -1 -5 -2 -2 
-1 0 -1 3 -2 5 -1 8 -2 10 -2 11 -1 12 -1 13 
-2 14 -2 14 -1 14 -2 15 -2 14 -1 13 -2 14 -2 14 
-2 13 -2 13 -2 13 -2 12 -2 13 -2 12 -2 12 -2 12 
-1 12 -2 11 -2 11 -2 11 -2 10 -1 10 -3 10 -4 8 
-2 9 -2 7 -3 6 -1 5 -3 5 -2 3 -2 2 -2 1 
-2 0 -2 -2 -1 -2 -2 -3 -1 -4 -2 -4 -2 -4 0 -5 
-2 -4 -1 -3 2 -3 -1 -1 -1 0 -1 2 0 9 -1 7 
-1 9 -1 10 0 55 -1 16 0 47 1 16 0 76 1 15 
0 15 1 15 0 15 1 15 0 16 1 16 1 16 1 17 
0 53 1 19 0 18 1 19 1 20 0 38 1 19 1 19 
0 37 1 17 0 50 -1 15 0 14 1 14 -1 12 0 12 
1 10 -1 10 -1 9 1898 2710 100 MP stroke
1 8 0 14 -1 6 1 5 0 20 -1 -1 0 -4 -1 -1 
0 -1 -1 -1 0 -2 -1 -2 -1 -2 0 -4 -1 -3 -1 -3 
0 -4 -1 -4 -1 -4 -1 -6 0 -5 -1 -7 -1 -6 -1 -7 
-1 -8 -1 -8 -1 -9 -1 -9 -1 -10 -2 -10 -1 -10 0 -12 
-1 -11 -2 -13 -2 -12 -1 -14 -1 -14 -2 -15 -1 -15 -1 -16 
-2 -17 -3 -17 0 -18 -1 -19 -2 -19 -2 -20 -2 -20 -1 -21 
-1 -22 -2 -22 -1 -23 -2 -24 -2 -24 -2 -26 -1 -24 -2 -25 
-2 -26 -2 -26 -1 -26 -2 -25 -2 -25 -2 -24 -1 -24 -2 -22 
-2 -21 -2 -19 -2 -18 -1 -17 -2 -14 -2 -12 -2 -12 -2 -9 
-1 -8 -2 -6 -2 -5 -2 -4 -2 -4 -1 -3 -2 -2 -2 -2 
-2 -3 -2 -2 -1 -3 -2 -4 -2 -5 -2 -6 -2 -8 -2 -9 
-1 -8 -2 -9 -2 -11 -2 -11 -2 -13 -2 -13 -2 -14 -2 -13 
-2 -12 -1 -12 -2 -13 2033 3774 100 MP stroke
-2 -11 -2 -11 -2 -9 -2 -8 -1 -8 -2 -8 -2 -10 -2 -6 
-2 -7 -2 -8 -2 -9 -2 -10 -3 -10 -2 -10 -2 -12 -3 -13 
-2 -13 -2 -13 -3 -14 -2 -12 -3 -11 -3 -10 -2 -7 -3 -7 
-3 -2 -3 2 -3 5 -2 10 -3 12 -3 19 -3 22 -3 24 
-3 26 -3 27 -3 28 -3 30 -3 28 -3 26 -4 25 -3 22 
-3 19 -3 20 -3 18 -3 15 -3 13 -3 10 -3 9 -3 7 
-3 6 -2 4 -3 2 -3 2 -3 0 -3 0 -3 -2 -2 -2 
-3 -3 -3 -3 -3 -4 -3 -6 -3 -5 -3 -5 -3 -6 -3 -7 
-3 -6 -3 -7 -3 -7 -3 -5 -3 -5 -4 -4 -3 -1 -3 0 
-3 2 -4 9 -3 11 -4 14 -3 19 -4 21 -3 23 -4 26 
-3 26 -4 25 -3 27 -4 28 -3 25 -3 25 -4 25 -4 25 
-3 25 -4 22 -3 23 -4 22 -4 22 -3 22 -4 21 -3 21 
-4 20 -3 19 -4 19 2324 3093 100 MP stroke
-4 17 -3 16 -4 16 -3 14 -3 12 -4 12 -3 9 -3 8 
-3 6 -3 5 -3 3 -3 1 -3 0 -2 -2 -3 -3 -2 -4 
-2 -5 -3 -5 -2 -5 -2 -5 -2 -5 -1 -3 -2 -2 -2 -1 
-1 2 -2 3 -1 4 -1 6 -2 6 -1 8 -1 8 -1 8 
-1 8 -1 7 -1 7 -1 7 -1 5 -1 5 -1 4 -2 3 
0 2 -1 1 -1 0 -1 -1 0 -2 -2 -3 0 -4 -1 -4 
-1 -6 0 -6 -1 -7 -1 -7 0 -8 -1 -9 -1 -9 0 -19 
-1 -10 0 -10 -1 -10 0 -19 -1 -10 0 -27 -1 -9 0 -67 
1 -5 0 -8 1 -4 0 -6 1 -2 1 -2 0 -2 1 -1 
1 -1 1 -1 1 0 1 0 1 0 2 0 1 0 1 1 
2 0 1 1 1 2 2 1 2 2 2 2 1 3 3 4 
2 5 2 4 2 6 2 6 3 8 2 8 2 8 3 8 
2 9 3 9 2 9 2370 3103 100 MP stroke
3 8 3 8 2 7 3 8 2 6 4 6 2 4 3 3 
3 3 3 1 4 1 2 -1 4 -2 3 -3 3 -4 4 -4 
1 -4 7 -5 -2 -4 -3 -3 4 -2 -5 -1 7 2 10 4 
-1 5 7 8 2 10 1 12 5 13 2 16 4 16 2 18 
5 18 4 19 -1 18 13 19 11 19 1 18 4 17 4 17 
3 15 4 15 2 14 4 13 3 11 4 11 4 10 3 9 
3 7 3 8 4 6 5 5 6 5 3 4 3 3 4 2 
3 2 3 1 3 1 4 -1 2 0 3 -2 3 -2 3 -2 
2 -2 4 -3 2 -2 3 -3 3 -3 3 -2 3 -2 3 -1 
3 -1 3 0 3 1 4 1 2 2 3 3 2 4 3 4 
3 5 3 5 3 6 3 6 3 5 3 6 3 4 3 4 
3 4 3 2 4 0 4 0 3 -3 3 -4 4 -5 3 -8 
3 -10 3 -11 3 -14 2052 2709 100 MP stroke
3 -16 3 -18 3 -21 3 -22 2 -25 3 -28 3 -29 2 -32 
3 -35 3 -37 2 -40 3 -42 2 -46 2 -49 2 -52 3 -56 
2 -60 3 -65 2 -69 2 -76 2 -80 1 -85 2 -87 2 -84 
2 -73 1 -48 1 -14 2 19 2 43 2 55 1 55 1 51 
1 44 1 37 1 30 1 24 1 17 1 10 1 6 2 -1 
0 -7 1 -12 1 -16 1 -20 1 -22 2 -24 1 -25 1 -26 
1 -22 1 -16 2 -8 1 0 2 8 2 18 1 24 2 28 
2 30 2 28 3 28 2 28 2 28 2 26 2 22 3 20 
3 18 3 17 2 15 3 15 3 14 3 13 2 13 3 13 
3 12 3 13 3 12 2 12 4 13 3 12 3 12 3 12 
3 12 3 11 4 12 3 10 3 10 3 9 4 9 3 8 
3 7 4 6 3 5 2 4 2 3 4 2 2 2 2 0 
3 1 2 -1 2 0 1834 3192 100 MP stroke
3 -1 2 -1 2 -1 2 -1 2 -1 2 -1 1 0 2 0 
1 1 1 0 1 1 1 1 1 1 1 1 0 2 0 -13 
-1 -4 0 -9 -1 -5 0 -5 -1 -5 -1 -6 0 -5 -2 -5 
-1 -6 -1 -5 -1 -5 -1 -4 -1 -5 -1 -4 -1 -3 -1 -3 
-2 -3 -2 -2 -1 -2 -1 -1 -1 -1 -2 0 -1 -1 -2 0 
-4 0 -2 -1 -1 0 -2 -1 -1 0 -2 -1 -1 -1 -2 -1 
-1 -1 -2 -2 -1 -1 -2 -2 -1 -1 -1 -2 -2 -2 -1 -1 
-1 -2 -1 -1 -1 -2 -2 -1 -1 -1 0 -1 -1 -1 0 -1 
-1 -1 -1 -1 -1 -1 -1 -1 -1 0 1 0 -2 0 -1 1 
0 30 1 5 0 10 1 5 0 34 -1 3 0 6 -1 4 
1 5 1 6 -1 6 -1 7 -1 8 -1 9 0 9 -2 10 
0 11 -1 10 -1 12 -1 11 -2 11 -1 10 -1 11 -1 9 
-1 9 -2 8 -2 7 1895 3057 100 MP stroke
-1 6 -1 4 -2 2 -1 2 -2 -1 -1 -2 -2 -3 -2 -5 
-2 -5 -1 -7 -2 -8 -3 -7 -1 -7 -2 -7 0 -5 7 -4 
-2 -2 -1 0 0 2 -3 3 0 4 -2 4 0 5 -1 4 
-2 4 0 4 -2 2 -1 1 -2 -1 1 -3 -3 -2 0 -4 
-1 -4 -10 -4 -2 -5 0 -4 -2 -4 0 -4 -1 -4 0 -3 
-1 -4 -1 -4 -1 -3 0 -3 -1 -4 -1 -3 0 -4 -1 -3 
-1 -4 0 -3 -1 -3 -1 -4 1 -3 1 -4 -2 -3 0 -4 
-1 -4 0 -4 -1 -4 1 -5 0 -5 -1 -5 -1 -5 -1 -5 
0 -19 -1 -5 0 -3 -1 -3 0 -4 -1 -1 -1 0 -1 0 
1 0 -2 2 0 1 -2 1 -1 1 -1 -1 -1 -1 0 -2 
-1 -3 -1 -3 -2 -4 -1 -5 -1 -6 -1 -6 -1 -6 -1 -6 
-2 -7 -2 -6 -1 -6 -2 -4 -2 -4 -2 -3 -1 -1 -2 0 
-2 1 -3 4 -2 4 1999 3303 100 MP stroke
-2 7 -3 8 -2 10 -2 11 -3 13 -3 13 -3 15 -3 15 
-2 16 -4 16 -3 16 -3 17 -4 15 -3 15 -3 14 -4 14 
-3 12 -5 11 -3 10 -4 9 -4 7 -4 6 -4 6 -4 4 
-5 4 -4 3 -4 2 -5 2 -4 2 -5 1 -4 2 -3 2 
-5 3 -4 3 -5 4 -4 4 -4 4 -5 5 -4 6 -4 6 
-4 6 -4 6 -4 6 -4 5 -4 6 -4 6 -4 6 -3 6 
-4 5 -5 5 -3 5 -4 4 -4 5 -3 4 -3 4 -4 4 
-3 4 -4 4 -3 3 -3 4 -3 4 -3 3 -3 4 -3 4 
-2 4 -3 4 -3 4 -3 5 -2 4 -2 5 -3 4 -2 4 
-2 4 -2 5 -3 3 -2 4 -2 3 -1 3 -2 3 -2 2 
-1 1 -2 2 -1 0 -2 1 -2 0 -1 0 -1 0 -2 -1 
0 -2 -2 -1 -1 -1 -2 -1 -1 -2 0 -2 -2 -2 -1 -2 
-1 -4 -1 -3 -1 -3 2292 2816 100 MP stroke
-1 -4 -2 -3 -1 -4 -1 -4 -1 -5 0 -4 -1 -4 -1 -4 
-1 -3 -2 -4 -1 -4 0 -5 -1 -4 -1 -5 -1 -5 -1 -5 
-1 -6 0 -6 -1 -8 -1 -7 -1 -7 -1 -8 -1 -8 -1 -9 
0 -8 -1 -8 -2 -8 0 -8 -1 -8 -1 -8 -1 -8 -1 -8 
-1 -8 -1 -9 -1 -10 -1 -10 -1 -11 0 -11 -2 -13 -1 -15 
0 -15 -1 -17 -1 -19 -2 -19 -1 -21 -1 -23 -1 -24 -2 -26 
-2 -27 -1 -28 -2 -30 -1 -29 -2 -29 -1 -29 -2 -27 -1 -26 
-2 -22 -2 -18 -2 -12 -2 -6 -1 0 -2 7 -2 11 -2 15 
-2 19 -2 20 -1 21 -2 23 -2 22 -2 22 -2 19 -2 20 
-2 18 -2 16 -2 17 -2 15 -1 14 -2 14 -2 13 -3 13 
-1 12 -2 12 -4 11 -3 12 -1 11 -2 12 -2 10 -2 11 
-1 11 -2 10 -2 11 -2 11 -2 10 -1 11 -2 11 -2 10 
-2 11 -1 11 -2 10 2433 3013 100 MP stroke
-1 10 -2 10 -1 10 -2 9 -1 9 -2 8 -1 7 -1 7 
-1 6 -2 5 -1 5 -1 3 -1 3 -1 2 -1 1 -1 0 
-1 0 -1 -1 -1 0 -1 -2 -1 -1 -1 -2 -1 -1 -1 -1 
-1 0 -1 0 -1 0 -1 1 -1 3 -1 3 -1 3 -1 3 
-1 3 0 4 -1 3 0 4 -1 3 -1 3 0 3 -1 3 
0 2 -1 2 0 4 -1 1 0 5 -1 1 0 4 -1 2 
0 5 -1 3 0 3 -1 3 0 6 -1 4 0 7 -1 3 
-1 3 1 3 2 3 0 2 -1 3 0 2 -1 2 -1 3 
-1 1 0 2 -1 1 0 1 -1 1 -1 0 -1 -1 0 -3 
-1 -2 -1 -3 0 -3 -1 -3 0 -4 -1 -4 0 -5 -1 -4 
-1 -5 -1 -4 0 -8 -1 -3 0 -3 -1 -2 0 -2 -1 -1 
-1 0 -1 2 -1 2 -1 3 -1 4 -1 5 0 5 -1 6 
-1 7 -1 7 -1 8 2508 2816 100 MP stroke
-1 8 -1 9 -2 8 -1 9 -1 10 -1 9 -2 10 -1 9 
-2 10 -1 10 -2 10 -2 10 -1 10 -2 10 -1 10 -2 9 
-2 10 -1 10 -2 9 -2 9 -2 9 -2 8 -1 7 -2 7 
-2 6 -2 6 -2 5 -2 4 -1 3 -2 2 -3 1 -1 1 
-1 0 -2 -1 -2 -1 -1 -2 -2 -2 -1 -2 -2 -2 -1 -3 
-1 -2 -1 -2 0 -2 -1 -1 -1 -2 -1 -1 -1 1 1 1 
1 -1 1 -2 1 -2 1 -3 1 -3 1 -5 1 -5 1 -6 
1 -6 2 -8 2 -7 1 -8 2 -9 1 -9 2 -9 3 -8 
2 -9 2 -9 2 -9 2 -8 2 -9 3 -8 2 -9 3 -9 
2 -8 3 -9 2 -10 3 -10 3 -10 2 -11 3 -11 2 -13 
3 -12 3 -14 3 -14 2 -15 2 -15 3 -15 2 -16 3 -16 
3 -16 2 -17 2 -16 2 -15 2 -15 3 -15 2 -14 2 -13 
2 -13 2 -12 2 -12 2472 3107 100 MP stroke
2 -11 1 -11 1 -10 2 -10 2 -11 2 -10 1 -10 1 -10 
2 -10 1 -11 2 -11 1 -11 1 -11 1 -11 1 -12 1 -12 
1 -12 1 -12 1 -13 1 -12 0 -25 1 -12 0 -11 1 -10 
1 -9 -1 -8 1 -6 2 -3 0 -1 0 95 -1 10 0 10 
-1 8 0 9 -1 7 -1 7 0 13 -1 6 -1 7 0 7 
-1 7 -1 9 -1 10 0 10 -1 11 -1 13 -2 13 -1 14 
0 15 -2 16 -1 15 -1 16 -1 16 -1 15 -1 15 -1 14 
-1 13 -1 12 -1 11 -1 11 -1 9 -1 7 -2 7 -1 6 
-1 5 -1 4 -1 3 -1 2 -1 2 -1 2 -1 2 -1 1 
-1 1 -1 2 -1 2 -1 2 0 2 -1 3 -1 4 -1 3 
-1 5 -1 5 -1 5 -1 6 -1 6 -1 6 -1 7 -1 7 
-1 7 0 7 -1 7 -1 7 -1 7 -1 8 -1 7 -1 7 
-1 8 0 7 -1 8 2504 2782 100 MP stroke
-1 7 -1 8 0 7 -1 8 -1 7 -1 7 -1 8 -1 6 
0 13 -1 6 -1 5 0 5 -1 5 -2 4 -1 3 -1 3 
0 3 -2 3 -1 2 -1 3 -2 2 0 2 -1 3 -2 3 
-1 3 -2 3 -1 4 -1 4 -1 4 -1 5 -2 5 -1 5 
-1 5 -1 5 -2 4 -1 5 -1 4 -1 3 -2 4 -1 2 
-1 2 -2 2 -1 1 -1 1 -1 1 -2 1 -1 0 -1 1 
-2 1 -1 1 -2 2 -1 3 -1 3 -2 3 -1 4 -2 4 
-1 4 -2 5 -1 4 -2 5 -1 4 -1 4 -1 3 -2 3 
-1 3 -2 2 -2 1 -1 1 -1 0 -2 0 -1 -1 -2 -1 
-1 -1 -2 -2 -2 -1 0 -2 -2 -1 -1 -1 -2 0 -1 -1 
-1 0 -2 0 -1 1 -2 2 0 2 -1 2 -3 3 -2 4 
0 4 -1 5 -1 5 -2 6 -1 6 -1 7 -1 7 -1 6 
-2 7 0 6 -2 7 2627 2456 100 MP stroke
0 5 -2 6 -2 4 -2 4 -1 3 0 2 -3 2 -3 0 
-2 0 -2 -1 -2 -2 -2 -3 -2 -3 -2 -3 -2 -4 -3 -3 
-2 -4 -2 -4 -3 -3 -4 -3 -2 -2 -3 -1 -3 0 -3 0 
-3 2 -3 2 -3 3 -3 4 -3 4 -3 5 -3 5 -3 5 
-4 4 -2 4 -4 3 -4 2 -2 1 -3 -1 -4 -1 -3 -3 
-3 -4 -3 -6 -3 -6 -3 -6 -4 -7 -3 -8 -3 -8 -3 -7 
-3 -7 -3 -5 -3 -5 -3 -3 -3 -3 -3 -1 -3 0 -3 0 
-3 1 -3 2 -2 1 -4 1 -2 1 -3 0 -2 -1 -4 -2 
-5 -2 0 -4 -1 -4 -4 -6 -1 -6 -3 -7 -2 -6 -2 -7 
-3 -6 -2 -5 -2 -4 -2 -2 -2 -1 -2 1 -2 2 -1 5 
-2 6 -2 7 -1 8 -2 9 -2 11 -2 10 0 11 -1 11 
-2 11 -2 11 -1 10 -1 10 -2 10 -1 9 -2 8 -1 8 
-1 7 -1 6 -2 6 2863 2383 100 MP stroke
-1 5 -2 4 -1 4 -2 3 -1 2 -2 1 -2 1 -2 0 
-1 -1 -2 -1 -2 -3 -2 -2 -2 -4 -3 -4 -2 -4 -2 -4 
-2 -5 -3 -5 -2 -4 -2 -5 -4 -5 -2 -5 -3 -4 -3 -5 
-2 -5 -3 -4 -2 -5 -3 -4 -3 -5 -2 -5 -2 -4 -3 -6 
-3 -5 -3 -6 -2 -7 -3 -6 -3 -8 -2 -8 -3 -8 -3 -9 
-3 -10 -3 -10 -3 -10 -2 -11 -3 -11 -3 -12 -3 -12 -3 -12 
-2 -12 -3 -12 -2 -13 -3 -12 -3 -13 -2 -12 -2 -13 -2 -13 
-3 -13 -2 -13 -2 -14 -2 -14 -2 -13 -2 -14 -2 -13 -1 -12 
-1 -11 -3 -11 -1 -9 -1 -7 -2 -6 -1 -5 -2 -5 -1 -1 
-2 0 -1 2 -2 2 -1 2 -1 2 -2 2 -1 1 -1 0 
-1 1 -1 -1 -2 -1 -1 -3 -1 -4 -1 -6 -1 -6 -1 -5 
-1 -4 -2 -5 -1 -3 -1 -2 -1 0 -1 3 -1 5 -1 7 
-1 10 -2 13 -1 14 3058 2844 100 MP stroke
-1 14 -1 14 -1 17 -1 18 -2 18 -1 18 -1 19 -1 20 
-1 20 -2 21 -1 20 -1 21 -2 22 -1 21 -2 21 -2 20 
-2 19 -1 19 -3 17 -1 16 -2 15 -2 14 -1 13 -2 11 
-2 10 -1 9 -2 8 -2 6 -2 5 -2 4 -3 2 -2 1 
-2 0 -2 -3 -3 -4 -2 -6 -3 -8 -2 -11 -3 -12 -2 -15 
-1 -17 -4 -19 -2 -21 -3 -23 -3 -24 -3 -26 -3 -25 -2 -26 
-3 -24 -3 -23 -3 -21 -4 -17 -3 -15 -3 -12 -4 -9 -3 -7 
-3 -5 -4 -4 -3 -2 -3 -2 -4 -3 -3 2 -4 5 -4 4 
-3 7 -4 12 -4 14 -3 17 -5 19 -3 19 -4 21 -4 21 
-4 20 -4 18 -4 17 -4 16 -4 12 -4 10 -5 6 -4 4 
-4 2 -5 0 -4 -2 -4 -5 -5 -6 -4 -6 -5 -7 -5 -7 
-4 -6 -5 -7 -5 -7 -5 -5 -4 -5 -5 -5 -5 -4 -5 -3 
-4 -1 -6 0 -4 2 3354 2583 100 MP stroke
-4 6 -5 9 -5 12 -6 15 -5 17 -5 21 -5 22 -5 21 
-6 21 -5 20 -5 20 -5 18 -5 16 -5 13 -5 11 -5 8 
-5 6 -5 5 -5 2 -5 0 -4 -2 -5 -4 -5 -5 -4 -7 
-4 -8 -4 -8 -4 -9 -4 -8 -4 -7 -4 -7 -3 -5 -3 -3 
-3 -1 -3 0 -3 2 -3 3 -2 6 -3 6 -2 7 -2 7 
-2 8 -2 8 -2 7 -2 7 -2 6 -1 6 -1 6 -1 4 
-1 5 -1 4 -1 4 -1 4 0 9 -1 4 0 28 1 6 
0 14 1 7 0 6 1 6 0 7 1 6 1 6 0 6 
1 5 1 5 0 6 1 5 1 5 0 4 1 6 1 5 
0 5 1 5 1 5 1 4 0 5 1 4 0 4 1 4 
0 4 1 3 0 4 1 3 0 10 1 3 0 10 -1 2 
0 1 -1 1 -1 -1 -1 -1 0 -2 -1 -3 -2 -4 -1 -3 
-1 -5 -1 -5 -2 -5 3535 2100 100 MP stroke
-2 -5 -1 -5 -2 -5 -2 -5 -2 -4 -3 -5 -2 -4 -2 -3 
-3 -3 -3 -4 -2 -4 -3 -3 -2 -4 -4 -3 -2 -4 -4 -4 
-7 -3 0 -3 -2 -2 -5 -1 -2 -1 -4 0 -3 1 -3 3 
-4 2 -3 4 -4 5 -4 6 -3 6 -4 7 -3 7 -4 7 
-3 7 -4 7 -4 8 -3 7 -4 6 -3 7 -4 7 -3 6 
-4 6 -4 5 -1 4 -8 4 -3 3 -1 1 -8 0 -1 -3 
-5 -4 -2 -6 -4 -7 -3 -9 -3 -11 -3 -11 -2 -13 -4 -13 
-2 -13 -3 -13 -3 -12 -2 -9 -3 -9 -2 -7 -3 -4 -2 -2 
-2 -2 -3 0 -2 2 -2 3 -2 4 -1 5 -2 7 -2 8 
-2 9 -1 12 -2 15 -1 17 -1 17 -2 19 -1 20 -1 19 
-1 19 -1 17 -1 15 -1 13 -1 11 -1 8 -1 6 0 3 
-1 0 -1 -2 0 -5 -1 -7 -1 -10 0 -26 -1 -16 0 -37 
-1 -20 0 -134 1 -20 3772 2225 100 MP stroke
0 -38 -1 -16 1 -15 0 -13 1 -11 1 -6 0 -3 1 -1 
1 1 1 4 1 6 1 8 1 11 1 12 1 15 2 15 
1 15 2 16 1 17 2 16 2 16 2 15 2 14 3 14 
3 12 1 11 3 11 3 10 3 9 2 9 3 7 3 7 
3 5 3 6 3 4 4 3 3 2 3 2 3 0 3 -1 
4 -1 3 -2 3 -3 4 -3 3 -4 3 -4 4 -5 3 -4 
4 -4 3 -3 3 -3 3 -2 3 -1 5 -1 3 0 3 2 
3 2 3 3 4 3 3 5 4 4 3 5 3 5 3 5 
3 5 2 4 3 4 4 3 3 2 2 1 2 1 2 -1 
5 -1 2 -2 0 -3 1 -3 2 -4 5 -5 3 -5 -2 -5 
2 -5 4 -6 0 -5 -1 -6 -1 -6 4 -6 2 -7 -3 -6 
0 -8 1 -8 0 -7 1 -10 0 -10 -1 -10 0 -22 1 -11 
1 -11 0 -30 1 -9 3571 2234 100 MP stroke
0 -8 1 -1 0 1 1 4 0 6 1 8 0 10 1 11 
0 13 1 14 0 12 1 13 0 11 1 11 1 9 -1 7 
1 5 1 3 0 2 1 -1 0 -15 1 -8 1 -9 1 -10 
2 -10 0 -10 1 -11 0 -9 1 -10 2 -10 0 -10 1 -9 
2 -11 1 -11 1 -13 1 -13 1 -14 1 -16 1 -17 2 -18 
0 -18 3 -19 4 -18 0 -16 2 -14 1 -10 3 -6 2 -3 
2 0 3 5 2 8 2 11 2 12 2 13 2 13 2 13 
3 13 2 12 3 10 2 9 3 8 1 5 2 4 3 0 
2 0 2 -2 2 -4 2 -7 3 -9 1 -10 3 -13 1 -13 
0 -14 5 -16 2 -17 2 -18 3 -18 1 -18 3 -18 1 -18 
2 -20 2 -19 1 -19 2 -18 1 -18 2 -19 2 -20 1 -15 
3 -14 1 -12 2 -9 2 -8 2 -2 2 3 1 7 2 11 
2 16 2 20 1 23 3424 2614 100 MP stroke
2 25 1 26 2 28 1 27 2 28 2 26 1 25 1 22 
2 21 1 19 1 16 1 14 1 11 2 9 1 7 1 5 
0 2 1 0 1 -2 1 -3 0 -5 1 -5 1 -6 1 -6 
0 -6 1 -6 0 -5 1 -3 1 -3 0 -3 1 -2 0 1 
1 2 0 2 1 3 0 3 1 4 0 6 1 7 0 7 
1 8 0 9 1 10 0 11 1 11 0 12 1 12 0 12 
1 13 0 24 1 10 0 19 1 9 0 7 1 5 0 7 
1 2 1 0 1 -2 0 -25 1 -11 0 -14 1 -16 0 -18 
1 -21 0 -23 1 -25 1 -26 0 -28 1 -25 1 -25 0 -23 
1 -18 1 -15 1 -7 1 -2 1 1 1 6 1 8 2 10 
1 8 1 9 2 6 1 5 2 2 2 1 2 -4 3 -5 
2 -5 2 -5 3 -7 2 -7 3 -8 2 -6 0 -5 3 -4 
4 -3 2 -3 2 -5 3322 2477 100 MP stroke
2 -5 4 -4 3 -7 2 -9 4 -11 2 -15 4 -17 3 -21 
3 -24 3 -26 3 -29 3 -32 3 -35 3 -38 3 -40 3 -42 
3 -49 3 -54 3 -51 3 -60 4 -76 2 -96 3 -129 3 -150 
3 -142 3 -103 3 50 2 192 3 195 3 163 3 141 2 120 
3 102 3 88 2 75 2 67 3 58 3 51 2 44 3 39 
3 34 2 30 3 25 2 22 2 19 4 15 2 14 2 11 
3 9 2 7 3 7 2 5 2 5 3 4 3 4 2 4 
2 4 3 5 1 4 3 5 4 5 3 4 1 6 2 5 
3 5 3 5 2 4 3 4 2 4 1 3 3 2 2 2 
2 1 2 1 2 0 3 -1 2 -1 2 -1 3 -2 3 -2 
2 -2 2 -2 2 -1 2 -2 2 -1 1 0 2 0 1 0 
2 1 1 1 1 2 1 1 1 2 1 1 1 1 1 1 
1 0 0 -24 -1 -8 3087 2110 100 MP stroke
0 -8 -1 -10 -1 -10 -1 -11 -1 -11 -1 -12 -1 -10 -1 -11 
-2 -9 -1 -8 -2 -7 -1 -4 -2 -2 -2 0 -2 3 -2 5 
-2 7 -2 8 -2 11 -2 12 -2 12 -3 14 -2 13 -2 14 
-2 14 -2 13 -3 13 -2 12 -2 11 -2 11 -2 9 -3 7 
-2 7 -2 6 -2 4 -2 3 -3 2 -1 0 -2 0 -2 0 
-2 -2 -2 -1 -1 -2 -2 -1 -1 -2 -2 0 -1 0 -1 0 
-1 2 -1 2 -1 4 0 3 -1 5 0 27 1 3 0 2 
1 0 1 -1 1 -2 0 -4 1 -6 1 -7 2 -9 2 -10 
1 -12 2 -13 2 -14 2 -16 3 -16 2 -17 3 -17 3 -17 
3 -17 3 -17 3 -16 3 -15 4 -14 3 -12 4 -11 3 -9 
4 -7 4 -4 4 -3 4 0 4 2 5 4 3 6 5 8 
3 8 5 10 9 10 1 10 1 9 6 9 3 8 4 7 
4 6 3 4 4 3 3045 2154 100 MP stroke
3 1 4 0 3 -1 3 -2 3 -3 3 -4 3 -4 3 -5 
2 -5 3 -5 2 -5 3 -4 2 -3 2 -3 2 -1 2 -1 
2 -1 1 0 2 1 1 2 2 3 1 2 1 2 1 2 
1 2 1 1 1 0 1 -1 0 -1 1 -3 0 -3 1 -4 
0 -22 -1 -2 1 -1 0 1 -1 2 0 12 -1 6 0 20 
-1 7 0 16 -1 3 0 5 0 -2 -1 -2 1 -3 -1 -4 
0 -3 1 -4 -1 -3 0 -4 1 -2 -1 -3 1 -1 0 -1 
0 9 -1 1 0 -3 -1 -3 0 -3 -1 -5 0 -14 -1 -8 
0 -8 -1 -9 0 -10 -1 -9 0 -8 -1 -8 0 -8 -1 -6 
0 -9 0 2 -1 3 -1 5 1 7 0 7 -1 9 0 20 
-1 10 -1 11 0 21 -1 10 -1 10 -1 8 0 8 -1 7 
-1 6 0 8 -1 3 0 2 -1 1 -1 1 -1 1 -1 1 
0 5 -1 1 0 6 3012 2110 100 MP stroke
-1 2 0 5 -1 1 -2 1 1 1 -1 1 1 1 0 4 
1 1 0 1 1 1 1 1 0 3 1 1 0 5 1 1 
1 2 1 1 0 1 1 -1 2 -2 1 -2 0 -2 1 -4 
1 -5 1 -5 0 -5 1 -7 1 -7 1 -7 1 -8 1 -9 
1 -8 1 -9 1 -9 1 -8 0 -8 2 -8 0 -8 1 -8 
1 -7 1 -8 0 -6 2 -7 1 -6 0 -14 1 -7 1 -7 
0 -23 1 -8 -1 -9 -1 -9 0 -10 -2 -10 -1 -10 0 -10 
-1 -10 -1 -11 0 -10 -1 -11 -1 -10 -2 -10 0 -10 -1 -10 
-1 -10 -2 -9 -1 -9 -1 -8 -3 -8 1 -7 0 -6 -3 -5 
-2 -4 -2 -3 -2 -2 -2 -2 -2 0 -3 1 -2 1 -3 2 
-2 3 -3 2 -3 4 -2 4 -3 5 -3 6 -2 7 -3 6 
-3 4 -3 5 -2 3 -3 1 -3 1 -3 0 -3 -4 -3 -5 
-2 -8 -3 -10 -3 -12 3073 2496 100 MP stroke
-3 -15 -2 -17 -3 -16 -3 -18 -3 -19 -3 -18 -2 -16 -3 -14 
-2 -13 -3 -10 -2 -9 -2 -7 -3 -3 -2 -2 -2 -2 -2 0 
-2 2 -2 1 -1 1 -2 4 -2 3 -1 3 -1 4 -2 3 
-1 4 -1 5 -1 6 0 6 -1 7 -1 7 0 40 1 7 
0 19 1 5 1 5 1 3 0 3 2 2 2 2 0 2 
1 1 4 1 0 1 1 1 2 3 3 3 2 3 3 4 
2 6 3 6 3 6 3 6 3 6 3 6 5 5 1 4 
-1 4 5 3 5 4 3 2 7 1 3 0 6 0 8 -1 
2 -2 4 -2 4 -1 5 -3 7 -2 5 -3 5 -3 5 -3 
4 -3 6 -4 5 -3 5 -4 5 -5 5 -5 6 -5 4 -4 
6 -6 5 -7 5 -7 5 -7 5 -8 6 -7 5 -8 5 -8 
6 -9 5 -9 5 -8 6 -8 5 -7 6 -6 5 -6 5 -5 
6 -5 5 -3 6 -4 2869 2636 100 MP stroke
5 -3 5 -2 6 -2 5 -3 5 -1 5 -2 6 -2 5 -2 
5 -3 5 -2 5 -3 5 -3 5 -4 5 -4 5 -6 5 -6 
5 -8 5 -8 4 -8 5 -10 4 -10 6 -12 3 -11 3 -13 
4 -12 4 -12 11 -12 4 -11 0 -11 6 -10 1 -8 4 -7 
5 -6 3 -5 5 -4 3 -2 4 -1 6 0 4 1 4 2 
4 2 4 3 4 2 3 3 2 3 3 2 4 2 3 2 
3 1 4 0 3 -1 3 -1 4 -1 4 -2 2 -3 3 -4 
3 -4 2 -4 3 -5 3 -6 2 -5 4 -6 3 -5 3 -6 
2 -5 3 -5 4 -4 2 -3 3 -2 2 -1 2 1 2 2 
2 3 3 5 2 5 2 8 2 10 2 10 2 11 2 12 
2 11 2 12 2 10 2 11 3 8 2 8 2 7 2 5 
2 4 3 2 2 1 2 -1 3 -2 2 -3 2 -4 3 -5 
2 -6 3 -5 2 -7 2528 2802 100 MP stroke
3 -6 3 -5 2 -5 3 -5 2 -3 3 -3 2 -1 3 0 
2 1 3 2 3 4 2 5 3 5 2 6 3 6 2 7 
2 7 3 6 3 7 2 5 2 5 2 5 2 3 2 2 
2 2 2 0 2 0 2 -2 2 -3 2 -4 2 -4 3 -5 
2 -5 1 -6 2 -5 2 -6 2 -5 1 -5 2 -4 3 -3 
1 -2 2 -1 2 0 1 1 2 2 2 2 2 3 2 3 
2 3 2 3 2 3 2 3 3 2 3 0 2 1 2 1 
2 -1 1 -1 2 -1 2 -2 2 -2 2 -2 2 -2 3 -2 
2 -1 2 0 2 0 1 1 2 1 2 2 2 2 2 3 
2 2 2 3 1 4 2 3 1 3 2 2 1 2 1 1 
2 1 3 0 2 0 -1 -1 1 -1 1 -2 1 -3 1 -3 
1 -4 1 -4 1 -4 2 -4 1 -4 1 -4 1 -4 1 -4 
2 -3 1 -3 1 -2 2339 2819 100 MP stroke
2 -2 1 -1 2 -2 1 0 2 -1 1 -1 2 0 2 0 
2 0 4 1 0 1 -1 1 3 2 2 2 2 3 2 3 
3 4 2 5 3 6 2 6 2 7 3 7 2 7 4 8 
2 8 2 8 6 7 4 8 3 7 5 7 2 6 3 6 
3 5 2 4 4 4 4 4 4 2 2 2 3 1 3 1 
4 1 2 0 3 0 5 -1 2 0 3 -1 3 -1 3 0 
3 -1 3 -1 3 -1 2 -1 4 -1 4 0 1 -1 4 -2 
3 -1 2 -2 3 -2 2 -3 3 -3 3 -3 2 -3 2 -3 
3 -4 2 -4 2 -3 3 -4 4 -4 1 -3 2 -3 3 -3 
2 -3 1 -2 1 -3 4 -2 3 -1 2 -2 2 -2 2 -2 
3 -2 3 -1 -1 -3 1 -2 2 -3 2 -2 2 -3 2 -4 
3 -3 4 -4 1 -4 1 -4 2 -4 2 -4 1 -5 1 -4 
2 -4 1 -4 2 -5 2099 2823 100 MP stroke
1 -4 1 -4 2 -5 1 -5 1 -5 1 -6 1 -6 1 -6 
1 -7 1 -8 1 -9 3 -9 1 -10 0 -11 1 -12 1 -12 
1 -13 1 -14 0 -29 1 -15 0 -32 1 -16 0 -126 -1 -14 
0 -13 1 -13 -1 -11 0 -21 -1 -10 0 -9 -1 -8 0 -19 
-1 -10 0 -58 1 -16 0 -18 1 -21 0 -22 1 -24 0 -27 
1 -27 0 -28 1 -31 1 -31 0 -61 1 -30 1 -27 0 -27 
1 -22 0 -53 1 -5 0 1 1 2 0 4 1 6 0 9 
1 11 0 20 1 10 0 12 1 9 0 8 1 8 0 5 
1 5 0 5 1 3 1 -1 1 -2 1 -2 0 -4 1 -4 
1 -4 1 -4 1 -5 1 -4 1 -3 1 -1 1 0 2 3 
1 5 2 8 1 11 2 16 1 17 2 20 2 22 2 24 
1 24 2 24 2 23 2 21 2 19 1 19 2 16 1 15 
2 12 2 9 1 8 2019 3443 100 MP stroke
2 4 1 3 1 2 2 0 1 -2 2 -4 1 -5 1 -6 
1 -6 1 -8 1 -8 1 -9 2 -9 1 -9 1 -9 2 -8 
1 -8 1 -7 2 -6 1 -5 1 -4 1 -2 2 -2 2 1 
1 2 1 3 2 3 1 4 2 5 2 4 1 5 2 3 
1 4 2 3 1 1 1 1 2 0 1 -1 1 -2 1 -3 
2 -3 1 -5 1 -5 1 -6 1 -6 1 -6 1 -6 1 -7 
1 -6 0 -5 1 -5 1 -4 0 -3 1 -2 1 -1 0 -1 
0 1 1 2 0 12 -1 6 0 22 -1 9 0 19 -1 11 
0 11 -1 11 -1 11 0 12 -1 11 -1 12 -1 12 -2 11 
-1 11 -1 12 -1 11 -2 11 -1 10 -2 11 -1 11 -2 11 
-1 12 -2 11 -2 12 -2 12 -3 12 -2 13 -2 13 -2 13 
-2 13 -3 13 -3 13 -2 12 -3 12 -3 12 -3 11 -3 11 
-3 10 -3 9 -3 9 2018 3105 100 MP stroke
-3 9 -3 8 -4 8 -3 8 -3 7 -4 7 -4 6 -3 7 
-3 6 -4 7 -3 6 -4 6 -4 6 -3 6 -4 6 -4 6 
-4 6 -3 5 -4 6 -4 5 -4 5 -3 4 -4 5 -5 3 
-3 4 -4 3 -4 2 -4 2 -3 2 -4 1 -4 1 -3 1 
-4 1 -4 1 -4 1 -5 1 -3 2 -4 2 -4 3 -4 3 
-4 4 -4 4 -4 5 -3 5 -4 6 -4 5 -4 6 -4 7 
-3 6 -5 6 -4 5 -4 6 -3 5 -4 4 -5 4 -4 3 
-3 3 -4 2 -3 1 -5 0 -5 0 -2 -1 -3 -2 -4 -2 
-5 -3 -2 -2 -3 -3 -5 -4 -1 -4 -5 -5 -6 -4 -2 -6 
-4 -5 -3 -6 -3 -7 -6 -7 -3 -9 -4 -9 -4 -10 -4 -11 
-4 -12 -3 -12 -4 -14 -4 -14 -4 -16 -4 -15 -4 -15 -4 -15 
-4 -14 -4 -13 -4 -10 -4 -7 -2 -3 -3 0 -5 5 -5 8 
-2 11 -4 16 -5 19 2391 3041 100 MP stroke
-3 19 -5 24 -5 25 -3 25 -4 27 -4 29 -3 27 -4 29 
-4 30 -4 30 -4 29 -4 30 -3 30 -3 29 -5 28 -5 27 
-1 25 -4 25 -3 22 -4 21 -3 18 -4 17 -3 14 -2 12 
-4 9 -3 7 -5 5 -4 3 -4 1 -4 -1 -3 -2 -3 -5 
-3 -5 -1 -7 -4 -8 -4 -8 -3 -9 -3 -10 -3 -10 -2 -9 
-3 -10 -4 -9 -3 -9 -3 -8 -3 -8 -3 -8 -2 -7 -3 -7 
-2 -6 -3 -6 -3 -6 -2 -6 -3 -5 -3 -4 0 -7 -5 -3 
-4 -3 -2 -2 -2 0 -2 0 -2 1 -2 1 -2 3 -2 4 
-2 4 -2 5 -2 5 -2 6 -1 5 -2 6 -2 4 -1 4 
-1 4 -2 2 -1 0 -2 -3 -1 -4 -1 -7 -1 -9 -1 -12 
-1 -15 -1 -18 -1 -21 -1 -24 -1 -27 0 -30 -1 -31 -1 -32 
0 -34 -1 -33 0 -65 -1 -28 0 -84 0 4 1 9 0 29 
1 19 0 19 1 20 2624 2935 100 MP stroke
0 18 1 17 1 16 0 16 1 12 1 10 1 6 1 3 
1 0 1 0 1 -4 1 -4 1 -7 1 -8 1 -8 1 -9 
2 -9 1 -9 1 -9 1 -9 2 -8 1 -6 1 -6 2 -6 
1 -4 2 -4 1 -2 2 -2 1 -1 2 -1 1 0 2 0 
1 1 2 2 1 2 2 1 1 3 2 2 1 2 1 2 
2 2 1 2 2 2 1 2 1 2 2 1 1 1 1 0 
1 0 1 -1 1 -1 1 -1 1 -2 1 -2 1 -3 1 -3 
1 -3 1 -3 1 -4 1 -3 1 -3 1 -1 1 -1 1 0 
1 0 1 1 1 3 1 4 1 5 1 7 1 6 1 7 
1 7 1 8 1 7 1 6 1 5 1 4 1 4 2 3 
1 2 1 -1 1 -1 2 -3 1 -4 1 -4 2 -6 1 -7 
2 -7 1 -7 2 -7 2 -7 2 -6 2 -4 1 -3 2 -3 
2 0 2 2 2 4 2502 2942 100 MP stroke
2 6 2 7 3 9 2 10 2 12 3 11 2 11 2 11 
3 10 2 10 3 7 3 6 2 5 3 2 3 0 2 0 
4 -4 2 -5 4 -6 3 -9 3 -9 3 -11 4 -12 3 -12 
3 -13 4 -13 3 -13 4 -12 4 -12 3 -11 4 -9 4 -9 
3 -6 4 -6 4 -4 4 -3 4 -2 4 0 4 1 4 1 
4 1 4 4 4 4 4 3 4 3 5 3 4 5 4 4 
4 3 5 1 4 1 4 0 5 -2 4 -4 4 -6 4 -8 
5 -9 4 -11 4 -13 5 -15 4 -17 4 -18 4 -19 4 -19 
5 -20 3 -19 5 -19 3 -19 5 -16 8 -12 2 -10 1 -9 
5 -5 4 -3 4 0 4 1 3 2 5 5 3 7 4 8 
4 8 4 8 3 7 3 7 4 8 4 6 3 6 3 5 
6 3 3 4 0 2 4 2 2 1 3 0 3 -1 3 -1 
3 -3 3 -4 2 -2 2152 3166 100 MP stroke
2 -3 5 -4 3 -4 -1 -5 4 -5 4 -4 0 -4 2 -5 
2 -4 2 -3 1 -2 2 -1 3 -2 1 -1 2 0 1 1 
2 3 2 2 1 3 2 3 1 4 1 5 1 4 1 5 
1 4 1 4 2 4 1 3 1 2 0 3 1 1 1 0 
1 -1 0 -4 1 -2 -1 -3 1 -4 0 -3 -1 -4 0 -8 
-1 -4 0 -6 -1 -3 -1 -2 -1 -2 -3 -3 -1 1 -2 1 
0 2 -1 3 -2 3 -1 3 -2 6 -2 5 -1 6 -2 7 
-2 8 -3 7 -2 8 -3 8 -2 7 -2 8 -2 8 -2 8 
-3 7 -3 7 -2 7 -3 6 -3 5 -3 4 -3 3 -3 2 
-3 1 -2 -2 -3 -3 -3 -4 -4 -5 -3 -6 -3 -8 -3 -9 
-3 -10 -3 -10 -4 -10 -3 -11 -3 -9 -3 -9 -3 -7 -3 -6 
-3 -5 -3 -5 -3 -3 -3 -3 -3 -2 -3 -2 -3 -3 -2 -2 
-3 -4 -3 -5 -3 -6 2242 3219 100 MP stroke
-3 -6 -3 -8 -2 -8 -3 -8 -2 -8 -3 -8 -4 -8 -2 -6 
-2 -3 -2 -3 -2 0 -3 4 0 9 -2 10 -2 11 -2 11 
-2 12 -2 12 -2 11 -1 11 0 8 -2 8 -2 7 -1 3 
-2 3 -1 0 -1 -2 -1 -3 -1 -5 0 -7 -1 -7 -1 -8 
0 -9 -2 -9 0 -8 -1 -7 -1 -4 0 -2 -1 -1 -1 1 
0 3 -1 3 0 4 -1 4 0 5 -1 3 0 3 -1 3 
-1 1 -1 -2 0 -2 -1 -4 0 -4 -1 -3 -1 -4 0 -5 
-1 -5 -1 -6 0 -6 -1 -7 -1 -6 -1 -5 0 -6 -1 -4 
-1 -5 -1 -3 0 -3 -1 -1 -1 2 -1 3 -1 5 0 6 
-1 7 -1 9 -1 10 0 10 -1 12 -1 12 0 13 -1 13 
-1 13 0 14 -1 13 -1 13 0 13 -1 12 0 21 -1 10 
0 15 -1 5 0 14 1 -1 0 2 1 2 0 3 1 3 
0 3 1 4 0 4 2334 3023 100 MP stroke
1 4 1 4 0 3 1 2 1 2 1 -1 1 -1 1 -2 
1 -3 1 -5 1 -6 2 -6 1 -7 1 -8 1 -7 2 -7 
1 -6 1 -6 2 -5 1 -3 1 -2 2 -1 1 2 1 1 
2 2 1 2 1 2 2 2 1 1 1 1 1 0 2 -2 
1 -2 1 -3 1 -4 1 -4 1 -5 1 -5 1 -4 1 -5 
0 -4 1 -3 1 -2 0 -2 1 0 1 1 0 7 1 2 
0 31 -1 1 0 36 -1 9 0 103 -1 14 0 37 -1 11 
0 17 -1 7 0 6 -1 5 -1 3 0 3 -1 3 -1 2 
-1 2 -1 2 -1 2 -1 2 -1 3 -2 3 -1 3 -1 4 
-2 5 -1 5 -2 5 -2 6 -1 6 -2 6 -2 6 -2 6 
-2 6 -2 7 -2 6 -2 7 -3 6 -2 7 -2 7 -3 6 
-2 7 -2 6 -3 7 -2 7 -3 7 -3 7 -2 6 -3 6 
-2 6 -3 5 -3 5 2361 2631 100 MP stroke
-2 4 -3 3 -3 3 -2 1 -3 1 -3 1 -3 -1 -2 -1 
-3 -1 -3 -2 -3 -3 -2 -2 -3 -3 -3 -2 -3 -3 -3 -2 
-2 -1 -3 -1 -3 -1 -3 1 -3 1 -3 1 -3 3 -3 3 
-3 4 -3 4 -3 5 -3 5 -3 6 -3 5 -3 5 -3 6 
-4 5 -3 4 -3 4 -3 4 -3 3 -3 2 -4 2 -3 1 
-3 0 -4 0 -3 0 -3 -1 -4 -1 -3 -2 -4 -2 -3 -2 
-3 -2 -4 -2 -3 -2 -4 -3 -3 -1 -4 -1 -3 0 -4 0 
-3 1 -4 1 -3 3 -3 4 -4 5 -3 5 -4 6 -3 8 
-3 8 -4 8 -3 9 -3 9 -3 9 -3 8 -3 8 -4 7 
-3 7 -2 5 -3 6 -3 4 -3 3 -2 3 -3 2 -2 2 
-3 1 -2 1 -3 1 -2 0 -2 1 -2 0 -2 0 -1 1 
-2 1 -2 0 -2 1 -1 1 -1 1 -2 2 -1 1 -2 1 
-1 1 -1 2 -1 1 2640 2438 100 MP stroke
-1 1 -1 1 1 1 -2 1 -1 1 0 5 -1 2 0 21 
-1 5 0 5 1 5 0 10 1 5 0 4 1 4 0 3 
2 3 2 2 -1 2 1 1 1 0 1 1 1 0 1 0 
2 0 1 0 3 1 1 0 1 1 1 2 2 2 3 2 
2 2 3 3 2 2 -1 3 3 2 3 2 1 1 5 1 
5 -1 1 -1 2 -2 2 -3 3 -4 4 -6 2 -7 4 -8 
3 -9 2 -11 3 -11 3 -13 3 -13 3 -14 3 -14 2 -14 
3 -15 3 -14 2 -14 3 -13 3 -12 1 -11 2 -11 3 -8 
2 -8 2 -7 2 -6 3 -5 2 -5 2 -5 2 -5 3 -6 
3 -7 3 -7 2 -8 1 -10 3 -11 2 -12 2 -14 3 -15 
2 -15 2 -17 2 -16 3 -17 3 -16 1 -15 2 -13 3 -12 
2 -9 4 -6 2 -5 2 -3 3 0 2 1 2 2 3 2 
3 3 3 2 2 1 2455 2824 100 MP stroke
3 0 1 -2 3 -5 3 -7 2 -10 3 -14 2 -17 3 -22 
3 -25 2 -30 3 -36 2 -42 1 -46 3 -53 2 -60 3 -66 
4 -74 1 -83 2 -88 3 -89 3 -87 1 -75 3 -51 2 -21 
2 6 2 26 0 32 3 32 2 27 2 20 2 13 2 6 
3 -1 2 -6 1 -11 2 -15 2 -18 2 -19 1 -17 2 -16 
2 -10 1 -3 1 3 1 9 1 16 2 21 1 23 2 25 
2 25 1 25 0 47 2 20 1 19 0 17 2 16 0 14 
3 12 0 21 2 10 1 8 0 8 1 7 1 6 1 7 
0 6 1 6 1 5 0 6 1 5 1 5 1 5 1 4 
1 4 1 3 1 3 1 3 1 1 2 1 1 0 1 -1 
1 -2 2 -3 2 -3 2 -5 2 -6 1 -7 2 -8 2 -9 
2 -10 1 -12 3 -13 2 -15 2 -17 2 -17 1 -20 1 -22 
3 -23 3 -24 2 -27 2288 3609 100 MP stroke
3 -27 2 -26 2 -31 3 -34 2 -34 3 -34 3 -38 2 -29 
4 -30 2 -29 2 -32 4 -31 3 -23 3 -32 3 -38 4 -8 
4 -7 4 -35 3 -30 4 -13 3 -25 4 -37 5 -45 4 -40 
4 -24 4 -2 4 24 4 34 4 63 5 63 4 78 5 74 
4 60 4 50 5 43 5 34 5 25 4 24 5 23 5 14 
4 9 4 4 6 4 4 2 5 3 5 1 4 4 5 4 
4 6 5 9 5 8 4 14 5 24 5 27 4 28 4 29 
5 30 5 32 4 30 5 31 4 30 5 28 4 27 4 25 
5 22 4 21 4 18 5 16 5 15 4 13 4 12 5 10 
3 9 5 8 4 6 4 6 5 6 4 5 4 4 4 3 
4 4 4 2 4 3 5 2 5 1 3 1 2 1 5 0 
4 -1 3 -1 6 -1 2 -1 3 -2 5 -3 4 -3 4 -2 
3 -3 5 -3 3 -3 1889 3160 100 MP stroke
5 -3 4 -2 3 -2 4 -1 3 0 5 2 3 3 3 4 
5 6 2 8 5 10 2 12 3 13 4 14 1 15 6 17 
0 15 5 17 2 16 0 15 19 15 10 10 0 13 3 9 
2 8 4 6 -13 9 -6 2 9 4 -2 1 2 2 3 0 
-1 0 2 0 1 0 2 -1 1 0 2 -1 1 1 1 0 
1 1 1 1 -1 1 1 1 0 1 -1 1 1 0 -1 1 
-1 -1 0 -2 -1 -1 0 -2 -1 -2 -1 -2 0 -3 -1 -3 
-1 -3 -1 -3 -1 -4 0 -3 -1 -4 -1 -4 -1 -3 -1 -4 
-1 -4 -1 -3 -1 -4 -1 -3 -2 -3 -2 -3 0 -3 -1 -2 
-1 -3 -1 -1 -1 -2 -1 -1 -1 -1 -1 0 -2 -1 -1 0 
-1 0 -1 1 -1 0 -1 0 -1 0 -1 0 -1 1 -1 -1 
-1 0 -1 0 -1 0 -2 -1 -1 0 -1 -1 -2 -1 -1 -1 
-1 -1 -1 0 -1 -1 1834 2999 100 MP stroke
-2 0 -2 0 -2 0 0 1 -1 1 -1 1 -1 1 -1 1 
-1 2 -2 1 -1 2 -1 2 -2 2 -1 3 -1 2 -1 3 
-1 3 -1 3 -1 3 -1 3 -1 3 -1 4 -1 3 -1 4 
0 4 -1 4 -1 4 -1 4 -1 5 -1 4 -1 4 -1 4 
0 4 -1 5 -1 4 0 4 -2 3 0 8 -1 3 -1 4 
0 3 -1 3 -1 3 -1 3 0 3 -1 2 -1 3 1 2 
-1 2 -1 2 0 2 -1 1 -1 1 -2 1 -1 1 -1 0 
-1 -1 -1 0 -1 -1 -1 -2 -1 -2 -1 -3 -1 -2 -2 -4 
-1 -4 -1 -4 -2 -4 -2 -5 -1 -5 -3 -5 -2 -5 0 -6 
-4 -5 -3 -5 1 -6 -3 -5 -3 -5 -2 -5 -3 -5 -2 -4 
-3 -5 -4 -4 -4 -3 -3 -3 -3 -3 -3 -1 -3 -2 -3 -1 
-3 0 -3 1 -4 2 -2 2 -4 3 -3 3 -3 4 -3 5 
-4 4 -3 6 -3 5 1988 2931 100 MP stroke
-3 6 -3 5 -2 5 -3 6 -3 4 -2 5 -3 4 -3 3 
-2 3 -3 2 -3 2 -2 2 -2 1 -2 1 -2 1 -3 0 
-2 1 -2 1 -2 1 -1 2 -2 2 -1 2 -2 2 -1 3 
-1 2 -2 3 -2 3 -1 3 0 3 -1 2 -1 2 -1 3 
0 3 -1 2 -1 1 0 4 1 -1 1 -1 0 -2 1 -1 
0 -2 2 -1 0 -3 1 -1 1 -2 0 -1 1 -1 0 -5 
1 -1 0 -5 1 -1 0 -5 -1 -1 0 -1 -1 -1 0 -2 
-1 -1 -1 -1 -1 -1 -1 0 -1 0 -1 1 -1 0 -1 1 
0 1 -1 1 0 2 -1 1 -1 2 -1 2 -1 1 -1 2 
-1 2 0 3 -1 2 -1 2 0 2 -1 2 0 2 -1 2 
0 1 -1 2 0 1 -1 1 0 1 -1 1 -1 1 0 -7 
1 -2 0 -2 1 -1 0 -3 1 -1 0 -3 1 -1 0 -1 
1 -1 0 -1 2 0 2061 2861 100 MP stroke
-1 0 -1 0 1 0 2 1 1 0 1 0 1 0 1 -1 
1 -1 1 -1 0 -2 1 -1 1 -2 1 -1 0 -2 2 -2 
0 -4 2 -2 0 -3 1 -2 1 -2 1 -2 1 -2 1 -2 
1 -2 2 -2 1 -1 1 -2 1 -1 1 -1 2 -2 1 0 
1 -1 1 -1 2 -1 1 0 1 -1 2 -1 1 0 2 -1 
1 -1 2 -2 1 -1 2 -2 1 -2 1 -2 2 -3 2 -3 
0 -3 2 -4 1 -4 2 -3 1 -5 3 -4 2 -4 1 -4 
2 -4 1 -4 1 -4 3 -4 1 -3 2 -3 2 -3 0 -3 
1 -2 2 -3 2 -2 0 -1 1 -2 2 -2 1 -2 2 -1 
1 -2 2 -2 1 -2 1 -2 2 -1 1 -2 1 -2 1 -2 
1 -2 1 -2 0 -3 1 -1 0 -2 1 -1 1 0 -1 0 
2 -2 1 0 -1 0 2 -2 1 -1 -1 0 -1 -1 2 -1 
0 -3 -1 -2 -1 -1 1957 3038 100 MP stroke
1 -2 0 -7 -1 -2 1 -2 0 -3 -1 -2 0 -2 -1 -2 
0 -4 -1 -2 0 -3 -1 -1 -1 -1 -1 0 -1 0 -1 1 
-1 1 -1 1 -1 1 -1 2 -1 2 -1 2 -1 2 -1 3 
-1 3 -2 3 -1 3 -1 4 -2 3 -2 4 -1 4 -2 4 
-1 3 -2 4 -1 4 -2 3 -2 4 -2 3 -2 3 -1 2 
-2 3 -2 2 -1 2 -2 1 -2 2 -2 1 -2 0 -1 1 
-2 0 -2 0 -2 1 -2 0 -2 0 -1 0 -2 1 -2 1 
-2 1 -2 2 -2 2 -2 2 -2 3 -2 4 -1 3 -1 4 
-2 4 -2 4 -2 4 -2 4 -2 4 -2 3 -3 4 -2 3 
-2 3 -2 2 -2 3 -3 2 -2 1 -2 2 -3 1 -2 1 
-3 1 -2 1 -2 1 -2 1 -2 1 -2 1 -3 1 -3 1 
-3 2 -3 2 -3 2 -3 2 -3 3 -4 3 -2 3 -3 3 
-4 3 -4 3 -3 2 2129 2885 100 MP stroke
-3 3 -5 2 -3 1 -4 2 -4 0 -4 1 -5 -1 -4 0 
-4 -1 -4 -1 -3 -1 -5 -2 -6 -2 -5 -1 -5 0 -5 -1 
-5 0 -4 -1 -3 0 -8 1 -6 0 -4 1 -5 0 -6 0 
-5 1 -6 -1 -4 -1 -5 -1 -8 -1 -5 -2 -4 -3 -6 -3 
-5 -4 -5 -4 -7 -5 -5 -6 -5 -5 -6 -4 -6 -6 -5 -7 
-6 -7 -5 -7 -5 -9 -6 -9 -5 -11 -6 -12 -5 -14 -5 -15 
-6 -18 -5 -20 -5 -21 -5 -24 -5 -27 -5 -29 -5 -28 -5 -34 
-5 -33 -4 -32 -5 -31 -5 -25 -5 -22 -5 -23 -4 -20 -5 -8 
-4 -2 -5 2 -4 6 -5 8 -4 9 -4 15 -4 18 -5 18 
-4 19 -4 19 -4 18 -5 20 -4 21 -4 20 -4 20 -4 19 
-4 19 -4 19 -4 17 -4 17 -4 14 -4 14 -4 14 -4 12 
-4 11 -4 9 -4 9 -3 6 -4 7 -4 5 -4 3 -4 2 
-3 0 -4 -2 -4 -3 2590 3013 100 MP stroke
-3 -6 -5 -7 -3 -9 -4 -13 -4 -15 -4 -20 -3 -23 -4 -24 
-4 -26 -3 -29 -4 -31 -3 -34 -3 -36 -4 -36 -3 -37 -3 -38 
-3 -36 -2 -36 -3 -38 -3 -36 -2 -36 -3 -37 -2 -35 -3 -28 
-2 -17 -2 1 -2 20 -2 39 -1 52 -2 59 -1 61 -2 59 
-2 56 0 52 -1 47 -1 43 -1 37 0 33 -1 28 0 24 
-1 21 0 33 1 14 0 12 1 10 1 9 1 10 1 9 
1 9 1 10 1 10 1 12 2 13 2 14 1 16 1 16 
2 17 3 18 1 18 2 18 3 17 2 17 2 16 3 15 
2 14 3 12 2 11 3 10 2 8 3 7 3 5 3 5 
3 2 2 2 4 1 3 0 3 -2 3 -1 3 -3 4 -2 
2 -4 4 -3 3 -4 3 -4 4 -4 3 -5 3 -4 3 -5 
3 -5 3 -4 2 -5 3 -6 3 -6 3 -6 3 -5 3 -6 
2 -7 3 -6 4 -7 2553 2758 100 MP stroke
2 -8 3 -8 3 -8 3 -8 3 -9 2 -9 3 -9 3 -9 
3 -10 3 -8 3 -9 2 -8 3 -8 3 -8 3 -7 2 -7 
3 -6 0 -6 2 -5 6 -3 3 -3 0 -1 4 0 5 1 
3 2 4 3 3 3 3 5 3 5 3 5 3 6 3 5 
3 4 3 3 4 2 3 1 3 -1 3 -2 3 -4 4 -4 
3 -5 3 -7 4 -7 3 -7 3 -8 4 -6 3 -6 3 -5 
4 -3 5 -2 3 0 3 1 4 3 3 4 4 5 5 6 
3 6 4 6 5 6 3 7 3 6 4 7 4 5 4 6 
5 5 4 5 5 5 4 5 4 5 5 5 4 5 5 5 
4 5 4 6 5 6 5 5 4 6 5 6 5 6 5 7 
4 5 6 6 5 6 5 5 5 5 4 4 8 4 5 3 
3 3 6 2 6 2 5 2 5 1 5 1 6 1 6 0 
5 1 5 0 7 0 2174 2731 100 MP stroke
6 1 4 0 7 1 8 1 5 2 5 2 7 2 4 2 
6 2 6 3 4 3 10 4 5 3 6 4 10 3 5 3 
6 4 8 3 4 3 9 2 5 2 6 2 7 1 6 0 
7 -1 5 -1 7 -2 7 -3 6 -4 6 -5 6 -6 7 -7 
7 -8 6 -8 7 -10 5 -10 8 -10 6 -11 7 -12 8 -11 
-3 -11 1 -11 9 -11 6 -10 7 -9 8 -9 7 -8 6 -7 
7 -6 8 -5 7 -5 7 -3 8 -4 5 -2 8 -2 7 -2 
6 -2 7 -2 7 -1 6 -2 6 -2 7 -2 6 -2 6 -3 
7 -2 6 -3 5 -3 6 -4 6 -3 6 -4 5 -3 6 -3 
5 -4 5 -3 6 -3 5 -2 5 -3 5 -2 4 -2 5 -2 
5 -1 4 -2 4 -1 4 -1 5 0 4 -1 3 0 4 0 
4 0 4 -1 4 0 2 0 4 0 3 0 3 0 3 -1 
3 0 3 0 3 0 1615 2962 100 MP stroke
2 -1 3 0 3 0 2 0 2 0 2 1 2 0 2 0 
2 1 2 1 1 0 2 1 2 0 1 0 2 -1 1 -1 
0 -1 2 -3 1 -3 1 -4 1 -6 1 -6 1 -9 0 -9 
1 -11 1 -13 0 -49 1 -20 1 -22 0 -24 1 -25 0 -170 
1 -27 -1 -25 0 -58 -1 -2 0 11 -2 12 0 14 -1 16 
0 17 -1 18 -1 18 -1 18 -1 18 -1 17 -2 16 0 15 
-1 15 -2 15 0 13 -2 14 -2 12 -1 13 -1 12 -1 11 
-1 11 -2 12 -1 10 -2 11 -2 10 -1 11 -1 9 -2 10 
-2 9 -2 8 -1 9 -2 7 -1 8 -2 7 -2 6 -1 6 
-2 6 -1 5 -2 5 -3 4 -1 5 -1 3 -2 4 -2 4 
-1 3 -2 3 -2 3 -2 3 -2 3 -1 3 -2 3 -2 4 
-1 3 -2 3 -2 3 -1 3 -2 4 -1 3 -2 4 -1 3 
-2 4 -1 3 -2 4 1663 2911 100 MP stroke
-1 3 -1 4 -2 3 -2 3 -1 3 -2 2 -2 2 -1 2 
-2 2 -2 1 -2 0 -1 0 -2 0 -2 -1 -2 -1 -1 -2 
-1 -2 -2 -3 -1 -3 -2 -3 -3 -4 1 -4 -1 -4 -2 -4 
-1 -5 -1 -4 -2 -5 -1 -5 -1 -5 -1 -4 -1 -5 -1 -5 
-1 -4 -1 -5 0 -4 -1 -4 -1 -4 -1 -4 0 -4 -1 -4 
0 -10 -1 -4 0 -3 -1 -4 0 -14 -1 -4 0 -8 -1 -4 
0 -5 -1 -5 0 -5 1 -5 -1 -5 -1 -6 1 -5 -1 -6 
-1 -6 0 -21 -1 -5 -1 -4 0 -4 -1 -3 -1 -3 -1 -2 
0 -1 -1 -1 -1 0 1 1 -3 1 -3 2 0 3 -2 3 
-1 3 -1 4 -1 3 -1 4 -2 4 -1 4 -1 3 -2 3 
-2 3 -1 3 -2 2 -1 2 1 1 -2 2 -2 1 -1 1 
-2 1 -2 1 -2 1 -2 1 -2 1 -3 2 0 1 -2 2 
-2 1 -3 2 -1 1 1777 3064 100 MP stroke
-2 2 -2 1 -1 1 -2 1 -2 1 -1 0 -2 0 -2 0 
-1 -1 -2 -1 -1 -1 -1 -2 -2 -3 -1 -3 -1 -4 -1 -5 
-1 -5 0 -6 -1 -7 -1 -7 -1 -9 0 -20 -1 -11 0 -77 
1 -14 0 -13 1 -12 1 -12 0 -11 1 -9 1 -8 1 -6 
1 -5 0 -3 1 -1 2 1 1 3 1 4 1 5 0 6 
1 8 2 8 1 9 2 9 3 10 -1 9 -1 10 1 9 
2 9 1 9 1 8 1 7 1 7 1 7 2 5 1 6 
0 5 1 4 3 5 1 4 0 4 1 4 -2 4 1 4 
2 5 1 5 -1 6 0 13 -1 7 -1 8 -1 9 -1 9 
-1 10 -1 11 -2 11 -4 11 -1 12 -1 12 -2 12 -3 12 
-3 13 -2 11 -3 12 -3 12 -3 11 -3 10 -3 10 -4 10 
-4 9 -4 8 -3 8 -4 8 -4 7 -4 6 -5 6 -3 6 
-6 5 -5 5 -2 4 1855 2817 100 MP stroke
-4 4 -5 4 -5 3 -5 4 -4 2 -4 3 -5 2 -3 3 
-5 1 -4 2 -4 1 -4 2 -4 1 -5 0 -3 1 -4 1 
-3 0 -4 0 -4 0 -4 0 -3 0 -4 0 -3 0 -3 0 
-4 0 -3 0 -2 0 -4 0 -3 0 -3 -1 -3 0 -3 -1 
-4 -1 -2 -1 -3 -1 -1 -1 -3 -1 -2 -2 -2 -1 -3 -2 
-2 -2 -2 -2 -3 -2 -3 -2 -2 -3 -1 -2 -2 -2 -2 -3 
-2 -2 -1 -3 -2 -2 -2 -2 -1 -2 -2 -2 -2 -2 -1 -1 
-2 -1 -1 -1 -1 0 -1 -1 -1 0 -1 0 -1 0 -1 1 
-1 0 -1 1 -1 1 -1 1 1 -1 1 -1 1 -1 1 -1 
1 0 1 -1 1 0 1 0 1 1 1 0 3 0 1 1 
1 1 2 1 1 1 1 0 1 1 1 0 2 1 1 0 
1 0 2 0 1 0 2 0 1 -1 2 0 3 -1 0 -1 
1 -1 2 -1 1 -1 1999 2832 100 MP stroke
1 -1 2 -2 2 -1 2 -2 1 -1 2 -2 1 -1 2 -2 
2 -2 1 -1 2 -2 2 -2 2 -2 2 -1 2 -2 2 -2 
1 -2 2 -2 2 -2 1 -2 2 -2 2 -2 3 -2 2 -2 
2 -3 2 -2 2 -3 1 -2 2 -3 3 -3 1 -3 3 -3 
1 -4 2 -3 3 -4 2 -4 1 -4 2 -5 4 -5 5 -5 
1 -6 2 -6 2 -6 -1 -7 2 -8 2 -8 1 -9 3 -9 
1 -9 2 -10 2 -9 2 -10 1 -9 2 -8 2 -8 2 -6 
1 -6 1 -3 2 -1 2 0 1 3 1 6 2 7 1 10 
2 12 1 14 -1 14 1 16 1 16 3 18 2 15 1 18 
2 15 2 14 1 13 1 11 1 9 2 7 1 6 2 3 
1 1 1 -2 2 -3 1 -6 1 -8 1 -11 1 -13 2 -15 
1 -17 2 -19 1 -21 1 -23 3 -25 -3 -23 -3 -28 3 -25 
1 -26 1 -25 2 -25 1842 3155 100 MP stroke
1 -23 2 -21 1 -19 3 -17 1 -14 0 -11 2 -9 1 -6 
2 -4 3 -2 0 -1 1 1 1 2 2 3 1 3 1 3 
2 3 2 3 2 2 1 2 2 1 2 1 1 0 4 -1 
1 -1 0 -2 2 -3 1 -3 1 -3 2 -4 1 -4 2 -5 
2 -4 1 -5 3 -5 1 -5 2 -5 1 -5 2 -5 1 -5 
2 -5 2 -5 1 -5 2 -5 1 -4 2 -5 1 -4 2 -4 
1 -4 1 -4 1 -4 2 -3 1 -3 2 -3 1 -2 2 -2 
1 -2 1 -2 2 -1 2 -1 2 -1 1 0 1 -1 2 0 
1 -1 1 0 2 0 1 -1 2 -1 1 0 2 -1 1 -1 
2 -1 1 -2 2 -1 1 -1 2 -1 4 -1 3 0 3 1 
1 1 1 2 2 3 2 4 2 5 2 6 3 7 1 7 
2 9 2 10 2 10 2 11 1 12 2 12 1 12 1 12 
2 13 2 12 1 12 1684 3244 100 MP stroke
3 12 1 11 2 11 1 10 2 10 2 10 0 8 2 8 
2 8 1 7 2 7 1 6 1 5 2 6 1 5 2 4 
1 5 1 4 1 4 1 4 2 4 0 4 2 4 1 4 
1 3 1 4 1 4 2 3 0 6 1 3 0 3 1 2 
1 2 1 2 -1 0 1 0 3 1 2 0 0 -2 1 -2 
0 -16 1 -5 0 -10 -1 -5 0 -5 1 -6 -1 -5 0 -12 
-1 -6 0 -6 1 -6 -2 -6 0 -6 -1 -6 0 -7 -1 -7 
0 -14 -1 -8 -1 -8 -1 -8 -1 -8 -1 -9 -1 -8 -1 -9 
-1 -8 -1 -9 -1 -8 -1 -8 -1 -7 -1 -7 -1 -6 -2 -5 
-1 -4 0 -3 -1 -3 -2 -1 -1 0 -1 1 -1 1 -2 3 
-1 3 -1 4 -1 5 -2 5 -1 5 -2 6 -2 6 -1 6 
-1 7 -2 6 -1 7 -2 6 -1 6 -2 7 -3 6 -1 7 
0 6 -3 6 -2 6 1693 3194 100 MP stroke
-1 6 -2 6 -1 6 -2 6 -2 6 -2 5 -1 6 -2 6 
-2 5 -2 6 -1 6 -3 5 -2 6 -1 5 -2 5 -2 5 
-3 5 -2 5 -1 4 -2 4 -2 4 -2 3 -3 3 -1 2 
-2 3 -2 2 -1 1 -2 1 -2 1 -2 1 -1 1 -4 0 
-2 0 -2 0 -1 -1 -2 0 -3 -1 -1 -1 -2 -1 -2 -1 
-2 -1 -3 -1 -1 -1 -2 -1 -3 -1 -2 -1 -1 -1 -2 -1 
-2 -1 -3 -2 -1 -1 -2 -2 -3 -2 -2 -2 -2 -3 -1 -2 
-3 -4 -3 -3 0 -4 -2 -4 -2 -4 -2 -5 -2 -5 -1 -5 
-2 -5 -3 -5 -1 -5 -2 -6 -1 -5 -2 -6 -2 -5 -2 -5 
-2 -5 -2 -5 -1 -5 -1 -5 -2 -5 -2 -4 -2 -4 -2 -5 
-1 -4 -2 -4 -1 -4 -2 -4 -3 -4 -1 -4 0 -4 -2 -4 
-1 -3 -2 -4 -1 -3 -2 -4 -1 -3 -2 -3 -1 -3 -1 -3 
-2 -3 -1 -3 -1 -3 1871 3273 100 MP stroke
-2 -2 -1 -3 -1 -2 -2 -3 -1 -2 -2 -3 -1 -3 -1 -3 
-1 -3 -1 -4 -3 -4 -2 -5 0 -6 -1 -6 -2 -7 -1 -8 
-1 -9 -2 -10 -1 -11 0 -11 -2 -13 -1 -14 0 -14 -2 -15 
0 -15 -1 -15 -3 -16 -1 -14 -1 -13 0 -12 1 -11 0 -9 
-1 -7 0 -6 -1 -4 0 -3 -1 0 -1 0 1 2 -2 3 
-2 4 1 5 -1 6 0 7 2 8 1 8 0 17 1 10 
0 9 1 10 0 10 1 9 0 10 1 10 1 9 0 10 
2 9 0 10 1 9 1 8 0 9 1 9 1 8 1 8 
1 8 1 8 1 8 2 8 1 7 1 7 1 7 2 7 
1 7 1 6 2 6 1 5 1 6 1 4 2 5 1 4 
1 3 1 3 2 3 2 2 1 1 1 1 2 1 1 0 
2 0 1 -1 1 -1 1 -2 2 -2 1 -3 1 -2 1 -3 
2 -3 1 -4 1 -3 1854 3249 100 MP stroke
0 -4 2 -3 1 -4 1 -4 1 -4 1 -4 0 -3 1 -4 
2 -4 0 -4 1 -4 1 -3 1 -4 1 -4 1 -3 1 -4 
1 -3 1 -3 1 -4 1 -3 1 -3 1 -3 1 -3 1 -3 
1 -3 1 -2 1 -3 1 -2 1 -2 1 -2 1 -2 1 -1 
1 -2 1 -1 1 -1 1 -2 1 -1 1 -2 2 -2 1 -2 
1 -3 2 -3 2 -4 1 -4 1 -4 1 -5 2 -5 1 -6 
2 -6 1 -6 2 -7 1 -6 1 -6 2 -7 1 -6 1 -5 
2 -5 1 -4 1 -4 1 -3 1 -2 1 -1 1 0 -1 0 
2 2 2 3 0 3 -1 4 1 4 1 4 0 14 1 4 
0 17 1 5 -1 4 0 20 -1 6 0 21 -1 8 0 9 
-1 9 0 20 -1 11 0 10 -1 11 0 11 -1 11 0 22 
-1 10 0 10 -1 10 -1 9 -1 8 0 8 -1 7 0 19 
-1 6 -1 5 0 6 1792 3135 100 MP stroke
-1 5 -2 4 1 6 -1 5 -1 5 0 11 -1 6 -1 6 
-1 7 0 13 -1 7 0 7 -2 7 -1 6 0 7 -1 6 
-1 6 0 5 -1 5 0 5 -2 4 -1 4 -1 4 -1 3 
-1 2 -1 3 -1 2 0 2 -1 3 -1 2 -1 2 -2 2 
-1 3 -1 3 -1 3 -1 3 -1 4 -2 4 -1 4 -1 4 
-1 5 -1 4 -2 5 -1 4 0 5 -1 4 -2 4 0 4 
-2 3 -2 3 0 3 -1 3 -2 2 -1 2 -2 2 -1 1 
1 2 -2 1 -2 1 -1 2 -1 1 -1 1 -2 2 -1 1 
0 2 -1 2 -1 2 -1 2 -1 2 -2 3 -1 2 -1 2 
-2 2 -1 2 0 1 -1 2 -2 0 -2 1 -1 -1 -1 0 
-1 -1 -1 -2 -2 -1 -1 -2 -2 -2 -1 -2 -1 -1 -2 -2 
-1 -1 -1 -1 0 -1 -2 0 -1 0 -1 0 -1 1 -1 1 
-2 1 -1 2 -1 2 1897 2865 100 MP stroke
-2 2 -1 2 -1 2 -1 1 -2 1 -1 1 -1 0 -1 -1 
-2 -1 -1 -2 -1 -4 -1 -4 -2 -5 -1 -6 -1 -7 -1 -8 
-2 -9 -1 -9 -1 -10 -1 -10 -2 -11 -1 -10 -1 -11 -1 -10 
-1 -11 -1 -9 -1 -10 -1 -8 -3 -8 1 -7 0 -6 -2 -6 
0 -5 -1 -3 -1 -3 0 -2 -1 -2 -1 -1 -1 1 0 3 
-1 2 0 3 -1 2 0 11 -1 2 0 9 1 2 -1 2 
0 2 1 3 1 2 0 6 1 3 -1 3 1 3 0 6 
1 4 -1 3 1 3 0 3 1 3 0 12 1 3 0 46 
-1 3 0 16 -1 3 0 4 -1 2 0 5 -1 2 0 4 
-1 3 0 2 -1 2 0 3 -1 2 0 2 -1 2 -1 2 
0 4 -1 2 0 1 -1 1 -1 1 -1 0 -1 -1 0 -1 
-1 -1 0 -1 -1 -1 -1 0 1 0 -2 3 -1 2 0 12 
-1 6 0 6 -1 6 1958 2817 100 MP stroke
0 13 -1 6 0 16 -1 0 0 -2 -1 -5 -1 -8 0 -46 
-1 -25 -1 -30 0 -129 -1 -58 1 -69 -1 -81 1965 3235 15 MP stroke
gr

c8
0 sg
%%IncludeResource: font Helvetica
/Helvetica /WindowsLatin1Encoding 120 FMSR

2024  294 mt 
(Experiment 3a - Analog magnetometers - Bias of position) s
2502 4902 mt 
(Distance to center of sensor network [m]) s
 605 2769 mt  -90 rotate
(Bias [mm]) s
90 rotate

end %%Color Dict

eplot
%%EndObject

epage
end

showpage

%%Trailer
%%EOF
