%!PS-Adobe-2.0 EPSF-1.2
%%Creator: MATLAB, The MathWorks, Inc. Version 7.13.0.564 (R2011b). Operating System: Microsoft Windows 7.
%%Title: ..\figures\analog_ort_pos_bias.eps
%%CreationDate: 11/13/2012  17:43:15
%%DocumentNeededFonts: Helvetica
%%DocumentProcessColors: Cyan Magenta Yellow Black
%%Extensions: CMYK
%%Pages: 1
%%BoundingBox:    56   199   549   602
%%EndComments

%%BeginProlog
% MathWorks dictionary
/MathWorks 160 dict begin
% definition operators
/bdef {bind def} bind def
/ldef {load def} bind def
/xdef {exch def} bdef
/xstore {exch store} bdef
% operator abbreviations
/c  /clip ldef
/cc /concat ldef
/cp /closepath ldef
/gr /grestore ldef
/gs /gsave ldef
/mt /moveto ldef
/np /newpath ldef
/cm /currentmatrix ldef
/sm /setmatrix ldef
/rm /rmoveto ldef
/rl /rlineto ldef
/s {show newpath} bdef
/sc {setcmykcolor} bdef
/sr /setrgbcolor ldef
/sg /setgray ldef
/w /setlinewidth ldef
/j /setlinejoin ldef
/cap /setlinecap ldef
/rc {rectclip} bdef
/rf {rectfill} bdef
% page state control
/pgsv () def
/bpage {/pgsv save def} bdef
/epage {pgsv restore} bdef
/bplot /gsave ldef
/eplot {stroke grestore} bdef
% orientation switch
/portraitMode 0 def /landscapeMode 1 def /rotateMode 2 def
% coordinate system mappings
/dpi2point 0 def
% font control
/FontSize 0 def
/FMS {/FontSize xstore findfont [FontSize 0 0 FontSize neg 0 0]
  makefont setfont} bdef
/ISOLatin1Encoding where {pop /WindowsLatin1Encoding 256 array bdef
ISOLatin1Encoding WindowsLatin1Encoding copy pop
/.notdef/.notdef/quotesinglbase/florin/quotedblbase/ellipsis/dagger
/daggerdbl/circumflex/perthousand/Scaron/guilsinglleft/OE/.notdef/.notdef
/.notdef/.notdef/quoteleft/quoteright/quotedblleft/quotedblright/bullet
/endash/emdash/tilde/trademark/scaron/guilsinglright/oe/.notdef/.notdef
/Ydieresis WindowsLatin1Encoding 128 32 getinterval astore pop}
{/WindowsLatin1Encoding StandardEncoding bdef} ifelse
/reencode {exch dup where {pop load} {pop StandardEncoding} ifelse
  exch dup 3 1 roll findfont dup length dict begin
  { 1 index /FID ne {def}{pop pop} ifelse } forall
  /Encoding exch def currentdict end definefont pop} bdef
/isroman {findfont /CharStrings get /Agrave known} bdef
/FMSR {3 1 roll 1 index dup isroman {reencode} {pop pop} ifelse
  exch FMS} bdef
/csm {1 dpi2point div -1 dpi2point div scale neg translate
 dup landscapeMode eq {pop -90 rotate}
  {rotateMode eq {90 rotate} if} ifelse} bdef
% line types: solid, dotted, dashed, dotdash
/SO { [] 0 setdash } bdef
/DO { [.5 dpi2point mul 4 dpi2point mul] 0 setdash } bdef
/DA { [6 dpi2point mul] 0 setdash } bdef
/DD { [.5 dpi2point mul 4 dpi2point mul 6 dpi2point mul 4
  dpi2point mul] 0 setdash } bdef
% macros for lines and objects
/L {lineto stroke} bdef
/MP {3 1 roll moveto 1 sub {rlineto} repeat} bdef
/AP {{rlineto} repeat} bdef
/PDlw -1 def
/W {/PDlw currentlinewidth def setlinewidth} def
/PP {closepath eofill} bdef
/DP {closepath stroke} bdef
/MR {4 -2 roll moveto dup  0 exch rlineto exch 0 rlineto
  neg 0 exch rlineto closepath} bdef
/FR {MR stroke} bdef
/PR {MR fill} bdef
/L1i {{currentfile picstr readhexstring pop} image} bdef
/tMatrix matrix def
/MakeOval {newpath tMatrix currentmatrix pop translate scale
0 0 1 0 360 arc tMatrix setmatrix} bdef
/FO {MakeOval stroke} bdef
/PO {MakeOval fill} bdef
/PD {currentlinewidth 2 div 0 360 arc fill
   PDlw -1 eq not {PDlw w /PDlw -1 def} if} def
/FA {newpath tMatrix currentmatrix pop translate scale
  0 0 1 5 -2 roll arc tMatrix setmatrix stroke} bdef
/PA {newpath tMatrix currentmatrix pop	translate 0 0 moveto scale
  0 0 1 5 -2 roll arc closepath tMatrix setmatrix fill} bdef
/FAn {newpath tMatrix currentmatrix pop translate scale
  0 0 1 5 -2 roll arcn tMatrix setmatrix stroke} bdef
/PAn {newpath tMatrix currentmatrix pop translate 0 0 moveto scale
  0 0 1 5 -2 roll arcn closepath tMatrix setmatrix fill} bdef
/vradius 0 def /hradius 0 def /lry 0 def
/lrx 0 def /uly 0 def /ulx 0 def /rad 0 def
/MRR {/vradius xdef /hradius xdef /lry xdef /lrx xdef /uly xdef
  /ulx xdef newpath tMatrix currentmatrix pop ulx hradius add uly
  vradius add translate hradius vradius scale 0 0 1 180 270 arc 
  tMatrix setmatrix lrx hradius sub uly vradius add translate
  hradius vradius scale 0 0 1 270 360 arc tMatrix setmatrix
  lrx hradius sub lry vradius sub translate hradius vradius scale
  0 0 1 0 90 arc tMatrix setmatrix ulx hradius add lry vradius sub
  translate hradius vradius scale 0 0 1 90 180 arc tMatrix setmatrix
  closepath} bdef
/FRR {MRR stroke } bdef
/PRR {MRR fill } bdef
/MlrRR {/lry xdef /lrx xdef /uly xdef /ulx xdef /rad lry uly sub 2 div def
  newpath tMatrix currentmatrix pop ulx rad add uly rad add translate
  rad rad scale 0 0 1 90 270 arc tMatrix setmatrix lrx rad sub lry rad
  sub translate rad rad scale 0 0 1 270 90 arc tMatrix setmatrix
  closepath} bdef
/FlrRR {MlrRR stroke } bdef
/PlrRR {MlrRR fill } bdef
/MtbRR {/lry xdef /lrx xdef /uly xdef /ulx xdef /rad lrx ulx sub 2 div def
  newpath tMatrix currentmatrix pop ulx rad add uly rad add translate
  rad rad scale 0 0 1 180 360 arc tMatrix setmatrix lrx rad sub lry rad
  sub translate rad rad scale 0 0 1 0 180 arc tMatrix setmatrix
  closepath} bdef
/FtbRR {MtbRR stroke } bdef
/PtbRR {MtbRR fill } bdef
/stri 6 array def /dtri 6 array def
/smat 6 array def /dmat 6 array def
/tmat1 6 array def /tmat2 6 array def /dif 3 array def
/asub {/ind2 exch def /ind1 exch def dup dup
  ind1 get exch ind2 get sub exch } bdef
/tri_to_matrix {
  2 0 asub 3 1 asub 4 0 asub 5 1 asub
  dup 0 get exch 1 get 7 -1 roll astore } bdef
/compute_transform {
  dmat dtri tri_to_matrix tmat1 invertmatrix 
  smat stri tri_to_matrix tmat2 concatmatrix } bdef
/ds {stri astore pop} bdef
/dt {dtri astore pop} bdef
/db {2 copy /cols xdef /rows xdef mul dup 3 mul string
  currentfile exch readhexstring pop
  dup 0 3 index getinterval /rbmap xdef
  dup 2 index dup getinterval /gbmap xdef
  1 index dup 2 mul exch getinterval /bbmap xdef pop pop}bdef
/it {gs np dtri aload pop moveto lineto lineto cp c
  cols rows 8 compute_transform 
  rbmap gbmap bbmap true 3 colorimage gr}bdef
/il {newpath moveto lineto stroke}bdef
currentdict end def
%%EndProlog

%%BeginSetup
MathWorks begin

0 cap

end
%%EndSetup

%%Page: 1 1
%%BeginPageSetup
%%PageBoundingBox:    56   199   549   602
MathWorks begin
bpage
%%EndPageSetup

%%BeginObject: obj1
bplot

/dpi2point 12 def
portraitMode 0204 7344 csm

  469   110  5918  4844 MR c np
85 dict begin %Colortable dictionary
/c0 { 0.000000 0.000000 0.000000 sr} bdef
/c1 { 1.000000 1.000000 1.000000 sr} bdef
/c2 { 0.900000 0.000000 0.000000 sr} bdef
/c3 { 0.000000 0.820000 0.000000 sr} bdef
/c4 { 0.000000 0.000000 0.800000 sr} bdef
/c5 { 0.910000 0.820000 0.320000 sr} bdef
/c6 { 1.000000 0.260000 0.820000 sr} bdef
/c7 { 0.000000 0.820000 0.820000 sr} bdef
c0
1 j
1 sg
   0    0 6913 5185 PR
6 w
0 4225 5356 0 0 -4225 899 4614 4 MP
PP
-5356 0 0 4225 5356 0 0 -4225 899 4614 5 MP stroke
4 w
DO
SO
6 w
0 sg
 899  389 mt 6255  389 L
 899 4614 mt 6255 4614 L
6255 4614 mt 6255  389 L
 899 4614 mt  899  389 L
 899 4614 mt 6255 4614 L
 899 4614 mt  899  389 L
 899 4614 mt  899 4560 L
 899  389 mt  899  442 L
%%IncludeResource: font Helvetica
/Helvetica /WindowsLatin1Encoding 120 FMSR

 783 4759 mt 
(0.12) s
1494 4614 mt 1494 4560 L
1494  389 mt 1494  442 L
1378 4759 mt 
(0.14) s
2089 4614 mt 2089 4560 L
2089  389 mt 2089  442 L
1973 4759 mt 
(0.16) s
2684 4614 mt 2684 4560 L
2684  389 mt 2684  442 L
2568 4759 mt 
(0.18) s
3279 4614 mt 3279 4560 L
3279  389 mt 3279  442 L
3196 4759 mt 
(0.2) s
3874 4614 mt 3874 4560 L
3874  389 mt 3874  442 L
3758 4759 mt 
(0.22) s
4469 4614 mt 4469 4560 L
4469  389 mt 4469  442 L
4353 4759 mt 
(0.24) s
5064 4614 mt 5064 4560 L
5064  389 mt 5064  442 L
4948 4759 mt 
(0.26) s
5659 4614 mt 5659 4560 L
5659  389 mt 5659  442 L
5543 4759 mt 
(0.28) s
6255 4614 mt 6255 4560 L
6255  389 mt 6255  442 L
6172 4759 mt 
(0.3) s
 899 4614 mt  925 4614 L
6255 4614 mt 6228 4614 L
 899 4614 mt  952 4614 L
6255 4614 mt 6201 4614 L
 687 4658 mt 
(10) s
%%IncludeResource: font Helvetica
/Helvetica /WindowsLatin1Encoding 80 FMSR

 820 4584 mt 
(0) s
 899 3978 mt  925 3978 L
6255 3978 mt 6228 3978 L
 899 3606 mt  925 3606 L
6255 3606 mt 6228 3606 L
 899 3342 mt  925 3342 L
6255 3342 mt 6228 3342 L
 899 3137 mt  925 3137 L
6255 3137 mt 6228 3137 L
 899 2970 mt  925 2970 L
6255 2970 mt 6228 2970 L
 899 2828 mt  925 2828 L
6255 2828 mt 6228 2828 L
 899 2706 mt  925 2706 L
6255 2706 mt 6228 2706 L
 899 2598 mt  925 2598 L
6255 2598 mt 6228 2598 L
 899 2501 mt  925 2501 L
6255 2501 mt 6228 2501 L
 899 2501 mt  952 2501 L
6255 2501 mt 6201 2501 L
%%IncludeResource: font Helvetica
/Helvetica /WindowsLatin1Encoding 120 FMSR

 687 2545 mt 
(10) s
%%IncludeResource: font Helvetica
/Helvetica /WindowsLatin1Encoding 80 FMSR

 820 2471 mt 
(1) s
 899 1865 mt  925 1865 L
6255 1865 mt 6228 1865 L
 899 1493 mt  925 1493 L
6255 1493 mt 6228 1493 L
 899 1229 mt  925 1229 L
6255 1229 mt 6228 1229 L
 899 1024 mt  925 1024 L
6255 1024 mt 6228 1024 L
 899  857 mt  925  857 L
6255  857 mt 6228  857 L
 899  716 mt  925  716 L
6255  716 mt 6228  716 L
 899  593 mt  925  593 L
6255  593 mt 6228  593 L
 899  485 mt  925  485 L
6255  485 mt 6228  485 L
 899  389 mt  925  389 L
6255  389 mt 6228  389 L
 899  389 mt  952  389 L
6255  389 mt 6201  389 L
%%IncludeResource: font Helvetica
/Helvetica /WindowsLatin1Encoding 120 FMSR

 687  433 mt 
(10) s
%%IncludeResource: font Helvetica
/Helvetica /WindowsLatin1Encoding 80 FMSR

 820  359 mt 
(2) s
 899  389 mt 6255  389 L
 899 4614 mt 6255 4614 L
6255 4614 mt 6255  389 L
 899 4614 mt  899  389 L
gs 899 389 5357 4226 MR c np
/c8 { 0.000000 0.000000 1.000000 sr} bdef
c8
14 378 8 248 10 193 8 151 19 123 4 102 0 86 11 70 
3 57 10 47 7 36 2 28 16 20 5 13 1 8 12 2 
11 -2 7 -5 9 -8 20 -10 5 -11 1 -12 15 -12 2 -12 
5 -10 8 -9 -1 -7 10 -5 5 -3 11 -2 7 1 0 2 
13 3 1 4 4 5 10 5 2 6 10 6 4 5 7 5 
-4 5 -2 4 17 3 2 3 14 2 21 2 11 1 9 1 
2 1 8 1 0 1 6 1 15 2 6 3 8 3 5 4 
10 5 2 6 6 7 22 7 3 9 5 9 12 10 -1 11 
7 11 10 10 10 11 7 10 7 10 5 10 6 9 9 8 
4 7 10 6 10 5 6 4 11 3 6 2 4 1 5 0 
8 -1 7 -2 -2 -3 10 -3 15 -5 4 -4 11 -6 10 -6 
0 -6 3 -7 8 -8 6 -7 6 -8 8 -8 11 -9 15 -9 
5 -10 -1 -9 10 -11 2895 2325 100 MP stroke
6 -11 7 -11 11 -12 -6 -12 13 -13 22 -14 -5 -14 5 -14 
9 -15 0 -15 5 -16 2 -16 9 -17 4 -17 7 -17 13 -18 
2 -19 6 -19 4 -19 4 -20 7 -20 0 -21 7 -21 8 -21 
6 -21 6 -21 0 -21 -1 -20 -1 -19 2 -19 1 -17 -4 -17 
2 -14 4 -13 3 -12 6 -10 -1 -9 0 -9 1 -5 -1 -6 
4 -4 -2 -4 -2 -4 8 -3 -12 -4 -9 -3 5 -4 -2 -5 
0 -5 -2 -5 -3 -6 2 -7 -3 -8 -3 -8 -3 -8 -3 -9 
-8 -10 -4 -9 5 -9 -8 -10 -4 -9 -1 -10 -6 -9 0 -8 
-5 -8 -3 -8 -5 -7 -7 -8 5 -6 -9 -6 -13 -6 -1 -5 
-5 -4 -4 -5 -3 -3 -6 -4 -6 -3 -4 -3 -5 -2 -4 -2 
1 -2 -6 -2 -14 -2 -4 -1 -6 -2 -12 -1 -6 -1 -3 -1 
-4 -1 -7 0 -4 0 -5 0 -9 0 -3 0 -7 1 -15 0 
-8 1 -7 1 -12 2 2989 3199 100 MP stroke
-11 0 -5 2 -6 1 -7 0 -8 0 -11 0 -4 0 -7 -1 
-22 -2 -16 -2 -5 -2 -9 -3 -13 -3 -7 -3 -10 -4 -13 -4 
-10 -4 -16 -3 -8 -4 -10 -3 -7 -2 -3 -3 -24 -2 -21 -1 
-11 -1 -14 -1 -6 0 -13 1 -16 1 -9 1 -12 2 -13 2 
-5 2 -13 3 -27 3 -15 3 -9 3 -11 4 -10 3 -14 4 
-13 4 -14 4 -11 4 -11 4 -15 4 -20 3 -17 3 -11 4 
-20 2 -6 3 -23 2 -34 -1 1 2 -18 -1 -15 -1 5 -1 
-19 -2 -12 -2 -14 -3 -27 -3 -20 -3 -15 -4 -14 -2 -15 -3 
-13 -2 -31 -3 -14 -1 3 -2 -21 -1 -13 -1 -13 0 -17 0 
-12 0 -14 1 -11 1 -16 2 -12 2 -24 1 -16 3 6 3 
-19 3 -9 4 -8 4 -18 4 -2 4 -24 4 -14 5 0 5 
-11 5 0 6 -4 4 -10 5 -8 5 -10 5 -6 4 -10 4 
-11 3 -5 4 -9 2 4194 3116 100 MP stroke
-7 3 -6 2 -12 2 -6 3 -1 2 -15 2 2 2 1 3 
-29 2 -15 3 -5 3 2 4 6 3 -9 4 3 3 1 2 
-16 3 -10 2 -15 2 -1 1 -1 0 -22 0 -1 -1 -5 -1 
-13 -2 2 -2 -14 -2 0 -3 -8 -3 -25 -3 4 -3 -17 -3 
-11 -2 13 -2 -14 -2 -6 -1 0 -1 -8 -1 -3 -1 -8 0 
-3 0 -8 0 -9 0 -4 0 -5 0 -4 -1 -4 0 -6 -1 
-4 -1 -4 -1 0 -1 -10 -2 2 -1 0 -1 -8 -1 3 -2 
-5 -1 -1 -1 0 -2 -3 -1 2 -1 -1 -1 2 -1 -2 -1 
0 -1 1 -1 -2 0 3 0 -2 0 3 0 1 0 -1 1 
7 1 0 1 2 2 -2 1 2 2 14 1 -3 2 -3 1 
6 1 9 1 -3 0 20 -1 10 -2 -4 -2 1 -2 0 -8 
-2 -5 10 -5 12 -6 -4 -6 1 -6 0 -7 4 -7 6 -6 
-6 -7 1 -6 6 -5 4448 3188 100 MP stroke
-2 -6 17 -4 13 -4 -4 -4 4 -3 -1 -2 2 -2 10 -1 
1 -1 6 -1 3 0 3 0 4 0 1 0 9 0 1 1 
3 0 16 -1 1 0 -3 0 5 -1 2 -1 8 -1 7 -1 
0 -2 6 -2 6 -3 -3 -3 7 -2 5 -4 4 -3 10 -3 
-1 -4 4 -3 7 -4 6 -3 6 -4 1 -4 23 -3 18 -5 
-4 -2 1 -2 0 -3 4 -3 6 -2 10 -2 13 -2 -2 -2 
5 -2 20 -2 6 -2 1 -1 13 -2 4 -2 6 -2 25 -3 
10 -3 -4 -1 2 -2 7 -2 17 -3 2 -2 4 -2 19 -1 
4 -2 11 -1 30 -1 6 0 -4 1 3 0 11 1 25 0 
2 2 0 1 28 2 6 3 5 2 18 2 0 3 8 2 
11 3 15 4 20 2 -2 4 8 4 18 4 2 4 20 5 
20 5 -2 5 8 6 12 6 9 7 16 7 10 7 15 8 
15 8 13 8 23 9 3694 3201 100 MP stroke
7 9 1 10 14 9 13 10 14 10 11 10 20 11 18 10 
7 10 12 11 15 10 18 10 6 11 18 10 24 10 -1 10 
14 11 22 10 14 10 19 10 10 9 13 10 14 10 11 9 
15 9 20 9 25 9 14 10 11 9 13 8 11 9 12 9 
14 9 11 8 10 9 20 8 22 9 16 8 7 8 12 7 
22 8 -7 7 13 6 30 7 11 6 36 5 9 6 2 4 
28 5 3 3 13 3 15 3 10 1 22 2 7 0 12 0 
20 0 20 -1 9 -2 8 -2 16 -1 15 -2 27 -2 2 -1 
1 -2 24 0 6 0 22 0 17 1 10 1 25 2 2 3 
6 3 12 4 9 3 9 4 6 4 28 5 12 4 8 4 
13 4 -8 4 18 4 24 4 -4 3 18 4 22 2 0 5 
7 4 12 3 4 4 10 4 6 4 4 4 13 4 -8 4 
2 5 15 4 1 5 2458 2657 100 MP stroke
13 5 10 5 1 5 12 4 6 5 5 4 8 5 6 4 
2 4 1 5 5 4 0 4 5 5 9 5 4 5 6 5 
3 5 2 6 5 6 3 7 2 6 2 7 2 7 3 7 
2 7 0 7 2 7 5 7 1 7 0 6 1 7 7 5 
5 6 -5 5 -1 5 0 4 -2 3 1 3 -3 3 0 2 
1 1 -4 1 -1 0 1 0 -1 0 -1 -1 3 -1 -3 -2 
-12 -2 -6 -2 -3 -2 -4 -3 -5 -2 -5 -3 -8 -2 -6 -3 
-2 -2 -11 -2 -9 -3 0 -2 -5 -2 -9 -1 -10 -2 -8 -2 
-9 -3 -8 -2 -5 -3 -13 -3 -12 -3 -13 -4 -19 -4 -2 -4 
-7 -5 -17 -6 -7 -5 -11 -6 -11 -6 -13 -6 -10 -6 -9 -6 
-32 -6 -13 -6 0 -4 -14 -5 -5 -4 -16 -4 -15 -3 -10 -3 
-19 -1 -10 -2 -15 0 -17 -1 -11 1 -16 0 -14 1 -15 2 
-12 2 -14 2 -16 2 2868 2586 100 MP stroke
-11 2 -16 2 -15 2 -14 2 -13 1 -13 1 -18 1 -13 0 
-16 0 -14 0 -13 -1 -13 -1 -11 -1 -21 -2 -17 -2 -14 -3 
-14 -3 -16 -3 -12 -3 -12 -4 -26 -3 -12 -4 -10 -4 -22 -4 
-7 -4 -19 -4 -19 -4 -9 -4 -16 -4 -15 -4 -13 -4 -11 -4 
-20 -3 -16 -4 -11 -3 -17 -4 -10 -4 -16 -4 -17 -4 -15 -4 
-18 -4 -10 -5 -16 -4 -10 -5 -14 -5 -21 -6 -13 -6 -14 -5 
-11 -6 -17 -6 -14 -6 -11 -7 -26 -5 -13 -6 -7 -6 -13 -5 
-15 -5 -13 -5 -9 -4 -28 -3 -13 -4 -13 -2 -27 -3 -1 -1 
-6 -2 -18 -1 -4 0 -16 -1 -24 0 -10 -1 -12 0 -17 0 
-12 -1 -16 0 -12 -1 -7 0 -24 -1 -19 -1 -9 -1 -12 -1 
-12 -1 -16 0 -17 -1 -15 -1 -17 0 -17 -1 -11 0 -12 0 
-13 0 -17 0 -16 -1 -13 0 -18 0 -15 -1 -15 -1 -15 -1 
-9 -1 -17 -1 -12 -2 4297 2812 100 MP stroke
-12 -1 -22 -2 -15 -2 -14 -2 -14 -2 -16 -2 -13 -2 -5 -2 
-17 -1 -14 -1 -13 -1 -17 0 -12 -1 -15 0 -12 0 -13 1 
-12 1 -7 1 -12 1 -14 2 -11 1 -11 1 -11 1 -11 1 
-10 1 -12 0 -14 1 -11 0 -8 -1 -13 0 -10 -1 -9 -1 
-12 -1 -9 -2 -12 -1 -10 -2 -4 -2 -10 -3 -12 -3 -8 -3 
-8 -3 -12 -4 -10 -5 -9 -4 -13 -6 -8 -5 -6 -6 -9 -7 
-5 -7 -9 -7 -12 -8 -10 -7 -7 -8 -9 -8 -14 -7 -8 -7 
-8 -7 -13 -6 -6 -5 -8 -5 -7 -4 -6 -4 -14 -2 1 -3 
-13 -1 -25 -2 12 0 2 -1 -21 -1 -3 -1 -2 0 -10 -2 
-9 -1 -6 -3 -11 -2 -9 -4 2 -4 -9 -4 -9 -6 -3 -6 
-10 -6 -5 -7 -5 -7 -6 -7 -7 -8 -9 -8 -6 -7 -5 -8 
-5 -7 -7 -7 -5 -6 -4 -6 -6 -6 -5 -5 -5 -4 -6 -3 
-8 -4 -6 -2 -4 -1 5212 3121 100 MP stroke
-5 -1 -4 -1 -6 1 -2 0 -8 1 5 2 11 1 -12 1 
3 2 -5 2 -11 1 12 0 1 0 -2 0 -2 -1 -3 -2 
2 -2 -1 -4 2 -4 0 -10 1 -6 7 -7 15 -8 -13 -8 
-10 -10 18 -9 10 -10 0 -20 8 -11 5 -10 -7 -10 2 -10 
8 -10 4 -8 6 -9 7 -7 -1 -7 4 -6 14 -5 8 -5 
9 -4 17 -4 4 -2 4 -3 9 -3 0 -2 11 -2 18 -2 
6 -2 7 -2 6 -2 5 -2 7 -2 9 -1 20 -2 7 -1 
4 -1 12 -1 7 -1 8 0 6 0 19 0 14 1 1 0 
15 2 8 0 12 1 10 1 2 1 21 0 -1 0 -1 -2 
20 -1 9 -3 11 -3 12 -5 12 -5 5 -7 2 -7 23 -8 
13 -8 9 -10 13 -9 8 -10 13 -9 13 -9 12 -9 10 -8 
9 -7 15 -6 10 -6 14 -5 14 -3 6 -3 16 -2 20 0 
8 0 9 1 14 1 4555 3487 100 MP stroke
9 2 18 3 18 2 11 3 16 2 10 3 4 1 9 1 
15 1 20 0 16 0 13 0 12 -2 18 -1 16 -2 8 0 
13 -1 14 -1 12 1 18 1 12 1 15 2 14 3 11 4 
16 4 13 5 18 6 17 4 8 7 19 6 14 5 6 7 
18 6 13 6 10 5 18 5 13 5 13 5 15 4 14 5 
11 4 13 4 21 4 20 4 8 4 10 4 15 4 11 3 
22 4 23 4 7 4 10 4 13 3 7 4 20 4 18 3 
5 4 15 3 15 3 9 4 24 3 16 2 5 3 13 2 
14 3 14 1 10 2 14 1 14 1 13 1 16 1 10 0 
22 0 17 -1 -3 0 17 0 19 0 13 0 13 -1 9 1 
6 0 10 0 27 1 16 2 5 1 19 2 11 2 13 2 
17 2 13 3 16 3 10 3 13 3 13 4 15 4 18 4 
15 5 14 5 12 5 3202 3234 100 MP stroke
11 6 9 6 14 7 18 7 7 7 23 8 26 7 1 9 
7 8 16 9 4 8 16 8 24 8 10 7 11 7 16 7 
12 6 13 6 13 5 15 5 14 4 13 4 10 3 10 3 
20 3 16 2 9 2 10 1 14 2 18 1 12 1 14 0 
14 1 13 1 11 0 9 1 22 1 14 1 11 1 16 1 
9 1 18 2 15 1 13 2 18 1 7 2 15 1 16 1 
10 1 14 0 17 0 19 -1 10 -1 14 -1 16 -2 13 -2 
14 -3 14 -3 17 -3 13 -4 22 -3 27 -5 3 -2 5 -3 
17 -3 11 -2 17 -2 15 -2 14 -1 18 -1 12 -1 8 0 
15 1 15 1 14 1 19 1 2 2 0 1 37 2 27 1 
0 3 8 1 11 2 13 1 21 1 14 1 13 0 16 0 
11 0 8 -1 13 -1 14 -2 14 -1 14 -2 7 -1 11 -2 
13 -1 11 -1 15 0 1859 3086 100 MP stroke
-2 1 -1 1 18 3 11 3 12 4 10 4 8 6 13 6 
10 6 11 6 14 8 13 7 13 7 10 7 11 7 11 7 
11 7 11 7 10 6 10 6 10 7 10 5 10 6 11 5 
10 5 11 5 6 4 8 3 15 4 10 2 6 1 10 1 
8 -1 7 -2 8 -3 7 -6 8 -7 5 -10 4 -13 6 -15 
10 -19 7 -23 4 -28 6 -33 6 -38 6 -44 4 -52 3 -59 
2 -69 4 -77 -1 -91 4 -98 8 -108 3 -114 0 -105 -4 -70 
9 -12 12 44 -13 97 -4 116 6 123 -3 117 2 107 -2 96 
0 85 -1 75 -5 65 -2 58 -7 49 -2 43 3 36 -6 31 
-1 26 0 21 -3 17 -8 14 -13 10 -2 7 -2 4 -7 3 
-3 0 -5 -1 -7 -3 -4 -3 -7 -5 -7 -6 -7 -6 -5 -7 
-7 -8 -7 -7 -3 -9 -7 -8 -12 -9 -11 -8 -3 -9 -7 -9 
-7 -9 -6 -8 -7 -8 1594 2905 100 MP stroke
-5 -8 -11 -7 -11 -7 -8 -6 -12 -5 -4 -3 -8 -2 -8 -1 
-7 0 -13 2 -4 3 -13 4 -13 6 -5 6 -11 8 -6 7 
-10 9 -8 8 -8 9 -11 8 -8 7 -21 7 -8 6 -1 6 
-10 5 -9 4 -14 3 -7 2 -14 0 -23 0 -9 -2 -9 -2 
-10 -4 -13 -4 -9 -6 -7 -7 -18 -9 -14 -10 -12 -11 -13 -12 
-13 -14 -13 -16 -11 -17 -16 -19 -9 -21 -14 -23 -22 -25 -13 -28 
-13 -30 -14 -32 -17 -35 -11 -38 -13 -41 -18 -45 -16 -47 -16 -52 
-7 -55 -6 -60 -22 -63 -16 -68 -15 -72 -16 -73 -13 -77 -21 -77 
-17 -75 -12 -66 -17 -56 -19 -37 -17 -16 -8 4 -19 28 -30 40 
-13 52 -14 57 -18 57 -15 56 -13 52 -16 49 -23 45 -18 41 
-19 37 -22 32 -14 28 -21 26 -19 22 -15 18 -19 17 -19 14 
-15 12 -17 10 -37 9 -15 8 -10 8 -26 6 -8 6 -27 7 
-15 7 -11 6 -47 5 2989 3420 100 MP stroke
-11 11 -6 9 -22 10 -17 11 -21 10 -13 12 -38 12 -23 11 
2 14 -21 13 -17 12 -19 12 -13 12 -19 11 -34 10 -9 10 
-20 8 -21 8 -4 6 -33 7 -29 4 3 5 -17 3 -22 4 
-12 2 -27 2 -10 2 -21 2 -33 1 3 3 -22 3 -13 3 
-4 3 -34 5 -9 5 -29 5 -24 6 11 8 -20 7 -12 8 
-12 8 -19 9 -10 8 -17 9 -9 9 -16 8 -16 9 -13 8 
-18 8 -7 7 -15 7 -15 7 -9 7 -12 6 -10 5 -15 6 
-9 5 -12 5 -13 4 -9 4 -25 4 -14 5 2 4 -15 4 
-17 5 -11 4 -7 5 -5 5 -13 6 -10 6 -8 7 -12 7 
-5 8 -17 7 -17 9 2 8 -10 9 -12 9 -6 9 -15 9 
-7 8 -4 9 -15 8 -10 8 -9 8 -9 7 -8 7 -10 7 
-9 7 -9 6 -12 6 -6 7 -10 6 -8 6 -1 6 -8 7 
-1 6 1 7 -8 6 4283 2729 100 MP stroke
-13 8 -14 7 -1 7 -2 8 -7 8 -7 8 -7 9 0 8 
-9 9 -10 9 7 9 -5 9 -6 9 0 9 -2 9 -3 8 
-6 9 -3 9 0 9 -4 8 -3 9 -4 8 -3 8 -4 8 
-5 9 -2 8 -4 8 2 8 6 9 -6 8 -6 9 -2 8 
-5 8 -2 9 0 9 -4 8 -4 9 -5 9 0 8 -2 9 
-5 8 3 8 5 8 -8 7 -6 7 3 7 -4 7 -3 6 
0 5 -5 5 -4 5 -2 4 1 4 -6 3 0 3 8 2 
-7 2 -5 2 1 1 -3 1 0 1 -7 0 -2 0 1 0 
-6 -1 -1 -1 -2 -2 -1 -2 1 -2 -2 -3 1 -2 -2 -3 
-4 -4 -3 -3 -2 -4 -1 -4 -5 -4 3 -4 7 -4 -6 -5 
-3 -4 2 -5 -1 -5 0 -5 -5 -4 -2 -5 -1 -5 -4 -5 
5 -6 4 -5 0 -6 -1 -5 -1 -6 -2 -6 -2 -6 2 -6 
-3 -6 -1 -7 6 -7 4503 2447 100 MP stroke
2 -6 1 -7 0 -7 -1 -7 1 -7 1 -7 2 -6 0 -7 
1 -6 4 -6 5 -6 2 -6 -1 -5 3 -5 3 -4 8 -4 
1 -4 -3 -4 9 -3 5 -3 1 -2 4 -2 0 -2 2 -2 
4 -2 5 -1 3 -2 8 -1 10 -2 5 -1 4 -2 -2 -1 
-1 -2 5 -2 3 -2 4 -2 4 -2 3 -2 3 -2 9 -3 
1 -2 -1 -3 10 -2 3 -3 8 -2 7 -2 -1 -2 9 -2 
1 -2 3 -2 5 -2 0 -2 9 -2 3 -2 0 -2 5 -3 
4 -2 9 -3 1 -3 0 -3 9 -3 3 -3 0 -4 5 -3 
3 -4 5 -4 7 -4 3 -5 6 -4 4 -5 2 -5 10 -4 
2 -5 2 -5 7 -5 -1 -4 5 -5 6 -5 0 -5 12 -4 
14 -5 2 -4 3 -4 3 -5 4 -4 7 -4 -2 -4 6 -4 
6 -4 1 -5 13 -3 3 -4 3 -4 9 -3 0 -3 7 -3 
4 -3 0 -3 6 -2 4131 2797 100 MP stroke
7 -2 5 -1 5 -2 15 -1 10 -2 -3 0 1 -1 4 0 
13 -1 4 0 1 0 6 -1 -1 0 15 0 7 0 -5 0 
15 0 5 0 1 1 11 0 0 1 5 0 5 1 12 1 
11 1 1 1 2 1 8 1 3 0 6 1 11 1 -1 0 
11 1 15 0 -4 0 1 0 10 -1 20 0 -4 -1 6 -1 
10 -1 -2 0 12 -1 6 -1 -2 -1 1 -1 4 0 11 -1 
3 0 -4 0 7 0 15 1 -2 0 2 1 13 0 -3 1 
8 0 5 0 19 -1 4 0 -1 -1 -1 -2 2 -2 9 -2 
-1 -2 14 -2 11 -3 -5 -2 2 -3 1 -2 11 -3 5 -2 
-3 -1 11 -2 11 -1 10 0 8 -1 6 0 3 0 5 0 
14 0 -2 0 4 -1 17 0 1 0 3 -1 6 -1 7 -1 
16 -2 5 -1 -4 -2 5 -2 10 -2 7 -2 6 -2 9 -2 
-1 -3 13 -2 32 -3 3544 2862 100 MP stroke
-5 -2 -3 -2 18 -2 0 -3 5 -2 4 -2 5 -2 16 -2 
1 -2 6 -2 5 -2 12 -1 30 -3 2 -1 -4 -1 3 -1 
-1 -2 12 -1 10 -2 8 -2 9 -2 6 -2 15 -3 8 -3 
8 -4 24 -4 8 -5 -9 -4 12 -5 13 -6 -1 -6 9 -7 
9 -6 9 -7 10 -6 8 -7 7 -6 7 -6 18 -6 12 -5 
2 -5 12 -4 9 -3 12 -3 11 -2 16 -2 15 -1 -4 1 
11 0 14 1 4 2 24 2 11 2 0 3 16 2 15 3 
12 2 10 3 7 2 11 2 10 1 9 2 10 1 9 1 
11 1 14 0 11 1 12 1 9 1 10 1 9 0 13 1 
22 0 1 1 5 0 17 0 5 -1 15 0 12 -1 10 -1 
19 -1 7 -1 8 -1 10 -1 11 -1 12 -1 8 -1 11 -1 
9 -1 11 0 12 -1 10 -1 13 -1 9 -1 12 -1 12 -1 
11 -2 12 -2 6 -2 2613 3006 100 MP stroke
21 -2 14 -3 -2 -2 12 -3 7 -2 15 -3 16 -2 2 -2 
15 -1 8 -1 6 -1 21 0 5 1 2 1 12 1 9 0 
11 2 9 3 8 1 11 1 9 0 6 1 5 0 9 0 
8 -1 6 -4 6 0 8 -3 6 -3 4 -3 12 -4 9 -4 
-3 -3 7 -4 10 -3 0 -2 3 -3 7 -1 9 -1 2 -1 
5 1 15 0 4 1 1 2 4 1 2 2 3 2 3 0 
6 1 2 0 3 -1 8 -2 3 -3 8 -5 3 -4 0 -6 
6 -6 3 -6 3 -5 4 -5 1 -3 3 -2 4 2 3 3 
-1 8 3 9 5 14 -1 16 3 19 3 20 0 22 3 23 
2 23 1 23 3 23 -1 21 1 21 2 20 -1 19 -2 18 
-1 16 0 43 -1 13 0 12 -1 11 0 11 1 10 -1 9 
-1 9 0 8 -2 8 -4 8 -2 7 -2 6 -3 6 -3 6 
-3 5 -2 4 -3 4 2199 2595 100 MP stroke
-3 4 -5 3 -1 3 -2 2 -7 1 -6 1 -4 1 -3 1 
-6 -1 -5 0 -7 -1 -6 -2 -4 -1 -5 -2 -7 -3 -8 -3 
-9 -3 -6 -3 -6 -3 -7 -4 -7 -4 -8 -4 -6 -4 -7 -4 
-10 -4 -8 -4 -6 -5 -9 -4 -7 -4 -8 -4 -10 -4 -9 -4 
-9 -4 -8 -4 -12 -3 -11 -4 -9 -4 -9 -3 -6 -4 -10 -4 
-11 -3 -9 -3 -10 -4 -7 -3 -10 -3 -16 -3 -12 -3 -8 -2 
-8 -2 -11 -3 -9 -2 -13 -2 -11 -2 -6 -2 -13 -1 -13 -2 
-9 -2 -10 -2 -10 -2 -9 -2 -13 -3 -11 -2 -10 -3 -11 -3 
-10 -4 -10 -3 -11 -4 -8 -4 -11 -5 -12 -4 -10 -5 -8 -4 
-12 -5 -14 -5 -10 -4 -11 -4 -11 -5 -12 -4 -10 -4 -9 -3 
-16 -4 -9 -3 -12 -3 -21 -3 -3 -2 -4 -2 -16 -2 -4 -2 
-12 -2 -22 -1 -11 -2 -17 -1 2 0 19 -1 -16 -1 -11 -1 
-5 -1 -18 -2 -4 -2 3074 2845 100 MP stroke
-16 -3 -18 -3 -8 -5 -12 -5 -8 -6 -16 -6 -6 -7 -14 -7 
-43 -8 -20 -8 -8 -8 -14 -8 -10 -7 -13 -8 -10 -7 -10 -7 
-12 -6 -11 -6 -12 -6 -11 -5 -12 -5 -12 -4 -10 -4 -10 -3 
-14 -2 -9 -2 -10 -1 -14 0 -9 0 -15 0 -10 2 -11 1 
-13 2 1 2 -10 1 -12 2 -9 1 -16 1 -15 0 -13 0 
-7 -2 -20 -2 -17 -3 1 -4 -11 -5 -12 -5 -5 -6 -15 -7 
-20 -7 -8 -8 -10 -7 -25 -9 -8 -7 0 -8 -14 -7 -10 -6 
-10 -7 -11 -5 -11 -5 -10 -4 -14 -4 -11 -3 -9 -2 -15 -1 
-6 -1 -18 -1 -15 0 1 0 -10 0 -10 0 -17 0 -13 0 
3 -1 -10 -1 -16 -2 -21 -3 -4 -3 -11 -5 -29 -9 4 -4 
1 -6 -4 -9 2 -11 -18 -9 -12 -12 -4 -12 -4 -13 -13 -13 
-14 -14 1 -14 -14 -14 -13 -15 1 -13 -13 -13 -12 -13 -5 -12 
-10 -11 -4 -10 5 -9 4143 3357 100 MP stroke
-12 -7 -16 -7 1 -5 -6 -3 -6 -3 -5 -1 -15 0 -4 0 
1 2 3 2 -6 3 -17 3 -4 3 -7 3 3 3 3 2 
-24 1 -4 2 12 -1 -12 0 -9 -1 -4 -3 -5 -3 1 -5 
-3 -5 -5 -6 -4 -6 -4 -8 -4 -8 -6 -9 -2 -9 3 -9 
-1 -10 1 -10 0 -11 -12 -10 -7 -10 6 -11 -6 -10 -10 -11 
4 -10 -3 -10 -3 -11 6 -10 -4 -10 -9 -9 0 -20 -2 -10 
-1 -9 -3 -10 1 -9 0 -9 3 -10 -4 -9 -8 -9 5 -9 
-2 -10 -1 -10 6 -11 -6 -10 -4 -10 1 -11 -6 -11 -1 -12 
-1 -11 0 -11 -1 -11 -4 -10 2 -8 2 -7 -1 -6 -1 -3 
-2 -1 2 2 1 4 -1 8 4 11 0 15 -3 17 1 20 
1 23 3 25 2 26 3 29 1 29 -3 31 2 31 1 31 
3 32 2 31 3 30 6 31 -4 30 2 29 7 27 0 28 
3 27 3 25 0 25 4327 3215 100 MP stroke
2 23 4 23 3 22 1 21 3 19 1 19 4 18 3 16 
0 16 7 14 2 13 5 12 3 11 3 9 6 8 1 7 
6 5 4 4 4 3 10 2 0 1 3 -1 5 -2 3 -2 
6 -4 8 -4 10 -5 2 -6 3 -6 7 -8 5 -7 8 -9 
8 -8 3 -10 7 -9 8 -10 4 -11 4 -10 7 -11 7 -11 
6 -12 7 -11 11 -11 6 -12 2 -11 14 -12 3 -11 2 -10 
17 -11 8 -11 -1 -9 3 -10 13 -9 4 -9 5 -8 16 -8 
-2 -7 1 -8 8 -7 6 -7 16 -6 8 -7 5 -7 -3 -6 
-2 -7 21 -6 9 -8 -1 -6 7 -7 5 -6 4 -7 4 -7 
5 -7 2 -7 3 -7 4 -7 3 -6 3 -6 1 -7 4 -5 
8 -6 4 -5 1 -6 2 -4 -2 -5 0 -5 11 -3 3 -4 
-4 -3 9 -3 6 -3 -6 -1 -2 -1 3 -1 0 1 -4 0 
1 2 5 3 1 4 3884 3449 100 MP stroke
0 4 3 5 1 6 -2 6 0 7 -4 7 0 7 2 8 
-2 7 0 8 -2 8 1 7 2 8 -3 7 0 7 -2 6 
0 6 3 6 -6 5 -7 5 2 5 -2 4 -1 4 4 4 
-1 4 2 3 0 4 -10 3 -5 4 1 4 -1 5 -3 4 
-1 5 -3 6 -4 5 -2 6 2 7 1 8 -6 7 -1 8 
-1 9 0 9 9 9 -7 9 -13 10 1 10 -1 10 -1 10 
-4 9 -3 10 0 19 -1 9 -5 9 -4 8 0 15 -4 6 
-6 6 2 6 1 5 -1 5 -1 4 -11 4 -4 4 1 4 
-5 3 0 4 -2 3 -2 4 1 4 -3 4 -3 4 -6 4 
-11 5 3 5 8 6 -4 5 -4 6 -1 6 -3 6 0 6 
-1 6 -1 6 -1 6 -2 5 1 5 -4 5 -9 5 1 4 
2 4 -4 4 1 3 4 2 -2 3 -2 1 0 3 -2 1 
-1 0 2 1 -2 0 4033 2881 100 MP stroke
2 0 -3 0 -4 0 1 1 -9 1 -2 1 4 1 -4 1 
1 1 1 2 -1 2 2 3 1 2 2 3 0 3 1 3 
2 3 -1 3 2 4 1 3 1 3 2 3 -1 3 -1 3 
5 3 1 3 -10 3 -1 2 2 3 -2 2 4 3 -4 2 
-3 2 1 2 -6 2 0 3 3 2 1 2 3 2 4 2 
4 2 0 2 4 2 2 2 0 2 2 2 0 2 4 2 
2 2 0 3 3 2 0 2 1 2 1 2 1 2 3 2 
1 3 1 2 2 2 3 3 3 2 3 2 0 3 2 2 
2 2 1 2 3 2 4 2 2 2 2 2 2 1 0 2 
3 1 7 0 0 1 6 1 2 0 5 -1 3 0 7 0 
5 0 2 0 12 1 4 0 2 1 12 1 0 2 6 2 
12 2 5 3 10 3 7 3 5 4 10 3 5 4 6 4 
6 4 7 4 6 4 3825 2680 100 MP stroke
5 4 12 4 6 3 11 3 22 3 1 3 3 3 11 3 
3 2 14 2 8 2 8 2 11 2 4 3 14 2 3 2 
11 2 13 2 3 3 22 2 7 2 3 2 19 2 1 2 
6 1 12 1 8 0 17 0 7 0 6 0 13 -1 5 0 
8 -1 13 -1 9 0 7 -1 9 0 8 0 13 0 9 1 
4 0 16 1 10 1 7 2 13 2 5 2 3 2 6 2 
3 3 9 3 15 3 12 4 5 4 8 4 9 5 1 6 
2 6 6 7 3 7 6 8 5 9 2 9 10 10 6 10 
-1 12 5 11 4 12 2 12 5 13 1 12 1 13 3 12 
4 13 7 12 1 13 0 12 5 12 3 13 0 12 2 12 
0 11 1 12 2 11 -4 12 -2 11 3 12 6 11 4 11 
-2 11 3 11 2 10 -5 10 2 10 -1 9 -5 9 -2 8 
1 7 7 6 -1 6 3243 2127 100 MP stroke
-1 4 2 4 -4 2 5 2 -5 0 -11 -1 4 -2 0 -3 
-3 -5 2 -5 2 -7 1 -7 -5 -9 -2 -9 -4 -10 -5 -11 
3 -12 -1 -12 -2 -13 1 -13 -2 -14 -3 -13 -2 -14 -7 -13 
-6 -14 1 -12 2 -13 -3 -12 -6 -12 3 -12 -3 -11 -15 -11 
2 -10 -5 -10 -9 -9 5 -9 -7 -9 -4 -9 -2 -9 -5 -9 
-3 -8 -10 -9 -3 -9 -5 -9 -6 -9 -4 -9 -9 -9 0 -9 
-12 -9 -17 -10 0 -8 -2 -8 -4 -7 -13 -7 -6 -7 3 -5 
-18 -5 -14 -3 -5 -3 -10 -2 -6 -1 -12 -1 -7 0 -4 1 
-12 0 -14 1 -14 1 -3 0 -8 0 -14 0 -18 -1 -20 -2 
-3 -2 -14 -3 -10 -3 -9 -4 -9 -4 -4 -5 -21 -5 -18 -5 
-10 -6 -15 -5 -11 -6 -14 -5 -11 -6 -13 -5 -31 -5 -12 -5 
1 -4 -19 -4 -11 -3 -12 -3 -27 -3 -15 -2 -12 -1 -10 -1 
-15 -1 -17 -1 -5 0 3949 2703 100 MP stroke
-24 -1 -26 0 -7 0 -17 0 -16 0 -14 0 -20 -1 -16 0 
-17 -1 -17 -1 -15 -1 -17 -1 -20 -1 -20 -2 -18 -1 -15 -2 
-15 -2 -18 -2 -15 -2 -21 -3 -14 -2 -17 -3 -19 -2 -12 -3 
-34 -2 -20 -2 3 -1 -20 -2 -16 -1 -14 -1 -23 0 -19 1 
-12 1 -12 1 -14 2 -14 3 -19 3 -12 3 -20 4 -32 4 
-10 4 -13 4 -20 4 -13 5 -15 3 -12 4 -22 3 -19 3 
-15 2 -19 2 -13 1 -21 1 -17 1 -17 0 -18 0 -12 0 
-24 -1 -18 0 -21 0 -23 0 -11 0 -18 1 -14 1 -19 1 
-19 1 -5 2 -26 2 -23 3 -5 2 -17 4 -16 3 -12 3 
-16 4 -13 4 -23 4 -17 4 -12 4 -30 4 -11 3 0 4 
-19 3 -11 3 -10 3 -27 2 -12 2 3 2 -26 2 -21 1 
2 0 -21 1 -11 0 1 -1 -14 -1 -9 -1 -10 -1 -9 -2 
-19 -2 -16 -3 4 -2 5511 2625 100 MP stroke
-12 -3 -11 -3 -7 -3 -11 -3 -6 -3 -10 -3 -8 -3 -7 -2 
-7 -2 -7 -2 -8 -2 -7 -2 -10 -1 -2 -1 -4 0 -7 -1 
-6 0 -9 0 -4 0 -6 0 -5 0 -6 0 -7 0 1 0 
-8 -1 -1 0 2 -1 -12 -1 -2 -1 -1 -2 0 -3 -1 -2 
1 -3 -13 -2 -10 -2 3 -2 -2 -3 0 -4 -4 -1 -1 -2 
0 -1 -2 -1 1 -1 -2 -1 -3 -1 1 0 -3 0 -1 0 
-2 0 -3 0 2 0 -1 0 -1 0 -4 0 -3 -1 4 1 
-3 -1 2 0 -1 0 -4 0 3 -1 -6 0 3 0 -5 -1 
-6 0 16 -1 -5 -1 -9 0 4 -1 -5 -1 1 0 1 -1 
-1 -1 1 -1 -1 -1 2 -1 -1 -1 2 -1 1 -1 0 -1 
4 -1 -2 -1 2 -2 -2 -1 -3 -2 7 -1 2 -2 1 -1 
5 -2 -1 -2 3 -1 3 -2 3 -2 4 -2 3 -1 2 -2 
5 -2 4 -2 1 -2 5713 2741 100 MP stroke
3 -2 2 -2 6 -2 12 -2 -1 -3 7 -2 13 -3 -2 -3 
6 -3 13 -4 5 -3 6 -4 2 -4 9 -4 15 -4 2 -4 
4 -4 14 -4 5 -5 10 -4 12 -4 10 -5 7 -4 13 -4 
23 -5 -3 -4 6 -4 28 -5 1 -4 7 -4 10 -4 9 -4 
18 -4 4 -4 22 -4 19 -4 6 -3 14 -4 11 -3 12 -4 
4 -4 28 -3 34 -4 -3 -3 7 -4 16 -4 11 -4 14 -4 
8 -4 14 -5 15 -4 27 -5 9 -5 5 -4 29 -6 -4 -4 
5 -6 37 -5 6 -5 4 -5 17 -4 17 -5 10 -4 10 -5 
13 -4 8 -3 13 -4 10 -3 19 -3 35 -3 10 -3 -1 -2 
15 -3 16 -3 12 -3 6 -3 21 -3 31 -3 3 -4 12 -4 
41 -4 10 -4 -8 -4 8 -5 15 -5 30 -4 25 -5 1 -5 
7 -4 16 -4 15 -5 11 -4 11 -3 27 -4 21 -3 8 -3 
14 -3 12 -3 12 -3 4534 3120 100 MP stroke
13 -2 12 -3 19 -2 14 -2 17 -2 14 -3 7 -2 28 -2 
18 -2 -3 -2 14 -1 13 -2 15 -1 27 -1 12 -1 15 0 
22 -1 1 0 8 0 21 1 7 1 18 1 10 1 5 2 
27 2 20 2 8 3 14 3 15 3 11 4 12 4 14 3 
9 4 14 5 17 4 14 4 15 5 12 4 17 5 11 4 
15 5 14 4 6 4 25 4 7 5 5 4 31 4 11 3 
12 4 17 4 6 4 10 4 12 3 13 4 13 4 17 4 
13 4 15 4 15 5 13 5 15 4 12 6 13 5 11 6 
16 6 15 6 7 6 25 6 5 6 12 6 29 6 7 7 
29 5 11 6 6 6 31 5 -4 6 9 6 14 5 6 5 
19 5 14 5 31 4 13 5 8 5 20 4 2 5 15 5 
12 5 11 5 31 5 9 5 0 5 17 6 20 6 11 6 
8 5 12 6 11 6 3174 2790 100 MP stroke
9 6 12 5 12 5 6 5 19 5 14 5 -2 4 12 4 
12 3 22 3 15 3 -2 2 13 2 9 2 11 1 14 1 
9 1 12 1 6 1 13 1 9 1 3 1 3 2 3 1 
24 2 14 2 2 3 7 3 9 3 5 4 -7 3 7 4 
6 3 2 4 20 3 7 4 1 3 7 3 15 3 15 3 
2 2 8 2 9 2 6 2 9 2 6 1 6 2 1 1 
5 1 6 2 0 2 6 1 -1 3 -2 2 5 3 5 3 
5 3 -2 4 5 3 14 4 5 4 0 4 1 4 3 4 
3 4 6 4 2 4 2 3 4 3 0 3 6 3 1 3 
-1 3 7 3 2 3 2 3 2 3 -1 3 4 4 6 3 
0 8 2 4 0 9 -1 5 -1 4 0 5 -2 4 3 5 
-5 4 -5 5 9 4 -2 4 -7 4 0 3 -2 4 2 3 
-4 3 -3 2 3 2 2672 2480 100 MP stroke
-6 2 -7 2 -1 1 -1 1 1 0 -2 0 -4 -1 -1 -1 
-3 -2 -8 -1 -5 -3 1 -2 1 -3 -6 -3 1 -3 0 -4 
-9 -4 -2 -3 -4 -5 -5 -4 -4 -4 -4 -4 -1 -5 -6 -5 
-1 -5 0 -5 -8 -5 -6 -6 -4 -5 -7 -6 -4 -6 -3 -6 
-4 -6 -3 -6 -1 -5 -4 -5 -10 -6 -6 -4 -3 -5 -6 -4 
-3 -3 0 -3 -7 -3 -8 -2 -2 -3 -10 -3 -10 -2 -2 -3 
-6 -3 -2 -3 -7 -4 -10 -5 -4 -4 -14 -5 -7 -5 -1 -6 
-17 -5 -4 -5 -1 -6 -14 -4 -7 -5 -5 -3 -8 -4 -10 -2 
-12 -2 -8 -2 -9 -1 -3 0 -8 0 -11 1 -7 1 -14 1 
-15 2 -10 1 -11 1 -8 1 -9 1 -12 1 -15 0 -14 0 
-12 0 -11 0 -11 0 -11 -1 -12 0 -15 0 -15 -1 -12 0 
-12 0 -11 0 -15 0 -14 0 -11 0 -17 0 -16 0 -14 -1 
-13 0 -13 -1 -14 -1 3391 2707 100 MP stroke
-14 -2 -14 -2 -15 -3 -17 -3 -14 -4 -14 -4 -16 -6 -16 -5 
-16 -6 -10 -7 -13 -7 -20 -7 -14 -7 -15 -7 -15 -7 -17 -7 
-15 -7 -9 -6 -23 -6 -17 -5 -6 -5 -20 -4 -16 -3 -13 -3 
-18 -3 -8 -2 -18 -2 -24 -1 -13 -1 -12 -1 -14 -1 -16 0 
-10 0 -15 -1 -13 0 -6 -1 -27 -1 -17 0 -7 -1 -16 -1 
-13 -2 -27 -1 -8 -2 4 -1 -24 -2 -24 -2 -9 -1 -9 -2 
-25 -1 -13 -2 3 -1 -21 -1 -8 -1 -9 -1 -28 0 -13 0 
-10 0 -11 1 -14 1 -16 1 -12 1 -15 2 -9 2 -15 2 
-24 2 -9 3 -9 2 -17 3 -12 2 -14 2 -16 2 -9 2 
-14 2 -10 1 -11 2 -20 0 -10 1 -13 0 -16 -1 -13 0 
-15 -1 -11 -1 -14 -1 -10 -2 -8 -1 -21 -1 -19 -2 -13 -1 
-8 -1 -13 -2 -14 -1 -11 -1 -11 -1 -7 -2 -12 -1 -11 -1 
-13 -2 -14 -1 -12 -1 4764 2857 100 MP stroke
-23 -2 -10 -1 -10 -1 -12 -1 -5 0 -28 -1 -15 0 0 1 
-12 1 -10 1 -10 1 -6 2 -11 2 -9 2 -9 3 -23 2 
-16 3 -11 2 -9 2 -7 2 -12 2 -11 0 -13 1 -9 0 
-12 0 -13 -2 -8 -1 -11 -3 -6 -3 -11 -4 -12 -4 -6 -5 
-10 -5 -8 -6 -17 -6 -18 -6 -6 -6 -9 -7 -11 -6 -4 -6 
-8 -6 -14 -5 -8 -6 -8 -5 -13 -4 -9 -5 -20 -4 -17 -4 
6 -3 -2 -3 -17 -2 -2 -2 -4 -2 -10 -1 -4 -1 -7 -1 
-7 0 -15 0 -19 1 -2 1 -2 1 -9 1 -8 1 -2 2 
0 1 -6 2 -8 1 -15 1 -8 0 -1 0 -15 0 -7 -1 
0 -1 -7 -2 -3 -2 -5 -3 -6 -4 -5 -4 -10 -3 -8 -5 
0 -4 -3 -4 -6 -4 -7 -4 -11 -4 2 -3 1 -3 -5 -3 
-2 -3 -8 -2 -7 -1 0 -2 -4 -2 -8 -2 -1 -1 -2 -2 
-6 -2 0 -3 -5 -3 5584 3025 100 MP stroke
-5 -4 -1 -4 -4 -5 -1 -4 -6 -6 -3 -5 1 -6 -5 -6 
3 -5 -4 -6 -4 -6 0 -5 -1 -5 2 -4 -2 -4 3 -4 
1 -3 -1 -3 5 -2 -2 -2 4 -2 -1 -2 -1 -1 3 -2 
-4 -2 12 -1 6 -2 1 -3 8 -2 -1 -3 6 -3 2 -4 
3 -3 7 -4 0 -4 8 -4 2 -4 1 -3 6 -4 3 -3 
7 -3 5 -3 0 -3 3 -3 6 -2 6 -4 4 -3 8 -3 
1 -4 7 -3 24 -4 14 -6 -1 -5 -1 -5 4 -6 15 -6 
16 -7 -6 -7 2 -8 20 -7 7 -8 5 -7 7 -8 6 -7 
7 -8 5 -7 7 -6 5 -7 13 -5 10 -5 -1 -5 15 -3 
12 -3 3 -3 10 -1 7 -1 9 -1 5 0 3 1 5 1 
6 1 19 2 13 1 5 1 4 3 3 1 9 1 6 1 
10 0 17 0 8 -1 4 0 2 -2 10 -1 17 -3 -1 0 
3 -3 16 -1 11 -3 5107 3348 100 MP stroke
6 -2 3 -2 11 -2 8 -1 1 -1 12 -1 2 -1 6 0 
19 -1 6 1 9 0 8 0 -1 1 8 1 7 1 5 0 
12 1 10 1 6 0 9 1 1 0 2 1 13 0 7 1 
18 0 5 0 3 0 4 1 8 0 4 0 5 1 18 0 
8 0 4 1 4 0 9 -1 10 -1 -3 0 14 -1 14 -1 
-1 -2 10 -1 6 -2 2 -2 3 -3 11 -2 15 -2 1 -2 
6 -2 6 -2 5 -2 4 -1 7 -1 15 0 1 0 4 1 
9 1 -1 1 14 2 13 3 2 3 2 4 3 4 1 4 
-2 5 13 5 14 6 3 6 4 6 2 6 7 6 -2 6 
-1 5 14 6 2 6 2 5 5 5 -1 5 3 4 0 5 
1 4 3 4 3 4 6 4 0 8 1 5 0 4 3 3 
-2 7 1 5 3 5 -2 5 1 6 2 5 -6 5 -2 6 
13 5 7 5 -5 5 4584 3170 100 MP stroke
1 5 -2 4 -1 5 -2 4 -9 4 11 4 12 3 -9 4 
2 4 2 3 -8 5 -2 3 -1 5 3 4 2 4 1 5 
5 5 -3 4 3 5 3 4 -5 6 -3 4 -6 4 13 5 
15 3 -6 4 1 4 -1 3 -2 4 3 3 -3 3 4 3 
9 4 0 7 5 3 2 4 3 4 3 5 1 4 4 5 
1 4 3 4 11 5 2 4 2 3 9 4 2 3 2 3 
8 2 4 2 6 1 9 2 1 0 3 1 7 0 4 0 
4 0 5 0 11 0 4 -1 8 0 20 0 1 1 -3 0 
6 1 8 1 5 1 5 1 6 2 3 1 13 2 15 2 
1 2 8 3 7 2 6 2 9 2 8 2 9 2 9 2 
14 2 11 2 5 1 9 2 6 1 9 1 11 1 11 0 
9 1 8 0 11 0 9 0 12 0 6 -1 14 -1 14 -1 
-3 0 11 -2 10 -1 4120 2933 100 MP stroke
14 -2 13 -2 -6 -3 21 -2 10 -3 7 -4 27 -4 -2 -4 
15 -4 24 -6 -2 -5 9 -7 14 -6 11 -7 11 -8 13 -8 
15 -8 8 -8 14 -9 13 -9 6 -9 13 -10 13 -9 11 -9 
16 -9 16 -9 10 -8 13 -8 13 -7 12 -6 13 -5 11 -3 
13 -2 14 0 21 1 20 4 12 5 16 7 15 9 13 10 
12 12 13 14 19 14 16 16 17 16 19 17 21 17 12 17 
12 17 20 17 11 16 21 16 13 14 12 14 42 12 14 11 
1 10 21 9 14 8 14 6 16 5 18 4 16 3 16 1 
31 0 15 0 15 -2 21 -2 13 -3 17 -4 15 -5 20 -5 
26 -6 20 -6 18 -7 16 -7 16 -7 15 -8 16 -8 18 -8 
20 -8 27 -9 20 -8 16 -9 18 -8 17 -9 19 -8 18 -9 
20 -8 21 -8 19 -8 21 -7 21 -8 14 -7 17 -7 20 -7 
16 -6 20 -7 20 -6 2574 3039 100 MP stroke
16 -6 16 -5 20 -6 20 -5 18 -5 17 -5 15 -5 16 -4 
21 -5 16 -4 11 -4 18 -4 23 -3 13 -4 15 -3 20 -4 
11 -3 18 -3 20 -2 12 -3 18 -2 14 -2 16 -2 16 -1 
11 -1 16 -1 17 0 17 0 13 1 14 0 12 1 15 1 
16 2 10 1 33 1 24 2 -5 2 17 2 14 1 10 2 
18 1 7 2 20 1 14 1 11 1 20 2 7 1 29 2 
21 0 -1 4 29 2 10 3 -2 2 26 5 6 5 16 5 
29 4 0 8 16 7 18 7 -4 8 13 8 12 9 7 9 
15 9 8 10 15 9 11 10 5 9 12 10 11 9 10 9 
10 10 11 9 9 9 9 9 10 8 5 9 9 8 7 8 
7 8 12 8 10 8 7 7 6 7 9 7 8 6 2 7 
6 6 7 6 5 6 7 5 5 6 8 5 7 5 7 4 
-2 5 -5 3 7 3 1348 2761 100 MP stroke
4 3 -2 1 7 0 -1 -1 6 -3 17 -5 3 -7 5 -11 
1 -13 -5 -17 4 -21 -13 -26 -5 -31 6 -37 -6 -44 3 -51 
0 -60 -3 -70 2 -81 -5 -94 2 -109 -1 -127 1 -148 -3 -168 
-7 -183 12 -164 7 -85 -3 50 -1 149 0 173 2 163 -7 144 
0 122 -8 106 -25 89 -5 76 -2 66 -4 56 -5 47 -2 41 
8 34 -2 28 -10 23 -1 20 -1 15 -4 12 -4 9 -5 7 
-4 4 -5 2 -6 1 -3 0 -2 -2 -1 -3 -5 -3 -6 -4 
-4 -5 -7 -5 -6 -5 -2 -5 -4 -5 -3 -6 -10 -5 -2 -5 
0 -6 -19 -5 -8 -5 1 -5 -7 -4 -3 -5 -8 -4 -10 -4 
1 -3 -11 -3 -14 -3 -6 -2 -7 -1 -6 -1 -7 0 -3 0 
-12 1 -20 2 -1 3 -7 3 -12 4 -4 4 -12 5 -7 6 
-11 6 -18 7 -6 7 -11 7 -11 8 -9 8 -10 8 -9 7 
-24 8 -19 8 -6 7 1784 2871 100 MP stroke
-13 7 -14 7 -15 6 -18 6 -15 4 -13 5 -16 3 -15 4 
-15 2 -15 2 -14 1 -15 0 -12 0 -16 0 -16 -1 -16 -2 
-13 -1 -11 -3 -14 -2 -14 -3 -14 -2 -15 -3 -24 -4 -22 -3 
-11 -4 -12 -5 -12 -4 -32 -6 -16 -6 4 -6 -23 -7 -13 -8 
-14 -9 -22 -10 -7 -11 -21 -11 -9 -13 -18 -13 -30 -15 -1 -15 
-10 -16 -18 -17 -13 -18 -15 -19 -13 -19 -18 -21 -10 -20 -13 -21 
-18 -21 -16 -21 -15 -21 -14 -22 -18 -21 -15 -21 -17 -21 -10 -20 
-13 -20 -20 -20 -12 -20 -18 -20 -15 -20 -12 -20 -14 -20 -12 -20 
-15 -21 -12 -20 -18 -22 -17 -22 -17 -23 -15 -23 -6 -23 -14 -24 
-7 -24 -18 -24 -15 -24 -4 -23 -20 -23 -7 -21 -20 -20 -10 -18 
-7 -17 -23 -15 5 -14 -35 -12 0 -7 24 -16 -42 5 4 -5 
-8 -1 -37 3 -5 5 -24 -1 -12 7 -15 9 15 20 22 9 
-23 19 -1 15 -22 19 3134 3802 100 MP stroke
-17 18 9 18 -24 18 6 16 -4 19 -63 9 -23 6 40 32 
23 12 -15 13 -11 10 -6 8 -9 8 -9 6 -6 4 -12 4 
-4 2 -1 1 -47 2 -11 0 12 4 -23 1 6 2 -12 1 
-11 3 8 2 -19 2 2 3 -12 3 -17 3 5 3 -15 4 
-8 4 0 4 -5 5 -12 5 -5 5 2 4 -14 6 -2 5 
-8 5 -7 4 -7 4 -17 4 3 3 -15 3 -14 2 -1 2 
-16 0 -2 1 -4 0 -5 0 -6 -1 -12 0 -6 -1 -18 -2 
-5 -1 -2 -1 -14 -2 -6 0 -11 -1 6 0 4 0 -13 1 
-7 2 -12 2 -5 2 -2 3 -10 3 -5 4 -6 3 -7 4 
-7 4 -6 5 -8 4 -8 4 1 5 -5 5 -7 5 -3 6 
-5 5 -4 6 -4 7 -5 7 -9 7 -3 8 0 8 -4 9 
6 10 -1 11 -7 11 2 12 -5 13 -6 13 1 15 -2 16 
-2 18 0 18 -1 21 3760 3231 100 MP stroke
-2 24 -3 25 0 61 -3 36 -1 40 1 44 -1 48 -5 52 
5 56 6 58 -7 62 1 63 0 64 -1 66 5 65 -6 65 
0 64 9 63 0 61 -4 58 -2 56 1 53 0 50 1 47 
2 43 2 40 0 37 -3 34 0 29 1 27 0 23 3 19 
0 17 3 13 1 10 -1 8 -2 4 -4 2 8 -1 4 -3 
1 -5 5 -8 -1 -9 3 -11 4 -12 2 -13 4 -15 3 -15 
3 -16 2 -17 3 -17 3 -17 6 -18 5 -17 1 -17 3 -18 
5 -16 1 -17 1 -16 7 -16 3 -16 3 -15 3 -15 -1 -15 
1 -14 -4 -14 1 -15 15 -13 0 -14 -1 -14 7 -13 -2 -13 
2 -13 3 -13 1 -13 6 -12 2 -12 -2 -12 1 -12 3 -11 
1 -11 0 -11 4 -10 3 -10 0 -19 -2 -9 -3 -9 0 -8 
-1 -9 -2 -8 1 -8 0 -15 -2 -8 -3 -7 0 -7 -5 -8 
-5 -6 -2 -7 -8 -7 3674 2384 100 MP stroke
0 -6 6 -6 -2 -6 0 -5 -1 -6 -4 -5 -2 -5 -5 -4 
-7 -5 -3 -4 -6 -3 2 -4 10 -3 -6 -3 -3 -3 -1 -3 
-7 -3 0 -2 -6 -2 -4 -2 -5 -2 -10 -2 9 -1 2 -2 
-8 -1 2 -1 -2 -1 -6 -1 -3 -1 -3 -1 -3 0 -3 -1 
-2 -1 -4 0 -4 -1 -1 0 1 0 -5 -1 -1 -1 5 0 
-5 0 -6 0 2 0 -4 0 -3 1 -5 1 2 1 -1 1 
-6 1 -1 2 0 4 -1 2 -3 3 1 3 -4 3 -3 4 
1 4 0 12 -2 4 -2 5 2 4 -2 5 -1 4 1 5 
-4 4 5 4 -3 4 -2 4 5 4 -13 3 -2 3 6 3 
-4 3 2 2 0 2 1 2 1 1 0 1 4 1 2 1 
3 0 2 0 6 0 3 0 4 -1 -8 -1 2 -1 10 0 
1 -1 7 -1 6 -1 0 -1 4 0 5 -1 4 0 3 -1 
4 0 4 0 7 1 3729 2379 100 MP stroke
5 0 9 1 7 0 -1 1 11 1 1 1 -2 1 16 2 
8 1 -1 1 0 1 -1 1 4 1 5 0 5 1 8 0 
15 0 1 -1 -4 0 11 -1 9 -1 -3 -2 1 -2 10 -2 
3 -3 -1 -3 12 -4 6 -3 0 -4 2 -4 8 -5 12 -4 
-1 -5 4 -5 10 -5 0 -5 7 -5 5 -5 -1 -4 7 -5 
4 -4 -1 -5 8 -4 7 -4 6 -4 9 -4 -1 -4 4 -4 
7 -4 1 -5 9 -5 2 -5 7 -6 18 -7 3 -7 -1 -7 
0 -8 1 -8 5 -9 5 -9 5 -10 7 -9 6 -10 5 -9 
7 -9 7 -9 4 -8 8 -8 9 -7 5 -6 6 -5 7 -5 
5 -4 12 -3 8 -2 -1 -1 8 -1 9 0 6 0 9 1 
5 1 10 1 8 1 7 2 7 1 19 1 19 0 -7 1 
2 0 9 0 8 0 15 0 3 -1 16 -1 12 -1 8 0 
15 -1 -2 -1 20 -1 3143 2660 100 MP stroke
13 0 23 0 4 1 4 1 11 1 11 1 13 1 9 2 
25 1 8 2 1 2 10 2 11 1 25 2 4 2 4 1 
14 2 10 1 13 1 10 1 25 1 7 1 6 1 21 1 
-3 1 22 1 11 1 -8 1 22 1 11 1 18 2 25 1 
1 2 4 1 8 2 11 2 10 1 11 1 13 1 9 1 
11 1 9 0 12 0 10 0 10 -1 13 -1 16 -2 17 -2 
-2 -2 6 -2 15 -3 6 -2 17 -2 5 -3 14 -2 23 -2 
-1 -1 13 -2 14 -1 -3 0 10 0 11 0 8 0 7 1 
9 1 14 1 12 1 22 0 8 0 -13 1 2 0 9 -1 
10 -1 10 -2 8 -2 10 -2 7 -3 7 -3 8 -4 11 -4 
11 -3 3 -4 21 -4 32 -4 12 -3 0 -2 1 -3 15 -2 
12 -2 -2 -1 6 -2 9 -2 11 -1 10 -2 1 -2 3 -3 
6 -3 6 -3 4 -5 2160 2706 100 MP stroke
8 -5 7 -6 -1 -7 5 -7 4 -9 6 -11 6 -11 2 -12 
5 -14 2 -15 3 -16 5 -17 1 -19 3 -20 1 -20 3 -22 
3 -23 3 -22 2 -23 2 -23 1 -22 -2 -20 1 -17 3 -15 
-1 -11 3 -6 -2 -1 0 4 4 8 0 32 -4 22 -1 25 
2 26 -2 27 0 56 -3 27 -4 26 0 25 -2 23 -2 23 
-1 20 -4 19 1 18 0 16 -4 15 -2 13 -4 12 -3 11 
-4 10 -3 9 1 7 -4 7 -2 5 -2 5 -5 4 -6 3 
-4 2 -5 2 -6 1 0 1 -3 0 -8 -1 1 0 -6 -1 
-8 -1 -3 -2 -6 -2 -4 -3 -8 -2 -3 -3 -5 -4 -11 -3 
-3 -4 -7 -4 -10 -4 -3 -4 -9 -5 -4 -4 -9 -4 -9 -4 
-4 -4 -9 -4 -6 -4 -13 -3 -12 -4 1 -2 -10 -3 -10 -2 
-7 -2 -12 -2 -11 -2 -10 -2 -10 -2 -11 -1 -12 -2 -10 -1 
-12 -2 -9 -2 -9 -2 2450 2697 100 MP stroke
-12 -2 -12 -3 -13 -2 -11 -3 -11 -3 -13 -4 -10 -4 -10 -4 
-14 -4 -10 -4 -15 -5 -14 -4 -8 -5 -26 -5 -16 -4 2 -4 
-16 -4 -12 -4 -11 -4 -17 -3 -10 -3 -16 -3 -13 -2 -12 -3 
-14 -2 -12 -2 -15 -2 -11 -2 -16 -1 -14 -2 -10 -2 -13 -1 
-8 -2 -14 -2 -13 -1 -13 -2 -13 -1 -8 -1 -18 -2 -9 -1 
-15 0 -26 -1 -1 0 -8 0 -13 0 -15 1 -23 0 -1 1 
-7 0 -13 1 -21 1 -32 -2 4 2 3 1 -13 0 -6 0 
-15 -1 -7 -1 -9 0 -15 -1 -8 -1 -9 -1 -4 -1 -18 0 
-23 -1 -1 0 -5 0 -13 0 -6 1 -10 1 -7 2 -9 2 
-22 0 -6 2 -1 2 -14 0 -6 1 -6 0 -9 0 -10 -1 
-7 -1 -3 -2 -8 -1 -8 -2 -8 -2 -8 -3 -7 -2 -9 -2 
-7 -2 -8 -2 -8 -2 -5 -2 -8 -2 -7 -2 -6 -1 -12 -2 
-8 -1 -5 -1 -9 -2 3512 2836 100 MP stroke
-8 -2 -9 -1 -9 -2 -6 -2 -16 -2 -8 -3 -1 -2 -14 -2 
-7 -3 -3 -3 -7 -2 -6 -2 -8 -3 -7 -2 -14 -2 -3 -1 
0 -2 -12 -1 -3 -1 -8 0 -9 -1 -2 0 -10 -1 -7 -1 
-12 -1 -12 -1 1 -2 -12 -2 -7 -3 2 -3 -13 -3 -6 -5 
-5 -5 -19 -5 -7 -6 -10 -7 -14 -8 1 -7 -9 -8 -10 -9 
-14 -9 -14 -9 4 -9 -10 -9 -11 -10 -7 -10 -15 -9 -5 -10 
-13 -10 -10 -10 -8 -10 -15 -10 -8 -10 -13 -11 -5 -10 -11 -11 
-22 -11 -2 -11 -4 -11 -9 -12 -10 -12 -19 -11 -11 -12 -11 -12 
-19 -12 -10 -11 1 -12 -14 -12 -12 -11 -6 -12 -22 -12 -9 -11 
-1 -12 -13 -11 -10 -11 -14 -11 -14 -11 -10 -11 -14 -11 -12 -10 
-11 -10 -11 -10 -12 -9 -12 -9 -13 -8 -12 -8 -10 -7 -15 -7 
-16 -5 -12 -5 -13 -4 -11 -3 -14 -2 -17 0 -7 0 -25 0 
-33 -2 4 6 2 5 4481 3460 100 MP stroke
-12 4 -12 5 -16 6 -9 5 -17 6 -13 6 -10 6 -20 6 
-5 5 -20 6 -23 5 1 5 -12 4 -16 4 -12 4 -11 4 
-11 3 -12 3 -13 2 -17 3 -10 3 -17 2 -11 3 -11 2 
-29 2 -6 4 -4 2 -12 3 -11 3 -23 3 -4 3 -2 2 
-13 3 -9 3 -16 3 -12 2 -11 3 -8 2 -16 3 -19 2 
2 3 -6 3 -11 2 -4 3 -9 3 -8 2 -8 3 -11 3 
-17 2 -6 3 -1 2 -16 2 -6 1 -10 1 -13 1 -2 1 
-17 0 -10 0 -7 0 -8 -1 -20 -1 -19 -1 6 0 -2 -1 
-10 -1 -5 0 -25 -1 -17 -1 4 1 -1 0 -1 0 -9 1 
-8 0 -8 1 -13 0 2 1 -5 0 -9 0 -10 -1 -2 0 
-5 -1 -5 -2 3 -2 -11 -2 -2 -2 -10 -3 -20 -3 0 -2 
-4 -2 -6 -3 -5 -2 -11 -2 1 -1 -4 -1 -6 0 -2 0 
-11 0 -6 1 0 1 5409 3310 100 MP stroke
-4 2 -7 1 -5 2 2 2 -7 1 -3 2 -3 2 -17 2 
-6 1 1 1 -8 2 -10 1 -1 1 -2 1 -8 2 -2 0 
-8 1 -12 1 1 1 -5 1 -5 1 -8 1 -10 1 1 1 
-5 1 -5 1 -9 2 -6 1 -1 2 -21 2 -2 2 2 2 
-19 2 1 3 -6 2 -9 2 1 2 -11 2 1 2 -9 2 
-18 1 2 2 1 1 -9 1 -11 -1 3 0 -1 0 -5 -1 
-9 -1 -4 -1 0 -2 -9 -2 1 -2 2 -2 -12 -2 -12 -3 
-1 -2 -2 -2 -5 -3 0 -2 -2 -2 -3 -1 -2 -1 -2 -2 
-9 0 -4 1 5 0 -7 2 -11 1 1 2 2 2 -9 1 
-3 2 -3 2 -9 1 1 0 -2 -2 -6 -1 -6 -3 2 -4 
-6 -4 -5 -6 -6 -6 -6 -7 5 -8 -6 -8 -9 -8 0 -16 
-3 -7 -11 -7 -2 -6 -1 -5 -7 -5 0 -3 -3 -2 -5 -1 
-5 -1 -4 1 -2 1 5865 3370 100 MP stroke
-8 2 -3 2 -5 2 -9 1 -6 1 -6 -1 3 0 -6 -1 
-1 -2 -4 -3 -12 -2 1 -4 -6 -3 -9 -4 1 -4 -7 -4 
-7 -3 -1 -4 -2 -3 -7 -3 -9 -2 0 -1 -3 -2 -8 -1 
-3 -1 -7 0 -7 -1 -6 0 -19 -1 -10 -1 5 0 -3 -1 
-6 0 -3 0 -7 0 -4 1 -3 2 -8 3 -3 4 2 5 
-6 7 -11 8 -5 9 1 9 -7 11 -8 12 1 12 -6 12 
-5 11 0 11 -6 10 -1 9 1 8 -2 7 1 4 -2 2 
1 1 0 -2 -1 -4 3 -6 1 -8 0 -10 -2 -11 5 -13 
2 -14 -2 -15 5 -15 3 -17 2 -15 5 -15 2 -16 9 -14 
5 -14 0 -12 6 -11 7 -10 7 -9 8 -7 4 -5 6 -3 
5 -2 4 0 12 0 10 1 8 2 4 2 -1 2 8 1 
11 1 6 0 9 -1 7 -3 8 -4 7 -6 6 -7 9 -8 
6 -10 6 -10 8 -11 5907 3555 100 MP stroke
7 -12 6 -12 9 -13 10 -12 6 -12 5 -11 6 -11 6 -9 
6 -9 6 -7 3 -7 2 -5 9 -3 8 -3 5 -2 7 -1 
6 0 6 1 6 1 5 1 5 2 5 2 6 2 4 1 
3 1 5 0 5 0 4 -1 8 -2 3 -3 5 -3 6 -5 
2 -6 10 -6 4 -7 0 -8 6 -9 0 -9 5 -10 2 -9 
1 -10 3 -8 -6 -8 4 -8 2 -6 3 -4 9 -2 -1 0 
10 0 11 3 -1 6 3 7 5 9 -1 11 -6 13 2 12 
2 15 2 15 6 17 0 16 9 16 4 17 -2 16 7 15 
0 15 3 13 1 12 -2 11 3 11 0 15 -3 6 4 4 
4 3 -5 3 1 0 -1 1 1 0 4 0 1 0 -1 0 
0 2 -6 2 -2 3 6 4 1 5 -1 6 1 7 4 7 
0 9 -4 10 -3 10 -5 10 1 11 3 12 -1 11 -3 11 
-2 10 2 15 -2 11 5630 3359 100 MP stroke
-2 11 0 10 -4 10 -2 10 4 9 -9 10 -14 9 -6 10 
-8 10 -6 11 -2 11 -7 12 -2 11 -9 12 -8 12 -8 12 
-17 9 -12 9 -9 6 -7 5 -10 2 -9 -3 -8 -8 -14 -13 
-4 -19 -11 -25 -13 -34 -8 -46 -22 -48 -8 -62 -6 -79 -18 -95 
-13 -119 5902 3709 34 MP stroke
gr

c8
0 sg
%%IncludeResource: font Helvetica
/Helvetica /WindowsLatin1Encoding 120 FMSR

2024  294 mt 
(Experiment 1a - Analog magnetometers - Bias of position) s
2502 4902 mt 
(Distance to center of sensor network [m]) s
 605 2769 mt  -90 rotate
(Bias [mm]) s
90 rotate

end %%Color Dict

eplot
%%EndObject

epage
end

showpage

%%Trailer
%%EOF
