%!PS-Adobe-2.0 EPSF-1.2
%%Creator: MATLAB, The MathWorks, Inc. Version 7.13.0.564 (R2011b). Operating System: Microsoft Windows 7.
%%Title: ..\figures\digital_par_ori_bias.eps
%%CreationDate: 11/13/2012  17:43:49
%%DocumentNeededFonts: Helvetica
%%DocumentProcessColors: Cyan Magenta Yellow Black
%%Extensions: CMYK
%%Pages: 1
%%BoundingBox:    52   199   552   602
%%EndComments

%%BeginProlog
% MathWorks dictionary
/MathWorks 160 dict begin
% definition operators
/bdef {bind def} bind def
/ldef {load def} bind def
/xdef {exch def} bdef
/xstore {exch store} bdef
% operator abbreviations
/c  /clip ldef
/cc /concat ldef
/cp /closepath ldef
/gr /grestore ldef
/gs /gsave ldef
/mt /moveto ldef
/np /newpath ldef
/cm /currentmatrix ldef
/sm /setmatrix ldef
/rm /rmoveto ldef
/rl /rlineto ldef
/s {show newpath} bdef
/sc {setcmykcolor} bdef
/sr /setrgbcolor ldef
/sg /setgray ldef
/w /setlinewidth ldef
/j /setlinejoin ldef
/cap /setlinecap ldef
/rc {rectclip} bdef
/rf {rectfill} bdef
% page state control
/pgsv () def
/bpage {/pgsv save def} bdef
/epage {pgsv restore} bdef
/bplot /gsave ldef
/eplot {stroke grestore} bdef
% orientation switch
/portraitMode 0 def /landscapeMode 1 def /rotateMode 2 def
% coordinate system mappings
/dpi2point 0 def
% font control
/FontSize 0 def
/FMS {/FontSize xstore findfont [FontSize 0 0 FontSize neg 0 0]
  makefont setfont} bdef
/ISOLatin1Encoding where {pop /WindowsLatin1Encoding 256 array bdef
ISOLatin1Encoding WindowsLatin1Encoding copy pop
/.notdef/.notdef/quotesinglbase/florin/quotedblbase/ellipsis/dagger
/daggerdbl/circumflex/perthousand/Scaron/guilsinglleft/OE/.notdef/.notdef
/.notdef/.notdef/quoteleft/quoteright/quotedblleft/quotedblright/bullet
/endash/emdash/tilde/trademark/scaron/guilsinglright/oe/.notdef/.notdef
/Ydieresis WindowsLatin1Encoding 128 32 getinterval astore pop}
{/WindowsLatin1Encoding StandardEncoding bdef} ifelse
/reencode {exch dup where {pop load} {pop StandardEncoding} ifelse
  exch dup 3 1 roll findfont dup length dict begin
  { 1 index /FID ne {def}{pop pop} ifelse } forall
  /Encoding exch def currentdict end definefont pop} bdef
/isroman {findfont /CharStrings get /Agrave known} bdef
/FMSR {3 1 roll 1 index dup isroman {reencode} {pop pop} ifelse
  exch FMS} bdef
/csm {1 dpi2point div -1 dpi2point div scale neg translate
 dup landscapeMode eq {pop -90 rotate}
  {rotateMode eq {90 rotate} if} ifelse} bdef
% line types: solid, dotted, dashed, dotdash
/SO { [] 0 setdash } bdef
/DO { [.5 dpi2point mul 4 dpi2point mul] 0 setdash } bdef
/DA { [6 dpi2point mul] 0 setdash } bdef
/DD { [.5 dpi2point mul 4 dpi2point mul 6 dpi2point mul 4
  dpi2point mul] 0 setdash } bdef
% macros for lines and objects
/L {lineto stroke} bdef
/MP {3 1 roll moveto 1 sub {rlineto} repeat} bdef
/AP {{rlineto} repeat} bdef
/PDlw -1 def
/W {/PDlw currentlinewidth def setlinewidth} def
/PP {closepath eofill} bdef
/DP {closepath stroke} bdef
/MR {4 -2 roll moveto dup  0 exch rlineto exch 0 rlineto
  neg 0 exch rlineto closepath} bdef
/FR {MR stroke} bdef
/PR {MR fill} bdef
/L1i {{currentfile picstr readhexstring pop} image} bdef
/tMatrix matrix def
/MakeOval {newpath tMatrix currentmatrix pop translate scale
0 0 1 0 360 arc tMatrix setmatrix} bdef
/FO {MakeOval stroke} bdef
/PO {MakeOval fill} bdef
/PD {currentlinewidth 2 div 0 360 arc fill
   PDlw -1 eq not {PDlw w /PDlw -1 def} if} def
/FA {newpath tMatrix currentmatrix pop translate scale
  0 0 1 5 -2 roll arc tMatrix setmatrix stroke} bdef
/PA {newpath tMatrix currentmatrix pop	translate 0 0 moveto scale
  0 0 1 5 -2 roll arc closepath tMatrix setmatrix fill} bdef
/FAn {newpath tMatrix currentmatrix pop translate scale
  0 0 1 5 -2 roll arcn tMatrix setmatrix stroke} bdef
/PAn {newpath tMatrix currentmatrix pop translate 0 0 moveto scale
  0 0 1 5 -2 roll arcn closepath tMatrix setmatrix fill} bdef
/vradius 0 def /hradius 0 def /lry 0 def
/lrx 0 def /uly 0 def /ulx 0 def /rad 0 def
/MRR {/vradius xdef /hradius xdef /lry xdef /lrx xdef /uly xdef
  /ulx xdef newpath tMatrix currentmatrix pop ulx hradius add uly
  vradius add translate hradius vradius scale 0 0 1 180 270 arc 
  tMatrix setmatrix lrx hradius sub uly vradius add translate
  hradius vradius scale 0 0 1 270 360 arc tMatrix setmatrix
  lrx hradius sub lry vradius sub translate hradius vradius scale
  0 0 1 0 90 arc tMatrix setmatrix ulx hradius add lry vradius sub
  translate hradius vradius scale 0 0 1 90 180 arc tMatrix setmatrix
  closepath} bdef
/FRR {MRR stroke } bdef
/PRR {MRR fill } bdef
/MlrRR {/lry xdef /lrx xdef /uly xdef /ulx xdef /rad lry uly sub 2 div def
  newpath tMatrix currentmatrix pop ulx rad add uly rad add translate
  rad rad scale 0 0 1 90 270 arc tMatrix setmatrix lrx rad sub lry rad
  sub translate rad rad scale 0 0 1 270 90 arc tMatrix setmatrix
  closepath} bdef
/FlrRR {MlrRR stroke } bdef
/PlrRR {MlrRR fill } bdef
/MtbRR {/lry xdef /lrx xdef /uly xdef /ulx xdef /rad lrx ulx sub 2 div def
  newpath tMatrix currentmatrix pop ulx rad add uly rad add translate
  rad rad scale 0 0 1 180 360 arc tMatrix setmatrix lrx rad sub lry rad
  sub translate rad rad scale 0 0 1 0 180 arc tMatrix setmatrix
  closepath} bdef
/FtbRR {MtbRR stroke } bdef
/PtbRR {MtbRR fill } bdef
/stri 6 array def /dtri 6 array def
/smat 6 array def /dmat 6 array def
/tmat1 6 array def /tmat2 6 array def /dif 3 array def
/asub {/ind2 exch def /ind1 exch def dup dup
  ind1 get exch ind2 get sub exch } bdef
/tri_to_matrix {
  2 0 asub 3 1 asub 4 0 asub 5 1 asub
  dup 0 get exch 1 get 7 -1 roll astore } bdef
/compute_transform {
  dmat dtri tri_to_matrix tmat1 invertmatrix 
  smat stri tri_to_matrix tmat2 concatmatrix } bdef
/ds {stri astore pop} bdef
/dt {dtri astore pop} bdef
/db {2 copy /cols xdef /rows xdef mul dup 3 mul string
  currentfile exch readhexstring pop
  dup 0 3 index getinterval /rbmap xdef
  dup 2 index dup getinterval /gbmap xdef
  1 index dup 2 mul exch getinterval /bbmap xdef pop pop}bdef
/it {gs np dtri aload pop moveto lineto lineto cp c
  cols rows 8 compute_transform 
  rbmap gbmap bbmap true 3 colorimage gr}bdef
/il {newpath moveto lineto stroke}bdef
currentdict end def
%%EndProlog

%%BeginSetup
MathWorks begin

0 cap

end
%%EndSetup

%%Page: 1 1
%%BeginPageSetup
%%PageBoundingBox:    52   199   552   602
MathWorks begin
bpage
%%EndPageSetup

%%BeginObject: obj1
bplot

/dpi2point 12 def
portraitMode 0204 7344 csm

  422   110  5999  4844 MR c np
85 dict begin %Colortable dictionary
/c0 { 0.000000 0.000000 0.000000 sr} bdef
/c1 { 1.000000 1.000000 1.000000 sr} bdef
/c2 { 0.900000 0.000000 0.000000 sr} bdef
/c3 { 0.000000 0.820000 0.000000 sr} bdef
/c4 { 0.000000 0.000000 0.800000 sr} bdef
/c5 { 0.910000 0.820000 0.320000 sr} bdef
/c6 { 1.000000 0.260000 0.820000 sr} bdef
/c7 { 0.000000 0.820000 0.820000 sr} bdef
c0
1 j
1 sg
   0    0 6913 5185 PR
6 w
0 4225 5356 0 0 -4225 899 4614 4 MP
PP
-5356 0 0 4225 5356 0 0 -4225 899 4614 5 MP stroke
4 w
DO
SO
6 w
0 sg
 899  389 mt 6255  389 L
 899 4614 mt 6255 4614 L
6255 4614 mt 6255  389 L
 899 4614 mt  899  389 L
 899 4614 mt 6255 4614 L
 899 4614 mt  899  389 L
1791 4614 mt 1791 4560 L
1791  389 mt 1791  442 L
%%IncludeResource: font Helvetica
/Helvetica /WindowsLatin1Encoding 120 FMSR

1675 4759 mt 
(0.16) s
2684 4614 mt 2684 4560 L
2684  389 mt 2684  442 L
2568 4759 mt 
(0.18) s
3577 4614 mt 3577 4560 L
3577  389 mt 3577  442 L
3494 4759 mt 
(0.2) s
4469 4614 mt 4469 4560 L
4469  389 mt 4469  442 L
4353 4759 mt 
(0.22) s
5362 4614 mt 5362 4560 L
5362  389 mt 5362  442 L
5246 4759 mt 
(0.24) s
6255 4614 mt 6255 4560 L
6255  389 mt 6255  442 L
6139 4759 mt 
(0.26) s
 899 4614 mt  925 4614 L
6255 4614 mt 6228 4614 L
 899 4614 mt  952 4614 L
6255 4614 mt 6201 4614 L
 640 4658 mt 
(10) s
%%IncludeResource: font Helvetica
/Helvetica /WindowsLatin1Encoding 80 FMSR

 773 4584 mt 
(-2) s
 899 4190 mt  925 4190 L
6255 4190 mt 6228 4190 L
 899 3942 mt  925 3942 L
6255 3942 mt 6228 3942 L
 899 3766 mt  925 3766 L
6255 3766 mt 6228 3766 L
 899 3629 mt  925 3629 L
6255 3629 mt 6228 3629 L
 899 3518 mt  925 3518 L
6255 3518 mt 6228 3518 L
 899 3423 mt  925 3423 L
6255 3423 mt 6228 3423 L
 899 3342 mt  925 3342 L
6255 3342 mt 6228 3342 L
 899 3270 mt  925 3270 L
6255 3270 mt 6228 3270 L
 899 3205 mt  925 3205 L
6255 3205 mt 6228 3205 L
 899 3205 mt  952 3205 L
6255 3205 mt 6201 3205 L
%%IncludeResource: font Helvetica
/Helvetica /WindowsLatin1Encoding 120 FMSR

 640 3249 mt 
(10) s
%%IncludeResource: font Helvetica
/Helvetica /WindowsLatin1Encoding 80 FMSR

 773 3175 mt 
(-1) s
 899 2781 mt  925 2781 L
6255 2781 mt 6228 2781 L
 899 2533 mt  925 2533 L
6255 2533 mt 6228 2533 L
 899 2357 mt  925 2357 L
6255 2357 mt 6228 2357 L
 899 2221 mt  925 2221 L
6255 2221 mt 6228 2221 L
 899 2109 mt  925 2109 L
6255 2109 mt 6228 2109 L
 899 2015 mt  925 2015 L
6255 2015 mt 6228 2015 L
 899 1933 mt  925 1933 L
6255 1933 mt 6228 1933 L
 899 1861 mt  925 1861 L
6255 1861 mt 6228 1861 L
 899 1797 mt  925 1797 L
6255 1797 mt 6228 1797 L
 899 1797 mt  952 1797 L
6255 1797 mt 6201 1797 L
%%IncludeResource: font Helvetica
/Helvetica /WindowsLatin1Encoding 120 FMSR

 640 1841 mt 
(10) s
%%IncludeResource: font Helvetica
/Helvetica /WindowsLatin1Encoding 80 FMSR

 773 1767 mt 
(0) s
 899 1373 mt  925 1373 L
6255 1373 mt 6228 1373 L
 899 1125 mt  925 1125 L
6255 1125 mt 6228 1125 L
 899  949 mt  925  949 L
6255  949 mt 6228  949 L
 899  812 mt  925  812 L
6255  812 mt 6228  812 L
 899  701 mt  925  701 L
6255  701 mt 6228  701 L
 899  607 mt  925  607 L
6255  607 mt 6228  607 L
 899  525 mt  925  525 L
6255  525 mt 6228  525 L
 899  453 mt  925  453 L
6255  453 mt 6228  453 L
 899  389 mt  925  389 L
6255  389 mt 6228  389 L
 899  389 mt  952  389 L
6255  389 mt 6201  389 L
%%IncludeResource: font Helvetica
/Helvetica /WindowsLatin1Encoding 120 FMSR

 640  433 mt 
(10) s
%%IncludeResource: font Helvetica
/Helvetica /WindowsLatin1Encoding 80 FMSR

 773  359 mt 
(1) s
 899  389 mt 6255  389 L
 899 4614 mt 6255 4614 L
6255 4614 mt 6255  389 L
 899 4614 mt  899  389 L
gs 899 389 5357 4226 MR c np
/c8 { 0.000000 0.000000 1.000000 sr} bdef
c8
-5 244 -3 158 -5 122 -4 100 -6 82 -4 75 -3 64 -2 54 
-4 45 -5 33 -4 31 -6 24 -4 18 -6 15 -7 11 -5 9 
-6 7 -6 4 -7 3 -7 3 -6 1 -7 0 -7 1 -6 0 
-8 0 -6 0 -5 1 -5 1 -5 1 -6 2 -6 3 -6 4 
-5 4 -6 4 -4 5 -6 5 -6 4 -7 5 -8 4 -6 3 
-6 3 -6 1 -6 1 -6 0 -8 0 -7 -2 -7 -2 -7 -3 
-9 -3 -8 -3 -11 -3 -10 -4 -11 -3 -11 -3 -11 -2 -11 -3 
-11 -2 -15 -2 -14 -1 -15 -2 -15 -1 -15 -1 -15 -2 -16 -1 
-15 -1 -16 -1 -16 -1 -17 -1 -16 -1 -15 1 -16 0 -15 2 
-15 3 -16 3 -17 4 -16 5 -18 6 -16 5 -16 5 -15 5 
-17 5 -15 3 -17 2 -14 0 -19 -1 -17 -4 -18 -5 -15 -7 
-17 -9 -19 -12 -16 -13 -16 -14 -17 -16 -15 -17 -17 -18 -16 -18 
-17 -18 -14 -18 -18 -16 4751 1344 100 MP stroke
-14 -15 -18 -12 -13 -10 -30 -8 -16 -4 -6 -1 -21 1 -15 5 
-19 7 -13 9 -17 10 -16 12 -15 13 -14 13 -15 12 -13 12 
-15 11 -14 10 -16 9 -15 7 -17 6 -14 4 -16 3 -16 2 
-17 0 -16 -2 -17 -3 -17 -4 -18 -7 -16 -8 -19 -10 -18 -13 
-16 -14 -17 -17 -16 -20 -16 -21 -16 -25 -16 -26 -15 -28 -17 -30 
-18 -32 -15 -32 -18 -33 -18 -33 -18 -33 -17 -31 -19 -30 -18 -26 
-18 -23 -17 -18 -20 -12 -14 -7 -23 -1 -24 5 -2 11 -20 16 
-12 20 -17 23 -12 25 -17 26 -12 27 -17 26 -9 25 -27 24 
-6 22 -21 20 -3 18 -17 17 -21 15 1 14 -25 13 -5 13 
-12 13 -7 13 -8 14 -6 14 -7 15 -7 15 -9 16 3 16 
-2 15 -2 15 -2 15 0 35 1 9 1 8 5 5 -1 5 
3 4 4 3 3 3 6 3 4 3 6 5 5 6 6 9 
6 9 6 12 6 13 5893 1134 100 MP stroke
3 15 10 16 7 17 10 17 8 17 11 17 9 16 12 16 
9 14 14 14 9 13 24 13 15 12 4 12 17 12 12 12 
15 12 14 13 13 12 15 13 12 12 24 11 8 10 8 8 
13 6 9 4 11 2 8 -2 12 -4 6 -6 8 -10 4 -12 
7 -14 2 -17 5 -18 3 -20 4 -20 2 -22 2 -21 -1 -21 
3 -20 -2 -19 1 -17 -2 -16 -2 -14 -5 -12 -5 -11 -7 -9 
-8 -8 -10 -7 -8 -7 -11 -6 -9 -7 -11 -6 -11 -7 -11 -7 
-9 -8 -10 -7 -10 -7 -13 -6 -12 -4 -13 -3 -14 1 -15 3 
-15 6 -19 8 -18 12 -20 13 -18 15 -21 15 -16 16 -21 16 
-21 15 -19 16 -18 16 -19 15 -18 14 -18 15 -17 14 -16 13 
-14 12 -14 10 -15 8 -12 6 -12 8 -13 7 -11 7 -12 6 
-10 7 -10 6 -9 5 -10 5 -8 4 -9 1 -6 -1 -8 -4 
-8 -8 -7 -11 -9 -14 6200 916 100 MP stroke
-5 -18 -6 -22 -8 -26 -5 -30 -4 -35 -3 -41 -4 -46 -3 -54 
-5 -63 -1 -72 -2 -85 -5 -100 -2 -121 6253 1629 14 MP stroke
18 668 16 96 17 16 18 41 18 -13 16 -32 17 -57 18 -66 
16 -68 18 -29 18 21 17 64 17 86 18 90 18 89 18 91 
16 76 17 69 17 61 16 56 19 46 15 40 16 36 15 28 
14 26 13 21 14 17 13 16 13 14 13 13 12 12 12 13 
11 13 11 13 10 14 8 13 9 11 9 7 8 4 7 -1 
7 -6 8 -15 6 -23 6 -31 6 -38 4 -42 5 -45 4 -44 
8 -34 7 -20 5 -2 7 14 6 29 6 31 6 28 5 25 
4 16 4 13 3 11 2 8 1 5 2 0 2 2 2 2 
5 -2 2 3 4 -2 4 -2 5 0 4 8 8 1 6 7 
10 24 11 30 13 26 14 27 15 31 16 32 16 32 15 33 
14 33 16 32 15 31 16 29 13 27 15 24 13 21 10 16 
12 12 12 7 11 3 10 -3 9 -7 10 -12 6 -15 6 -18 
5 -24 5 -19 6 -23 2122 1647 100 MP stroke
3 -20 3 -20 2 -20 2 -9 0 1 2 -8 0 5 1 2 
-1 1 -2 2 1 2 -2 0 -2 -4 0 -8 -1 -11 -5 -13 
-2 -21 -4 -14 -2 -18 -3 -23 -5 -21 -3 -18 -5 -13 -9 -17 
-6 -10 -5 -2 -4 -2 -9 0 -6 -2 -5 7 -9 -3 -11 -3 
-7 -8 -6 -28 -9 -26 -8 -36 -10 -43 -9 -76 -8 -146 -11 -78 
-10 -149 -7 -169 -7 -312 -6 -306 -8 -365 -8 142 -8 317 -6 216 
-10 110 -10 77 -5 54 -7 44 -7 46 -7 31 -7 36 -6 32 
-5 38 -4 29 -6 29 -4 28 -6 28 -5 27 -3 34 -7 36 
-5 40 -5 43 -4 47 -6 47 -4 46 -5 48 -5 45 -8 42 
-6 38 -6 33 -6 30 -3 25 -5 21 -7 17 -7 13 -6 10 
-2 7 -5 5 -3 3 -5 3 -9 2 -4 2 -7 4 -5 5 
-3 7 -8 10 -7 12 -8 14 -8 17 -7 19 -6 21 -8 22 
-9 23 -11 24 -6 24 2645 1526 100 MP stroke
-9 24 -8 23 -8 21 -11 21 -9 18 -11 16 -12 14 -12 12 
-13 9 -13 7 -12 5 -15 3 -13 0 -10 0 -12 -3 -13 -3 
-14 -5 -17 -4 -13 -5 -14 -5 -13 -5 -13 -5 -15 -4 -15 -3 
-16 -3 -15 -3 -15 -1 -17 0 -14 0 -13 2 -13 4 -14 5 
-12 6 -12 8 -14 9 -14 11 -14 11 -13 13 -12 12 -12 13 
-12 13 -14 13 -15 12 -16 11 -16 11 -15 10 -19 10 -16 8 
-14 8 -16 8 -16 7 -16 6 -18 6 -18 6 -18 5 -18 4 
-18 5 -16 3 -19 3 -18 3 -18 1 -20 1 -18 1 -21 -1 
-20 -2 -19 -2 -18 -3 -20 -4 -19 -5 -20 -5 -21 -5 -21 -6 
-20 -5 -22 -5 -18 -5 -19 -4 -19 -4 -20 -3 -20 -3 -21 -2 
-21 -1 -19 -1 -21 0 -20 -1 -18 1 -20 0 -19 0 -19 1 
-19 0 -19 0 -19 0 -17 0 -17 0 -17 -1 -15 0 -15 -1 
-16 0 -17 -1 -18 0 4228 1221 100 MP stroke
-17 1 -17 0 -17 2 -16 1 -16 2 -17 3 -15 3 -16 3 
-16 3 -19 4 -16 4 -17 4 -15 4 -15 4 -15 5 -13 5 
-15 5 -15 6 -14 6 -15 6 -16 6 -14 7 -16 7 -16 6 
-13 7 -17 7 -12 7 -14 6 -12 6 -14 5 -13 5 -12 4 
-14 2 -8 1 -10 0 -9 -1 -10 -3 -9 -3 -10 -5 -9 -6 
-8 -7 -9 -7 -9 -7 -9 -7 -7 -6 -9 -5 -9 -4 -1 -2 
-6 -1 -5 1 -4 3 -7 4 -2 7 -1 7 -3 9 -2 10 
-1 10 -5 11 0 11 -4 10 -1 11 -4 9 -1 10 -6 9 
-6 8 3 8 -10 7 -4 7 3 7 -4 5 -3 6 -5 4 
-3 4 -8 3 -4 3 -14 2 -2 1 1 0 -3 -1 -20 -1 
-12 -3 4 -2 -3 -4 -7 -4 -20 -5 6 -5 -13 -6 -9 -6 
2 -7 -11 -7 -4 -8 -10 -8 0 -8 -15 -8 -9 -9 -10 -8 
-10 -9 -7 -9 -10 -9 5122 1078 100 MP stroke
-6 -9 -11 -8 -5 -9 -11 -8 -5 -8 -6 -7 -12 -7 -4 -7 
-9 -7 -6 -6 -8 -5 -5 -5 -7 -5 -1 -4 -11 -4 -8 -4 
-1 -3 -11 -3 -5 -3 -8 -3 -5 -4 -5 -3 -5 -3 -6 -4 
0 -3 -4 -4 -4 -4 -5 -4 -6 -4 -2 -3 -6 -3 0 -1 
-6 -1 -3 0 -4 2 -4 3 -6 4 -2 5 -6 7 1 7 
-9 8 -3 8 -2 8 -2 7 -2 8 2 6 0 6 -2 5 
-3 4 -1 3 -3 3 -1 1 -4 0 -3 0 -2 0 -4 -1 
-2 -1 -3 -1 -2 0 -4 -1 -3 0 -6 1 -3 1 -6 1 
-1 1 -9 1 -7 2 -5 1 -4 1 -8 1 -4 0 -7 0 
-11 0 1 0 -9 -1 -8 -1 -1 0 -8 0 1 0 -9 1 
-5 2 -5 2 -5 3 -6 4 -7 4 -8 3 -6 4 -7 2 
-7 2 -7 0 -7 -1 -7 -3 -8 -6 -7 -8 -17 -11 5 -13 
-11 -16 -6 -19 -10 -20 5628 1205 100 MP stroke
-5 -23 -5 -24 -10 -26 -6 -26 -10 -27 -6 -25 -9 -25 -10 -22 
-8 -20 -25 -16 3 -13 -1 -9 1 -6 -7 -2 -2 0 -4 3 
-2 4 -1 6 -1 6 0 7 -1 8 2 7 2 8 3 9 
3 9 4 9 2 11 5 12 2 12 8 13 1 13 6 14 
6 13 5 12 7 10 2 9 18 7 -2 6 13 3 11 1 
2 -1 11 -2 9 -4 10 -4 10 -4 10 -3 10 -2 11 -1 
11 1 14 3 15 5 14 6 14 8 14 9 14 8 15 8 
16 6 16 3 17 0 17 -3 17 -8 17 -11 16 -16 17 -19 
16 -24 17 -26 17 -23 16 -24 19 -24 18 -26 18 -11 16 1 
18 1 18 8 17 14 19 17 16 22 14 20 20 22 16 18 
20 15 17 9 17 8 18 3 15 -3 14 -9 14 -15 15 -20 
16 -25 16 -29 15 -34 14 -36 14 -38 14 -45 15 -33 14 -41 
16 -33 16 -14 17 -16 4750 1669 100 MP stroke
14 5 13 10 15 19 15 25 15 33 16 31 16 33 13 33 
16 28 14 29 15 21 17 16 17 12 18 6 16 -1 16 -10 
17 -16 17 -24 19 -35 18 -49 18 -27 16 -54 19 -70 17 -32 
19 -45 18 -48 18 -34 18 -37 19 -22 18 3 19 10 16 13 
20 22 20 14 18 13 17 48 19 20 20 20 17 22 17 18 
17 12 17 0 18 3 17 0 16 -5 16 -8 17 -5 16 12 
15 3 14 9 15 -6 15 29 14 6 14 30 13 19 14 18 
11 15 10 12 14 5 11 0 8 -1 10 -12 9 -21 7 -30 
6 -39 7 -49 7 -59 4 -80 5 -77 5 -69 5 -55 1 -60 
1 -76 4 -46 5 -20 0 12 -2 -21 3 -78 5 115 1 39 
0 43 -1 49 1 44 0 52 -2 22 -2 18 1 0 -1 15 
0 -299 1 274 3 -15 -1 19 0 29 2 19 2 20 0 25 
-2 20 1 10 1 26 3682 1776 100 MP stroke
0 52 1 9 0 5 -1 -1 -2 -8 2 -11 1 -22 -1 -7 
0 -46 2 -1 1 -20 0 -31 1 0 2 -16 -1 -27 3 -28 
0 14 3 -16 1 -7 0 -2 0 1 2 -1 2 16 0 8 
-2 -37 -1 46 2 -14 -1 -1 1 -66 0 35 -1 5 1 -43 
0 14 1 -76 3 -24 2 65 2 7 4 -65 4 69 3 25 
2 1 3 16 3 8 2 10 4 -24 2 24 1 -13 2 -15 
3 -10 0 -140 -1 -30 1 -35 -1 -47 0 -13 -1 -63 0 29 
-2 1 -2 24 -1 -9 -4 23 -3 -16 -3 23 -4 -7 -3 -83 
-3 12 -4 101 -4 -9 -4 22 -3 -47 -3 25 -3 -125 -4 -176 
-3 -159 -2 9 -5 -124 3688 2792 76 MP stroke
3228 3022 PD
-6 86 -8 18 -4 131 -12 -3 -11 109 -7 60 -9 59 -9 51 
-10 74 -8 61 -10 50 -12 45 -12 38 -12 32 -14 25 -15 19 
-13 14 -14 9 -14 5 -16 2 -14 -1 -15 -3 -14 -4 -12 -3 
-14 -3 -15 -2 -17 0 -16 2 -16 3 -15 6 -17 7 -16 9 
-16 10 -17 11 -18 13 -18 13 -19 14 -18 15 -17 14 -16 15 
-18 14 -19 14 -18 15 -17 13 -19 14 -17 14 -18 13 -19 14 
-18 13 -17 13 -18 13 -18 13 -16 13 -19 13 -19 13 -17 13 
-18 13 -18 13 -18 13 -18 14 -18 13 -17 14 -17 14 -17 14 
-19 15 -20 14 -18 14 -18 14 -18 13 -17 13 -16 13 -20 11 
-20 11 -19 10 -18 9 -19 9 -18 8 -21 7 -15 8 -21 7 
-22 6 -20 7 -20 6 -20 5 -20 6 -19 5 -21 4 -20 3 
-19 3 -19 3 -20 1 -17 2 -19 0 -17 1 -17 0 -19 1 
-18 1 -17 1 -16 1 4151 1019 100 MP stroke
-18 3 -16 3 -18 4 -17 4 -16 6 -16 5 -17 7 -16 7 
-18 7 -16 7 -18 8 -16 7 -18 7 -17 6 -17 5 -16 5 
-16 4 -16 3 -16 2 -17 2 -15 0 -15 0 -14 -2 -15 -2 
-16 -2 -16 -3 -13 -4 -13 -3 -14 -4 -13 -4 -14 -4 -15 -4 
-15 -4 -14 -3 -14 -3 -12 -3 -15 -2 -12 -3 -14 -2 -12 -2 
-13 -3 -11 -2 -10 -3 -11 -2 -11 -3 -11 -3 -10 -4 -11 -3 
-9 -2 -8 -3 -9 -2 -4 -3 -6 -1 -5 -1 -6 -1 -5 -1 
-5 0 -4 -1 -3 0 -2 0 -2 0 -1 -1 -1 0 1 0 
0 -3 3 -2 1 -2 3 -3 3 -4 3 -3 3 -4 5 -5 
3 -4 4 -4 5 -4 6 -4 5 -3 5 -3 6 -2 8 -2 
7 -1 7 -1 7 0 8 0 7 0 8 1 5 1 8 2 
5 2 9 3 7 2 8 3 6 3 10 3 3 3 14 2 
1 2 7 2 10 0 4724 1035 100 MP stroke
5 0 8 -1 7 -3 8 -3 7 -5 7 -5 7 -6 6 -7 
10 -8 0 -7 10 -8 3 -8 4 -7 3 -7 6 -6 0 -12 
4 -5 2 -5 1 -4 2 -4 0 -4 -1 -4 0 -7 -1 -3 
-2 -2 -1 -2 0 -1 -2 0 -1 2 -1 2 -1 4 -2 5 
0 6 -3 6 0 8 -4 7 -1 7 -2 7 -1 7 -5 5 
-3 5 -5 4 0 3 -1 2 -5 1 -3 0 -2 -1 -8 -1 
1 -1 -5 -2 -1 -2 -4 -2 -3 -2 -1 -2 -3 -2 -2 -1 
-2 -2 -1 0 -1 0 -5 0 -4 1 -1 1 -2 2 -3 2 
-1 2 -3 3 1 3 -2 3 0 3 -3 4 -1 3 0 3 
1 3 1 2 0 3 1 1 2 1 9 1 2 0 -2 -1 
6 -1 2 -2 14 -2 8 -2 -3 -3 1 -2 2 -3 13 -2 
-7 -3 21 -2 10 -2 -4 -1 3 -1 -4 -1 10 0 15 0 
-4 1 2 1 -1 2 4627 1089 100 MP stroke
1 3 4 2 11 3 -4 4 8 3 4 3 -1 4 1 3 
3 3 2 2 3 3 2 2 4 1 -2 2 1 1 0 2 
9 1 -2 2 2 2 0 3 14 2 3 3 -1 3 0 6 
2 3 2 2 2 1 3 0 -2 -1 3 -3 1 -3 4 -6 
1 -6 1 -8 1 -10 1 -10 -1 -11 -1 -12 -6 -11 -4 -11 
-1 -10 -4 -8 -3 -6 -4 -3 -3 0 -5 2 -4 5 -4 8 
-5 10 -3 11 -4 13 -4 13 -4 13 -2 13 -2 12 -3 10 
-1 8 -1 7 -3 5 0 3 -2 2 -5 0 -3 -1 1 -2 
-1 -3 -4 -3 -4 -4 -2 -3 -3 -4 -3 -3 -2 -3 -1 -3 
-1 -4 -1 -3 -1 -4 -2 -5 0 -5 3 -6 3 -8 2 -8 
5 -9 3 -10 5 -10 6 -11 6 -11 7 -11 8 -10 9 -10 
10 -8 9 -7 12 -6 10 -4 13 -3 13 -2 15 0 16 0 
17 1 17 1 16 1 4447 1185 100 MP stroke
18 1 20 1 21 0 20 -1 20 -1 19 -2 20 -4 23 -5 
22 -5 22 -7 20 -7 22 -9 19 -9 23 -9 23 -10 21 -9 
23 -11 24 -10 22 -12 24 -12 21 -14 21 -15 24 -18 21 -21 
21 -25 23 -29 21 -35 22 -39 22 -45 20 -52 24 -59 19 -65 
23 -74 22 -76 23 -85 19 -83 24 -101 23 -82 23 -45 24 -152 
22 41 21 -3 23 52 22 30 20 38 19 17 20 -5 20 -81 
20 66 18 44 16 -66 17 -115 18 1 16 -179 18 111 15 -81 
18 -247 3258 2798 58 MP stroke
-17 -92 -12 -166 -7 -97 -21 189 -20 306 -18 144 -19 115 -10 29 
-19 56 -14 -62 -24 -83 -23 43 -15 -98 -19 -115 -20 -184 -22 -204 
-26 -317 -21 -49 -30 -63 -16 598 -26 -33 -19 156 -24 2 -34 -58 
-29 -77 -21 -69 -18 -561 -29 268 -32 501 -32 158 -22 109 -21 107 
-32 124 -27 55 -33 88 -27 44 -31 32 -21 4 -25 39 -31 32 
-29 -15 -24 16 -30 19 -22 4 -27 14 -30 10 -22 18 -20 22 
-31 28 -23 27 -19 29 -27 29 -27 27 -21 23 -19 19 -24 16 
-23 12 -24 8 -20 5 -20 3 -17 1 -18 0 -19 -1 -18 0 
-18 0 -13 0 -19 1 -10 2 -13 3 -15 3 -16 2 -10 3 
-12 3 -13 1 -14 1 -10 -1 -10 -2 -8 -3 -6 -5 -7 -6 
-8 -7 -3 -8 -1 -8 -5 -8 -5 -8 -1 -8 -10 -6 -5 -5 
0 -3 3 -2 -1 -1 1 1 2 2 5 3 3 4 4 4 
5 4 5 3 6 3 5973 1397 100 MP stroke
-1 2 3 0 11 -1 2 -2 17 -4 -4 -5 12 -7 14 -8 
-6 -9 27 -10 8 -11 -6 -11 11 -11 20 -11 -3 -10 4 -9 
20 -9 5 -7 30 -6 -2 -4 9 -4 13 -3 10 -2 12 -2 
2 -2 19 -2 4 -3 22 -4 12 -4 6 -6 13 -6 15 -6 
11 -7 12 -7 10 -7 13 -6 11 -5 10 -5 12 -4 14 -4 
9 -4 13 -3 6 -4 21 -3 6 -4 13 -6 7 -5 8 -7 
12 -9 11 -9 13 -11 12 -12 15 -13 12 -14 11 -15 10 -15 
10 -15 10 -15 7 -14 10 -12 10 -11 2 -8 4 -7 20 -4 
11 -2 0 -1 8 0 4 0 5 0 4 -2 6 -4 4 -6 
1 -10 4 -13 4 -17 2 -19 3 -23 5 -24 1 -26 11 -23 
2 -21 6 -17 3 -12 4 -4 5 1 6 7 4 10 6 11 
6 13 8 11 7 10 8 7 7 4 8 1 10 -3 12 -6 
12 -8 14 -11 19 -13 5109 2029 100 MP stroke
13 -14 16 -13 17 -13 17 -10 14 -6 16 -3 17 -1 15 6 
18 6 23 9 16 10 22 11 20 11 22 8 17 10 20 6 
19 5 19 1 20 -1 18 -4 18 -9 20 -11 18 -15 19 -16 
20 -22 19 -22 18 -24 18 -24 20 -23 18 -23 19 -20 20 -15 
14 -14 23 -5 24 0 17 3 18 5 19 8 22 8 14 9 
14 7 20 6 17 3 20 1 15 -2 19 -3 26 -9 12 -3 
15 -12 22 -5 23 -6 15 -5 14 -4 18 -2 12 1 15 5 
14 7 20 12 19 17 14 18 19 21 22 19 16 23 18 19 
9 23 21 19 13 20 17 18 18 18 19 18 18 17 18 18 
18 19 27 20 19 20 21 20 18 18 27 16 18 15 23 10 
13 7 32 3 34 -2 5 -5 31 -7 22 -12 25 -13 24 -11 
24 -13 21 -17 21 -29 28 30 35 2 24 6 27 6 18 4 
20 7 15 15 34 16 3196 1837 100 MP stroke
21 -5 22 25 24 19 24 8 20 7 21 4 19 3 19 0 
24 -3 21 -6 19 -8 16 -9 15 -11 17 -12 18 -11 15 -9 
19 -9 17 -5 10 -2 15 1 12 4 10 6 10 7 16 10 
10 10 8 11 11 10 9 10 11 9 8 9 8 6 12 6 
10 5 9 4 8 4 6 3 9 2 5 2 11 3 9 2 
7 1 5 2 5 2 6 0 9 0 6 0 11 -2 4 -2 
7 -3 6 -3 7 -4 4 -4 7 -5 8 -6 5 -6 6 -8 
7 -8 4 -9 3 -10 4 -10 4 -12 5 -11 6 -12 4 -10 
7 -9 6 -7 2 -4 4 -1 4 2 4 5 3 7 5 9 
4 9 5 11 7 10 3 9 3 8 4 7 4 5 3 4 
7 2 8 0 5 -1 3 -2 2 -3 4 -4 3 -4 3 -6 
3 -6 1 -7 4 -9 1 -9 3 -12 -1 -13 2 -16 1 -18 
2 -22 2 -24 2 -27 2365 1973 100 MP stroke
1 -30 1 -33 0 -68 5 -35 0 -33 3 -28 1 -24 2 -19 
1 -10 0 -2 -1 8 4 11 0 16 4 17 0 18 1 17 
1 16 1 12 0 9 1 5 0 1 1 1 1 -3 0 -3 
1 -4 2 -4 -4 1 0 3 -1 4 0 7 -2 10 -3 13 
-1 14 -4 13 -1 13 -4 13 -1 9 -5 9 -2 6 -5 3 
-4 0 -6 -2 -5 -3 -7 -3 -7 -3 -7 -3 -6 2 -5 5 
-5 9 -8 12 -8 18 -6 20 -6 20 -5 19 -7 21 -5 15 
-5 9 -8 5 -7 -8 -6 -17 -6 -32 -7 -72 -6 -104 -7 -1 
2517 2113 65 MP stroke
-20 263 -7 89 -24 28 -17 33 -5 48 -13 18 -17 22 -12 23 
-21 14 -22 20 -6 6 -13 -4 -28 -3 -13 -10 -7 -31 -21 -19 
-15 -37 -20 -59 -16 -47 -18 -74 -12 -82 -17 -108 -21 -112 -17 -118 
-15 -81 -13 4 -22 121 -20 142 -18 139 -19 115 -16 96 -18 85 
-21 71 -15 60 -20 53 -15 46 -36 37 -6 32 -19 26 -33 22 
0 18 -31 13 -12 12 -40 10 -3 9 -21 8 -13 7 -33 6 
-23 6 -7 5 -25 8 -19 5 -19 4 -27 5 -32 3 -1 3 
-27 4 -15 1 -23 0 -20 0 -40 -1 2 -2 -29 -4 -11 1 
-43 1 -8 1 -35 7 -3 11 -27 16 -29 21 -3 25 -27 30 
-18 32 -36 34 -4 35 -18 34 -22 33 -17 30 -35 27 -16 24 
-21 21 -17 17 -24 14 -17 11 -26 7 -2 5 -37 2 -11 0 
-14 -1 -41 -3 2 -4 -28 -4 -9 -6 -39 -5 -5 -7 -31 -7 
-4 -7 -19 -8 -12 -8 3548 1636 100 MP stroke
-31 -9 -9 -10 -32 -11 -18 -10 6 -11 -18 -11 -20 -9 -20 -9 
1 -8 -27 -5 -6 -4 -16 -1 -10 2 -14 3 -10 6 -12 8 
-11 9 -10 10 -5 10 -11 11 -13 10 -14 9 -8 8 -14 6 
-9 5 -11 2 -4 1 -35 -1 5 -4 -5 -5 -17 -6 -15 -8 
-8 -7 -15 -8 -11 -7 -14 -6 -13 -4 -8 -2 -10 -1 -25 1 
-4 2 -16 2 -22 2 -2 1 -18 0 -13 -2 -24 -4 -9 -6 
-9 -7 -17 -9 -12 -11 -17 -11 -14 -11 -20 -10 -14 -11 -17 -8 
-15 -8 -16 -5 -14 -4 -17 -2 -13 1 -18 1 -13 3 -15 4 
-14 7 -14 6 -11 6 -13 6 -11 5 -14 4 -11 2 -14 1 
-11 0 -13 -1 -11 -1 -13 -2 -11 -3 -8 -1 -10 1 -10 2 
-8 3 -10 5 -8 5 -9 7 -11 7 -6 7 -8 7 -11 5 
-1 4 -7 2 -5 1 -8 -3 -4 -4 -7 -6 -5 -8 -7 -8 
-3 -10 -3 -9 -4 -9 4728 1757 100 MP stroke
-1 -8 -1 -7 -1 -3 1 -2 0 1 3 2 1 4 4 5 
5 6 2 6 2 5 5 5 3 4 7 2 5 1 9 0 
8 -2 8 -2 7 -4 8 -4 6 -4 8 -4 8 -3 10 -2 
6 -2 9 1 5 2 8 5 4 6 7 10 4 11 7 15 
5 15 4 18 4 19 4 20 0 20 4 20 -1 19 3 18 
1 16 2 15 -1 12 1 10 0 7 1 6 -2 3 1 1 
-4 -1 0 -2 -3 -4 -1 -4 -2 -4 0 -5 -2 -4 -1 -3 
-2 -2 -2 1 1 4 0 5 1 7 0 8 3 10 1 10 
3 11 1 11 3 9 2 9 4 6 2 6 6 3 4 1 
6 0 5 -2 8 -4 5 -5 8 -6 7 -6 7 -7 7 -7 
7 -7 7 -7 8 -7 7 -7 8 -6 8 -8 9 -7 16 -8 
3 -9 8 -9 10 -10 10 -11 10 -10 8 -11 8 -10 11 -9 
14 -8 5 -7 16 -5 4305 1615 100 MP stroke
-3 -3 20 -2 2 -1 15 0 1 1 8 1 13 1 12 2 
1 1 22 0 0 1 11 1 8 1 16 1 6 1 21 2 
5 3 9 2 11 3 12 4 10 3 13 3 10 3 15 2 
10 1 16 -1 10 -2 16 -4 7 -6 25 -7 10 -10 9 -11 
15 -13 14 -14 11 -14 23 -15 19 -14 4 -14 22 -13 12 -12 
18 -11 15 -10 19 -10 16 -8 19 -9 16 -10 19 -9 16 -11 
24 -13 28 -13 3 -15 23 -17 15 -17 21 -18 17 -19 21 -18 
16 -18 20 -17 16 -15 20 -14 17 -13 20 -12 18 -11 20 -10 
18 -10 21 -10 18 -10 23 -10 19 -11 21 -10 19 -12 21 -10 
20 -7 23 -7 19 -5 23 -4 19 0 23 6 20 8 21 10 
20 12 22 12 20 14 23 14 37 13 6 10 21 11 24 8 
23 5 24 5 23 2 24 2 23 0 24 0 22 0 25 1 
22 1 24 1 23 2 2649 2021 100 MP stroke
24 3 22 2 24 3 23 0 25 2 19 -1 25 -1 22 -1 
26 -1 20 -2 25 0 21 1 26 2 18 4 26 7 19 8 
26 10 19 11 28 14 16 13 27 12 13 12 34 11 27 8 
18 7 21 4 21 1 19 -3 9 -5 27 -9 10 -11 23 -13 
13 -16 19 -18 18 -20 19 -20 12 -18 12 -20 9 -17 10 -16 
11 -11 19 -10 7 -9 3 -7 10 -3 9 -5 7 -4 7 -4 
6 -4 7 -5 -2 -3 7 -5 2 -4 5 -2 -1 -2 5 0 
1 2 1 4 -1 6 2 7 1 9 6 9 -3 7 -3 4 
0 1 -1 -3 0 -8 -3 -14 0 -20 -6 -26 -3 -32 1 -39 
0 -46 -3 -47 -4 -48 0 -48 -1 -45 0 -38 -3 -27 -1 -12 
1 0 -1 14 2 25 3 36 1 42 4 56 7 54 3 54 
11 50 1 46 1 41 9 32 4 25 25 16 6 8 0 -2 
29 -10 -6 -19 9 -28 1643 2120 100 MP stroke
7 -37 37 -44 13 -50 -5 -57 4 -59 5 -60 18 -56 18 -52 
-8 -33 24 -24 3 -4 2 7 12 19 3 30 6 34 22 26 
13 30 -6 24 5 16 16 6 -1 -5 7 -17 12 -26 -6 -34 
16 -43 -2 -55 6 -59 19 -69 -2 -62 1 -79 -1 -80 0 -35 
1 -13 -1 -23 2 3 4 -11 -1 59 1 57 0 200 -1 37 
0 26 -3 12 -2 22 1 22 -4 15 0 16 -2 15 -3 20 
-4 24 -4 31 -4 36 -13 41 -1 40 -3 41 -17 39 7 38 
-15 34 -5 29 0 26 -10 19 -4 13 -7 6 -5 6 -5 -2 
-9 -7 -7 -12 3 -15 -7 -18 -4 -19 -9 -22 2 -23 -8 -24 
-6 -21 -5 -22 -5 -23 -6 -20 -3 -24 -5 -24 -5 -23 -13 -29 
-2 -31 -11 -36 1 -39 -16 -42 -8 -48 -9 -49 -8 -46 -4 -41 
-15 -30 -3 -13 -23 3 7 24 -16 33 -12 37 5 46 -16 44 
2 44 -14 45 -7 38 1739 2477 100 MP stroke
-10 39 -5 35 -22 29 -11 28 5 24 -3 20 -15 14 -25 11 
10 9 -28 5 -10 1 5 -2 -18 -7 -15 -7 -10 -13 -13 -14 
-16 -19 -18 -24 9 -30 -31 -18 9 -29 -14 -24 -6 -19 -11 -16 
-4 -13 -13 6 -4 7 -23 8 6 7 -11 5 -7 -1 -10 -5 
-6 -8 -9 -14 -6 -18 -9 -23 -8 -23 -18 -21 9 -23 -22 -13 
0 -15 -4 3 -7 -1 -6 11 -6 14 -7 24 -5 24 -4 26 
-6 27 -9 28 -9 28 -3 26 -5 25 -20 22 -10 18 5 16 
-4 12 -3 11 -12 9 -9 9 3 9 -9 11 -2 14 -13 17 
2 21 -6 21 -12 22 4 22 -10 20 -2 17 -9 13 -4 9 
-10 4 0 2 -9 -3 -6 -4 -8 -11 -7 -6 -12 -4 -1 -6 
-10 -3 -4 0 -9 4 -4 6 -14 9 0 9 -8 14 -9 16 
-1 17 -9 19 -6 22 -7 24 -6 24 -8 24 -7 27 -7 25 
-7 23 -7 22 -7 20 2482 1826 100 MP stroke
-8 18 -6 15 -10 13 -8 10 -2 10 -7 7 -4 7 -10 6 
0 4 -5 4 -3 4 -4 4 -4 4 -6 6 -4 5 -6 6 
-6 7 -6 6 -8 6 -8 6 -7 5 -7 3 -7 1 -8 0 
-9 -3 -10 -3 -11 -6 -10 -5 -11 -5 -13 -5 -13 -2 -12 1 
-14 5 -12 9 -13 14 -15 18 -13 23 -14 25 -15 28 -16 28 
-15 30 -17 28 -13 28 -15 25 -18 24 -14 22 -17 18 -17 16 
-17 14 -19 11 -19 9 -19 6 -18 5 -19 4 -20 2 -23 1 
-22 1 -23 0 -23 -1 -24 -1 -25 0 -23 -1 -23 0 -24 1 
-22 1 -23 2 -29 4 -25 5 -25 6 -27 8 -27 9 -26 11 
-25 11 -29 13 -26 13 -27 13 -26 14 -27 14 -27 13 -27 13 
-24 13 -26 12 -26 10 -26 10 -25 10 -25 8 -25 7 -22 6 
-22 5 -23 5 -20 4 -21 2 -20 2 -20 2 -17 1 -21 0 
-19 0 -18 0 -18 0 4130 1058 100 MP stroke
-15 -1 -16 -1 -17 -1 -19 -1 -16 -2 -16 -1 -15 -2 -15 -2 
-15 -2 -14 -2 -18 -2 -16 -2 -13 -2 -14 -3 -13 -2 -13 -2 
-12 -3 -12 -2 -8 -2 -12 -2 -19 -3 -10 -2 -11 -2 -6 -2 
-6 -2 -10 -2 -7 -2 -8 -2 -9 -2 -5 -2 -6 -2 -8 -3 
-6 -2 -8 -3 -6 -2 -7 -3 -6 -3 -9 -3 -5 -3 -9 -2 
-5 -3 -8 -2 -5 -2 -10 -1 -1 -1 -8 0 -7 0 -5 0 
-6 2 -4 1 -4 1 -3 2 -3 1 -1 2 -3 1 -3 0 
-2 -1 1 -2 -1 -2 3 -3 2 -3 -6 -5 0 -4 3 -5 
1 -6 -3 -5 0 -6 -1 -6 -2 -6 -1 -6 -1 -6 4 -6 
-2 -6 1 -5 -4 -6 0 -5 1 -6 1 -5 1 -4 -1 -4 
-1 -4 0 -3 -1 -2 -3 -1 -5 0 2 1 1 3 0 3 
-2 4 1 5 -3 5 1 6 -3 5 2 5 0 5 -2 3 
-3 3 0 1 -2 1 4680 1214 100 MP stroke
-1 -2 -2 -2 -1 -4 -5 -6 -3 -6 -7 -7 -2 -8 -10 -7 
-5 -8 -8 -8 -8 -7 -8 -6 -5 -5 -7 -3 -15 -3 -1 -2 
-9 -2 -13 0 -7 -1 -3 0 -11 -1 -6 -1 -12 -1 -3 -2 
-10 -3 0 -2 -10 -4 -4 -3 -13 -3 1 -2 -7 -2 -7 -1 
-9 1 -4 3 -2 4 -6 6 -4 7 -2 8 -4 8 -4 9 
-7 9 -3 9 -4 8 -6 8 0 6 -5 5 -3 4 -4 3 
-3 1 -7 0 -1 -2 -5 -3 0 -3 -4 -5 0 -6 -5 -6 
-1 -7 -1 -7 -1 -6 -1 -7 -1 -5 0 -13 1 -3 1 -2 
1 -1 1 -1 1 0 4 1 2 2 3 2 1 3 1 4 
2 5 1 6 1 8 2 9 0 10 2 11 0 12 1 13 
1 13 1 13 0 25 1 11 1 11 2 8 2 7 1 6 
5 4 3 2 4 0 3 0 6 -3 4 -3 10 -3 3 -4 
3 -4 9 -3 11 -3 4884 1141 100 MP stroke
1 -2 9 -1 5 1 6 2 8 2 7 4 8 4 8 4 
6 4 6 3 7 3 5 3 6 2 8 1 6 0 0 -1 
5 -1 4 -2 3 -2 5 -2 0 -2 1 -2 0 -2 1 -1 
0 -2 -5 0 0 1 -2 1 -4 1 -1 2 -5 2 -4 2 
-4 2 -5 3 -10 3 -1 2 -8 3 -6 2 -7 2 -7 2 
-8 2 -7 2 -8 3 -10 2 -8 3 -9 3 -7 4 -9 4 
-9 5 -10 6 -9 6 -15 7 -10 7 -3 8 -15 9 -6 8 
-14 9 -25 8 2 9 -5 7 -12 7 -9 7 -11 5 -10 5 
-10 4 -9 4 -10 4 -8 3 -9 3 -8 3 -9 4 -9 4 
-8 4 -6 6 -8 5 -5 7 -7 6 -5 7 -7 7 -4 8 
-6 6 -6 7 -5 5 -4 6 -7 4 -6 3 -7 3 -6 1 
-6 1 -5 1 -7 -1 -9 0 -9 -1 -8 -1 -9 -1 -8 0 
-8 1 -10 1 -11 1 5324 849 100 MP stroke
-10 3 -10 3 -10 4 -11 4 -10 4 -13 5 -12 5 -13 4 
-12 4 -14 4 -13 3 -16 3 -13 2 -15 2 -12 2 -17 1 
-12 0 -21 1 -19 0 -2 1 -19 0 -13 0 -18 1 -14 1 
-15 1 -12 2 -18 2 -13 2 -17 2 -25 3 -9 2 -7 3 
-27 2 -14 3 -15 2 -12 1 -16 1 -9 1 -18 -1 -1 0 
-28 -2 -29 -2 9 -2 -6 -3 -11 -4 -11 -4 -8 -4 -10 -4 
-6 -5 -8 -4 -4 -4 -9 -4 -3 -4 -15 -3 3 -3 -7 -3 
-4 -3 -6 -3 -6 -3 0 -3 -9 -3 -6 -3 0 -4 -6 -3 
-2 -4 -3 -4 -2 -3 -1 -3 -1 -3 -3 -1 1 -1 -3 0 
0 1 -1 2 0 3 -1 4 2 4 2 5 2 5 2 4 
2 5 4 4 3 3 4 2 4 1 6 0 6 0 5 -2 
8 -3 4 -3 11 -4 12 -4 1 -5 10 -4 8 -4 8 -5 
8 -4 9 -4 8 -4 5938 868 100 MP stroke
9 -4 9 -5 9 -5 9 -5 11 -7 10 -8 12 -9 11 -10 
12 -12 12 -13 12 -13 14 -15 14 -15 14 -14 15 -13 13 -12 
15 -10 15 -7 13 -5 16 -2 18 1 17 3 18 5 16 5 
19 5 19 5 19 5 20 3 20 1 21 0 22 -3 21 -8 
22 -7 22 -9 22 -12 22 -15 20 -18 21 -21 21 -19 22 -18 
21 -21 24 -20 21 -16 21 -15 18 -11 20 -9 20 -7 19 -5 
20 -5 18 -4 22 -5 18 -5 20 -6 21 -7 16 -8 18 -9 
19 -10 16 -10 20 -11 18 -11 19 -10 18 -10 19 -9 18 -8 
19 -7 17 -6 15 -4 20 -4 20 -4 18 -3 18 -4 17 -5 
18 -5 15 -5 16 -7 17 -8 15 -9 15 -10 15 -11 15 -10 
12 -11 14 -10 13 -9 12 -9 12 -8 12 -6 10 -5 11 -3 
11 -2 11 -2 11 0 10 0 9 1 10 1 8 1 10 1 
9 1 7 1 7 0 4358 1542 100 MP stroke
8 -1 6 -2 7 -3 6 -4 6 -6 6 -6 6 -8 7 -7 
7 -8 6 -7 6 -6 5 -3 5 -1 6 -1 6 9 4 12 
9 17 4 17 6 18 5 20 6 23 6 21 6 20 5 17 
6 16 6 13 4 10 6 6 8 4 7 0 8 -2 8 -6 
10 -7 8 -10 8 -10 8 -11 9 -12 8 -11 8 -9 10 -8 
10 -9 8 2 8 0 10 2 6 5 8 5 10 7 8 9 
9 7 8 5 8 4 7 0 5 -2 5 -7 7 -11 6 -17 
5 -25 6 -27 4 -30 3 -37 2 -44 5 -48 2 -64 3 -33 
4 -69 5 -24 3 -48 2 -36 4 -25 2 -11 6 -7 7 -7 
6 8 4 33 3 19 6 25 4 28 5 28 4 36 4 -3 
4 63 4 33 2 4 4 48 3 21 2 16 1 12 3 7 
4 4 0 -1 4 -6 3 -4 2 -13 3 -8 2 -3 3 -10 
2 2 1 -3 1 -10 3822 1677 100 MP stroke
1 18 5 7 1 2 1 13 1 2 0 -3 -5 -23 2 -1 
-2 -27 1 -24 -1 -33 -4 -43 -1 -54 -2 -46 -2 -32 -1 -37 
-2 -17 -5 -31 -4 -11 -3 9 -7 5 -3 -8 -6 27 -1 14 
-10 36 -9 17 -4 37 -6 42 -7 50 -4 43 -7 11 -14 5 
-6 10 -8 -10 -7 -24 -8 -33 -8 -43 -10 -54 -8 -58 -9 -71 
-7 -69 -9 -54 -9 -59 -11 -48 -12 -57 -9 -14 -10 -29 -9 -22 
-8 31 -10 10 -8 41 -11 95 -13 72 -9 36 -10 45 -9 16 
-11 14 -8 -4 -10 -43 -14 -52 -10 -45 -9 -71 -11 -71 -10 -32 
-13 -17 -9 33 -14 12 -17 -53 -14 -151 4288 2498 70 MP stroke
28 524 27 225 36 154 31 116 33 89 29 69 27 52 26 39 
31 27 29 18 23 10 28 4 23 -1 26 -6 24 -7 26 -9 
19 -9 24 -9 23 -8 24 -7 22 -5 22 -4 20 -3 17 -3 
18 -1 21 -2 21 -1 24 -3 19 -2 20 -3 22 -3 18 -4 
15 -4 21 -4 18 -3 20 -4 22 -3 22 -2 19 -2 23 -2 
16 -1 22 0 17 -1 21 0 19 0 22 0 18 0 25 -1 
17 -1 20 -1 15 -3 22 -2 17 -4 21 -4 16 -4 20 -5 
14 -5 21 -5 14 -6 22 -5 14 -5 22 -5 15 -4 20 -4 
12 -4 23 -3 10 -3 24 -4 6 -3 34 -3 17 -3 23 -3 
18 -4 9 -3 36 -2 10 -3 24 -2 15 -1 21 -1 18 -1 
19 -1 7 0 39 0 -5 0 38 0 36 -1 -12 0 31 -1 
6 -1 18 -1 27 -1 10 -2 23 -1 13 -1 19 -1 19 -1 
20 0 16 0 20 0 3947 1207 100 MP stroke
31 1 -4 1 9 1 27 2 6 2 21 3 8 3 20 4 
6 5 19 6 0 6 49 8 4 8 0 9 1 9 11 9 
7 10 12 10 6 9 13 9 11 8 9 8 7 7 10 6 
7 5 9 4 5 3 5 2 10 2 4 0 10 0 4 -1 
2 -2 6 -2 4 -3 1 -4 3 -3 3 -4 3 -5 1 -3 
3 -4 3 -3 3 -3 1 -2 2 -2 -5 -1 1 0 3 0 
-6 0 2 0 -4 0 1 0 -6 -1 -1 -1 -1 -2 -4 -2 
-4 -3 -2 -4 -2 -3 -2 -3 -4 -4 -5 -3 -8 -2 -2 -2 
-5 -1 -7 0 -10 1 3 2 -6 2 -2 3 -6 4 1 4 
-12 4 -2 4 -4 4 -1 3 -7 3 -1 3 -6 1 -3 1 
-6 0 -3 -1 -8 -2 -4 -3 -6 -4 -4 -3 -7 -5 -2 -4 
-14 -3 -11 -4 -7 -2 -8 -2 -12 0 -7 0 -9 2 2 2 
-7 2 -11 2 -17 2 3833 1104 100 MP stroke
-13 1 -3 1 -10 -1 -9 -1 -10 -3 -14 -4 -18 -4 -10 -6 
-10 -6 -9 -7 -10 -7 -10 -6 -10 -7 -4 -6 -5 -6 -13 -6 
-9 -5 -11 -5 -8 -5 -10 -5 -7 -5 -16 -5 -10 -5 -2 -5 
-12 -6 -11 -4 -9 -5 -21 -4 -3 -3 -10 -3 -17 -1 0 -1 
-7 0 -12 1 -1 1 -10 1 -6 2 -10 1 -1 1 -8 1 
1 1 -10 -1 -6 0 -8 -2 -1 -2 -8 -3 -10 -4 -4 -5 
0 -7 -11 -7 -5 -9 -11 -9 -17 -11 -1 -11 -7 -12 -6 -12 
-7 -12 -16 -12 -5 -11 -13 -11 -12 -10 -8 -9 -15 -8 -14 -7 
3 -6 -8 -5 -7 -4 -12 -3 -5 -4 -13 -3 -15 -3 -1 -3 
-15 -4 -9 -4 -5 -4 -15 -5 -11 -4 -11 -5 -12 -4 -11 -3 
-12 -2 -10 -1 -11 -1 -12 1 -15 2 -10 2 -19 2 -16 3 
-6 2 -18 1 -23 0 -3 -2 -13 -3 -10 -4 -23 -6 -7 -8 
-10 -9 -17 -11 -10 -12 4788 1515 100 MP stroke
-13 -12 -10 -13 -15 -14 -11 -13 -13 -13 -7 -14 -28 -12 -6 -12 
-24 -12 -8 -12 -11 -11 -6 -12 -15 -12 -3 -12 -9 -12 -7 -13 
-12 -12 -5 -13 -4 -13 -11 -12 -9 -13 -14 -11 -6 -12 -12 -12 
0 -11 -13 -12 -6 -12 -13 -13 -5 -13 -7 -14 -1 -14 -12 -14 
-24 -15 -3 -14 -3 -14 -8 -12 -19 -13 -23 -10 6 -9 -10 -7 
-17 -3 -4 0 -7 3 -19 7 2 12 -26 15 -9 17 -16 19 
-10 18 -3 17 -22 15 -17 11 -11 7 -16 3 -1 -1 -28 -6 
-2 -10 -13 -13 -12 -16 -12 -18 -12 -19 -10 -19 -12 -17 -13 -13 
-14 -7 -12 -2 -13 5 -11 13 -9 21 -12 26 -20 31 -16 32 
-14 33 -19 32 -13 30 -12 27 -23 23 -12 18 -4 15 -18 11 
-5 7 -21 4 -8 0 -7 -2 -12 -4 -20 -5 -1 -6 -8 -5 
-5 -5 -7 -5 -1 -3 -10 -2 -5 0 -8 0 -9 -1 -6 -1 
-7 -1 -6 -2 -3 -4 5849 1727 100 MP stroke
-14 -5 -1 -7 -7 -8 -21 -9 5 -11 -8 -9 -5 -9 -3 -8 
-21 -7 -3 -3 3 -1 -10 3 -17 5 5 8 -3 11 -6 13 
-8 14 -18 15 -2 15 4 16 -16 15 -11 15 3 14 -1 13 
-5 14 -19 13 5 12 -10 12 -6 12 2 12 -7 11 -8 12 
0 10 -2 11 -5 10 3 9 -5 9 0 8 -6 7 0 7 
2 6 -6 5 0 9 -1 3 0 2 4 3 3 2 -1 1 
1 1 -2 1 2 0 2 0 3 0 2 -1 5 -1 4 -2 
5 -1 4 -1 7 -1 2 -1 4 -1 16 1 4 0 4 1 
8 1 6 2 6 1 7 2 7 1 3 1 3 1 7 0 
7 -1 8 0 5 -2 16 -1 7 -1 8 -1 9 -2 8 0 
9 0 4 1 8 1 8 2 9 3 8 3 8 2 9 3 
19 3 12 3 10 1 13 1 9 0 11 -2 10 -4 9 -6 
11 -8 14 -10 12 -13 5695 1471 100 MP stroke
11 -14 14 -14 22 -17 26 -15 5 -15 10 -13 11 -11 12 -10 
13 -7 11 -5 13 -3 12 -2 15 -1 20 0 12 0 16 1 
13 0 12 0 17 0 14 -2 16 -2 16 -3 11 -5 13 -5 
12 -6 21 -7 13 -8 13 -7 12 -9 13 -10 14 -11 16 -14 
14 -15 14 -18 14 -21 14 -25 12 -28 20 -30 18 -33 13 -34 
23 -36 3 -35 17 -34 15 -33 19 -32 18 -31 13 -27 18 -28 
14 -28 17 -26 15 -25 21 -24 19 -23 14 -15 19 -15 16 -10 
18 -8 19 -7 16 -7 20 -7 15 -9 39 -11 8 -14 15 -17 
21 -18 19 -22 20 -26 22 -26 25 -31 16 -33 22 -33 20 -34 
21 -32 19 -33 22 -32 18 -27 24 -19 19 -15 25 -10 29 -7 
3 -3 25 1 14 -1 25 -6 15 -15 25 -15 12 -34 34 -62 
32 -64 -8 -130 16 -55 19 -148 31 -146 4 -6 17 193 16 199 
13 144 28 118 9 103 4044 2717 100 MP stroke
22 91 10 58 23 55 1 38 18 30 10 20 26 13 2 8 
9 0 17 -1 14 -2 12 -7 12 -9 11 -10 11 -11 8 -12 
11 -10 20 -13 -3 -11 23 -14 4 -15 9 -23 12 -17 21 -31 
-1 -33 13 -44 6 -53 24 -55 7 -71 -2 -79 11 -69 7 -73 
19 -69 18 -34 -6 -32 9 73 8 97 27 25 -2 227 4 120 
8 119 13 114 4 92 19 80 0 53 13 57 11 47 7 37 
11 22 -2 12 13 6 27 -2 4 -9 -2 -16 18 -22 15 -28 
-3 -29 16 -34 11 -37 17 -38 19 -37 9 -35 20 -31 1 -25 
20 -17 23 -6 10 2 12 10 24 22 10 28 33 32 8 31 
14 35 17 32 27 28 21 26 12 22 22 17 5 12 25 12 
13 10 18 7 15 13 19 15 14 21 20 27 18 31 16 41 
9 45 18 45 15 46 18 46 14 41 13 37 12 31 12 23 
14 18 14 7 12 4 2783 1570 100 MP stroke
14 2 16 -12 7 -13 3 -10 16 -19 8 -23 11 -18 8 -19 
7 -12 8 -6 12 -1 14 -1 3 6 8 9 12 12 11 14 
8 15 8 15 11 14 11 14 10 13 8 12 9 9 9 9 
11 6 10 4 8 3 9 1 13 0 10 -2 8 -3 16 -3 
6 -4 6 -5 12 -4 8 -3 10 -3 10 -2 13 0 9 1 
11 2 11 3 14 4 13 5 11 6 9 6 13 7 11 6 
12 6 9 6 8 6 9 6 7 5 6 5 7 5 5 5 
5 5 3 5 6 6 4 6 2 6 4 7 3 7 2 7 
4 7 1 8 2 7 2 7 1 6 2 6 1 4 -1 4 
2 2 -1 1 3 0 -1 -1 2 -3 -2 -3 1 -3 -1 -5 
1 -4 -1 -4 0 -8 -4 -3 -1 -3 -1 -2 2 -2 1 -2 
2 -3 0 -2 -1 -3 4 -2 6 -4 0 -3 1 -3 6 -3 
1 -2 6 -1 1 1 2169 1458 100 MP stroke
4 2 4 4 4 6 5 8 8 9 6 10 7 11 4 10 
7 11 7 9 9 8 7 6 9 4 9 3 9 0 7 -1 
10 -3 11 -5 12 -5 7 -6 10 -6 7 -6 9 -5 6 -3 
11 -2 7 0 7 2 6 4 16 6 0 8 9 8 9 10 
1 10 8 11 5 9 7 9 7 8 5 6 6 5 4 3 
7 1 4 -1 3 -2 6 -5 2 -5 3 -7 5 -8 3 -9 
5 -9 3 -9 4 -8 12 -7 1 -6 6 -4 5 -3 4 0 
5 1 6 2 5 3 7 4 10 5 0 3 8 4 2 2 
10 1 4 -1 8 -2 6 -4 5 -4 6 -6 5 -7 5 -6 
2 -7 11 -7 -3 -5 9 -5 5 -3 2 -1 2 1 2 2 
2 4 -1 5 2 5 -2 7 2 6 -4 6 -1 5 -5 4 
1 3 -2 1 -4 -1 -2 -3 -3 -4 -4 -6 -4 -8 -7 -9 
-4 -10 -5 -11 -6 -12 1735 1430 100 MP stroke
-7 -12 -7 -12 -6 -13 -3 -12 -10 -12 -3 -10 -13 -11 -2 -9 
-9 -8 -3 -7 -5 -6 -8 -4 -7 -4 -5 -1 -16 -1 -5 0 
-5 1 -15 2 -5 2 -13 3 -6 3 -9 2 -7 3 -7 3 
-3 2 -14 3 -1 2 -9 3 -2 2 -9 3 0 4 -11 4 
-5 5 -7 6 -5 7 -7 7 -4 7 -4 8 -4 7 -5 6 
-12 6 -5 5 -4 3 -1 1 -4 0 0 -1 -3 -4 -2 -5 
-2 -6 -2 -7 -3 -8 1 -7 0 -16 1 -7 0 -9 1 -3 
0 -1 5 1 0 2 4 3 8 3 1 4 5 3 3 3 
6 2 5 2 5 2 3 1 4 1 5 -1 7 0 8 -1 
2 -1 5 -1 4 -1 6 -1 3 -1 5 0 4 -1 5 -1 
4 0 4 -2 4 -1 2 -3 3 -3 1 -3 1 -5 3 -5 
2 -5 0 -5 -8 -6 4 -5 4 -6 -1 -5 1 -5 -1 -4 
-1 -4 -2 -3 -4 -4 1917 1572 100 MP stroke
3 -2 3 -3 -6 -3 4 -1 2 -2 0 -1 2 -2 1 0 
-1 0 -2 0 1 1 3 1 2 2 1 2 1 3 3 3 
3 3 4 3 5 3 6 2 6 2 7 1 5 0 5 0 
6 -1 5 -1 8 -1 7 -2 8 -2 8 -2 9 -1 12 -2 
10 0 7 -1 11 0 5 0 9 2 14 2 9 3 10 4 
11 5 11 5 12 6 13 6 9 6 10 7 10 6 12 5 
11 5 9 4 13 3 9 3 13 0 11 0 13 -2 11 -3 
13 -4 13 -6 9 -7 11 -8 12 -8 12 -9 11 -9 10 -9 
11 -9 10 -7 12 -7 9 -6 10 -5 9 -5 9 -4 10 -4 
10 -5 9 -4 10 -6 9 -6 10 -7 8 -8 10 -9 7 -10 
10 -11 7 -11 7 -13 7 -13 7 -12 6 -13 7 -14 6 -14 
7 -14 7 -16 9 -16 7 -18 10 -20 7 -21 6 -24 8 -26 
7 -29 15 -32 4 -35 1155 2020 100 MP stroke
13 -38 2 -40 11 -42 10 -45 5 -44 9 -44 -2 -41 22 -32 
-4 -24 7 -11 3 0 10 11 9 20 -4 25 30 29 4 27 
-2 29 2 26 -3 25 8 22 3 21 4 23 9 20 3 20 
5 21 2 21 4 21 2 22 2 21 2 22 2 20 1 20 
1 19 -1 18 0 89 -1 12 -1 11 0 28 -3 8 0 7 
-1 7 -2 6 0 16 1 1 -2 1 1 -1 -3 -3 0 -23 
-1 -8 -3 -9 1 -9 -1 -8 -1 -8 0 -6 -2 -5 -3 -3 
-1 -3 -4 -1 1 0 -1 1 -2 1 -1 1 0 1 -1 2 
1 2 -4 2 1 3 -2 4 0 4 -2 5 0 5 -2 6 
1 4 -2 4 0 1 -3 0 0 -3 -7 -5 2 -8 -3 -10 
-6 -13 -4 -13 -1 -15 -4 -16 -5 -15 -4 -15 -5 -12 0 -11 
-6 -8 -4 -6 -9 -4 -8 -2 -2 1 -7 2 -1 4 -16 5 
0 5 -9 5 -8 6 1135 1861 100 MP stroke
-3 7 -6 6 -13 6 -4 7 -8 8 -3 9 -4 11 -12 11 
-10 13 0 13 -9 12 -3 11 -12 10 -13 5 -3 2 -4 -4 
-12 -9 -9 -22 -3 -22 -14 -18 -6 -22 -11 -30 -12 -28 -2 -24 
-13 -19 -8 -11 -6 -12 -10 21 -18 13 -1 18 -11 11 -9 17 
-11 11 -10 15 -13 5 -11 -4 -13 -11 -11 -20 -12 -29 -13 -36 
-13 -47 -10 -53 -8 -62 -19 -66 -23 -70 0 -75 -17 -64 -11 -61 
-17 -64 -25 -70 -3 -186 -13 -251 -14 307 -23 -395 1677 3097 55 MP stroke
gr

c8
0 sg
%%IncludeResource: font Helvetica
/Helvetica /WindowsLatin1Encoding 120 FMSR

1970  294 mt 
(Experiment 2b - Digital magnetometers - Bias of orientation) s
2502 4902 mt 
(Distance to center of sensor network [m]) s
 558 2855 mt  -90 rotate
(Bias [degree]) s
90 rotate

end %%Color Dict

eplot
%%EndObject

epage
end

showpage

%%Trailer
%%EOF
