%!PS-Adobe-2.0 EPSF-1.2
%%Creator: MATLAB, The MathWorks, Inc. Version 7.13.0.564 (R2011b). Operating System: Microsoft Windows 7.
%%Title: ..\figures\digital_ort_ori.eps
%%CreationDate: 01/09/2013  18:55:20
%%DocumentNeededFonts: Helvetica
%%DocumentProcessColors: Cyan Magenta Yellow Black
%%Extensions: CMYK
%%Pages: 1
%%BoundingBox:    59   199   547   602
%%EndComments

%%BeginProlog
% MathWorks dictionary
/MathWorks 160 dict begin
% definition operators
/bdef {bind def} bind def
/ldef {load def} bind def
/xdef {exch def} bdef
/xstore {exch store} bdef
% operator abbreviations
/c  /clip ldef
/cc /concat ldef
/cp /closepath ldef
/gr /grestore ldef
/gs /gsave ldef
/mt /moveto ldef
/np /newpath ldef
/cm /currentmatrix ldef
/sm /setmatrix ldef
/rm /rmoveto ldef
/rl /rlineto ldef
/s {show newpath} bdef
/sc {setcmykcolor} bdef
/sr /setrgbcolor ldef
/sg /setgray ldef
/w /setlinewidth ldef
/j /setlinejoin ldef
/cap /setlinecap ldef
/rc {rectclip} bdef
/rf {rectfill} bdef
% page state control
/pgsv () def
/bpage {/pgsv save def} bdef
/epage {pgsv restore} bdef
/bplot /gsave ldef
/eplot {stroke grestore} bdef
% orientation switch
/portraitMode 0 def /landscapeMode 1 def /rotateMode 2 def
% coordinate system mappings
/dpi2point 0 def
% font control
/FontSize 0 def
/FMS {/FontSize xstore findfont [FontSize 0 0 FontSize neg 0 0]
  makefont setfont} bdef
/ISOLatin1Encoding where {pop /WindowsLatin1Encoding 256 array bdef
ISOLatin1Encoding WindowsLatin1Encoding copy pop
/.notdef/.notdef/quotesinglbase/florin/quotedblbase/ellipsis/dagger
/daggerdbl/circumflex/perthousand/Scaron/guilsinglleft/OE/.notdef/.notdef
/.notdef/.notdef/quoteleft/quoteright/quotedblleft/quotedblright/bullet
/endash/emdash/tilde/trademark/scaron/guilsinglright/oe/.notdef/.notdef
/Ydieresis WindowsLatin1Encoding 128 32 getinterval astore pop}
{/WindowsLatin1Encoding StandardEncoding bdef} ifelse
/reencode {exch dup where {pop load} {pop StandardEncoding} ifelse
  exch dup 3 1 roll findfont dup length dict begin
  { 1 index /FID ne {def}{pop pop} ifelse } forall
  /Encoding exch def currentdict end definefont pop} bdef
/isroman {findfont /CharStrings get /Agrave known} bdef
/FMSR {3 1 roll 1 index dup isroman {reencode} {pop pop} ifelse
  exch FMS} bdef
/csm {1 dpi2point div -1 dpi2point div scale neg translate
 dup landscapeMode eq {pop -90 rotate}
  {rotateMode eq {90 rotate} if} ifelse} bdef
% line types: solid, dotted, dashed, dotdash
/SO { [] 0 setdash } bdef
/DO { [.5 dpi2point mul 4 dpi2point mul] 0 setdash } bdef
/DA { [6 dpi2point mul] 0 setdash } bdef
/DD { [.5 dpi2point mul 4 dpi2point mul 6 dpi2point mul 4
  dpi2point mul] 0 setdash } bdef
% macros for lines and objects
/L {lineto stroke} bdef
/MP {3 1 roll moveto 1 sub {rlineto} repeat} bdef
/AP {{rlineto} repeat} bdef
/PDlw -1 def
/W {/PDlw currentlinewidth def setlinewidth} def
/PP {closepath eofill} bdef
/DP {closepath stroke} bdef
/MR {4 -2 roll moveto dup  0 exch rlineto exch 0 rlineto
  neg 0 exch rlineto closepath} bdef
/FR {MR stroke} bdef
/PR {MR fill} bdef
/L1i {{currentfile picstr readhexstring pop} image} bdef
/tMatrix matrix def
/MakeOval {newpath tMatrix currentmatrix pop translate scale
0 0 1 0 360 arc tMatrix setmatrix} bdef
/FO {MakeOval stroke} bdef
/PO {MakeOval fill} bdef
/PD {currentlinewidth 2 div 0 360 arc fill
   PDlw -1 eq not {PDlw w /PDlw -1 def} if} def
/FA {newpath tMatrix currentmatrix pop translate scale
  0 0 1 5 -2 roll arc tMatrix setmatrix stroke} bdef
/PA {newpath tMatrix currentmatrix pop	translate 0 0 moveto scale
  0 0 1 5 -2 roll arc closepath tMatrix setmatrix fill} bdef
/FAn {newpath tMatrix currentmatrix pop translate scale
  0 0 1 5 -2 roll arcn tMatrix setmatrix stroke} bdef
/PAn {newpath tMatrix currentmatrix pop translate 0 0 moveto scale
  0 0 1 5 -2 roll arcn closepath tMatrix setmatrix fill} bdef
/vradius 0 def /hradius 0 def /lry 0 def
/lrx 0 def /uly 0 def /ulx 0 def /rad 0 def
/MRR {/vradius xdef /hradius xdef /lry xdef /lrx xdef /uly xdef
  /ulx xdef newpath tMatrix currentmatrix pop ulx hradius add uly
  vradius add translate hradius vradius scale 0 0 1 180 270 arc 
  tMatrix setmatrix lrx hradius sub uly vradius add translate
  hradius vradius scale 0 0 1 270 360 arc tMatrix setmatrix
  lrx hradius sub lry vradius sub translate hradius vradius scale
  0 0 1 0 90 arc tMatrix setmatrix ulx hradius add lry vradius sub
  translate hradius vradius scale 0 0 1 90 180 arc tMatrix setmatrix
  closepath} bdef
/FRR {MRR stroke } bdef
/PRR {MRR fill } bdef
/MlrRR {/lry xdef /lrx xdef /uly xdef /ulx xdef /rad lry uly sub 2 div def
  newpath tMatrix currentmatrix pop ulx rad add uly rad add translate
  rad rad scale 0 0 1 90 270 arc tMatrix setmatrix lrx rad sub lry rad
  sub translate rad rad scale 0 0 1 270 90 arc tMatrix setmatrix
  closepath} bdef
/FlrRR {MlrRR stroke } bdef
/PlrRR {MlrRR fill } bdef
/MtbRR {/lry xdef /lrx xdef /uly xdef /ulx xdef /rad lrx ulx sub 2 div def
  newpath tMatrix currentmatrix pop ulx rad add uly rad add translate
  rad rad scale 0 0 1 180 360 arc tMatrix setmatrix lrx rad sub lry rad
  sub translate rad rad scale 0 0 1 0 180 arc tMatrix setmatrix
  closepath} bdef
/FtbRR {MtbRR stroke } bdef
/PtbRR {MtbRR fill } bdef
/stri 6 array def /dtri 6 array def
/smat 6 array def /dmat 6 array def
/tmat1 6 array def /tmat2 6 array def /dif 3 array def
/asub {/ind2 exch def /ind1 exch def dup dup
  ind1 get exch ind2 get sub exch } bdef
/tri_to_matrix {
  2 0 asub 3 1 asub 4 0 asub 5 1 asub
  dup 0 get exch 1 get 7 -1 roll astore } bdef
/compute_transform {
  dmat dtri tri_to_matrix tmat1 invertmatrix 
  smat stri tri_to_matrix tmat2 concatmatrix } bdef
/ds {stri astore pop} bdef
/dt {dtri astore pop} bdef
/db {2 copy /cols xdef /rows xdef mul dup 3 mul string
  currentfile exch readhexstring pop
  dup 0 3 index getinterval /rbmap xdef
  dup 2 index dup getinterval /gbmap xdef
  1 index dup 2 mul exch getinterval /bbmap xdef pop pop}bdef
/it {gs np dtri aload pop moveto lineto lineto cp c
  cols rows 8 compute_transform 
  rbmap gbmap bbmap true 3 colorimage gr}bdef
/il {newpath moveto lineto stroke}bdef
currentdict end def
%%EndProlog

%%BeginSetup
MathWorks begin

0 cap

end
%%EndSetup

%%Page: 1 1
%%BeginPageSetup
%%PageBoundingBox:    59   199   547   602
MathWorks begin
bpage
%%EndPageSetup

%%BeginObject: obj1
bplot

/dpi2point 12 def
portraitMode 0204 7344 csm

  510   110  5861  4844 MR c np
85 dict begin %Colortable dictionary
/c0 { 0.000000 0.000000 0.000000 sr} bdef
/c1 { 1.000000 1.000000 1.000000 sr} bdef
/c2 { 0.900000 0.000000 0.000000 sr} bdef
/c3 { 0.000000 0.820000 0.000000 sr} bdef
/c4 { 0.000000 0.000000 0.800000 sr} bdef
/c5 { 0.910000 0.820000 0.320000 sr} bdef
/c6 { 1.000000 0.260000 0.820000 sr} bdef
/c7 { 0.000000 0.820000 0.820000 sr} bdef
c0
1 j
1 sg
   0    0 6913 5185 PR
6 w
0 4225 5356 0 0 -4225 899 4614 4 MP
PP
-5356 0 0 4225 5356 0 0 -4225 899 4614 5 MP stroke
4 w
DO
SO
6 w
0 sg
 899  389 mt 6255  389 L
 899 4614 mt 6255 4614 L
6255 4614 mt 6255  389 L
 899 4614 mt  899  389 L
 899 4614 mt 6255 4614 L
 899 4614 mt  899  389 L
 899 4614 mt  899 4560 L
 899  389 mt  899  442 L
%%IncludeResource: font Helvetica
/Helvetica /WindowsLatin1Encoding 120 FMSR

 866 4759 mt 
(0) s
1568 4614 mt 1568 4560 L
1568  389 mt 1568  442 L
1535 4759 mt 
(2) s
2238 4614 mt 2238 4560 L
2238  389 mt 2238  442 L
2205 4759 mt 
(4) s
2907 4614 mt 2907 4560 L
2907  389 mt 2907  442 L
2874 4759 mt 
(6) s
3577 4614 mt 3577 4560 L
3577  389 mt 3577  442 L
3544 4759 mt 
(8) s
4246 4614 mt 4246 4560 L
4246  389 mt 4246  442 L
4180 4759 mt 
(10) s
4916 4614 mt 4916 4560 L
4916  389 mt 4916  442 L
4850 4759 mt 
(12) s
5585 4614 mt 5585 4560 L
5585  389 mt 5585  442 L
5519 4759 mt 
(14) s
6255 4614 mt 6255 4560 L
6255  389 mt 6255  442 L
6189 4759 mt 
(16) s
 899 4614 mt  952 4614 L
6255 4614 mt 6201 4614 L
 728 4658 mt 
(-8) s
 899 3909 mt  952 3909 L
6255 3909 mt 6201 3909 L
 728 3953 mt 
(-6) s
 899 3205 mt  952 3205 L
6255 3205 mt 6201 3205 L
 728 3249 mt 
(-4) s
 899 2501 mt  952 2501 L
6255 2501 mt 6201 2501 L
 728 2545 mt 
(-2) s
 899 1797 mt  952 1797 L
6255 1797 mt 6201 1797 L
 798 1841 mt 
(0) s
 899 1093 mt  952 1093 L
6255 1093 mt 6201 1093 L
 798 1137 mt 
(2) s
 899  389 mt  952  389 L
6255  389 mt 6201  389 L
 798  433 mt 
(4) s
 899  389 mt 6255  389 L
 899 4614 mt 6255 4614 L
6255 4614 mt 6255  389 L
 899 4614 mt  899  389 L
gs 899 389 5357 4226 MR c np
12 w
/c8 { 0.000000 0.000000 1.000000 sr} bdef
c8
1 -2 2 -28 1 -23 2 -16 1 104 2 -49 1 -20 2 -6 
1 -33 2 -54 1 -4 2 119 1 -123 2 17 1 8 2 -12 
1 -28 2 13 1 -28 2 -46 2 -20 1 30 2 32 1 -65 
2 -23 1 6 2 -23 1 -6 2 43 1 -8 2 -78 1 -22 
2 -1 1 24 2 2 1 46 2 -10 1 -80 2 -12 1 -59 
2 77 1 -14 2 25 2 -35 1 -11 2 -35 1 -43 2 2 
1 37 2 10 1 3 2 -67 1 2 2 6 1 -28 2 95 
1 -17 2 -39 1 22 2 -19 1 -43 2 18 1 40 2 14 
1 -47 2 -27 2 34 1 5 2 -27 1 40 2 -3 1 -36 
2 17 1 -34 2 12 1 134 2 -70 1 -28 2 11 1 -24 
2 -37 1 4 2 65 1 58 2 -24 1 -43 2 19 1 -54 
2 41 1 60 2 11 2 -34 1 -37 2 -14 1 21 2 -84 
1 121 2 -14 1 -37 5783 2486 100 MP stroke
2 -23 1 -30 2 -27 1 -65 2 -1 1 115 2 -92 1 -5 
2 13 1 0 2 -21 1 -17 2 50 1 -21 2 27 2 0 
1 -44 2 -47 1 -11 2 -40 1 4 2 11 1 -53 2 68 
1 -65 2 48 1 -17 2 -16 1 -16 2 3 1 -96 2 36 
1 50 2 4 1 20 2 -3 1 -57 2 -14 2 -68 1 -18 
2 120 1 -50 2 17 1 -32 2 -51 1 116 2 -46 1 -4 
2 -22 1 -50 2 161 1 -28 2 -28 1 13 2 -114 1 17 
2 81 1 -43 2 -33 1 2 2 -20 2 132 1 -23 2 -16 
1 -42 2 -34 1 64 2 -12 1 20 2 -47 1 119 2 25 
1 -3 2 -28 1 21 2 49 1 -95 2 45 1 -15 2 -49 
1 114 2 -59 1 23 2 -70 2 66 1 8 2 -111 1 65 
2 2 1 48 2 -40 1 1 2 -47 1 53 2 -36 1 49 
2 70 1 -119 2 18 5632 2752 100 MP stroke
1 4 2 -35 1 4 2 -30 1 22 2 51 1 -35 2 -17 
2 38 1 -37 2 21 1 -17 2 23 1 30 2 -17 1 -12 
2 34 1 -25 2 -4 1 14 2 -51 1 -7 2 20 1 -17 
2 -12 1 -39 2 27 1 43 2 0 1 -31 2 -46 2 -27 
1 64 2 7 1 -10 2 -46 1 -17 2 5 1 22 2 -49 
1 -130 2 -9 1 -16 2 182 1 25 2 -8 1 -56 2 -106 
1 37 2 -20 1 28 2 -17 1 2 2 25 2 151 1 -1 
2 -71 1 -115 2 75 1 -73 2 66 1 -62 2 146 1 -47 
2 -9 1 -20 2 -88 1 130 2 -45 1 -29 2 3 1 -23 
2 92 1 40 2 23 1 -144 2 48 2 145 1 -72 2 -81 
1 -23 2 16 1 -8 2 143 1 71 2 -53 1 11 2 -131 
1 68 2 61 1 -43 2 -123 1 16 2 -1 1 147 2 -2 
1 -12 2 -139 1 -30 5482 2960 100 MP stroke
2 29 2 56 1 105 2 -70 1 68 2 -58 1 40 2 -32 
1 172 2 -78 1 25 2 -60 1 84 2 -158 1 103 2 33 
1 -6 2 -7 1 -7 2 11 1 -153 2 82 1 160 2 -32 
2 26 1 -22 2 -6 1 -46 2 12 1 27 2 14 1 4 
2 4 1 -26 2 -24 1 -94 2 154 1 9 2 35 1 -16 
2 21 1 -9 2 7 1 -21 2 13 1 -10 2 10 2 24 
1 23 2 6 1 17 2 -6 1 1 2 1 1 -1 2 0 
1 -187 2 65 1 244 2 -7 1 10 2 -45 1 22 2 -8 
1 6 2 -2 1 32 2 -25 1 17 2 8 2 6 1 -20 
2 -196 1 126 2 200 1 -47 2 36 1 -33 2 25 1 -16 
2 16 1 -4 2 58 1 -2 2 12 1 -29 2 13 1 -13 
2 25 1 -14 2 17 1 -19 2 12 1 12 2 66 2 -24 
1 -16 2 14 1 -2 5331 2193 100 MP stroke
2 24 1 -11 2 -7 1 1 2 15 1 -10 2 19 1 -2 
2 3 1 14 2 -2 1 4 2 25 1 7 2 30 1 8 
2 -40 1 15 2 18 2 12 1 -17 2 -18 1 34 2 32 
1 -82 2 2 1 -8 2 37 1 -34 2 32 1 -38 2 30 
1 134 2 -96 1 53 2 8 1 20 2 12 1 -48 2 -14 
1 35 2 22 2 31 1 -18 2 24 1 -6 2 7 1 29 
2 24 1 102 2 -21 1 -86 2 -33 1 42 2 -3 1 33 
2 6 1 -57 2 -45 1 88 2 32 1 0 2 -9 1 -17 
2 -11 2 -30 1 47 2 -89 1 54 2 149 1 -61 2 89 
1 -135 2 29 1 39 2 28 1 -13 2 -85 1 -43 2 45 
1 27 2 20 1 161 2 -14 1 -99 2 36 1 -62 2 34 
2 29 1 13 2 -16 1 -38 2 -14 1 90 2 3 1 9 
2 -106 1 29 2 173 5180 1563 100 MP stroke
1 -4 2 -51 1 -62 2 -7 1 85 2 0 1 -52 2 -26 
1 39 2 -6 1 19 2 -12 2 -29 1 -6 2 34 1 9 
2 -43 1 -35 2 46 1 2 2 -10 1 -8 2 26 1 30 
2 23 1 23 2 -49 1 -6 2 28 1 -40 2 35 1 -17 
2 56 1 -74 2 69 2 2 1 21 2 -46 1 -26 2 -13 
1 105 2 -46 1 11 2 -13 1 -7 2 -72 1 -79 2 110 
1 -66 2 37 1 37 2 10 1 -28 2 0 1 15 2 6 
1 -3 2 7 2 14 1 44 2 -1 1 -5 2 2 1 23 
2 9 1 -16 2 14 1 56 2 -9 1 -37 2 20 1 67 
2 -72 1 -77 2 7 1 23 2 -47 1 31 2 6 1 34 
2 -20 2 18 1 -1 2 -10 1 8 2 47 1 -51 2 34 
1 -82 2 -66 1 61 2 4 1 -75 2 49 1 29 2 -25 
1 -94 2 23 1 -23 5030 1702 100 MP stroke
2 15 1 -12 2 -10 1 9 2 6 2 -38 1 16 2 -8 
1 36 2 6 1 26 2 0 1 -63 2 50 1 -50 2 356 
1 -108 2 -193 1 38 2 44 1 26 2 38 1 10 2 33 
1 -73 2 83 1 28 2 -122 2 12 1 -32 2 32 1 -2 
2 81 1 -5 2 35 1 -134 2 27 1 20 2 19 1 4 
2 -183 1 52 2 -97 1 369 2 76 1 -84 2 120 1 -164 
2 -334 1 93 2 -35 2 48 1 19 2 -23 1 -19 2 -14 
1 -73 2 63 1 59 2 -7 1 19 2 -18 1 4 2 18 
1 -23 2 15 1 146 2 6 1 -20 2 0 1 32 2 38 
1 57 2 -74 2 -40 1 -6 2 -47 1 45 2 23 1 -5 
2 -3 1 -41 2 -31 1 28 2 9 1 9 2 20 1 -5 
2 -91 1 1 2 12 1 24 2 23 1 73 2 -87 1 -117 
2 84 1 -8 2 -35 4879 1601 100 MP stroke
2 -5 1 -28 2 -10 1 -38 2 54 1 -58 2 35 1 -7 
2 -119 1 87 2 -2 1 27 2 -11 1 -46 2 -21 1 -9 
2 -3 1 33 2 -36 1 52 2 -172 1 81 2 7 2 45 
1 -33 2 -41 1 -27 2 14 1 -17 2 62 1 -42 2 -89 
1 18 2 28 1 12 2 -9 1 -138 2 90 1 -72 2 -83 
1 126 2 122 1 -40 2 -94 1 2 2 8 2 13 1 -9 
2 13 1 -109 2 95 1 -15 2 13 1 2 2 9 1 -15 
2 -16 1 3 2 -65 1 -42 2 44 1 33 2 22 1 5 
2 22 1 -11 2 8 1 -3 2 -17 2 -1 1 -26 2 29 
1 15 2 17 1 4 2 24 1 30 2 -6 1 -20 2 27 
1 -22 2 71 1 -8 2 -152 1 -7 2 78 1 30 2 -30 
1 0 2 -7 1 17 2 -7 2 -29 1 -26 2 37 1 53 
2 14 1 -41 2 53 4728 1851 100 MP stroke
1 21 2 -14 1 8 2 -13 1 26 2 25 1 -23 2 -20 
1 -23 2 0 1 -22 2 11 1 -27 2 -27 1 -22 2 18 
2 130 1 -1 2 -24 1 -20 2 -23 1 -14 2 -14 1 -19 
2 -66 1 33 2 157 1 -47 2 25 1 -42 2 0 1 -19 
2 22 1 -49 2 49 1 54 2 -38 1 14 2 -12 2 11 
1 -41 2 -38 1 21 2 46 1 28 2 1 1 0 2 -28 
1 -16 2 29 1 32 2 12 1 -101 2 8 1 155 2 -53 
1 -5 2 -43 1 109 2 -71 1 -10 2 23 2 -53 1 19 
2 -19 1 26 2 17 1 -42 2 41 1 -39 2 -12 1 -3 
2 12 1 23 2 -82 1 28 2 -7 1 11 2 -54 1 -84 
2 138 1 12 2 -71 1 -35 2 4 2 3 1 -14 2 -47 
1 -39 2 132 1 -41 2 -55 1 -62 2 19 1 -4 2 29 
1 -78 2 -37 1 4 4578 2128 100 MP stroke
2 12 1 -8 2 -34 1 -39 2 -54 1 -9 2 55 1 -50 
2 -35 2 -36 1 46 2 -3 1 -27 2 -84 1 22 2 0 
1 27 2 -109 1 17 2 14 1 -15 2 -39 1 54 2 -28 
1 -73 2 -44 1 130 2 -88 1 -19 2 -15 1 13 2 -7 
2 -10 1 -3 2 -26 1 -6 2 -20 1 26 2 -21 1 -20 
2 57 1 -11 2 -52 1 -4 2 -2 1 20 2 -23 1 19 
2 31 1 15 2 -15 1 -10 2 30 1 -13 2 -2 2 26 
1 14 2 19 1 10 2 3 1 12 2 -4 1 18 2 -16 
1 10 2 54 1 3 2 -18 1 -13 2 -54 1 155 2 -10 
1 -29 2 -27 1 10 2 -65 1 141 2 -44 1 -22 2 1 
2 -20 1 -60 2 106 1 101 2 -82 1 7 2 -62 1 47 
2 -103 1 60 2 78 1 -12 2 -30 1 -67 2 28 1 -49 
2 77 1 7 2 -31 4427 2425 100 MP stroke
1 -29 2 -3 1 -32 2 34 2 -81 1 85 2 81 1 -65 
2 -15 1 -49 2 -1 1 -9 2 -21 1 37 2 30 1 -13 
2 3 1 6 2 -15 1 -41 2 5 1 0 2 3 1 4 
2 -87 1 110 2 100 2 -101 1 43 2 -35 1 35 2 -28 
1 18 2 -33 1 15 2 -73 1 43 2 -40 1 89 2 21 
1 11 2 29 1 -9 2 -16 1 5 2 -44 1 6 2 56 
1 14 2 -1 2 41 1 1 2 -36 1 -20 2 0 1 -25 
2 -4 1 77 2 -26 1 58 2 61 1 -36 2 -33 1 3 
2 -23 1 -40 2 33 1 -30 2 82 1 91 2 -21 1 -42 
2 16 2 -25 1 -34 2 -24 1 48 2 -30 1 90 2 64 
1 -86 2 -25 1 26 2 -12 1 -17 2 2 1 18 2 -23 
1 33 2 60 1 -76 2 7 1 3 2 -26 1 2 2 16 
2 4 1 -21 2 -80 4276 2362 100 MP stroke
1 161 2 -36 1 -53 2 8 1 29 2 -37 1 15 2 -1 
1 9 2 -125 1 119 2 -29 1 -18 2 63 1 -31 2 17 
1 -49 2 -2 1 -13 2 4 2 -42 1 31 2 12 1 4 
2 -5 1 4 2 -32 1 -10 2 8 1 -4 2 49 1 -130 
2 124 1 -27 2 -47 1 61 2 -90 1 70 2 -48 1 -8 
2 -13 1 41 2 -31 2 55 1 -29 2 15 1 22 2 71 
1 -27 2 -51 1 -29 2 8 1 32 2 26 1 29 2 22 
1 -14 2 1 1 -95 2 18 1 -55 2 24 1 22 2 34 
1 -19 2 -15 2 -17 1 11 2 -33 1 -9 2 174 1 -11 
2 9 1 49 2 -5 1 4 2 -16 1 3 2 2 1 -6 
2 -36 1 -12 2 -5 1 21 2 -26 1 67 2 -20 1 0 
2 -1 2 5 1 -34 2 29 1 -25 2 10 1 -40 2 -69 
1 -16 2 -62 1 -29 4126 2457 100 MP stroke
2 -6 1 28 2 5 1 -32 2 -56 1 33 2 47 1 -24 
2 11 1 -6 2 16 1 -23 2 60 2 -45 1 -63 2 56 
1 -2 2 -9 1 93 2 -67 1 31 2 -42 1 8 2 -15 
1 -40 2 24 1 51 2 -6 1 20 2 -48 1 17 2 -34 
1 -59 2 35 1 24 2 71 2 13 1 -33 2 -12 1 -58 
2 22 1 -1 2 -5 1 118 2 -53 1 7 2 -29 1 8 
2 36 1 -14 2 45 1 -15 2 -49 1 30 2 -19 1 9 
2 -53 1 59 2 -7 2 -39 1 -22 2 -35 1 21 2 -16 
1 2 2 -28 1 14 2 14 1 6 2 -51 1 27 2 -49 
1 -13 2 -3 1 -12 2 -10 1 -37 2 9 1 113 2 -110 
1 5 2 -32 1 8 2 -37 2 -15 1 -32 2 -11 1 -29 
2 26 1 -13 2 4 1 -7 2 -24 1 -5 2 39 1 -10 
2 -9 1 -45 2 8 3975 2803 100 MP stroke
1 -26 2 72 1 49 2 -75 1 -25 2 -22 1 -34 2 2 
2 -33 1 21 2 -15 1 -28 2 83 1 -13 2 -9 1 -27 
2 -22 1 -40 2 -18 1 11 2 -32 1 0 2 87 1 -50 
2 -7 1 -52 2 -3 1 -28 2 -72 1 -43 2 66 2 55 
1 -40 2 6 1 -40 2 -29 1 -1 2 49 1 8 2 24 
1 -17 2 13 1 -39 2 9 1 5 2 43 1 13 2 -4 
1 -10 2 -15 1 -53 2 57 1 95 2 -25 2 44 1 -31 
2 0 1 -49 2 -63 1 86 2 -13 1 63 2 2 1 41 
2 0 1 0 2 19 1 16 2 -25 1 19 2 -35 1 40 
2 75 1 -32 2 15 1 -26 2 -20 2 -13 1 41 2 65 
1 -16 2 5 1 13 2 24 1 -1 2 46 1 -35 2 53 
1 137 2 -28 1 -9 2 -34 1 53 2 37 1 -10 2 30 
1 -9 2 -5 1 34 3825 2478 100 MP stroke
2 46 2 41 1 -95 2 -64 1 74 2 -86 1 33 2 -15 
1 115 2 -54 1 15 2 -5 1 53 2 -67 1 11 2 32 
1 -20 2 -24 1 -27 2 60 1 -87 2 53 1 -19 2 -48 
2 0 1 34 2 33 1 -59 2 2 1 -36 2 37 1 -25 
2 -1 1 -30 2 26 1 -58 2 48 1 -10 2 12 1 -52 
2 21 1 -53 2 77 1 9 2 -46 1 -48 2 121 2 -235 
1 16 2 100 1 -18 2 76 1 -31 2 -3 1 -2 2 3 
1 -7 2 1 1 20 2 -18 1 -5 2 -4 1 -35 2 -31 
1 0 2 -35 1 42 2 -5 1 -4 2 3 2 31 1 -5 
2 3 1 -12 2 16 1 -3 2 -14 1 25 2 -22 1 13 
2 83 1 -66 2 -20 1 -14 2 37 1 27 2 -37 1 -7 
2 16 1 32 2 18 1 -63 2 98 2 49 1 -61 2 -53 
1 1 2 87 1 -7 3674 2574 100 MP stroke
2 -7 1 -2 2 -28 1 56 2 39 1 -24 2 10 1 18 
2 17 1 30 2 -24 1 23 2 12 1 45 2 -55 1 49 
2 -255 2 -62 1 33 2 187 1 -4 2 -133 1 208 2 -45 
1 100 2 -166 1 67 2 11 1 33 2 -63 1 75 2 -15 
1 -2 2 -36 1 70 2 -22 1 -18 2 -18 1 11 2 19 
2 -59 1 11 2 63 1 -62 2 -18 1 21 2 72 1 -93 
2 33 1 -46 2 52 1 -5 2 11 1 -58 2 53 1 -6 
2 41 1 -100 2 72 1 -76 2 81 1 -57 2 5 2 -9 
1 -25 2 37 1 16 2 -35 1 39 2 -11 1 -11 2 -26 
1 22 2 55 1 45 2 -121 1 15 2 35 1 27 2 15 
1 -73 2 14 1 60 2 -30 1 -10 2 3 1 4 2 -7 
2 17 1 -133 2 -115 1 49 2 -32 1 171 2 8 1 48 
2 -16 1 33 2 64 3523 2382 100 MP stroke
1 -69 2 -43 1 38 2 -10 1 -43 2 34 1 -24 2 24 
1 13 2 -12 1 57 2 -140 2 103 1 -21 2 92 1 -99 
2 -159 1 146 2 74 1 -1 2 27 1 -231 2 66 1 124 
2 -78 1 -82 2 62 1 46 2 -39 1 64 2 -59 1 10 
2 -26 1 40 2 -25 2 33 1 -45 2 23 1 56 2 8 
1 -49 2 13 1 -31 2 -1 1 -102 2 34 1 158 2 -8 
1 -80 2 20 1 -14 2 33 1 2 2 16 1 -1 2 16 
1 -38 2 -28 2 30 1 -56 2 6 1 36 2 37 1 -48 
2 1 1 -94 2 -50 1 42 2 -38 1 -43 2 -38 1 -3 
2 -25 1 47 2 -5 1 39 2 -21 1 104 2 89 1 -20 
2 -57 2 4 1 12 2 39 1 -30 2 39 1 52 2 -40 
1 15 2 -20 1 22 2 15 1 9 2 -38 1 -53 2 2 
1 5 2 27 1 -37 3373 2552 100 MP stroke
2 -4 1 7 2 0 1 -185 2 -30 2 28 1 -1 2 22 
1 5 2 16 1 12 2 11 1 6 2 -36 1 -7 2 -22 
1 -12 2 11 1 187 2 93 1 -12 2 2 1 1 2 45 
1 -23 2 -30 1 -28 2 -51 2 15 1 -19 2 9 1 51 
2 15 1 12 2 -17 1 12 2 -16 1 6 2 23 1 73 
2 -93 1 -8 2 -60 1 -151 2 171 1 -29 2 69 1 -21 
2 21 1 -3 2 27 2 -13 1 -4 2 -8 1 3 2 -19 
1 -34 2 59 1 30 2 -43 1 32 2 -137 1 56 2 123 
1 -3 2 -12 1 -2 2 10 1 3 2 22 1 -110 2 -41 
1 39 2 56 2 -19 1 22 2 -20 1 -6 2 -10 1 23 
2 -16 1 31 2 -193 1 73 2 92 1 -9 2 47 1 35 
2 26 1 55 2 -37 1 1 2 -2 1 -70 2 -61 1 8 
2 58 2 26 1 -4 3222 2403 100 MP stroke
2 42 1 -6 2 6 1 52 2 30 1 -77 2 -48 1 103 
2 -17 1 -13 2 3 1 5 2 7 1 25 2 -35 1 -17 
2 -51 1 156 2 -29 1 -37 2 79 2 -22 1 30 2 -44 
1 -72 2 27 1 0 2 10 1 25 2 -39 1 -19 2 48 
1 19 2 -83 1 86 2 -16 1 42 2 -10 1 38 2 -59 
1 115 2 -70 1 -120 2 55 2 55 1 27 2 40 1 -22 
2 100 1 -54 2 -135 1 45 2 -8 1 70 2 -28 1 35 
2 133 1 -150 2 -41 1 29 2 85 1 18 2 -92 1 142 
2 -50 1 -23 2 -48 1 19 2 49 2 13 1 -74 2 49 
1 -85 2 37 1 -19 2 -38 1 51 2 9 1 -41 2 -13 
1 4 2 86 1 -162 2 28 1 61 2 72 1 -54 2 -75 
1 64 2 32 1 -56 2 -14 2 -45 1 71 2 -161 1 79 
2 68 1 26 2 30 3071 2145 100 MP stroke
1 -10 2 32 1 -118 2 -89 1 101 2 -29 1 74 2 3 
1 -125 2 -34 1 -37 2 122 1 26 2 106 1 -68 2 29 
2 -11 1 -74 2 15 1 -40 2 22 1 -23 2 -92 1 95 
2 15 1 -25 2 19 1 -36 2 65 1 12 2 30 1 34 
2 13 1 -172 2 17 1 -18 2 -10 1 30 2 12 2 -81 
1 58 2 109 1 -120 2 91 1 32 2 -20 1 46 2 -18 
1 53 2 28 1 -100 2 -26 1 -11 2 14 1 36 2 30 
1 -21 2 -9 1 50 2 7 1 35 2 -30 2 52 1 -81 
2 -16 1 -8 2 1 1 -9 2 -85 1 -84 2 58 1 56 
2 89 1 3 2 29 1 -4 2 -6 1 -127 2 43 1 90 
2 -10 1 9 2 18 1 -24 2 -63 2 -2 1 43 2 51 
1 -50 2 46 1 -2 2 -34 1 59 2 43 1 -20 2 21 
1 -16 2 45 1 -34 2921 2050 100 MP stroke
2 56 1 -105 2 62 1 -37 2 -112 1 31 2 -74 1 43 
2 79 2 28 1 15 2 20 1 -83 2 -27 1 30 2 33 
1 -21 2 24 1 -22 2 24 1 -62 2 26 1 35 2 -51 
1 -71 2 9 1 100 2 -35 1 7 2 3 1 -18 2 46 
2 -53 1 10 2 -4 1 17 2 35 1 66 2 5 1 -5 
2 -66 1 -26 2 -40 1 91 2 -32 1 36 2 25 1 -150 
2 73 1 53 2 -9 1 -13 2 -22 1 30 2 -15 2 5 
1 2 2 -20 1 20 2 34 1 -24 2 11 1 17 2 -12 
1 -29 2 35 1 -32 2 36 1 -20 2 42 1 -22 2 -14 
1 -9 2 26 1 -4 2 10 1 -47 2 21 2 -47 1 -20 
2 46 1 22 2 -20 1 12 2 -55 1 -14 2 -16 1 65 
2 7 1 18 2 -55 1 -23 2 14 1 -23 2 -5 1 -24 
2 -50 1 137 2 -118 2770 2214 100 MP stroke
1 -26 2 119 2 -141 1 6 2 -9 1 25 2 -38 1 16 
2 22 1 23 2 12 1 -13 2 -27 1 -29 2 -1 1 -72 
2 -11 1 64 2 -36 1 21 2 -44 1 12 2 -18 1 8 
2 -25 2 -14 1 54 2 -84 1 66 2 -6 1 30 2 24 
1 -4 2 2 1 12 2 7 1 -1 2 -5 1 11 2 -2 
1 66 2 10 1 -38 2 4 1 -45 2 -21 1 -7 2 -58 
2 160 1 11 2 -65 1 -11 2 -18 1 -31 2 141 1 22 
2 -100 1 4 2 -53 1 5 2 29 1 107 2 -38 1 -83 
2 -32 1 15 2 -16 1 35 2 19 1 -32 2 -44 1 16 
2 -40 2 -75 1 123 2 -36 1 49 2 -111 1 15 2 52 
1 -126 2 39 1 -51 2 37 1 -120 2 152 1 -73 2 4 
1 -92 2 -131 1 87 2 32 1 -47 2 19 1 -59 2 -23 
2 50 1 -109 2 50 2619 2718 100 MP stroke
1 -29 2 -35 1 18 2 27 1 -47 2 2 1 -8 2 -4 
1 1 2 -28 1 25 2 -68 1 9 2 125 1 -54 2 -67 
1 -18 2 11 1 -16 2 75 2 -32 1 -42 2 -6 1 -1 
2 23 1 79 2 -65 1 -31 2 -8 1 21 2 13 1 27 
2 55 1 -38 2 -22 1 14 2 8 1 20 2 41 1 -36 
2 17 1 -9 2 -21 2 -25 1 -21 2 79 1 -14 2 5 
1 -14 2 -16 1 -23 2 -52 1 37 2 118 1 -91 2 6 
1 -8 2 -11 1 -40 2 -23 1 43 2 -14 1 -6 2 22 
1 -12 2 -17 2 -23 1 7 2 -2 1 21 2 6 1 -36 
2 -4 1 -33 2 -1 1 -38 2 155 1 -45 2 -6 1 -12 
2 -21 1 -21 2 -29 1 117 2 -31 1 -9 2 -12 1 -26 
2 39 2 14 1 11 2 30 1 -34 2 -13 1 58 2 -19 
1 49 2 9 1 -62 2469 2830 100 MP stroke
2 1 1 -71 2 64 1 72 2 -105 1 32 2 -33 1 -24 
2 96 1 145 2 -153 1 37 2 -66 2 -45 1 16 2 -7 
1 -24 2 56 1 -14 2 -36 1 13 2 -3 1 20 2 1 
1 -64 2 28 1 -18 2 39 1 58 2 -42 1 -46 2 -28 
1 -46 2 10 1 2 2 24 2 27 1 20 2 -44 1 5 
2 20 1 85 2 -67 1 26 2 -89 1 -58 2 -65 1 63 
2 81 1 -104 2 21 1 -72 2 -28 1 -19 2 75 1 10 
2 -28 1 -17 2 -45 2 118 1 -56 2 86 1 5 2 29 
1 -16 2 50 1 39 2 -67 1 49 2 -101 1 -28 2 -1 
1 85 2 15 1 0 2 -26 1 -45 2 7 1 29 2 2 
1 -31 2 6 2 -102 1 156 2 -12 1 -20 2 62 1 -136 
2 107 1 -50 2 99 1 -99 2 31 1 -67 2 12 1 2 
2 16 1 -76 2 -13 2318 3085 100 MP stroke
1 -4 2 14 1 -54 2 80 1 -110 2 -79 2 19 1 211 
2 43 1 22 2 44 1 11 2 -21 1 -4 2 -9 1 1 
2 -14 1 -37 2 21 1 77 2 -22 1 -14 2 -68 1 90 
2 -19 1 18 2 -103 1 99 2 36 2 -39 1 22 2 4 
1 28 2 -18 1 -29 2 -11 1 20 2 10 1 -47 2 -3 
1 67 2 -27 1 -27 2 29 1 24 2 -81 1 24 2 -36 
1 67 2 -3 1 37 2 -45 2 112 1 -50 2 -7 1 -25 
2 33 1 16 2 -7 1 -34 2 23 1 -13 2 25 1 -11 
2 42 1 -72 2 50 1 1 2 -139 1 60 2 138 1 -25 
2 22 1 -163 2 48 1 -36 2 77 2 80 1 57 2 -10 
1 3 2 -142 1 -12 2 210 1 -184 2 4 1 58 2 -46 
1 26 2 194 1 -161 2 54 1 24 2 0 1 88 2 -58 
1 -54 2 -25 1 112 2168 2608 100 MP stroke
2 -21 2 30 1 -96 2 -53 1 113 2 66 1 -104 2 -124 
1 -6 2 125 1 52 2 8 1 30 2 -53 1 -210 2 124 
1 99 2 -53 1 70 2 -156 1 10 2 51 1 175 2 -60 
2 -2 1 78 2 -27 1 -228 2 101 1 191 2 -28 1 -36 
2 15 1 28 2 17 1 -93 2 -166 1 133 2 123 1 -47 
2 3 1 -23 2 19 1 27 2 28 1 -41 2 35 2 -67 
1 55 2 -6 1 16 2 -14 1 21 2 -9 1 15 2 -16 
1 24 2 -33 1 13 2 43 1 0 2 -5 1 8 2 37 
1 7 2 -12 1 12 2 -11 1 22 2 -12 2 -1 1 -14 
2 62 1 4 2 17 1 -5 2 36 1 -10 2 -19 1 -4 
2 0 1 -20 2 -3 1 -10 2 3 1 8 2 15 1 62 
2 28 1 38 2 -98 1 -77 2 12 2 -215 1 3 2 -17 
1 19 2 4 1 0 2017 2578 100 MP stroke
2 -5 1 42 2 -55 1 33 2 -31 1 1 2 -32 1 6 
2 -23 1 34 2 -13 1 49 2 2 1 50 2 -11 1 5 
2 -124 2 19 1 -9 2 -9 1 18 2 50 1 0 2 60 
1 -65 2 -40 1 11 2 -4 1 -28 2 79 1 -8 2 40 
1 180 2 -75 1 -148 2 186 1 52 2 17 1 76 2 -41 
2 -228 1 23 2 172 1 16 2 69 1 -70 2 -255 1 51 
2 116 1 170 2 -68 1 20 2 -255 1 111 2 -50 1 71 
2 -77 1 206 2 -145 1 9 2 98 1 -93 2 102 2 -125 
1 264 2 -162 1 70 2 9 1 182 2 -68 1 -97 2 -1 
1 26 2 61 1 44 2 -152 1 -1 2 20 1 62 2 31 
1 -70 2 -57 1 39 2 47 1 20 2 -74 2 -51 1 36 
2 41 1 -24 2 -39 1 14 2 -16 1 21 2 -65 1 48 
2 39 1 -57 2 -42 1866 2323 100 MP stroke
1 -12 2 96 1 -4 2 -56 1 -97 2 68 1 97 2 -31 
1 -120 2 -28 2 76 1 89 2 -15 1 -309 2 93 1 126 
2 158 1 -47 2 -76 1 6 2 -14 1 123 2 -53 1 -43 
2 -32 1 -38 2 51 1 25 2 16 1 9 2 -37 1 -72 
2 -40 2 83 1 61 2 10 1 42 2 22 1 -62 2 7 
1 64 2 40 1 68 2 31 1 -73 2 20 1 2 2 53 
1 5 2 -59 1 20 2 82 1 44 2 13 1 12 2 -60 
1 30 2 10 2 53 1 8 2 16 1 -29 2 -26 1 64 
2 50 1 27 2 18 1 -104 2 2 1 -17 2 49 1 57 
2 9 1 -180 2 10 1 20 2 78 1 17 2 -4 1 17 
2 20 2 37 1 -26 2 -1 1 -6 2 -87 1 -28 2 92 
1 3 2 41 1 -65 2 -28 1 23 2 3 1 -8 2 -11 
1 -6 2 9 1 9 1716 1843 100 MP stroke
2 18 1 -26 2 -66 1 -4 2 53 2 26 1 0 2 -14 
1 -35 2 -5 1 21 2 37 1 51 2 -79 1 -35 2 25 
1 38 2 -15 1 -13 2 -35 1 33 2 22 1 20 2 -20 
1 -28 2 -24 1 18 2 24 2 -10 1 -68 2 3 1 -14 
2 -1 1 35 2 19 1 -94 2 96 1 -55 2 2 1 43 
2 -141 1 86 2 -86 1 115 2 46 1 -29 2 121 1 -5 
2 26 1 -36 2 24 2 -48 1 43 2 -32 1 60 2 -111 
1 -80 2 21 1 -10 2 5 1 -41 2 21 1 -46 2 -14 
1 58 2 27 1 -24 2 -10 1 25 2 10 1 -24 2 -13 
1 50 2 32 2 -197 1 48 2 -4 1 -46 2 -26 1 96 
2 -15 1 71 2 49 1 39 2 114 1 -37 2 -72 1 -36 
2 32 1 48 2 4 1 9 2 16 1 14 2 -34 1 -25 
2 69 2 -199 1 100 1565 1862 100 MP stroke
2 -4 1 -32 2 14 1 22 2 7 1 -5 2 85 1 -30 
2 -73 1 -165 2 -108 1 9 2 28 1 -8 2 -14 1 76 
2 -4 1 3 2 -35 1 -75 2 -8 2 21 1 6 2 -15 
1 43 2 27 1 -41 2 -47 1 -147 2 131 1 23 2 21 
1 9 2 47 1 -27 2 -6 1 -99 2 58 1 34 2 4 
1 -14 2 11 1 32 2 45 2 -224 1 76 2 85 1 -2 
2 46 1 -19 2 59 1 30 2 -198 1 133 2 -87 1 146 
2 87 1 -125 2 -57 1 -5 2 -52 1 24 2 -26 1 20 
2 12 1 6 2 -50 2 22 1 10 2 10 1 0 2 9 
1 -7 2 11 1 -34 2 124 1 32 2 -58 1 71 2 15 
1 1 2 -37 1 -34 2 -9 1 64 2 -13 1 47 2 -116 
1 17 2 36 2 -38 1 21 2 -70 1 25 2 52 1 -22 
2 16 1 -1 2 -39 1414 2079 100 MP stroke
1 3 2 32 1 -13 2 -4 1 10 2 1 1 -1 2 0 
1 -24 2 -52 1 46 2 28 1 26 2 -32 2 -46 1 -23 
2 13 1 78 2 41 1 -77 2 -57 1 -2 2 46 1 26 
2 2 1 -11 2 -9 1 8 2 9 1 24 2 1 1 -3 
2 13 1 -5 2 4 1 56 2 -6 2 -32 1 31 2 12 
1 12 2 7 1 -9 2 7 1 21 2 -6 1 -12 2 4 
1 10 2 38 1 -25 2 36 1 -116 2 50 1 -7 2 20 
1 -53 2 -5 1 -26 2 -3 1 7 2 64 2 -110 1 -55 
2 72 1 -27 2 25 1 -21 2 6 1 4 2 11 1 -46 
2 11 1 40 2 5 1 -31 2 12 1 -74 2 59 1 13 
2 15 1 -37 2 16 1 -4 2 25 2 -19 1 27 2 -1 
1 12 2 -21 1 18 2 27 1 2 2 10 1 11 2 24 
1 -49 2 31 1 45 1264 1926 100 MP stroke
2 -78 1 27 2 -13 1 -58 2 50 1 28 2 -17 1 17 
2 -10 2 21 1 -26 2 8 1 -11 2 8 1 10 2 6 
1 3 2 -2 1 -15 2 13 1 -14 2 22 1 17 2 17 
1 14 2 -3 1 14 2 3 1 0 2 15 1 -2 2 3 
2 -3 1 2 2 -2 1 -21 2 15 1 19 2 -29 1 15 
2 -12 1 11 2 -12 1 14 2 -12 1 13 2 -5 1 27 
2 -19 1 -7 2 3 1 -1 2 8 1 -2 2 25 2 7 
1 -35 2 2 1 0 2 10 1 -5 2 4 1 -27 2 -11 
1 -17 2 -41 1 4 2 95 1 -36 2 -35 1 -15 2 36 
1 -29 2 7 1 -24 2 -4 1 -23 2 27 2 -18 1 9 
2 5 1 -37 2 -82 1 26 2 48 1 16 2 -48 1 7 
2 -16 1 -13 2 7 1 11 2 -18 1 -24 2 -18 1 13 
2 -7 1 -2 2 -60 1113 2163 100 MP stroke
1 111 2 -32 2 -68 1 10 2 -15 1 -21 2 22 1 -14 
2 -18 1 17 2 -13 1 12 2 12 1 -33 2 32 1 1 
2 4 1 17 2 -11 1 -1 2 18 1 17 2 10 1 -21 
2 5 2 15 1 35 2 21 1 -65 2 94 1 26 2 -79 
1 32 2 -99 1 81 2 9 1 -54 2 -11 1 -18 2 85 
1 -21 2 -45 1 88 2 42 1 -82 2 -45 1 -77 2 80 
2 12 1 -73 2 -8 1 -2 2 -22 1 20 2 -16 1 -16 
2 -42 1 -45 2 30 1 5 2 14 1 -101 2 18 1 80 
2 -92 1 -25 2 -54 1 27 2 -22 1 -28 2 -32 2 61 
1 -52 2 -4 1 13 2 -34 1 -60 2 32 1 49 2 -109 
1 31 2 100 1 -42 2 -75 1 -33 2 58 1 1 2 -26 
1 -53 2 72 1 -30 2 11 1 2 2 5 2 -8 1 7 
2 -10 1 29 2 22 962 2525 100 MP stroke
1 -34 2 -1 1 -4 2 -21 1 10 2 7 1 22 2 -16 
1 -24 2 3 1 11 2 -23 1 -8 2 -25 1 -16 2 -26 
1 -59 2 172 2 7 1 -45 2 -23 1 -20 2 -37 1 -8 
2 47 1 29 2 -38 1 11 2 -50 1 19 2 -58 1 19 
2 31 1 31 2 19 1 -5 2 7 1 -17 2 -42 1 -23 
2 -30 1 159 899 2574 43 MP stroke
/c9 { 0.000000 0.500000 0.000000 sr} bdef
c9
1 5 2 18 1 4 2 -12 1 25 2 10 1 1 2 8 
1 21 2 -20 1 29 2 14 1 20 2 -5 1 -21 2 12 
1 10 2 5 1 12 2 11 2 -15 1 4 2 2 1 5 
2 -5 1 -6 2 -29 1 16 2 5 1 24 2 10 1 -14 
2 3 1 -17 2 -4 1 -5 2 -4 1 6 2 1 1 -3 
2 0 1 -2 2 -2 2 -4 1 3 2 -1 1 -7 2 4 
1 27 2 -13 1 12 2 -1 1 -8 2 -14 1 -5 2 30 
1 0 2 6 1 7 2 -5 1 1 2 11 1 7 2 8 
1 17 2 -4 2 5 1 0 2 18 1 5 2 12 1 -7 
2 3 1 -13 2 6 1 18 2 -29 1 14 2 -3 1 0 
2 2 1 -12 2 27 1 -8 2 -7 1 8 2 1 1 -8 
2 5 1 37 2 -31 2 -5 1 13 2 3 1 -8 2 -1 
1 27 2 -3 1 -17 5783 2778 100 MP stroke
2 0 1 10 2 -6 1 -2 2 -4 1 19 2 3 1 9 
2 -11 1 -23 2 16 1 -6 2 -7 1 5 2 5 2 17 
1 6 2 2 1 -8 2 12 1 -19 2 -13 1 1 2 31 
1 11 2 -4 1 -6 2 -9 1 0 2 -15 1 30 2 4 
1 7 2 -5 1 -11 2 11 1 35 2 -4 2 75 1 -23 
2 -76 1 59 2 0 1 48 2 36 1 -102 2 18 1 20 
2 17 1 47 2 -119 1 28 2 39 1 19 2 42 1 -25 
2 -69 1 42 2 3 1 61 2 -7 2 -75 1 19 2 28 
1 5 2 58 1 -104 2 26 1 -1 2 70 1 -115 2 -7 
1 15 2 9 1 -46 2 -36 1 35 2 6 1 11 2 43 
1 -127 2 56 1 -20 2 63 2 -92 1 -28 2 51 1 9 
2 -13 1 -57 2 16 1 53 2 -16 1 -9 2 -27 1 18 
2 8 1 6 2 8 5632 2724 100 MP stroke
1 -15 2 27 1 5 2 -6 1 -9 2 0 1 28 2 25 
2 -21 1 -13 2 38 1 5 2 -15 1 -3 2 6 1 37 
2 -4 1 -22 2 21 1 0 2 42 1 -2 2 -15 1 10 
2 16 1 44 2 -18 1 -32 2 -7 1 21 2 36 2 30 
1 -56 2 -4 1 18 2 22 1 50 2 -31 1 -17 2 21 
1 68 2 63 1 -3 2 -105 1 -18 2 15 1 40 2 37 
1 -1 2 -11 1 -8 2 12 1 25 2 -16 2 -48 1 -21 
2 25 1 30 2 -5 1 19 2 -27 1 -2 2 -38 1 10 
2 43 1 -5 2 13 1 -115 2 39 1 45 2 -10 1 -3 
2 6 1 -7 2 -37 1 35 2 0 2 -65 1 86 2 1 
1 -36 2 -7 1 11 2 -28 1 -115 2 76 1 -23 2 34 
1 -31 2 5 1 -22 2 45 1 -25 2 -43 1 -64 2 97 
1 -50 2 19 1 13 5482 2589 100 MP stroke
2 -27 2 -107 1 28 2 33 1 -20 2 -5 1 -14 2 3 
1 -35 2 34 1 -18 2 51 1 -150 2 50 1 68 2 -48 
1 8 2 -16 1 4 2 -17 1 16 2 -36 1 -27 2 -6 
2 -20 1 1 2 13 1 12 2 3 1 -4 2 -4 1 -24 
2 -38 1 55 2 -16 1 7 2 -23 1 -11 2 25 1 -38 
2 -13 1 -7 2 24 1 29 2 -15 1 3 2 -2 2 -3 
1 -8 2 -11 1 -12 2 3 1 -6 2 -10 1 16 2 4 
1 47 2 -21 1 -35 2 2 1 1 2 16 1 -7 2 0 
1 0 2 -1 1 -7 2 7 1 1 2 -4 2 7 1 9 
2 31 1 -25 2 -42 1 10 2 -16 1 15 2 -14 1 12 
2 0 1 18 2 10 1 -5 2 3 1 21 2 8 1 -12 
2 15 1 33 2 -10 1 8 2 -45 1 12 2 -2 2 52 
1 4 2 5 1 7 5331 2782 100 MP stroke
2 3 1 -3 2 22 1 19 2 16 1 21 2 -1 1 -5 
2 2 1 28 2 18 1 15 2 -26 1 -8 2 -30 1 -6 
2 72 1 9 2 -18 2 13 1 26 2 46 1 -38 2 -11 
1 22 2 19 1 -14 2 -3 1 15 2 -1 1 -19 2 -33 
1 -32 2 56 1 -8 2 -46 1 -11 2 -15 1 35 2 24 
1 -12 2 -41 2 33 1 10 2 -29 1 -40 2 21 1 -24 
2 -27 1 -78 2 38 1 43 2 -30 1 -12 2 -7 1 -9 
2 -20 1 25 2 31 1 -12 2 -20 1 -17 2 8 1 6 
2 32 2 22 1 -54 2 -1 1 8 2 -28 1 1 2 -55 
1 90 2 19 1 -46 2 -3 1 17 2 94 1 -4 2 -19 
1 -44 2 9 1 31 2 0 1 0 2 -3 1 46 2 13 
2 -38 1 0 2 -17 1 70 2 7 1 -21 2 -23 1 6 
2 -14 1 3 2 -12 5180 2706 100 MP stroke
1 -12 2 21 1 34 2 -2 1 -33 2 -26 1 50 2 7 
1 -53 2 7 1 -30 2 18 2 0 1 -15 2 -36 1 -1 
2 58 1 25 2 -57 1 -7 2 -19 1 3 2 -23 1 -22 
2 1 1 -10 2 26 1 3 2 -12 1 8 2 -11 1 6 
2 -59 1 84 2 -7 2 -9 1 -3 2 -5 1 4 2 18 
1 -15 2 -6 1 1 2 -5 1 20 2 6 1 4 2 -2 
1 16 2 48 1 -20 2 -37 1 -10 2 -4 1 17 2 15 
1 5 2 8 2 -16 1 -16 2 10 1 -15 2 -5 1 -1 
2 8 1 9 2 12 1 -23 2 -11 1 -12 2 -11 1 -14 
2 18 1 -5 2 -12 1 -13 2 -1 1 7 2 -2 1 -21 
2 -12 2 -1 1 -13 2 7 1 5 2 -19 1 -15 2 -13 
1 13 2 -13 1 -5 2 4 1 28 2 -39 1 -4 2 -14 
1 -37 2 -5 1 9 5030 2982 100 MP stroke
2 72 1 0 2 9 1 -12 2 -2 2 15 1 -6 2 -3 
1 -31 2 -9 1 1 2 -11 1 51 2 -47 1 41 2 -327 
1 39 2 242 1 -48 2 -3 1 -46 2 5 1 -38 2 10 
1 14 2 -69 1 -224 2 199 2 76 1 -5 2 -12 1 12 
2 -42 1 -12 2 -7 1 23 2 -1 1 14 2 -29 1 10 
2 61 1 -5 2 48 1 -149 2 -105 1 36 2 -28 1 100 
2 154 1 -49 2 27 2 -10 1 -5 2 -8 1 22 2 21 
1 62 2 -37 1 -41 2 26 1 3 2 12 1 12 2 0 
1 32 2 -4 1 -34 2 31 1 2 2 1 1 -4 2 7 
1 9 2 26 2 11 1 18 2 27 1 10 2 -9 1 9 
2 25 1 17 2 -12 1 28 2 12 1 10 2 0 1 3 
2 -2 1 29 2 34 1 -17 2 -8 1 15 2 -10 1 50 
2 -48 1 -1 2 10 4879 2719 100 MP stroke
2 7 1 -12 2 -21 1 0 2 -17 1 8 2 20 1 -18 
2 -44 1 7 2 -10 1 -13 2 20 1 -19 2 -29 1 -8 
2 -3 1 -14 2 6 1 19 2 -38 1 -20 2 -13 2 1 
1 -17 2 -21 1 11 2 -14 1 1 2 -1 1 -13 2 -33 
1 0 2 -11 1 6 2 -14 1 -28 2 -5 1 19 2 36 
1 -39 2 -24 1 4 2 -18 1 -6 2 4 2 -6 1 11 
2 11 1 -30 2 -12 1 -6 2 12 1 -4 2 -8 1 2 
2 5 1 3 2 9 1 -3 2 3 1 -7 2 -2 1 -5 
2 5 1 -12 2 -3 1 2 2 8 2 4 1 -6 2 20 
1 0 2 5 1 -5 2 4 1 -2 2 -15 1 0 2 5 
1 -2 2 7 1 7 2 -20 1 5 2 -13 1 -2 2 3 
1 6 2 -5 1 0 2 -4 2 -4 1 -10 2 8 1 -6 
2 -2 1 -19 2 2 4728 3139 100 MP stroke
1 9 2 -5 1 3 2 -4 1 -6 2 -8 1 3 2 -8 
1 -7 2 -7 1 -16 2 -1 1 7 2 3 1 -6 2 -13 
2 24 1 2 2 1 1 -2 2 0 1 -5 2 -3 1 15 
2 7 1 9 2 12 1 -11 2 -6 1 7 2 19 1 1 
2 -1 1 8 2 32 1 3 2 -4 1 -1 2 2 2 -3 
1 19 2 18 1 4 2 -7 1 0 2 8 1 -2 2 17 
1 21 2 2 1 -13 2 11 1 5 2 8 1 24 2 -7 
1 -6 2 6 1 22 2 11 1 -5 2 -15 2 10 1 1 
2 14 1 -18 2 -6 1 7 2 2 1 27 2 -20 1 -2 
2 -2 1 4 2 17 1 -12 2 30 1 -10 2 6 1 -5 
2 22 1 14 2 -3 1 24 2 16 2 -1 1 7 2 10 
1 -7 2 48 1 1 2 7 1 15 2 -10 1 17 2 22 
1 11 2 20 1 5 4578 2707 100 MP stroke
2 4 1 18 2 13 1 17 2 -8 1 0 2 35 1 8 
2 25 2 10 1 -7 2 2 1 15 2 3 1 27 2 0 
1 -4 2 1 1 8 2 1 1 -12 2 1 1 15 2 -9 
1 -5 2 -27 1 8 2 1 1 -11 2 -10 1 -14 2 -31 
2 -16 1 11 2 -14 1 -22 2 -17 1 -18 2 -12 1 -12 
2 -25 1 -28 2 -19 1 -8 2 -9 1 -12 2 -4 1 -35 
2 -25 1 -12 2 -7 1 -15 2 -27 1 -12 2 2 2 -27 
1 -9 2 -19 1 -31 2 -3 1 -5 2 1 1 -4 2 -5 
1 1 2 -25 1 -4 2 2 1 2 2 -4 1 24 2 -15 
1 5 2 -15 1 -11 2 -2 1 22 2 0 1 -6 2 15 
2 -2 1 -9 2 11 1 10 2 0 1 3 2 4 1 5 
2 6 1 8 2 21 1 -47 2 21 1 15 2 6 1 -4 
2 0 1 14 2 -6 4427 3026 100 MP stroke
1 -11 2 -3 1 9 2 -1 2 -21 1 5 2 13 1 -2 
2 5 1 -6 2 2 1 -13 2 -12 1 8 2 1 1 -4 
2 2 1 4 2 9 1 1 2 -3 1 8 2 3 1 1 
2 -11 1 -7 2 31 2 -10 1 1 2 -6 1 18 2 -4 
1 -2 2 8 1 8 2 -3 1 17 2 -11 1 15 2 -6 
1 18 2 12 1 -3 2 -3 1 13 2 7 1 16 2 2 
1 1 2 1 2 11 1 16 2 -6 1 8 2 -1 1 5 
2 -2 1 -9 2 55 1 -35 2 6 1 3 2 7 1 -3 
2 15 1 5 2 16 1 32 2 -41 1 16 2 -21 1 7 
2 12 2 9 1 15 2 14 1 -8 2 6 1 -1 2 -3 
1 -3 2 8 1 -16 2 26 1 2 2 17 1 -7 2 15 
1 -29 2 21 1 0 2 3 1 -8 2 10 1 -11 2 10 
2 2 1 -5 2 -8 4276 2774 100 MP stroke
1 -12 2 6 1 3 2 9 1 -8 2 -7 1 -14 2 8 
1 10 2 -1 1 6 2 12 1 -16 2 -24 1 9 2 -12 
1 -2 2 9 1 5 2 -3 2 22 1 -24 2 -4 1 -10 
2 7 1 -10 2 11 1 -22 2 5 1 -7 2 -12 1 28 
2 -2 1 6 2 -13 1 -35 2 63 1 -28 2 27 1 12 
2 2 1 -39 2 -18 2 12 1 15 2 17 1 -26 2 -7 
1 7 2 -2 1 15 2 -2 1 -3 2 -16 1 -13 2 -4 
1 -2 2 11 1 45 2 -9 1 24 2 -11 1 -15 2 12 
1 -1 2 14 2 -1 1 8 2 1 1 -3 2 -223 1 -8 
2 2 1 -20 2 16 1 7 2 7 1 12 2 13 1 4 
2 15 1 14 2 12 1 -20 2 9 1 -10 2 23 1 5 
2 5 2 -3 1 18 2 -14 1 28 2 -26 1 80 2 229 
1 -36 2 34 1 -11 4126 2609 100 MP stroke
2 24 1 -63 2 9 1 -9 2 1 1 -4 2 -2 1 -5 
2 2 1 -17 2 -26 1 -4 2 6 2 -15 1 11 2 -23 
1 21 2 27 1 -130 2 30 1 -18 2 26 1 6 2 10 
1 61 2 -27 1 -73 2 -16 1 -23 2 40 1 -10 2 23 
1 54 2 -60 1 8 2 -56 2 -6 1 34 2 36 1 49 
2 -8 1 -67 2 9 1 -61 2 42 1 -13 2 39 1 16 
2 -56 1 7 2 -61 1 -12 2 70 1 8 2 -17 1 -22 
2 55 1 -89 2 9 2 36 1 -15 2 19 1 -19 2 16 
1 -4 2 -3 1 -20 2 11 1 -21 2 22 1 -24 2 4 
1 1 2 4 1 -1 2 6 1 51 2 -51 1 -128 2 98 
1 7 2 4 1 -10 2 16 2 -8 1 19 2 -2 1 21 
2 -27 1 0 2 -6 1 2 2 -10 1 10 2 -14 1 35 
2 0 1 49 2 -10 3975 2811 100 MP stroke
1 52 2 -102 1 -65 2 59 1 16 2 30 1 27 2 6 
2 29 1 15 2 27 1 21 2 -102 1 17 2 12 1 17 
2 23 1 26 2 20 1 -20 2 34 1 -16 2 -115 1 51 
2 6 1 51 2 9 1 32 2 7 1 53 2 -90 2 -68 
1 44 2 -10 1 49 2 18 1 7 2 -44 1 -14 2 -19 
1 16 2 -18 1 21 2 -13 1 -6 2 -44 1 4 2 1 
1 -2 2 22 1 65 2 -70 1 -88 2 36 2 -21 1 44 
2 -5 1 51 2 8 1 -71 2 9 1 -22 2 5 1 -21 
2 2 1 2 2 -35 1 -16 2 22 1 -30 2 43 1 -18 
2 -97 1 53 2 -20 1 14 2 33 2 22 1 -46 2 -26 
1 10 2 -16 1 -3 2 -21 1 9 2 -28 1 47 2 -101 
1 -263 2 64 1 -25 2 38 1 -42 2 1 1 -7 2 16 
1 -6 2 24 1 -40 3825 3257 100 MP stroke
2 10 2 -30 1 117 2 218 1 -86 2 93 1 27 2 31 
1 -121 2 70 1 -12 2 25 1 -22 2 69 1 -16 2 -16 
1 31 2 30 1 11 2 -30 1 111 2 -67 1 37 2 52 
2 9 1 -17 2 -36 1 80 2 -13 1 25 2 -23 1 32 
2 2 1 35 2 -23 1 59 2 -22 1 14 2 -10 1 41 
2 -25 1 66 2 -72 1 -18 2 72 1 40 2 -123 2 132 
1 5 2 -3 1 -13 2 -49 1 26 2 0 1 -2 2 0 
1 15 2 5 1 -30 2 16 1 19 2 -2 1 -20 2 28 
1 4 2 21 1 -15 2 15 1 -8 2 -4 2 -12 1 24 
2 -16 1 21 2 -24 1 35 2 7 1 -43 2 23 1 10 
2 -94 1 65 2 30 1 19 2 -7 1 -39 2 24 1 18 
2 23 1 -52 2 -17 1 63 2 -65 2 -62 1 60 2 30 
1 26 2 -94 1 40 3674 2499 100 MP stroke
2 2 1 -5 2 62 1 -39 2 -48 1 23 2 -18 1 5 
2 -12 1 -36 2 -2 1 4 2 -11 1 -37 2 33 1 -51 
2 135 2 7 1 -47 2 -63 1 -27 2 60 1 -90 2 -22 
1 -93 2 180 1 -80 2 -3 1 -17 2 28 1 -31 2 -18 
1 -4 2 10 1 -42 2 -17 1 6 2 -6 1 9 2 -41 
2 46 1 -3 2 -68 1 61 2 0 1 -44 2 -16 1 73 
2 -79 1 30 2 -46 1 29 2 -43 1 28 2 -50 1 10 
2 -50 1 76 2 -55 1 83 2 -90 1 56 2 -19 2 39 
1 4 2 -49 1 -3 2 19 1 -25 2 -14 1 8 2 -10 
1 9 2 -10 1 -53 2 39 1 17 2 -31 1 -17 2 -27 
1 63 2 -36 1 -63 2 44 1 9 2 -14 1 12 2 -32 
2 19 1 7 2 11 1 -14 2 16 1 -53 2 -5 1 -33 
2 18 1 0 2 9 3523 3012 100 MP stroke
1 -9 2 -9 1 2 2 19 1 3 2 -2 1 -22 2 -1 
1 -1 2 17 1 -16 2 -1 2 -18 1 14 2 -10 1 6 
2 11 1 -17 2 -32 1 37 2 -17 1 9 2 23 1 -15 
2 42 1 88 2 -29 1 -75 2 60 1 -8 2 48 1 10 
2 16 1 -31 2 11 2 -12 1 33 2 32 1 -76 2 -18 
1 47 2 -5 1 27 2 25 1 -80 2 -18 1 5 2 30 
1 88 2 18 1 12 2 -55 1 -7 2 -9 1 35 2 17 
1 14 2 11 2 -17 1 -32 2 19 1 -13 2 12 1 17 
2 37 1 -77 2 -6 1 -19 2 23 1 83 2 28 1 23 
2 9 1 -19 2 -2 1 -7 2 -9 1 -10 2 16 1 -2 
2 80 2 -4 1 9 2 -19 1 -42 2 -25 1 -27 2 19 
1 24 2 38 1 4 2 18 1 -4 2 8 1 29 2 3 
1 -3 2 -13 1 -12 3373 2658 100 MP stroke
2 50 1 6 2 11 1 26 2 -11 2 -9 1 -9 2 -3 
1 -7 2 -7 1 -17 2 -1 1 -15 2 12 1 -4 2 15 
1 27 2 -28 1 -28 2 -27 1 -4 2 -21 1 -6 2 -27 
1 -6 2 -22 1 10 2 -14 2 6 1 38 2 -9 1 -47 
2 -39 1 -4 2 1 1 -4 2 9 1 1 2 -17 1 -24 
2 -23 1 42 2 -16 1 17 2 -24 1 9 2 -14 1 -1 
2 -1 1 -14 2 4 2 -6 1 -1 2 3 1 -12 2 2 
1 4 2 -16 1 -6 2 -2 1 -16 2 26 1 -3 2 -30 
1 -22 2 4 1 -21 2 4 1 -23 2 -14 1 104 2 -9 
1 -2 2 11 2 -3 1 2 2 3 1 22 2 -1 1 -3 
2 -1 1 9 2 30 1 -8 2 -17 1 26 2 -24 1 -59 
2 14 1 -60 2 61 1 16 2 25 1 21 2 12 1 11 
2 -20 2 0 1 3 3222 2843 100 MP stroke
2 15 1 14 2 -4 1 -39 2 -72 1 79 2 21 1 -36 
2 37 1 4 2 24 1 -19 2 26 1 -18 2 48 1 11 
2 17 1 -157 2 65 1 75 2 -61 2 45 1 -11 2 1 
1 -12 2 -3 1 14 2 15 1 12 2 48 1 5 2 -38 
1 -32 2 -10 1 18 2 21 1 -33 2 0 1 5 2 20 
1 -2 2 19 1 31 2 -4 2 -33 1 -1 2 4 1 36 
2 -44 1 -22 2 34 1 16 2 23 1 -3 2 5 1 -14 
2 -34 1 11 2 13 1 27 2 -47 1 -6 2 91 1 -76 
2 25 1 17 2 11 1 -18 2 -47 2 -18 1 66 2 -22 
1 70 2 -41 1 -17 2 -45 1 -19 2 8 1 57 2 -11 
1 67 2 -60 1 -30 2 -16 1 -15 2 -4 1 23 2 101 
1 -43 2 -41 1 5 2 -25 2 14 1 -52 2 161 1 -60 
2 -76 1 9 2 -31 3071 2781 100 MP stroke
1 -13 2 -27 1 92 2 59 1 -103 2 10 1 -44 2 25 
1 48 2 28 1 41 2 -114 1 -31 2 -82 1 23 2 38 
2 21 1 26 2 -51 1 -23 2 0 1 32 2 50 1 -36 
2 -9 1 -17 2 -44 1 -22 2 -24 1 4 2 -19 1 -13 
2 -21 1 114 2 -61 1 -46 2 30 1 -49 2 11 2 61 
1 -4 2 -73 1 -42 2 -11 1 -42 2 13 1 -10 2 0 
1 -24 2 -19 1 6 2 -3 1 4 2 -15 1 -19 2 -18 
1 48 2 -9 1 -63 2 -22 1 -38 2 -17 2 -33 1 77 
2 37 1 -7 2 -44 1 16 2 -20 1 52 2 -2 1 -8 
2 -56 1 3 2 -28 1 -15 2 22 1 24 2 -2 1 2 
2 -24 1 0 2 2 1 10 2 48 2 28 1 -35 2 -48 
1 -16 2 -1 1 19 2 48 1 -4 2 -18 1 -50 2 -28 
1 14 2 -22 1 23 2921 3311 100 MP stroke
2 -1 1 31 2 0 1 -16 2 7 1 9 2 53 1 -3 
2 -53 2 -7 1 -14 2 15 1 -23 2 57 1 -45 2 0 
1 -4 2 -30 1 19 2 -6 1 9 2 -14 1 -19 2 31 
1 34 2 25 1 -59 2 15 1 -2 2 17 1 40 2 -21 
2 -3 1 5 2 6 1 1 2 -4 1 -13 2 34 1 17 
2 -6 1 46 2 10 1 -23 2 18 1 24 2 9 1 -13 
2 42 1 19 2 -9 1 13 2 23 1 12 2 9 2 2 
1 28 2 15 1 14 2 -2 1 7 2 12 1 5 2 18 
1 -1 2 12 1 22 2 7 1 5 2 18 1 16 2 1 
1 11 2 6 1 10 2 -18 1 11 2 -1 2 10 1 19 
2 -5 1 1 2 -2 1 2 2 13 1 24 2 -13 1 6 
2 4 1 15 2 -12 1 14 2 -3 1 -12 2 2 1 23 
2 -1 1 21 2 -11 2770 2756 100 MP stroke
1 -10 2 13 2 9 1 10 2 -13 1 2 2 -3 1 -13 
2 11 1 26 2 -23 1 15 2 -26 1 12 2 -1 1 19 
2 -10 1 -3 2 14 1 2 2 9 1 -15 2 2 1 -11 
2 15 2 5 1 0 2 25 1 -14 2 18 1 -14 2 8 
1 7 2 -2 1 6 2 1 1 2 2 3 1 -4 2 -6 
1 28 2 1 1 0 2 2 1 -3 2 -5 1 -6 2 10 
2 15 1 4 2 9 1 -5 2 -17 1 -14 2 26 1 15 
2 9 1 -7 2 -5 1 -15 2 -19 1 21 2 4 1 14 
2 -7 1 -15 2 3 1 -10 2 -11 1 7 2 -13 1 4 
2 -8 2 -3 1 5 2 -3 1 -27 2 6 1 9 2 8 
1 -16 2 0 1 -11 2 -2 1 -15 2 11 1 0 2 -16 
1 11 2 19 1 -21 2 -1 1 -9 2 5 1 -2 2 7 
2 14 1 -14 2 7 2619 2716 100 MP stroke
1 -11 2 -9 1 -3 2 0 1 3 2 6 1 -2 2 6 
1 -10 2 17 1 -24 2 -11 1 4 2 -3 1 -6 2 2 
1 0 2 -1 1 -4 2 -7 2 -12 1 -5 2 -10 1 -6 
2 -1 1 -1 2 1 1 5 2 -1 1 -15 2 -5 1 4 
2 0 1 -14 2 -1 1 -8 2 -10 1 -4 2 31 1 -18 
2 -7 1 -4 2 -7 2 -1 1 -11 2 18 1 14 2 2 
1 -3 2 -19 1 -6 2 -5 1 -18 2 25 1 -7 2 -9 
1 2 2 -8 1 -2 2 -7 1 -48 2 82 1 -15 2 10 
1 -7 2 -1 2 -11 1 28 2 -4 1 30 2 4 1 11 
2 -17 1 35 2 -3 1 -3 2 6 1 6 2 8 1 4 
2 4 1 7 2 6 1 23 2 -14 1 41 2 -4 1 -8 
2 15 2 28 1 3 2 28 1 -16 2 13 1 -53 2 51 
1 22 2 1 1 -1 2469 2631 100 MP stroke
2 10 1 -9 2 28 1 17 2 7 1 -9 2 -1 1 -29 
2 -11 1 -4 2 33 1 -15 2 7 2 22 1 0 2 28 
1 14 2 -36 1 -22 2 -11 1 4 2 -3 1 1 2 11 
1 -1 2 -13 1 -5 2 -18 1 16 2 -13 1 0 2 6 
1 26 2 -5 1 1 2 -17 2 -33 1 0 2 7 1 3 
2 -5 1 -41 2 18 1 -14 2 56 1 7 2 60 1 -77 
2 -60 1 71 2 4 1 57 2 -11 1 -36 2 -28 1 19 
2 34 1 49 2 18 2 -124 1 37 2 20 1 -14 2 31 
1 28 2 -30 1 -68 2 87 1 1 2 18 1 23 2 -5 
1 -59 2 17 1 -2 2 33 1 6 2 24 1 -59 2 -5 
1 24 2 -6 2 44 1 -111 2 29 1 31 2 2 1 30 
2 -12 1 -20 2 -46 1 49 2 -36 1 38 2 23 1 -55 
2 25 1 25 2 -31 2318 2562 100 MP stroke
1 16 2 -44 1 59 2 -11 1 32 2 -17 2 -17 1 -43 
2 4 1 -2 2 -5 1 -4 2 7 1 9 2 15 1 -12 
2 29 1 4 2 -14 1 -9 2 16 1 7 2 59 1 -63 
2 17 1 -19 2 78 1 -83 2 -10 2 41 1 -14 2 17 
1 -38 2 4 1 32 2 -4 1 1 2 -7 1 -1 2 8 
1 -14 2 13 1 29 2 -10 1 -22 2 86 1 -36 2 22 
1 -43 2 17 1 -13 2 46 2 -118 1 79 2 3 1 17 
2 -10 1 -30 2 26 1 30 2 -18 1 34 2 -27 1 20 
2 -24 1 75 2 -37 1 7 2 23 1 -13 2 -44 1 27 
2 -6 1 67 2 -49 1 34 2 -44 2 40 1 -72 2 -3 
1 46 2 23 1 36 2 -137 1 79 2 5 1 12 2 63 
1 8 2 -116 1 38 2 6 1 -3 2 -24 1 0 2 -4 
1 23 2 -23 1 20 2168 2410 100 MP stroke
2 -13 2 14 1 16 2 21 1 -27 2 -38 1 46 2 56 
1 -17 2 -29 1 -5 2 -34 1 -30 2 33 1 79 2 -48 
1 -10 2 19 1 -74 2 17 1 1 2 -13 1 -29 2 7 
2 28 1 -132 2 50 1 46 2 -33 1 -9 2 -21 1 3 
2 -19 1 -56 2 -37 1 81 2 14 1 11 2 -42 1 3 
2 -17 1 10 2 -15 1 -59 2 -1 1 56 2 -34 2 73 
1 -13 2 5 1 -16 2 12 1 -21 2 3 1 -6 2 10 
1 -7 2 31 1 6 2 -51 1 11 2 10 1 9 2 -2 
1 19 2 -6 1 6 2 -4 1 43 2 42 2 -4 1 20 
2 -49 1 14 2 -17 1 4 2 -21 1 10 2 12 1 0 
2 0 1 15 2 0 1 7 2 4 1 -4 2 -19 1 -64 
2 -22 1 -66 2 125 1 49 2 -26 2 45 1 -34 2 30 
1 -23 2 -28 1 2 2017 2527 100 MP stroke
2 -8 1 -55 2 43 1 -43 2 25 1 -5 2 23 1 -5 
2 13 1 3 2 -1 1 -54 2 -6 1 -46 2 -3 1 4 
2 156 2 -7 1 11 2 2 1 -11 2 -36 1 6 2 -35 
1 70 2 64 1 -34 2 32 1 19 2 -51 1 -14 2 4 
1 -20 2 20 1 43 2 -45 1 5 2 -29 1 -68 2 0 
2 113 1 91 2 -69 1 -20 2 -33 1 53 2 140 1 -53 
2 -45 1 -33 2 31 1 26 2 87 1 -82 2 31 1 -26 
2 15 1 -33 2 41 1 -1 2 -5 1 53 2 -23 2 38 
1 -116 2 59 1 -32 2 15 1 -87 2 28 1 120 2 -26 
1 -5 2 -69 1 -19 2 132 1 4 2 -39 1 -17 2 -24 
1 72 2 31 1 -51 2 -34 1 -4 2 57 2 57 1 -68 
2 -28 1 33 2 79 1 -71 2 -7 1 -12 2 94 1 -46 
2 -43 1 8 2 54 1866 2219 100 MP stroke
1 34 2 -97 1 19 2 9 1 96 2 -42 1 -70 2 12 
1 62 2 40 2 -79 1 -42 2 -21 1 169 2 -40 1 -74 
2 -110 1 105 2 34 1 -25 2 -11 1 -116 2 51 1 65 
2 -33 1 6 2 -1 1 -12 2 -18 1 8 2 9 1 18 
2 -4 2 -28 1 -44 2 8 1 -26 2 35 1 -3 2 4 
1 -68 2 -35 1 -66 2 24 1 88 2 -34 1 -25 2 -45 
1 2 2 90 1 -13 2 -55 1 -26 2 2 1 -10 2 42 
1 -27 2 -7 2 -10 1 -8 2 13 1 13 2 27 1 -20 
2 -22 1 -36 2 -35 1 82 2 -2 1 13 2 -32 1 -2 
2 -25 1 73 2 80 1 -33 2 -50 1 -28 2 -17 1 -9 
2 11 2 -15 1 -15 2 -31 1 -21 2 94 1 -18 2 -45 
1 -15 2 -43 1 48 2 33 1 -46 2 -1 1 -24 2 4 
1 -7 2 -16 1 -16 1716 2645 100 MP stroke
2 -40 1 -29 2 51 1 19 2 -26 2 -19 1 -24 2 -14 
1 41 2 -17 1 -17 2 -42 1 -77 2 71 1 56 2 -3 
1 -19 2 -10 1 8 2 5 1 -14 2 -23 1 8 2 40 
1 39 2 -5 1 -5 2 -30 2 42 1 82 2 7 1 -24 
2 17 1 -55 2 49 1 86 2 -49 1 34 2 -28 1 -12 
2 136 1 -63 2 55 1 -234 2 -64 1 55 2 -47 1 33 
2 -23 1 44 2 -33 2 46 1 -20 2 35 1 -56 2 159 
1 218 2 -68 1 51 2 -26 1 -4 2 1 1 13 2 -16 
1 -1 2 -9 1 -5 2 11 1 -1 2 -9 1 11 2 -1 
1 8 2 13 2 3 1 -5 2 6 1 40 2 16 1 -79 
2 17 1 -75 2 21 1 -55 2 -288 1 64 2 -23 1 25 
2 -20 1 -2 2 -14 1 1 2 -15 1 -3 2 9 1 15 
2 -24 2 41 1 -20 1565 2728 100 MP stroke
2 -2 1 9 2 -21 1 1 2 -12 1 9 2 -39 1 28 
2 -29 1 233 2 109 1 -56 2 23 1 -8 2 55 1 -36 
2 19 1 -51 2 5 1 4 2 1 2 11 1 3 2 1 
1 -5 2 -15 1 -7 2 1 1 64 2 -82 1 20 2 -35 
1 23 2 -29 1 3 2 -23 1 7 2 -2 1 9 2 -29 
1 34 2 -37 1 12 2 -37 2 48 1 5 2 -43 1 -6 
2 -12 1 -7 2 10 1 -28 2 40 1 -25 2 18 1 -61 
2 -43 1 39 2 -37 1 45 2 31 1 -12 2 -6 1 -12 
2 -19 1 5 2 16 2 -15 1 -15 2 -3 1 -8 2 -1 
1 -1 2 2 1 6 2 -44 1 -15 2 4 1 -14 2 18 
1 12 2 2 1 2 2 2 1 -15 2 23 1 26 2 -14 
1 0 2 -3 2 31 1 -3 2 -5 1 17 2 -8 1 19 
2 -14 1 9 2 20 1414 2638 100 MP stroke
1 13 2 -4 1 -1 2 -5 1 8 2 -4 1 14 2 -7 
1 -7 2 -13 1 17 2 -17 1 8 2 4 2 2 1 -13 
2 13 1 -36 2 -32 1 62 2 -28 1 18 2 -1 1 -19 
2 -11 1 -8 2 -11 1 -15 2 -9 1 -12 2 -4 1 -13 
2 -18 1 0 2 -9 1 -23 2 -10 2 -28 1 -4 2 -6 
1 -7 2 -12 1 -22 2 -1 1 -10 2 -18 1 -10 2 -9 
1 -11 2 -6 1 -4 2 9 1 -27 2 -4 1 -5 2 7 
1 -11 2 -7 1 -9 2 9 1 3 2 -19 2 -3 1 12 
2 1 1 -10 2 6 1 -3 2 5 1 -13 2 3 1 11 
2 10 1 23 2 4 1 -11 2 -3 1 -11 2 23 1 8 
2 -2 1 25 2 3 1 8 2 10 2 -6 1 -9 2 2 
1 8 2 -5 1 18 2 4 1 12 2 10 1 11 2 15 
1 -8 2 5 1 8 1264 2850 100 MP stroke
2 23 1 0 2 18 1 -13 2 26 1 7 2 -1 1 9 
2 -1 2 3 1 5 2 6 1 -3 2 14 1 -8 2 6 
1 -7 2 28 1 10 2 -4 1 3 2 -4 1 -5 2 -3 
1 -5 2 3 1 -10 2 1 1 -2 2 -16 1 -12 2 5 
2 -10 1 -1 2 0 1 2 2 -2 1 -12 2 -7 1 2 
2 -1 1 1 2 0 1 -2 2 -11 1 -10 2 -3 1 1 
2 12 1 -2 2 -2 1 1 2 -12 1 -4 2 3 2 7 
1 18 2 2 1 -4 2 -9 1 9 2 4 1 18 2 8 
1 -9 2 -2 1 6 2 25 1 -2 2 17 1 -1 2 -5 
1 20 2 2 1 8 2 16 1 4 2 10 2 3 1 11 
2 1 1 2 2 11 1 3 2 6 1 10 2 1 1 -3 
2 7 1 7 2 4 1 -7 2 -4 1 13 2 4 1 19 
2 -8 1 -5 2 -16 1113 2633 100 MP stroke
1 36 2 10 2 -6 1 -10 2 7 1 10 2 -13 1 11 
2 1 1 -11 2 13 1 -12 2 1 1 7 2 -16 1 13 
2 -6 1 -15 2 11 1 -8 2 1 1 -12 2 -16 1 5 
2 3 2 -9 1 -6 2 -22 1 -4 2 21 1 -8 2 -17 
1 -21 2 -29 1 24 2 -8 1 -8 2 -12 1 -24 2 15 
1 8 2 -4 1 9 2 -15 1 1 2 9 1 -10 2 17 
2 -17 1 3 2 8 1 4 2 2 1 -26 2 10 1 22 
2 9 1 -16 2 -15 1 25 2 0 1 -9 2 -4 1 25 
2 -22 1 20 2 14 1 -15 2 0 1 13 2 11 2 -18 
1 0 2 1 1 19 2 6 1 -41 2 8 1 11 2 -17 
1 -3 2 4 1 -4 2 -18 1 0 2 15 1 -21 2 -23 
1 1 2 5 1 -15 2 -3 1 -9 2 13 2 8 1 -19 
2 2 1 -15 2 -29 962 2822 100 MP stroke
1 3 2 -8 1 -7 2 8 1 -6 2 -3 1 -24 2 1 
1 -13 2 7 1 -7 2 9 1 -7 2 20 1 -26 2 20 
1 -9 2 -14 2 29 1 -14 2 11 1 -12 2 14 1 -25 
2 1 1 10 2 12 1 -6 2 32 1 -20 2 47 1 -11 
2 -39 1 2 2 -13 1 -7 2 -4 1 2 2 -9 1 -2 
2 -3 1 14 899 2869 43 MP stroke
/c10 { 1.000000 0.000000 0.000000 sr} bdef
c10
1 -9 2 -12 1 -6 2 -1 1 -15 2 14 1 -6 2 8 
1 7 2 -35 1 -36 2 -9 1 4 2 13 1 -2 2 -6 
1 -18 2 -29 1 -16 2 -17 2 -8 1 13 2 -5 1 -8 
2 -14 1 1 2 21 1 -10 2 -17 1 -14 2 -14 1 -44 
2 -14 1 -43 2 0 1 8 2 -10 1 -6 2 15 1 6 
2 -10 1 -40 2 0 2 1 1 24 2 27 1 6 2 4 
1 6 2 -12 1 17 2 -14 1 17 2 -6 1 10 2 12 
1 -26 2 -12 1 39 2 -10 1 11 2 -1 1 -15 2 -8 
1 -4 2 -65 2 -9 1 9 2 -25 1 -5 2 -13 1 -3 
2 -32 1 -10 2 -9 1 -46 2 -21 1 -9 2 11 1 -43 
2 -42 1 0 2 -46 1 10 2 -79 1 -37 2 30 1 1 
2 -55 1 38 2 -19 2 -47 1 82 2 -23 1 49 2 86 
1 97 2 180 1 -131 5783 3170 100 MP stroke
2 153 1 -194 2 -178 1 -22 2 38 1 -213 2 -105 1 -109 
2 43 1 251 2 -38 1 213 2 -42 1 -252 2 79 2 54 
1 16 2 -183 1 -236 2 547 1 -46 2 -108 1 -103 2 -234 
1 208 2 -385 1 157 2 -3 1 192 2 -39 1 189 2 -196 
1 97 2 256 1 -231 2 32 1 -350 2 181 2 156 1 331 
2 -51 1 -158 2 215 1 -96 2 -14 1 -179 2 113 1 -244 
2 417 1 74 2 -81 1 177 2 149 1 33 2 -211 1 154 
2 -3 1 -9 2 114 1 174 2 123 2 -224 1 214 2 -170 
1 98 2 115 1 53 2 -74 1 128 2 306 1 -111 2 -56 
1 -96 2 41 1 256 2 -112 1 -32 2 -41 1 193 2 5 
1 -75 2 -250 1 38 2 -103 2 90 1 -213 2 136 1 73 
2 -175 1 213 2 -27 1 -320 2 385 1 -35 2 -153 1 63 
2 56 1 -53 2 11 5632 2393 100 MP stroke
1 416 2 -175 1 -115 2 51 1 138 2 28 1 115 2 -55 
2 -175 1 -103 2 -104 1 -4 2 253 1 174 2 -81 1 -331 
2 -229 1 272 2 87 1 129 2 303 1 -188 2 -120 1 -108 
2 -187 1 -7 2 70 1 75 2 114 1 -73 2 142 2 -53 
1 -14 2 -505 1 -24 2 -86 1 -2 2 76 1 -118 2 -18 
1 247 2 363 1 46 2 -95 1 -247 2 206 1 -85 2 -442 
1 102 2 302 1 -62 2 118 1 -283 2 -403 2 -304 1 -63 
2 279 1 9 2 118 1 -44 2 61 1 346 2 -53 1 -132 
2 -253 1 20 2 -252 1 -11 2 -136 1 202 2 2 1 324 
2 314 1 27 2 -19 1 -80 2 -205 2 -99 1 177 2 -45 
1 167 2 272 1 135 2 -43 1 216 2 49 1 -216 2 -33 
1 -146 2 46 1 -205 2 92 1 106 2 -61 1 -82 2 142 
1 82 2 39 1 -27 5482 2342 100 MP stroke
2 -16 2 65 1 -105 2 218 1 164 2 32 1 18 2 22 
1 40 2 48 1 14 2 -2 1 17 2 5 1 30 2 1 
1 -2 2 15 1 12 2 49 1 23 2 21 1 -7 2 23 
2 54 1 30 2 55 1 18 2 2 1 15 2 2 1 15 
2 36 1 8 2 5 1 0 2 5 1 11 2 30 1 2 
2 0 1 -17 2 14 1 22 2 8 1 -1 2 9 2 13 
1 13 2 2 1 28 2 11 1 -14 2 -1 1 2 2 8 
1 31 2 44 1 24 2 38 1 21 2 34 1 7 2 -3 
1 -2 2 -1 1 17 2 9 1 25 2 4 2 -15 1 38 
2 20 1 20 2 3 1 18 2 -8 1 7 2 33 1 -4 
2 6 1 -6 2 20 1 7 2 1 1 10 2 -6 1 -10 
2 38 1 34 2 5 1 -4 2 10 1 -27 2 8 2 -33 
1 -19 2 6 1 48 5331 824 100 MP stroke
2 47 1 -8 2 -4 1 5 2 0 1 16 2 -52 1 -1 
2 -18 1 -16 2 24 1 42 2 71 1 93 2 28 1 -51 
2 -60 1 37 2 -27 2 -7 1 -13 2 -31 1 -67 2 -11 
1 -39 2 101 1 61 2 27 1 84 2 -71 1 -63 2 116 
1 -59 2 -130 1 -78 2 -67 1 20 2 49 1 -17 2 -29 
1 -7 2 36 2 54 1 21 2 40 1 111 2 -32 1 -11 
2 -27 1 -29 2 -9 1 12 2 18 1 -18 2 4 1 -50 
2 5 1 -14 2 -27 1 -3 2 -1 1 14 2 -29 1 -31 
2 55 2 60 1 -29 2 17 1 19 2 -6 1 -54 2 -25 
1 7 2 4 1 -51 2 -10 1 51 2 26 1 -1 2 10 
1 7 2 -142 1 -36 2 182 1 35 2 -118 1 -43 2 30 
2 18 1 -517 2 -323 1 122 2 2 1 286 2 191 1 109 
2 -41 1 67 2 338 5180 655 100 MP stroke
1 -172 2 228 1 -242 2 111 1 -401 2 -89 1 175 2 -215 
1 7 2 -217 1 -102 2 214 2 139 1 -75 2 -125 1 -98 
2 113 1 182 2 106 1 -39 2 -180 1 360 2 0 1 -195 
2 -79 1 -181 2 17 1 89 2 -69 1 111 2 164 1 -95 
2 -562 1 -79 2 -14 2 207 1 -320 2 46 1 155 2 -123 
1 10 2 270 1 343 2 -22 1 149 2 169 1 -135 2 41 
1 -45 2 141 1 -70 2 -33 1 205 2 47 1 90 2 -616 
1 -78 2 129 2 -151 1 39 2 -25 1 -178 2 -103 1 -96 
2 404 1 119 2 19 1 -91 2 152 1 -80 2 -138 1 -134 
2 -68 1 258 2 -217 1 -4 2 144 1 -13 2 -24 1 59 
2 -219 2 1 1 94 2 45 1 -185 2 106 1 -67 2 197 
1 51 2 -90 1 -209 2 113 1 30 2 -52 1 68 2 25 
1 -214 2 236 1 -223 5030 1729 100 MP stroke
2 261 1 -131 2 -160 1 -151 2 129 2 -14 1 -46 2 290 
1 -186 2 -66 1 -124 2 85 1 33 2 -203 1 1 2 42 
1 149 2 89 1 -99 2 66 1 101 2 254 1 -130 2 -115 
1 -144 2 16 1 -81 2 -1 2 242 1 -155 2 166 1 -84 
2 -52 1 15 2 133 1 -17 2 -223 1 -94 2 49 1 181 
2 -63 1 -95 2 192 1 -85 2 -5 1 -66 2 87 1 6 
2 -70 1 -134 2 245 2 145 1 -12 2 -64 1 49 2 -87 
1 -211 2 -25 1 20 2 42 1 -99 2 -163 1 73 2 108 
1 -127 2 -426 1 112 2 305 1 372 2 -139 1 153 2 58 
1 197 2 -66 2 57 1 -222 2 -92 1 -280 2 181 1 99 
2 137 1 -120 2 -32 1 -231 2 325 1 -150 2 127 1 -156 
2 -255 1 474 2 322 1 -134 2 -240 1 90 2 88 1 -108 
2 -164 1 -116 2 59 4879 1817 100 MP stroke
2 167 1 246 2 -4 1 132 2 60 1 -278 2 16 1 -507 
2 -204 1 266 2 195 1 -87 2 -258 1 8 2 273 1 -82 
2 -254 1 -141 2 85 1 270 2 341 1 137 2 34 2 36 
1 -12 2 -103 1 -330 2 56 1 -44 2 -214 1 -175 2 204 
1 -133 2 -114 1 -236 2 24 1 -186 2 47 1 -382 2 39 
1 89 2 252 1 -25 2 -45 1 195 2 33 2 -426 1 116 
2 49 1 -115 2 55 1 194 2 -231 1 -20 2 -134 1 -4 
2 1 1 -13 2 -32 1 4 2 21 1 -12 2 -3 1 -12 
2 -5 1 -34 2 -16 1 -32 2 -9 2 12 1 14 2 32 
1 7 2 6 1 -3 2 -13 1 -38 2 -4 1 1 2 -7 
1 -30 2 12 1 17 2 17 1 -6 2 -6 1 -48 2 -31 
1 -25 2 -20 1 -18 2 7 2 15 1 -1 2 -20 1 5 
2 14 1 -11 2 -17 4728 3223 100 MP stroke
1 16 2 6 1 26 2 15 1 -17 2 -16 1 0 2 -8 
1 3 2 10 1 -15 2 -11 1 3 2 -2 1 17 2 14 
2 3 1 10 2 -7 1 -13 2 14 1 -14 2 13 1 7 
2 35 1 43 2 -6 1 -11 2 -15 1 -10 2 22 1 -24 
2 -2 1 22 2 43 1 15 2 -66 1 -30 2 8 2 15 
1 -8 2 16 1 16 2 17 1 1 2 8 1 -35 2 35 
1 28 2 35 1 11 2 51 1 16 2 -15 1 35 2 54 
1 110 2 27 1 -1 2 -101 1 86 2 -1 2 6 1 2 
2 -92 1 1 2 -100 1 35 2 90 1 140 2 -50 1 142 
2 -135 1 -172 2 -234 1 146 2 171 1 60 2 -247 1 -113 
2 118 1 -18 2 -37 1 -16 2 21 2 -30 1 4 2 -33 
1 -10 2 15 1 -59 2 19 1 -47 2 2 1 17 2 44 
1 6 2 35 1 34 4578 3030 100 MP stroke
2 -73 1 -10 2 45 1 6 2 48 1 -119 2 -68 1 55 
2 48 2 22 1 9 2 62 1 -5 2 139 1 21 2 -101 
1 -401 2 76 1 -5 2 250 1 145 2 -61 1 -28 2 29 
1 54 2 -130 1 148 2 101 1 78 2 -14 1 -496 2 -104 
2 -17 1 58 2 -14 1 13 2 -1 1 17 2 8 1 5 
2 15 1 24 2 22 1 9 2 13 1 -69 2 -36 1 48 
2 21 1 24 2 51 1 -16 2 -16 1 -26 2 -17 2 55 
1 15 2 71 1 -42 2 37 1 -8 2 54 1 -17 2 33 
1 52 2 81 1 43 2 -5 1 -7 2 -57 1 -39 2 24 
1 -80 2 -19 1 -7 2 -23 1 -59 2 -43 1 50 2 105 
2 102 1 -52 2 93 1 74 2 -123 1 -222 2 -192 1 -239 
2 223 1 37 2 56 1 51 2 -18 1 31 2 18 1 -41 
2 -9 1 188 2 -40 4427 3042 100 MP stroke
1 -31 2 -82 1 -31 2 4 2 213 1 66 2 8 1 -86 
2 50 1 27 2 134 1 -241 2 -53 1 -20 2 56 1 -231 
2 -79 1 -91 2 -144 1 141 2 171 1 89 2 201 1 -9 
2 -185 1 189 2 -45 2 -108 1 123 2 -158 1 6 2 308 
1 209 2 -21 1 -128 2 -302 1 -107 2 66 1 -64 2 -156 
1 32 2 -182 1 165 2 564 1 -231 2 -134 1 317 2 101 
1 -134 2 -170 2 152 1 156 2 -149 1 -249 2 239 1 -139 
2 17 1 -90 2 -111 1 96 2 -116 1 318 2 -57 1 -12 
2 -274 1 -71 2 46 1 38 2 -69 1 -186 2 315 1 -34 
2 -100 2 226 1 -216 2 203 1 -141 2 -96 1 49 2 72 
1 -248 2 -286 1 76 2 257 1 346 2 383 1 -74 2 -389 
1 356 2 -47 1 236 2 -54 1 -211 2 -440 1 391 2 126 
2 -160 1 -49 2 -63 4276 3058 100 MP stroke
1 72 2 21 1 105 2 -34 1 -258 2 -37 1 209 2 60 
1 0 2 -7 1 153 2 -266 1 -62 2 -64 1 125 2 92 
1 -56 2 13 1 397 2 -314 2 144 1 -293 2 -107 1 199 
2 -113 1 -75 2 -210 1 133 2 107 1 98 2 -100 1 5 
2 -22 1 252 2 198 1 82 2 -25 1 -253 2 47 1 73 
2 -184 1 12 2 21 2 363 1 58 2 -61 1 -105 2 108 
1 -84 2 111 1 -99 2 79 1 -186 2 50 1 227 2 -127 
1 -140 2 -60 1 -65 2 297 1 133 2 -393 1 88 2 94 
1 -53 2 17 2 -97 1 129 2 344 1 -237 2 72 1 -65 
2 65 1 -346 2 46 1 177 2 -168 1 162 2 -53 1 -32 
2 461 1 225 2 -125 1 173 2 -72 1 -318 2 364 1 -74 
2 -297 2 315 1 -63 2 -307 1 183 2 -31 1 -176 2 90 
1 561 2 266 1 -239 4126 1735 100 MP stroke
2 -412 1 58 2 -81 1 56 2 -120 1 -236 2 167 1 224 
2 27 1 -215 2 -176 1 -170 2 134 2 -100 1 -7 2 102 
1 -83 2 156 1 -155 2 57 1 254 2 -52 1 -182 2 128 
1 -33 2 58 1 -79 2 -78 1 -78 2 208 1 186 2 -156 
1 86 2 51 1 -101 2 31 2 -170 1 57 2 -136 1 176 
2 -242 1 -176 2 124 1 -17 2 -41 1 22 2 180 1 -184 
2 257 1 -9 2 194 1 -21 2 180 1 -298 2 -309 1 6 
2 -143 1 -28 2 61 2 47 1 -217 2 -79 1 50 2 -19 
1 2 2 -11 1 0 2 -14 1 -7 2 -3 1 -17 2 22 
1 18 2 2 1 6 2 -14 1 -25 2 -33 1 -5 2 1 
1 -32 2 -11 1 -3 2 21 2 13 1 3 2 2 1 3 
2 16 1 -5 2 12 1 -3 2 7 1 -8 2 18 1 2 
2 -24 1 -23 2 18 3975 3073 100 MP stroke
1 -16 2 -13 1 -6 2 7 1 -3 2 -3 1 -5 2 2 
2 -14 1 -12 2 -5 1 -5 2 2 1 22 2 -17 1 3 
2 -8 1 -3 2 18 1 -10 2 -12 1 5 2 -3 1 3 
2 18 1 12 2 32 1 22 2 20 1 -9 2 -18 2 -8 
1 1 2 -3 1 1 2 -1 1 20 2 36 1 12 2 -9 
1 -11 2 4 1 17 2 0 1 29 2 -14 1 5 2 13 
1 3 2 -2 1 19 2 -7 1 -6 2 26 2 13 1 4 
2 18 1 20 2 -22 1 28 2 40 1 6 2 1 1 25 
2 21 1 32 2 5 1 1 2 0 1 0 2 -7 1 -18 
2 -1 1 -2 2 1 1 5 2 36 2 16 1 16 2 4 
1 -14 2 7 1 -4 2 43 1 -34 2 -14 1 -18 2 9 
1 54 2 30 1 -9 2 16 1 30 2 16 1 -30 2 0 
1 -20 2 -44 1 24 3825 2660 100 MP stroke
2 -2 2 -12 1 62 2 5 1 26 2 -62 1 9 2 40 
1 -42 2 30 1 22 2 24 1 35 2 72 1 -73 2 -97 
1 10 2 -4 1 6 2 -68 1 46 2 -53 1 -96 2 -101 
2 -136 1 13 2 199 1 -110 2 -40 1 504 2 -166 1 28 
2 -26 1 -40 2 51 1 -98 2 355 1 -242 2 -90 1 -26 
2 152 1 -10 2 -165 1 46 2 115 1 230 2 -27 2 -105 
1 -92 2 228 1 -37 2 88 1 99 2 55 1 23 2 -31 
1 -215 2 -123 1 172 2 160 1 107 2 -21 1 318 2 328 
1 -1 2 306 1 -349 2 -116 1 -48 2 -34 2 -94 1 60 
2 227 1 3 2 -97 1 -123 2 208 1 -123 2 -93 1 38 
2 -33 1 -12 2 -212 1 -65 2 36 1 212 2 -71 1 231 
2 1 1 -133 2 -54 1 -151 2 303 2 74 1 -47 2 -388 
1 -124 2 -84 1 67 3674 2098 100 MP stroke
2 -161 1 87 2 -28 1 114 2 45 1 181 2 124 1 70 
2 -236 1 -50 2 11 1 -299 2 -11 1 159 2 -111 1 180 
2 71 2 19 1 178 2 269 1 93 2 -17 1 -8 2 -117 
1 -82 2 54 1 -149 2 -44 1 153 2 37 1 -40 2 -46 
1 -119 2 7 1 -108 2 -325 1 346 2 -36 1 222 2 -125 
2 63 1 19 2 20 1 -117 2 -169 1 -160 2 -51 1 -28 
2 -4 1 7 2 -13 1 70 2 43 1 -42 2 -233 1 -122 
2 -36 1 86 2 123 1 38 2 111 1 58 2 35 2 -50 
1 15 2 5 1 83 2 -16 1 7 2 -22 1 -28 2 -9 
1 27 2 -41 1 26 2 -32 1 -39 2 -76 1 8 2 4 
1 -22 2 4 1 2 2 41 1 16 2 17 1 -26 2 -38 
2 3 1 22 2 23 1 -14 2 2 1 -4 2 -3 1 -5 
2 -3 1 -2 2 -21 3523 2238 100 MP stroke
1 10 2 19 1 30 2 1 1 -6 2 -21 1 -9 2 13 
1 16 2 0 1 -8 2 26 2 15 1 15 2 5 1 2 
2 4 1 -11 2 -1 1 -20 2 -14 1 -7 2 0 1 -28 
2 4 1 -3 2 28 1 0 2 5 1 -9 2 11 1 -22 
2 24 1 4 2 -18 2 16 1 9 2 -2 1 25 2 -6 
1 -7 2 14 1 -6 2 8 1 -11 2 -37 1 -39 2 -8 
1 -8 2 7 1 26 2 3 1 15 2 -6 1 -27 2 -24 
1 6 2 1 2 -10 1 26 2 1 1 -18 2 26 1 39 
2 -1 1 -3 2 9 1 -3 2 11 1 1 2 -15 1 14 
2 -10 1 8 2 -13 1 -9 2 5 1 -11 2 -8 1 20 
2 -2 2 8 1 2 2 23 1 6 2 1 1 -45 2 -35 
1 -30 2 1 1 8 2 -5 1 -23 2 -19 1 4 2 -10 
1 -27 2 -35 1 -28 3373 2381 100 MP stroke
2 13 1 8 2 26 1 29 2 7 2 10 1 10 2 17 
1 2 2 30 1 12 2 -24 1 19 2 20 1 22 2 8 
1 -5 2 9 1 10 2 -13 1 2 2 -9 1 -11 2 20 
1 -7 2 29 1 26 2 15 2 -1 1 7 2 -10 1 -41 
2 -18 1 25 2 20 1 8 2 -5 1 -1 2 -17 1 -44 
2 -27 1 -23 2 -29 1 -47 2 -1 1 -10 2 34 1 3 
2 30 1 -22 2 -3 2 9 1 21 2 -4 1 19 2 -31 
1 -1 2 -16 1 16 2 7 1 -21 2 -3 1 4 2 23 
1 52 2 -5 1 3 2 -16 1 -16 2 2 1 42 2 6 
1 -22 2 -34 2 -40 1 26 2 54 1 6 2 56 1 111 
2 139 1 124 2 7 1 9 2 -147 1 -202 2 -5 1 -37 
2 78 1 -207 2 -222 1 -107 2 152 1 171 2 -7 1 -137 
2 -158 2 119 1 -315 3222 2775 100 MP stroke
2 -85 1 -66 2 375 1 64 2 175 1 212 2 315 1 337 
2 -259 1 204 2 -286 1 266 2 172 1 -367 2 -69 1 -281 
2 89 1 219 2 -164 1 -75 2 164 2 -14 1 -33 2 30 
1 62 2 -173 1 133 2 -207 1 55 2 131 1 260 2 -76 
1 -338 2 181 1 260 2 106 1 -418 2 -64 1 -200 2 144 
1 -104 2 -235 1 -49 2 144 2 255 1 38 2 -49 1 51 
2 565 1 53 2 199 1 210 2 -173 1 -97 2 -225 1 153 
2 -164 1 -105 2 4 1 -93 2 -107 1 -15 2 26 1 141 
2 -27 1 -379 2 36 1 -49 2 -63 2 250 1 -190 2 350 
1 -138 2 -135 1 -138 2 92 1 434 2 217 1 -269 2 -123 
1 -143 2 30 1 40 2 -273 1 14 2 62 1 -76 2 94 
1 40 2 -108 1 -5 2 19 2 -195 1 337 2 -1 1 -190 
2 -91 1 103 2 262 3071 1786 100 MP stroke
1 135 2 -167 1 95 2 -11 1 44 2 570 1 55 2 -272 
1 -17 2 -154 1 5 2 -171 1 -130 2 -69 1 38 2 127 
2 -179 1 -130 2 -119 1 100 2 261 1 -9 2 -186 1 107 
2 53 1 48 2 -192 1 3 2 -32 1 -23 2 -224 1 188 
2 -37 1 -95 2 34 1 58 2 -257 1 181 2 171 2 -11 
1 -173 2 -221 1 169 2 -18 1 -129 2 52 1 -45 2 200 
1 209 2 -210 1 1 2 183 1 -227 2 189 1 -49 2 -23 
1 42 2 -3 1 -178 2 -5 1 44 2 -73 2 343 1 -250 
2 -95 1 11 2 -87 1 32 2 221 1 -148 2 33 1 221 
2 51 1 -335 2 -30 1 560 2 151 1 -213 2 91 1 -212 
2 -18 1 56 2 -452 1 -203 2 241 2 78 1 60 2 -208 
1 -60 2 -27 1 5 2 -57 1 -419 2 57 1 241 2 228 
1 8 2 49 1 131 2921 2209 100 MP stroke
2 -52 1 -142 2 52 1 -33 2 158 1 -249 2 267 1 -3 
2 -8 2 -60 1 26 2 98 1 -79 2 -49 1 11 2 200 
1 -90 2 209 1 557 2 -335 1 -36 2 -320 1 18 2 132 
1 -527 2 -236 1 -62 2 217 1 454 2 -102 1 -80 2 -10 
2 82 1 -150 2 -166 1 -17 2 -282 1 -85 2 -30 1 71 
2 -180 1 402 2 49 1 58 2 -370 1 270 2 151 1 186 
2 -64 1 -476 2 438 1 -138 2 34 1 -15 2 -29 2 -106 
1 134 2 57 1 -214 2 144 1 343 2 -19 1 -158 2 321 
1 -342 2 339 1 243 2 -102 1 -230 2 -195 1 64 2 265 
1 -147 2 -179 1 -19 2 127 1 -493 2 -214 2 45 1 133 
2 41 1 -3 2 75 1 5 2 -182 1 336 2 -72 1 161 
2 -236 1 -197 2 145 1 -51 2 104 1 -179 2 102 1 172 
2 -178 1 -130 2 47 2770 2787 100 MP stroke
1 -61 2 -62 2 -67 1 -44 2 3 1 14 2 28 1 -8 
2 -13 1 -7 2 -27 1 -6 2 11 1 16 2 -2 1 17 
2 6 1 12 2 -4 1 3 2 -5 1 -37 2 -8 1 1 
2 18 2 -14 1 -13 2 0 1 6 2 -3 1 -19 2 1 
1 11 2 -11 1 9 2 28 1 -15 2 16 1 -13 2 7 
1 -35 2 -3 1 -20 2 20 1 -14 2 -16 1 -29 2 25 
2 9 1 -19 2 -12 1 -12 2 -31 1 -18 2 -11 1 7 
2 23 1 -1 2 -6 1 -21 2 -24 1 6 2 0 1 3 
2 -17 1 -22 2 6 1 38 2 -14 1 -16 2 0 1 -6 
2 -3 2 -9 1 -8 2 -2 1 -6 2 -8 1 6 2 -2 
1 20 2 -13 1 -11 2 -12 1 13 2 0 1 4 2 -10 
1 -25 2 -25 1 -2 2 3 1 -29 2 -40 1 -22 2 27 
2 40 1 -1 2 12 2619 3332 100 MP stroke
1 17 2 18 1 -15 2 0 1 -9 2 -9 1 15 2 16 
1 21 2 -5 1 22 2 16 1 -13 2 -3 1 -3 2 1 
1 31 2 -13 1 12 2 21 2 -8 1 -31 2 -48 1 -5 
2 -6 1 -3 2 -16 1 2 2 20 1 23 2 24 1 -22 
2 30 1 33 2 59 1 -14 2 -34 1 -11 2 6 1 22 
2 -34 1 51 2 39 2 -39 1 -55 2 -88 1 5 2 11 
1 59 2 -70 1 100 2 48 1 47 2 12 1 48 2 -25 
1 -126 2 4 1 111 2 1 1 292 2 94 1 -6 2 -13 
1 -121 2 36 2 -84 1 -237 2 -158 1 -254 2 323 1 185 
2 132 1 -2 2 24 1 -308 2 -200 1 12 2 -145 1 53 
2 170 1 -51 2 -12 1 -153 2 -224 1 171 2 -7 1 -98 
2 163 2 41 1 269 2 231 1 -119 2 183 1 243 2 -118 
1 -38 2 -373 1 -177 2469 3368 100 MP stroke
2 -57 1 -42 2 19 1 -46 2 187 1 326 2 15 1 89 
2 -36 1 -501 2 36 1 152 2 -123 2 -11 1 -364 2 -55 
1 -25 2 -287 1 -16 2 -134 1 179 2 32 1 315 2 147 
1 119 2 -94 1 116 2 -467 1 240 2 253 1 -121 2 -322 
1 -133 2 -116 1 -73 2 6 2 112 1 130 2 -112 1 13 
2 105 1 -81 2 -3 1 232 2 128 1 342 2 -25 1 -65 
2 31 1 -17 2 -439 1 200 2 -146 1 470 2 -72 1 0 
2 -377 1 108 2 209 2 -309 1 -247 2 167 1 806 2 88 
1 -112 2 -143 1 -31 2 138 1 66 2 -15 1 13 2 167 
1 -63 2 95 1 -56 2 106 1 119 2 61 1 -105 2 -38 
1 -53 2 67 2 200 1 -115 2 148 1 -56 2 54 1 33 
2 138 1 -51 2 9 1 -57 2 -117 1 132 2 -137 1 -87 
2 -37 1 -103 2 457 2318 2285 100 MP stroke
1 305 2 -490 1 -340 2 203 1 168 2 137 2 278 1 -289 
2 97 1 -164 2 36 1 -69 2 271 1 -25 2 160 1 99 
2 -220 1 14 2 -120 1 -185 2 218 1 -302 2 43 1 -35 
2 297 1 131 2 -157 1 -17 2 -84 2 211 1 -225 2 -25 
1 64 2 -38 1 -172 2 -39 1 250 2 -76 1 58 2 -8 
1 -40 2 431 1 238 2 -430 1 149 2 -99 1 -100 2 -191 
1 193 2 108 1 500 2 -361 2 -235 1 165 2 215 1 -5 
2 -45 1 -308 2 248 1 -51 2 67 1 54 2 -557 1 -15 
2 -556 1 -16 2 -13 1 93 2 256 1 153 2 71 1 274 
2 153 1 159 2 -3 1 -634 2 -105 2 -226 1 31 2 -193 
1 11 2 163 1 1 2 223 1 -141 2 -296 1 221 2 85 
1 16 2 76 1 -113 2 280 1 64 2 -148 1 -16 2 -134 
1 -185 2 377 1 484 2168 1982 100 MP stroke
2 -301 2 246 1 -12 2 203 1 -280 2 -337 1 -218 2 134 
1 78 2 -107 1 114 2 52 1 -70 2 82 1 38 2 291 
1 5 2 -3 1 5 2 1 1 5 2 18 1 2 2 20 
2 22 1 -4 2 1 1 -17 2 -13 1 12 2 -2 1 17 
2 11 1 1 2 12 1 -5 2 -7 1 -3 2 13 1 -12 
2 6 1 13 2 26 1 -9 2 -9 1 12 2 6 2 11 
1 -6 2 -4 1 -5 2 -16 1 -5 2 -14 1 1 2 32 
1 16 2 -12 1 -4 2 -12 1 1 2 10 1 -6 2 19 
1 -8 2 21 1 31 2 3 1 32 2 13 2 -15 1 1 
2 -45 1 -27 2 -6 1 -18 2 -5 1 -14 2 8 1 14 
2 3 1 38 2 46 1 18 2 -6 1 5 2 4 1 17 
2 -3 1 -8 2 12 1 17 2 20 2 3 1 -2 2 -8 
1 26 2 19 1 11 2017 1742 100 MP stroke
2 13 1 -3 2 -8 1 -8 2 -11 1 10 2 0 1 34 
2 18 1 13 2 -2 1 24 2 2 1 0 2 -6 1 9 
2 9 2 15 1 -17 2 -33 1 -1 2 21 1 -8 2 13 
1 18 2 22 1 6 2 -5 1 -2 2 -20 1 3 2 5 
1 19 2 2 1 -5 2 5 1 -2 2 -12 1 3 2 28 
2 32 1 2 2 -11 1 0 2 -2 1 12 2 9 1 -1 
2 3 1 13 2 4 1 9 2 15 1 -12 2 2 1 5 
2 9 1 5 2 12 1 20 2 -2 1 -5 2 -16 2 -12 
1 12 2 31 1 37 2 -15 1 9 2 3 1 13 2 6 
1 -13 2 -3 1 11 2 -4 1 18 2 10 1 2 2 1 
1 0 2 22 1 14 2 -1 1 4 2 -3 2 -18 1 -6 
2 11 1 17 2 1 1 -16 2 16 1 21 2 12 1 -15 
2 -15 1 -22 2 -19 1866 1381 100 MP stroke
1 -4 2 4 1 0 2 -3 1 -5 2 -7 1 2 2 21 
1 18 2 12 2 -7 1 12 2 -3 1 15 2 9 1 -2 
2 -39 1 -9 2 4 1 2 2 22 1 -3 2 26 1 -1 
2 5 1 18 2 17 1 -5 2 1 1 23 2 16 1 38 
2 14 2 15 1 38 2 17 1 20 2 28 1 15 2 -28 
1 -48 2 6 1 -25 2 15 1 -15 2 -9 1 -6 2 -16 
1 -12 2 14 1 -21 2 -23 1 -6 2 4 1 -6 2 -8 
1 -19 2 14 2 14 1 15 2 -3 1 27 2 4 1 -38 
2 -43 1 -6 2 11 1 7 2 -58 1 23 2 19 1 43 
2 -20 1 -31 2 -38 1 -57 2 49 1 26 2 -19 1 15 
2 -63 2 115 1 -59 2 -27 1 33 2 -10 1 1 2 -172 
1 56 2 220 1 55 2 1 1 213 2 69 1 153 2 -183 
1 -367 2 -413 1 263 1716 1421 100 MP stroke
2 -57 1 19 2 -245 1 77 2 89 2 17 1 -119 2 -119 
1 -28 2 282 1 -110 2 -93 1 35 2 -260 1 -94 2 70 
1 67 2 127 1 131 2 160 1 -204 2 -70 1 0 2 147 
1 -265 2 -256 1 84 2 106 2 -63 1 -81 2 43 1 -512 
2 225 1 272 2 -79 1 -48 2 -57 1 246 2 333 1 -132 
2 -198 1 -7 2 -231 1 -96 2 279 1 118 2 38 1 112 
2 -108 1 -64 2 27 2 443 1 -396 2 -49 1 -193 2 201 
1 233 2 145 1 -73 2 202 1 288 2 -24 1 -303 2 -167 
1 -89 2 -288 1 13 2 185 1 -114 2 205 1 -281 2 197 
1 -104 2 -232 2 -214 1 263 2 -48 1 286 2 -263 1 99 
2 94 1 -165 2 9 1 155 2 -68 1 59 2 405 1 8 
2 -211 1 153 2 -250 1 -52 2 128 1 -46 2 -5 1 -201 
2 108 2 -138 1 9 1565 1999 100 MP stroke
2 180 1 -265 2 147 1 37 2 76 1 107 2 206 1 -176 
2 77 1 233 2 -84 1 -224 2 -30 1 192 2 -58 1 17 
2 -304 1 -9 2 -77 1 -102 2 -179 2 75 1 43 2 -52 
1 207 2 -198 1 123 2 -337 1 140 2 -37 1 289 2 -267 
1 139 2 20 1 27 2 42 1 81 2 -379 1 168 2 -34 
1 194 2 -41 1 -190 2 -188 2 293 1 216 2 -26 1 -86 
2 38 1 113 2 35 1 -269 2 -253 1 69 2 -42 1 58 
2 435 1 -364 2 132 1 232 2 -76 1 15 2 -114 1 155 
2 -144 1 -239 2 -60 2 -282 1 -222 2 -21 1 634 2 356 
1 -119 2 -148 1 53 2 -197 1 267 2 -167 1 -604 2 117 
1 307 2 402 1 -222 2 106 1 52 2 -3 1 -242 2 -305 
1 -17 2 -60 2 72 1 -138 2 283 1 -298 2 135 1 -59 
2 -90 1 -7 2 248 1414 2461 100 MP stroke
1 -120 2 -319 1 209 2 -380 1 180 2 -21 1 300 2 74 
1 -6 2 -186 1 337 2 -176 1 109 2 -112 2 -19 1 -7 
2 -140 1 90 2 -277 1 -223 2 -47 1 556 2 439 1 81 
2 43 1 -87 2 -15 1 -166 2 212 1 -551 2 -208 1 196 
2 89 1 334 2 -176 1 63 2 -198 2 122 1 12 2 178 
1 81 2 -132 1 -17 2 -365 1 -44 2 -34 1 27 2 -58 
1 115 2 -43 1 -63 2 362 1 131 2 -252 1 26 2 165 
1 130 2 12 1 38 2 10 1 -86 2 32 2 7 1 8 
2 17 1 -5 2 8 1 -21 2 -11 1 6 2 33 1 37 
2 16 1 27 2 24 1 3 2 10 1 -17 2 13 1 -4 
2 13 1 0 2 17 1 10 2 -4 2 -26 1 21 2 -4 
1 4 2 -10 1 15 2 15 1 -3 2 7 1 8 2 -11 
1 -24 2 -2 1 35 1264 2024 100 MP stroke
2 -8 1 -19 2 -9 1 4 2 18 1 17 2 -12 1 20 
2 -11 2 -2 1 -18 2 -9 1 6 2 6 1 12 2 -4 
1 -14 2 1 1 5 2 0 1 1 2 8 1 28 2 44 
1 -27 2 10 1 -5 2 -37 1 15 2 5 1 -6 2 29 
2 -9 1 14 2 15 1 8 2 -3 1 -17 2 -14 1 -31 
2 -47 1 -6 2 -17 1 -9 2 -39 1 -24 2 4 1 5 
2 -2 1 -10 2 -10 1 -32 2 -23 1 -29 2 10 2 -3 
1 -30 2 -7 1 0 2 -18 1 -15 2 -9 1 5 2 -11 
1 -22 2 -13 1 -6 2 -27 1 -39 2 -3 1 -8 2 40 
1 -3 2 -25 1 -9 2 -19 1 -16 2 -33 2 7 1 -3 
2 -19 1 17 2 2 1 22 2 -24 1 -15 2 -9 1 -17 
2 -50 1 19 2 -3 1 -21 2 -18 1 -41 2 -26 1 -22 
2 -49 1 -15 2 -17 1113 2795 100 MP stroke
1 31 2 -16 2 -31 1 40 2 7 1 20 2 -37 1 4 
2 -9 1 -3 2 16 1 7 2 -7 1 43 2 22 1 -1 
2 8 1 -34 2 -20 1 -1 2 10 1 48 2 40 1 -4 
2 20 2 31 1 -28 2 -37 1 -14 2 20 1 -11 2 4 
1 79 2 41 1 -48 2 20 1 -18 2 6 1 -38 2 -39 
1 -28 2 -4 1 -36 2 -12 1 -1 2 31 1 -52 2 40 
2 58 1 -165 2 12 1 -11 2 43 1 -226 2 29 1 -117 
2 -5 1 -22 2 -10 1 -4 2 -10 1 6 2 -6 1 34 
2 -29 1 -1 2 4 1 -50 2 -21 1 25 2 18 2 16 
1 62 2 113 1 -10 2 19 1 -34 2 -44 1 -9 2 -52 
1 24 2 6 1 -4 2 20 1 -28 2 -23 1 -13 2 -4 
1 8 2 15 1 19 2 -3 1 -11 2 -16 2 -34 1 -41 
2 6 1 -5 2 0 962 3207 100 MP stroke
1 -15 2 -1 1 -7 2 -38 1 23 2 -10 1 -14 2 2 
1 -31 2 -11 1 4 2 -1 1 -27 2 -1 1 37 2 41 
1 21 2 4 2 1 1 14 2 -6 1 16 2 23 1 13 
2 22 1 -10 2 -12 1 -12 2 -28 1 -12 2 -30 1 -26 
2 -1 1 13 2 20 1 -10 2 -29 1 -16 2 -15 1 -24 
2 -20 1 11 899 3349 43 MP stroke
/c11 { 0.000000 0.750000 0.750000 sr} bdef
c11
1 -35 2 -1 1 12 2 4 1 -9 2 -23 1 2 2 5 
1 -13 2 -23 1 9 2 8 1 18 2 1 1 -40 2 3 
1 0 2 -10 1 -14 2 -36 2 -3 1 -32 2 -38 1 -2 
2 14 1 9 2 -27 1 -31 2 -12 1 1 2 15 1 12 
2 13 1 21 2 -11 1 -2 2 -1 1 -14 2 -12 1 -6 
2 19 1 -9 2 -5 2 11 1 26 2 11 1 -2 2 -20 
1 -3 2 -11 1 -11 2 3 1 -26 2 -19 1 1 2 -21 
1 -2 2 2 1 14 2 -24 1 -3 2 -5 1 -10 2 28 
1 -13 2 25 2 2 1 46 2 -17 1 -40 2 -15 1 -38 
2 45 1 -37 2 -18 1 -16 2 1 1 14 2 6 1 1 
2 17 1 -30 2 -11 1 -6 2 15 1 36 2 -6 1 -12 
2 -1 1 -40 2 -56 2 43 1 -105 2 13 1 -79 2 216 
1 368 2 -115 1 184 5783 3032 100 MP stroke
2 -120 1 -211 2 244 1 -21 2 66 1 -30 2 -364 1 -32 
2 189 1 -23 2 48 1 165 2 145 1 -20 2 138 2 -175 
1 -18 2 -139 1 -37 2 -223 1 316 2 127 1 69 2 216 
1 -255 2 -109 1 488 2 -120 1 -49 2 218 1 -194 2 -11 
1 48 2 223 1 -61 2 342 1 -126 2 15 2 -361 1 -20 
2 -21 1 16 2 -26 1 -329 2 428 1 122 2 72 1 126 
2 16 1 392 2 -48 1 -139 2 101 1 -384 2 -114 1 451 
2 -196 1 -122 2 119 1 146 2 -142 2 -169 1 512 2 -62 
1 -287 2 96 1 -199 2 -32 1 -50 2 5 1 157 2 -62 
1 32 2 -435 1 46 2 14 1 -139 2 343 1 -26 2 184 
1 -279 2 56 1 -57 2 121 2 -260 1 26 2 -57 1 -15 
2 68 1 -151 2 138 1 23 2 241 1 -85 2 -4 1 115 
2 127 1 -205 2 -357 5632 2853 100 MP stroke
1 -58 2 288 1 520 2 -22 1 282 2 -275 1 86 2 -182 
2 -211 1 -134 2 -193 1 264 2 -241 1 113 2 170 1 185 
2 357 1 67 2 -191 1 -54 2 61 1 -143 2 -127 1 -80 
2 181 1 -196 2 -30 1 5 2 -78 1 101 2 -255 2 55 
1 -150 2 131 1 213 2 -5 1 0 2 18 1 -92 2 21 
1 311 2 78 1 -87 2 -147 1 176 2 117 1 -62 2 24 
1 -35 2 -204 1 -96 2 170 1 344 2 230 2 -106 1 -249 
2 117 1 -143 2 -126 1 -49 2 -19 1 -147 2 72 1 214 
2 420 1 137 2 -262 1 2 2 97 1 85 2 141 1 -72 
2 -108 1 -56 2 -148 1 212 2 -108 2 85 1 -33 2 -349 
1 119 2 -21 1 85 2 109 1 -53 2 189 1 320 2 -167 
1 92 2 11 1 8 2 -10 1 108 2 105 1 30 2 55 
1 -156 2 -57 1 -80 5482 1339 100 MP stroke
2 -190 2 -92 1 -8 2 -53 1 248 2 11 1 48 2 -1 
1 19 2 -6 1 -2 2 16 1 -8 2 -1 1 31 2 14 
1 12 2 0 1 -1 2 15 1 14 2 -1 1 -20 2 -32 
2 -12 1 -16 2 -4 1 -9 2 23 1 15 2 -16 1 3 
2 1 1 10 2 0 1 14 2 -5 1 7 2 -6 1 1 
2 -17 1 -18 2 -31 1 -8 2 -9 1 -19 2 -18 2 2 
1 1 2 16 1 1 2 -11 1 8 2 19 1 18 2 9 
1 34 2 15 1 15 2 18 1 28 2 23 1 23 2 -23 
1 -15 2 9 1 21 2 17 1 0 2 5 2 24 1 14 
2 -2 1 -13 2 11 1 9 2 23 1 0 2 -8 1 0 
2 -24 1 5 2 5 1 -6 2 7 1 11 2 11 1 11 
2 1 1 -19 2 9 1 -3 2 6 1 -5 2 -3 2 1 
1 5 2 -9 1 -19 5331 1165 100 MP stroke
2 -20 1 33 2 4 1 6 2 20 1 46 2 42 1 15 
2 1 1 18 2 19 1 -18 2 12 1 -10 2 6 1 33 
2 -25 1 -60 2 18 2 13 1 7 2 3 1 -18 2 -46 
1 17 2 -13 1 -40 2 -69 1 -50 2 84 1 179 2 66 
1 -15 2 15 1 -178 2 -159 1 -85 2 -118 1 -31 2 -42 
1 -49 2 -40 2 -48 1 -63 2 3 1 -51 2 -49 1 -11 
2 -26 1 -29 2 -9 1 1 2 -13 1 6 2 4 1 -7 
2 -6 1 -17 2 -18 1 11 2 -13 1 7 2 -13 1 -5 
2 -14 2 -25 1 -28 2 -23 1 -22 2 18 1 14 2 15 
1 29 2 -8 1 16 2 22 1 10 2 -5 1 -28 2 10 
1 -6 2 -61 1 -22 2 -49 1 -32 2 -16 1 21 2 -77 
2 44 1 -103 2 -218 1 -5 2 -42 1 -56 2 132 1 5 
2 12 1 -149 2 107 5180 2474 100 MP stroke
1 87 2 -1 1 -2 2 -15 1 19 2 -17 1 -48 2 -62 
1 -194 2 -188 1 -62 2 48 2 -150 1 200 2 -65 1 147 
2 -111 1 53 2 -125 1 -26 2 -133 1 36 2 20 1 -196 
2 -109 1 90 2 16 1 -34 2 -2 1 50 2 -12 1 14 
2 128 1 -115 2 -111 2 76 1 -152 2 -33 1 95 2 31 
1 14 2 3 1 -73 2 -111 1 -235 2 326 1 3 2 -247 
1 3 2 -5 1 132 2 145 1 -67 2 -56 1 4 2 125 
1 0 2 -22 2 -89 1 -31 2 -163 1 84 2 -14 1 -302 
2 112 1 -269 2 16 1 319 2 19 1 -37 2 63 1 -118 
2 34 1 170 2 -101 1 -18 2 -34 1 -20 2 -10 1 -66 
2 348 2 -14 1 -360 2 -241 1 290 2 -131 1 -58 2 270 
1 122 2 -222 1 17 2 147 1 -153 2 249 1 -95 2 32 
1 312 2 -85 1 -31 5030 3446 100 MP stroke
2 -124 1 168 2 -235 1 -16 2 148 2 23 1 45 2 -78 
1 -36 2 263 1 117 2 -219 1 -273 2 -74 1 -122 2 8 
1 220 2 3 1 54 2 0 1 260 2 -49 1 393 2 -67 
1 -407 2 308 1 -113 2 -52 2 -30 1 132 2 36 1 118 
2 175 1 42 2 -167 1 -140 2 -168 1 65 2 182 1 120 
2 -239 1 208 2 254 1 128 2 -271 1 58 2 165 1 20 
2 -132 1 245 2 -79 2 -229 1 76 2 -44 1 -123 2 44 
1 133 2 5 1 -151 2 32 1 -24 2 27 1 146 2 83 
1 171 2 97 1 -1 2 -39 1 -128 2 170 1 80 2 139 
1 -183 2 95 2 92 1 178 2 -229 1 -118 2 -150 1 5 
2 -43 1 65 2 183 1 -90 2 -16 1 -5 2 -33 1 228 
2 179 1 288 2 -380 1 -173 2 145 1 53 2 93 1 -228 
2 -82 1 15 2 -7 4879 2233 100 MP stroke
2 47 1 105 2 -48 1 72 2 -215 1 -139 2 139 1 -35 
2 208 1 -167 2 -254 1 -209 2 177 1 214 2 -55 1 179 
2 -5 1 -20 2 218 1 -464 2 -140 1 -176 2 -102 2 -38 
1 -103 2 -72 1 -18 2 -64 1 201 2 125 1 12 2 35 
1 -166 2 140 1 -139 2 -25 1 89 2 -356 1 -9 2 -49 
1 75 2 112 1 -318 2 63 1 123 2 14 2 -177 1 298 
2 65 1 139 2 -268 1 -89 2 -118 1 202 2 -73 1 -2 
2 8 1 -12 2 -7 1 -7 2 -48 1 -15 2 -5 1 20 
2 -6 1 -13 2 -5 1 -12 2 13 2 4 1 -1 2 1 
1 -2 2 4 1 -6 2 -9 1 0 2 4 1 14 2 -9 
1 -4 2 0 1 -4 2 -13 1 21 2 1 1 -11 2 5 
1 -23 2 -4 1 3 2 -14 2 -7 1 -10 2 -7 1 20 
2 1 1 -7 2 3 4728 3433 100 MP stroke
1 -6 2 -6 1 -1 2 -3 1 3 2 23 1 -13 2 -10 
1 13 2 0 1 11 2 -13 1 -9 2 -26 1 -11 2 8 
2 -8 1 -13 2 -4 1 13 2 14 1 23 2 24 1 24 
2 19 1 29 2 -12 1 16 2 -6 1 -21 2 -17 1 0 
2 -8 1 -6 2 -13 1 -24 2 -24 1 -16 2 0 2 7 
1 1 2 -17 1 -25 2 -21 1 -11 2 0 1 -2 2 18 
1 -10 2 -3 1 8 2 29 1 -13 2 18 1 26 2 -14 
1 38 2 -17 1 -14 2 10 1 33 2 -1 2 70 1 -25 
2 147 1 80 2 120 1 -184 2 14 1 -265 2 47 1 41 
2 58 1 331 2 120 1 -92 2 -45 1 -115 2 -2 1 40 
2 -87 1 -50 2 -12 1 11 2 0 2 -23 1 -18 2 15 
1 37 2 13 1 2 2 31 1 40 2 23 1 -3 2 46 
1 49 2 17 1 -3 4578 3015 100 MP stroke
2 37 1 75 2 50 1 29 2 17 1 -16 2 -2 1 12 
2 -16 2 22 1 28 2 91 1 56 2 49 1 -43 2 100 
1 -26 2 -25 1 -24 2 -68 1 52 2 21 1 -71 2 11 
1 -44 2 261 1 -45 2 114 1 -239 2 38 1 -331 2 -126 
2 -43 1 -68 2 -39 1 10 2 -11 1 9 2 16 1 22 
2 12 1 15 2 -2 1 17 2 5 1 -40 2 3 1 -1 
2 1 1 -24 2 -16 1 -3 2 -7 1 28 2 6 2 31 
1 12 2 -24 1 -29 2 -63 1 18 2 35 1 15 2 -2 
1 42 2 33 1 10 2 33 1 27 2 -33 1 -8 2 36 
1 41 2 -35 1 -103 2 -64 1 -6 2 38 1 54 2 -5 
2 -113 1 99 2 195 1 269 2 94 1 -1 2 -314 1 -66 
2 -2 1 16 2 32 1 38 2 -74 1 -66 2 12 1 -9 
2 -23 1 43 2 74 4427 2881 100 MP stroke
1 41 2 -31 1 -19 2 43 2 104 1 182 2 -29 1 -195 
2 -35 1 184 2 63 1 -161 2 -187 1 -16 2 -179 1 148 
2 -228 1 1 2 91 1 128 2 96 1 -58 2 -92 1 28 
2 -27 1 -5 2 275 2 -109 1 -13 2 42 1 -32 2 -9 
1 -106 2 79 1 110 2 -2 1 90 2 197 1 23 2 -46 
1 -146 2 -280 1 8 2 74 1 -94 2 156 1 -217 2 -46 
1 149 2 153 2 -83 1 190 2 -184 1 105 2 -334 1 36 
2 -51 1 167 2 -100 1 142 2 149 1 102 2 -386 1 -239 
2 62 1 32 2 492 1 -79 2 -83 1 147 2 152 1 -2 
2 -14 2 -170 1 -140 2 -235 1 245 2 229 1 -67 2 288 
1 -190 2 -434 1 -33 2 242 1 -21 2 -108 1 12 2 115 
1 -197 2 161 1 -20 2 25 1 81 2 28 1 -441 2 35 
2 -67 1 -21 2 83 4276 3157 100 MP stroke
1 -153 2 -156 1 148 2 45 1 116 2 -280 1 68 2 167 
1 171 2 -269 1 -254 2 -50 1 -61 2 251 1 -78 2 -83 
1 -125 2 46 1 -147 2 109 2 183 1 196 2 -224 1 236 
2 -99 1 -28 2 68 1 -143 2 -129 1 223 2 104 1 122 
2 595 1 -156 2 -274 1 -212 2 -92 1 59 2 198 1 -18 
2 183 1 -120 2 57 2 170 1 80 2 16 1 -152 2 -92 
1 12 2 -148 1 216 2 -113 1 336 2 -188 1 109 2 211 
1 -152 2 -38 1 -7 2 -56 1 -95 2 28 1 -132 2 -2 
1 197 2 39 2 142 1 24 2 57 1 71 2 -310 1 76 
2 56 1 94 2 148 1 -337 2 -59 1 12 2 119 1 -74 
2 -279 1 110 2 95 1 9 2 284 1 86 2 -237 1 -170 
2 197 2 -84 1 -54 2 74 1 -20 2 148 1 -1 2 160 
1 232 2 -86 1 -23 4126 2264 100 MP stroke
2 238 1 -101 2 -220 1 86 2 -150 1 -77 2 -161 1 -114 
2 459 1 -13 2 36 1 -51 2 26 2 40 1 2 2 -135 
1 36 2 -108 1 77 2 -262 1 -49 2 178 1 231 2 -47 
1 84 2 74 1 -226 2 -130 1 -18 2 91 1 244 2 -326 
1 172 2 -7 1 325 2 -151 2 181 1 -320 2 -34 1 -92 
2 -18 1 -104 2 131 1 45 2 13 1 9 2 115 1 148 
2 108 1 120 2 212 1 -523 2 -12 1 -67 2 -52 1 -25 
2 -178 1 -110 2 34 2 37 1 -7 2 114 1 -98 2 -8 
1 0 2 -2 1 9 2 -7 1 -22 2 -4 1 11 2 16 
1 18 2 -8 1 3 2 21 1 5 2 -17 1 -11 2 -24 
1 17 2 -8 1 20 2 -17 2 -7 1 -12 2 4 1 -2 
2 14 1 0 2 -9 1 -12 2 -4 1 6 2 6 1 -14 
2 -15 1 8 2 0 3975 2629 100 MP stroke
1 14 2 -18 1 -5 2 15 1 -9 2 12 1 -15 2 6 
2 3 1 -4 2 -7 1 -7 2 -18 1 -18 2 25 1 -20 
2 0 1 -11 2 -15 1 20 2 -26 1 -17 2 8 1 -9 
2 1 1 0 2 3 1 7 2 -7 1 5 2 -42 2 -28 
1 -17 2 -9 1 -4 2 -4 1 5 2 -10 1 -14 2 -14 
1 11 2 -27 1 -34 2 -3 1 -23 2 -7 1 -49 2 -6 
1 -7 2 -18 1 2 2 22 1 -6 2 -15 2 -4 1 -3 
2 -6 1 8 2 2 1 -6 2 4 1 -11 2 -13 1 -15 
2 -1 1 -17 2 -2 1 -3 2 5 1 6 2 -9 1 -13 
2 -17 1 0 2 -5 1 -7 2 0 2 -19 1 -29 2 3 
1 14 2 -1 1 -14 2 -18 1 9 2 -31 1 4 2 3 
1 -7 2 10 1 -15 2 19 1 -24 2 0 1 -10 2 2 
1 22 2 -17 1 6 3825 3213 100 MP stroke
2 -7 2 -14 1 4 2 13 1 14 2 1 1 19 2 2 
1 2 2 12 1 24 2 1 1 -34 2 19 1 49 2 -42 
1 -19 2 -6 1 16 2 -16 1 5 2 24 1 27 2 61 
2 35 1 -77 2 -164 1 175 2 -250 1 -113 2 291 1 -6 
2 331 1 92 2 -67 1 -179 2 0 1 224 2 -78 1 -77 
2 -26 1 -132 2 181 1 -56 2 -62 1 58 2 320 2 211 
1 -79 2 55 1 35 2 52 1 19 2 -152 1 -75 2 140 
1 70 2 -116 1 18 2 116 1 -43 2 23 1 -112 2 121 
1 279 2 119 1 -17 2 -134 1 52 2 -117 2 142 1 86 
2 69 1 16 2 162 1 -36 2 27 1 -120 2 286 1 -33 
2 97 1 -142 2 -49 1 87 2 111 1 -170 2 -85 1 -143 
2 57 1 -82 2 133 1 -285 2 -92 2 -116 1 256 2 322 
1 208 2 117 1 -35 3674 1385 100 MP stroke
2 58 1 -41 2 -60 1 110 2 -88 1 -5 2 18 1 -166 
2 126 1 -26 2 69 1 147 2 86 1 -197 2 -222 1 44 
2 -49 2 209 1 78 2 48 1 95 2 265 1 59 2 -187 
1 114 2 89 1 -89 2 21 1 -85 2 -210 1 -53 2 14 
1 38 2 61 1 20 2 -98 1 -111 2 -276 1 -25 2 75 
2 -80 1 109 2 -133 1 -9 2 -182 1 66 2 112 1 109 
2 -26 1 -128 2 -52 1 206 2 -248 1 26 2 -167 1 -47 
2 -53 1 162 2 139 1 135 2 -360 1 1 2 97 2 -130 
1 0 2 -90 1 -38 2 -30 1 -17 2 -20 1 -25 2 -10 
1 -59 2 -20 1 3 2 38 1 -69 2 91 1 -27 2 -31 
1 -13 2 -17 1 -29 2 -7 1 -30 2 -17 1 -9 2 3 
2 -17 1 -4 2 -16 1 -14 2 24 1 12 2 1 1 23 
2 27 1 2 2 5 3523 2362 100 MP stroke
1 -7 2 -5 1 -2 2 -4 1 9 2 21 1 -9 2 40 
1 17 2 -8 1 -7 2 26 2 -16 1 -32 2 -2 1 -14 
2 29 1 10 2 0 1 -4 2 -1 1 -5 2 6 1 7 
2 -4 1 -7 2 -9 1 -9 2 2 1 -16 2 -42 1 10 
2 -5 1 12 2 17 2 31 1 33 2 51 1 7 2 -15 
1 34 2 -18 1 7 2 -7 1 -16 2 -3 1 44 2 -9 
1 -6 2 -19 1 20 2 -9 1 10 2 -4 1 -6 2 -5 
1 -7 2 6 2 32 1 -11 2 -25 1 -20 2 10 1 -23 
2 23 1 9 2 -4 1 -13 2 3 1 18 2 -31 1 -2 
2 10 1 3 2 -40 1 -7 2 0 1 10 2 33 1 28 
2 -7 2 23 1 4 2 -24 1 -2 2 -17 1 -15 2 51 
1 25 2 13 1 -12 2 -7 1 -1 2 -2 1 -14 2 13 
1 13 2 18 1 -25 3373 2208 100 MP stroke
2 -62 1 -1 2 -23 1 0 2 -25 2 4 1 12 2 -8 
1 0 2 -5 1 -26 2 30 1 12 2 -16 1 4 2 4 
1 0 2 -12 1 -15 2 -32 1 -6 2 32 1 19 2 -16 
1 -16 2 -6 1 -18 2 -44 2 -33 1 -21 2 64 1 21 
2 -1 1 -26 2 -16 1 0 2 -2 1 11 2 -31 1 -5 
2 -12 1 -21 2 17 1 16 2 2 1 28 2 0 1 -19 
2 26 1 28 2 -13 2 -14 1 14 2 4 1 21 2 32 
1 -12 2 6 1 -21 2 11 1 45 2 19 1 -40 2 -61 
1 29 2 53 1 7 2 18 1 -4 2 -21 1 47 2 29 
1 18 2 70 2 2 1 49 2 -11 1 -107 2 66 1 102 
2 -12 1 -10 2 -98 1 -78 2 141 1 -51 2 -137 1 80 
2 185 1 86 2 -357 1 -132 2 219 1 -13 2 -116 1 -106 
2 -192 2 -35 1 264 3222 2420 100 MP stroke
2 198 1 274 2 -339 1 61 2 -133 1 -11 2 14 1 -138 
2 256 1 390 2 272 1 224 2 124 1 -118 2 -222 1 -636 
2 113 1 39 2 -23 1 -150 2 -113 2 64 1 47 2 -118 
1 271 2 111 1 30 2 212 1 157 2 -182 1 -101 2 -40 
1 78 2 107 1 53 2 -100 1 -32 2 -147 1 -199 2 -132 
1 -23 2 263 1 268 2 -52 2 -129 1 -114 2 125 1 -7 
2 -55 1 50 2 252 1 109 2 516 1 -309 2 -130 1 -190 
2 -62 1 139 2 138 1 193 2 -337 1 74 2 -25 1 97 
2 -7 1 -7 2 113 1 -72 2 -276 2 -137 1 -161 2 -349 
1 32 2 -69 1 302 2 -11 1 -87 2 -198 1 455 2 83 
1 -89 2 312 1 -9 2 260 1 -52 2 -44 1 68 2 -236 
1 -77 2 188 1 166 2 -198 2 200 1 18 2 -277 1 -158 
2 -47 1 123 2 51 3071 1658 100 MP stroke
1 -89 2 25 1 -349 2 412 1 259 2 -34 1 3 2 -7 
1 -88 2 -86 1 -89 2 -135 1 -41 2 -235 1 209 2 -16 
2 -138 1 -183 2 -181 1 57 2 -5 1 257 2 72 1 -53 
2 -174 1 -339 2 167 1 118 2 -451 1 0 2 -46 1 140 
2 193 1 -60 2 -66 1 137 2 259 1 -149 2 -132 2 -276 
1 -460 2 309 1 128 2 -80 1 -109 2 -80 1 72 2 458 
1 -454 2 -451 1 -176 2 270 1 496 2 197 1 224 2 117 
1 164 2 -184 1 -225 2 -87 1 53 2 66 2 186 1 -498 
2 175 1 35 2 18 1 -98 2 -216 1 314 2 30 1 -28 
2 -370 1 -223 2 130 1 313 2 94 1 169 2 75 1 -137 
2 8 1 -33 2 -305 1 313 2 162 2 122 1 -25 2 191 
1 -55 2 -203 1 -328 2 16 1 137 2 -35 1 -30 2 -74 
1 -187 2 -255 1 18 2921 3118 100 MP stroke
2 -65 1 89 2 399 1 -109 2 171 1 166 2 117 1 143 
2 126 2 -213 1 -133 2 19 1 19 2 -51 1 -310 2 -618 
1 35 2 426 1 135 2 101 1 -169 2 28 1 -150 2 517 
1 -31 2 -175 1 -50 2 174 1 -281 2 222 1 -100 2 -31 
2 23 1 145 2 -108 1 -227 2 441 1 127 2 -70 1 -64 
2 -184 1 -125 2 -131 1 120 2 28 1 -510 2 -3 1 197 
2 -263 1 439 2 89 1 -99 2 136 1 350 2 367 2 281 
1 -135 2 227 1 -243 2 251 1 32 2 -280 1 110 2 -11 
1 -210 2 324 1 -85 2 -331 1 -205 2 199 1 128 2 -247 
1 53 2 -144 1 -209 2 120 1 -81 2 161 2 -162 1 -139 
2 72 1 -142 2 -135 1 -88 2 436 1 168 2 267 1 -241 
2 -17 1 41 2 -164 1 -201 2 -162 1 203 2 131 1 -128 
2 99 1 196 2 -10 2770 2310 100 MP stroke
1 95 2 85 2 -106 1 39 2 12 1 3 2 -13 1 -12 
2 -9 1 -14 2 -7 1 -12 2 -9 1 11 2 21 1 -11 
2 -31 1 -13 2 -4 1 -15 2 -9 1 14 2 -8 1 17 
2 7 2 2 1 19 2 25 1 4 2 -31 1 -17 2 24 
1 -19 2 6 1 1 2 -6 1 -21 2 3 1 -2 2 2 
1 -7 2 -16 1 16 2 20 1 9 2 9 1 -7 2 6 
2 8 1 -10 2 17 1 -9 2 6 1 0 2 31 1 -5 
2 -7 1 -8 2 -16 1 -7 2 -6 1 15 2 7 1 -7 
2 5 1 5 2 23 1 -17 2 9 1 3 2 -21 1 10 
2 -23 2 -3 1 -11 2 -6 1 -7 2 -13 1 -3 2 8 
1 0 2 -4 1 -15 2 19 1 -10 2 2 1 4 2 -11 
1 2 2 9 1 6 2 -26 1 -26 2 1 1 43 2 56 
2 7 1 -16 2 -14 2619 2264 100 MP stroke
1 6 2 -18 1 -10 2 -18 1 1 2 18 1 -7 2 -3 
1 -27 2 12 1 7 2 -18 1 -42 2 11 1 11 2 16 
1 4 2 -32 1 -16 2 -11 2 17 1 -2 2 -3 1 42 
2 15 1 -15 2 11 1 4 2 19 1 -33 2 9 1 -23 
2 -15 1 -23 2 -28 1 -39 2 -24 1 -22 2 58 1 23 
2 26 1 -24 2 -53 2 17 1 99 2 -5 1 24 2 50 
1 -22 2 102 1 11 2 53 1 -67 2 -116 1 -96 2 3 
1 -81 2 63 1 93 2 6 1 -176 2 314 1 25 2 -153 
1 248 2 -296 2 236 1 42 2 -152 1 55 2 -90 1 -50 
2 55 1 329 2 -103 1 -82 2 76 1 -277 2 170 1 -124 
2 63 1 -77 2 21 1 -278 2 -245 1 139 2 3 1 31 
2 -81 2 -87 1 -430 2 -257 1 22 2 632 1 -25 2 1 
1 147 2 103 1 265 2469 2332 100 MP stroke
2 1 1 -318 2 -165 1 -81 2 99 1 -1 2 230 1 -191 
2 -262 1 296 2 470 1 157 2 15 2 -87 1 139 2 -185 
1 -101 2 -110 1 -113 2 115 1 -95 2 332 1 181 2 54 
1 -273 2 -60 1 -20 2 -202 1 -155 2 405 1 -71 2 -125 
1 -373 2 179 1 32 2 206 2 -192 1 -215 2 315 1 183 
2 33 1 -120 2 286 1 76 2 39 1 -250 2 324 1 -148 
2 -46 1 -45 2 252 1 -83 2 -25 1 93 2 -290 1 -166 
2 139 1 -292 2 -243 2 -185 1 -2 2 833 1 283 2 126 
1 -27 2 -207 1 -2 2 122 1 -273 2 166 1 -31 2 307 
1 108 2 -69 1 -111 2 53 1 -90 2 -27 1 79 2 109 
1 188 2 -155 2 102 1 -50 2 -378 1 -80 2 42 1 164 
2 -492 1 -51 2 158 1 -147 2 264 1 115 2 70 1 -223 
2 -98 1 -263 2 17 2318 2439 100 MP stroke
1 -283 2 -136 1 -51 2 40 1 793 2 47 2 61 1 416 
2 -228 1 -98 2 81 1 -222 2 198 1 306 2 -29 1 6 
2 -208 1 83 2 -140 1 297 2 -304 1 -70 2 39 1 215 
2 90 1 -139 2 -62 1 -23 2 127 2 151 1 -9 2 -297 
1 -246 2 -60 1 -49 2 64 1 36 2 -63 1 94 2 105 
1 -33 2 132 1 58 2 1 1 275 2 -99 1 -157 2 134 
1 -31 2 -211 1 -59 2 -354 2 390 1 -63 2 -270 1 237 
2 158 1 80 2 -406 1 52 2 -131 1 -96 2 -191 1 -18 
2 94 1 305 2 150 1 -9 2 -131 1 -242 2 -207 1 39 
2 93 1 -170 2 177 1 78 2 447 2 41 1 -143 2 386 
1 81 2 -299 1 -338 2 -207 1 29 2 100 1 367 2 -102 
1 5 2 173 1 190 2 -126 1 86 2 -15 1 142 2 61 
1 -69 2 -5 1 104 2168 1424 100 MP stroke
2 52 2 -29 1 -206 2 57 1 0 2 -182 1 -208 2 -52 
1 54 2 104 1 64 2 -22 1 141 2 -60 1 -53 2 100 
1 1 2 -4 1 33 2 39 1 7 2 9 1 -18 2 -23 
2 16 1 2 2 15 1 10 2 14 1 18 2 -14 1 -5 
2 -7 1 -2 2 -14 1 -6 2 -11 1 3 2 3 1 -13 
2 -4 1 0 2 20 1 3 2 11 1 -7 2 -18 2 30 
1 44 2 -16 1 -14 2 -6 1 0 2 1 1 -4 2 -9 
1 -18 2 17 1 -16 2 5 1 13 2 3 1 -19 2 -12 
1 28 2 36 1 13 2 1 1 -13 2 34 2 0 1 32 
2 0 1 -24 2 8 1 44 2 13 1 24 2 4 1 -15 
2 -19 1 -9 2 2 1 2 2 22 1 6 2 8 1 -12 
2 3 1 21 2 -17 1 0 2 -2 2 9 1 5 2 1 
1 2 2 5 1 9 2017 1386 100 MP stroke
2 2 1 -7 2 23 1 20 2 17 1 17 2 39 1 -8 
2 0 1 -1 2 16 1 32 2 -10 1 6 2 15 1 12 
2 21 2 6 1 5 2 17 1 -7 2 -18 1 -14 2 -4 
1 -4 2 3 1 34 2 25 1 -5 2 -13 1 33 2 5 
1 5 2 8 1 15 2 -11 1 0 2 38 1 4 2 3 
2 14 1 16 2 -8 1 49 2 16 1 13 2 -5 1 1 
2 7 1 3 2 7 1 6 2 16 1 41 2 28 1 -16 
2 -3 1 9 2 9 1 -2 2 -3 1 26 2 11 2 -28 
1 -29 2 1 1 19 2 14 1 18 2 -6 1 -20 2 0 
1 -6 2 -16 1 -15 2 6 1 14 2 17 1 6 2 4 
1 -1 2 -4 1 -19 2 -7 1 3 2 4 2 34 1 7 
2 -7 1 -1 2 8 1 13 2 -10 1 -21 2 -2 1 -9 
2 19 1 41 2 1 1866 804 100 MP stroke
1 -10 2 3 1 -16 2 -17 1 -8 2 -4 1 -23 2 -35 
1 -15 2 -13 2 10 1 -8 2 -13 1 -6 2 5 1 25 
2 35 1 -4 2 7 1 -10 2 -19 1 10 2 -16 1 -23 
2 -8 1 -12 2 -19 1 -4 2 6 1 5 2 8 1 -14 
2 -12 2 -1 1 -12 2 -22 1 1 2 -19 1 -7 2 -2 
1 25 2 -22 1 -12 2 -24 1 0 2 -16 1 -26 2 -11 
1 -23 2 -34 1 -25 2 -16 1 -27 2 -20 1 -8 2 -16 
1 6 2 3 2 -16 1 -19 2 -17 1 -10 2 1 1 6 
2 1 1 -3 2 -2 1 3 2 32 1 3 2 -11 1 -6 
2 20 1 -13 2 -34 1 -40 2 -4 1 -9 2 2 1 40 
2 60 2 -52 1 -87 2 -39 1 -52 2 95 1 130 2 16 
1 -230 2 40 1 -177 2 4 1 162 2 -373 1 -65 2 62 
1 278 2 -75 1 -261 1716 1947 100 MP stroke
2 -37 1 -1 2 -238 1 -95 2 -114 2 -58 1 -56 2 46 
1 -40 2 -112 1 33 2 123 1 86 2 -165 1 -183 2 -35 
1 -98 2 -123 1 -36 2 19 1 277 2 -136 1 262 2 44 
1 -97 2 72 1 -219 2 -58 2 139 1 -87 2 91 1 -137 
2 -46 1 -153 2 304 1 187 2 -190 1 -66 2 19 1 21 
2 57 1 -236 2 285 1 73 2 -116 1 60 2 -131 1 38 
2 -64 1 -176 2 -158 2 -222 1 58 2 -50 1 -139 2 104 
1 -103 2 406 1 -105 2 -248 1 29 2 326 1 -70 2 251 
1 -172 2 31 1 -216 2 124 1 -53 2 -18 1 341 2 44 
1 -59 2 -116 2 -88 1 -114 2 -78 1 -18 2 145 1 -137 
2 89 1 24 2 -26 1 249 2 95 1 -161 2 69 1 18 
2 179 1 -409 2 168 1 217 2 122 1 83 2 -326 1 -60 
2 -10 2 -24 1 189 1565 2833 100 MP stroke
2 -158 1 -55 2 -15 1 25 2 -59 1 14 2 234 1 324 
2 274 1 -89 2 -127 1 94 2 77 1 -54 2 -38 1 -160 
2 -44 1 26 2 61 1 -244 2 -81 2 -5 1 118 2 157 
1 -200 2 -211 1 31 2 414 1 -273 2 35 1 -107 2 419 
1 61 2 98 1 139 2 -252 1 -92 2 -221 1 315 2 161 
1 -140 2 -23 1 -362 2 442 2 39 1 304 2 1 1 23 
2 37 1 -55 2 -30 1 -161 2 -140 1 -218 2 90 1 116 
2 340 1 243 2 29 1 -222 2 324 1 -28 2 -151 1 -132 
2 -200 1 113 2 -104 2 -353 1 82 2 82 1 -44 2 -136 
1 213 2 -77 1 90 2 -130 1 124 2 -169 1 100 2 343 
1 -405 2 -5 1 116 2 282 1 205 2 -307 1 -232 2 190 
1 -35 2 -65 2 -70 1 219 2 -362 1 120 2 -61 1 63 
2 -100 1 83 2 120 1414 2225 100 MP stroke
1 73 2 -204 1 -76 2 116 1 77 2 -99 1 -25 2 -108 
1 -14 2 396 1 -409 2 -124 1 12 2 -89 2 29 1 82 
2 56 1 -244 2 -20 1 -208 2 -111 1 -79 2 203 1 128 
2 0 1 88 2 -173 1 29 2 -116 1 -59 2 69 1 336 
2 20 1 -271 2 -124 1 29 2 60 2 -88 1 -344 2 -14 
1 5 2 -81 1 89 2 41 1 242 2 -67 1 45 2 -171 
1 -94 2 -45 1 -128 2 234 1 77 2 -194 1 -32 2 35 
1 91 2 -80 1 -83 2 142 1 61 2 -2 2 -5 1 13 
2 -17 1 3 2 23 1 -7 2 27 1 10 2 12 1 31 
2 -14 1 35 2 8 1 13 2 -4 1 42 2 16 1 32 
2 -22 1 -23 2 1 1 15 2 24 2 17 1 -10 2 -3 
1 24 2 1 1 41 2 11 1 31 2 21 1 -11 2 4 
1 11 2 22 1 6 1264 2958 100 MP stroke
2 -10 1 4 2 -1 1 -11 2 6 1 -30 2 35 1 -27 
2 -17 2 1 1 27 2 -18 1 4 2 4 1 1 2 -7 
1 3 2 16 1 15 2 -9 1 6 2 2 1 9 2 20 
1 1 2 0 1 -24 2 -3 1 0 2 -14 1 7 2 2 
2 16 1 23 2 10 1 6 2 -26 1 -29 2 -10 1 -27 
2 2 1 27 2 9 1 -8 2 -7 1 3 2 17 1 4 
2 -26 1 -15 2 19 1 -12 2 -9 1 4 2 7 2 -17 
1 -15 2 10 1 -23 2 -1 1 3 2 16 1 -15 2 15 
1 15 2 -9 1 -5 2 19 1 1 2 5 1 37 2 -21 
1 15 2 4 1 23 2 9 1 -30 2 -10 2 13 1 -17 
2 18 1 5 2 16 1 -7 2 5 1 21 2 -7 1 4 
2 12 1 24 2 -12 1 -40 2 -13 1 8 2 11 1 4 
2 -5 1 -3 2 -2 1113 2927 100 MP stroke
1 -12 2 -11 2 13 1 24 2 -22 1 -15 2 2 1 -9 
2 -22 1 -11 2 -19 1 1 2 6 1 14 2 23 1 -1 
2 15 1 9 2 19 1 -16 2 -18 1 5 2 -9 1 15 
2 16 2 3 1 17 2 13 1 15 2 22 1 -32 2 -9 
1 -5 2 15 1 8 2 49 1 21 2 8 1 40 2 39 
1 -12 2 3 1 -20 2 -18 1 -19 2 -22 1 -51 2 -39 
2 -22 1 29 2 -69 1 -142 2 221 1 -56 2 94 1 -44 
2 -15 1 -3 2 10 1 2 2 8 1 -1 2 10 1 41 
2 23 1 -6 2 -9 1 -9 2 -7 1 29 2 0 2 21 
1 48 2 15 1 14 2 90 1 -35 2 -63 1 -48 2 64 
1 114 2 -5 1 -13 2 27 1 -14 2 7 1 0 2 -3 
1 1 2 -3 1 -26 2 6 1 -7 2 -8 2 27 1 11 
2 30 1 -13 2 2 962 2581 100 MP stroke
1 11 2 -28 1 -30 2 -34 1 15 2 13 1 -13 2 -7 
1 5 2 9 1 19 2 -11 1 7 2 10 1 3 2 16 
1 24 2 10 2 19 1 17 2 18 1 -2 2 14 1 -4 
2 -41 1 8 2 -4 1 14 2 -6 1 9 2 -20 1 -2 
2 -16 1 -12 2 -3 1 -1 2 5 1 22 2 1 1 16 
2 0 1 -7 899 2537 43 MP stroke
gr

12 w
c11
0 sg
3363 4902 mt 
(Time [s]) s
 646 2732 mt  -90 rotate
([Degree]) s
90 rotate
2613  294 mt 
(Digital magnetometers - Orientation) s
 882 4657 mt 
( ) s
6239  431 mt 
( ) s
6 w
1 sg
0 626 1176 0 0 -626 5020 1075 4 MP
PP
-1176 0 0 626 1176 0 0 -626 5020 1075 5 MP stroke
4 w
DO
SO
6 w
0 sg
5020  449 mt 6196  449 L
5020 1075 mt 6196 1075 L
6196 1075 mt 6196  449 L
5020 1075 mt 5020  449 L
5020 1075 mt 6196 1075 L
5020 1075 mt 5020  449 L
5020  449 mt 6196  449 L
5020 1075 mt 6196 1075 L
6196 1075 mt 6196  449 L
5020 1075 mt 5020  449 L
5484  583 mt 
(Ry, VICON) s
gs 5020 449 1177 627 MR c np
12 w
c8
356 0 5091 541 2 MP stroke
gr

12 w
c8
0 sg
5484  731 mt 
(Rx, VICON) s
gs 5020 449 1177 627 MR c np
c9
356 0 5091 688 2 MP stroke
gr

c9
0 sg
5484  878 mt 
(Ry, 3DWand) s
gs 5020 449 1177 627 MR c np
c10
356 0 5091 835 2 MP stroke
gr

c10
0 sg
5484 1026 mt 
(Rx, 3DWand) s
gs 5020 449 1177 627 MR c np
c11
356 0 5091 982 2 MP stroke
6 w
gr

6 w
c11

end %%Color Dict

eplot
%%EndObject

epage
end

showpage

%%Trailer
%%EOF
