%!PS-Adobe-2.0 EPSF-1.2
%%Creator: MATLAB, The MathWorks, Inc. Version 7.13.0.564 (R2011b). Operating System: Microsoft Windows 7.
%%Title: ..\figures\digital_ort_ori_bias.eps
%%CreationDate: 01/09/2013  18:28:12
%%DocumentNeededFonts: Helvetica
%%DocumentProcessColors: Cyan Magenta Yellow Black
%%Extensions: CMYK
%%Pages: 1
%%BoundingBox:    52   199   552   602
%%EndComments

%%BeginProlog
% MathWorks dictionary
/MathWorks 160 dict begin
% definition operators
/bdef {bind def} bind def
/ldef {load def} bind def
/xdef {exch def} bdef
/xstore {exch store} bdef
% operator abbreviations
/c  /clip ldef
/cc /concat ldef
/cp /closepath ldef
/gr /grestore ldef
/gs /gsave ldef
/mt /moveto ldef
/np /newpath ldef
/cm /currentmatrix ldef
/sm /setmatrix ldef
/rm /rmoveto ldef
/rl /rlineto ldef
/s {show newpath} bdef
/sc {setcmykcolor} bdef
/sr /setrgbcolor ldef
/sg /setgray ldef
/w /setlinewidth ldef
/j /setlinejoin ldef
/cap /setlinecap ldef
/rc {rectclip} bdef
/rf {rectfill} bdef
% page state control
/pgsv () def
/bpage {/pgsv save def} bdef
/epage {pgsv restore} bdef
/bplot /gsave ldef
/eplot {stroke grestore} bdef
% orientation switch
/portraitMode 0 def /landscapeMode 1 def /rotateMode 2 def
% coordinate system mappings
/dpi2point 0 def
% font control
/FontSize 0 def
/FMS {/FontSize xstore findfont [FontSize 0 0 FontSize neg 0 0]
  makefont setfont} bdef
/ISOLatin1Encoding where {pop /WindowsLatin1Encoding 256 array bdef
ISOLatin1Encoding WindowsLatin1Encoding copy pop
/.notdef/.notdef/quotesinglbase/florin/quotedblbase/ellipsis/dagger
/daggerdbl/circumflex/perthousand/Scaron/guilsinglleft/OE/.notdef/.notdef
/.notdef/.notdef/quoteleft/quoteright/quotedblleft/quotedblright/bullet
/endash/emdash/tilde/trademark/scaron/guilsinglright/oe/.notdef/.notdef
/Ydieresis WindowsLatin1Encoding 128 32 getinterval astore pop}
{/WindowsLatin1Encoding StandardEncoding bdef} ifelse
/reencode {exch dup where {pop load} {pop StandardEncoding} ifelse
  exch dup 3 1 roll findfont dup length dict begin
  { 1 index /FID ne {def}{pop pop} ifelse } forall
  /Encoding exch def currentdict end definefont pop} bdef
/isroman {findfont /CharStrings get /Agrave known} bdef
/FMSR {3 1 roll 1 index dup isroman {reencode} {pop pop} ifelse
  exch FMS} bdef
/csm {1 dpi2point div -1 dpi2point div scale neg translate
 dup landscapeMode eq {pop -90 rotate}
  {rotateMode eq {90 rotate} if} ifelse} bdef
% line types: solid, dotted, dashed, dotdash
/SO { [] 0 setdash } bdef
/DO { [.5 dpi2point mul 4 dpi2point mul] 0 setdash } bdef
/DA { [6 dpi2point mul] 0 setdash } bdef
/DD { [.5 dpi2point mul 4 dpi2point mul 6 dpi2point mul 4
  dpi2point mul] 0 setdash } bdef
% macros for lines and objects
/L {lineto stroke} bdef
/MP {3 1 roll moveto 1 sub {rlineto} repeat} bdef
/AP {{rlineto} repeat} bdef
/PDlw -1 def
/W {/PDlw currentlinewidth def setlinewidth} def
/PP {closepath eofill} bdef
/DP {closepath stroke} bdef
/MR {4 -2 roll moveto dup  0 exch rlineto exch 0 rlineto
  neg 0 exch rlineto closepath} bdef
/FR {MR stroke} bdef
/PR {MR fill} bdef
/L1i {{currentfile picstr readhexstring pop} image} bdef
/tMatrix matrix def
/MakeOval {newpath tMatrix currentmatrix pop translate scale
0 0 1 0 360 arc tMatrix setmatrix} bdef
/FO {MakeOval stroke} bdef
/PO {MakeOval fill} bdef
/PD {currentlinewidth 2 div 0 360 arc fill
   PDlw -1 eq not {PDlw w /PDlw -1 def} if} def
/FA {newpath tMatrix currentmatrix pop translate scale
  0 0 1 5 -2 roll arc tMatrix setmatrix stroke} bdef
/PA {newpath tMatrix currentmatrix pop	translate 0 0 moveto scale
  0 0 1 5 -2 roll arc closepath tMatrix setmatrix fill} bdef
/FAn {newpath tMatrix currentmatrix pop translate scale
  0 0 1 5 -2 roll arcn tMatrix setmatrix stroke} bdef
/PAn {newpath tMatrix currentmatrix pop translate 0 0 moveto scale
  0 0 1 5 -2 roll arcn closepath tMatrix setmatrix fill} bdef
/vradius 0 def /hradius 0 def /lry 0 def
/lrx 0 def /uly 0 def /ulx 0 def /rad 0 def
/MRR {/vradius xdef /hradius xdef /lry xdef /lrx xdef /uly xdef
  /ulx xdef newpath tMatrix currentmatrix pop ulx hradius add uly
  vradius add translate hradius vradius scale 0 0 1 180 270 arc 
  tMatrix setmatrix lrx hradius sub uly vradius add translate
  hradius vradius scale 0 0 1 270 360 arc tMatrix setmatrix
  lrx hradius sub lry vradius sub translate hradius vradius scale
  0 0 1 0 90 arc tMatrix setmatrix ulx hradius add lry vradius sub
  translate hradius vradius scale 0 0 1 90 180 arc tMatrix setmatrix
  closepath} bdef
/FRR {MRR stroke } bdef
/PRR {MRR fill } bdef
/MlrRR {/lry xdef /lrx xdef /uly xdef /ulx xdef /rad lry uly sub 2 div def
  newpath tMatrix currentmatrix pop ulx rad add uly rad add translate
  rad rad scale 0 0 1 90 270 arc tMatrix setmatrix lrx rad sub lry rad
  sub translate rad rad scale 0 0 1 270 90 arc tMatrix setmatrix
  closepath} bdef
/FlrRR {MlrRR stroke } bdef
/PlrRR {MlrRR fill } bdef
/MtbRR {/lry xdef /lrx xdef /uly xdef /ulx xdef /rad lrx ulx sub 2 div def
  newpath tMatrix currentmatrix pop ulx rad add uly rad add translate
  rad rad scale 0 0 1 180 360 arc tMatrix setmatrix lrx rad sub lry rad
  sub translate rad rad scale 0 0 1 0 180 arc tMatrix setmatrix
  closepath} bdef
/FtbRR {MtbRR stroke } bdef
/PtbRR {MtbRR fill } bdef
/stri 6 array def /dtri 6 array def
/smat 6 array def /dmat 6 array def
/tmat1 6 array def /tmat2 6 array def /dif 3 array def
/asub {/ind2 exch def /ind1 exch def dup dup
  ind1 get exch ind2 get sub exch } bdef
/tri_to_matrix {
  2 0 asub 3 1 asub 4 0 asub 5 1 asub
  dup 0 get exch 1 get 7 -1 roll astore } bdef
/compute_transform {
  dmat dtri tri_to_matrix tmat1 invertmatrix 
  smat stri tri_to_matrix tmat2 concatmatrix } bdef
/ds {stri astore pop} bdef
/dt {dtri astore pop} bdef
/db {2 copy /cols xdef /rows xdef mul dup 3 mul string
  currentfile exch readhexstring pop
  dup 0 3 index getinterval /rbmap xdef
  dup 2 index dup getinterval /gbmap xdef
  1 index dup 2 mul exch getinterval /bbmap xdef pop pop}bdef
/it {gs np dtri aload pop moveto lineto lineto cp c
  cols rows 8 compute_transform 
  rbmap gbmap bbmap true 3 colorimage gr}bdef
/il {newpath moveto lineto stroke}bdef
currentdict end def
%%EndProlog

%%BeginSetup
MathWorks begin

0 cap

end
%%EndSetup

%%Page: 1 1
%%BeginPageSetup
%%PageBoundingBox:    52   199   552   602
MathWorks begin
bpage
%%EndPageSetup

%%BeginObject: obj1
bplot

/dpi2point 12 def
portraitMode 0204 7344 csm

  422   110  5999  4844 MR c np
85 dict begin %Colortable dictionary
/c0 { 0.000000 0.000000 0.000000 sr} bdef
/c1 { 1.000000 1.000000 1.000000 sr} bdef
/c2 { 0.900000 0.000000 0.000000 sr} bdef
/c3 { 0.000000 0.820000 0.000000 sr} bdef
/c4 { 0.000000 0.000000 0.800000 sr} bdef
/c5 { 0.910000 0.820000 0.320000 sr} bdef
/c6 { 1.000000 0.260000 0.820000 sr} bdef
/c7 { 0.000000 0.820000 0.820000 sr} bdef
c0
1 j
1 sg
   0    0 6913 5185 PR
6 w
0 4225 5356 0 0 -4225 899 4614 4 MP
PP
-5356 0 0 4225 5356 0 0 -4225 899 4614 5 MP stroke
4 w
DO
SO
6 w
0 sg
 899  389 mt 6255  389 L
 899 4614 mt 6255 4614 L
6255 4614 mt 6255  389 L
 899 4614 mt  899  389 L
 899 4614 mt 6255 4614 L
 899 4614 mt  899  389 L
 899 4614 mt  899 4560 L
 899  389 mt  899  442 L
%%IncludeResource: font Helvetica
/Helvetica /WindowsLatin1Encoding 120 FMSR

 816 4759 mt 
(0.1) s
1970 4614 mt 1970 4560 L
1970  389 mt 1970  442 L
1854 4759 mt 
(0.15) s
3041 4614 mt 3041 4560 L
3041  389 mt 3041  442 L
2958 4759 mt 
(0.2) s
4112 4614 mt 4112 4560 L
4112  389 mt 4112  442 L
3996 4759 mt 
(0.25) s
5183 4614 mt 5183 4560 L
5183  389 mt 5183  442 L
5100 4759 mt 
(0.3) s
6255 4614 mt 6255 4560 L
6255  389 mt 6255  442 L
6139 4759 mt 
(0.35) s
 899 4614 mt  925 4614 L
6255 4614 mt 6228 4614 L
 899 4614 mt  952 4614 L
6255 4614 mt 6201 4614 L
 640 4658 mt 
(10) s
%%IncludeResource: font Helvetica
/Helvetica /WindowsLatin1Encoding 80 FMSR

 773 4584 mt 
(-2) s
 899 4190 mt  925 4190 L
6255 4190 mt 6228 4190 L
 899 3942 mt  925 3942 L
6255 3942 mt 6228 3942 L
 899 3766 mt  925 3766 L
6255 3766 mt 6228 3766 L
 899 3629 mt  925 3629 L
6255 3629 mt 6228 3629 L
 899 3518 mt  925 3518 L
6255 3518 mt 6228 3518 L
 899 3423 mt  925 3423 L
6255 3423 mt 6228 3423 L
 899 3342 mt  925 3342 L
6255 3342 mt 6228 3342 L
 899 3270 mt  925 3270 L
6255 3270 mt 6228 3270 L
 899 3205 mt  925 3205 L
6255 3205 mt 6228 3205 L
 899 3205 mt  952 3205 L
6255 3205 mt 6201 3205 L
%%IncludeResource: font Helvetica
/Helvetica /WindowsLatin1Encoding 120 FMSR

 640 3249 mt 
(10) s
%%IncludeResource: font Helvetica
/Helvetica /WindowsLatin1Encoding 80 FMSR

 773 3175 mt 
(-1) s
 899 2781 mt  925 2781 L
6255 2781 mt 6228 2781 L
 899 2533 mt  925 2533 L
6255 2533 mt 6228 2533 L
 899 2357 mt  925 2357 L
6255 2357 mt 6228 2357 L
 899 2221 mt  925 2221 L
6255 2221 mt 6228 2221 L
 899 2109 mt  925 2109 L
6255 2109 mt 6228 2109 L
 899 2015 mt  925 2015 L
6255 2015 mt 6228 2015 L
 899 1933 mt  925 1933 L
6255 1933 mt 6228 1933 L
 899 1861 mt  925 1861 L
6255 1861 mt 6228 1861 L
 899 1797 mt  925 1797 L
6255 1797 mt 6228 1797 L
 899 1797 mt  952 1797 L
6255 1797 mt 6201 1797 L
%%IncludeResource: font Helvetica
/Helvetica /WindowsLatin1Encoding 120 FMSR

 640 1841 mt 
(10) s
%%IncludeResource: font Helvetica
/Helvetica /WindowsLatin1Encoding 80 FMSR

 773 1767 mt 
(0) s
 899 1373 mt  925 1373 L
6255 1373 mt 6228 1373 L
 899 1125 mt  925 1125 L
6255 1125 mt 6228 1125 L
 899  949 mt  925  949 L
6255  949 mt 6228  949 L
 899  812 mt  925  812 L
6255  812 mt 6228  812 L
 899  701 mt  925  701 L
6255  701 mt 6228  701 L
 899  607 mt  925  607 L
6255  607 mt 6228  607 L
 899  525 mt  925  525 L
6255  525 mt 6228  525 L
 899  453 mt  925  453 L
6255  453 mt 6228  453 L
 899  389 mt  925  389 L
6255  389 mt 6228  389 L
 899  389 mt  952  389 L
6255  389 mt 6201  389 L
%%IncludeResource: font Helvetica
/Helvetica /WindowsLatin1Encoding 120 FMSR

 640  433 mt 
(10) s
%%IncludeResource: font Helvetica
/Helvetica /WindowsLatin1Encoding 80 FMSR

 773  359 mt 
(1) s
 899  389 mt 6255  389 L
 899 4614 mt 6255 4614 L
6255 4614 mt 6255  389 L
 899 4614 mt  899  389 L
gs 899 389 5357 4226 MR c np
/c8 { 0.000000 0.000000 1.000000 sr} bdef
c8
7 316 5 -78 1 425 2 80 0 78 5 62 0 -50 -5 144 
5 56 -2 22 1 47 -1 44 -1 37 2 42 -2 38 -9 40 
7 22 -20 24 14 36 -1 36 -10 39 -11 17 4 16 -13 5 
-11 -4 -3 -9 -7 -11 -5 -28 -6 -28 -8 -36 -7 -43 -9 -67 
-8 -67 -10 -43 -8 18 -11 -66 -8 10 -14 9 -5 10 -9 22 
-16 12 -10 37 -10 -23 -11 42 -18 62 -16 15 -13 31 -12 11 
-13 -1 -9 22 -23 6 -16 5 -12 4 -15 5 -13 9 -23 9 
-14 10 -14 18 -14 15 -18 16 -16 12 -18 12 -13 4 -17 7 
-13 2 -25 -1 -18 -12 -5 -4 -17 -12 -12 -12 -20 -19 -18 -18 
-13 -25 -14 -13 -12 -11 -16 -14 -19 -7 -17 -4 -13 -3 -14 -8 
-16 4 -13 -14 -21 -25 -13 -27 -12 15 -14 -21 -15 -30 -15 -30 
-15 -20 -14 -17 -14 -9 -23 -25 -6 -11 -10 -25 -22 27 -17 27 
-3 42 -14 33 -13 35 2741 1581 100 MP stroke
-18 33 -10 41 -13 34 -12 35 -14 33 -14 36 -14 31 -10 27 
-16 17 -10 15 -21 8 -15 3 0 -3 -17 -12 -7 -21 -24 -20 
-8 -30 -14 -30 -10 -38 -17 -38 -13 -43 -16 -40 -10 -43 -12 -35 
-8 -37 -22 -32 -12 -31 -16 -29 -12 -27 -4 -27 -17 -26 -10 -25 
-13 -26 -10 -24 -17 -22 -8 -24 -21 -25 -2 -22 -17 -22 -13 -20 
-22 -22 -4 -11 -22 -14 -6 -14 -9 -9 -13 -11 -15 -12 -17 -12 
-3 -14 -17 -18 -7 -17 -15 -20 -8 -21 -17 -21 -13 -19 -9 -17 
-14 -15 0 -12 -14 -7 -20 -3 -4 2 -2 0 -24 18 -7 18 
-5 21 -16 21 -23 29 2 27 -7 28 -10 28 -8 25 -8 24 
-13 21 -10 18 6 15 -14 12 -5 9 -5 6 -2 3 -21 0 
-6 -2 1 -4 1 -7 -3 -8 -7 -11 -4 -11 -8 -14 4 -13 
-11 -15 1 -15 -1 -16 -5 -15 -6 -14 3 -13 -5 -10 0 -9 
-1 -5 0 -4 -1 3 3727 2187 100 MP stroke
4 10 1 12 0 66 -1 31 1 32 0 34 1 34 0 34 
4 33 3 33 6 30 0 54 3 25 1 22 2 20 4 19 
4 17 0 29 1 13 2 11 3 11 0 19 -1 9 0 17 
12 8 0 8 1 7 -1 7 3 6 -1 5 1 5 0 7 
-2 2 2 1 -2 0 3 0 -1 0 -4 0 3 1 4 2 
3 3 0 11 -1 8 1 9 2 12 2 12 0 13 1 13 
0 14 3 13 -1 12 2 10 -4 9 11 7 -2 6 -2 4 
3 2 1 1 0 -4 -1 -3 1 -4 1 -4 0 -7 -1 -4 
2 -4 2 -3 0 -7 2 -3 -1 -3 5 -2 2 -4 0 -7 
1 -5 2 -5 4 -7 1 -7 -4 -8 9 -10 4 -9 -4 -9 
4 -10 -4 -9 8 -6 6 -5 -1 -3 0 -1 2 1 9 4 
3 4 -2 6 8 6 5 7 0 11 1 10 -3 12 9 13 
4 15 -2 15 2 19 3578 1384 100 MP stroke
7 18 0 16 6 20 0 17 3 16 1 15 -1 12 4 10 
4 7 4 4 -4 2 5 -2 10 -5 -3 -9 3 -11 1 -14 
7 -17 0 -20 3 -22 3 -23 6 -25 0 -25 5 -24 6 -24 
3 -22 -1 -20 6 -13 8 -12 -2 -8 7 -3 8 -2 2 3 
-1 4 3 5 8 7 4 7 2 8 1 7 10 9 3 8 
2 9 4 9 1 10 5 10 6 11 3 11 2 11 7 11 
-1 11 5 10 3 9 1 9 8 8 3 6 3 6 4 4 
8 2 -2 2 4 -1 3 -2 0 -3 3 -5 1 -6 0 -16 
12 -8 4 -9 0 -9 1 -9 1 -9 3 -8 -1 -8 6 -6 
4 -5 3 -3 0 -1 3 1 3 4 -1 6 5 8 2 9 
7 10 2 11 8 12 0 21 2 10 4 8 1 8 14 5 
2 6 3 5 2 4 1 3 -2 3 7 4 5 4 3 4 
5 4 2 5 3 6 3260 1288 100 MP stroke
3 5 3 5 6 5 3 4 -3 3 9 2 2 1 14 1 
12 -1 -4 -1 2 -2 -2 -2 3 -2 4 -1 5 -2 -1 -1 
4 -1 5 0 7 0 3 0 10 -1 -2 -1 8 -1 2 -2 
4 -3 9 -3 3 -4 7 -5 2 -4 6 -5 3 -4 6 -3 
9 -3 1 -1 8 -1 3 1 11 2 3 3 5 4 6 5 
8 4 6 4 7 5 4 5 6 5 7 6 15 6 1 6 
9 7 5 10 12 8 8 9 3 5 9 6 8 7 11 3 
14 1 6 -4 9 -12 11 -4 11 -17 11 -24 9 -15 13 -15 
9 -21 12 -25 12 -20 11 -25 12 -16 12 -6 12 -12 12 -20 
10 -3 11 0 13 -7 13 -10 11 -9 11 -1 13 -2 10 -15 
12 8 14 -2 13 -1 11 7 9 -1 10 21 14 14 9 20 
18 23 8 19 5 26 12 20 8 17 12 14 8 8 12 2 
7 -2 12 -3 8 -10 2492 1307 100 MP stroke
10 -5 5 -16 4 -18 14 -16 13 -17 8 -22 9 -22 5 -27 
3 -31 16 -17 9 -24 9 -16 7 -7 9 12 6 28 7 38 
8 41 9 55 9 46 9 41 5 31 6 22 6 12 6 12 
6 -2 5 -16 7 -2 6 -21 5 -17 4 -25 3 -27 4 -25 
2 -27 3 -27 6 -25 4 -25 2 -20 2 -17 1 -13 4 -12 
1 -4 1 8 2 5 3 4 4 4 1 -4 1 11 1 -4 
1 -1 2 -2 2 1 3 -3 2 -7 1 -8 1 -9 2 30 
2 8 4 19 2 17 2 12 1 14 3 15 2 7 2 1 
5 -1 4 -8 3 -21 3 -35 3 -20 3 -34 6 -39 5 -36 
4 -39 6 -45 3 -70 5 17 3 -20 7 -25 3 -10 2 -9 
6 -12 3 -19 5 1 5 -8 3 1 4 -2 4 2 1 11 
4 -1 3 6 2 5 -1 3 2 2 0 -2 1 1 -1 6 
-2 -9 0 7 -2 3 2088 1794 100 MP stroke
-3 -10 -3 14 -3 -8 -4 11 -4 -1 -5 1 -4 -3 -6 -10 
-11 -12 -2 -20 -4 -30 -7 -35 -4 -57 -8 -48 -7 -89 -11 -63 
-11 -124 -16 -13 -14 -96 -11 6 -3 -101 -12 -59 -9 83 -11 -147 
-9 -230 0 -166 -11 294 -15 -58 -10 -75 -12 -25 -10 75 -8 13 
-10 128 -15 60 -29 34 5 20 -6 13 -8 1 -13 -19 -10 -24 
-12 -22 -7 -27 -20 -35 -18 -63 5 -43 -10 -15 -12 -42 -18 -77 
-6 -37 -16 -37 -1 -52 -11 -111 -9 -78 -14 32 -10 -18 -18 -19 
-1 93 -12 61 -7 76 -12 16 -4 117 -18 52 -2 46 -9 50 
-8 33 -9 37 -7 21 -11 32 -6 35 -7 23 -9 33 -7 27 
-10 29 -6 27 -3 28 -8 27 -3 26 -9 24 -13 20 -1 34 
-7 26 -4 26 -5 24 -5 24 -4 23 -6 23 0 13 -4 32 
-7 22 -5 20 -4 22 -2 21 -3 20 -2 20 -4 20 -2 21 
-2 20 -4 20 -2 18 2853 1826 100 MP stroke
-3 19 0 18 -1 17 -1 16 0 14 -3 13 -1 10 0 15 
-1 6 -4 4 1 1 1 2 4 -1 0 -1 1 -2 3 -4 
-1 -3 2 -4 1 -4 2 -5 1 -5 -8 -5 4 -3 5 -4 
0 -6 2 -8 2 -9 2 -11 5 -14 1 -17 4 -20 -1 -22 
1 -26 5 -29 2 -33 -2 -31 2 -30 7 -34 3 -19 2 -17 
4 -7 -2 14 2 14 -2 26 3 -18 -6 38 0 52 13 25 
-3 17 7 11 0 8 -8 3 -2 -1 -1 -9 -1 -13 1 -18 
-1 -23 1 -20 -4 -23 7 -11 9 -25 -5 3 4 6 -1 9 
-3 6 1 5 0 1 -3 2 -8 -3 -6 -8 2 -10 -4 -13 
-5 -15 -1 -17 -5 -16 -5 -16 1 -14 -6 -13 -2 -10 -7 -8 
0 -7 -8 1 -5 -1 -1 4 -3 4 -3 3 -3 5 -3 4 
-3 3 -3 0 -2 -3 -3 -3 -2 -8 -3 -14 1 -12 0 -18 
-5 -21 0 -17 -4 -19 2902 2228 100 MP stroke
0 -13 2 -10 -4 -4 5 4 0 4 -2 21 0 36 -1 1 
0 -3 -1 -6 -2 -1 2 3 -1 13 -1 10 1 24 -2 22 
0 68 -1 -2 -2 59 1 23 -1 8 0 -4 -3 -16 0 -112 
-1 -38 -1 -20 0 65 -2 53 -1 57 -2 96 -2 77 0 119 
-4 52 -1 37 -2 26 0 20 -3 8 -3 1 -1 -5 -1 -32 
-2 -63 -3 -39 -2 14 -2 -60 -1 -57 -2 -37 -3 11 -3 -24 
1 8 -3 5 -6 16 -3 18 -1 23 -1 22 -6 25 -3 12 
-1 9 -4 61 -4 17 -3 24 -5 27 -1 23 -6 19 -3 17 
-7 21 -4 16 -2 24 -7 23 -8 27 -4 28 -5 27 -7 26 
-9 22 -9 22 -6 17 -8 20 -10 7 -7 -4 -9 -8 -10 -17 
-10 -31 -9 -46 -9 -55 -10 -73 -12 -88 3165 1558 86 MP stroke
16 -66 14 299 13 118 33 88 5 72 12 50 17 -44 10 85 
16 7 20 14 8 -43 16 -16 12 -41 12 -143 22 -110 8 111 
16 -244 8 178 12 -136 11 216 16 30 20 112 1 79 18 116 
11 106 17 101 11 79 17 88 12 66 19 51 21 53 12 39 
16 29 15 18 13 6 17 -5 16 -7 15 -8 13 -21 14 -21 
15 -29 17 -23 13 -17 13 -17 15 -10 15 -4 16 1 14 9 
14 9 13 3 14 6 17 -5 16 -17 10 -7 15 -30 10 -33 
13 -47 14 -58 3 -71 14 -77 14 -66 11 -112 13 -95 12 -76 
14 -142 9 -21 20 -74 11 -80 4 -64 14 142 10 10 12 34 
9 30 11 4 10 -18 11 -75 10 -15 9 -4 10 25 10 111 
10 151 7 69 16 93 14 58 5 65 11 37 5 3 15 -15 
7 -26 4 -48 7 -61 4 -61 7 -65 5 -47 9 -52 7 29 
8 32 6 -1 7 18 1768 1962 100 MP stroke
5 -23 5 -42 6 -33 3 -74 8 -126 5 -338 6 -201 1730 2799 8 MP stroke
10 -1 20 -157 3025 2715 3 MP stroke
-1 288 -3 111 -3 90 2 82 -2 58 -7 60 -6 39 -5 22 
-3 12 -5 -2 1 -16 -3 -20 -7 -21 -9 -34 -4 -40 -14 -38 
-4 -48 -4 -19 -3 -20 -8 -5 -4 15 -11 -7 -8 40 -2 57 
-15 21 -4 48 -5 34 -11 38 -8 30 -7 26 -10 14 -10 25 
-7 22 -9 11 -10 6 -14 -2 -6 -3 -8 -6 -8 -15 -7 -18 
-8 -31 -16 -23 -11 -23 -11 -27 -5 -25 -20 -30 -2 -17 -13 -14 
-9 12 -14 24 -19 22 -9 27 -12 28 -8 22 -11 15 -10 6 
-15 9 -9 -4 -19 -14 -9 -23 -17 -31 -10 -33 -14 -69 -14 -29 
-14 0 -11 -64 -19 5 -14 -6 -14 4 -15 4 -18 0 -14 30 
-15 14 -17 42 -16 54 -15 39 -16 38 -15 33 -20 25 -16 20 
-19 20 -16 12 -17 0 -14 -2 -17 -15 -14 -16 -26 -20 -17 -28 
-22 -27 -13 -32 -22 -35 -13 -34 -21 -26 -25 -27 -25 -14 -15 -16 
-7 29 -23 32 -17 42 5071 1439 100 MP stroke
-19 58 -16 66 -19 60 -17 54 -19 56 -15 40 -16 32 -20 23 
-16 14 -15 4 -16 -5 -18 -14 -15 -24 -16 -28 -14 -39 -16 -44 
-13 -52 -16 -54 -17 -59 -14 -60 -14 -50 -15 -38 -14 -24 -16 -10 
-12 13 -17 9 -12 31 -22 22 -4 16 -12 9 -13 1 -13 -5 
-11 6 -13 -14 -7 -18 -11 1 -8 -2 -15 -11 -11 4 -9 -3 
-14 0 -8 17 -11 19 -13 13 1 30 -17 27 -14 27 2 26 
-18 26 -6 24 -16 21 0 17 -10 14 -7 9 -4 6 -10 2 
-6 -2 -3 -5 -14 -7 -6 -10 -8 -12 -8 -13 -8 -13 -3 -12 
-9 -12 -3 -10 -9 -9 -7 -6 -4 -4 -5 -1 -2 1 -6 2 
0 5 -8 5 -1 6 -4 6 -1 6 -6 6 -4 5 1 5 
-2 4 -1 3 -1 3 -1 3 0 2 -1 2 7 2 0 2 
-1 3 1 3 -2 4 -1 4 2 5 -1 5 18 6 2 7 
-1 6 2 7 4 7 5892 1187 100 MP stroke
0 6 14 6 9 5 -2 5 5 4 2 2 6 3 7 2 
16 0 4 1 2 0 9 0 22 -1 -6 -1 13 -2 9 -2 
1 -2 27 -2 2 -3 -1 -3 6 -4 21 -4 10 -5 11 -5 
8 -5 14 -7 21 -7 11 -6 2 -8 24 -7 11 -8 1 -7 
28 -8 9 -6 15 -7 11 -6 7 -6 20 -4 17 -5 24 -5 
4 -5 15 -5 10 -5 41 -5 18 -7 -5 -6 14 -8 12 -9 
47 -10 -6 -10 9 -12 12 -12 33 -13 8 -13 10 -13 17 -13 
15 -12 11 -11 20 -10 22 -9 13 -6 21 -4 8 -1 21 1 
4 4 19 5 23 8 6 8 8 9 17 9 16 8 20 6 
17 5 14 2 2 1 21 -3 11 -4 22 -7 11 -8 22 -8 
11 -8 7 -8 14 -5 16 -3 18 0 14 5 19 7 2 10 
15 12 10 13 12 15 22 15 22 12 1 10 17 7 9 3 
15 -2 7 -6 17 -11 4631 1386 100 MP stroke
20 -12 15 -16 17 -20 3 -19 15 -22 10 -14 13 -8 14 -8 
21 -5 11 4 16 10 12 13 14 13 12 17 26 17 2 15 
19 12 14 2 12 33 9 14 14 8 13 8 12 3 27 12 
9 -3 12 -4 11 -9 13 -11 14 -19 12 -19 24 -21 9 -21 
16 -33 12 -16 13 -25 18 -32 18 -17 14 -23 17 -37 11 -71 
18 -20 15 8 17 -68 20 -8 15 -39 16 -37 25 -120 -7 -20 
41 49 12 -12 7 28 16 74 18 34 9 58 35 58 26 56 
-2 99 23 70 11 56 20 62 18 55 20 46 18 39 20 28 
14 16 17 12 20 3 19 1 19 -5 22 -12 14 -18 20 -14 
17 -13 22 -12 23 -5 14 1 17 1 16 16 17 21 19 16 
31 19 1 15 26 11 20 8 1 -1 22 -1 13 -9 21 -14 
23 -17 4 -21 12 -18 11 -23 17 -32 11 -19 14 -20 13 -30 
14 -29 13 -37 12 -29 3087 1433 100 MP stroke
8 -38 13 -40 14 -14 12 -21 9 -14 11 -14 10 -16 7 -43 
15 -57 7 75 19 -7 3 -4 8 41 4 46 11 40 7 40 
5 39 12 45 2 38 5 37 8 30 5 28 8 22 3 18 
10 12 0 10 4 6 4 2 5 -5 4 -4 2 -13 4 -13 
6 -16 5 -22 -1 -23 8 -25 -2 -33 1 -26 2 -26 0 -26 
2 -24 1 -23 -1 -24 2 5 -3 4 -2 5 1 13 -4 -7 
3 22 -6 4 -6 34 1 49 -5 31 0 33 -5 30 -3 45 
-7 34 -4 30 -5 24 -7 24 -7 15 -7 11 -5 6 -8 4 
-10 0 -6 -5 -8 -7 -7 -8 -7 -13 -12 -11 -8 -13 -10 -14 
-7 -18 -13 -15 -12 -19 -7 -20 -13 -25 -10 -18 -15 -14 -11 -15 
-13 -12 -12 -8 -13 1 -13 9 -15 12 -12 19 -14 22 -15 24 
-13 24 -15 21 -16 29 -14 19 -16 19 -14 15 -19 7 -16 9 
-19 3 -11 -6 -25 -6 3345 1073 100 MP stroke
-12 -11 -19 -16 -16 -25 -18 -28 -19 -37 -20 -45 -13 -46 -23 -56 
-29 -66 -4 -72 -22 -56 -15 -63 -20 -99 -19 -65 -20 -62 -17 33 
-20 27 -22 14 -19 -2 -17 1 -15 -49 -25 -58 -18 -3 -20 131 
-16 -19 -23 -48 -22 19 -14 -84 -21 29 -14 81 -35 19 -20 -5 
-4 45 -22 41 -14 58 -21 39 -22 48 -15 46 -18 46 -20 44 
-19 41 -20 39 -16 31 -17 24 -16 14 -20 16 -19 1 -17 -1 
-17 -13 -14 -17 -18 -25 -17 -18 -22 -28 -21 -33 -2 -23 -22 -18 
-12 -15 -20 -1 -15 5 -16 11 -12 24 -16 27 -23 29 -9 31 
-11 31 -19 28 -7 27 -23 24 -16 19 -12 17 -9 13 -15 10 
-13 7 -3 4 -17 4 -15 2 -11 1 -8 0 -11 0 -12 -1 
-15 0 -9 0 -7 -1 -13 1 -14 1 -6 2 -16 1 -2 2 
-7 2 -12 2 -9 2 -8 1 -8 1 -7 1 -15 0 -4 0 
-10 -1 -2 -1 -6 -2 4860 1069 100 MP stroke
-11 -2 -8 -3 4 -3 -8 -2 -1 -3 -10 -3 -6 -2 -2 -3 
-5 -2 -4 -1 -4 -1 -4 -1 -4 -1 -1 0 -2 0 -3 1 
-5 0 -1 1 0 1 -5 1 -2 2 -3 2 -2 2 -1 2 
-2 3 0 3 -1 3 0 7 1 4 0 3 2 5 1 4 
0 5 -4 5 3 6 -1 5 10 8 9 7 -1 8 8 8 
4 9 0 9 5 9 1 9 4 9 2 9 0 9 6 8 
3 8 6 7 3 7 5 7 3 7 6 6 6 6 1 5 
1 4 4 4 1 3 5 3 1 1 17 1 0 1 5 0 
5 -1 0 -1 4 -1 4 -2 2 -2 7 -2 9 -2 -1 -1 
6 -2 4 -2 10 -1 1 -2 1 0 3 -1 5 0 10 0 
-4 0 6 1 1 1 3 1 3 1 14 2 9 1 -2 2 
4 2 1 1 8 2 15 2 0 3 1 2 -1 3 4 3 
4 3 11 2 1 3 4686 844 100 MP stroke
8 3 -2 2 7 2 -1 1 9 1 2 0 5 0 7 -1 
2 -1 8 -1 -9 -2 10 -1 0 -2 3 -1 -6 -3 8 -1 
11 -2 1 -2 2 -1 0 -2 2 -1 15 -1 3 0 2 -1 
1 1 4 0 11 1 7 0 0 2 2 1 4 2 10 1 
8 2 0 2 2 2 6 1 11 2 3 1 4 1 3 1 
13 1 2 0 4 0 7 -1 10 -1 8 -1 0 -2 7 -2 
7 -2 14 -2 1 -2 2 -2 6 -2 13 -1 8 -1 2 -1 
1 0 5 0 21 -1 4 0 2 1 -3 1 13 0 10 1 
5 1 8 1 -2 0 11 2 13 1 7 1 8 2 4 2 
8 2 6 3 8 3 10 3 14 3 11 2 5 3 6 2 
9 2 8 1 13 0 12 -1 10 -2 9 -3 7 -4 7 -5 
7 -6 23 -7 7 -8 4 -9 10 -9 6 -10 21 -11 6 -10 
13 -11 9 -10 3 -10 4060 937 100 MP stroke
12 -10 14 -8 9 -8 10 -7 9 -6 11 -6 12 -4 12 -3 
12 -4 9 -2 5 -2 10 -2 6 -2 31 -2 15 -2 -5 -3 
13 -3 17 -4 1 -3 20 -5 17 -4 9 -3 11 -4 12 -2 
25 -3 1 -1 15 -1 12 0 16 1 12 2 15 2 22 1 
18 2 9 1 19 -1 7 0 36 -1 12 -6 22 -8 8 -13 
15 -19 19 -26 16 -24 22 -33 17 -48 17 -40 16 -56 23 -63 
18 -73 16 -78 17 -88 18 -96 16 -102 22 -111 19 -119 19 -183 
16 -87 15 -278 21 -548 21 463 16 -212 18 147 18 125 19 -44 
16 -233 3089 2887 66 MP stroke
-5 -490 3935 3003 2 MP stroke
-15 406 -16 260 -15 150 -18 127 -29 97 -13 70 -16 61 -17 40 
-15 30 -12 22 -19 16 -23 5 -19 3 -16 -3 -16 -4 -16 -2 
-14 0 -25 -2 -14 -1 -16 11 -15 8 -14 12 -29 16 -9 15 
-11 17 -16 17 -19 18 -20 16 -13 15 -15 14 -13 12 -14 12 
-13 9 -17 9 -15 7 -14 6 -15 6 -13 4 -19 4 -20 4 
-6 4 -19 3 0 3 -18 3 -6 3 -18 3 -10 2 -15 3 
-15 3 3 3 -13 3 -20 3 -10 4 -19 4 0 4 -2 5 
-12 6 -7 5 -5 6 -6 6 -4 6 -15 6 5 5 -9 5 
-2 5 -9 4 1 3 -9 2 -2 2 0 1 -4 0 -5 0 
-2 -1 -3 -1 -5 -2 -5 -2 -2 -1 -7 -2 2 -2 -3 -1 
-3 -2 -4 -2 -1 -1 6 -2 0 -2 -4 -3 -3 -2 -3 -3 
-5 -3 -2 -4 -3 -3 -6 -3 -2 -2 8 -2 -6 -2 -3 -1 
-2 0 -13 0 1 2 3808 1008 100 MP stroke
-2 2 -6 2 -1 3 4 4 -19 4 -2 4 0 7 -9 4 
-6 3 0 2 -3 1 -6 0 -1 -1 -4 -2 -6 -3 -5 -5 
-2 -5 -2 -7 -3 -8 -11 -9 -4 -10 7 -10 -8 -11 -5 -11 
-8 -11 4 -11 -13 -11 -1 -10 -4 -9 -8 -10 -2 -8 -4 -8 
-9 -8 -2 -6 -5 -7 -2 -3 -4 -2 -7 -5 -6 1 -3 0 
-3 4 -10 5 -5 2 -7 10 0 8 -8 9 -9 10 3 9 
-4 11 -9 9 -11 9 -14 9 4 7 -5 5 -10 4 -8 2 
3 0 -9 -2 -9 -5 -11 -6 -3 -9 -7 -11 -3 -12 -11 -14 
-6 -15 -6 -15 -4 -16 -5 -16 -6 -17 -7 -16 -7 -15 -7 -16 
2 -14 -8 -15 -4 -13 -5 -15 2 -14 -5 -15 -3 -16 -10 -18 
3 -20 -3 -20 0 -20 -8 -30 2 -25 0 -31 -1 -23 -2 -31 
5 -27 -4 -28 -1 -22 -4 -18 11 -10 -3 7 3 0 2 32 
1 34 7 54 4 38 4189 1494 100 MP stroke
0 39 5 37 1 30 9 24 5 17 7 10 6 4 3 -2 
8 -7 5 -10 1 -14 7 -14 7 -16 6 -14 8 -15 8 -12 
8 -11 6 -10 9 -8 9 -7 9 -6 7 -7 9 -7 7 -8 
13 -10 13 -11 7 -12 12 -14 1 -15 14 -14 12 -13 6 -13 
7 -10 17 -7 6 -6 4 -1 7 0 18 10 9 8 9 11 
7 10 10 13 4 15 17 11 9 15 9 17 12 21 9 20 
6 15 14 30 14 26 5 15 12 24 16 24 3 23 7 13 
12 14 15 7 8 4 9 -1 6 -6 13 -10 7 -15 15 -17 
10 -21 11 -24 8 -23 13 -24 14 -22 5 -21 8 -14 16 -9 
16 -10 9 -1 11 4 10 3 10 6 12 3 7 25 22 20 
8 20 6 17 23 22 -1 11 18 10 11 3 3 2 22 -7 
4 -14 9 -23 9 -27 12 -23 19 -28 3 -29 23 -21 5 -13 
9 -11 10 4 9 13 3261 1532 100 MP stroke
10 2 11 26 8 29 12 32 8 22 13 16 12 13 9 7 
13 7 9 -12 10 0 8 -14 8 -13 9 -19 12 -27 9 -26 
10 -12 10 -18 10 -7 7 -14 10 14 9 5 9 20 9 24 
13 24 8 27 12 24 9 29 12 22 11 22 1 28 11 15 
7 23 10 18 8 20 8 17 12 14 8 12 6 14 9 12 
8 11 7 8 8 8 9 0 6 6 8 0 9 -5 6 -13 
8 -11 8 -26 8 -23 6 -19 8 -28 7 -40 7 -30 7 -29 
8 -29 4 -23 7 -22 7 -7 8 1 8 -7 8 32 7 20 
6 22 5 23 9 21 6 23 5 17 8 18 7 15 7 11 
6 10 5 10 6 6 5 2 7 12 5 5 4 8 7 5 
5 6 5 8 4 5 4 4 3 3 5 -4 4 4 5 -2 
5 -4 3 -4 2 -8 3 -8 3 -12 3 -17 2 -17 3 -24 
3 -22 3 -28 1 -34 2540 1328 100 MP stroke
1 -58 1 -30 1 -36 0 -54 2 -45 2 -45 -2 -42 -1 -50 
-1 -55 -2 -44 -2 -50 -1 -31 -1 -40 -1 -20 -3 -6 -2 -7 
-5 0 -6 -29 -1 43 -5 -2 -3 8 -4 21 -5 2 -5 -24 
-4 20 -5 7 -6 -13 -5 0 -5 -25 -8 17 -6 -10 -6 11 
-8 40 -8 30 -8 36 -7 41 -6 0 -18 62 -9 44 -7 25 
-9 12 -9 -10 -9 -16 -9 1 -9 -44 -15 -34 -2 -59 -9 -69 
-9 -101 -8 -111 -15 11 -6 -113 -7 5 -14 -19 -12 85 -3 48 
-10 21 -8 77 -10 50 -9 15 -10 75 -8 46 -6 17 -5 60 
-14 22 -7 -15 -2 55 -13 11 -6 5 -12 -8 -5 -22 -5 -28 
-8 -56 -9 -38 -7 -73 -12 -6 -18 -15 3 -23 -6 -24 -12 18 
-3 4 -7 5 -9 18 -3 7 -20 5 -13 3 3 -4 -5 -17 
-6 38 -8 20 -4 19 -11 21 -8 13 -14 31 -6 11 -3 9 
-10 26 -6 0 -5 -1 3181 1679 100 MP stroke
-8 5 -9 -8 -12 -24 -10 7 -6 -19 -9 25 -7 7 -9 6 
-9 28 -9 13 -13 39 -7 31 -11 27 -8 26 -11 27 -12 15 
-9 13 -13 -2 -10 -25 -9 17 -10 -29 -14 -10 -16 -27 2 -28 
-19 -32 -7 -21 -15 -2 -5 5 -18 13 -17 15 -3 22 -11 19 
-21 15 -8 12 -7 9 -16 4 -16 3 1 0 -29 -2 -13 -3 
4 -4 -21 -4 -2 -5 -8 -5 -13 -5 -16 -9 -5 -4 -10 -9 
-18 -11 -1 -12 -14 -13 -11 -14 -6 -16 -10 -17 -1 -17 -14 -16 
-7 -17 -8 -16 -13 -14 -20 -13 7 -12 -9 -10 -9 -9 -7 -7 
-4 -8 -7 -6 -4 -8 -7 -6 -10 -12 -5 -4 -5 -10 -5 -11 
-6 -13 -1 -14 -3 -16 -5 -14 -4 -17 -1 -17 -7 -18 -2 -17 
1 -19 -1 -23 0 -53 1 -34 -1 -38 2 -47 0 -52 -4 -80 
4 -64 2 -88 5 -83 4 -101 4 -94 7 -115 6 -150 -1 223 
2 54 6 105 1 66 3864 2551 100 MP stroke
10 61 9 50 2 45 3 43 4 36 4 30 5 30 4 25 
9 29 4 26 4 25 3 24 5 23 5 22 7 21 8 17 
14 8 -5 22 4 8 7 13 0 5 14 9 1 3 10 0 
7 -6 0 4 5 -5 6 -5 3 -6 2 -8 6 -7 6 -7 
6 -6 3 -4 7 -3 4 2 8 2 5 8 1 2 6 16 
2 9 5 12 6 8 5 2 3 -2 3 -9 1 -19 4 -29 
3 -41 1 -57 3 -79 2 -88 4 -156 2 -97 -2 -353 5 162 
3 25 5 92 0 89 -1 78 2 49 0 47 1 26 2 18 
-1 9 -1 12 -1 3 3 62 -2 6 -4 72 4 27 -1 46 
0 35 -9 31 2 26 -1 22 -2 20 -2 16 4 20 -3 16 
-2 25 1 28 -1 30 1 31 -4 34 7 31 -5 32 -1 28 
2 23 -1 17 -3 4 -3 5 2 6 -2 -6 1 -20 -4 -33 
-1 6 -2 -22 -1 -27 3629 1697 100 MP stroke
-3 -31 1 -10 -4 -14 -1 -32 -2 -13 0 -12 -1 -24 1 -24 
-8 -39 -3 -47 4 -41 0 -63 -9 -8 8 -55 -4 2 1 32 
-3 33 -6 56 1 64 -1 66 -3 75 -2 71 -2 77 -1 66 
-3 58 -3 77 -1 69 -1 61 -1 56 0 51 -2 42 -2 40 
-3 27 -1 34 -1 23 -1 16 -3 12 -3 9 -2 7 0 5 
-3 2 1 1 -2 0 -3 -2 0 -4 -1 -3 -10 -7 4 -7 
-1 -9 1 -10 -2 -12 -4 -13 2 -10 0 -24 -6 -10 -1 -9 
4 -9 -7 -10 -5 -6 3 -9 2 2 -1 8 -9 3 0 9 
-1 14 -1 11 0 14 -4 11 -4 9 -1 8 -3 4 -2 1 
-3 1 -3 5 0 2 -3 4 -3 5 -6 8 2 18 -4 16 
8 23 -5 24 -5 28 -6 26 -3 25 -4 23 -11 22 -4 18 
-12 14 7 11 -9 6 -6 2 -7 -2 -1 -5 -11 -10 -4 -12 
-5 -14 -4 -16 -9 -19 3858 835 100 MP stroke
-6 -20 -5 -22 -3 -18 -8 -20 -9 -20 -1 -18 -5 -18 -16 -17 
0 -16 -4 -13 -10 -13 -11 -12 1 -10 -10 -10 -4 -7 -9 -7 
-5 -5 -9 -7 -5 -6 -9 -5 -5 -7 -9 -8 -4 -9 -11 -8 
-2 -9 -13 -14 -8 -8 -4 -11 -8 -12 -3 -10 -16 -11 -8 -11 
1 -12 -9 -12 -8 -13 -7 -13 -4 -14 -8 -15 -8 -15 -9 -14 
-2 -14 -7 -13 -9 -11 -8 -11 -8 -10 -5 -7 -7 -7 -10 -7 
-5 -5 -7 -4 -8 -4 -8 -2 -6 -1 -8 -1 -4 1 -4 0 
-7 2 -6 1 -13 5 -9 2 -8 3 -6 3 -9 4 -11 4 
-8 5 -7 7 -8 6 -8 7 -8 7 -10 8 -8 8 -8 8 
-8 8 -9 8 -10 7 -5 7 -9 7 -8 6 -11 4 -7 3 
-5 0 -11 1 -11 -2 -7 -5 -14 -6 -3 -8 -9 -9 -10 -12 
-7 -12 -4 -13 -14 -12 -14 -13 -4 -11 -9 -10 -6 -6 -10 -5 
-8 -1 -11 2 -6 5 4599 1408 100 MP stroke
-10 7 -8 9 -9 9 -10 10 -8 9 -10 9 -10 7 0 5 
-6 2 -11 -1 -11 -3 -8 -5 -9 -7 -4 -8 -9 -10 -8 -11 
-11 -10 -10 -10 -6 -9 -11 -8 -10 -5 0 -4 -11 -2 -6 1 
-7 3 -6 4 -9 6 -5 7 -7 8 -3 8 -10 9 -7 7 
-7 6 -4 4 -5 3 -3 0 -7 -2 -4 -6 -10 -6 -6 -9 
-10 -11 -4 -12 -12 -13 -7 -15 -2 -12 -5 -10 -5 -10 -5 -10 
-6 -7 -5 -8 -9 -6 -8 -6 -3 -6 -5 -7 -6 -7 -2 -9 
-9 -10 2 -12 -2 -12 -5 -14 -2 -13 -2 -13 -5 -12 -3 -10 
-4 -5 -2 -1 0 4 2 11 0 13 -2 17 0 18 1 18 
0 16 2 13 0 10 2 7 2 3 2 -1 2 -3 3 -8 
2 -9 3 -10 -1 -9 2 -11 2 -9 4 -7 3 -5 3 -4 
4 0 6 1 3 3 4 4 4 4 4 3 0 5 2 6 
7 2 1 1 11 0 4943 1559 100 MP stroke
0 -2 2 -4 5 -5 4 -6 4 -8 2 -7 6 -6 5 -6 
8 -8 3 1 11 1 6 6 -2 6 5 9 5 10 4 11 
4 12 4 13 8 12 3 12 5 12 7 11 6 10 2 9 
7 8 6 7 5 8 3 7 5 7 4 8 7 8 4 8 
3 9 5 11 12 11 6 13 8 16 12 16 -4 18 5 18 
5 19 9 21 6 17 9 17 0 14 7 9 6 -2 12 -2 
2 -9 10 -15 1 -25 3 -33 11 -39 3 -48 7 -52 8 -43 
7 -47 8 -28 7 -37 9 -17 10 3 6 -7 1 -7 15 7 
1 -1 6 -6 4 79 6 52 12 70 11 68 1 64 10 46 
4 63 11 38 3 27 13 12 3 0 6 2 7 -9 7 -24 
0 -22 13 -26 10 -30 3 -29 12 -23 3 -12 6 -5 8 1 
5 14 10 17 5 20 8 18 6 19 11 19 4 9 5 6 
4 0 11 -8 5 -17 4352 1175 100 MP stroke
2 -20 6 -15 5 -22 4 -26 9 -23 4 -18 8 -6 6 -6 
3 11 4 25 7 30 9 38 1 42 5 49 5 43 6 40 
7 33 9 28 2 27 7 16 6 8 3 3 8 -2 4 -7 
0 -13 8 -16 12 -20 3 -25 7 -30 4 -34 5 -38 5 -44 
3 -48 6 -45 9 -44 5 -42 8 -46 3 -12 5 -9 3 11 
4 19 5 26 8 18 4 51 11 37 3 36 -1 34 3 32 
5 25 5 25 6 21 11 14 3 9 2 4 5 2 0 -4 
7 -6 3 -9 8 -9 5 -6 2 -4 8 -3 1 4 4 9 
1 12 11 14 4 11 1 19 3 11 4 7 6 3 2 1 
6 -8 5 -13 0 -20 3 -26 1 -32 3 -36 9 -38 5 -42 
1 -44 0 -47 2 -48 1 -39 5 -42 3 -40 3 -33 3 -30 
-1 -22 1 -24 1 -12 3 -20 4 -18 0 -12 3 -30 1 6 
3 -15 -2 -22 -3 -28 3932 1714 100 MP stroke
2 -41 -3 -100 3 -30 4 -89 1 -81 2 -254 -7 48 2 -151 
-2 -167 2 -231 2 -161 -2 -99 3928 3070 13 MP stroke
5 598 2 246 -1 159 8 109 14 84 -1 74 7 54 4 41 
5 29 4 20 6 12 6 6 4 1 2 -3 10 -5 9 -6 
6 -7 9 -5 1 -5 4 -3 7 -1 11 1 8 2 3 4 
10 4 -1 5 14 5 9 4 4 4 9 2 6 1 3 0 
2 -3 17 -3 8 -6 2 -7 14 -7 2 -9 5 -8 3 -9 
11 -7 14 -7 2 -5 10 -3 2 -2 10 0 5 2 5 3 
17 4 5 5 14 6 11 6 -6 7 8 7 7 7 15 7 
6 8 7 7 3 8 18 8 0 8 12 9 8 9 17 10 
3 11 7 12 6 12 11 14 20 14 8 15 12 16 4 16 
10 17 8 16 8 17 20 15 13 14 18 13 21 10 -6 8 
7 4 13 2 22 -3 8 -6 12 -9 6 -13 23 -16 10 -18 
0 -20 27 -18 10 -19 13 -17 9 -13 14 -9 11 -2 12 1 
11 4 28 7 14 8 2977 1187 100 MP stroke
4 5 18 6 10 11 15 7 12 4 18 1 13 -2 16 0 
16 -4 13 -1 11 -4 13 -3 13 -6 14 -8 16 2 9 -1 
22 -1 12 -4 18 0 11 -8 13 1 13 -3 13 -4 9 -8 
18 -11 17 -12 13 -14 12 -20 16 -17 11 -29 11 -26 13 -18 
10 -22 13 -27 15 -25 13 -21 13 -29 10 -50 10 14 10 -21 
12 -14 11 -26 13 4 10 -35 11 5 12 12 12 -8 8 -10 
9 -7 7 7 10 -3 8 -11 14 -3 7 -6 8 -2 7 -9 
11 -4 6 6 11 15 0 8 9 14 8 12 11 14 2 14 
7 16 8 15 6 8 3 5 5 8 4 -2 8 -12 5 -6 
7 -22 -3 -35 7 -16 2 -36 5 -35 -3 -53 -1 -31 0 -44 
3 -36 0 -30 -3 -16 -2 -11 0 22 -4 21 -3 40 -7 55 
-2 54 -1 52 -10 53 -6 53 -8 29 -5 27 -8 55 -9 24 
-10 20 -6 -2 -10 20 2264 1372 100 MP stroke
-9 -3 -12 3 -10 -4 -12 -10 -11 -17 -14 6 -10 -9 -14 3 
-12 10 -14 9 -15 -7 -15 17 -15 14 -12 6 -14 -11 -19 4 
-13 -10 -20 -17 -17 -23 -6 -28 -24 -30 -13 -34 -17 -41 -14 -40 
-16 -58 -22 -28 -16 -43 -17 -25 -16 -21 -14 -16 -21 1 -20 21 
-16 21 -22 42 -24 48 -8 14 -17 49 -21 33 -14 18 -18 6 
-15 -2 -23 -14 -13 -15 -33 -40 -6 -45 -13 -45 -19 -11 -21 -87 
-13 -70 -29 43 -13 68 -8 23 -20 27 -15 34 -18 35 -17 19 
-19 49 -15 61 -15 48 -14 34 -23 35 -16 29 -10 18 -25 18 
-11 6 -18 5 -12 -6 -12 -6 -18 -11 -11 -4 -21 -7 -10 -1 
-14 12 -11 10 -16 26 -10 25 -17 33 -20 34 -11 32 -15 35 
-9 32 -13 32 -14 27 -13 25 -10 21 -14 16 -13 13 -19 8 
-10 5 -15 2 -8 0 -14 -2 -9 -2 -20 -2 -16 -2 -9 1 
-12 3 -12 6 -11 8 3759 936 100 MP stroke
-13 10 -16 11 -20 13 -9 12 -2 13 -23 11 -7 12 -9 10 
-23 9 -8 9 -12 7 -8 6 -8 6 -9 4 -17 4 -22 4 
0 4 -17 3 -9 4 -16 4 -15 4 -5 4 -12 4 -12 4 
-10 4 -13 3 -10 4 -12 2 -6 2 -15 2 -13 1 -9 0 
-21 -1 -9 -1 -5 -2 -12 -2 -10 -2 -16 -3 1 -2 -14 -1 
-6 -1 -13 -1 -4 1 -15 1 -8 2 -5 2 -8 4 -15 4 
-3 4 0 5 -9 5 -17 5 -5 6 -6 5 -5 5 -7 5 
-14 5 -1 4 -2 5 -10 3 2 4 -12 3 -1 3 -4 2 
-4 3 -1 1 -4 2 -16 1 -4 1 -1 0 -4 0 -4 -1 
-9 -1 -1 0 -1 -1 -3 -1 -2 -1 2 -1 -5 -1 -3 -1 
-1 -2 1 -1 -2 -2 0 -2 -3 -2 4 -2 1 -3 0 -3 
1 -1 -1 -1 3 0 1 0 3 1 2 1 2 1 4 2 
2 1 2 2 6 1 4428 689 100 MP stroke
5 1 5 1 1 0 8 -1 1 -1 10 -2 5 -2 7 -2 
6 -2 9 -3 10 -2 6 -2 6 -1 17 -1 13 -1 4 -1 
12 -2 11 -2 12 -3 16 -4 14 -6 3 -8 18 -10 8 -12 
9 -13 13 -15 11 -17 15 -17 17 -17 10 -18 14 -16 16 -15 
16 -13 9 -11 16 -9 12 -7 16 -6 14 -4 7 -3 17 -2 
18 -2 13 -2 12 -3 16 -2 11 -4 17 -4 16 -4 16 -5 
10 -6 11 -5 10 -6 17 -6 11 -5 26 -5 11 -5 5 -3 
21 -3 10 -2 7 0 14 0 8 0 22 1 13 0 17 0 
2 -2 11 -3 20 -6 10 -9 11 -12 5 -16 13 -21 16 -27 
9 -30 22 -36 0 -40 22 -43 13 -45 12 -46 11 -46 13 -37 
16 -48 17 -9 8 -14 15 19 15 18 20 15 14 22 8 17 
17 10 16 10 21 -12 15 -1 14 -23 13 -29 20 -40 19 -49 
14 -57 18 -58 17 -75 3190 1732 100 MP stroke
18 -65 18 -5 17 -25 13 28 14 25 25 32 20 55 13 42 
17 43 19 38 17 31 20 17 13 12 29 8 9 -10 17 -16 
22 -21 16 -27 19 -28 15 -27 19 -35 12 11 24 30 16 24 
17 29 17 28 17 17 20 20 18 17 16 6 18 17 17 29 
16 31 19 37 22 34 19 36 13 39 21 27 31 20 2 12 
16 5 19 -3 16 -10 19 -16 16 -19 21 -13 28 -13 1 -6 
18 0 17 8 20 13 18 15 16 15 16 13 18 17 19 5 
18 8 18 6 17 -3 17 -2 18 -6 20 -7 19 -8 17 -9 
19 -6 21 -6 16 -4 19 -2 13 0 28 2 18 0 4 4 
21 6 17 -1 20 2 26 -2 2 -7 19 -9 17 -16 16 -14 
14 -21 15 -22 14 -27 17 -28 11 -27 27 -29 12 -35 10 -21 
2 -19 9 -21 19 -10 9 -10 17 -6 12 11 16 8 11 12 
13 9 12 20 15 10 1532 1465 100 MP stroke
10 5 17 18 10 2 14 -7 16 -21 15 -12 17 -26 9 -40 
11 -46 11 -59 8 -67 10 -97 11 -107 9 -61 6 -84 0 -167 
15 52 13 -65 5 -30 9 62 1 12 8 44 3 -8 3 33 
1 74 5 54 2 26 0 116 -17 26 4 26 -9 52 26 35 
3 -7 -11 45 3 -15 -18 16 -30 -8 -2 -16 -11 -37 -6 -29 
-10 -46 -9 -47 -11 -43 -10 -55 -11 -20 -12 39 -15 38 -12 68 
-14 74 -15 73 -15 68 -15 67 -17 52 -16 46 -10 12 -29 41 
-6 36 -18 14 -19 14 -20 3 -16 -2 -22 -9 -24 -9 -18 -18 
-23 -17 -19 -15 -22 -30 -21 -14 -21 -16 -22 -16 -27 -4 -18 -1 
-21 -2 -19 10 -21 8 -21 10 -29 12 -20 -2 -20 4 -22 10 
-20 10 -14 4 -27 -1 -22 -8 -22 -5 -19 -15 -22 -16 -21 -12 
-21 -8 -20 -20 -22 -20 -17 -27 -19 -27 -16 3 -19 -7 -29 2 
-12 -18 -20 32 -15 5 2448 1571 100 MP stroke
-17 -8 -22 13 -23 -3 -17 -22 -19 -36 -17 -62 -20 -88 -13 -150 
-30 40 -14 -92 -19 -107 -15 -63 -19 -72 -21 -105 -19 -108 -18 -112 
-18 -1040 -13 133 2782 3453 19 MP stroke
gr

c8
0 sg
%%IncludeResource: font Helvetica
/Helvetica /WindowsLatin1Encoding 120 FMSR

2426  294 mt 
(Digital magnetometers - Bias of orientation) s
2502 4902 mt 
(Distance to center of sensor network [m]) s
 558 2855 mt  -90 rotate
(Bias [degree]) s
90 rotate

end %%Color Dict

eplot
%%EndObject

epage
end

showpage

%%Trailer
%%EOF
