%!PS-Adobe-2.0 EPSF-1.2
%%Creator: MATLAB, The MathWorks, Inc. Version 7.13.0.564 (R2011b). Operating System: Microsoft Windows 7.
%%Title: ..\figures\_oridigital_par_std.eps
%%CreationDate: 11/13/2012  17:43:50
%%DocumentNeededFonts: Helvetica
%%DocumentProcessColors: Cyan Magenta Yellow Black
%%Extensions: CMYK
%%Pages: 1
%%BoundingBox:    52   199   552   602
%%EndComments

%%BeginProlog
% MathWorks dictionary
/MathWorks 160 dict begin
% definition operators
/bdef {bind def} bind def
/ldef {load def} bind def
/xdef {exch def} bdef
/xstore {exch store} bdef
% operator abbreviations
/c  /clip ldef
/cc /concat ldef
/cp /closepath ldef
/gr /grestore ldef
/gs /gsave ldef
/mt /moveto ldef
/np /newpath ldef
/cm /currentmatrix ldef
/sm /setmatrix ldef
/rm /rmoveto ldef
/rl /rlineto ldef
/s {show newpath} bdef
/sc {setcmykcolor} bdef
/sr /setrgbcolor ldef
/sg /setgray ldef
/w /setlinewidth ldef
/j /setlinejoin ldef
/cap /setlinecap ldef
/rc {rectclip} bdef
/rf {rectfill} bdef
% page state control
/pgsv () def
/bpage {/pgsv save def} bdef
/epage {pgsv restore} bdef
/bplot /gsave ldef
/eplot {stroke grestore} bdef
% orientation switch
/portraitMode 0 def /landscapeMode 1 def /rotateMode 2 def
% coordinate system mappings
/dpi2point 0 def
% font control
/FontSize 0 def
/FMS {/FontSize xstore findfont [FontSize 0 0 FontSize neg 0 0]
  makefont setfont} bdef
/ISOLatin1Encoding where {pop /WindowsLatin1Encoding 256 array bdef
ISOLatin1Encoding WindowsLatin1Encoding copy pop
/.notdef/.notdef/quotesinglbase/florin/quotedblbase/ellipsis/dagger
/daggerdbl/circumflex/perthousand/Scaron/guilsinglleft/OE/.notdef/.notdef
/.notdef/.notdef/quoteleft/quoteright/quotedblleft/quotedblright/bullet
/endash/emdash/tilde/trademark/scaron/guilsinglright/oe/.notdef/.notdef
/Ydieresis WindowsLatin1Encoding 128 32 getinterval astore pop}
{/WindowsLatin1Encoding StandardEncoding bdef} ifelse
/reencode {exch dup where {pop load} {pop StandardEncoding} ifelse
  exch dup 3 1 roll findfont dup length dict begin
  { 1 index /FID ne {def}{pop pop} ifelse } forall
  /Encoding exch def currentdict end definefont pop} bdef
/isroman {findfont /CharStrings get /Agrave known} bdef
/FMSR {3 1 roll 1 index dup isroman {reencode} {pop pop} ifelse
  exch FMS} bdef
/csm {1 dpi2point div -1 dpi2point div scale neg translate
 dup landscapeMode eq {pop -90 rotate}
  {rotateMode eq {90 rotate} if} ifelse} bdef
% line types: solid, dotted, dashed, dotdash
/SO { [] 0 setdash } bdef
/DO { [.5 dpi2point mul 4 dpi2point mul] 0 setdash } bdef
/DA { [6 dpi2point mul] 0 setdash } bdef
/DD { [.5 dpi2point mul 4 dpi2point mul 6 dpi2point mul 4
  dpi2point mul] 0 setdash } bdef
% macros for lines and objects
/L {lineto stroke} bdef
/MP {3 1 roll moveto 1 sub {rlineto} repeat} bdef
/AP {{rlineto} repeat} bdef
/PDlw -1 def
/W {/PDlw currentlinewidth def setlinewidth} def
/PP {closepath eofill} bdef
/DP {closepath stroke} bdef
/MR {4 -2 roll moveto dup  0 exch rlineto exch 0 rlineto
  neg 0 exch rlineto closepath} bdef
/FR {MR stroke} bdef
/PR {MR fill} bdef
/L1i {{currentfile picstr readhexstring pop} image} bdef
/tMatrix matrix def
/MakeOval {newpath tMatrix currentmatrix pop translate scale
0 0 1 0 360 arc tMatrix setmatrix} bdef
/FO {MakeOval stroke} bdef
/PO {MakeOval fill} bdef
/PD {currentlinewidth 2 div 0 360 arc fill
   PDlw -1 eq not {PDlw w /PDlw -1 def} if} def
/FA {newpath tMatrix currentmatrix pop translate scale
  0 0 1 5 -2 roll arc tMatrix setmatrix stroke} bdef
/PA {newpath tMatrix currentmatrix pop	translate 0 0 moveto scale
  0 0 1 5 -2 roll arc closepath tMatrix setmatrix fill} bdef
/FAn {newpath tMatrix currentmatrix pop translate scale
  0 0 1 5 -2 roll arcn tMatrix setmatrix stroke} bdef
/PAn {newpath tMatrix currentmatrix pop translate 0 0 moveto scale
  0 0 1 5 -2 roll arcn closepath tMatrix setmatrix fill} bdef
/vradius 0 def /hradius 0 def /lry 0 def
/lrx 0 def /uly 0 def /ulx 0 def /rad 0 def
/MRR {/vradius xdef /hradius xdef /lry xdef /lrx xdef /uly xdef
  /ulx xdef newpath tMatrix currentmatrix pop ulx hradius add uly
  vradius add translate hradius vradius scale 0 0 1 180 270 arc 
  tMatrix setmatrix lrx hradius sub uly vradius add translate
  hradius vradius scale 0 0 1 270 360 arc tMatrix setmatrix
  lrx hradius sub lry vradius sub translate hradius vradius scale
  0 0 1 0 90 arc tMatrix setmatrix ulx hradius add lry vradius sub
  translate hradius vradius scale 0 0 1 90 180 arc tMatrix setmatrix
  closepath} bdef
/FRR {MRR stroke } bdef
/PRR {MRR fill } bdef
/MlrRR {/lry xdef /lrx xdef /uly xdef /ulx xdef /rad lry uly sub 2 div def
  newpath tMatrix currentmatrix pop ulx rad add uly rad add translate
  rad rad scale 0 0 1 90 270 arc tMatrix setmatrix lrx rad sub lry rad
  sub translate rad rad scale 0 0 1 270 90 arc tMatrix setmatrix
  closepath} bdef
/FlrRR {MlrRR stroke } bdef
/PlrRR {MlrRR fill } bdef
/MtbRR {/lry xdef /lrx xdef /uly xdef /ulx xdef /rad lrx ulx sub 2 div def
  newpath tMatrix currentmatrix pop ulx rad add uly rad add translate
  rad rad scale 0 0 1 180 360 arc tMatrix setmatrix lrx rad sub lry rad
  sub translate rad rad scale 0 0 1 0 180 arc tMatrix setmatrix
  closepath} bdef
/FtbRR {MtbRR stroke } bdef
/PtbRR {MtbRR fill } bdef
/stri 6 array def /dtri 6 array def
/smat 6 array def /dmat 6 array def
/tmat1 6 array def /tmat2 6 array def /dif 3 array def
/asub {/ind2 exch def /ind1 exch def dup dup
  ind1 get exch ind2 get sub exch } bdef
/tri_to_matrix {
  2 0 asub 3 1 asub 4 0 asub 5 1 asub
  dup 0 get exch 1 get 7 -1 roll astore } bdef
/compute_transform {
  dmat dtri tri_to_matrix tmat1 invertmatrix 
  smat stri tri_to_matrix tmat2 concatmatrix } bdef
/ds {stri astore pop} bdef
/dt {dtri astore pop} bdef
/db {2 copy /cols xdef /rows xdef mul dup 3 mul string
  currentfile exch readhexstring pop
  dup 0 3 index getinterval /rbmap xdef
  dup 2 index dup getinterval /gbmap xdef
  1 index dup 2 mul exch getinterval /bbmap xdef pop pop}bdef
/it {gs np dtri aload pop moveto lineto lineto cp c
  cols rows 8 compute_transform 
  rbmap gbmap bbmap true 3 colorimage gr}bdef
/il {newpath moveto lineto stroke}bdef
currentdict end def
%%EndProlog

%%BeginSetup
MathWorks begin

0 cap

end
%%EndSetup

%%Page: 1 1
%%BeginPageSetup
%%PageBoundingBox:    52   199   552   602
MathWorks begin
bpage
%%EndPageSetup

%%BeginObject: obj1
bplot

/dpi2point 12 def
portraitMode 0204 7344 csm

  422   110  5999  4844 MR c np
85 dict begin %Colortable dictionary
/c0 { 0.000000 0.000000 0.000000 sr} bdef
/c1 { 1.000000 1.000000 1.000000 sr} bdef
/c2 { 0.900000 0.000000 0.000000 sr} bdef
/c3 { 0.000000 0.820000 0.000000 sr} bdef
/c4 { 0.000000 0.000000 0.800000 sr} bdef
/c5 { 0.910000 0.820000 0.320000 sr} bdef
/c6 { 1.000000 0.260000 0.820000 sr} bdef
/c7 { 0.000000 0.820000 0.820000 sr} bdef
c0
1 j
1 sg
   0    0 6913 5185 PR
6 w
0 4225 5356 0 0 -4225 899 4614 4 MP
PP
-5356 0 0 4225 5356 0 0 -4225 899 4614 5 MP stroke
4 w
DO
SO
6 w
0 sg
 899  389 mt 6255  389 L
 899 4614 mt 6255 4614 L
6255 4614 mt 6255  389 L
 899 4614 mt  899  389 L
 899 4614 mt 6255 4614 L
 899 4614 mt  899  389 L
1791 4614 mt 1791 4560 L
1791  389 mt 1791  442 L
%%IncludeResource: font Helvetica
/Helvetica /WindowsLatin1Encoding 120 FMSR

1675 4759 mt 
(0.16) s
2684 4614 mt 2684 4560 L
2684  389 mt 2684  442 L
2568 4759 mt 
(0.18) s
3577 4614 mt 3577 4560 L
3577  389 mt 3577  442 L
3494 4759 mt 
(0.2) s
4469 4614 mt 4469 4560 L
4469  389 mt 4469  442 L
4353 4759 mt 
(0.22) s
5362 4614 mt 5362 4560 L
5362  389 mt 5362  442 L
5246 4759 mt 
(0.24) s
6255 4614 mt 6255 4560 L
6255  389 mt 6255  442 L
6139 4759 mt 
(0.26) s
 899 4614 mt  925 4614 L
6255 4614 mt 6228 4614 L
 899 4614 mt  952 4614 L
6255 4614 mt 6201 4614 L
 640 4658 mt 
(10) s
%%IncludeResource: font Helvetica
/Helvetica /WindowsLatin1Encoding 80 FMSR

 773 4584 mt 
(-4) s
 899 4359 mt  925 4359 L
6255 4359 mt 6228 4359 L
 899 4210 mt  925 4210 L
6255 4210 mt 6228 4210 L
 899 4105 mt  925 4105 L
6255 4105 mt 6228 4105 L
 899 4023 mt  925 4023 L
6255 4023 mt 6228 4023 L
 899 3956 mt  925 3956 L
6255 3956 mt 6228 3956 L
 899 3899 mt  925 3899 L
6255 3899 mt 6228 3899 L
 899 3850 mt  925 3850 L
6255 3850 mt 6228 3850 L
 899 3807 mt  925 3807 L
6255 3807 mt 6228 3807 L
 899 3769 mt  925 3769 L
6255 3769 mt 6228 3769 L
 899 3769 mt  952 3769 L
6255 3769 mt 6201 3769 L
%%IncludeResource: font Helvetica
/Helvetica /WindowsLatin1Encoding 120 FMSR

 640 3813 mt 
(10) s
%%IncludeResource: font Helvetica
/Helvetica /WindowsLatin1Encoding 80 FMSR

 773 3739 mt 
(-3) s
 899 3514 mt  925 3514 L
6255 3514 mt 6228 3514 L
 899 3365 mt  925 3365 L
6255 3365 mt 6228 3365 L
 899 3260 mt  925 3260 L
6255 3260 mt 6228 3260 L
 899 3178 mt  925 3178 L
6255 3178 mt 6228 3178 L
 899 3111 mt  925 3111 L
6255 3111 mt 6228 3111 L
 899 3054 mt  925 3054 L
6255 3054 mt 6228 3054 L
 899 3005 mt  925 3005 L
6255 3005 mt 6228 3005 L
 899 2962 mt  925 2962 L
6255 2962 mt 6228 2962 L
 899 2924 mt  925 2924 L
6255 2924 mt 6228 2924 L
 899 2924 mt  952 2924 L
6255 2924 mt 6201 2924 L
%%IncludeResource: font Helvetica
/Helvetica /WindowsLatin1Encoding 120 FMSR

 640 2968 mt 
(10) s
%%IncludeResource: font Helvetica
/Helvetica /WindowsLatin1Encoding 80 FMSR

 773 2894 mt 
(-2) s
 899 2669 mt  925 2669 L
6255 2669 mt 6228 2669 L
 899 2520 mt  925 2520 L
6255 2520 mt 6228 2520 L
 899 2415 mt  925 2415 L
6255 2415 mt 6228 2415 L
 899 2333 mt  925 2333 L
6255 2333 mt 6228 2333 L
 899 2266 mt  925 2266 L
6255 2266 mt 6228 2266 L
 899 2209 mt  925 2209 L
6255 2209 mt 6228 2209 L
 899 2160 mt  925 2160 L
6255 2160 mt 6228 2160 L
 899 2117 mt  925 2117 L
6255 2117 mt 6228 2117 L
 899 2079 mt  925 2079 L
6255 2079 mt 6228 2079 L
 899 2079 mt  952 2079 L
6255 2079 mt 6201 2079 L
%%IncludeResource: font Helvetica
/Helvetica /WindowsLatin1Encoding 120 FMSR

 640 2123 mt 
(10) s
%%IncludeResource: font Helvetica
/Helvetica /WindowsLatin1Encoding 80 FMSR

 773 2049 mt 
(-1) s
 899 1824 mt  925 1824 L
6255 1824 mt 6228 1824 L
 899 1675 mt  925 1675 L
6255 1675 mt 6228 1675 L
 899 1570 mt  925 1570 L
6255 1570 mt 6228 1570 L
 899 1488 mt  925 1488 L
6255 1488 mt 6228 1488 L
 899 1421 mt  925 1421 L
6255 1421 mt 6228 1421 L
 899 1364 mt  925 1364 L
6255 1364 mt 6228 1364 L
 899 1315 mt  925 1315 L
6255 1315 mt 6228 1315 L
 899 1272 mt  925 1272 L
6255 1272 mt 6228 1272 L
 899 1234 mt  925 1234 L
6255 1234 mt 6228 1234 L
 899 1234 mt  952 1234 L
6255 1234 mt 6201 1234 L
%%IncludeResource: font Helvetica
/Helvetica /WindowsLatin1Encoding 120 FMSR

 640 1278 mt 
(10) s
%%IncludeResource: font Helvetica
/Helvetica /WindowsLatin1Encoding 80 FMSR

 773 1204 mt 
(0) s
 899  979 mt  925  979 L
6255  979 mt 6228  979 L
 899  830 mt  925  830 L
6255  830 mt 6228  830 L
 899  725 mt  925  725 L
6255  725 mt 6228  725 L
 899  643 mt  925  643 L
6255  643 mt 6228  643 L
 899  576 mt  925  576 L
6255  576 mt 6228  576 L
 899  519 mt  925  519 L
6255  519 mt 6228  519 L
 899  470 mt  925  470 L
6255  470 mt 6228  470 L
 899  427 mt  925  427 L
6255  427 mt 6228  427 L
 899  389 mt  925  389 L
6255  389 mt 6228  389 L
 899  389 mt  952  389 L
6255  389 mt 6201  389 L
%%IncludeResource: font Helvetica
/Helvetica /WindowsLatin1Encoding 120 FMSR

 640  433 mt 
(10) s
%%IncludeResource: font Helvetica
/Helvetica /WindowsLatin1Encoding 80 FMSR

 773  359 mt 
(1) s
 899  389 mt 6255  389 L
 899 4614 mt 6255 4614 L
6255 4614 mt 6255  389 L
 899 4614 mt  899  389 L
gs 899 389 5357 4226 MR c np
/c8 { 0.000000 0.000000 1.000000 sr} bdef
c8
29 26 29 22 30 -24 30 -28 31 -29 30 -19 32 -46 28 -51 
27 -55 36 -61 31 -89 33 -129 29 -198 27 -321 26 -309 31 185 
29 182 23 221 28 -14 23 -70 26 3 24 -57 26 14 19 -151 
24 -254 23 -336 24 169 22 126 22 187 20 92 17 38 18 29 
21 -78 21 -229 24 -408 19 401 20 -22 22 -146 18 -203 15 49 
21 366 18 -295 20 187 22 -141 22 -250 19 498 23 30 16 -236 
22 -260 17 401 21 125 19 -11 22 -106 18 -335 25 312 17 185 
20 -210 15 -245 22 363 17 -135 21 96 16 93 20 -423 14 125 
21 -418 14 313 22 -474 14 525 22 229 15 60 20 -265 12 -193 
23 -194 10 240 24 346 6 141 34 -165 17 -208 23 -123 18 -1139 
9 1120 36 -4 10 187 24 224 15 -55 21 -40 18 -850 19 563 
7 95 39 -215 -5 141 38 541 36 -233 -12 20 31 -347 6 316 
18 -358 27 364 10 -463 4077 2547 100 MP stroke
23 286 13 254 19 -929 19 763 20 11 16 -24 20 162 31 -27 
-4 99 9 -494 27 546 6 -115 21 -95 8 -40 20 -806 6 338 
19 601 0 -125 49 99 4 -267 0 219 1 113 11 -603 7 579 
12 -438 6 166 13 -30 11 171 9 22 7 -250 10 235 7 -194 
9 -79 5 -137 5 336 10 -184 4 395 10 20 4 -443 2 -82 
6 -66 4 584 1 109 3 -25 3 -197 3 -12 1 -385 3 267 
3 181 3 18 1 -14 2 -349 -5 404 1 -226 3 -332 -6 392 
2 -763 -4 258 1 533 -6 85 -1 23 -1 -151 -4 -133 -4 121 
-2 -58 -2 -193 -2 345 -4 -87 -5 95 -8 -152 -2 51 -5 202 
-7 -416 -10 420 3 -478 -6 -4 -2 -168 -6 277 1 387 -12 -240 
-2 77 -4 73 -1 -199 -7 -142 -1 102 -6 70 -3 6 -6 -1173 
-3 878 -8 140 -4 404 -6 -106 -4 -122 -7 98 -2 144 -14 -240 
-11 367 -7 24 -8 -237 3772 2027 100 MP stroke
-12 -289 -7 397 -9 -45 2 -15 -7 86 -11 -22 -17 -574 -13 306 
-3 -50 -10 82 -9 42 -10 308 -14 -34 -18 -345 -10 -326 -10 467 
-9 56 -10 101 -10 -64 -10 216 -4 -412 -5 -193 -13 150 -9 203 
-11 -175 -8 37 -10 -475 -7 379 -16 -203 -10 499 -2 -320 -12 106 
-11 143 -9 -96 -21 212 -3 -98 -10 -81 -17 -547 0 567 -7 -227 
-12 137 -1 174 -10 167 -6 -109 -10 40 -1 -608 -8 135 1 -105 
-10 321 -6 -130 -8 -499 -1 563 -8 212 -10 -326 -4 -468 0 683 
-11 182 -5 -91 -11 -394 -17 501 -1 -54 -7 49 -6 -83 -7 -53 
-16 -155 -5 256 -13 -101 -12 106 -8 -158 -15 -277 -14 212 3 -288 
-8 409 -7 -188 -12 115 -5 -25 -13 -951 -15 880 -1 122 -15 54 
-9 -32 -5 62 -15 -667 -11 432 -11 -131 -12 -30 -11 -66 -12 453 
-10 -138 -11 23 -12 139 -15 -66 -10 148 -19 -336 -16 37 -6 129 
-18 -12 -23 -118 -3 260 4698 1919 100 MP stroke
-13 -173 -10 -415 -23 234 -7 -35 -10 68 -17 -46 -10 36 -13 32 
-10 34 -15 -60 -11 -268 -13 336 -7 355 -28 -516 -6 127 -24 104 
-8 62 -11 -432 -6 255 -15 112 -3 -137 -9 29 -7 -37 -12 -138 
-5 244 -4 -93 -11 -228 -9 297 -14 -323 -6 400 -12 43 0 -99 
-13 -19 -6 49 -13 156 -5 -213 -7 40 -1 168 -12 -146 -24 17 
-3 -520 -3 474 -8 -271 -19 409 -23 -104 6 -69 -10 171 -17 -338 
-4 338 -7 -108 -19 254 2 -204 -26 -261 -9 172 -16 -105 -10 -465 
-3 362 -22 114 -17 -990 -11 1217 -16 102 -1 -217 -28 1 -2 -36 
-13 92 -12 -455 -12 359 -12 24 -10 161 -12 105 -13 -52 -14 -315 
-12 156 -13 -2 -11 174 -9 -191 -12 -275 -20 125 -16 102 -14 -93 
-19 190 -13 -483 -12 114 -23 101 -12 161 -4 -296 -18 180 -5 421 
-21 -140 -8 -197 -7 124 -12 -38 -20 48 -1 -69 -8 20 -5 99 
-7 105 -1 -126 -10 163 5805 1881 100 MP stroke
-5 -143 -8 -842 -9 903 -6 149 -7 -175 -6 -223 -3 -109 -14 49 
-1 236 -7 -414 -21 300 5 184 -8 -322 -5 -56 -3 99 -21 422 
-3 -139 3 39 -10 -423 -17 332 5 -84 -3 3 -6 -419 -8 175 
-18 168 -2 55 4 -100 -16 0 -11 273 3 -31 -1 152 -5 -432 
-19 279 5 -92 -10 -38 -6 -48 2 188 -7 -372 -8 -179 0 227 
-2 1 -5 283 3 -111 -5 -610 0 576 -6 213 0 -296 2 117 
-6 -495 0 -99 0 251 -1 360 0 269 4 -178 3 -236 -1 44 
1 -63 -2 5 2 -23 2 -50 3 77 2 396 5 -146 4 18 
5 -326 4 93 7 -124 2 272 4 66 16 0 4 -110 4 -268 
8 72 6 114 6 21 7 133 7 -189 3 -439 3 730 7 -55 
7 63 8 -949 5 944 16 -407 7 30 8 240 9 238 8 -441 
9 154 4 102 8 -350 8 358 9 -268 8 113 8 124 9 30 
19 171 12 -93 10 22 5784 1915 100 MP stroke
13 -40 9 -132 11 -90 10 289 9 -92 11 248 14 9 12 59 
11 64 14 -361 22 362 26 -117 5 -39 10 -120 11 -143 12 -7 
13 -262 11 7 13 -219 12 218 15 410 20 -39 12 -20 16 -253 
13 197 12 -50 17 -154 14 142 16 -31 16 -58 11 -40 13 -125 
12 207 21 159 13 44 13 -189 12 -90 13 -263 14 -327 16 688 
14 -61 14 61 14 -104 14 168 12 75 20 -83 18 -256 13 99 
23 157 3 -227 17 -100 15 -403 19 691 18 92 13 -436 18 -31 
14 270 17 -169 15 80 21 104 19 227 14 -274 19 102 16 -125 
18 -283 19 140 16 88 20 -106 15 -101 39 111 8 94 15 21 
21 -318 19 -325 20 601 22 -524 25 425 16 239 22 -27 20 17 
21 -199 19 -70 22 271 18 -2 24 -230 19 -307 25 150 29 207 
3 29 25 -126 14 -309 25 461 15 184 25 -159 12 139 34 191 
32 -50 -8 126 16 -1324 4181 3182 100 MP stroke
19 742 31 240 4 113 17 -61 16 -372 13 426 28 148 9 21 
22 -374 10 347 23 -323 1 119 18 -391 10 207 26 223 2 -41 
9 197 17 -1 14 -296 12 -214 12 155 11 21 11 -12 8 135 
11 -265 20 274 -3 -112 23 42 4 -20 9 301 12 -379 21 271 
-1 -179 13 141 6 18 24 -233 7 119 -2 98 11 -432 7 -137 
19 432 18 -39 -6 302 9 -70 8 24 27 352 -2 -283 4 120 
8 29 13 -168 4 -3 19 -325 0 689 13 -19 11 -106 7 -339 
11 61 -2 119 13 -240 27 60 4 -300 -2 225 18 33 15 225 
-3 -1133 16 643 11 197 17 117 19 -334 9 -260 20 385 1 32 
20 19 23 -178 10 94 12 299 24 -70 10 -82 33 -160 8 388 
14 -151 17 -377 27 428 21 -640 12 255 22 15 5 489 25 -70 
13 -136 18 287 15 -157 19 -63 14 -329 20 191 18 417 16 -163 
9 -128 18 209 15 89 2892 1764 100 MP stroke
18 -272 14 107 13 -136 12 -645 12 956 14 104 14 260 12 -7 
14 -204 16 228 7 7 3 -459 16 141 8 217 11 -21 8 68 
7 -44 8 -84 12 -485 14 380 3 -76 8 -7 12 -34 11 -36 
8 -345 8 -195 11 236 11 -98 10 -297 8 319 9 143 9 -290 
11 157 10 108 8 55 9 -103 13 -434 10 422 8 64 16 -237 
6 -47 6 171 12 197 8 -351 10 154 10 84 13 7 9 -336 
11 148 11 4 14 -39 13 217 11 9 9 -70 13 -202 11 185 
12 -270 9 156 8 -411 9 438 7 -4 6 5 7 -109 5 -632 
5 387 3 418 6 -85 4 -236 2 -384 4 445 3 224 2 -640 
4 617 1 158 2 -33 2 -11 1 -489 2 304 1 216 -1 -302 
2 189 -1 -607 3 225 -1 -199 2 593 -2 -49 1 -28 -1 -558 
1 481 -1 149 0 -494 0 302 -4 283 -1 192 -1 -161 2 -35 
1 -163 2 237 0 -47 2193 2098 100 MP stroke
-1 1 4 -20 6 33 0 72 1 -66 6 -229 1 -19 6 310 
1 -67 4 -83 4 -383 4 328 5 -38 8 302 6 -170 7 -125 
4 -44 7 -183 7 144 9 234 7 120 9 116 9 -88 9 -549 
7 193 10 123 11 24 12 -183 7 -160 10 159 7 -177 9 172 
6 427 11 -130 7 -219 7 123 6 167 16 -330 0 285 9 168 
9 6 1 -184 8 -94 5 -175 7 64 7 212 5 66 6 -368 
4 -99 7 171 4 -340 3 158 6 231 2 -349 3 318 5 162 
3 160 5 -202 3 -666 4 659 12 201 1 -43 6 -29 5 -188 
4 -99 5 -19 6 -751 5 660 7 302 10 -40 0 -4 8 -439 
2 394 10 -378 4 261 8 -64 6 218 5 -140 6 -134 5 334 
5 -122 2 -263 11 269 -3 73 9 -462 5 -96 2 310 2 -3 
2 263 2 -44 -1 -19 2 -235 -2 161 2 -388 -4 -156 -1 86 
-5 459 1 -86 -2 142 1696 2199 100 MP stroke
-4 228 -2 -119 -3 -408 -4 241 -4 -25 -7 -265 -4 463 -5 148 
-6 -204 -7 -20 -7 -131 -6 198 -3 -34 -10 178 -3 -295 -13 202 
-2 31 -9 -258 -3 147 -5 -71 -8 128 -7 78 -5 -23 -16 -271 
-5 -69 -5 99 -15 -161 -5 -424 -13 -168 -6 523 -9 251 -7 -466 
-7 471 -3 -295 -14 296 -1 -386 -9 174 -2 343 -9 -8 0 -58 
-11 -174 -5 -69 -7 -2 -5 16 -7 -24 -4 -116 -4 461 -4 91 
-5 16 -12 -76 -5 76 -4 6 -1 -65 -4 -422 0 432 -3 -27 
-2 112 -2 -127 -2 -367 -3 257 1 -495 0 -162 0 849 1 -50 
0 -160 1 71 0 102 0 -293 5 246 0 45 4 -69 8 206 
1 -224 5 -190 3 -415 6 276 5 75 5 118 3 192 4 -299 
5 451 7 -280 8 210 2 -8 5 -2 4 -31 6 -206 3 -142 
5 328 4 -84 5 119 4 -136 4 -160 4 -488 2 -89 3 299 
1 275 1 164 3 -94 1911 2212 100 MP stroke
2 87 0 -140 -8 403 4 -356 4 195 -1 -295 1 138 -1 212 
-1 -139 -2 -275 -4 521 3 -320 3 5 -6 362 4 -1232 2 868 
0 -199 2 342 1 -284 -1 -186 -2 319 1 -61 3 402 2 -327 
1 189 1 -90 3 -511 3 28 4 166 5 241 6 -55 6 20 
7 155 5 -97 5 -325 6 -3 5 -352 8 197 7 155 8 433 
8 -155 9 189 12 -621 10 -46 7 471 11 -26 5 445 9 -45 
14 -16 9 -195 10 17 11 -305 11 210 12 -694 13 428 9 91 
10 -106 10 210 12 -121 11 217 9 -495 13 678 9 -592 13 394 
11 142 13 -366 11 -226 13 456 13 83 9 190 11 -171 12 -208 
12 -255 11 415 10 31 11 78 10 -210 12 -188 9 -857 10 489 
9 204 9 141 10 36 10 -36 9 -109 10 -62 9 180 10 189 
8 -165 10 -60 7 102 10 84 7 -202 7 57 7 406 7 -75 
6 -430 7 -562 6 660 1242 2327 100 MP stroke
7 -152 7 -149 9 414 7 -296 10 414 7 -181 6 -376 8 96 
7 -37 15 124 4 -537 13 629 2 -115 11 147 10 -43 5 -199 
9 227 -2 144 22 -322 -4 189 7 -33 3 209 10 118 9 -30 
-4 64 30 -6 4 113 -2 -108 2 -107 -3 -167 8 252 3 71 
4 -505 9 -19 3 311 5 87 2 -19 4 13 2 -440 2 244 
2 -79 2 24 1 -122 1 184 -1 73 0 153 0 -319 0 204 
-1 -233 -1 91 0 -76 0 130 -3 12 0 178 -1 -237 -2 -63 
0 -20 0 441 1 -225 -2 -189 1 0 -3 84 0 417 0 -382 
-1 -92 -3 282 1 -46 -1 37 -1 76 0 -51 -2 88 -3 -202 
-1 145 -4 -36 1 86 -1 -118 -2 -221 -1 169 0 51 -1 -436 
1 459 -4 -19 1 -81 -2 148 0 -124 -2 -75 0 -16 -2 -480 
1 234 -2 -764 0 648 -3 345 0 141 -7 67 2 -162 -3 -236 
-6 406 -4 -177 -1 -154 1047 2364 100 MP stroke
-4 112 -5 167 -4 52 -5 -60 0 -62 -6 -131 -4 -125 -9 370 
-8 58 -2 4 -7 -609 -1 -200 -16 536 0 -44 -9 203 -8 21 
-3 -190 -6 -210 -13 317 -4 186 -8 -688 -3 543 -4 78 -12 77 
-10 -316 0 236 -9 2 -3 211 -12 -238 -13 93 -3 33 -4 -92 
-12 169 -9 434 -3 29 -14 -139 -6 -439 -11 318 -12 85 -2 60 
-13 50 -8 27 -6 106 -10 -157 -18 -29 -1 -95 -11 123 -9 -31 
-11 50 -10 -213 -13 -334 -11 -62 -13 122 -11 118 -12 1 -13 -309 
-13 245 -10 -220 -8 -2 -19 14 -23 166 0 211 -17 -47 -11 9 
-17 85 -25 81 -3 195 -13 61 -14 -321 -23 293 -15 114 -3 -140 
-20 -200 -7 -269 -24 118 -17 40 -5 -215 -13 171 -17 22 -12 -67 
-21 15 -22 -444 -6 21 -13 298 -28 -100 -13 -290 -7 540 -21 -223 
-15 32 -20 177 -16 -208 -18 26 -12 -182 -17 87 -21 -251 -17 -111 
-15 83 -13 260 -22 -30 2127 2102 100 MP stroke
-20 17 -18 -274 -19 -589 -16 725 -18 -489 -21 389 -15 222 -20 27 
-15 -284 -36 125 -6 -262 -19 249 -33 75 0 40 -31 153 -12 4 
-40 -6 -3 -166 -21 -99 -13 -223 -33 336 -23 66 -7 223 -25 -595 
-19 -326 -19 755 -27 -14 -32 32 -1 41 -27 -277 -15 138 -23 198 
-20 -65 -40 -146 2 82 -29 212 -11 -160 -43 -467 -8 525 -35 -39 
-3 -101 -27 8 -29 -817 -3 750 -27 57 -18 -64 -36 -110 -4 -124 
-18 240 -22 -148 -17 -165 -35 158 -16 304 -21 -28 -17 80 -24 -434 
-17 184 -26 -113 -2 -51 -37 105 -11 1 -14 -398 -41 383 2 -773 
-28 763 -9 -287 -39 -20 -5 161 -31 77 -4 290 -19 -135 -12 99 
-31 -149 -9 39 -32 82 -18 94 6 -121 -18 -232 -20 120 -20 80 
1 -135 -27 131 -6 68 -16 -186 -10 -289 -14 308 -10 -164 -12 -190 
-11 517 -10 -712 -5 246 -11 374 -13 -214 -14 -175 -8 91 -14 212 
-9 -360 -11 409 -4 18 3894 2195 100 MP stroke
-35 -50 5 42 -5 -102 -17 290 -15 -43 -8 -127 -15 -342 -11 202 
-14 -25 -13 176 -8 -103 -10 155 -25 -14 -4 -1112 -16 1040 -22 121 
-2 -105 -18 -5 -13 32 -24 -30 -9 20 -9 16 -17 -154 -12 128 
-17 117 -14 -94 -20 -295 -14 387 -17 -93 -15 -113 -16 125 -14 76 
-17 -10 -13 -581 -18 304 -13 341 -15 214 -14 -358 -14 -48 -11 129 
-13 -447 -11 211 -14 60 -11 323 -14 -20 -11 23 -13 -144 -11 -4 
-13 44 -11 271 -8 -69 -10 -188 -10 -126 -8 -375 -10 -662 -8 943 
-9 -127 -11 438 -6 -309 -8 -228 -11 -115 -1 625 -7 -9 -5 -254 
-8 -10 -4 -19 -7 -682 -5 506 -7 -473 -3 257 -3 190 -4 215 
-1 176 -1 114 -1 -112 1 -255 0 -175 3 274 1 35 4 188 
5 -330 2 51 2 96 5 -301 3 -27 7 307 5 -223 9 166 
8 297 8 -460 7 159 8 252 6 37 8 -288 8 186 10 -295 
6 -15 9 -171 5 83 4601 2470 100 MP stroke
8 126 4 180 7 110 4 -20 7 -190 5 205 4 8 4 154 
4 -70 0 -276 4 235 -1 -51 3 -168 1 21 2 183 -1 -115 
1 -363 0 166 1 -286 -2 20 1 64 -4 364 0 61 -3 -118 
-1 61 -2 40 0 -42 -2 119 -1 106 -2 -120 0 154 -2 -141 
1 -203 0 -310 1 394 0 130 3 55 1 -81 3 -535 1 -202 
3 621 2 197 4 76 2 -50 6 -34 4 32 6 -162 5 -58 
8 84 5 66 8 61 7 -197 7 86 7 -113 7 -14 7 134 
8 115 7 -152 8 -19 8 13 9 -77 16 -108 3 368 8 -36 
10 -204 10 -375 10 -32 8 135 8 33 11 286 14 211 5 -254 
16 88 -3 -66 20 -623 2 435 15 -269 1 248 8 237 13 74 
12 -215 1 -201 22 361 0 -9 11 -181 8 -109 16 401 6 12 
21 86 5 -292 9 -128 11 56 12 144 10 100 13 -141 10 -99 
15 21 10 -438 16 485 4041 2195 100 MP stroke
10 251 16 -241 7 -637 25 270 10 423 9 -102 15 -189 14 265 
11 -7 23 -254 19 203 4 73 22 -85 12 -137 18 -65 15 290 
19 -55 16 -883 19 607 16 478 19 -230 16 -586 24 526 28 -23 
3 -272 23 160 15 125 21 -89 17 197 21 3 16 -503 20 91 
16 254 20 -125 17 64 20 52 18 20 20 -188 18 271 21 173 
18 -268 23 -503 19 418 21 -28 19 452 21 -29 20 -543 23 -67 
19 303 23 411 19 66 23 -118 20 -925 21 304 20 408 22 227 
20 -130 23 -62 37 81 6 124 21 -272 24 44 23 153 24 -412 
23 25 24 79 23 -150 24 441 22 70 25 -227 22 -99 24 243 
23 -76 24 -21 22 -73 24 -78 23 299 25 -84 19 152 25 -11 
22 -191 26 -196 20 319 25 -81 21 -273 26 -706 18 990 26 -153 
19 -181 26 113 19 269 28 -441 16 38 27 92 13 196 34 -108 
27 351 18 -90 21 -377 2055 2375 100 MP stroke
21 -407 19 542 9 -55 27 316 10 -144 23 -264 13 133 19 -606 
18 869 19 113 12 -212 12 205 9 -15 10 95 11 -316 19 -82 
7 186 3 81 10 -479 9 197 7 167 7 -159 6 72 7 54 
-2 -978 7 924 2 -49 5 -99 -1 -200 5 -43 1 225 1 146 
-1 192 2 -23 1 -62 6 -127 -3 -161 -3 164 0 38 -1 8 
0 -48 -3 45 0 -33 -6 -59 -3 -374 1 333 0 297 -3 -111 
-4 -170 0 -510 -1 327 0 229 -3 55 -1 -171 1 -32 -1 -180 
2 111 3 319 1 164 4 -238 7 -82 3 -127 11 304 1 53 
1 -508 9 406 4 -18 25 -178 6 68 0 -41 29 25 -6 69 
9 4 7 117 37 -121 13 -234 -5 186 4 -74 5 -151 18 7 
18 431 -8 -286 24 220 3 -273 2 230 12 93 3 -80 6 -237 
22 433 13 -21 -6 -94 5 -289 16 -54 -1 -27 7 354 12 61 
-6 -85 16 -463 -2 378 1428 2179 100 MP stroke
6 -84 19 198 -2 -156 1 282 -1 104 0 -105 1 -473 -1 142 
2 -93 4 459 -1 -116 1 -72 0 71 0 -356 0 192 -1 -145 
0 141 -3 328 -2 -57 1 -201 -4 -88 0 -210 -2 326 -3 55 
-4 107 -4 -7 -4 -17 -13 -201 -1 33 -3 3 -17 85 7 -129 
-15 41 -5 86 0 -264 -10 0 -4 236 -7 257 -5 -391 -5 -192 
-9 225 -7 46 3 -51 -7 11 -4 -478 -9 346 2 10 -8 322 
-6 -168 -5 -798 -5 896 -6 -373 -3 285 -5 85 -5 -623 -13 215 
-2 -345 -11 560 1 22 -16 -920 -8 810 -9 3 -8 -264 -4 -96 
-15 288 -3 15 -23 122 7 -312 -16 249 -12 223 5 -92 -16 103 
2 24 -14 -259 -7 226 -10 -292 -5 -21 -22 354 -11 -121 5 -308 
-3 -117 -15 436 -25 122 10 -73 -28 -689 -10 654 5 -20 -18 146 
-15 -168 -10 84 -13 -416 -16 332 -18 213 9 175 -31 -568 9 328 
-14 -145 -6 -1344 -11 1353 1982 2168 100 MP stroke
-4 287 -13 -314 -4 -594 -23 241 6 15 -11 -133 -7 582 -10 18 
-6 -158 -9 16 -6 -111 -9 185 -8 25 -18 -49 9 152 -22 -119 
0 150 -4 -338 -7 265 -6 -42 -6 35 -7 -375 -5 -95 -4 168 
-6 159 -9 84 -9 -113 -3 48 -5 -66 -20 -269 -10 141 5 -38 
-4 53 -3 56 -12 -411 -9 475 3 32 -9 100 -2 -124 -13 53 
2 -262 -6 116 -12 -5 4 11 -10 -266 -2 319 -9 69 -4 -210 
-10 410 0 -388 -9 408 -6 -337 -8 540 -7 -33 -12 -397 -1 74 
-10 67 -4 -34 -9 -1171 -4 1020 -14 -294 0 578 -8 -201 -9 -51 
-1 -574 -9 847 -6 -50 -7 -224 -6 237 -8 96 -7 -130 -7 -132 
-7 -129 -7 161 -7 32 -8 -1 -6 -233 -10 386 -8 95 -2 -681 
-7 650 -4 -202 -10 -828 0 761 -5 32 -3 -119 -4 -16 -4 309 
-6 -862 -4 788 -6 -180 -6 -109 -6 118 -8 254 -8 -126 -7 -89 
-7 -53 -7 204 -8 -19 2626 2001 100 MP stroke
-9 -16 -10 -3 -11 25 -10 -54 -11 -589 -13 646 -13 14 -12 9 
-14 -58 -12 184 -13 -2 -15 -296 -13 -199 -14 253 -15 -190 -16 68 
-15 88 -17 -179 -13 392 -15 38 -18 -360 -14 166 -17 146 -17 42 
-17 17 -19 9 -19 -195 -19 -239 -18 143 -19 244 -20 -158 -23 -124 
-22 68 -23 -2 -23 -479 -24 -112 -25 443 -23 -31 -23 124 -24 363 
-22 -471 -23 390 -29 -382 -25 -39 -25 -67 -27 31 -27 111 -26 188 
-25 170 -29 -291 -26 -482 -27 702 -26 -130 -27 -120 -27 216 -27 -270 
-24 -181 -26 -137 -26 9 -26 162 -25 305 -25 81 -25 -3 -22 -431 
-22 -254 -23 516 -20 15 -21 -20 -20 97 -20 -25 -17 68 -21 -123 
-19 209 -18 -161 -18 -172 -15 65 -16 -344 -17 247 -19 -73 -16 -134 
-16 461 -15 -41 -15 -322 -15 133 -14 372 -18 -395 -16 364 -13 -5 
-14 -331 -13 21 -13 109 -12 34 -12 -126 -8 139 -12 -143 -19 281 
-10 -80 -11 214 -6 -291 4465 2139 100 MP stroke
-6 36 -10 -91 -7 196 -8 -305 -9 320 -5 -463 -6 -155 -8 363 
-6 -196 -8 -350 -6 53 -7 570 -6 -86 -9 -432 -5 71 -9 334 
-5 182 -8 -481 -5 182 -10 158 -1 157 -8 -299 -7 114 -5 -66 
-6 -206 -4 268 -4 -440 -3 442 -3 22 -1 -70 -3 -41 -3 -99 
0 -557 -2 869 1 80 -1 52 3 -85 2 -3 -6 -186 0 -236 
3 590 1 -45 -3 -126 0 -671 -1 738 -2 30 -1 -7 -1 31 
4 -423 -2 138 1 258 -4 -202 0 18 1 16 1 63 1 -55 
-1 64 -1 -158 0 -392 -1 315 -3 191 -5 113 2 -111 1 185 
0 -75 -2 -63 1 28 -3 31 1 -301 -3 -270 2 306 0 238 
-2 -14 -3 -113 0 215 -2 -260 -1 220 -2 -21 -1 56 -5 -89 
-3 113 -7 -283 -2 237 -10 8 -5 13 -8 -149 -8 -289 -8 320 
-5 144 -7 -199 -15 -152 -1 -42 -9 243 -13 -626 -7 560 -3 42 
-11 201 -6 -159 -12 -266 4829 2353 100 MP stroke
-3 -218 -10 668 0 -131 -10 -239 -4 -156 -13 476 1 -26 -7 -89 
-7 -405 0 159 -9 131 -4 234 -2 -39 -6 107 -4 -444 -2 104 
-4 -121 -4 250 -7 -134 -3 249 -4 -117 -6 -448 0 353 -5 -209 
-3 -201 -4 -107 -3 480 -7 -495 -1 -233 -5 479 0 -190 -4 -477 
0 334 -5 361 -1 267 -1 119 -1 -250 -1 -259 -1 320 0 355 
0 -137 1 -176 1 -214 1 298 0 35 1 143 1 237 4 -53 
2 -283 3 -252 1 218 1 -116 2 84 1 166 1 22 2 -226 
0 -47 2 288 0 -116 1 -33 1 -323 1 223 0 237 0 -122 
1 -229 1 165 2 -5 2 14 1 -447 5 415 3 35 4 -197 
3 -287 6 173 4 407 10 -339 3 137 3 -49 9 -207 11 130 
1 5 9 280 5 1 6 -189 8 -121 7 -15 8 119 8 41 
6 287 6 5 7 -291 5 -88 6 -167 8 101 6 -383 0 182 
5 -10 4 6 3 121 4776 2442 100 MP stroke
5 358 0 -186 1 216 0 -120 1 119 0 -60 0 187 -5 -815 
0 580 -2 -750 -4 763 -1 20 -5 -65 -4 -644 -4 120 -5 502 
-10 82 -1 -359 -8 263 -6 -222 -7 17 -7 -68 -8 167 -7 92 
-8 -352 -10 -95 -8 35 -9 390 -7 -469 -9 576 -9 -214 -10 298 
-9 -117 -15 -77 -10 289 -3 -43 -15 -183 -6 191 -14 -233 -25 -469 
2 343 -5 163 -12 -342 -9 204 -11 378 -10 89 -10 -118 -9 -405 
-10 132 -8 214 -9 -267 -8 248 -9 -82 -9 -286 -8 211 -6 9 
-8 -170 -5 194 -7 -94 -5 111 -7 -31 -4 117 -6 -115 -6 -31 
-5 114 -4 -147 -7 193 -6 104 -7 -112 -6 -81 -6 -19 -5 -51 
-7 92 -9 -826 -9 77 -8 535 -9 217 -8 81 -8 142 -10 -622 
-11 -354 -10 428 -10 236 -10 -366 -11 165 -10 -86 -13 54 -12 37 
-13 -244 -12 353 -14 238 -13 -21 -16 -202 -13 51 -15 140 -12 -158 
-17 -18 -12 115 -21 298 5558 1883 100 MP stroke
-19 -208 -2 -254 -19 58 -13 213 -18 97 -14 0 -15 -268 -12 43 
-18 -467 -13 614 -17 -13 -25 -169 -9 -196 -7 -29 -27 443 -14 25 
-15 -287 -12 -20 -16 -308 -9 348 -18 23 -1 101 -28 7 -29 176 
9 -352 -6 89 -11 326 -11 -188 -8 -12 -10 -234 -6 177 -8 133 
-4 -497 -9 269 -3 -620 -15 727 3 108 -7 -22 -4 -74 -6 133 
-6 -32 0 -47 -9 162 -6 -72 0 -64 -6 -301 -2 326 -3 -202 
-2 70 -1 12 -1 -129 -3 -43 1 -225 -3 -227 0 461 -1 245 
0 -253 -1 -153 2 267 2 305 2 31 2 -274 2 -232 4 -480 
3 676 4 107 4 99 6 -154 6 82 5 -594 8 -46 4 204 
11 2 12 453 1 7 10 -187 8 -240 8 350 8 -97 9 60 
8 -14 9 -13 9 -55 9 245 9 53 11 -510 10 313 12 115 
11 -125 12 -467 12 549 12 203 14 5 14 -63 14 125 15 -416 
13 -635 15 818 15 255 5722 1741 100 MP stroke
13 294 16 -60 18 -14 17 -148 18 -250 16 257 19 110 19 34 
19 -15 20 -91 20 -71 21 -269 22 159 21 568 22 -20 22 -207 
22 -68 22 10 20 153 21 152 21 -59 22 -624 21 390 24 124 
21 -116 21 -70 18 -130 20 -188 20 65 19 -30 20 -67 18 -146 
22 -193 18 254 20 -233 21 307 16 75 18 -134 19 -87 16 231 
20 -722 18 249 19 1 18 242 19 -174 18 -534 19 613 17 204 
15 60 20 -141 20 -17 18 -224 18 -68 17 495 18 -153 15 -142 
16 43 17 54 15 -80 15 63 15 270 15 -5 12 -238 14 -303 
13 229 12 3 12 203 12 -139 10 20 11 -274 11 -947 11 1374 
11 -417 10 196 9 58 10 31 8 -119 10 -286 9 -255 7 -31 
7 507 8 178 6 -319 7 251 6 -353 6 112 6 69 6 109 
7 -145 7 281 6 -82 6 107 5 163 5 40 6 360 6 -64 
4 -81 9 -243 4 -27 4248 1846 100 MP stroke
6 299 5 56 6 -271 6 -103 6 -18 5 61 6 -68 6 -228 
4 178 6 -96 8 -87 7 265 8 -66 8 -87 10 263 8 -97 
8 -189 8 -79 9 277 8 158 8 -113 10 225 10 205 8 -313 
8 -106 10 168 6 -25 8 109 10 11 8 -562 9 242 8 118 
8 -342 7 413 5 -269 5 -365 7 421 6 184 5 273 6 1 
4 -202 3 -175 2 209 5 59 2 250 3 -353 4 335 5 -366 
3 194 2 27 4 0 2 -71 6 6 7 80 6 6 4 -345 
3 26 6 26 4 -32 5 146 4 -275 4 659 4 -367 4 -281 
2 631 4 -678 3 34 2 164 1 19 3 49 4 -13 0 -58 
4 169 3 -357 2 451 3 -19 2 -265 3 314 2 -167 1 160 
1 204 1 -154 5 -16 1 58 1 -377 1 -41 0 -39 -5 519 
2 -384 -2 228 1 -196 -1 -389 -4 407 -1 212 -2 5 -2 -106 
-1 63 -2 -71 -5 143 3835 1347 100 MP stroke
-4 7 -3 -123 -7 -117 -3 138 -6 -506 -1 366 -10 -118 -9 393 
-4 58 -6 20 -7 -90 -4 -366 -7 304 -14 69 -6 -289 -8 -102 
-7 158 -8 -14 -8 9 -10 48 -8 -85 -9 71 -7 -24 -9 -540 
-9 70 -11 -22 -12 456 -9 -184 -10 167 -9 108 -8 -63 -10 138 
-8 64 -11 -96 -13 -72 -9 126 -10 -53 -9 46 -11 -114 -8 -545 
-10 529 -14 26 -10 -272 -9 148 -11 132 -10 -5 -13 53 -9 -98 
-14 -1 -17 178 -14 129 -15 121 -10 -344 -17 -181 -12 68 -7 129 
-21 67 -20 -145 -18 -14 -19 -850 -10 981 -19 -508 -14 655 -24 81 
-23 -349 -15 13 -19 -169 -20 34 -22 -44 -26 175 -21 75 -30 111 
-16 -212 -26 178 -19 -281 -24 -152 -34 120 -29 13 -21 -37 -18 361 
-29 14 -32 -369 -32 -85 -22 332 -21 99 -32 -241 -27 304 -33 -311 
-27 178 -31 128 -21 173 -25 -87 -31 -266 -29 325 -24 -73 -30 -233 
-22 47 -27 -373 -30 229 5382 1548 100 MP stroke
-22 -19 -20 -5 -31 -276 -23 336 -19 -11 -27 -23 -27 -157 -21 -27 
-19 -10 -24 -360 -23 -75 -24 181 -20 -48 -20 -22 -17 246 -18 -62 
-19 -250 -18 252 -18 -90 -13 -637 -19 432 -10 -78 -13 195 -15 -173 
-16 61 -10 41 -12 -106 -13 75 -14 -997 -10 538 -10 228 -8 381 
-6 -144 -7 -547 -8 612 -3 205 -1 -5 -5 -103 -5 -255 -1 205 
-10 -71 -5 266 0 -81 3 7 -1 -129 1 -205 2 16 5 -329 
3 52 4 148 5 70 5 -385 6 98 -1 483 3 -8 11 101 
2 12 17 -62 -4 -529 12 262 14 16 -6 258 27 -208 8 -99 
-6 235 11 60 20 -348 -3 391 4 59 20 -246 5 199 30 74 
-2 -52 9 -59 13 -59 10 -237 12 95 2 279 19 55 4 -109 
22 -205 12 -189 6 252 13 -286 15 -136 11 542 12 -95 10 115 
13 -42 11 -415 10 387 12 -736 14 422 9 259 13 176 6 37 
21 -533 6 76 13 361 5513 2030 100 MP stroke
7 -9 8 -91 12 -145 11 -69 13 -233 12 268 15 21 12 179 
11 70 10 -158 10 -623 10 92 7 555 10 -597 10 772 2 -260 
4 332 20 58 11 -47 0 -312 8 -58 4 258 5 24 4 -42 
6 -82 4 -324 1 262 4 -221 4 315 2 -419 3 324 5 -153 
1 388 11 -246 2 -10 6 24 3 70 4 -279 5 -29 6 -253 
4 -41 6 587 6 -150 8 101 7 27 8 -192 7 -218 8 485 
10 42 12 10 12 -174 14 -61 19 119 13 -554 16 529 17 -9 
17 173 14 -328 16 92 17 361 15 -628 18 405 23 -530 16 545 
22 -513 20 -10 22 706 17 -268 20 192 19 -424 19 310 20 -184 
18 46 18 315 20 -198 18 78 19 -653 20 628 19 83 18 -36 
18 -178 20 -419 18 284 19 208 20 -111 14 324 23 -152 24 -316 
17 -398 18 451 19 -371 22 468 14 -184 14 169 20 -240 17 59 
20 -241 15 414 19 41 4267 2207 100 MP stroke
26 348 12 -634 15 695 22 -119 23 -121 15 -96 14 -241 18 128 
12 -61 15 -117 14 383 20 84 19 -164 14 -269 19 -71 22 501 
16 -104 18 213 9 -332 21 194 13 -151 17 20 18 -168 19 -198 
18 488 18 -30 18 143 27 -109 19 36 21 -174 18 178 27 29 
18 -311 23 216 13 16 32 112 34 163 5 -4 31 -194 22 173 
25 54 24 -229 24 173 21 291 21 199 28 -588 35 -214 24 50 
27 269 18 275 20 73 15 -25 34 -78 21 228 22 -155 24 -404 
24 90 20 -35 21 18 19 -61 19 -112 24 -386 21 271 19 -95 
16 -66 15 -55 17 -24 18 55 15 -245 19 502 17 100 10 -651 
15 38 12 -148 10 -118 10 640 16 -415 10 150 8 33 11 322 
9 -48 11 -154 8 -63 8 82 12 228 10 -114 9 -75 8 -527 
6 601 9 28 5 175 11 -288 9 193 7 145 5 -128 5 -451 
6 -104 9 71 6 132 2590 2325 100 MP stroke
11 361 4 110 7 -138 6 -26 7 112 4 -177 7 -32 8 51 
5 -111 6 131 7 -85 4 25 3 78 4 -5 4 -135 5 -267 
6 176 4 -36 7 175 6 -199 2 -98 4 139 4 -306 4 141 
3 331 5 -51 4 178 5 -123 7 -177 3 395 3 -81 4 -82 
4 -185 3 -184 7 63 8 377 5 -44 3 -415 2 155 4 125 
3 -25 3 80 3 25 1 -97 4 28 1 -187 3 -92 -1 -1563 
2 1338 1 292 2 -73 2 19 2 -487 1 719 1 102 0 -65 
0 42 5 -54 0 16 3 -179 1 184 2 156 1 33 0 26 
-1 -244 4 -187 0 -100 4 296 0 11 1 -24 1 -67 1 -20 
0 60 1 26 0 279 1 -420 1 310 0 -309 1 272 2 121 
-4 -121 0 -477 -1 425 0 23 -2 94 -3 -123 -1 -258 -4 -50 
-1 237 -4 -359 -1 517 -5 -94 -2 -992 -5 584 -4 306 -6 -133 
-5 -169 -7 212 -7 84 2397 2211 100 MP stroke
-7 281 -6 -56 -5 -119 -5 -591 -8 704 -8 -54 -6 -105 -6 359 
-5 138 -7 -90 -5 31 -5 81 -8 -176 -7 186 -6 67 -6 95 
-7 214 -6 98 -7 -163 -7 454 -6 -240 -6 -88 -8 -61 -4 -260 
-12 110 -11 -1141 -7 106 -9 729 -9 249 -10 -187 -8 -356 -10 196 
-12 -239 -12 112 -12 -142 -14 26 -15 -350 -13 173 -14 160 -14 114 
-16 -349 -14 133 -15 -40 -14 -138 -12 195 -14 123 -15 -267 -17 -431 
-16 656 -16 -5 -15 -86 -17 -279 -16 336 -16 112 -17 -52 -18 -158 
-18 146 -19 2 -18 -478 -17 14 -16 281 -18 135 -19 -55 -18 -154 
-17 146 -19 -179 -17 -29 -18 -879 -19 917 -18 182 -17 -285 -18 403 
-18 -103 -16 41 -19 -404 -19 311 -17 26 -18 43 -18 -198 -18 12 
-18 7 -18 353 -17 -39 -17 -711 -17 407 -19 289 -20 159 -18 -90 
-18 -124 -18 -27 -17 74 -16 -155 -20 224 -20 -686 -19 616 -18 73 
-19 -501 -18 257 -21 193 3755 1982 100 MP stroke
-15 64 -21 -363 -22 120 -20 -301 -20 426 -20 -24 -20 -407 -19 214 
-21 -541 -20 740 -19 32 -19 -44 -20 100 -17 -97 -19 -59 -17 -522 
-17 430 -19 266 -18 -191 -17 -64 -16 133 -18 26 -16 -174 -18 324 
-17 -149 -16 -10 -16 -116 -17 -176 -16 152 -18 203 -16 -42 -18 -181 
-16 -57 -18 102 -17 86 -17 -52 -16 82 -16 -344 -16 10 -16 -199 
-17 -294 -15 841 -15 -57 -14 93 -15 -281 -16 125 -16 -287 -13 333 
-13 -191 -14 81 -13 -272 -14 234 -15 -137 -15 404 -14 166 -14 -42 
-12 -74 -15 -409 -12 216 -14 -64 -12 233 -13 33 -11 -60 -10 -183 
-11 -510 -11 563 -11 -73 -10 119 -11 -397 -9 366 -8 -84 -9 -402 
-4 617 -6 -174 -5 100 -6 -261 -5 68 -5 27 -4 -126 -3 54 
-2 9 -2 138 -1 -122 -1 247 0 -14 1 -409 3 -119 1 649 
3 -328 3 242 3 -823 3 482 5 142 3 -239 4 173 5 19 
6 16 5 55 5 -17 4875 2189 100 MP stroke
6 50 8 -180 7 -303 7 488 7 273 8 65 7 -193 8 -936 
5 669 8 -117 5 243 9 154 7 -30 8 -45 6 -347 10 145 
3 77 14 -37 1 -203 7 127 10 -34 5 -166 8 194 7 -406 
8 271 7 258 7 -1 7 -120 6 -253 10 129 0 23 10 230 
3 223 4 -14 3 -240 6 30 0 -448 4 275 2 -46 1 -88 
2 82 0 179 -1 -132 0 -335 0 343 -1 -1 -2 188 -1 132 
0 -999 -2 586 -1 412 -1 -138 -1 123 -2 -352 0 183 -3 51 
0 129 -4 -194 -1 127 -2 223 -1 -127 -5 15 -3 -79 -5 -408 
0 -70 -1 230 -5 -105 -3 33 -2 235 -8 -168 1 154 -5 -579 
-1 355 -4 311 -3 -404 -1 150 -3 338 -2 -127 -2 -83 -1 212 
-1 101 -5 -378 -4 -170 -1 86 -2 -158 -3 377 -1 3 -3 -89 
1 -776 -2 542 0 328 -3 -275 -1 7 0 295 1 -183 1 -88 
0 -72 1 381 2 -180 4720 2231 100 MP stroke
9 308 2 -324 -2 -75 6 180 2 -91 14 39 8 -328 -3 264 
1 35 2 131 13 -317 -7 347 21 -49 10 -133 -4 160 3 -353 
-4 376 10 -138 15 -66 -4 -392 2 587 -1 1 1 -303 4 150 
11 106 -4 -31 8 -108 4 34 -1 -32 1 -180 3 335 2 -88 
3 -412 2 309 4 132 -2 -216 1 216 0 133 9 -159 -2 -403 
2 143 0 398 14 -27 3 67 -1 -220 0 -78 2 -353 2 40 
2 72 3 322 -2 34 3 29 1 -73 4 100 1 -369 1 399 
1 66 1 -190 -1 -649 -1 143 -6 399 -4 199 -1 -423 -4 -136 
-3 567 -4 -67 -3 -272 -5 140 -4 289 -4 -48 -5 123 -3 -29 
-4 -47 -4 -4 -4 -202 -2 252 -2 -205 -3 237 -1 -307 -1 241 
-3 -648 0 372 -2 124 -5 -181 -3 -79 1 457 -1 -264 -4 134 
-4 110 -2 -15 -3 248 -3 -255 -2 -703 -1 -29 -1 504 -1 -26 
-1 220 -2 114 0 -10 4652 1952 100 MP stroke
3 -7 3 -384 2 361 5 -719 3 591 5 22 6 -438 6 247 
7 -284 8 356 9 -185 10 359 9 114 12 -26 10 -379 13 238 
13 333 15 -247 16 0 17 -196 17 -6 16 79 18 -75 20 -476 
21 634 20 -71 20 -710 19 699 20 72 23 130 22 -108 22 -286 
20 -242 22 213 19 -300 23 439 23 47 21 -303 23 -9 24 213 
22 96 24 202 21 33 21 152 24 -543 21 -325 21 647 23 111 
21 190 22 -108 22 -117 20 -159 24 -66 19 184 23 229 22 -284 
23 218 19 -397 24 668 23 1 23 -373 24 579 22 -141 21 12 
23 -182 22 -57 20 -712 19 632 20 283 20 238 20 -112 18 -322 
16 309 17 123 18 -75 16 76 18 -309 15 -126 18 212 16 118 
14 -326 17 174 17 38 18 0 18 -287 16 -202 17 193 18 -548 
18 186 16 27 17 161 18 47 16 38 18 -57 18 -115 17 -251 
17 -802 18 897 18 189 2916 1989 100 MP stroke
18 -296 16 197 17 61 17 89 16 -167 19 120 15 73 16 -34 
15 121 14 -135 13 -10 14 98 13 -32 13 -167 13 -97 12 152 
12 13 11 95 11 56 10 -127 8 -37 9 -24 9 160 8 -65 
7 -133 7 -555 8 628 6 176 6 91 6 14 4 -80 5 -118 
4 27 8 -77 7 121 5 94 7 45 6 -69 6 -131 6 -46 
5 -335 4 486 4 61 3 -75 2 -171 1 -347 2 529 2 -15 
2 -40 5 160 2 -383 4 315 4 109 5 77 4 -91 8 165 
6 76 10 -74 11 -349 13 -191 14 176 15 -279 16 -111 16 50 
15 85 14 163 16 -245 15 361 16 -717 13 282 15 -4 13 216 
10 -42 12 -152 12 143 11 282 10 72 9 75 10 43 6 -394 
6 238 5 304 5 -552 6 395 3 -56 3 209 2 137 2 -27 
0 -380 2 304 0 -260 1 -115 -1 229 -2 15 1 12 -2 6 
-2 71 0 -375 -1 214 2116 1678 100 MP stroke
-5 2 -2 213 -4 -161 -2 -134 -3 144 -5 32 -3 -92 -5 -539 
-9 508 -6 20 -5 -371 -4 22 -9 204 -6 247 -5 -225 -9 195 
-11 -11 -7 -81 -6 265 -9 -32 -8 -69 -10 -586 -9 496 -8 297 
-11 -173 -10 -41 -7 -140 -7 47 -6 -195 -8 -140 -8 28 -8 11 
-6 -303 -10 98 -10 18 -5 104 -7 19 -7 -306 -7 301 -7 1 
-6 48 -5 -459 -4 78 -6 104 -4 -348 -6 57 -5 565 -3 -169 
-7 70 -5 -26 -5 39 -4 -93 -6 71 -4 214 -5 -238 -5 104 
-8 -218 -6 -62 -6 340 -6 -34 -3 21 -5 -251 -7 -659 -7 485 
-6 -365 -2 246 -5 -185 -3 529 -5 -112 -9 -223 -4 364 -7 -223 
-5 -1047 -3 1278 -8 -285 -7 188 -8 -275 -8 17 -7 362 -6 -554 
-8 337 -9 382 -11 -323 -6 173 -9 -256 -8 19 -8 321 -11 -98 
-9 -180 -11 -124 -12 202 -12 91 -13 -234 -13 341 -12 -14 -15 126 
-13 -435 -10 68 -12 -277 2813 2532 100 MP stroke
-13 -179 -14 789 -17 -118 -13 48 -14 79 -13 -363 -13 -89 -15 145 
-15 237 -16 -344 -15 310 -15 -239 -17 23 -14 61 -13 -468 -13 354 
-14 26 -12 -44 -12 26 -14 -186 -14 108 -14 271 -13 84 -12 62 
-12 -269 -12 128 -14 -16 -15 50 -16 -191 -16 81 -15 -163 -19 317 
-16 -34 -14 -436 -16 306 -16 -81 -16 41 -18 -149 -18 75 -18 -280 
-18 467 -18 -215 -16 -372 -19 384 -18 58 -18 -113 -20 226 -18 -373 
-21 138 -20 432 -19 -10 -18 -109 -20 1 -19 -45 -20 -378 -21 403 
-21 36 -20 -201 -22 303 -18 -97 -19 -777 -19 437 -20 304 -20 -168 
-21 100 -21 116 -19 -21 -21 -130 -20 -376 -18 325 -20 37 -19 71 
-19 -46 -19 -334 -19 211 -19 -236 -17 -85 -17 551 -17 32 -15 10 
-15 -140 -16 -171 -17 -235 -18 482 -17 116 -17 -219 -17 -10 -16 -193 
-16 112 -17 237 -15 -47 -16 -497 -16 344 -19 -247 -16 -69 -17 107 
-15 247 -15 -495 -15 -216 4472 2898 100 MP stroke
-13 467 -15 31 -15 -6 -14 -240 -15 472 -16 136 -14 -157 -16 184 
-16 152 -13 -221 -17 -202 -12 -50 -14 328 -12 61 -14 -15 -13 -42 
-12 -283 -14 -479 -8 913 -10 -15 -9 85 -10 -150 -9 -532 -10 382 
-9 176 -8 -13 -9 -413 -9 191 -9 -288 -7 213 -9 261 -9 -123 
-1 -153 -6 -114 -5 390 -4 93 -7 -124 -2 39 -1 -327 -3 94 
-2 161 -1 39 -5 -30 0 -236 -4 -129 -1 24 -4 -211 -1 240 
-6 -216 -6 297 3 123 -10 -265 -4 38 3 139 -4 -104 -3 -430 
-5 420 -3 95 -8 -278 -4 192 -14 -785 -2 751 1 349 -3 92 
-20 -541 -12 276 4 171 -3 -196 -7 -115 -20 -105 6 -41 -13 248 
-9 24 2 -249 -11 173 -4 -437 -10 556 0 255 -15 -393 -9 -358 
-10 532 -10 14 -7 67 -10 -180 -6 -122 -11 -30 -5 178 -11 -71 
-5 43 -6 -490 -12 478 -4 -122 -9 15 -6 206 -8 47 -5 -177 
-7 -449 -1 133 -11 335 5229 2226 100 MP stroke
-8 -459 -1 206 -11 171 -5 92 -8 -465 -5 333 -5 -162 -5 329 
-6 -122 0 145 -4 203 -4 -136 -5 -122 -6 -396 -2 -41 -6 311 
0 -372 -6 554 -3 106 -4 -52 -4 -215 -6 -31 -2 121 -6 113 
1 -370 -9 126 -3 238 -2 -81 -2 77 -2 -284 2 23 0 272 
-2 -199 -3 187 -1 -132 -3 51 -1 -437 -4 343 -3 190 -2 41 
-4 -43 -2 124 -3 16 -2 -189 -4 176 -3 -240 0 -88 -6 10 
-3 -9 -6 59 -1 -147 -9 482 -7 -156 -5 -27 -4 -626 -8 318 
-4 105 -7 192 -11 -52 1 56 -9 -109 0 184 -8 -231 -1 -82 
-8 -519 1 563 -9 147 -5 45 -5 -113 -5 60 -6 -812 -7 607 
-8 248 -6 -59 -7 -741 -7 24 -7 665 -7 -144 -7 316 -8 -124 
-7 -324 -17 -170 5 621 -11 -101 -6 77 -10 -506 -5 401 -5 -307 
-10 258 -6 168 -10 -330 -6 -209 -9 -76 -10 562 -8 178 -25 -243 
3 26 -1 64 1 -31 5719 2126 100 MP stroke
-7 -3 -2 -320 -4 459 -2 -112 -1 -70 -1 176 0 105 -1 -235 
2 -38 2 -94 3 -481 3 406 4 -163 2 -89 5 387 2 215 
8 -142 1 235 6 -17 6 -208 5 -284 7 444 2 -105 18 218 
-2 -57 13 -137 11 73 2 -288 11 150 9 -293 10 442 10 33 
10 -98 10 -346 11 418 11 131 14 -517 15 -178 14 772 14 63 
14 -120 14 -223 15 -152 16 196 16 60 17 13 17 -88 17 315 
17 -139 16 14 17 201 16 205 17 45 17 -278 16 -228 19 366 
18 287 18 -61 16 -749 18 294 18 32 17 42 19 166 16 -343 
14 344 20 -65 16 59 20 73 17 143 17 -98 18 -165 15 -128 
14 -202 14 -66 15 -296 16 399 16 -21 15 93 14 69 14 -696 
14 1009 15 -479 14 459 16 60 16 -264 17 169 14 -363 13 156 
15 30 15 76 15 -398 16 421 16 -15 13 -85 16 147 14 -468 
15 352 17 81 17 -107 4554 1595 100 MP stroke
18 -152 16 -210 16 337 17 -88 17 44 19 324 18 189 18 -871 
16 651 19 216 17 -286 19 -195 18 122 18 -173 18 253 19 52 
18 -180 19 -251 16 95 20 -29 20 392 18 140 17 -195 19 95 
20 25 17 -54 17 -131 17 -446 17 433 18 -122 17 -165 16 296 
16 143 17 66 16 -208 15 55 14 -80 15 309 15 -239 14 200 
14 -325 13 -47 14 -227 11 204 10 -132 14 306 11 92 8 -233 
10 17 9 7 7 -87 6 -10 7 68 7 27 4 254 5 12 
5 -73 5 -263 1 -20 1 268 4 27 5 -39 0 -235 -2 135 
3 249 5 -404 1 -93 0 60 -1 14 1 55 0 271 -2 -5 
-2 -68 1 44 -1 -681 0 1108 1 -586 3 182 -1 -205 0 -294 
0 138 2 -58 2 90 0 -268 -2 328 1 272 1 -102 0 -559 
1 3 0 334 -1 -195 -2 225 2 107 1 220 -1 -163 0 -163 
0 361 2 -277 1 94 3679 1473 100 MP stroke
0 174 1 -234 2 -21 -1 164 3 96 0 -638 3 265 1 -50 
0 -240 0 43 2 358 2 -632 0 412 -2 568 -1 -275 2 176 
-1 -9 1 197 0 -147 -1 -172 1 163 0 -319 1 387 3 22 
2 -382 2 -242 4 611 4 -293 3 -585 2 574 3 -100 3 45 
2 -153 4 398 2 -419 1 186 2 36 3 -368 0 753 0 -378 
-1 -155 1 -99 -1 200 0 -247 -1 396 0 -131 0 28 -2 53 
-2 -86 -1 94 -4 -131 -3 121 -3 -213 -4 85 -3 310 -3 -6 
-4 -487 -4 270 -4 -148 -3 301 -3 -183 -3 271 -4 70 -3 -15 
-2 -128 -5 -144 -4 36 -6 60 -3 168 -5 62 -5 -186 -5 -196 
-3 -262 -5 -24 -4 252 -6 216 -4 9 -3 -58 -2 -127 -4 -628 
-5 766 -4 -277 -6 -70 -4 -194 -6 -57 -7 51 -5 132 -6 -139 
-6 -701 -7 368 -7 -167 -6 279 -7 -201 -7 411 -6 11 -8 -156 
-6 -72 -5 -740 -5 587 3860 2323 100 MP stroke
-5 283 -6 -204 -6 224 -6 -431 -5 30 -6 408 -4 -89 -6 -5 
-6 -352 -7 -138 -8 128 -6 -132 -6 600 -6 -51 -6 69 -6 -104 
-8 -692 -7 474 -7 57 -7 195 -9 -37 -8 -320 -11 241 -10 -118 
-11 -347 -11 46 -11 104 -11 192 -11 137 -15 -187 -14 368 -15 -292 
-15 -86 -15 191 -15 57 -16 -53 -15 -115 -16 47 -16 -15 -17 122 
-16 -206 -15 109 -16 190 -15 101 -15 -115 -16 -340 -17 -138 -16 55 
-18 326 -16 -46 -16 117 -15 -209 -17 173 -15 -217 -17 274 -14 -59 
-19 -305 -17 258 -18 -22 -15 -360 -17 306 -19 197 -16 -256 -16 53 
-17 121 -15 -613 -17 559 -16 115 -17 -153 -14 -41 -18 -362 -14 259 
-18 77 -13 -801 -30 709 -16 275 -6 -356 -21 281 -15 -319 -19 -399 
-13 816 -17 -252 -16 30 -15 169 -14 -263 -15 225 -13 -53 -15 215 
-14 -412 -16 -51 -15 135 -17 -185 -14 190 -16 -103 -16 56 -17 -152 
-16 88 -17 -224 -17 429 5196 2222 100 MP stroke
-18 316 -16 -26 -19 -495 -18 514 -16 -84 -17 3 -16 -2 -16 -422 
-16 208 -16 -12 -15 -47 -17 -315 -18 -4 -15 494 -18 -350 -18 322 
-18 22 -17 -124 -19 290 -18 -415 -18 55 -17 97 -20 -109 -14 -289 
-23 536 -24 200 -2 -331 -20 164 -12 -252 -17 97 -12 -431 -17 241 
-12 337 -17 -290 -9 178 -27 -257 -6 107 -21 -479 -3 460 -17 143 
-21 90 1 -253 -25 176 -5 -43 -12 -20 -7 19 -8 -247 -6 425 
-7 -438 -7 -271 -9 122 3 586 -2 36 -2 -91 -2 -118 0 246 
0 -258 0 62 1 213 1 47 5 -71 -1 -39 3 -238 4 145 
3 -347 6 -97 4 436 6 -33 5 188 6 -407 6 -302 6 15 
6 636 3 -240 10 -63 7 -157 10 186 8 319 11 -239 9 -43 
12 228 9 147 14 81 9 -79 24 -137 15 -415 4 160 17 136 
12 183 15 -101 14 168 13 -246 15 240 12 -96 24 13 8 -24 
8 -503 13 507 9 -26 5588 2004 100 MP stroke
11 32 8 -91 12 141 6 71 8 -58 4 -314 7 39 2 19 
5 46 3 11 4 -203 2 -327 2 480 -1 154 3 -663 -2 426 
1 -252 -2 511 -2 -150 -5 -280 -5 354 -7 -48 -8 122 -10 -248 
-8 72 -11 -221 -9 386 -11 -219 -11 69 -11 -68 -9 100 -10 10 
-10 -275 -13 27 -12 460 -13 144 -14 -249 -15 179 -15 -209 -19 286 
-18 -29 -20 54 -18 -375 -21 -205 -16 651 -21 -27 -21 208 -19 14 
-18 -14 -19 -101 -18 234 -18 -75 -17 -130 -16 42 -14 -218 -14 68 
-15 304 -12 212 -12 -96 -13 -125 -11 -411 -12 182 -10 129 -10 -20 
-9 196 -10 -107 -8 -81 -9 -222 -6 -168 -8 -92 -8 18 -7 95 
-9 -60 -5 159 -6 -62 -8 13 -5 -75 -4 45 -3 -284 -4 -396 
-3 223 -5 626 -1 191 -2 90 -5 66 -2 83 6253 1210 87 MP stroke
gr

c8
0 sg
%%IncludeResource: font Helvetica
/Helvetica /WindowsLatin1Encoding 120 FMSR

1588  294 mt 
(Experiment 2b - Digital magnetometers - Standard deviation \
of orientation) s
2502 4902 mt 
(Distance to center of sensor network [m]) s
 558 3114 mt  -90 rotate
(sqrt\(Variance\) [degree]) s
90 rotate

end %%Color Dict

eplot
%%EndObject

epage
end

showpage

%%Trailer
%%EOF
