%!PS-Adobe-2.0 EPSF-1.2
%%Creator: MATLAB, The MathWorks, Inc. Version 7.13.0.564 (R2011b). Operating System: Microsoft Windows 7.
%%Title: ..\figures\_posdigital_ort_std.eps
%%CreationDate: 01/09/2013  18:28:09
%%DocumentNeededFonts: Helvetica
%%DocumentProcessColors: Cyan Magenta Yellow Black
%%Extensions: CMYK
%%Pages: 1
%%BoundingBox:    52   199   552   602
%%EndComments

%%BeginProlog
% MathWorks dictionary
/MathWorks 160 dict begin
% definition operators
/bdef {bind def} bind def
/ldef {load def} bind def
/xdef {exch def} bdef
/xstore {exch store} bdef
% operator abbreviations
/c  /clip ldef
/cc /concat ldef
/cp /closepath ldef
/gr /grestore ldef
/gs /gsave ldef
/mt /moveto ldef
/np /newpath ldef
/cm /currentmatrix ldef
/sm /setmatrix ldef
/rm /rmoveto ldef
/rl /rlineto ldef
/s {show newpath} bdef
/sc {setcmykcolor} bdef
/sr /setrgbcolor ldef
/sg /setgray ldef
/w /setlinewidth ldef
/j /setlinejoin ldef
/cap /setlinecap ldef
/rc {rectclip} bdef
/rf {rectfill} bdef
% page state control
/pgsv () def
/bpage {/pgsv save def} bdef
/epage {pgsv restore} bdef
/bplot /gsave ldef
/eplot {stroke grestore} bdef
% orientation switch
/portraitMode 0 def /landscapeMode 1 def /rotateMode 2 def
% coordinate system mappings
/dpi2point 0 def
% font control
/FontSize 0 def
/FMS {/FontSize xstore findfont [FontSize 0 0 FontSize neg 0 0]
  makefont setfont} bdef
/ISOLatin1Encoding where {pop /WindowsLatin1Encoding 256 array bdef
ISOLatin1Encoding WindowsLatin1Encoding copy pop
/.notdef/.notdef/quotesinglbase/florin/quotedblbase/ellipsis/dagger
/daggerdbl/circumflex/perthousand/Scaron/guilsinglleft/OE/.notdef/.notdef
/.notdef/.notdef/quoteleft/quoteright/quotedblleft/quotedblright/bullet
/endash/emdash/tilde/trademark/scaron/guilsinglright/oe/.notdef/.notdef
/Ydieresis WindowsLatin1Encoding 128 32 getinterval astore pop}
{/WindowsLatin1Encoding StandardEncoding bdef} ifelse
/reencode {exch dup where {pop load} {pop StandardEncoding} ifelse
  exch dup 3 1 roll findfont dup length dict begin
  { 1 index /FID ne {def}{pop pop} ifelse } forall
  /Encoding exch def currentdict end definefont pop} bdef
/isroman {findfont /CharStrings get /Agrave known} bdef
/FMSR {3 1 roll 1 index dup isroman {reencode} {pop pop} ifelse
  exch FMS} bdef
/csm {1 dpi2point div -1 dpi2point div scale neg translate
 dup landscapeMode eq {pop -90 rotate}
  {rotateMode eq {90 rotate} if} ifelse} bdef
% line types: solid, dotted, dashed, dotdash
/SO { [] 0 setdash } bdef
/DO { [.5 dpi2point mul 4 dpi2point mul] 0 setdash } bdef
/DA { [6 dpi2point mul] 0 setdash } bdef
/DD { [.5 dpi2point mul 4 dpi2point mul 6 dpi2point mul 4
  dpi2point mul] 0 setdash } bdef
% macros for lines and objects
/L {lineto stroke} bdef
/MP {3 1 roll moveto 1 sub {rlineto} repeat} bdef
/AP {{rlineto} repeat} bdef
/PDlw -1 def
/W {/PDlw currentlinewidth def setlinewidth} def
/PP {closepath eofill} bdef
/DP {closepath stroke} bdef
/MR {4 -2 roll moveto dup  0 exch rlineto exch 0 rlineto
  neg 0 exch rlineto closepath} bdef
/FR {MR stroke} bdef
/PR {MR fill} bdef
/L1i {{currentfile picstr readhexstring pop} image} bdef
/tMatrix matrix def
/MakeOval {newpath tMatrix currentmatrix pop translate scale
0 0 1 0 360 arc tMatrix setmatrix} bdef
/FO {MakeOval stroke} bdef
/PO {MakeOval fill} bdef
/PD {currentlinewidth 2 div 0 360 arc fill
   PDlw -1 eq not {PDlw w /PDlw -1 def} if} def
/FA {newpath tMatrix currentmatrix pop translate scale
  0 0 1 5 -2 roll arc tMatrix setmatrix stroke} bdef
/PA {newpath tMatrix currentmatrix pop	translate 0 0 moveto scale
  0 0 1 5 -2 roll arc closepath tMatrix setmatrix fill} bdef
/FAn {newpath tMatrix currentmatrix pop translate scale
  0 0 1 5 -2 roll arcn tMatrix setmatrix stroke} bdef
/PAn {newpath tMatrix currentmatrix pop translate 0 0 moveto scale
  0 0 1 5 -2 roll arcn closepath tMatrix setmatrix fill} bdef
/vradius 0 def /hradius 0 def /lry 0 def
/lrx 0 def /uly 0 def /ulx 0 def /rad 0 def
/MRR {/vradius xdef /hradius xdef /lry xdef /lrx xdef /uly xdef
  /ulx xdef newpath tMatrix currentmatrix pop ulx hradius add uly
  vradius add translate hradius vradius scale 0 0 1 180 270 arc 
  tMatrix setmatrix lrx hradius sub uly vradius add translate
  hradius vradius scale 0 0 1 270 360 arc tMatrix setmatrix
  lrx hradius sub lry vradius sub translate hradius vradius scale
  0 0 1 0 90 arc tMatrix setmatrix ulx hradius add lry vradius sub
  translate hradius vradius scale 0 0 1 90 180 arc tMatrix setmatrix
  closepath} bdef
/FRR {MRR stroke } bdef
/PRR {MRR fill } bdef
/MlrRR {/lry xdef /lrx xdef /uly xdef /ulx xdef /rad lry uly sub 2 div def
  newpath tMatrix currentmatrix pop ulx rad add uly rad add translate
  rad rad scale 0 0 1 90 270 arc tMatrix setmatrix lrx rad sub lry rad
  sub translate rad rad scale 0 0 1 270 90 arc tMatrix setmatrix
  closepath} bdef
/FlrRR {MlrRR stroke } bdef
/PlrRR {MlrRR fill } bdef
/MtbRR {/lry xdef /lrx xdef /uly xdef /ulx xdef /rad lrx ulx sub 2 div def
  newpath tMatrix currentmatrix pop ulx rad add uly rad add translate
  rad rad scale 0 0 1 180 360 arc tMatrix setmatrix lrx rad sub lry rad
  sub translate rad rad scale 0 0 1 0 180 arc tMatrix setmatrix
  closepath} bdef
/FtbRR {MtbRR stroke } bdef
/PtbRR {MtbRR fill } bdef
/stri 6 array def /dtri 6 array def
/smat 6 array def /dmat 6 array def
/tmat1 6 array def /tmat2 6 array def /dif 3 array def
/asub {/ind2 exch def /ind1 exch def dup dup
  ind1 get exch ind2 get sub exch } bdef
/tri_to_matrix {
  2 0 asub 3 1 asub 4 0 asub 5 1 asub
  dup 0 get exch 1 get 7 -1 roll astore } bdef
/compute_transform {
  dmat dtri tri_to_matrix tmat1 invertmatrix 
  smat stri tri_to_matrix tmat2 concatmatrix } bdef
/ds {stri astore pop} bdef
/dt {dtri astore pop} bdef
/db {2 copy /cols xdef /rows xdef mul dup 3 mul string
  currentfile exch readhexstring pop
  dup 0 3 index getinterval /rbmap xdef
  dup 2 index dup getinterval /gbmap xdef
  1 index dup 2 mul exch getinterval /bbmap xdef pop pop}bdef
/it {gs np dtri aload pop moveto lineto lineto cp c
  cols rows 8 compute_transform 
  rbmap gbmap bbmap true 3 colorimage gr}bdef
/il {newpath moveto lineto stroke}bdef
currentdict end def
%%EndProlog

%%BeginSetup
MathWorks begin

0 cap

end
%%EndSetup

%%Page: 1 1
%%BeginPageSetup
%%PageBoundingBox:    52   199   552   602
MathWorks begin
bpage
%%EndPageSetup

%%BeginObject: obj1
bplot

/dpi2point 12 def
portraitMode 0204 7344 csm

  422   110  5999  4844 MR c np
85 dict begin %Colortable dictionary
/c0 { 0.000000 0.000000 0.000000 sr} bdef
/c1 { 1.000000 1.000000 1.000000 sr} bdef
/c2 { 0.900000 0.000000 0.000000 sr} bdef
/c3 { 0.000000 0.820000 0.000000 sr} bdef
/c4 { 0.000000 0.000000 0.800000 sr} bdef
/c5 { 0.910000 0.820000 0.320000 sr} bdef
/c6 { 1.000000 0.260000 0.820000 sr} bdef
/c7 { 0.000000 0.820000 0.820000 sr} bdef
c0
1 j
1 sg
   0    0 6913 5185 PR
6 w
0 4225 5356 0 0 -4225 899 4614 4 MP
PP
-5356 0 0 4225 5356 0 0 -4225 899 4614 5 MP stroke
4 w
DO
SO
6 w
0 sg
 899  389 mt 6255  389 L
 899 4614 mt 6255 4614 L
6255 4614 mt 6255  389 L
 899 4614 mt  899  389 L
 899 4614 mt 6255 4614 L
 899 4614 mt  899  389 L
 899 4614 mt  899 4560 L
 899  389 mt  899  442 L
%%IncludeResource: font Helvetica
/Helvetica /WindowsLatin1Encoding 120 FMSR

 816 4759 mt 
(0.1) s
1970 4614 mt 1970 4560 L
1970  389 mt 1970  442 L
1854 4759 mt 
(0.15) s
3041 4614 mt 3041 4560 L
3041  389 mt 3041  442 L
2958 4759 mt 
(0.2) s
4112 4614 mt 4112 4560 L
4112  389 mt 4112  442 L
3996 4759 mt 
(0.25) s
5183 4614 mt 5183 4560 L
5183  389 mt 5183  442 L
5100 4759 mt 
(0.3) s
6255 4614 mt 6255 4560 L
6255  389 mt 6255  442 L
6139 4759 mt 
(0.35) s
 899 4614 mt  925 4614 L
6255 4614 mt 6228 4614 L
 899 4614 mt  952 4614 L
6255 4614 mt 6201 4614 L
 640 4658 mt 
(10) s
%%IncludeResource: font Helvetica
/Helvetica /WindowsLatin1Encoding 80 FMSR

 773 4584 mt 
(-2) s
 899 4190 mt  925 4190 L
6255 4190 mt 6228 4190 L
 899 3942 mt  925 3942 L
6255 3942 mt 6228 3942 L
 899 3766 mt  925 3766 L
6255 3766 mt 6228 3766 L
 899 3629 mt  925 3629 L
6255 3629 mt 6228 3629 L
 899 3518 mt  925 3518 L
6255 3518 mt 6228 3518 L
 899 3423 mt  925 3423 L
6255 3423 mt 6228 3423 L
 899 3342 mt  925 3342 L
6255 3342 mt 6228 3342 L
 899 3270 mt  925 3270 L
6255 3270 mt 6228 3270 L
 899 3205 mt  925 3205 L
6255 3205 mt 6228 3205 L
 899 3205 mt  952 3205 L
6255 3205 mt 6201 3205 L
%%IncludeResource: font Helvetica
/Helvetica /WindowsLatin1Encoding 120 FMSR

 640 3249 mt 
(10) s
%%IncludeResource: font Helvetica
/Helvetica /WindowsLatin1Encoding 80 FMSR

 773 3175 mt 
(-1) s
 899 2781 mt  925 2781 L
6255 2781 mt 6228 2781 L
 899 2533 mt  925 2533 L
6255 2533 mt 6228 2533 L
 899 2357 mt  925 2357 L
6255 2357 mt 6228 2357 L
 899 2221 mt  925 2221 L
6255 2221 mt 6228 2221 L
 899 2109 mt  925 2109 L
6255 2109 mt 6228 2109 L
 899 2015 mt  925 2015 L
6255 2015 mt 6228 2015 L
 899 1933 mt  925 1933 L
6255 1933 mt 6228 1933 L
 899 1861 mt  925 1861 L
6255 1861 mt 6228 1861 L
 899 1797 mt  925 1797 L
6255 1797 mt 6228 1797 L
 899 1797 mt  952 1797 L
6255 1797 mt 6201 1797 L
%%IncludeResource: font Helvetica
/Helvetica /WindowsLatin1Encoding 120 FMSR

 640 1841 mt 
(10) s
%%IncludeResource: font Helvetica
/Helvetica /WindowsLatin1Encoding 80 FMSR

 773 1767 mt 
(0) s
 899 1373 mt  925 1373 L
6255 1373 mt 6228 1373 L
 899 1125 mt  925 1125 L
6255 1125 mt 6228 1125 L
 899  949 mt  925  949 L
6255  949 mt 6228  949 L
 899  812 mt  925  812 L
6255  812 mt 6228  812 L
 899  701 mt  925  701 L
6255  701 mt 6228  701 L
 899  607 mt  925  607 L
6255  607 mt 6228  607 L
 899  525 mt  925  525 L
6255  525 mt 6228  525 L
 899  453 mt  925  453 L
6255  453 mt 6228  453 L
 899  389 mt  925  389 L
6255  389 mt 6228  389 L
 899  389 mt  952  389 L
6255  389 mt 6201  389 L
%%IncludeResource: font Helvetica
/Helvetica /WindowsLatin1Encoding 120 FMSR

 640  433 mt 
(10) s
%%IncludeResource: font Helvetica
/Helvetica /WindowsLatin1Encoding 80 FMSR

 773  359 mt 
(1) s
 899  389 mt 6255  389 L
 899 4614 mt 6255 4614 L
6255 4614 mt 6255  389 L
 899 4614 mt  899  389 L
gs 899 389 5357 4226 MR c np
/c8 { 0.000000 0.000000 1.000000 sr} bdef
c8
6 -13 5 -23 4 -5 2 -47 13 -4 1 -45 4 -51 5 -81 
2 -90 -1 -82 8 -124 14 -57 -1 -434 7 -424 4 -352 5 113 
4 193 6 46 6 255 4 183 2 -53 10 -159 9 -250 6 -343 
9 372 1 -487 4 88 7 -394 11 838 8 118 3 -507 10 375 
-1 -130 14 -360 9 311 4 -329 9 183 6 310 3 -118 2 243 
17 -191 8 91 2 -161 14 323 2 -306 5 -93 3 330 11 242 
14 -215 2 -557 10 227 2 -55 10 43 5 22 5 -377 17 775 
5 -356 14 320 11 59 -6 -228 8 147 7 178 15 -378 6 194 
7 -279 3 21 18 299 0 -191 12 -95 8 167 17 269 3 -423 
7 -386 6 335 11 152 20 -352 8 179 12 231 4 -519 10 -191 
8 472 8 171 20 -231 13 -12 18 732 21 156 -6 -756 7 298 
13 82 22 109 8 -257 12 2 6 636 23 -340 10 -327 0 329 
27 164 10 213 13 -233 3076 1798 100 MP stroke
9 -217 14 228 11 -583 12 51 11 -172 28 490 14 -54 4 175 
18 302 10 95 15 -340 12 -33 18 46 13 33 16 -242 16 199 
13 47 11 -158 13 -329 13 541 14 542 16 -66 9 -641 22 -557 
12 690 18 -87 11 69 13 76 13 -216 13 -143 9 61 18 -461 
17 551 13 265 12 -56 16 14 11 194 11 -8 13 -113 10 -533 
13 445 15 149 13 -501 13 497 10 100 10 -591 10 280 12 -413 
11 658 13 -332 10 194 11 -176 12 267 12 -55 8 -855 9 566 
7 -289 10 283 8 169 14 208 7 -180 8 78 7 181 11 -302 
6 123 11 209 0 -196 9 -486 8 364 11 -527 2 739 7 -267 
8 303 6 -362 3 488 5 -88 4 -319 8 12 5 508 7 -692 
-3 435 7 -801 2 41 5 406 -3 -213 -1 680 0 -85 3 -369 
0 -61 -3 575 -2 54 0 -362 -4 224 -3 44 -7 -213 -2 -1288 
-1 1029 -10 -179 -6 45 2208 1986 100 MP stroke
-8 234 -5 357 -8 -255 -9 -937 -10 929 -6 321 -10 -211 -9 260 
-12 -862 -10 643 -12 144 -11 168 -14 -526 -10 136 -14 351 -12 -323 
-14 -364 -15 442 -15 -145 -15 -83 -12 34 -14 176 -19 98 -13 -964 
-20 -19 -17 -294 -6 737 -24 -15 -13 263 -17 -142 -14 -440 -16 655 
-22 -90 -16 -16 -17 238 -16 89 -14 -107 -21 -953 -20 640 -16 -105 
-22 261 -24 -35 -8 -62 -17 29 -21 214 -14 -1124 -18 645 -15 -224 
-23 173 -13 442 -33 -83 -6 -77 -13 -218 -19 -565 -21 867 -13 353 
-29 -199 -13 -709 -8 356 -20 -425 -15 510 -18 10 -17 382 -19 -21 
-15 -306 -15 12 -14 -163 -23 45 -16 -350 -10 608 -25 -416 -11 234 
-18 -191 -12 301 -12 -240 -18 -346 -11 310 -21 -152 -10 356 -14 -1264 
-11 1317 -16 -329 -10 -139 -17 335 -20 -220 -11 297 -15 142 -9 -120 
-13 -104 -14 -71 -13 -232 -10 177 -14 -263 -13 116 -19 -328 -10 65 
-15 -105 -8 -15 -14 415 3670 2046 100 MP stroke
-9 -634 -20 559 -16 -245 -9 125 -12 134 -12 -463 -11 66 -13 -112 
-16 255 -20 520 -9 -279 -2 -197 -23 -187 -7 502 -9 -192 -23 -40 
-8 -438 -12 117 -8 43 -8 314 -9 300 -17 -914 -22 988 0 -1089 
-17 389 -9 -291 -16 392 -15 298 -5 -494 -12 -115 -12 -257 -10 195 
-13 -50 -10 -381 -12 358 -6 873 -15 -485 -13 -165 -9 41 -21 588 
-9 -248 -5 -381 -12 -151 -10 8 -16 553 1 -67 -14 -217 -6 125 
-13 -449 -4 -275 -15 742 -8 146 -5 -476 -8 81 -15 241 -3 -535 
0 1122 -9 -1 -17 -1021 -5 91 -6 -149 -5 238 -7 295 -14 560 
-1 -646 -2 -171 -10 -60 2 511 -12 -495 -1 -183 -4 -475 -4 523 
-1 835 -4 -342 -16 -178 0 -509 -4 589 -1 -673 -4 -364 0 539 
-4 9 0 145 -9 178 -1 118 -1 159 -3 33 -2 -829 2 984 
-5 -355 -3 617 -1 -602 1 0 -2 -51 0 -1029 -3 552 4 33 
1 616 0 79 1 -133 4452 2360 100 MP stroke
-1 280 3 -496 1 387 3 -443 2 69 2 354 4 97 2 -428 
2 -48 6 -162 5 98 5 265 1 -36 8 280 1 57 10 -517 
5 -51 7 33 6 -165 9 72 10 497 6 -229 6 -385 17 880 
13 1 4 -330 12 321 11 -207 12 347 16 -478 14 336 3 329 
18 -120 8 -72 9 -463 13 155 11 -214 15 -12 17 114 10 -212 
14 31 16 16 16 202 9 100 16 -36 12 -270 16 182 14 -188 
7 93 17 105 18 -775 13 316 12 246 16 -614 11 485 17 96 
16 328 16 -25 10 -414 11 -423 10 425 17 98 11 211 26 119 
11 -754 5 630 21 112 10 -707 7 740 14 -677 8 387 22 -385 
13 -52 17 782 2 -293 11 -318 20 353 10 -329 11 94 5 36 
13 206 16 222 9 -503 22 116 0 917 22 -765 13 371 12 425 
11 -210 13 -3 16 459 17 21 8 -302 15 -460 15 -497 20 433 
14 -114 8 48 17 432 3357 1733 100 MP stroke
16 -493 21 597 15 -791 14 437 13 -273 20 -55 19 656 14 -331 
18 -297 17 640 18 112 18 -220 17 31 13 -491 14 -903 25 931 
20 232 13 128 17 -207 19 -90 17 -663 20 944 13 79 29 -97 
9 -420 17 142 22 -70 16 54 19 -511 15 932 19 55 12 -250 
24 345 16 -88 17 -507 17 -32 17 160 20 401 18 -189 16 -74 
18 179 17 -350 16 -315 19 420 22 148 19 -91 13 -4 21 -48 
31 106 2 308 16 -831 19 -21 16 671 19 -162 16 198 21 106 
28 281 1 -758 18 -38 17 -15 20 -297 18 849 16 185 16 -242 
18 -776 19 766 18 428 18 -294 17 -131 17 -262 18 -126 20 13 
19 49 17 55 19 321 21 -62 16 -954 19 493 13 -51 28 -144 
18 669 4 18 21 -212 17 367 20 -878 26 329 2 -31 19 -261 
17 336 16 -836 14 976 15 -103 14 -302 17 563 11 251 27 -302 
12 330 10 -344 2 242 1665 1493 100 MP stroke
9 -156 19 -383 9 83 17 284 12 -404 16 -465 11 -88 13 772 
12 -266 15 -199 10 1031 17 -33 10 -579 14 170 16 17 15 227 
17 -211 9 72 11 -345 11 275 8 -212 10 165 11 321 9 -203 
6 -175 0 -548 15 223 13 58 5 -434 9 397 1 -131 8 327 
3 46 3 204 1 -283 5 -106 2 -142 0 557 0 -135 -17 144 
4 -316 -9 380 26 -366 3 239 -11 -145 3 53 -18 -80 -30 34 
-2 -133 -11 283 -6 -684 -10 362 -9 -24 -11 363 -10 -10 -11 -786 
-12 464 -15 -102 -12 460 -14 -297 -15 2 -15 -59 -15 -369 -17 232 
-16 682 -10 189 -29 79 -6 -679 -18 -194 -19 -215 -20 519 -16 262 
-22 127 -24 -118 -18 -99 -23 -69 -19 -198 -22 190 -21 -43 -21 -254 
-22 -46 -27 311 -18 -466 -21 -216 -19 87 -21 413 -21 -83 -29 59 
-20 205 -20 33 -22 -222 -20 110 -14 -69 -27 -509 -22 407 -22 250 
-19 -43 -22 294 -21 -287 2238 1710 100 MP stroke
-21 -443 -20 214 -22 206 -17 110 -19 -152 -16 -251 -19 309 -29 176 
-12 -105 -20 -324 -15 113 -17 218 -22 -294 -23 -46 -17 -245 -19 267 
-17 371 -20 225 -13 -105 -30 -90 -14 -407 -19 162 -15 -141 -19 -45 
-21 -103 -19 593 -18 -375 -18 -68 -13 -517 -20 389 -27 247 -15 -456 
-16 330 -15 -61 -18 52 -29 195 -13 -80 -16 10 -17 125 -15 -369 
-12 -227 -19 391 -23 -68 -19 -306 -16 404 -16 -39 -16 -239 -14 -200 
-25 483 -14 41 -16 -98 -15 150 -14 -512 -29 406 -9 -710 -11 -183 
-16 -291 -19 166 -20 574 -13 -300 -15 -123 -13 320 -14 191 -13 60 
-17 -379 -15 -56 -14 84 -15 15 -13 -140 -19 328 -20 197 -6 -1241 
-19 932 0 129 -18 -518 -6 312 -18 -361 -10 198 -15 -257 -15 448 
3 279 -13 142 -20 -1296 -10 536 -19 729 0 -745 -2 -76 -12 480 
-7 -392 -5 -397 -6 301 -4 498 -15 23 5 139 -9 -1102 -2 796 
-9 -258 1 152 -9 509 3727 2176 100 MP stroke
-2 -323 0 -797 -4 733 -5 -152 -2 96 -3 202 -5 -390 -5 46 
-2 51 -7 609 2 -285 -3 -273 -3 32 -4 186 -1 -110 6 293 
0 -238 -4 -56 -3 47 -3 352 -5 -559 -2 259 -3 -186 -6 247 
-2 123 8 202 -6 -193 -3 -102 -2 -100 -13 562 1 -609 -2 300 
-6 76 -1 -1267 4 1304 -19 80 -2 -211 0 -1025 0 1133 -9 -871 
-6 419 0 -162 -3 -154 -6 602 -1 -155 -4 -24 -6 -524 -5 107 
-2 131 -2 -524 -3 327 -11 478 -4 103 7 -137 -8 -130 -5 -546 
-8 670 4 454 -13 -509 -1 379 -4 -472 -8 462 -2 -326 -4 643 
-9 185 -2 -217 -5 -221 -2 -657 -4 575 -7 330 -6 -109 -3 326 
-3 -377 -10 -66 -5 281 -7 381 0 -208 -8 -363 -9 188 3 -677 
-4 137 -9 334 -11 -423 -14 767 4 -1988 -5 1100 -10 457 -8 -312 
3 210 -9 -13 -9 -35 -11 -387 -3 215 -7 293 -3 -319 -11 -51 
-6 119 -6 95 -4 -144 4138 2452 100 MP stroke
-5 44 -6 -224 -7 -423 -7 -163 -7 362 2 125 -8 291 -4 475 
-5 -415 2 -188 -5 281 -3 45 -10 -246 3 357 -3 252 0 -461 
-8 797 2 -97 0 -464 -1 240 -2 -168 5 -490 -4 234 -1 447 
-4 0 11 -274 -3 313 3 121 2 15 1 -486 7 356 4 -823 
0 751 5 -235 1 253 9 -509 5 4 7 -665 6 -39 3 654 
8 111 5 97 1 -1277 7 335 7 99 6 649 8 -95 8 -215 
8 -431 6 298 9 469 9 -22 9 -298 7 249 9 195 7 -202 
13 -49 13 417 7 -1089 12 873 1 31 14 -611 12 -286 6 909 
7 -61 17 145 6 11 4 -941 7 201 18 850 9 -634 9 -74 
7 177 10 -404 4 925 17 -601 9 521 9 226 12 -672 9 -124 
6 655 14 64 14 387 5 -180 12 145 16 -43 3 -1157 7 960 
12 -98 15 -207 8 -384 9 169 6 -68 13 -215 7 343 15 -441 
10 549 11 135 8 -462 3616 2551 100 MP stroke
13 -121 14 319 5 498 8 172 16 -715 16 690 9 -343 11 -437 
10 -106 10 245 12 277 7 -79 22 114 8 93 6 38 23 46 
-1 63 18 -184 11 101 3 108 22 -607 4 242 9 -672 9 529 
12 203 19 34 3 -554 23 518 5 131 9 -170 10 -317 9 137 
10 483 11 -25 8 -571 12 -212 8 535 13 89 12 -24 9 299 
13 -676 9 458 10 218 8 -640 8 208 9 -162 12 274 9 115 
10 -421 10 467 10 27 7 168 10 -435 9 -132 9 463 9 -130 
13 -558 8 518 12 -482 9 364 12 209 11 422 1 -420 11 351 
7 -248 10 -243 8 -162 8 6 12 495 8 -280 6 -414 9 -45 
8 550 7 -811 8 757 9 233 6 -452 8 15 9 220 6 -14 
8 27 8 391 8 103 6 -418 8 -727 7 1006 7 92 7 -371 
8 -198 4 243 7 27 7 -277 8 308 8 0 8 25 7 105 
6 -723 5 599 9 10 2684 1689 100 MP stroke
6 -209 5 -237 8 -807 7 333 7 882 6 81 5 -626 6 755 
5 240 7 -556 5 106 4 -202 7 2 5 206 5 -374 4 76 
4 277 3 -882 5 1229 4 -150 5 -94 5 119 3 -835 2 69 
3 370 3 112 3 358 2 -574 3 353 3 -75 3 -490 1 350 
1 495 1 -319 1 98 0 -192 2 306 2 139 -2 -196 -1 -535 
-1 476 -2 -75 -2 -103 -1 -370 -1 429 -1 140 -3 13 -2 -267 
-5 -117 -6 301 -1 -94 -5 -302 -3 228 -4 -815 -5 710 -5 -1547 
-4 1710 -5 -147 -6 -86 -5 256 -5 103 -8 -237 -6 -426 -6 619 
-8 -492 -8 134 -8 369 -7 -324 -6 43 -18 252 -9 -257 -7 -14 
-9 197 -9 -256 -9 -391 -9 467 -9 338 -15 -747 -2 614 -9 8 
-9 -96 -8 -143 -15 9 -6 475 -7 -320 -14 168 -12 -27 -3 -1030 
-10 899 -8 -599 -10 328 -9 259 -10 105 -8 -98 -6 176 -5 -245 
-14 420 -7 56 -2 -444 2933 1853 100 MP stroke
-13 -43 -6 59 -12 -325 -5 -162 -5 450 -8 290 -9 -447 -7 45 
-12 29 -18 490 3 -1762 -6 1452 -12 -644 -3 -57 -7 872 -9 -573 
-3 234 -20 -14 -13 348 3 -300 -5 35 -6 -255 -8 -142 -4 366 
-11 -95 -8 211 -14 -413 -6 132 -3 158 -10 -307 -6 143 -5 -295 
-8 -561 -9 905 -12 -111 -10 -72 -6 339 -9 142 -7 -103 -9 -389 
-9 -64 -9 372 -13 24 -7 147 -11 60 -8 -143 -11 -95 -12 -151 
-9 196 -13 269 -10 36 -9 -211 -10 237 -14 -176 -16 -474 2 293 
-19 -259 -7 388 -15 -87 -5 -334 -18 -421 -17 398 -3 79 -11 -91 
-21 -111 -8 -1538 -7 1367 -16 -290 -16 243 1 624 -29 -194 -13 250 
4 -509 -21 78 -2 -492 -8 197 -13 -500 -16 690 -5 -469 -10 47 
-18 540 -1 -357 -14 -905 -11 749 -6 -213 -10 -320 -1 1257 -14 -826 
-7 328 -8 72 -13 -466 -20 1136 7 -886 -9 -452 -9 558 -7 -105 
-4 -502 -7 135 -4 527 3841 2567 100 MP stroke
-7 -56 -10 -399 -5 -212 -5 -145 -5 322 -6 513 -1 -415 -3 68 
-5 115 -4 57 -1 93 -7 43 -2 309 1 -693 -1 -171 0 -6 
0 344 1 -13 -1 -741 2 962 0 -136 -4 -14 4 -441 2 181 
5 -154 4 -107 4 598 7 -550 6 417 -1 -489 2 1027 6 -599 
1 86 10 93 9 441 2 -241 3 -350 4 -600 4 410 5 155 
4 310 9 -144 4 38 4 -551 3 488 5 -67 5 154 7 -152 
8 -186 14 727 -5 -28 4 -581 7 19 0 661 14 -469 1 124 
10 -184 7 107 0 -57 5 23 6 307 3 -1163 2 675 6 -182 
6 216 6 -116 3 -154 7 -431 4 328 8 671 5 -317 1 155 
6 -4 2 98 5 27 6 71 5 -149 3 121 3 375 1 -1149 
4 103 3 -98 1 428 3 414 2 -14 4 -52 2 -369 -2 442 
5 -471 3 85 5 175 0 -145 -1 78 2 -351 0 570 1 -107 
2 -460 -1 442 -1 -407 3601 2991 100 MP stroke
-1 352 3 222 -2 -66 -4 -364 4 -67 -1 540 0 -658 -9 436 
2 -827 -1 482 -2 464 -2 -899 4 1093 -3 -55 -2 -193 1 28 
-1 23 1 -289 -4 440 7 -558 -5 424 -1 -215 2 612 -1 257 
-3 -89 -3 -325 2 137 -2 -311 1 341 -4 502 -1 -590 -2 175 
-1 -4 -3 128 1 -120 -4 -645 -1 658 -2 -195 0 -162 -1 7 
1 -745 -8 1265 -3 189 4 -110 0 -7 -9 278 8 -358 -4 171 
1 -228 -3 44 -6 -589 1 472 -1 257 -3 -805 -2 494 -2 48 
-1 13 -3 41 -3 -51 -1 -257 -1 -546 -1 772 0 252 -2 -146 
-2 -131 -3 589 -1 -433 -1 -1066 -1 872 -3 -14 -3 247 -2 59 
0 -129 -3 -287 1 281 -2 -190 -3 326 0 -79 -1 -756 -10 755 
4 -127 -1 63 1 -19 -2 297 -4 -170 2 -647 0 -10 0 407 
-6 169 -1 68 4 -222 -7 -247 -5 580 3 -112 2 2 -1 183 
-9 -114 0 -45 -1 -460 3732 2208 100 MP stroke
-1 170 0 223 -4 116 -4 -516 -1 -189 -3 331 -2 355 -3 229 
-3 -611 0 -373 -3 453 -3 328 -6 -579 2 -205 -4 548 8 147 
-5 177 -5 -182 -6 -447 -3 294 -4 148 -11 20 -4 -73 -12 -9 
7 -117 -9 -618 -6 -282 -7 522 -1 -388 -11 644 -4 -408 -5 -71 
-4 637 -9 -27 -6 206 -5 61 -3 -359 -8 247 -9 187 -1 -548 
-5 -106 -16 553 0 -10 -4 -241 -10 -1101 -11 1088 1 126 -10 60 
-4 -309 -9 -133 -5 -55 -9 298 -5 -35 -9 -225 -5 -34 -9 -318 
-4 752 -11 -143 -2 278 -13 -4 -8 -513 -4 335 -8 -237 -3 -833 
-16 839 -8 38 1 -851 -9 -452 -8 136 -7 237 -4 633 -8 -107 
-8 187 -9 -190 -2 42 -7 220 -9 -121 -8 -98 -8 -322 -5 312 
-7 -308 -10 -4 -5 -258 -7 -241 -8 625 -8 385 -6 -118 -8 150 
-4 -504 -4 589 -7 -386 -6 418 -13 -314 -9 -4 -8 -2114 -6 1557 
-9 220 -11 470 -8 -902 4312 3210 100 MP stroke
-7 759 -8 -455 -8 -142 -8 302 -10 264 -8 -424 -8 -229 -8 447 
-9 -140 -10 -190 -5 907 -9 -1030 -8 288 -11 522 -7 -741 -5 912 
-11 -951 -11 282 -7 423 -14 351 -3 -268 -9 -134 -10 -189 -7 -67 
-4 358 -14 -329 -14 89 -4 -247 -9 1 -6 -150 -10 579 -8 -99 
-11 -289 -6 309 -10 -24 -8 81 -9 133 -10 -18 -8 340 -10 -414 
-10 -71 0 200 -6 -329 -11 517 -11 165 -8 -779 -9 242 -4 159 
-9 -185 -8 -209 -11 -197 -10 428 -6 145 -11 -267 -10 -63 0 128 
-11 -163 -6 422 -7 -170 -6 -337 -9 71 -5 258 -7 107 -3 -7 
-10 -493 -7 314 -7 214 -4 -209 -5 -645 -3 817 -7 58 -4 -106 
-10 -639 -6 489 -10 -176 -4 -74 -12 344 -7 199 -2 -120 -5 172 
-5 -382 -5 84 -6 212 -5 -84 -9 303 -8 -269 -3 66 -5 -378 
-6 26 -2 -645 -9 1207 2 -353 -2 -777 -5 851 -2 -352 -2 62 
-5 47 -3 293 -4 -392 5019 2664 100 MP stroke
-2 221 0 426 2 -347 0 22 -2 -370 0 17 1 56 0 162 
2 -57 0 96 2 -468 2 66 2 404 2 -236 3 478 2 146 
3 -420 -1 138 2 477 2 -297 4 -263 3 114 3 -8 4 -600 
6 858 3 -282 4 43 4 218 4 61 0 -619 2 95 7 -211 
1 660 11 -264 0 -68 2 366 5 -218 4 224 4 77 2 -324 
6 283 5 -185 8 12 3 122 0 -181 11 451 6 -14 -2 -1151 
5 508 5 201 4 39 4 -48 4 34 8 -524 3 552 5 63 
7 -908 6 368 2 -105 7 179 6 659 5 -128 3 -465 5 -336 
4 764 7 -658 4 272 3 210 5 4 12 -298 6 -277 8 700 
12 492 -4 -502 5 -199 5 92 9 -508 6 765 9 182 0 -629 
7 722 6 260 12 -160 2 3 10 -45 1 -295 3 73 11 259 
3 -187 7 -52 8 273 7 -232 8 -1032 7 1085 9 308 10 -107 
6 -117 1 -159 15 453 4586 1405 100 MP stroke
1 -255 6 370 4 -367 6 -223 12 222 11 -51 1 505 10 134 
4 -447 11 -243 3 295 13 98 3 98 6 -62 7 -240 7 233 
0 -125 13 -1005 10 721 3 -60 12 234 3 -264 6 172 8 289 
5 -382 10 -38 5 150 8 324 6 -81 11 -445 4 -50 5 -331 
4 244 11 397 5 348 2 319 6 -269 5 -549 4 454 9 -364 
4 -341 8 736 6 44 3 -228 4 62 7 67 9 -332 1 -195 
5 47 5 308 6 322 7 116 9 -183 2 -189 7 -357 6 304 
3 244 8 22 4 -1061 0 153 8 395 12 -97 3 205 7 -42 
4 192 5 77 5 94 3 -97 6 -153 9 -103 5 -206 8 570 
3 -772 5 871 3 -345 4 -477 5 479 8 269 4 -565 11 448 
3 -62 -1 -188 3 -184 5 107 5 180 6 -76 11 -97 3 375 
2 -357 5 126 0 241 7 -75 3 -40 8 48 5 27 2 320 
8 104 1 -586 4 253 4024 1251 100 MP stroke
1 -122 11 -94 4 202 1 -558 3 392 4 79 6 -394 2 491 
6 -404 5 -48 0 210 3 -243 1 297 3 87 9 -318 5 -866 
1 930 0 248 2 61 1 -382 5 11 3 522 3 -33 3 -310 
-1 -339 1 636 1 -618 3 176 4 200 0 364 3 53 1 -154 
3 -219 -2 72 -3 144 2 181 -3 -151 3 -224 4 60 1 -357 
2 82 -7 396 2 1 -2 -17 2 82 2 -258 -2 -273 -1 515 
-1 -123 -5 -150 -5 241 -2 -10 -1 -209 -3 -117 -3 273 2 -188 
-2 -283 -7 3 -6 126 -5 -386 -3 -185 -5 -194 1 729 -3 43 
-7 -263 -9 255 -4 -139 -14 -21 -4 -270 -4 429 -3 -571 -8 40 
-4 534 -11 62 -8 -83 -2 -505 -15 342 -4 50 -5 278 -11 -555 
-8 125 -7 -172 -10 445 -10 292 -7 -655 -9 247 -10 109 -14 -179 
-6 525 -8 -110 -8 -36 -7 -250 -8 315 -16 -147 -11 -26 -11 -164 
-5 332 -20 45 -2 -364 4267 1656 100 MP stroke
-13 233 -9 -108 -14 -397 -19 -173 -9 213 -12 63 -8 371 -11 -2 
-10 -64 -15 -176 -9 -207 -19 438 -9 9 -17 -241 -10 222 -14 209 
-14 -134 -14 79 -11 167 -19 -161 -14 -138 -14 -838 -15 730 -18 -451 
-14 868 -15 -186 -17 -86 -16 -103 -15 -125 -16 -135 -15 221 -20 -184 
-16 114 -19 -121 -16 -36 -17 14 -14 -151 -17 460 -14 16 -26 159 
-17 -128 -22 -18 -13 -32 -22 -1 -13 -575 -21 256 -25 287 -25 -262 
-15 376 -7 -358 -23 130 -17 86 -19 -213 -16 -16 -19 381 -17 0 
-19 -395 -15 5 -16 -154 -20 125 -16 136 -15 -172 -16 155 -18 56 
-15 80 -16 47 -14 -28 -16 -530 -13 561 -16 -8 -17 -474 -14 425 
-14 74 -15 -157 -14 -106 -16 62 -12 132 -17 219 -12 -217 -22 128 
-4 10 -12 -148 -13 55 -13 247 -11 -147 -13 -249 -7 219 -11 25 
-8 -253 -15 89 -11 -233 -9 -125 -14 -103 -8 70 -11 135 -13 66 
1 -671 -17 789 -14 -395 5723 2029 100 MP stroke
2 -214 -18 18 -6 418 -16 292 0 -655 -10 -389 -7 -130 -4 627 
-10 163 -6 -109 -3 149 -14 65 -6 -25 -8 -873 -8 779 -8 131 
-3 -321 -9 89 -3 -472 -9 -987 -7 686 -4 642 -5 -8 -2 -258 
-6 103 0 401 -8 -142 -1 93 -4 -203 -1 -117 -6 382 -4 270 
1 -289 -2 -442 -1 -7 -1 206 -1 -524 0 -173 -1 612 7 -375 
0 -162 -1 582 1 -743 -2 -401 -1 365 2 -494 -1 1025 18 -34 
2 334 -1 -673 2 51 4 494 0 79 14 -475 9 280 -2 -81 
5 325 2 -1237 6 868 7 66 16 367 4 -236 2 -826 9 864 
22 305 -6 -593 13 51 9 340 1 -10 27 411 2 -360 -1 -10 
6 322 21 -359 10 -159 11 215 8 -402 14 279 21 331 11 -202 
2 177 24 35 11 -231 1 76 28 -374 9 156 15 -189 11 -124 
7 62 20 -380 17 113 24 657 4 -163 15 136 10 416 41 -930 
18 676 -5 -200 14 -204 5385 2410 100 MP stroke
12 57 47 866 -6 -627 9 -492 12 352 33 -225 8 301 10 201 
17 -505 15 143 11 97 20 -98 22 -74 13 -52 21 99 8 -100 
21 46 4 -126 19 -110 23 510 6 -243 8 -205 17 174 16 12 
20 -81 17 304 14 67 2 175 21 -257 11 207 22 -479 11 409 
22 -322 11 -135 7 -343 14 818 16 138 18 -165 14 -506 19 626 
2 -394 15 -108 10 84 12 -286 22 -478 22 750 1 477 17 81 
9 -483 15 41 7 -111 17 144 20 -224 15 472 17 385 3 -456 
15 193 10 -185 13 -39 14 -17 21 45 11 267 16 -258 12 -261 
14 266 12 -107 26 134 2 46 19 242 14 283 12 -257 9 -380 
14 200 13 241 12 -290 27 -349 9 581 12 -343 11 432 13 -21 
14 -634 12 544 24 358 9 -471 16 -1038 12 716 13 143 18 -143 
18 521 14 72 17 -90 11 379 18 -41 15 -338 17 253 20 53 
15 -212 16 -181 25 330 3941 1415 100 MP stroke
-7 208 41 -625 12 56 7 296 16 -26 18 -419 9 -82 35 643 
26 145 -2 -1483 23 799 11 17 20 101 18 -373 20 330 18 -158 
20 99 14 324 17 -98 20 109 19 -5 19 -164 22 41 14 142 
20 -261 17 -98 22 227 23 -654 14 422 17 372 16 -195 17 128 
19 58 31 -165 1 -28 26 -227 20 235 1 327 22 -427 13 168 
21 -1204 23 1090 4 180 12 -143 11 -348 17 264 11 340 14 88 
13 -155 14 -289 13 443 12 -147 8 -71 13 275 14 -404 12 -66 
9 -326 11 157 10 627 7 178 15 136 7 -547 19 342 3 8 
8 -85 4 -303 11 -437 7 -215 5 313 12 -421 2 632 5 216 
8 -238 5 -208 8 -647 3 987 10 71 0 -170 4 -246 4 -75 
5 674 4 -59 2 -7 4 -14 6 -154 5 -900 -1 -340 8 860 
-2 531 1 126 2 -90 0 -124 2 -266 1 474 -1 280 2 -65 
-3 -262 -2 -252 1 -809 2829 2451 100 MP stroke
-4 988 3 175 -6 508 -6 86 1 -1067 -5 315 0 586 -5 -180 
-3 -343 -7 1 -4 30 -5 114 -7 18 -7 20 -7 -27 -5 -438 
-8 -242 -10 -85 -6 332 -8 26 -7 -183 -7 365 -12 57 -8 -382 
-10 246 -7 -404 -13 -113 -12 549 -7 -115 -13 259 -10 -249 -15 -47 
-11 173 -13 -193 -12 -19 -13 128 -13 -296 -15 34 -12 198 -14 -370 
-15 -123 -13 260 -15 439 -16 -207 -14 -110 -16 -423 -14 493 -19 65 
-16 163 -19 -152 -11 -111 -25 144 -12 -66 -19 -334 -16 364 -18 326 
-19 -740 -20 488 -13 -787 -23 910 -29 187 -4 -416 -22 -163 -15 -52 
-20 454 -19 8 -20 -102 -17 274 -20 -644 -22 35 -19 154 -17 218 
-15 47 -25 185 -18 -315 -20 45 -16 -237 -23 252 -22 -352 -14 329 
-21 -73 -14 -346 -35 351 -20 -345 -4 444 -22 2 -14 -242 -21 -311 
-22 179 -15 -743 -18 109 -20 349 -19 -73 -20 139 -16 303 -17 281 
-16 196 -20 -430 -19 383 4215 1317 100 MP stroke
-17 -294 -17 144 -14 60 -18 37 -17 -413 -22 -314 -21 327 -2 300 
-22 -167 -12 121 -20 -365 -15 -99 -16 193 -12 9 -16 -295 -23 371 
-9 -568 -11 -521 -19 478 -7 267 -23 -493 -16 537 -12 -181 -9 139 
-15 -167 -13 -132 -3 533 -17 -391 -15 -170 -11 -80 -8 130 -11 -115 
-12 -4 -15 -780 -9 145 -7 1064 -13 -1398 -14 989 -6 -458 -16 806 
-2 -444 -7 -275 -12 132 -9 119 -8 95 -8 -254 -7 -262 -15 727 
-4 -117 -10 94 -2 -555 -6 -51 -11 338 -8 -468 4 1065 -8 -232 
-1 117 -10 -376 -6 -402 -2 -145 -5 807 -4 75 -4 -120 -4 -27 
-4 20 -1 -33 -2 22 -3 -151 -5 -91 -1 75 0 290 -5 -531 
-2 -201 -3 -35 -2 -291 -1 239 -2 5 0 -175 -1 546 0 -285 
0 384 1 -441 0 -285 2 831 1 219 0 -590 -4 220 3 -32 
-1 198 10 -176 9 13 -1 -267 8 642 4 -288 0 7 5 -143 
1 -122 4 -293 2 462 4907 2488 100 MP stroke
0 364 6 -395 3 -322 6 203 3 104 5 251 3 -330 6 7 
6 -112 1 465 1 -194 4 364 1 -249 5 357 1 -665 17 467 
0 -237 5 -119 5 -49 0 178 4 -244 4 189 2 -188 7 -126 
9 218 -1 45 6 -392 4 245 10 734 1 -250 1 -342 3 411 
5 -119 10 163 -4 -434 6 -11 1 405 3 -418 3 236 14 203 
9 -203 -2 -67 4 -1711 1 1303 8 -561 15 1314 0 -228 1 -898 
-1 1270 4 -127 4 63 11 -1039 1 674 8 301 -2 -190 7 -91 
-1 291 9 -576 2 187 5 -57 7 -148 2 298 8 305 -9 -410 
10 125 0 -8 3 -362 -6 455 8 -147 11 -874 1 102 2 16 
0 241 2 190 15 166 3 127 2 -220 1 -41 4 90 11 -87 
7 -42 0 -524 2 333 4 188 10 -32 8 478 0 -364 2 93 
6 -350 11 -226 3 -29 4 542 3 -52 13 -387 2 599 4 29 
7 -299 10 113 8 -16 4479 2548 100 MP stroke
0 -223 7 234 7 -225 14 751 1 -219 2 -184 6 -217 13 143 
8 -517 2 247 1 730 5 -18 21 -71 4 -165 2 -64 -3 -1317 
13 943 10 98 5 -232 8 282 -2 277 11 -299 13 -259 7 149 
8 164 4 -53 8 64 6 90 8 -237 10 -221 14 618 11 110 
5 -597 6 -183 9 -656 8 1052 13 181 12 -599 10 -403 9 415 
7 9 7 262 7 258 23 105 7 -72 4 -752 10 620 6 -279 
21 317 6 -644 13 662 9 -881 3 864 12 -663 14 514 9 246 
10 -127 9 -551 11 596 12 -31 12 -349 12 393 9 -16 5 -482 
10 141 6 545 31 114 15 270 -5 -646 13 -50 17 20 1 386 
20 -479 17 -122 9 -22 11 -80 12 559 25 -338 1 19 15 172 
12 458 16 -199 12 -199 15 267 22 186 18 75 9 -185 19 153 
7 -5 36 61 12 -204 22 -219 8 255 15 440 19 336 16 -330 
22 -836 17 726 17 -295 3433 1986 100 MP stroke
16 -261 23 40 18 -51 16 -53 17 225 18 -587 16 178 22 102 
19 -142 19 659 16 125 15 -57 21 199 21 -110 16 193 18 -381 
18 -355 19 433 16 167 26 -288 8 -619 10 703 20 -70 15 359 
18 -267 16 -87 14 -817 13 974 33 8 5 -304 12 3 17 658 
10 -448 16 -315 20 132 8 49 16 53 12 -364 12 572 22 -154 
8 303 16 -169 8 57 12 20 11 -279 16 -31 20 -23 1 -479 
18 190 11 361 17 -69 11 515 17 -645 12 303 19 448 21 -96 
12 -146 16 -576 15 54 13 100 17 544 16 -42 15 -75 13 165 
14 -328 15 -7 17 92 13 -341 13 339 15 -142 15 -140 16 183 
14 -180 14 79 13 539 14 -647 17 -251 16 355 10 -172 15 210 
10 -47 13 -249 14 -707 3 911 14 242 14 -195 11 96 13 32 
12 328 14 239 9 -533 20 -399 11 279 4 286 14 181 10 -144 
12 -239 9 -243 11 375 1982 1652 100 MP stroke
10 149 11 -202 10 14 9 -78 10 -102 10 344 10 -210 7 433 
16 -39 14 -145 5 -498 11 153 5 -8 15 -60 7 -32 4 -76 
7 213 4 92 7 -649 5 921 9 -140 7 -120 8 -45 6 -617 
7 295 5 457 5 244 6 -619 3 305 8 -208 5 -67 6 726 
4 -398 5 -246 2 -128 -1 1 7 -137 5 651 1 -364 2 -87 
0 170 5 -360 0 639 -5 68 5 -882 -2 591 1 -364 -1 278 
-1 379 2 68 -2 70 -9 -586 7 614 -20 52 14 -93 -1 -150 
-10 -372 -11 267 4 -192 -13 258 -11 35 -3 -85 -7 -9 -5 -39 
-6 -473 -8 256 -7 -289 -9 522 -8 109 -10 -144 -8 -497 -11 608 
-8 -379 -14 -8 -5 245 -9 -716 -16 92 -10 343 -10 540 -11 108 
-18 -887 -16 212 -13 -375 -12 520 -13 165 -9 19 -23 -437 -16 322 
-12 -28 -15 -219 -13 -481 -23 899 -14 -474 -14 -482 -14 324 -18 143 
-16 13 -18 -261 -13 807 2208 1475 100 MP stroke
-17 -270 -13 -305 -25 142 -18 632 -5 -556 -17 130 -12 -128 -20 160 
-18 -14 -13 -121 -14 -788 -12 916 -16 -6 -19 -58 -17 -90 -13 -225 
-14 343 -16 -137 -13 117 -21 495 -13 -41 -12 -889 -14 688 -15 -17 
-15 -173 -15 54 -14 -139 -14 -524 -23 118 -6 474 -10 -52 -22 81 
-17 294 -3 -694 -14 -228 -13 134 -18 221 -10 -553 -13 607 -12 223 
-14 56 -14 -361 -14 -346 -10 279 -16 135 -10 -34 -21 -38 -15 155 
0 -1166 -17 585 -7 244 -24 -57 -8 188 -14 -505 -10 -490 -17 886 
-13 52 -16 -265 -10 -5 -12 -129 -8 173 -22 -388 -12 -48 -16 51 
-12 -80 -4 774 -17 -931 -10 -442 -13 672 -10 -236 -17 386 -8 176 
-21 401 -2 -646 -17 -536 -13 840 -22 -1 -4 -421 -22 -97 -6 220 
-9 -167 -13 50 -15 24 -17 365 -3 -326 -17 48 -7 -161 -15 -612 
-8 720 -17 -453 -13 377 -9 93 -14 97 0 141 -14 -272 -20 157 
-4 -607 -2 898 -24 -604 3533 2835 100 MP stroke
-7 296 -5 -46 -16 -16 -23 584 2 -935 -7 -12 -10 277 -8 -143 
-8 -8 -13 193 -10 403 6 81 -14 -284 -5 -75 -5 61 -2 222 
-21 184 -6 105 1 -508 1 -88 -3 70 -7 -118 -4 -721 -8 827 
4 15 -11 202 1 -568 -1 241 -5 -29 -6 215 3 118 -5 -313 
0 -507 -1 346 0 44 -1 631 4 -219 1 703 0 -1010 0 369 
-1 -139 1 355 0 -233 1 20 0 2 4 -304 3 -394 6 999 
0 -607 0 251 3 -297 1 144 2 -103 4 21 4 781 0 -1226 
1 -22 2 -30 3 340 0 -556 0 743 -1 450 0 -352 0 222 
12 -480 0 178 1 522 -1 -590 3 159 -1 324 1 -377 0 250 
-2 -808 2 374 -2 -100 3 223 0 -269 -1 468 -4 151 3 -85 
4 -103 3 -270 0 911 0 -827 -1 -165 1 404 2 -191 2 -599 
0 -54 1 701 0 -823 3 1057 -1 -142 2 -192 -4 510 11 -404 
-2 -31 -2 61 3 -24 3653 2424 100 MP stroke
0 142 1 -182 0 226 0 -670 -1 533 1 -327 1 294 0 256 
0 -553 -1 -41 2 282 2 -313 0 389 0 -197 2 510 -1 -407 
5 -46 2 -109 0 -7 0 484 1 -296 2 -42 4 -327 1 -291 
-4 689 9 41 4 87 -4 -19 4 -115 -4 94 8 -13 6 254 
-1 -404 0 266 2 -30 9 -351 3 275 -2 355 8 -473 5 -111 
0 33 1 -491 -3 632 9 484 4 254 -2 -356 2 211 7 -86 
0 -685 6 761 0 -554 3 -256 1 -874 -1 1063 4 -251 4 5 
4 -38 -4 519 5 -387 10 35 -3 149 3 -196 1 -374 7 971 
0 -569 3 192 3 101 6 -111 0 289 5 -249 6 260 3 -257 
-1 187 6 32 8 -35 -2 -662 7 284 8 360 2 -188 -1 -62 
3 84 8 -615 4 78 2 135 1 661 10 -515 3 62 2 -1025 
4 1355 1 -250 5 -361 6 -52 3 -102 2 574 7 4 -1 -1034 
5 339 3 79 1 784 3409 2229 100 MP stroke
8 -218 3 -245 3 307 4 4 8 636 -2 -872 4 121 3 -46 
0 40 3 211 1 50 0 -38 0 195 12 -1013 4 662 0 -388 
1 -286 1 294 3 -92 -1 287 6 -225 4 251 3 340 0 -401 
3 -323 3 404 -1 89 5 -304 2 181 7 180 2 -604 8 1050 
0 -748 0 584 2 32 4 -181 1 65 14 -141 2 -175 3 -257 
2 353 1 -123 -2 -12 7 -626 5 786 3 -1285 5 802 2 -215 
3 558 3 -164 3 267 6 -291 3 -483 -3 1276 9 -671 2 343 
14 162 12 498 -4 -553 2 -279 -2 -349 3 443 4 61 5 -49 
-1 363 4 -138 5 -303 7 -467 3 468 10 314 -2 -460 8 437 
2 -329 4 -308 9 323 3 -740 7 -215 2 926 6 -15 3 45 
6 -92 9 -105 1 276 8 -629 3 269 11 225 3 -173 5 -475 
6 654 8 363 6 -126 7 -98 4 155 6 63 7 -59 15 131 
1 -155 9 324 5 -102 3013 2007 100 MP stroke
12 -289 8 315 3 123 9 224 8 -88 11 72 14 -667 6 40 
9 359 11 159 11 -2 11 30 9 53 13 -67 9 -354 12 440 
12 -295 11 337 12 -22 12 -174 12 -640 12 468 10 -70 11 45 
13 63 13 133 11 80 11 -335 13 78 10 224 12 -251 14 -115 
13 -202 11 288 9 360 10 -202 14 -31 9 75 18 54 8 -537 
5 471 12 33 8 4 12 -437 8 519 12 -148 7 63 12 293 
8 65 10 -391 5 37 4 425 14 -62 13 -506 8 -142 9 278 
5 -1021 3 818 16 475 9 -456 9 220 7 -98 9 -169 6 330 
7 91 8 -100 9 54 9 -201 9 186 5 6 6 28 6 -20 
6 -99 6 87 5 -271 7 449 6 -330 5 -165 4 381 3 -27 
4 -342 2 248 3 174 6 -194 4 340 2 -194 2 -599 1 231 
4 357 1 165 1 -29 2 -174 3 -441 4 316 1 -289 1 -87 
1 626 1 -803 2 420 2219 1933 100 MP stroke
2 186 3 -25 2 -96 1 456 1 234 2 -511 2 144 4 -29 
2 -584 2 163 1 330 3 176 2 -152 2 -82 5 12 4 -165 
3 -548 3 584 3 22 3 -382 6 630 5 -356 4 72 6 283 
3 126 5 -137 3 -50 7 -171 3 -78 2 -444 6 548 3 162 
5 -97 5 -77 3 -200 4 112 4 -390 1 -59 4 367 3 266 
2 -268 -1 101 2 82 0 -52 1 -104 -1 -113 -2 -319 0 -123 
-2 610 -3 281 -3 -246 -3 -335 -4 -197 -4 -44 -5 390 -4 93 
-6 -124 -11 181 -2 -368 -4 -143 -7 -487 -4 1036 -8 -644 -7 -83 
-11 205 -11 521 -16 -661 -14 83 -11 -129 -3 952 -12 -97 -9 -629 
-11 651 -9 -282 0 -268 -11 186 -15 -632 -10 -324 -12 81 -10 501 
-8 327 -10 107 -15 -266 -29 318 5 -133 -6 -440 -8 -112 -13 295 
-10 -128 -12 -235 -7 58 -20 463 -18 448 5 -1164 -10 496 -12 -192 
-18 -2 -6 -536 -16 608 2536 2499 100 MP stroke
-1 321 -11 26 -9 146 -14 -594 -10 -482 -18 1200 -1 -585 -12 -49 
-7 190 -12 -157 -4 77 -18 271 -2 -479 -9 -117 -8 62 -9 -425 
-7 123 -11 559 -6 -275 -7 -6 -9 -754 -7 620 -10 278 -6 95 
-3 -241 -8 79 -3 351 -9 -172 -13 230 -1 -751 -7 298 -4 -38 
-5 260 -5 -198 -4 -492 -6 159 0 398 -4 -454 -7 212 -5 219 
-4 203 -2 -451 -3 -486 -2 387 -4 -604 -2 147 -2 374 -4 -24 
-2 30 -3 233 0 392 -1 -124 -1 9 0 141 -3 -83 -1 -883 
0 919 0 -354 -1 459 -4 -275 1 -81 1 -171 4 104 0 337 
1 -552 3 798 -1 -466 2 -259 1 303 2 95 1 -11 -8 -12 
4 -302 5 193 0 -318 2 -652 2 1124 2 18 5 -141 1 -24 
4 -125 -1 -237 1 -172 5 1295 2 88 -2 -760 2 -54 7 206 
3 43 2 173 4 -210 -2 -489 2 383 -2 -756 3 1352 -6 -393 
0 -246 13 213 -3 -374 2807 2664 100 MP stroke
7 454 0 -62 -8 -1064 -2 614 -1 -132 -1 278 1 3 -1 2 
1 108 -4 626 7 -619 9 307 -5 -1366 4 1267 -1 -200 -3 92 
1 -141 0 177 -3 -83 -8 -60 -6 321 2 -478 -4 -77 -5 -230 
-1 527 -5 -237 -5 221 1 -412 -6 35 -2 70 -7 469 0 32 
-8 -365 -5 281 -1 -354 -3 -8 -3 121 -3 -213 -3 179 -3 -1090 
-3 943 -2 -60 -3 285 -2 -289 -3 -345 1 490 0 422 -5 -169 
0 -471 -4 674 0 -306 2 -275 -4 369 5 -427 0 430 -2 -173 
0 -388 0 89 -1 206 0 -375 -1 300 -2 37 2 -273 -1 288 
-1 641 1 -667 -2 179 0 315 0 -483 -1 909 -2 -223 1 -460 
-1 426 0 195 -3 -118 0 -295 -1 444 -1 7 0 -1188 0 609 
-2 -8 -1 563 -2 -151 -2 -210 0 -569 -4 277 -1 317 -2 238 
0 -45 -3 237 -3 -900 -1 617 -1 313 -2 566 -3 -274 -2 -746 
-2 187 -1 299 -2 27 2948 1660 100 MP stroke
-3 -353 -3 -88 1 71 -3 -146 -6 -494 -3 293 -1 336 -1 113 
-6 -484 -3 776 -1 234 -4 -686 -4 -263 -3 397 -5 -106 -1 116 
-6 -523 -3 159 -7 211 -4 -414 -2 581 -7 -53 -8 -16 -4 102 
-5 -1036 -7 909 -9 -224 -9 25 -6 365 -8 -276 -10 -53 -7 376 
-9 -324 -10 -91 -10 414 -9 106 -9 -493 -10 -72 -12 686 3165 1585 40 MP stroke
gr

c8
0 sg
%%IncludeResource: font Helvetica
/Helvetica /WindowsLatin1Encoding 120 FMSR

2119  294 mt 
(Digital magnetometers - Standard deviation of position) s
2502 4902 mt 
(Distance to center of sensor network [m]) s
 558 3028 mt  -90 rotate
(sqrt\(Variance\) [mm]) s
90 rotate

end %%Color Dict

eplot
%%EndObject

epage
end

showpage

%%Trailer
%%EOF
