%!PS-Adobe-2.0 EPSF-1.2
%%Creator: MATLAB, The MathWorks, Inc. Version 7.13.0.564 (R2011b). Operating System: Microsoft Windows 7.
%%Title: ..\figures\analog_all_ori_bias.eps
%%CreationDate: 11/13/2012  17:43:34
%%DocumentNeededFonts: Helvetica
%%DocumentProcessColors: Cyan Magenta Yellow Black
%%Extensions: CMYK
%%Pages: 1
%%BoundingBox:    52   199   549   602
%%EndComments

%%BeginProlog
% MathWorks dictionary
/MathWorks 160 dict begin
% definition operators
/bdef {bind def} bind def
/ldef {load def} bind def
/xdef {exch def} bdef
/xstore {exch store} bdef
% operator abbreviations
/c  /clip ldef
/cc /concat ldef
/cp /closepath ldef
/gr /grestore ldef
/gs /gsave ldef
/mt /moveto ldef
/np /newpath ldef
/cm /currentmatrix ldef
/sm /setmatrix ldef
/rm /rmoveto ldef
/rl /rlineto ldef
/s {show newpath} bdef
/sc {setcmykcolor} bdef
/sr /setrgbcolor ldef
/sg /setgray ldef
/w /setlinewidth ldef
/j /setlinejoin ldef
/cap /setlinecap ldef
/rc {rectclip} bdef
/rf {rectfill} bdef
% page state control
/pgsv () def
/bpage {/pgsv save def} bdef
/epage {pgsv restore} bdef
/bplot /gsave ldef
/eplot {stroke grestore} bdef
% orientation switch
/portraitMode 0 def /landscapeMode 1 def /rotateMode 2 def
% coordinate system mappings
/dpi2point 0 def
% font control
/FontSize 0 def
/FMS {/FontSize xstore findfont [FontSize 0 0 FontSize neg 0 0]
  makefont setfont} bdef
/ISOLatin1Encoding where {pop /WindowsLatin1Encoding 256 array bdef
ISOLatin1Encoding WindowsLatin1Encoding copy pop
/.notdef/.notdef/quotesinglbase/florin/quotedblbase/ellipsis/dagger
/daggerdbl/circumflex/perthousand/Scaron/guilsinglleft/OE/.notdef/.notdef
/.notdef/.notdef/quoteleft/quoteright/quotedblleft/quotedblright/bullet
/endash/emdash/tilde/trademark/scaron/guilsinglright/oe/.notdef/.notdef
/Ydieresis WindowsLatin1Encoding 128 32 getinterval astore pop}
{/WindowsLatin1Encoding StandardEncoding bdef} ifelse
/reencode {exch dup where {pop load} {pop StandardEncoding} ifelse
  exch dup 3 1 roll findfont dup length dict begin
  { 1 index /FID ne {def}{pop pop} ifelse } forall
  /Encoding exch def currentdict end definefont pop} bdef
/isroman {findfont /CharStrings get /Agrave known} bdef
/FMSR {3 1 roll 1 index dup isroman {reencode} {pop pop} ifelse
  exch FMS} bdef
/csm {1 dpi2point div -1 dpi2point div scale neg translate
 dup landscapeMode eq {pop -90 rotate}
  {rotateMode eq {90 rotate} if} ifelse} bdef
% line types: solid, dotted, dashed, dotdash
/SO { [] 0 setdash } bdef
/DO { [.5 dpi2point mul 4 dpi2point mul] 0 setdash } bdef
/DA { [6 dpi2point mul] 0 setdash } bdef
/DD { [.5 dpi2point mul 4 dpi2point mul 6 dpi2point mul 4
  dpi2point mul] 0 setdash } bdef
% macros for lines and objects
/L {lineto stroke} bdef
/MP {3 1 roll moveto 1 sub {rlineto} repeat} bdef
/AP {{rlineto} repeat} bdef
/PDlw -1 def
/W {/PDlw currentlinewidth def setlinewidth} def
/PP {closepath eofill} bdef
/DP {closepath stroke} bdef
/MR {4 -2 roll moveto dup  0 exch rlineto exch 0 rlineto
  neg 0 exch rlineto closepath} bdef
/FR {MR stroke} bdef
/PR {MR fill} bdef
/L1i {{currentfile picstr readhexstring pop} image} bdef
/tMatrix matrix def
/MakeOval {newpath tMatrix currentmatrix pop translate scale
0 0 1 0 360 arc tMatrix setmatrix} bdef
/FO {MakeOval stroke} bdef
/PO {MakeOval fill} bdef
/PD {currentlinewidth 2 div 0 360 arc fill
   PDlw -1 eq not {PDlw w /PDlw -1 def} if} def
/FA {newpath tMatrix currentmatrix pop translate scale
  0 0 1 5 -2 roll arc tMatrix setmatrix stroke} bdef
/PA {newpath tMatrix currentmatrix pop	translate 0 0 moveto scale
  0 0 1 5 -2 roll arc closepath tMatrix setmatrix fill} bdef
/FAn {newpath tMatrix currentmatrix pop translate scale
  0 0 1 5 -2 roll arcn tMatrix setmatrix stroke} bdef
/PAn {newpath tMatrix currentmatrix pop translate 0 0 moveto scale
  0 0 1 5 -2 roll arcn closepath tMatrix setmatrix fill} bdef
/vradius 0 def /hradius 0 def /lry 0 def
/lrx 0 def /uly 0 def /ulx 0 def /rad 0 def
/MRR {/vradius xdef /hradius xdef /lry xdef /lrx xdef /uly xdef
  /ulx xdef newpath tMatrix currentmatrix pop ulx hradius add uly
  vradius add translate hradius vradius scale 0 0 1 180 270 arc 
  tMatrix setmatrix lrx hradius sub uly vradius add translate
  hradius vradius scale 0 0 1 270 360 arc tMatrix setmatrix
  lrx hradius sub lry vradius sub translate hradius vradius scale
  0 0 1 0 90 arc tMatrix setmatrix ulx hradius add lry vradius sub
  translate hradius vradius scale 0 0 1 90 180 arc tMatrix setmatrix
  closepath} bdef
/FRR {MRR stroke } bdef
/PRR {MRR fill } bdef
/MlrRR {/lry xdef /lrx xdef /uly xdef /ulx xdef /rad lry uly sub 2 div def
  newpath tMatrix currentmatrix pop ulx rad add uly rad add translate
  rad rad scale 0 0 1 90 270 arc tMatrix setmatrix lrx rad sub lry rad
  sub translate rad rad scale 0 0 1 270 90 arc tMatrix setmatrix
  closepath} bdef
/FlrRR {MlrRR stroke } bdef
/PlrRR {MlrRR fill } bdef
/MtbRR {/lry xdef /lrx xdef /uly xdef /ulx xdef /rad lrx ulx sub 2 div def
  newpath tMatrix currentmatrix pop ulx rad add uly rad add translate
  rad rad scale 0 0 1 180 360 arc tMatrix setmatrix lrx rad sub lry rad
  sub translate rad rad scale 0 0 1 0 180 arc tMatrix setmatrix
  closepath} bdef
/FtbRR {MtbRR stroke } bdef
/PtbRR {MtbRR fill } bdef
/stri 6 array def /dtri 6 array def
/smat 6 array def /dmat 6 array def
/tmat1 6 array def /tmat2 6 array def /dif 3 array def
/asub {/ind2 exch def /ind1 exch def dup dup
  ind1 get exch ind2 get sub exch } bdef
/tri_to_matrix {
  2 0 asub 3 1 asub 4 0 asub 5 1 asub
  dup 0 get exch 1 get 7 -1 roll astore } bdef
/compute_transform {
  dmat dtri tri_to_matrix tmat1 invertmatrix 
  smat stri tri_to_matrix tmat2 concatmatrix } bdef
/ds {stri astore pop} bdef
/dt {dtri astore pop} bdef
/db {2 copy /cols xdef /rows xdef mul dup 3 mul string
  currentfile exch readhexstring pop
  dup 0 3 index getinterval /rbmap xdef
  dup 2 index dup getinterval /gbmap xdef
  1 index dup 2 mul exch getinterval /bbmap xdef pop pop}bdef
/it {gs np dtri aload pop moveto lineto lineto cp c
  cols rows 8 compute_transform 
  rbmap gbmap bbmap true 3 colorimage gr}bdef
/il {newpath moveto lineto stroke}bdef
currentdict end def
%%EndProlog

%%BeginSetup
MathWorks begin

0 cap

end
%%EndSetup

%%Page: 1 1
%%BeginPageSetup
%%PageBoundingBox:    52   199   549   602
MathWorks begin
bpage
%%EndPageSetup

%%BeginObject: obj1
bplot

/dpi2point 12 def
portraitMode 0204 7344 csm

  422   110  5965  4844 MR c np
85 dict begin %Colortable dictionary
/c0 { 0.000000 0.000000 0.000000 sr} bdef
/c1 { 1.000000 1.000000 1.000000 sr} bdef
/c2 { 0.900000 0.000000 0.000000 sr} bdef
/c3 { 0.000000 0.820000 0.000000 sr} bdef
/c4 { 0.000000 0.000000 0.800000 sr} bdef
/c5 { 0.910000 0.820000 0.320000 sr} bdef
/c6 { 1.000000 0.260000 0.820000 sr} bdef
/c7 { 0.000000 0.820000 0.820000 sr} bdef
c0
1 j
1 sg
   0    0 6913 5185 PR
6 w
0 4225 5356 0 0 -4225 899 4614 4 MP
PP
-5356 0 0 4225 5356 0 0 -4225 899 4614 5 MP stroke
4 w
DO
SO
6 w
0 sg
 899  389 mt 6255  389 L
 899 4614 mt 6255 4614 L
6255 4614 mt 6255  389 L
 899 4614 mt  899  389 L
 899 4614 mt 6255 4614 L
 899 4614 mt  899  389 L
 899 4614 mt  899 4560 L
 899  389 mt  899  442 L
%%IncludeResource: font Helvetica
/Helvetica /WindowsLatin1Encoding 120 FMSR

 866 4759 mt 
(0) s
1664 4614 mt 1664 4560 L
1664  389 mt 1664  442 L
1581 4759 mt 
(0.2) s
2429 4614 mt 2429 4560 L
2429  389 mt 2429  442 L
2346 4759 mt 
(0.4) s
3194 4614 mt 3194 4560 L
3194  389 mt 3194  442 L
3111 4759 mt 
(0.6) s
3959 4614 mt 3959 4560 L
3959  389 mt 3959  442 L
3876 4759 mt 
(0.8) s
4724 4614 mt 4724 4560 L
4724  389 mt 4724  442 L
4691 4759 mt 
(1) s
5489 4614 mt 5489 4560 L
5489  389 mt 5489  442 L
5406 4759 mt 
(1.2) s
6255 4614 mt 6255 4560 L
6255  389 mt 6255  442 L
6172 4759 mt 
(1.4) s
 899 4614 mt  925 4614 L
6255 4614 mt 6228 4614 L
 899 4614 mt  952 4614 L
6255 4614 mt 6201 4614 L
 640 4658 mt 
(10) s
%%IncludeResource: font Helvetica
/Helvetica /WindowsLatin1Encoding 80 FMSR

 773 4584 mt 
(-2) s
 899 4296 mt  925 4296 L
6255 4296 mt 6228 4296 L
 899 4110 mt  925 4110 L
6255 4110 mt 6228 4110 L
 899 3978 mt  925 3978 L
6255 3978 mt 6228 3978 L
 899 3875 mt  925 3875 L
6255 3875 mt 6228 3875 L
 899 3792 mt  925 3792 L
6255 3792 mt 6228 3792 L
 899 3721 mt  925 3721 L
6255 3721 mt 6228 3721 L
 899 3660 mt  925 3660 L
6255 3660 mt 6228 3660 L
 899 3606 mt  925 3606 L
6255 3606 mt 6228 3606 L
 899 3557 mt  925 3557 L
6255 3557 mt 6228 3557 L
 899 3557 mt  952 3557 L
6255 3557 mt 6201 3557 L
%%IncludeResource: font Helvetica
/Helvetica /WindowsLatin1Encoding 120 FMSR

 640 3601 mt 
(10) s
%%IncludeResource: font Helvetica
/Helvetica /WindowsLatin1Encoding 80 FMSR

 773 3527 mt 
(-1) s
 899 3239 mt  925 3239 L
6255 3239 mt 6228 3239 L
 899 3053 mt  925 3053 L
6255 3053 mt 6228 3053 L
 899 2921 mt  925 2921 L
6255 2921 mt 6228 2921 L
 899 2819 mt  925 2819 L
6255 2819 mt 6228 2819 L
 899 2735 mt  925 2735 L
6255 2735 mt 6228 2735 L
 899 2665 mt  925 2665 L
6255 2665 mt 6228 2665 L
 899 2603 mt  925 2603 L
6255 2603 mt 6228 2603 L
 899 2549 mt  925 2549 L
6255 2549 mt 6228 2549 L
 899 2501 mt  925 2501 L
6255 2501 mt 6228 2501 L
 899 2501 mt  952 2501 L
6255 2501 mt 6201 2501 L
%%IncludeResource: font Helvetica
/Helvetica /WindowsLatin1Encoding 120 FMSR

 640 2545 mt 
(10) s
%%IncludeResource: font Helvetica
/Helvetica /WindowsLatin1Encoding 80 FMSR

 773 2471 mt 
(0) s
 899 2183 mt  925 2183 L
6255 2183 mt 6228 2183 L
 899 1997 mt  925 1997 L
6255 1997 mt 6228 1997 L
 899 1865 mt  925 1865 L
6255 1865 mt 6228 1865 L
 899 1763 mt  925 1763 L
6255 1763 mt 6228 1763 L
 899 1679 mt  925 1679 L
6255 1679 mt 6228 1679 L
 899 1608 mt  925 1608 L
6255 1608 mt 6228 1608 L
 899 1547 mt  925 1547 L
6255 1547 mt 6228 1547 L
 899 1493 mt  925 1493 L
6255 1493 mt 6228 1493 L
 899 1445 mt  925 1445 L
6255 1445 mt 6228 1445 L
 899 1445 mt  952 1445 L
6255 1445 mt 6201 1445 L
%%IncludeResource: font Helvetica
/Helvetica /WindowsLatin1Encoding 120 FMSR

 640 1489 mt 
(10) s
%%IncludeResource: font Helvetica
/Helvetica /WindowsLatin1Encoding 80 FMSR

 773 1415 mt 
(1) s
 899 1127 mt  925 1127 L
6255 1127 mt 6228 1127 L
 899  941 mt  925  941 L
6255  941 mt 6228  941 L
 899  809 mt  925  809 L
6255  809 mt 6228  809 L
 899  706 mt  925  706 L
6255  706 mt 6228  706 L
 899  623 mt  925  623 L
6255  623 mt 6228  623 L
 899  552 mt  925  552 L
6255  552 mt 6228  552 L
 899  491 mt  925  491 L
6255  491 mt 6228  491 L
 899  437 mt  925  437 L
6255  437 mt 6228  437 L
 899  389 mt  925  389 L
6255  389 mt 6228  389 L
 899  389 mt  952  389 L
6255  389 mt 6201  389 L
%%IncludeResource: font Helvetica
/Helvetica /WindowsLatin1Encoding 120 FMSR

 640  433 mt 
(10) s
%%IncludeResource: font Helvetica
/Helvetica /WindowsLatin1Encoding 80 FMSR

 773  359 mt 
(2) s
 899  389 mt 6255  389 L
 899 4614 mt 6255 4614 L
6255 4614 mt 6255  389 L
 899 4614 mt  899  389 L
gs 899 389 5357 4226 MR c np
/c8 { 0.000000 0.000000 1.000000 sr} bdef
c8
-5 331 -5 143 -4 97 -5 92 -4 77 -5 68 -4 50 -5 43 
-4 37 -4 34 -4 30 -5 28 -4 25 -4 22 -4 19 -5 20 
-4 18 -4 17 -4 14 -4 14 -4 13 -4 12 -4 10 -4 10 
-4 8 -4 8 -4 7 -4 6 -4 5 -4 4 -4 3 -3 2 
-4 2 -4 1 -4 0 -4 -1 -3 -2 -4 -3 -4 -5 -3 -5 
-5 -6 -3 -9 -4 -10 -4 -12 -4 -14 -3 -18 -4 -19 -4 -21 
-3 -23 -4 -24 -3 -27 -3 -29 -4 -29 -3 -29 -3 -29 -3 -27 
-2 -24 -3 -18 -3 -13 -2 -5 -3 1 -2 5 -3 11 -2 16 
-2 19 -2 21 -2 23 -1 23 -2 23 -1 23 -2 21 -2 20 
0 17 -1 16 -1 13 -1 11 0 8 -1 6 0 4 -1 2 
0 -3 1 -4 0 -5 1 -6 1 -5 1 -6 1 -5 1 -3 
1 0 1 3 1 7 2 11 2 15 1 18 1 21 2 22 
3 24 1 23 2 23 2666 1663 100 MP stroke
3 22 2 20 2 18 3 16 2 14 3 12 2 10 3 7 
2 5 3 3 3 0 3 -1 3 -3 2 -5 4 -7 3 -7 
3 -9 3 -10 3 -10 4 -11 2 -11 4 -11 3 -11 3 -10 
4 -10 3 -9 3 -8 3 -7 3 -7 3 -3 2 -3 3 -2 
3 0 3 1 3 2 3 3 2 3 3 4 4 4 2 4 
3 4 3 3 3 2 3 2 2 1 3 -1 3 -1 3 -3 
3 -4 3 -3 2 -5 3 -4 3 -7 3 -8 2 -8 3 -7 
0 -8 2 -9 6 -9 3 -10 0 -9 4 -9 5 -9 3 -8 
4 -7 3 -7 3 -6 3 -5 3 -4 3 -3 3 -2 3 -3 
3 -2 4 -3 3 -4 3 -4 3 -6 3 -7 4 -8 3 -9 
3 -11 4 -11 3 -13 3 -13 4 -14 3 -13 3 -14 4 -12 
5 -9 3 -8 3 -5 4 -2 3 2 4 5 5 9 3 11 
4 14 5 16 3 18 2363 1910 100 MP stroke
3 20 4 20 4 21 4 21 5 21 4 21 5 21 4 19 
4 19 5 18 4 17 5 16 4 16 4 15 5 14 5 14 
4 12 5 12 5 11 5 11 4 10 6 9 5 9 5 8 
5 8 4 7 8 6 5 6 3 5 6 5 6 4 5 4 
5 2 5 3 6 2 6 2 5 2 5 2 7 1 6 2 
4 1 7 2 8 1 5 3 5 2 7 3 4 4 6 4 
6 5 4 6 10 7 5 6 6 8 10 8 5 9 6 9 
8 9 4 9 9 9 5 8 6 8 7 7 6 5 7 5 
5 4 7 2 7 1 6 -2 6 -2 6 -5 7 -6 7 -9 
6 -10 7 -12 5 -14 8 -16 6 -17 7 -18 8 -20 -3 -21 
1 -23 9 -20 6 -22 7 -21 8 -20 7 -19 6 -19 7 -17 
8 -15 7 -13 7 -11 8 -11 5 -8 8 -8 7 -6 6 -5 
7 -5 7 -4 6 -3 1796 1731 100 MP stroke
6 -3 7 -3 6 -3 6 -2 7 -3 6 -2 5 -3 6 -3 
6 -2 6 -3 5 -3 6 -3 5 -3 5 -3 6 -2 5 -3 
5 -3 5 -2 4 -2 5 -2 5 -2 4 -2 4 -1 4 -2 
5 -1 4 -1 3 -1 4 -1 4 -1 4 -1 4 -1 2 -1 
4 -1 3 -2 3 -2 3 -1 3 -2 3 -2 3 -3 2 -2 
3 -2 3 -2 2 -2 2 -1 2 -1 2 -1 2 -1 2 0 
2 -1 1 0 2 0 2 0 1 -1 2 -1 1 -3 0 -3 
2 -5 1 -6 1 -9 1 -11 1 -14 1 -17 0 -20 1 -26 
1 -31 0 -135 1 -67 1 -84 0 -107 1 -142 0 -324 0 613 
1 99 -1 82 0 226 -1 40 0 67 -2 28 0 25 -1 23 
0 21 -1 18 -1 17 -1 16 -1 13 -1 13 -2 12 0 10 
-1 10 -2 9 0 8 -2 8 -2 8 -1 6 -1 7 -1 6 
-1 6 -2 5 -1 6 1597 1429 100 MP stroke
-2 5 -2 4 -1 5 -1 4 -2 4 -2 4 -2 3 -1 4 
-2 3 -1 3 -2 2 -2 3 -1 2 -2 2 -1 2 -2 2 
-3 2 -1 1 -1 2 -2 1 -2 1 -1 1 -2 1 -2 1 
-2 0 -2 1 -1 0 -2 0 -2 0 -1 1 -2 0 -2 0 
-1 -1 -2 0 -1 0 -2 0 -1 0 -2 0 -1 0 -2 -1 
-1 0 -1 0 -2 0 -2 1 -1 0 -2 0 -2 0 -1 0 
-2 1 -2 0 -2 0 -1 0 -2 1 -2 0 -2 0 -1 0 
-1 0 -2 0 -1 0 -2 0 -3 0 1 0 -1 0 -2 0 
-1 0 -1 1 -2 0 -1 0 -1 1 -1 0 -1 1 -1 1 
-1 1 -1 1 0 1 -1 1 -1 1 -1 1 0 1 -1 1 
0 4 -1 1 0 1 -1 1 0 2 -1 1 -1 1 -1 0 
1 -1 -1 -1 -1 0 1 -1 -1 -1 -1 -1 0 -7 -1 -2 
-1 -3 0 -3 -1 -3 1725 1364 100 MP stroke
-1 -3 -1 -4 0 -3 -1 -4 -1 -5 1 -4 -3 -5 -3 -4 
0 -5 -2 -5 -1 -5 -1 -5 -1 -5 -1 -5 -2 -5 -1 -5 
-1 -4 -2 -5 -2 -4 -1 -4 -2 -3 -1 -4 1 -3 -2 -3 
-2 -2 -1 -2 -2 -2 -2 -1 -2 -2 -2 -1 -2 0 -3 -1 
-2 0 -2 0 -3 0 -1 0 -2 -1 -2 0 -1 -1 -2 -1 
-2 -1 -1 -2 -2 -2 -2 -3 -1 -3 -2 -3 -1 -4 -1 -3 
-2 -4 -1 -4 -1 -5 -1 -4 -1 -4 0 -4 -1 -5 -1 -4 
-1 -4 0 -7 -1 -4 0 -18 1 -2 0 -2 1 -2 1 -1 
0 -1 1 -1 1 0 1 0 1 1 0 1 1 2 2 3 
1 3 1 4 1 4 0 5 1 6 2 6 1 7 2 8 
3 8 -1 8 -1 9 1 8 2 8 1 9 1 7 1 8 
1 7 1 7 2 5 1 6 0 5 1 4 3 3 1 3 
0 3 1 2 -2 2 1771 1415 100 MP stroke
1 2 2 1 1 2 -1 1 0 4 -1 2 -1 2 -1 2 
-1 3 -1 3 -1 3 -2 3 -4 3 -1 4 -1 3 -2 3 
-3 2 -3 3 -2 1 -3 2 -3 1 -3 0 -3 0 -3 -1 
-4 -2 -4 -2 -4 -2 -3 -3 -4 -3 -4 -4 -4 -5 -5 -4 
-3 -5 -6 -6 -5 -5 -2 -5 -4 -6 -5 -5 -5 -5 -5 -5 
-4 -5 -4 -4 -5 -4 -3 -4 -5 -3 -4 -3 -4 -2 -4 -2 
-4 -2 -5 -1 -3 -1 -4 0 -3 -1 -4 0 -4 1 -4 0 
-3 1 -4 1 -3 1 -3 1 -4 1 -3 1 -2 1 -4 1 
-3 1 -3 1 -3 1 -3 2 -4 1 -2 1 -3 1 -1 1 
-3 1 -2 1 -2 1 -3 1 -2 1 -2 1 -3 0 -3 1 
-2 0 -1 0 -2 0 -2 0 -2 0 -1 -1 -2 0 -2 -1 
-1 -1 -2 -1 -2 0 -1 -1 -2 -1 -1 -1 -1 0 -1 -1 
-1 -1 -1 0 -1 0 2034 1449 100 MP stroke
-1 0 -1 0 -1 1 -1 1 0 3 -1 1 0 5 1 2 
0 1 1 1 0 2 1 1 0 2 1 1 1 1 1 2 
0 1 1 1 1 1 1 1 1 2 3 1 1 1 0 1 
1 1 2 1 1 1 1 0 1 1 1 1 2 0 1 1 
1 0 2 0 1 1 2 0 1 0 2 -1 3 0 1 -1 
2 -1 1 -1 1 -1 2 -1 2 -1 2 -1 1 -2 2 -1 
1 -2 2 -1 2 -2 1 -1 2 -2 2 -1 2 -2 2 -1 
2 -1 2 -2 1 -1 2 -1 2 -1 1 -1 2 -1 2 0 
3 -1 2 -1 2 -2 2 -1 2 -1 1 -2 2 -2 3 -2 
1 -2 3 -3 1 -2 2 -3 3 -4 2 -3 1 -3 2 -4 
4 -3 5 -3 1 -3 2 -3 2 -2 -1 -1 2 -2 2 0 
1 0 3 0 1 1 2 2 2 1 2 2 1 1 2 0 
2 0 2 -2 1 -3 1893 1491 100 MP stroke
1 -5 2 -8 2 -11 1 -15 1 -18 2 -23 1 -30 2 -35 
1 -44 -1 -57 1 -67 1 -104 3 -59 2 -218 1 -97 2 -238 
2 -117 1 220 1 149 1 129 2 88 1 63 2 43 1 30 
1 13 2 4 1 -11 1 -22 1 -37 1 -52 2 -76 1 -89 
2 -140 1 -119 1 18 3 -164 -3 486 -3 36 3 148 1 79 
1 63 2 53 1 41 2 33 1 26 3 20 1 15 0 11 
2 6 1 4 2 1 3 -1 0 -3 1 -5 1 -6 2 -6 
1 -6 1 -7 2 -6 2 -6 2 -5 1 -4 2 -3 2 -2 
1 -1 4 0 1 1 0 1 2 2 1 2 1 3 2 3 
1 3 2 3 2 3 1 3 3 2 1 3 2 2 1 2 
2 2 1 2 2 1 2 2 1 2 2 1 1 2 2 2 
1 2 2 2 1 3 1 3 1 3 2 3 1 4 2 4 
1 4 2 4 1 5 1756 1545 100 MP stroke
1 4 2 5 2 5 2 5 1 4 1 5 2 4 1 4 
1 4 2 4 1 3 2 3 1 2 2 2 1 2 2 2 
1 1 2 1 1 1 2 0 4 1 3 1 0 1 3 1 
1 2 1 1 2 2 2 3 2 3 2 3 3 4 1 3 
2 5 2 4 2 5 2 4 1 5 2 5 1 4 1 5 
2 4 2 5 1 4 3 4 1 3 2 3 1 3 2 3 
2 2 0 2 2 2 2 1 1 2 2 1 1 1 1 0 
2 1 1 0 2 1 1 0 1 0 1 0 1 0 2 0 
2 0 1 0 1 0 1 0 1 0 2 0 1 0 1 -1 
1 -1 1 0 -1 -1 0 -1 4 -1 2 -2 0 -3 1 -3 
0 -16 1 -4 0 -10 -1 -5 0 -5 1 -5 -1 -6 0 -12 
-1 -6 0 -7 1 -6 -2 -7 0 -7 -1 -7 0 -8 -1 -8 
0 -18 -1 -9 -1 -10 1641 1549 100 MP stroke
-1 -10 -1 -11 -1 -12 -1 -13 -1 -13 -1 -13 -1 -15 -1 -15 
-1 -15 -1 -17 -1 -17 -1 -17 -2 -19 -1 -18 0 -20 -1 -20 
-2 -20 -1 -21 -1 -22 -1 -22 -2 -22 -1 -23 -1 -24 -1 -25 
-2 -24 -1 -26 -2 -25 -2 -27 -1 -26 -1 -27 -2 -28 -1 -27 
-2 -27 -1 -30 -2 -26 -3 -23 -1 -24 0 -22 -3 -19 -2 -19 
-1 -10 -2 -7 -1 -6 -2 -2 -2 1 -2 3 -1 5 -2 6 
-2 8 -2 8 -1 8 -3 10 -2 8 -1 7 -2 11 -2 10 
-3 8 -2 5 -1 7 -2 4 -2 3 -2 5 -3 1 -1 0 
-2 0 -2 -3 -1 -4 -2 -2 -2 -5 -2 -6 -1 -6 -4 -7 
-2 -6 0 -7 -2 -8 -1 -8 -2 -7 -3 -7 -1 -7 -2 -6 
-2 -6 -2 -5 -3 -7 -1 -3 -2 -1 -3 -3 -2 -2 -1 -3 
-2 -1 -2 1 -3 0 -1 -4 -2 -4 -3 -1 -2 -6 -2 -7 
-1 -11 -3 -10 -3 -13 1806 2455 100 MP stroke
0 -16 -2 -19 -2 -24 -2 -22 -2 -29 -1 -38 -2 -23 -3 -28 
-1 -35 -2 -37 -1 -43 -2 -41 -2 -36 -2 -39 -2 -34 -2 -34 
-1 -28 -1 -40 -2 1 -2 -7 -2 10 -2 5 -1 25 -2 22 
-1 21 -2 26 -3 23 -1 29 0 14 -2 43 -1 23 -2 23 
-1 14 -2 23 -1 8 -2 15 -1 5 -1 2 -2 4 -1 -3 
-1 -7 -2 -12 -1 -30 -1 0 -2 -24 -1 -25 -2 -15 -1 -29 
-1 -38 -1 -45 -1 -20 -3 4 -2 -53 0 12 -1 2 -2 -9 
-1 41 -1 40 -2 37 -1 42 0 49 -2 51 -1 50 0 55 
-2 49 0 57 -1 56 -3 47 -1 46 -1 43 0 40 1 35 
0 34 -1 32 0 27 -1 25 0 22 -1 19 -1 17 1 14 
-2 13 -2 10 1 9 -1 7 0 5 2 5 1 2 0 3 
1 1 1 -1 1 -1 0 -1 1 -1 1 -1 0 -1 2 -1 
1 0 1 0 1 1 1901 2007 100 MP stroke
1 1 1 1 1 1 1 1 1 2 2 1 1 2 1 2 
1 1 2 2 1 2 1 1 2 2 1 1 1 1 1 0 
2 1 1 0 1 -1 1 -1 2 -2 2 -2 1 -2 1 -3 
2 -4 1 -4 2 -4 1 -5 1 -5 1 -6 2 -5 1 -6 
1 -6 1 -6 2 -7 1 -6 1 -6 0 -6 2 -6 1 -7 
1 -6 1 -7 1 -6 0 -7 1 -6 2 -7 0 -6 1 -6 
1 -7 1 -5 1 -6 1 -6 1 -4 1 -4 1 -4 1 -4 
1 -2 1 -3 1 -2 1 -2 1 -1 1 -1 1 -2 1 0 
1 -1 1 -1 1 -1 1 0 1 -1 1 0 1 0 1 0 
1 1 1 0 1 2 2 2 1 2 1 2 2 4 2 4 
1 5 1 5 1 7 2 7 1 7 2 8 1 9 2 9 
1 8 1 10 2 10 1 9 1 9 2 9 1 8 1 9 
1 8 1 8 1 8 1785 2023 100 MP stroke
1 7 0 6 1 8 2 7 0 7 -1 7 1 8 1 7 
0 23 1 8 0 33 1 8 -1 8 0 29 -1 7 0 18 
-1 6 0 5 -1 5 0 9 -1 4 0 4 -1 4 0 4 
-1 5 0 8 -1 5 0 4 -1 5 -1 5 -1 5 0 5 
-1 6 0 16 -1 6 -1 5 0 5 -1 5 -2 5 1 5 
-1 4 -1 4 0 8 -1 3 -1 3 -1 3 0 6 -1 2 
0 2 -2 2 -1 2 0 2 -1 2 -1 2 0 1 -1 2 
0 1 -2 2 -1 1 -1 2 -1 1 -1 2 -1 1 -1 2 
0 1 -1 2 -1 1 -1 2 -2 2 -1 1 -1 2 -1 1 
-1 1 -1 2 -2 1 -1 2 -1 1 -1 2 -1 1 -2 2 
-1 2 0 2 -1 2 -2 3 0 3 -2 3 -2 4 0 4 
-1 4 -2 5 -1 4 -2 5 -1 5 1 6 -2 5 -2 5 
-1 6 -1 5 -1 5 1853 1534 100 MP stroke
-2 5 -1 4 0 4 -1 4 -1 4 -1 3 -1 3 -2 2 
-1 2 -1 1 -2 1 -1 0 1 0 -2 -2 -2 -2 -2 -2 
0 -3 -1 -3 -1 -4 -1 -4 -1 -5 -2 -5 -1 -5 -2 -6 
-1 -5 -1 -5 -2 -6 -1 -4 -1 -5 0 -4 -2 -4 -1 -3 
-1 -2 -1 -3 -1 -1 -2 -1 -1 -1 -1 0 -2 -1 -1 0 
-1 0 -1 0 -2 -1 -1 -1 -1 -2 -1 -2 -2 -4 -1 -4 
-1 -6 -1 -6 -2 -8 -1 -9 -1 -10 -1 -12 -2 -12 -1 -13 
-1 -14 -1 -15 -2 -15 -1 -16 -1 -15 -1 -15 -1 -14 -1 -14 
-1 -13 -1 -12 -3 -11 1 -9 0 -8 -2 -7 0 -5 -1 -4 
-1 -3 0 -1 -1 -1 -1 1 0 1 -1 2 0 4 -1 2 
0 5 -1 2 0 9 -1 1 0 5 1 1 -1 2 0 1 
1 2 1 1 0 4 1 2 -1 3 1 2 0 6 1 3 
-1 3 1 4 0 3 1939 1800 100 MP stroke
1 4 0 15 1 4 0 51 -1 3 0 23 -1 4 0 9 
-1 5 0 9 -1 5 0 10 -1 5 0 5 -1 4 0 5 
-1 4 0 4 -1 4 -1 4 0 6 -1 3 0 2 -1 2 
0 2 -1 1 0 2 -2 2 -1 1 -1 1 0 1 -1 1 
0 2 -1 1 -1 2 0 10 -1 3 0 5 -1 4 0 9 
-1 4 0 10 -1 1 0 -2 -1 -4 -1 -6 0 -34 -1 -18 
-1 -23 0 -95 -1 -43 1 -52 -1 -61 1965 1886 54 MP stroke
1 148 2 112 2 -49 2 135 1 185 2 53 2 60 2 49 
2 48 1 39 2 34 2 26 2 21 2 15 2 9 1 5 
2 -1 2 -6 1 -12 2 -19 2 -16 2 -20 1 -22 2 -23 
2 -18 3 -16 2 -16 1 -16 3 -1 2 -10 2 -5 2 0 
2 -9 1 3 2 9 2 9 2 8 2 19 2 21 2 28 
2 34 2 38 2 38 2 37 0 74 4 36 3 32 2 32 
2 32 2 29 1 26 2 28 3 28 1 26 2 24 2 23 
2 22 2 21 1 21 2 20 2 19 2 17 1 17 2 17 
2 16 1 15 2 14 2 14 1 13 2 13 2 12 1 12 
2 12 2 10 3 11 2 9 1 9 3 8 2 7 3 7 
2 6 2 5 3 3 2 4 3 2 2 2 3 0 4 0 
2 -2 2 -2 3 -3 5 -4 5 -5 2 -5 4 -6 2 -7 
1 -6 6 -8 4 -7 4183 1172 100 MP stroke
3 -7 5 -7 4 -7 3 -7 4 -6 4 -5 4 -5 5 -4 
4 -4 5 -4 4 -3 5 -3 5 -2 4 -3 5 -2 5 -3 
5 -3 5 -4 5 -4 5 -5 5 -5 5 -6 5 -7 5 -8 
5 -9 5 -11 5 -12 5 -12 5 -14 5 -15 6 -17 5 -17 
5 -18 6 -19 5 -19 5 -18 5 -18 6 -16 6 -12 5 -10 
6 -6 5 -2 6 1 5 6 6 8 6 11 6 12 5 13 
6 13 6 12 6 11 5 11 6 9 6 7 6 6 6 4 
5 2 7 1 6 0 6 -2 6 -3 6 -4 6 -6 6 -6 
7 -7 6 -8 7 -9 6 -10 6 -10 7 -11 6 -11 6 -11 
7 -11 6 -10 6 -10 6 -10 7 -8 6 -7 6 -5 6 -3 
6 -1 7 0 5 2 7 3 6 3 5 5 7 4 5 5 
6 3 6 4 6 2 5 0 6 -1 6 -2 5 -4 6 -5 
5 -6 6 -7 5 -10 3639 1571 100 MP stroke
6 -10 5 -11 5 -12 5 -11 5 -13 5 -12 5 -13 5 -12 
5 -11 5 -11 5 -9 4 -9 5 -8 4 -7 5 -7 6 -5 
4 -4 3 -4 4 -3 4 -3 4 -5 4 -4 5 -3 3 -6 
3 -7 3 -7 3 -7 3 -9 5 -10 3 -11 2 -10 2 -10 
3 -12 2 -10 3 -8 2 -8 2 -7 3 -6 3 -10 0 -7 
3 1 1 -4 2 -7 2 -1 1 -1 1 -3 3 -3 0 -3 
3 1 1 1 0 2 1 5 1 5 0 4 1 6 0 5 
1 6 0 17 1 7 -1 8 0 9 1 10 -1 13 -1 15 
0 74 -2 20 1 21 0 61 -1 18 0 18 -1 16 0 15 
-1 15 0 25 -1 11 0 26 -1 7 0 6 -1 5 0 9 
-1 1 0 1 0 -3 -1 -2 0 -7 -1 -5 0 -5 -1 -5 
0 -12 1 -7 0 -29 1 -3 0 -2 1 0 0 6 1 6 
0 6 1 8 0 10 3472 1505 100 MP stroke
1 11 0 12 1 13 0 14 1 14 0 15 1 15 1 15 
1 14 1 14 1 13 1 12 1 11 1 10 1 9 0 7 
1 5 1 4 0 2 1 0 1 -1 1 -3 0 -4 1 -6 
1 -7 0 -9 1 -10 1 -11 1 -12 1 -13 0 -13 1 -14 
1 -15 0 -15 1 -15 0 -15 2 -16 1 -15 -1 -15 1 -14 
0 -41 1 -13 0 -11 1 -12 0 -10 1 -10 0 -9 1 -8 
0 -8 1 -7 2 -7 2 -6 0 -6 -1 -4 1 -4 2 -4 
-1 -2 -2 -2 1 -1 0 2 1 4 0 17 1 10 0 148 
-1 13 1 12 0 21 1 10 0 62 1 4 0 6 1 3 
0 6 1 2 0 -1 1 -1 -1 -3 1 -3 0 -47 1 -10 
0 -43 -1 -11 0 -11 1 -11 -1 -10 0 -20 -1 -9 1 -9 
-1 -8 0 -14 -1 -6 0 -6 -1 -5 0 -4 -1 -4 0 -4 
-1 -2 -1 -3 -1 -1 3434 1609 100 MP stroke
-1 -2 -1 -1 -1 -2 -1 -1 -1 -1 -1 -2 -2 -2 -1 -4 
-1 -5 -2 -6 -1 -7 -2 -8 -1 -10 -1 -12 -2 -14 -1 -15 
-2 -17 -2 -18 -1 -19 -2 -21 -1 -21 -2 -22 -2 -22 -1 -22 
-2 -22 -3 -21 -2 -20 -2 -20 -2 -16 -2 -16 -2 -11 -2 -8 
-2 -9 -2 -3 -2 5 -2 5 -1 10 -2 13 -2 16 -2 17 
-2 19 -2 20 -2 20 -1 21 -2 20 -2 19 -2 19 -1 17 
-2 15 -1 15 -2 12 -1 10 -1 8 -2 5 -1 4 -1 0 
-1 -1 -1 -6 -1 -7 -1 -8 -1 -8 -1 -12 -1 -14 -1 -14 
0 -15 -1 -14 -1 -15 0 -15 -1 -14 0 -36 -1 -12 0 -55 
1 -11 0 -26 1 -5 0 -4 1 -2 1 -1 0 2 1 3 
1 4 0 3 1 2 1 8 1 6 1 3 1 3 1 2 
1 2 1 7 2 10 1 11 2 10 1 15 1 16 2 18 
2 19 1 18 2 18 3508 1834 100 MP stroke
2 19 2 18 3 16 2 14 2 13 3 12 2 10 2 9 
3 8 3 6 2 5 3 3 3 3 3 4 3 2 3 1 
3 1 3 0 3 0 4 -2 3 -2 3 -2 4 -3 4 -5 
3 -6 4 -7 4 -8 4 -9 4 -11 4 -12 4 -14 4 -16 
4 -15 4 -18 4 -19 4 -19 5 -21 4 -20 5 -19 4 -18 
5 -18 5 -14 5 -13 5 -9 5 -8 5 -5 5 4 6 1 
5 4 5 3 6 7 6 6 5 4 6 0 6 3 6 -1 
6 -3 6 -7 6 -10 7 -14 6 -19 6 -22 7 -28 6 -34 
6 -43 7 -54 7 -51 6 -39 7 -49 6 -36 7 -13 7 10 
6 53 7 70 7 66 7 62 6 56 7 50 6 49 7 41 
7 36 7 34 6 29 7 24 6 25 7 23 6 20 6 19 
7 17 6 17 6 16 6 15 7 16 6 16 6 14 6 15 
6 14 6 14 6 13 3013 1560 100 MP stroke
5 12 6 11 6 10 5 9 6 8 5 8 5 5 5 5 
6 5 3 2 5 3 7 1 4 1 3 0 5 0 5 -1 
4 0 4 -1 4 -1 4 -1 3 -1 3 0 4 -1 3 0 
3 0 2 1 3 1 2 0 3 1 2 1 2 1 2 1 
1 0 2 1 1 0 1 -1 1 0 1 -1 1 -1 1 -1 
0 -1 1 -1 0 -1 -1 1 0 8 -1 5 0 5 -1 7 
-1 8 0 8 -1 9 -2 10 -1 10 -1 9 -2 10 -1 10 
-1 9 -2 9 -2 8 -1 7 -2 6 -2 6 -1 4 -2 4 
-2 2 -2 1 -2 0 -3 -1 -2 -2 -2 -3 -2 -5 -2 -4 
-2 -6 -1 -7 -3 -7 -3 -8 -2 -8 -3 -9 -3 -10 -3 -10 
-2 -10 -4 -12 -3 -12 -2 -12 -4 -14 -3 -14 -2 -14 -3 -15 
-3 -14 -4 -14 -2 -13 -2 -12 -4 -10 -3 -8 -3 -6 -3 -3 
-3 -1 -3 2 -3 3 2992 1589 100 MP stroke
-4 4 -2 5 -3 5 -3 7 -3 6 -3 6 -3 4 -3 4 
-3 2 -2 1 -3 -1 -4 -2 -3 -2 -2 -4 -3 -6 -3 -7 
-2 -7 -3 -8 -3 -9 -3 -9 -3 -9 -3 -9 -2 -9 -3 -7 
-3 -7 -3 -5 -3 -4 -3 -1 -2 -1 -3 2 -3 3 -3 4 
-2 4 -3 5 -2 6 -1 8 -3 7 -2 7 -3 7 -2 8 
-2 7 -3 7 -2 7 -2 7 -3 7 -2 6 -2 7 -2 6 
-3 5 -1 5 -1 5 -3 4 -2 4 -2 2 -2 1 -2 1 
-3 -1 -2 -2 -1 -3 -2 -5 -2 -6 -3 -7 -2 -9 -1 -10 
-2 -11 -2 -11 -2 -14 -2 -13 -2 -14 -1 -15 -2 -15 -2 -16 
-1 -15 -2 -14 -2 -14 -1 -13 -2 -13 -1 -11 -2 -12 -1 -9 
-2 -5 -1 -5 -1 -4 -2 0 -1 1 -1 3 -1 6 -2 7 
-1 8 -1 9 -1 10 -1 9 -1 10 -1 10 0 9 -1 8 
-1 6 0 5 -1 4 3199 1672 100 MP stroke
0 4 -1 1 -1 0 0 -6 -1 -6 0 -24 -1 -11 0 -70 
1 -14 0 -33 1 -17 0 -33 1 -15 0 -15 1 -13 1 -12 
1 -10 0 -8 1 -4 1 -4 1 -1 1 1 1 2 1 3 
2 2 1 1 1 1 2 0 1 -1 2 -4 1 -2 2 -4 
1 -6 2 -5 2 -5 2 -5 2 -5 2 -3 2 -4 2 -3 
2 -3 2 -3 2 -3 2 -5 3 -5 2 -5 3 -5 3 -8 
2 -9 3 -9 2 -10 3 -12 3 -13 3 -14 2 -13 3 -13 
3 -13 3 -15 3 -14 3 -12 4 -13 3 -8 3 -5 3 -3 
3 3 4 5 3 8 3 8 4 15 3 12 3 13 4 12 
4 5 3 11 4 7 4 2 3 2 4 -4 4 -8 4 -4 
4 -5 4 -10 4 -15 4 -8 4 -5 4 -8 5 -8 4 -9 
4 -1 4 -1 4 3 4 2 4 11 4 10 5 11 4 19 
4 17 4 17 5 20 2963 2086 100 MP stroke
4 22 4 20 5 20 4 18 4 19 5 17 4 15 4 11 
5 13 4 10 4 8 5 6 4 4 5 2 4 0 5 -1 
4 -3 4 -4 5 -5 4 -6 5 -7 4 -5 5 -6 4 -6 
5 -5 5 -7 4 -3 5 -5 4 -3 5 -5 4 -4 5 -3 
5 -2 5 -1 5 -2 5 -2 4 1 5 -3 5 9 5 7 
5 8 4 10 5 12 5 12 4 16 6 16 4 17 5 18 
4 17 5 17 5 16 4 16 4 15 5 14 5 12 4 11 
4 10 4 8 5 7 4 5 4 5 4 4 4 2 4 3 
4 3 4 2 3 3 4 3 4 4 3 5 4 5 3 6 
4 7 3 8 3 8 4 7 3 10 3 9 3 8 3 9 
3 8 3 7 3 6 3 5 3 4 3 4 2 2 2 1 
3 -1 3 -2 2 -2 2 -4 3 -4 2 -6 2 -6 1 -6 
2 -6 2 -6 2 -6 2574 1616 100 MP stroke
2 -6 1 -5 1 -5 1 -4 2 -4 0 -3 1 -2 1 -1 
1 0 1 0 -1 0 2 3 0 28 -1 5 0 4 -1 4 
0 4 -1 3 -1 3 -1 3 -1 3 -2 2 -1 1 -1 1 
-2 1 -1 0 -2 -1 -2 -1 -2 -2 -2 -3 -2 -4 -1 -5 
-3 -6 -2 -7 -2 -8 -3 -9 -2 -11 -3 -13 -3 -13 -2 -15 
-3 -17 -3 -18 -3 -19 -2 -20 -3 -22 -3 -22 -4 -23 -3 -22 
-2 -23 -3 -21 -3 -20 -3 -19 -2 -18 -3 -13 -3 -10 -3 -9 
-3 -6 -2 1 -3 1 -3 3 -3 5 -3 7 -3 13 -3 11 
-3 10 -3 12 -3 13 -3 11 -3 11 -3 9 -3 10 -3 8 
-3 7 -3 5 -3 3 -3 1 -3 4 -2 0 -3 -2 -3 -4 
-2 -5 -3 -6 -3 -7 -3 -9 -3 -11 -2 -9 -3 -12 -3 -11 
-3 -12 -3 -12 -3 -13 -3 -13 -2 -9 -3 -12 -3 -10 -3 -12 
-3 -8 -3 -5 -2 -5 2775 2023 100 MP stroke
-3 -6 -3 -3 -2 -4 -3 -3 -3 -1 -2 2 -3 2 -2 5 
-2 6 -3 7 -2 6 -2 15 -2 12 -2 14 -2 13 -2 15 
-1 12 -2 17 -2 12 -2 15 -1 12 -1 12 -2 10 -1 9 
-2 8 -1 8 -1 5 -1 6 -1 6 -1 5 -1 4 -1 5 
-2 4 0 5 -1 6 -1 5 -1 7 -1 7 -1 7 0 8 
-1 9 -1 9 0 10 -1 9 -2 10 0 18 -1 8 0 8 
-1 7 0 5 -1 4 -1 4 0 3 -1 1 -1 1 0 -3 
-1 -2 0 -4 -1 -4 0 -13 -1 -5 0 -18 -1 -6 0 -6 
1 -7 0 -40 1 -8 0 -39 1 -11 0 -9 1 -10 0 -9 
1 -9 1 -9 0 -7 1 -8 1 -7 1 -8 1 -6 1 -7 
1 -6 1 -9 1 -9 2 -9 1 -12 1 -12 2 -17 2 -15 
1 -16 1 -18 2 -18 2 -17 2 -16 3 -17 2 -9 2 -3 
2 5 3 8 3 15 2811 2072 100 MP stroke
2 19 3 23 3 24 4 27 3 25 3 24 4 26 4 24 
3 23 4 21 4 19 5 18 4 16 4 15 5 13 5 11 
4 11 5 10 5 7 5 7 5 5 5 4 6 3 5 3 
6 2 5 1 6 0 6 1 6 1 6 0 6 1 6 1 
6 1 6 1 6 2 7 2 6 3 6 3 6 4 6 3 
7 3 5 3 6 4 7 2 6 3 5 1 6 1 6 -1 
5 -1 5 -3 5 -3 5 -5 4 -6 5 -7 4 -8 5 -10 
4 -9 4 -9 4 -10 3 -11 4 -11 3 -11 4 -10 3 -11 
3 -10 3 -10 3 -9 2 -9 2 -9 3 -8 2 -8 1 -8 
2 -7 2 -7 1 -6 1 -6 1 -5 1 -6 1 -5 1 -5 
1 -5 0 -5 1 -5 0 -6 1 -6 0 -7 1 -9 1 -9 
0 -35 1 -16 0 -35 1 -20 0 -43 1 -23 0 -22 -1 -20 
-1 -23 1 -17 0 -13 2464 2214 100 MP stroke
-2 -5 0 -1 -1 6 -1 11 -1 19 -1 23 -1 28 -1 31 
-1 32 0 34 -1 33 -2 33 -1 31 -1 31 -2 29 -1 28 
-2 25 -2 24 -1 22 -2 20 -2 17 -2 16 -2 14 -2 13 
-3 11 -2 9 -2 8 -3 7 -2 6 -2 5 -3 5 -2 4 
-2 3 -4 3 -1 4 -2 4 -3 4 -2 3 -3 4 -3 4 
-3 4 -3 5 -2 4 -3 5 -3 5 -3 5 -3 5 -3 6 
-3 6 -3 6 -3 7 -2 7 -2 6 -3 7 -3 8 -2 8 
-3 7 -3 8 -2 7 -2 7 -2 8 -2 7 -3 7 -3 6 
-2 6 -2 6 -2 5 -3 5 -1 4 -2 3 -2 3 -3 1 
-1 1 -2 -1 -2 -2 -2 -2 -2 -4 -1 -5 -2 -6 -2 -7 
-2 -8 -1 -8 -1 -9 -2 -9 -1 -10 -1 -10 -1 -10 -1 -10 
-1 -11 -1 -9 -2 -10 -1 -10 -1 -9 -2 -9 -1 -10 -1 -9 
-1 -10 0 -9 -1 -9 2652 1637 100 MP stroke
-1 -9 -1 -9 -1 -9 0 -10 -1 -9 -1 -9 -1 -10 0 -9 
-1 -9 -1 -10 0 -8 -1 -9 -1 -8 0 -8 -1 -8 0 -9 
-1 -8 0 -9 -1 -8 0 -10 -1 -9 0 -9 -1 -9 0 -9 
-1 -9 0 -15 -1 -7 0 -9 -1 -3 0 -1 -1 1 0 11 
-1 6 0 51 0 -5 1 -3 0 -3 1 -4 0 -9 1 -3 
0 -5 1 -4 1 -5 0 -4 1 -3 1 -4 1 -3 1 -3 
1 -3 1 -2 1 -2 2 -1 1 1 2 2 1 1 2 4 
2 5 1 5 2 6 2 6 2 7 2 6 3 7 2 5 
2 5 2 4 3 3 2 2 3 1 3 0 3 -1 3 -3 
3 -3 3 -2 3 -3 4 -4 3 -4 4 -4 3 -2 4 -2 
4 -3 4 -1 4 -2 4 -2 4 -1 5 -2 4 -2 4 -2 
4 -3 5 -3 4 -3 4 -2 5 -3 5 3 4 4 5 7 
5 11 4 15 5 19 2505 1820 100 MP stroke
5 22 5 24 4 25 5 25 5 25 5 23 4 22 5 21 
5 18 4 16 5 14 5 12 4 10 5 8 5 6 4 4 
4 2 4 1 4 -1 4 -1 4 -3 4 -4 4 -5 3 -5 
4 -5 4 -6 3 -6 4 -5 3 -5 3 -4 3 -4 3 -2 
3 -2 2 0 3 0 1 3 2 3 3 4 1 4 2 4 
1 5 1 5 1 4 2 5 1 4 1 4 0 16 -1 2 
-1 1 0 4 -1 1 -1 2 -1 2 0 3 -1 2 0 2 
-1 2 0 2 -1 1 -1 1 -1 1 0 -3 -1 -3 0 -9 
-1 -7 0 -8 -1 -8 0 -10 -1 -10 0 -77 1 -5 1 -3 
0 -3 1 1 0 1 1 1 1 2 1 2 0 3 2 2 
1 1 1 0 1 0 1 -2 1 -2 2 -4 1 -4 1 -7 
2 -7 2 -8 1 -9 2 -11 2 -11 2 -13 2 -14 2 -13 
2 -16 3 -15 2 -16 2323 1798 100 MP stroke
2 -16 2 -17 3 -16 2 -17 3 -14 2 -15 3 -13 3 -13 
3 -12 2 -11 4 -10 2 -10 3 -5 3 -5 3 -5 3 -3 
3 -2 3 0 3 0 3 3 4 3 3 5 3 6 3 6 
3 8 3 8 2 8 3 8 3 9 3 8 3 9 3 7 
3 7 3 6 2 6 3 4 3 4 2 3 3 2 3 0 
2 0 3 -1 3 -2 2 -4 3 -5 2 -5 2 -8 3 -8 
2 -9 2 -11 2 -13 2 -13 2 -16 1 -16 2 -19 2 -20 
1 -20 1 -23 2 -23 1 -25 1 -25 1 -25 1 -25 0 -24 
1 -24 1 -18 0 -18 1 -12 0 -11 1 -2 0 -1 0 53 
1 20 -1 22 0 85 -1 19 0 16 -1 15 0 12 -1 9 
-1 7 -1 4 0 2 -1 -2 -1 -5 -1 -9 -1 -11 -1 -15 
-1 -19 -2 -21 -1 -24 -1 -29 -1 -31 -2 -36 -1 -37 -1 -41 
-2 -46 -1 -43 -1 -47 2187 2440 100 MP stroke
-2 -46 -1 -46 -1 -43 -1 -41 -2 -37 -1 -34 -1 -26 -1 -17 
-2 -6 -1 -3 -1 -1 -2 8 -1 2 -1 17 -1 13 -2 12 
-1 10 -1 6 -2 7 -1 7 -1 5 -1 5 -2 0 -1 -3 
-1 2 -2 -6 -1 6 -1 0 -1 -2 -2 -2 -1 -2 -2 7 
-1 3 -2 7 -1 4 -2 4 -2 5 -1 10 -2 9 -1 9 
-1 6 -2 1 -1 9 -2 -3 -1 13 -2 2 -1 4 -2 11 
-1 8 -2 15 -1 25 -1 26 -2 29 -1 39 -2 32 -1 45 
-1 37 -1 38 -2 36 -1 29 -1 33 -1 23 -1 22 -1 17 
-1 12 -1 4 -1 7 0 -4 -1 -3 -1 -11 -1 -15 -1 -13 
-1 -21 0 -20 -1 -19 -1 -22 0 -20 -1 -11 -1 -15 -1 7 
0 2 -1 12 0 16 -1 16 0 24 -1 22 0 49 -1 23 
0 115 1 -2 0 -8 1 -8 0 -6 1 -9 0 -12 1 -6 
0 -2 1 -2 0 1 2285 2019 100 MP stroke
1 5 0 7 1 10 0 12 1 14 1 17 1 18 0 18 
1 18 1 19 1 18 1 19 0 16 1 16 1 15 1 13 
1 13 1 11 0 10 1 9 0 7 1 7 0 7 1 5 
1 6 0 9 1 5 0 9 1 5 0 10 1 6 0 11 
1 5 0 16 1 5 0 4 1 4 0 4 1 3 0 3 
1 3 1 2 1 3 0 2 1 2 1 3 0 4 1 3 
1 3 1 3 0 4 1 3 0 4 1 5 0 4 1 5 
0 5 1 4 0 5 1 5 0 11 -1 3 2 2 2 2 
-3 2 -1 1 1 -1 -1 2 1 0 0 -2 2 -1 1 -1 
1 -1 2 -2 1 -1 -1 -2 0 -4 1 -1 -1 -2 0 -1 
1 -1 0 -2 -1 -1 0 -14 -1 -4 0 -9 -1 -6 1 -7 
-1 -6 0 -8 -1 -8 0 -8 -1 -9 0 -19 -1 -10 0 -9 
-1 -10 0 -9 -1 -7 2248 1681 100 MP stroke
-1 -7 0 -11 -1 -59 0 64 -1 6 0 14 -2 9 0 9 
1 9 -1 10 0 9 -1 9 0 8 1 7 -1 6 0 6 
-1 5 -1 4 0 4 -1 2 -1 2 -1 0 -1 -2 0 -2 
-1 -3 -1 -3 0 -4 -1 -4 0 -5 -1 -5 0 -5 -1 -6 
-1 -6 2 -7 -1 -7 -1 -6 -1 -7 -1 -7 0 -7 -1 -7 
-1 -8 0 -7 -1 -7 -1 -7 0 -8 -1 -7 0 -8 -1 -8 
0 -9 -1 -8 -1 -9 0 -10 -1 -10 0 -41 -1 -11 1 -12 
0 -10 -1 -11 0 -59 1 -7 1 -8 0 -28 1 -6 0 -9 
1 -4 1 -4 0 -3 1 -1 1 1 1 0 1 1 1 2 
1 3 1 4 1 5 1 4 1 5 1 5 1 6 1 4 
0 12 3 5 1 5 0 3 1 6 1 6 3 4 3 4 
1 3 1 2 2 2 1 1 1 -1 1 3 2 1 1 1 
2 0 2 1 3 1 2231 1889 100 MP stroke
2 2 2 3 2 4 2 6 1 6 3 7 1 7 2 8 
2 9 2 9 2 8 2 9 2 8 2 9 1 7 2 8 
2 6 2 7 2 6 2 5 1 6 2 6 2 5 2 4 
2 4 2 4 2 4 1 3 2 3 2 3 2 3 2 2 
2 2 2 2 2 2 2 1 2 1 2 1 2 2 1 1 
2 1 2 1 2 1 2 2 2 1 2 2 1 1 2 2 
2 2 2 2 1 2 2 1 2 2 1 2 2 2 2 2 
1 2 2 2 2 2 1 2 2 3 1 2 2 3 2 2 
1 3 2 3 1 3 2 2 1 3 1 2 1 2 2 2 
1 1 2 1 1 0 1 0 2 -1 1 -1 2 -2 1 -2 
2 -3 1 -3 2 -3 1 -3 2 -4 1 -4 2 -3 1 -4 
2 -3 1 -4 1 -3 2 -3 1 -3 1 -3 2 -3 1 -4 
1 -3 1 -4 1 -4 2066 1700 100 MP stroke
1 -4 1 -5 0 -5 1 -6 1 -7 1 -8 0 -9 1 -9 
1 -11 1 -12 1 -12 1 -14 0 -14 1 -16 1 -17 1 -17 
1 -18 1 -18 1 -18 1 -19 2 -19 1 -19 1 -18 1 -19 
2 -18 1 -17 1 -17 1 -18 2 -15 1 -16 2 -15 1 -15 
2 -17 1 -13 2 -14 1 -14 2 -14 2 -14 1 -13 2 -17 
2 -7 2 -12 2 -8 2 -11 1 -4 2 -8 2 0 2 -3 
2 2 1 2 2 4 2 6 2 11 1 13 2 15 2 16 
2 19 1 20 2 26 1 27 2 29 1 31 2 31 1 34 
1 34 1 33 1 32 2 33 1 32 1 30 2 29 1 27 
1 25 1 22 1 20 1 19 0 16 1 15 1 12 2 10 
1 8 1 7 1 5 2 4 2 4 0 2 1 2 2 2 
1 3 1 2 1 4 2 4 1 5 2 7 1 7 2 9 
2 9 1 11 1 10 1936 1534 100 MP stroke
2 12 1 11 2 12 2 11 1 11 3 10 3 10 1 9 
2 9 2 7 2 6 2 6 2 4 2 3 3 3 2 1 
1 0 3 -1 2 -2 3 -3 2 -4 2 -4 3 -6 3 -6 
2 -7 3 -7 2 -8 2 -9 4 -9 2 -10 2 -9 3 -10 
2 -11 3 -10 3 -11 3 -11 2 -11 4 -12 2 -11 2 -12 
4 -11 2 -12 3 -11 3 -12 3 -12 2 -12 0 -12 1 -12 
4 -11 1 -12 3 -12 2 -11 3 -12 2 -11 2 -12 2 -11 
2 -11 2 -11 2 -11 1 -11 2 -11 2 -11 1 -11 2 -10 
1 -10 2 -10 1 -9 1 -9 1 -8 1 -7 1 -7 1 -5 
1 -4 1 -3 1 -2 1 0 -1 0 2 4 1 3 0 5 
1 7 0 15 1 8 0 37 1 9 -1 8 0 34 -1 2 
0 2 -1 -1 -1 -2 0 -2 -1 -4 0 -10 -1 -6 -1 -7 
-1 -7 -1 -8 0 -9 1784 1862 100 MP stroke
-1 -9 -2 -10 -1 -10 -1 -10 -1 -11 -1 -11 -1 -12 -1 -11 
-1 -13 -1 -12 -1 -12 -2 -13 -1 -13 -1 -12 -2 -12 -2 -12 
-1 -11 -1 -10 -2 -8 -1 -7 -2 -5 -1 -3 -2 0 -1 1 
-1 4 -2 5 -1 7 -2 7 -2 10 -1 9 -1 10 -2 9 
-2 10 -1 9 -2 9 -2 8 -1 7 -2 7 -2 7 -2 6 
-2 5 -2 5 -2 5 -2 5 -2 5 -2 5 -2 5 -1 5 
-2 6 -2 6 -2 6 -2 7 -1 7 -3 7 -4 8 -2 9 
-2 8 -3 9 -1 9 -3 9 -2 9 -2 9 -2 9 -2 9 
-2 9 -1 9 -2 9 -1 9 -2 9 -2 9 0 8 -2 8 
-1 8 2 8 -1 8 -1 7 -1 8 0 14 -1 8 -1 7 
-1 7 0 28 -1 7 0 19 1 6 0 27 1 5 0 5 
1 5 0 5 1 5 0 6 1 5 1 6 1 7 0 21 
1 7 0 8 1 8 1900 1472 100 MP stroke
1 8 0 16 1 9 1 8 0 16 1 8 0 20 -1 6 
0 5 1 4 -1 4 0 3 1 3 -1 1 -1 1 1 1 
0 -2 -1 -1 1 -2 0 -62 -1 -8 0 -38 -1 -8 0 -8 
-1 -8 0 -16 -1 -9 -1 -8 0 -18 -1 -10 -1 -10 0 -10 
-1 -12 -1 -11 -1 -13 0 -13 -1 -15 -1 -15 -1 -15 -1 -17 
-1 -18 -1 -18 -1 -20 -1 -20 -2 -21 -1 -23 0 -23 -1 -24 
-2 -25 -2 -26 -1 -26 -1 -28 -2 -28 -1 -29 -1 -30 -2 -29 
-3 -30 0 -29 -1 -29 -2 -29 -2 -28 -2 -29 -1 -27 -1 -28 
-2 -25 -1 -27 -2 -28 -2 -34 -2 -35 -1 -25 -2 -25 -2 -31 
-2 -33 -1 -36 -2 -29 -2 -31 -2 -21 -1 -17 -2 -5 -2 4 
-2 15 -2 33 -1 31 -2 35 -2 38 -2 40 -2 33 -1 43 
-2 37 -2 35 -2 35 -2 33 -1 32 -2 30 -2 32 -2 28 
-2 27 -1 27 -2 25 2005 2094 100 MP stroke
-2 23 -2 23 -2 21 -2 19 -1 19 -2 19 -2 17 -2 16 
-2 15 -2 13 -2 14 -2 12 -2 11 -1 11 -2 10 -2 10 
-2 8 -2 8 -2 8 -1 7 -2 6 -2 6 -2 5 -2 4 
-2 4 -2 3 -2 3 -3 2 -2 1 -2 1 -3 1 -2 0 
-2 0 -3 -1 -2 -1 -3 -2 -3 -2 -2 -2 -3 -2 -3 -3 
-3 -3 -3 -3 -2 -3 -3 -4 -3 -3 -3 -4 -3 -3 -3 -4 
-3 -3 -3 -4 -3 -3 -3 -4 -3 -4 -4 -3 -3 -4 -3 -5 
-3 -4 -3 -4 -3 -5 -3 -4 -3 -5 -3 -5 -3 -4 -3 -5 
-2 -5 -3 -4 -3 -4 -3 -4 -3 -3 -3 -3 -2 -3 -3 -2 
-3 -2 -3 -1 -3 0 -3 0 -3 2 -3 2 -3 2 -3 4 
-3 3 -3 5 -3 5 -3 5 -4 5 -3 6 -3 5 -3 5 
-4 5 -3 5 -4 5 -3 4 -4 4 -3 4 -4 3 -3 4 
-4 3 -3 3 -4 3 2271 1819 100 MP stroke
-3 3 -3 3 -4 3 -4 3 -3 3 -4 2 -3 2 -4 2 
-4 0 -3 0 -4 -1 -3 -3 -4 -4 -3 -6 -4 -7 -4 -9 
-3 -12 -4 -13 -3 -16 -3 -19 -4 -21 -3 -23 -3 -26 -3 -30 
-3 -32 -3 -35 -3 -38 -3 -42 -2 -44 -3 -47 -2 -49 -2 -52 
-3 -54 -2 -56 -2 -57 -2 -57 -1 -56 -2 -53 -2 -50 -1 -39 
-2 -36 -1 -18 -1 -10 -2 -1 -1 9 -1 16 -1 22 -1 25 
-1 26 -1 26 -1 27 -1 28 -1 27 -1 28 -2 24 0 22 
-1 21 -1 17 -1 18 0 14 -2 12 0 10 -1 9 -1 5 
0 6 -1 3 -1 3 0 1 -1 2 -1 0 0 3 -1 3 
0 3 -1 5 0 13 -1 9 0 32 -1 13 0 124 1 10 
0 20 1 10 0 20 1 10 1 10 0 10 1 10 1 10 
0 11 1 11 1 10 1 11 1 10 2 11 1 9 1 11 
2 9 1 9 1 10 2405 1986 100 MP stroke
2 8 2 9 2 9 1 8 3 9 2 8 2 9 2 8 
2 10 3 10 2 10 2 10 3 11 2 12 3 12 2 12 
3 12 3 12 2 12 3 13 2 11 4 12 2 10 3 9 
3 9 3 7 4 7 2 6 4 4 3 4 3 3 4 3 
1 2 7 1 -2 2 -3 2 4 2 -5 3 7 3 10 3 
-1 5 7 4 2 4 1 5 5 4 2 4 4 4 2 3 
5 3 4 2 -1 1 13 1 11 0 1 0 4 -1 4 -2 
3 -1 4 -3 2 -3 4 -4 3 -3 4 -4 4 -4 3 -4 
3 -4 3 -3 4 -2 5 -1 6 -1 3 0 3 1 4 3 
3 4 3 4 3 6 4 6 2 7 3 8 3 8 3 10 
2 10 4 11 2 12 3 13 3 13 3 15 3 14 3 16 
3 16 3 16 3 16 4 16 2 17 3 16 2 16 3 15 
3 15 3 14 3 13 2103 1348 100 MP stroke
3 12 3 11 3 9 3 8 3 7 3 5 3 3 4 1 
4 0 3 -2 3 -5 4 -6 3 -7 3 -10 3 -12 3 -13 
3 -15 3 -16 3 -18 3 -19 2 -20 3 -20 3 -20 2 -20 
3 -19 3 -17 2 -14 3 -11 2 -7 2 -3 2 1 3 6 
2 9 3 12 2 14 2 15 2 16 1 16 2 16 2 16 
2 15 1 14 1 13 2 11 2 10 2 9 1 8 1 6 
1 5 1 4 1 3 1 1 1 0 1 -1 1 -2 2 -3 
0 -4 1 -4 1 -5 1 -6 1 -6 2 -6 1 -6 1 -6 
1 -6 1 -6 2 -6 1 -6 2 -5 2 -5 1 -4 2 -5 
2 -4 2 -3 3 -4 2 -3 2 -3 2 -3 2 -3 3 -3 
3 -2 3 -3 2 -3 3 -2 3 -3 3 -3 2 -2 3 -2 
3 -3 3 -2 3 -2 2 -2 4 -2 3 -2 3 -2 3 -1 
3 -2 3 -2 4 -2 1879 1506 100 MP stroke
3 -2 3 -2 3 -2 4 -2 3 -2 3 -2 4 -2 3 -2 
2 -2 2 -3 4 -2 2 -2 2 -3 3 -2 2 -3 2 -2 
3 -3 2 -2 2 -3 2 -3 2 -3 2 -3 1 -3 2 -3 
1 -3 1 -3 1 -4 1 -4 1 -4 1 -4 0 -65 -1 -8 
0 -17 -1 -8 0 -9 -1 -9 -1 -10 0 -9 -2 -10 -1 -10 
-1 -10 -1 -10 -1 -10 -1 -10 -1 -10 -1 -10 -1 -11 -2 -10 
-2 -10 -1 -11 -1 -11 -1 -11 -2 -12 -1 -13 -2 -13 -4 -14 
-2 -15 -1 -17 -2 -18 -1 -18 -2 -21 -1 -23 -2 -24 -1 -24 
-2 -29 -1 -29 -2 -32 -1 -35 -1 -38 -2 -40 -1 -44 -1 -48 
-1 -50 -1 -56 -2 -61 -1 -67 0 -74 -1 -80 0 -85 -1 -84 
-1 -69 -1 -30 -1 20 -1 62 0 140 -1 64 0 58 -1 53 
0 320 1 26 0 48 1 23 0 216 -1 19 0 39 -1 19 
1 20 1 19 -1 20 1877 1862 100 MP stroke
-1 19 -1 19 -1 18 0 18 -2 17 0 17 -1 15 -1 15 
-1 14 -2 13 -1 13 -1 11 -1 10 -1 10 -2 9 -2 9 
-1 9 -1 8 -2 9 -1 9 -2 10 -1 10 -2 11 -2 11 
-2 13 -1 13 -2 13 -3 14 -1 15 -2 13 0 14 7 14 
-2 12 -1 11 0 9 -3 7 0 6 -2 3 -1 -2 -2 -5 
0 -7 -2 -11 -1 -14 0 -16 -2 -20 1 -23 -3 -24 0 -29 
-1 -29 -10 -31 -2 -33 0 -28 -2 -30 0 -26 -1 -23 0 -20 
-1 -17 -1 -13 -1 -10 0 -7 -1 -5 -1 -5 0 -3 -1 -3 
-1 -2 0 -3 -1 -2 -1 -2 1 -3 1 -3 -2 -2 0 -3 
-1 -4 0 -4 -1 -4 1 -5 0 -6 -1 -6 -1 -7 -1 -6 
0 -25 -1 -4 0 -3 -1 -2 0 -1 0 1 -1 2 -1 3 
0 4 -1 5 0 7 -1 6 0 7 -2 8 -1 7 0 8 
-1 8 -1 7 0 7 1969 1852 100 MP stroke
-1 7 -1 7 -2 5 -1 5 -1 6 -1 4 -1 4 -1 3 
-2 2 -2 2 -1 2 -2 2 -2 1 -2 0 -1 1 -2 0 
-2 0 -3 -1 -2 -1 -2 0 -3 0 -2 0 -2 0 -3 0 
-3 1 -3 2 -3 3 -2 4 -4 4 -3 5 -3 6 -4 7 
-3 6 -3 7 -4 7 -3 7 -5 6 -3 6 -4 5 -4 5 
-4 3 -4 2 -4 3 -5 2 -4 1 -4 0 -5 0 -4 -1 
-5 0 -4 -1 -3 1 -5 0 -4 2 -5 1 -4 3 -4 3 
-5 3 -4 4 -4 4 -4 4 -4 4 -4 3 -4 2 -4 2 
-4 1 -4 1 -3 0 -4 -1 -5 -2 -3 -3 -4 -4 -4 -4 
-3 -4 -3 -5 -4 -5 -3 -5 -4 -5 -3 -4 -3 -4 -3 -4 
-3 -4 -3 -3 -3 -3 -2 -2 -3 -2 -3 -2 -3 -3 -2 -3 
-2 -4 -3 -5 -2 -6 -2 -6 -2 -7 -3 -9 -2 -10 -2 -11 
-1 -13 -2 -13 -2 -14 2268 1845 100 MP stroke
-1 -15 -2 -16 -1 -16 -2 -16 -2 -16 -1 -17 -1 -15 -2 -16 
0 -17 -2 -20 -1 -13 -2 -13 -1 -16 0 -16 -2 -20 -1 -23 
-1 -21 -1 -24 -1 -28 -1 -28 -2 -32 -1 -40 -1 -31 -1 -31 
0 -26 -1 -13 -1 -8 -1 0 -2 11 -1 15 0 15 -1 9 
-1 10 -1 23 -1 15 -1 1 0 -1 -1 -1 -1 -5 -1 -10 
-1 -11 -1 -13 -1 -15 0 -20 -1 10 -2 7 0 10 -1 13 
-1 21 -1 26 -1 28 -1 24 -1 25 -1 29 -1 25 -1 24 
0 21 -2 17 -1 17 0 18 -1 14 -1 13 -2 12 -1 12 
-1 12 -1 9 -2 9 -2 9 -1 8 -2 7 -1 8 -2 9 
-1 9 -2 9 -1 8 -2 10 -2 11 -2 11 -2 12 -1 11 
-2 11 -2 11 -2 11 -2 10 -2 9 -1 9 -2 7 -2 6 
-2 5 -2 3 -2 3 -2 1 -2 0 -2 0 -2 -2 -1 -2 
-2 -2 -2 -3 -3 -2 2397 1776 100 MP stroke
-1 -2 -2 -2 -4 -2 -3 -1 -1 1 -2 2 -2 3 -2 4 
-1 4 -2 5 -2 6 -2 7 -2 6 -1 7 -2 6 -2 6 
-2 6 -1 4 -2 3 -1 3 -2 1 -1 1 -2 -1 -1 -3 
-2 -3 -1 -5 -1 -5 -1 -7 -2 -8 -1 -10 -1 -11 -1 -11 
-1 -12 -1 -13 -1 -15 -1 -15 -1 -16 -1 -16 -1 -18 -1 -18 
-1 -20 -1 -21 -1 -22 -1 -24 -1 -31 -1 -26 -1 -32 -1 -34 
-1 -39 -1 -45 -1 -51 -1 -59 0 -68 -1 -82 0 -95 -1 -119 
-1 -135 0 -119 -1 -43 0 53 -1 128 0 214 -1 74 0 148 
-1 39 0 60 -1 16 0 42 -1 20 0 15 -1 11 0 19 
-1 4 0 11 -1 2 -1 0 1 -1 2 -2 0 -4 -1 -4 
0 -4 -1 -6 -1 -4 -1 -3 0 -5 -1 -3 0 -3 -1 0 
-1 0 -1 1 0 2 -1 2 -1 1 0 2 -1 0 -1 0 
0 -2 -1 -2 -1 -3 2494 2142 100 MP stroke
-1 -4 0 -12 -1 -6 0 -8 -1 -7 0 -8 -1 -7 -1 -6 
0 -4 -1 -3 -1 -2 -1 1 -1 3 -1 6 0 7 -1 9 
-1 11 -1 12 -1 13 -1 13 -1 13 -2 14 -1 14 -1 13 
-1 14 -2 12 -1 13 -2 13 -1 13 -2 12 -2 13 -1 13 
-2 12 -1 13 -2 13 -2 14 -1 13 -2 13 -2 13 -2 13 
-2 12 -1 11 -2 10 -2 8 -2 9 -2 8 -2 5 -1 4 
-2 3 -3 1 -1 1 -1 -1 -2 -3 -2 -3 -1 -4 -2 -5 
-1 -6 -2 -5 -1 -7 -1 -7 -1 -7 0 -7 -1 -7 -1 -6 
0 -6 -1 -6 0 -10 -1 -4 0 -10 1 -3 0 -2 1 -1 
1 -4 1 0 1 -3 1 -2 1 -2 1 -5 1 -5 1 -8 
2 -8 2 -11 1 -11 2 -13 1 -16 2 -16 3 -18 2 -20 
2 -21 2 -23 2 -25 2 -24 3 -26 2 -29 3 -29 2 -32 
3 -33 2 -36 3 -37 2527 2368 100 MP stroke
3 -38 2 -43 3 -46 2 -48 3 -52 3 -49 3 -45 2 -33 
2 -19 3 2 2 29 3 42 3 45 2 49 2 45 2 40 
2 38 3 34 2 33 2 25 2 24 2 21 2 19 2 15 
1 13 1 10 2 8 2 5 2 4 1 2 1 0 2 -2 
1 -3 2 -5 1 -5 1 -7 1 -8 1 -9 1 -9 1 -9 
1 -10 1 -9 1 -10 0 -20 1 -4 0 -8 1 -6 1 -3 
-1 -7 1 3 2 -4 0 -89 -1 -19 0 -21 -1 -23 0 -26 
-1 -26 -1 -30 0 -63 -1 -36 -1 -32 0 -35 -1 -40 -1 -29 
-1 -18 0 -19 -1 -15 -1 -9 -2 4 -1 7 0 15 -2 17 
-1 28 -1 41 -1 42 -1 54 -1 46 -1 47 -1 39 -1 43 
-1 32 -1 40 -1 33 -1 28 -2 25 -1 21 -1 17 -1 18 
-1 13 -1 9 -1 12 -1 10 -1 7 -1 6 -1 6 -1 5 
-1 7 -1 6 0 6 2484 2219 100 MP stroke
-1 7 -1 7 -1 8 -1 12 -1 11 -1 13 -1 13 -1 13 
-1 15 -1 14 -1 15 -1 15 0 18 -1 17 -1 17 -1 19 
-1 18 -1 17 -1 17 -1 19 0 18 -1 19 -1 17 -1 18 
0 16 -1 16 -1 16 -1 15 -1 13 -1 14 0 23 -1 12 
-1 10 0 9 -1 9 -2 8 -1 7 -1 7 0 7 -2 6 
-1 7 -1 6 -2 6 0 6 -1 6 -2 6 -1 6 -2 7 
-1 6 -1 7 -1 6 -1 6 -2 7 -1 6 -1 6 -1 5 
-2 4 -1 5 -1 4 -1 3 -2 3 -1 2 -1 2 -2 1 
-1 1 -1 1 -1 1 -2 1 -1 1 -1 2 -2 1 -1 3 
-2 3 -1 4 -1 5 -2 5 -1 6 -2 5 -1 7 -2 6 
-1 5 -2 6 -1 5 -1 4 -1 4 -2 3 -1 3 -2 1 
-2 1 -1 0 -1 -1 -2 -1 -1 -2 -2 -2 -1 -2 -2 -2 
-2 -3 0 -2 -2 -2 2599 1484 100 MP stroke
-1 -2 -2 -1 -1 -1 -1 0 -2 0 -1 1 -2 1 0 1 
-1 2 -3 3 -2 3 0 3 -1 3 -1 4 -2 4 -1 4 
-1 5 -1 4 -1 4 -2 4 0 3 -2 3 0 3 -2 2 
-2 1 -2 0 -1 0 0 -2 -3 -2 -3 -3 -2 -4 -2 -5 
-2 -6 -2 -6 -2 -7 -2 -7 -2 -9 -3 -7 -2 -8 -2 -7 
-3 -7 -4 -7 -2 -5 -3 -5 -3 -3 -3 -2 -3 -1 -3 0 
-3 1 -3 3 -3 2 -3 3 -3 4 -3 3 -4 2 -2 2 
-4 1 -4 1 -2 -2 -3 -2 -4 -3 -3 -5 -3 -6 -3 -7 
-3 -9 -3 -7 -4 -9 -3 -9 -3 -9 -3 -7 -3 -7 -3 -6 
-3 -3 -3 -1 -3 0 -3 2 -3 4 -3 5 -3 6 -3 6 
-2 6 -4 7 -2 5 -3 5 -2 2 -4 2 -5 1 0 -2 
-1 -4 -4 -5 -1 -7 -3 -9 -2 -9 -2 -11 -3 -12 -2 -12 
-2 -12 -2 -11 -2 -10 2830 1656 100 MP stroke
-2 -9 -2 -7 -1 -3 -2 -1 -2 3 -1 4 -2 8 -2 10 
-2 13 0 14 -1 15 -2 16 -2 16 -1 17 -1 16 -2 15 
-1 15 -2 14 -1 13 -1 12 -1 11 -2 9 -1 8 -2 7 
-1 6 -2 5 -1 3 -2 2 -2 2 -2 0 -1 -1 -2 -1 
-2 -3 -2 -3 -2 -3 -3 -4 -2 -5 -2 -4 -2 -4 -3 -4 
-2 -4 -2 -4 -4 -3 -2 -3 -3 -2 -3 -2 -2 -1 -3 -1 
-2 -1 -3 -1 -3 -1 -2 -1 -2 -1 -3 -2 -3 -2 -3 -2 
-2 -3 -3 -4 -3 -4 -2 -5 -3 -6 -3 -6 -3 -7 -3 -8 
-3 -8 -2 -8 -3 -9 -3 -10 -3 -10 -3 -11 -2 -11 -3 -12 
-2 -11 -3 -12 -3 -13 -2 -12 -2 -13 -2 -12 -3 -12 -2 -12 
-2 -11 -2 -10 -2 -10 -2 -7 -2 -7 -1 -4 -1 -3 -3 -2 
-1 1 -1 2 -2 2 -1 4 -2 4 -1 5 -2 5 -1 4 
-2 3 -1 2 -1 2 3032 1724 100 MP stroke
-2 0 -1 -2 -1 -4 -1 -5 -1 -7 -2 -8 -1 -9 -1 -11 
-1 -12 -1 -10 -1 -11 -1 -10 -2 -9 -1 -7 -1 -4 -1 -2 
-1 1 -1 4 -1 7 -1 9 -2 11 -1 12 -1 14 -1 14 
-1 16 -1 20 -2 18 -1 19 -1 19 -1 19 -1 20 -2 19 
-1 18 -1 19 -2 18 -1 17 -2 17 -2 16 -2 16 -1 14 
-3 14 -1 13 -2 12 -2 11 -1 10 -2 9 -2 8 -1 7 
-2 6 -2 5 -2 3 -2 3 -3 1 -2 -1 -2 -2 -2 -3 
-3 -5 -2 -6 -3 -8 -2 -9 -3 -10 -2 -12 -1 -13 -4 -14 
-2 -15 -3 -15 -3 -16 -3 -17 -3 -15 -2 -15 -3 -15 -3 -14 
-3 -11 -4 -10 -3 -8 -3 -6 -4 -4 -3 -3 -3 -1 -4 1 
-3 2 -3 3 -4 3 -3 5 -4 5 -4 5 -3 6 -4 6 
-4 7 -3 6 -5 7 -3 6 -4 5 -4 6 -4 6 -4 5 
-4 6 -4 5 -4 4 3253 1525 100 MP stroke
-4 3 -5 2 -4 2 -4 1 -5 -1 -4 -1 -4 -4 -5 -4 
-4 -5 -5 -5 -5 -6 -4 -5 -5 -6 -5 -5 -5 -3 -4 -2 
-5 -1 -5 2 -5 3 -4 6 -6 9 -4 10 -4 12 -5 14 
-5 14 -6 15 -5 16 -5 16 -5 15 -5 15 -6 14 -5 13 
-5 11 -5 9 -5 8 -5 6 -5 5 -5 3 -5 2 -5 0 
-5 -1 -5 -2 -4 -4 -5 -4 -5 -5 -4 -5 -4 -5 -4 -6 
-4 -6 -4 -6 -4 -5 -4 -6 -3 -5 -3 -6 -3 -5 -3 -5 
-3 -4 -3 -5 -2 -5 -3 -5 -2 -5 -2 -5 -2 -5 -2 -4 
-2 -5 -2 -5 -2 -5 -1 -5 -1 -4 -1 -4 -1 -3 -1 -3 
-1 -2 -1 0 1 0 -2 3 0 23 1 6 0 13 1 6 
0 5 1 6 0 4 1 4 1 3 0 3 1 2 1 2 
0 1 1 1 1 1 0 2 1 1 1 2 0 3 1 4 
1 5 1 6 0 6 3528 1385 100 MP stroke
1 8 0 9 1 9 0 10 1 10 0 10 1 11 0 29 
1 9 0 27 -1 4 0 4 -1 0 -1 -1 -1 -2 0 -3 
-1 -4 -2 -6 -1 -6 -1 -8 -1 -8 -2 -9 -2 -9 -1 -10 
-2 -10 -2 -10 -2 -10 -3 -10 -2 -10 -2 -8 -3 -8 -3 -8 
-2 -6 -3 -6 -2 -5 -4 -3 -2 -4 -4 -1 -7 -1 0 -1 
-2 0 -5 1 -2 1 -4 2 -3 2 -3 2 -4 2 -3 3 
-4 2 -4 3 -3 3 -4 3 -3 2 -4 3 -3 2 -4 2 
-4 3 -3 2 -4 2 -3 2 -4 2 -3 2 -4 2 -4 2 
-1 1 -8 2 -3 1 -1 0 -8 1 -1 0 -5 -1 -2 0 
-4 -1 -3 -2 -3 -1 -3 -2 -2 -2 -4 -3 -2 -2 -3 -3 
-3 -3 -2 -3 -3 -2 -2 -2 -3 -3 -2 -1 -2 -2 -3 -1 
-2 -1 -2 -1 -2 0 -1 -1 -2 1 -2 1 -2 2 -1 2 
-2 3 -1 4 -1 5 3756 1376 100 MP stroke
-2 5 -1 7 -1 7 -1 8 -1 9 -1 8 -1 9 -1 7 
-1 7 -1 6 0 5 -1 3 -1 2 -1 -2 -1 -4 0 -14 
-1 -11 0 -27 -1 -16 0 -143 1 -29 0 -57 -1 -28 1 -26 
0 -24 1 -21 1 -18 0 -13 1 -11 1 -6 1 -4 1 -1 
1 4 1 7 1 10 1 11 2 13 1 15 2 16 1 16 
2 17 2 15 2 16 2 14 3 13 3 12 1 10 3 9 
3 8 3 7 2 6 3 5 3 4 3 3 3 4 3 2 
4 3 3 3 3 2 3 3 3 2 4 1 3 3 3 2 
4 1 3 3 3 2 4 2 3 2 4 2 3 1 3 2 
3 1 3 1 5 1 3 0 3 0 3 -1 3 -2 4 -2 
3 -2 4 -4 3 -3 3 -4 3 -5 3 -4 2 -4 3 -5 
4 -3 3 -2 2 -2 2 -2 2 -1 5 1 2 1 0 2 
1 3 2 3 5 3 3583 1507 100 MP stroke
3 3 -2 4 2 2 4 2 0 1 -1 1 -1 -1 4 -3 
2 -4 -3 -4 0 -5 1 -7 0 -8 1 -8 0 -9 -1 -9 
0 -17 1 -8 1 -7 0 -13 1 -1 0 5 1 5 0 7 
1 8 0 9 1 11 0 10 1 11 0 11 1 9 0 8 
1 7 0 5 1 4 1 1 -1 -2 1 -2 1 -6 0 -8 
1 -10 0 -44 1 -18 1 -20 1 -21 2 -22 0 -22 1 -23 
0 -21 1 -18 2 -19 0 -17 1 -16 2 -13 1 -12 1 -10 
1 -9 1 -8 1 -6 1 -5 2 -4 0 -3 3 -1 4 -1 
0 2 2 3 1 3 3 6 2 8 2 9 3 9 2 11 
2 12 2 12 2 12 2 13 2 11 3 11 2 10 3 10 
2 9 3 6 1 4 2 4 3 1 2 0 2 -2 2 -5 
2 -8 3 -9 1 -11 3 -14 1 -15 0 -17 5 -19 2 -20 
2 -23 3 -24 1 -21 3461 1870 100 MP stroke
3 -26 1 -24 2 -21 2 -21 1 -19 2 -15 1 -10 2 -6 
2 1 1 9 3 13 1 19 2 25 2 27 2 31 2 30 
1 34 2 34 2 33 2 32 1 32 2 30 1 29 2 27 
1 25 2 23 2 22 1 19 1 18 2 16 1 13 1 12 
1 11 1 8 2 7 1 5 1 5 0 3 1 2 1 2 
1 1 1 1 1 0 1 1 1 0 -1 0 2 3 1 1 
0 2 1 1 0 2 1 2 0 2 1 2 0 2 1 2 
0 2 1 2 0 2 1 3 0 2 1 3 0 4 1 4 
0 4 1 5 0 6 1 6 0 13 1 7 0 14 1 6 
0 6 1 5 0 8 1 2 1 0 1 -1 0 -21 1 -11 
0 -12 1 -15 0 -17 1 -20 0 -22 1 -25 1 -28 0 -29 
1 -33 1 -35 0 -38 1 -40 1 -41 1 -43 1 -42 1 -41 
1 -36 1 -31 2 -24 3361 1894 100 MP stroke
1 -17 1 -8 2 -2 1 2 2 6 2 13 2 15 3 15 
2 16 2 19 3 18 2 22 3 22 2 20 0 17 3 16 
4 12 2 11 2 8 2 4 4 1 3 -2 2 -6 4 -10 
2 -14 4 -17 3 -22 3 -26 3 -29 3 -32 3 -34 3 -42 
3 -49 3 -50 3 -56 3 -70 3 -83 3 -91 3 -137 4 -150 
2 -268 3 -75 3 335 3 182 3 145 3 117 2 103 3 89 
3 77 3 71 2 65 3 59 3 53 2 49 2 45 3 42 
3 38 2 34 3 32 3 29 2 27 3 23 2 22 2 19 
4 17 2 14 2 13 3 12 2 10 3 8 2 7 2 6 
3 4 3 4 2 3 2 3 3 1 1 2 3 1 4 0 
3 0 1 0 2 -1 3 -1 3 -1 2 -1 3 -2 2 -1 
1 -2 3 -3 2 -2 2 -3 2 -3 2 -4 3 -3 2 -4 
2 -4 3 -5 3 -4 3110 1230 100 MP stroke
2 -5 2 -5 2 -4 2 -5 2 -4 1 -4 2 -4 1 -3 
2 -3 1 -2 1 -2 1 -1 1 -1 1 0 1 -1 1 0 
1 0 0 -11 -1 -5 0 -5 -1 -6 -1 -6 -1 -7 -1 -8 
-1 -7 -1 -7 -1 -7 -2 -7 -1 -5 -2 -4 -1 -2 -2 -1 
-2 0 -2 2 -2 4 -2 6 -2 7 -2 8 -2 9 -2 10 
-3 11 -2 11 -2 11 -2 11 -2 11 -3 11 -2 10 -2 10 
-2 9 -2 9 -3 7 -2 7 -2 7 -2 6 -2 5 -3 5 
-1 4 -2 4 -2 3 -2 4 -2 3 -1 3 -2 4 -1 3 
-2 3 -1 4 -1 4 -1 4 -1 3 -1 4 0 4 -1 3 
0 11 1 -1 0 -2 1 -2 1 -3 1 -5 0 -5 1 -7 
1 -8 2 -8 2 -10 1 -10 2 -11 2 -12 2 -12 3 -13 
2 -13 3 -12 3 -13 3 -11 3 -11 3 -10 3 -9 4 -8 
3 -6 4 -4 3 -3 3121 1316 100 MP stroke
4 -1 4 1 4 2 4 4 4 5 5 6 3 7 5 8 
3 8 5 8 9 8 1 8 1 6 6 6 3 5 4 4 
4 2 3 2 4 0 3 -1 4 -3 3 -3 3 -4 3 -6 
3 -6 3 -6 3 -7 2 -7 3 -7 2 -7 3 -6 2 -5 
2 -4 2 -2 2 -2 2 0 1 0 2 3 1 3 2 5 
1 5 1 5 1 6 1 6 1 5 0 5 1 4 1 3 
0 2 1 1 1 0 0 -20 -1 -5 1 -4 0 -4 -1 -4 
0 -7 -1 -1 0 -1 -2 -2 0 -10 -1 -3 1 -3 -1 -4 
0 -4 1 -3 -1 -3 0 -3 1 -3 -1 -1 1 -2 -1 5 
1 -6 0 6 -2 -2 0 -2 -1 -2 0 -7 -1 -4 0 -5 
-1 -4 0 -5 -1 -5 0 -4 -1 -4 0 -3 -1 -3 0 -3 
0 3 -1 3 -1 4 1 5 0 6 -1 6 0 15 -1 7 
-1 8 0 15 -1 7 3002 1306 100 MP stroke
-1 6 -1 6 0 6 -1 4 -1 4 0 5 -1 2 -1 0 
-1 -2 0 -4 -1 -3 0 -8 -1 -5 0 -19 -1 -4 0 -13 
-1 -4 0 -9 -1 -2 -2 -3 1 -2 0 -2 -1 -2 1 -3 
0 -11 1 -4 0 -3 1 -4 1 -3 0 -8 1 -4 0 -9 
1 -3 1 -3 1 -2 0 -5 1 -1 0 -2 2 -2 1 -2 
0 -2 1 -3 1 -4 1 -3 0 -4 1 -4 1 -5 1 -6 
1 -6 1 -7 1 -8 1 -7 1 -8 1 -9 0 -9 2 -9 
0 -8 1 -9 1 -10 1 -9 0 -8 2 -7 1 -8 0 -16 
1 -7 1 -6 0 -18 1 -5 -1 -6 -1 -5 0 -4 -2 -5 
-1 -5 0 -6 -1 -5 -1 -6 0 -6 -1 -7 -1 -7 -2 -9 
0 -9 -1 -10 -1 -11 -2 -11 -1 -13 -1 -14 -3 -14 1 -15 
0 -17 -3 -16 -2 -17 -2 -17 -2 -17 -2 -19 -2 -16 -3 -13 
-2 -14 -3 -12 -2 -9 3023 1964 100 MP stroke
-3 -6 -3 -2 -2 2 -3 7 -3 11 -2 15 -3 13 -3 11 
-3 12 -2 8 -3 9 -3 11 -3 6 -3 1 -3 2 -2 2 
-3 1 -3 1 -3 1 -2 4 -3 7 -3 11 -3 15 -3 13 
-2 15 -3 18 -2 17 -3 14 -2 14 -2 12 -3 10 -2 8 
-2 6 -2 3 -2 3 -2 2 -1 -1 -2 -1 -2 -2 -1 -2 
-1 -3 -2 -3 -1 -2 -1 -1 -1 0 -1 1 -1 3 0 28 
1 8 0 23 1 7 1 6 1 6 0 5 2 3 2 2 
1 0 4 -3 0 -3 1 -5 2 -5 3 -6 2 -7 3 -6 
2 -6 3 -5 3 -4 3 -2 3 -1 3 1 5 3 1 5 
-1 6 5 8 5 8 3 9 7 8 3 9 6 9 8 7 
2 8 4 6 4 6 5 5 7 5 5 3 5 2 5 2 
4 1 6 0 5 -1 5 -1 5 -1 5 -2 6 -2 4 -1 
6 -2 5 -1 5 -2 2955 1565 100 MP stroke
5 -3 5 -1 6 -1 5 -2 5 -2 6 -3 5 -3 5 -3 
6 -4 5 -5 6 -5 5 -6 5 -6 6 -7 5 -7 6 -8 
5 -8 5 -9 6 -8 5 -9 5 -9 5 -9 6 -8 5 -9 
5 -9 5 -8 5 -8 5 -8 5 -7 5 -7 5 -7 5 -7 
5 -7 5 -6 4 -5 5 -6 4 -6 6 -5 3 -5 3 -4 
4 -5 4 -3 11 -3 4 -3 0 -3 6 -2 1 -1 4 -2 
5 -1 3 0 5 -1 3 0 4 -1 6 0 4 0 4 0 
4 -1 4 -1 4 0 3 -1 2 -1 3 -2 4 -2 3 -2 
3 -3 4 -4 3 -4 3 -4 4 -6 4 -5 2 -6 3 -8 
3 -7 2 -7 3 -8 3 -9 2 -8 4 -8 3 -8 3 -8 
2 -6 3 -5 4 -5 2 -3 3 -1 2 0 2 1 2 2 
2 4 3 5 2 5 2 7 2 9 2 9 2 9 2 11 
2 12 2 11 2 11 2565 1867 100 MP stroke
2 11 3 10 2 9 2 9 2 8 2 7 3 6 2 5 
2 4 3 2 2 2 2 2 3 0 2 0 3 -1 2 -2 
3 -2 3 -3 2 -3 3 -3 2 -3 3 -3 2 -3 3 -3 
2 -3 3 -3 3 0 2 0 3 2 2 2 3 4 2 6 
2 6 3 8 3 9 2 10 2 11 2 11 2 12 2 11 
2 11 2 10 2 10 2 9 2 9 2 7 2 6 3 5 
2 4 1 3 2 1 2 1 2 -1 1 -1 2 -3 3 -3 
1 -4 2 -5 2 -4 1 -6 2 -5 2 -6 2 -5 2 -5 
2 -5 2 -4 2 -4 2 -3 3 -2 3 -2 2 -1 2 1 
2 0 1 1 2 0 2 1 2 1 2 0 2 1 3 0 
2 -1 2 -1 2 0 1 -1 2 -1 2 -1 2 -1 2 -1 
2 0 2 0 1 1 2 2 1 2 2 2 1 3 1 3 
2 3 3 2 2 4 2355 1705 100 MP stroke
-1 3 1 2 1 3 1 3 1 3 1 4 1 3 1 4 
2 4 1 5 1 5 1 5 1 6 2 6 1 6 1 6 
2 6 1 5 2 5 1 4 2 3 1 3 2 2 2 1 
2 1 4 0 0 -1 -1 -1 3 -1 2 -2 2 -2 2 -1 
3 -2 2 0 3 0 2 0 2 1 3 2 2 2 4 3 
2 4 2 4 6 5 4 6 3 6 5 6 2 7 3 7 
3 7 2 7 4 7 4 8 4 7 2 7 3 7 3 6 
4 6 2 7 3 5 5 6 2 5 3 5 3 5 3 4 
3 5 3 3 3 4 2 3 4 3 4 3 1 3 4 3 
3 2 2 2 3 3 2 2 3 2 3 2 2 2 2 3 
3 2 2 3 2 2 3 3 4 3 1 3 2 3 3 3 
2 3 1 4 1 3 4 4 3 3 2 4 2 3 2 3 
3 4 3 3 -1 3 2128 1361 100 MP stroke
1 3 2 2 2 3 2 2 2 2 3 2 4 2 1 1 
1 1 2 0 2 1 1 0 1 -1 2 0 1 0 2 -1 
1 -1 1 -1 2 0 1 -1 1 -1 1 -1 1 -1 1 -1 
1 0 1 -1 1 0 3 -1 1 0 1 -1 1 0 1 0 
1 0 1 -1 1 0 0 -8 -1 -2 0 -1 1 -2 -1 -1 
0 -4 -1 -1 0 -2 -1 -1 0 -2 -1 -1 0 -2 1 1 
1 0 1 -1 0 -1 1 -2 0 -2 1 -4 1 -4 0 -10 
1 -7 1 -8 0 -9 1 -9 0 -49 1 -14 0 -14 1 -16 
0 -16 1 -16 0 -17 1 -18 0 -35 1 -17 0 -18 1 -17 
0 -16 1 -16 0 -15 1 -14 0 -12 1 -12 0 -9 1 -9 
1 -6 1 -6 0 -4 1 -2 1 -2 1 0 1 0 1 0 
1 1 1 2 1 1 2 2 1 1 2 1 1 1 2 0 
1 0 2 -1 2 -1 2039 1801 100 MP stroke
2 -1 1 -2 2 -2 2 -2 2 -3 2 -3 1 -3 2 -3 
1 -3 2 -3 2 -3 1 -3 2 -3 1 -3 1 -3 2 -2 
1 -3 2 -3 1 -4 1 -3 1 -4 1 -3 1 -4 1 -5 
2 -4 1 -5 1 -5 2 -4 1 -5 1 -5 2 -4 1 -4 
1 -4 1 -3 2 -2 2 -3 1 -1 1 0 2 -1 1 1 
2 0 2 2 1 1 2 2 1 2 2 2 1 2 1 3 
2 2 1 1 1 2 1 1 2 1 1 1 1 0 1 -1 
1 0 1 -1 1 -2 1 -1 1 -2 0 -2 1 -2 1 -2 
0 -2 1 -1 1 -1 1 -2 -1 0 0 3 0 5 -1 2 
0 5 -1 3 0 2 -1 3 -1 2 0 2 -1 2 -1 2 
-1 1 -2 2 -1 1 -1 1 -1 0 -2 1 -1 1 -2 0 
-1 1 -2 1 -1 2 -2 1 -2 3 -2 2 -3 3 -2 3 
-2 4 -2 3 -2 3 1989 1854 100 MP stroke
-3 4 -3 3 -2 3 -3 2 -3 2 -3 1 -3 1 -3 0 
-3 -1 -3 -1 -3 -1 -3 -2 -4 -1 -3 -1 -3 -1 -4 0 
-4 1 -3 1 -3 3 -4 4 -3 5 -4 7 -4 7 -3 8 
-4 10 -4 9 -4 10 -3 10 -4 10 -4 10 -4 9 -3 8 
-4 8 -5 7 -3 7 -4 5 -4 5 -4 4 -3 3 -4 3 
-4 2 -3 3 -4 2 -4 2 -4 2 -5 2 -3 3 -4 3 
-4 3 -4 4 -4 5 -4 5 -4 6 -3 6 -4 6 -4 7 
-4 7 -4 7 -3 7 -5 7 -4 7 -4 6 -3 7 -4 5 
-5 6 -4 5 -3 5 -4 4 -3 4 -5 3 -5 2 -2 2 
-3 2 -4 1 -5 0 -2 0 -3 -1 -5 -2 -1 -2 -5 -3 
-6 -4 -2 -4 -4 -6 -3 -6 -3 -7 -6 -7 -3 -9 -4 -9 
-4 -11 -4 -11 -4 -12 -3 -13 -4 -14 -4 -15 -4 -17 -4 -17 
-4 -19 -4 -20 -4 -21 2353 1774 100 MP stroke
-4 -24 -4 -25 -4 -28 -2 -30 -3 -34 -5 -37 -5 -41 -2 -46 
-4 -54 -5 -60 -3 -72 -5 -77 -5 -83 -3 -77 -4 -34 -4 59 
-3 84 -4 104 -4 98 -4 86 -4 76 -4 68 -3 59 -3 53 
-5 46 -5 41 -1 37 -4 32 -3 27 -4 23 -3 19 -4 15 
-3 12 -2 7 -4 4 -3 1 -5 -3 -4 -6 -4 -8 -4 -12 
-3 -15 -3 -17 -3 -19 -1 -22 -4 -23 -4 -25 -3 -26 -3 -26 
-3 -26 -2 -26 -3 -26 -4 -23 -3 -22 -3 -18 -3 -16 -3 -12 
-2 -10 -3 -9 -2 -6 -3 -4 -3 -3 -2 -3 -3 -2 -3 -1 
0 -6 -5 2 -4 -1 -2 -2 -2 -1 -2 -1 -2 2 -2 3 
-2 3 -2 3 -2 5 -2 5 -2 6 -2 6 -1 5 -2 5 
-2 4 -1 4 -1 2 -2 0 -1 -2 -2 -4 -1 -6 -1 -8 
-1 -9 -1 -11 -1 -11 -1 -13 -1 -11 -1 -9 -1 -5 0 -1 
-1 3 -1 6 0 10 2625 1981 100 MP stroke
-1 12 0 33 -1 17 0 78 1 5 0 8 1 3 0 2 
1 3 0 1 1 2 1 2 0 1 1 3 1 1 1 3 
1 2 1 1 1 3 1 1 1 2 1 2 1 1 1 0 
1 0 2 0 1 -1 1 -2 1 -4 2 -4 1 -6 1 -7 
2 -7 1 -9 2 -10 1 -11 2 -12 1 -13 2 -13 1 -14 
2 -14 1 -13 2 -13 1 -12 2 -12 1 -9 2 -8 1 -6 
1 -5 2 -3 1 -1 2 0 1 1 1 3 2 2 1 2 
1 2 1 1 1 -1 1 0 1 -1 1 -4 1 -7 1 -8 
1 -9 1 -12 1 -16 1 -17 1 -21 1 -20 1 -22 1 -28 
1 -28 1 -32 1 -33 1 -36 1 -38 1 -37 1 -39 1 -30 
1 -31 1 -26 1 -6 1 -5 1 -1 1 1 1 6 1 11 
2 14 1 7 1 4 1 3 2 0 1 0 1 -2 2 -3 
1 -2 2 2 1 -2 2519 2462 100 MP stroke
2 4 2 7 2 9 2 14 1 17 2 19 2 20 2 27 
2 33 2 31 2 37 3 35 2 36 2 36 3 33 2 32 
2 30 3 27 2 25 3 21 3 19 2 17 3 14 3 10 
2 9 4 7 2 5 4 3 3 0 3 1 3 0 4 -1 
3 -3 3 -2 4 -2 3 -2 4 -1 4 -1 3 1 4 1 
4 3 3 5 4 6 4 7 4 9 4 10 4 11 4 13 
4 12 4 13 4 15 4 15 4 13 4 12 5 15 4 13 
4 13 4 10 5 9 4 8 4 5 5 4 4 2 4 0 
4 -2 5 -5 4 -6 4 -7 5 -10 4 -10 4 -12 4 -13 
4 -13 5 -13 3 -12 5 -11 3 -10 5 -7 8 -5 2 -3 
1 0 5 1 4 3 4 5 4 6 3 7 5 8 3 8 
4 8 4 8 4 7 3 6 3 6 4 4 4 4 3 2 
3 2 6 0 3 -1 2175 1726 100 MP stroke
0 -1 4 -3 2 -4 3 -4 3 -6 3 -7 3 -7 3 -9 
2 -9 2 -9 5 -9 3 -11 -1 -10 4 -10 4 -10 0 -10 
2 -9 2 -9 2 -8 1 -5 2 -4 3 -5 1 -2 2 -1 
1 0 2 0 2 1 1 2 2 2 1 2 1 2 1 2 
1 1 1 0 1 0 2 -1 1 -3 1 -4 0 -4 1 -6 
0 -8 1 -8 1 -9 0 -21 1 -11 -1 -10 1 -11 0 -10 
-1 -11 0 -19 -1 -9 0 -15 -1 -7 -1 -7 -1 -6 -3 -6 
0 -5 -1 -7 -2 -5 0 -4 -1 -4 -2 -4 -1 -3 -2 -3 
-2 -1 -1 -1 -2 3 -2 4 -3 4 -2 6 -3 7 -2 8 
-2 10 -2 12 -2 10 -3 11 -3 11 -2 12 -3 11 -3 10 
-3 9 -3 7 -3 5 -3 4 -2 1 -3 0 -3 -2 -4 -4 
-3 -4 -3 -6 -3 -7 -3 -8 -3 -7 -4 -9 -3 -9 -3 -6 
-3 -4 -3 -3 -3 -2 2210 2025 100 MP stroke
-3 -2 -3 -1 -3 1 -3 0 -3 1 -3 3 -3 4 -2 5 
-3 4 -3 5 -3 5 -3 7 -3 6 -2 7 -3 9 -2 8 
-3 8 -4 8 -2 8 -2 7 -2 6 -2 4 -3 5 0 3 
-2 3 -2 1 -2 0 -2 -2 -2 -2 -2 -4 -1 -4 0 -6 
-2 -5 -2 -5 -1 -6 -2 -5 -1 -6 -1 -4 -1 -4 -1 -3 
0 -2 -1 -1 -1 1 0 2 -2 2 0 4 -1 3 -1 6 
0 7 -1 7 -1 6 0 6 -1 5 0 6 -1 5 0 4 
-1 3 0 3 -1 2 0 1 -1 1 -1 1 0 1 -2 3 
-1 1 0 2 -1 2 -1 2 0 3 -1 4 -1 5 -1 5 
0 5 -1 7 -1 6 -1 8 0 8 -1 8 0 9 -1 9 
-1 10 -1 11 0 10 -1 11 -1 11 -1 12 0 11 -1 11 
-1 12 0 11 -1 10 -1 10 0 10 -1 9 -1 8 0 8 
-1 7 0 12 -1 4 2337 1618 100 MP stroke
0 7 -1 2 0 4 0 -4 1 -2 0 -4 1 -2 0 -2 
1 -2 0 -2 1 -3 0 -2 1 -3 1 -3 0 -4 1 -4 
1 -5 1 -5 1 -6 1 -6 1 -7 1 -7 1 -8 2 -9 
1 -9 1 -10 1 -10 2 -11 1 -10 1 -11 2 -11 1 -10 
1 -11 2 -12 1 -10 1 -11 2 -11 1 -11 1 -11 2 -12 
1 -11 1 -12 1 -13 2 -13 1 -13 1 -14 1 -15 1 -15 
1 -16 1 -16 1 -18 1 -16 0 -17 1 -18 1 -17 0 -17 
1 -16 0 -15 1 -14 0 -34 1 -9 0 -24 -1 -1 0 71 
-1 16 0 133 -1 12 0 27 -1 6 0 4 -1 -1 0 -3 
-1 -4 -1 -6 0 -7 -1 -9 -1 -9 -1 -10 -1 -10 -1 -10 
-1 -10 -1 -9 -2 -8 -1 -6 -1 -5 -2 -3 -1 -2 -2 -1 
-2 1 -1 3 -2 3 -2 5 -2 4 -2 7 -2 8 -2 8 
-2 8 -3 10 -2 9 2328 1998 100 MP stroke
-2 11 -3 11 -2 12 -2 12 -3 13 -2 13 -3 13 -3 14 
-2 13 -3 13 -2 12 -3 13 -3 12 -2 11 -3 11 -3 10 
-2 9 -3 8 -3 8 -3 7 -2 6 -3 5 -3 5 -3 4 
-2 3 -3 2 -3 2 -3 1 -3 0 -2 0 -3 -1 -3 0 
-3 -2 -3 -1 -3 -1 -3 -1 -3 -1 -3 -1 -3 0 -3 0 
-3 0 -3 1 -3 2 -3 1 -3 3 -4 2 -3 2 -3 2 
-3 3 -3 2 -3 2 -4 2 -3 2 -3 1 -4 2 -3 2 
-3 1 -4 1 -3 1 -4 1 -3 1 -3 1 -4 -1 -3 0 
-4 -2 -3 -2 -4 -2 -3 -3 -4 -4 -3 -4 -4 -5 -3 -4 
-3 -4 -4 -5 -3 -3 -4 -3 -3 -1 -3 -1 -4 1 -3 2 
-3 3 -3 3 -3 4 -3 5 -4 4 -3 5 -2 4 -3 4 
-3 3 -3 2 -2 2 -3 1 -2 1 -3 1 -2 1 -3 0 
-2 1 -2 1 -2 1 2621 1712 100 MP stroke
-2 1 -1 2 -2 2 -2 2 -2 2 -1 2 -1 2 -2 3 
-1 2 -2 2 -1 2 -1 3 -1 2 -1 3 -1 3 1 3 
-2 4 -1 4 0 17 -1 7 0 56 -1 11 0 11 1 10 
0 21 1 10 0 9 1 8 0 8 2 7 2 6 -1 6 
1 5 1 5 1 5 1 5 1 4 2 5 1 5 3 5 
1 5 1 6 1 6 2 7 3 7 2 7 3 7 2 8 
-1 7 3 7 3 7 1 6 5 4 5 4 1 3 2 2 
2 1 3 -2 4 -2 2 -4 4 -5 3 -6 2 -8 3 -10 
3 -10 3 -10 3 -12 3 -12 2 -12 3 -12 3 -12 2 -11 
3 -10 3 -9 1 -7 2 -7 3 -5 2 -3 2 -3 2 -2 
3 -1 2 0 2 -1 2 0 3 -1 3 -2 3 -2 2 -3 
1 -3 3 -5 2 -6 2 -7 3 -7 2 -7 2 -8 2 -8 
3 -6 3 -7 1 -5 2488 1601 100 MP stroke
2 -3 3 -2 2 -1 4 1 2 2 2 3 3 4 2 5 
2 5 3 6 3 5 3 5 2 4 3 3 1 3 3 2 
3 1 2 -1 3 -2 2 -3 3 -4 3 -5 2 -6 3 -8 
2 -7 1 -9 3 -9 2 -8 3 -9 4 -8 1 -8 2 -7 
3 -6 3 -6 1 -5 3 -4 2 -4 2 -3 2 -4 0 -3 
3 -3 2 -4 2 -4 2 -4 2 -5 3 -5 2 -6 1 -5 
2 -6 2 -5 2 -5 1 -5 2 -4 2 -3 1 -3 1 -1 
1 -1 1 0 2 1 1 2 2 3 2 2 1 4 0 8 
2 4 1 4 0 4 2 3 0 3 3 3 0 4 2 1 
1 1 1 0 1 -1 1 -1 0 -1 1 -2 1 -2 0 -2 
1 -1 1 -2 1 -1 1 -1 1 0 1 0 1 0 1 1 
1 1 2 2 1 3 1 2 1 3 2 2 2 3 2 2 
2 2 1 1 2 1 2312 1700 100 MP stroke
2 0 2 0 1 -2 3 -2 2 -4 2 -4 2 -5 1 -5 
1 -6 3 -7 3 -7 2 -7 3 -6 2 -7 2 -6 3 -5 
2 -4 3 -4 3 -3 2 -1 4 1 2 0 2 2 4 1 
3 3 3 2 3 2 4 1 4 0 4 -2 3 -3 4 -5 
3 -8 4 -9 5 -11 4 -14 4 -15 4 -19 4 -19 4 -21 
4 -23 5 -24 4 -24 5 -24 4 -24 4 -24 5 -22 5 -20 
5 -20 4 -20 5 -14 5 -15 4 -15 4 -14 6 -13 4 -15 
5 -16 5 -19 4 -24 5 -29 4 -36 5 -52 5 -77 4 -69 
5 -82 5 -107 4 -105 4 -49 5 74 5 123 4 135 5 115 
4 95 5 81 4 67 4 55 5 48 4 41 4 35 5 32 
5 28 4 24 4 21 5 18 3 16 5 14 4 13 4 10 
5 9 4 7 4 6 4 5 4 3 4 2 4 1 5 -1 
5 -1 3 -4 2 -3 1936 1806 100 MP stroke
5 -5 4 -7 3 -7 6 -8 2 -9 3 -10 5 -10 4 -10 
4 -9 3 -10 5 -8 3 -7 5 -6 4 -4 3 -3 4 0 
3 3 5 3 3 6 3 7 5 8 2 10 5 12 2 14 
3 16 4 18 1 16 6 22 0 16 5 25 2 18 0 15 
19 27 10 7 0 16 3 9 2 6 4 3 -13 19 -6 -4 
9 4 -2 -3 2 -1 3 -1 -1 -3 2 -2 1 -1 2 0 
0 1 1 2 2 2 0 3 1 4 0 3 1 3 1 3 
0 3 1 2 -1 2 1 1 -1 0 1 -1 0 -2 -1 -2 
0 -7 -1 -5 0 -11 -1 -6 0 -7 -1 -7 -1 -8 0 -8 
-1 -8 -1 -9 -1 -8 -1 -8 0 -7 -1 -7 -1 -7 -1 -6 
-1 -5 -1 -4 -1 -3 -1 -3 -1 -1 -2 -1 -2 1 0 1 
-1 2 -1 2 -1 3 -1 4 -1 4 -1 5 -1 5 -2 5 
-1 5 -1 6 -1 5 1815 1698 100 MP stroke
-1 6 -1 6 -1 5 -1 6 -1 5 -1 6 -1 5 -1 5 
-1 4 -2 5 -1 4 -1 4 -2 3 0 3 -1 3 -1 3 
-1 2 -1 2 -2 2 -2 2 0 1 -2 1 -1 1 -1 0 
-1 0 -1 0 -1 0 -2 0 -1 -1 -1 -1 -2 0 -1 -1 
-1 0 -1 -1 -1 0 -1 0 -1 0 -1 0 -1 0 -1 0 
-1 1 -1 0 1 0 -2 2 -1 0 -1 1 -1 1 -1 1 
-1 1 -1 1 0 2 -1 1 -1 1 0 2 -2 2 0 3 
-1 2 -1 2 0 3 -1 2 -1 2 -1 2 0 2 -1 2 
-1 2 1 1 -1 2 -1 1 -1 1 -1 0 -2 1 -1 0 
-1 -1 -1 0 -1 0 -1 -1 -1 -1 -1 0 -1 -1 -1 -1 
-2 -1 -1 -1 -1 -1 -2 -1 -2 -1 -1 -1 -3 -1 -2 0 
-4 0 -3 0 1 0 -3 1 -3 1 -2 1 -3 2 -2 2 
-3 2 -4 2 -4 2 1938 1573 100 MP stroke
-3 3 -3 3 -3 4 -3 3 -3 4 -3 5 -3 5 -4 5 
-2 5 -4 6 -3 7 -3 6 -3 7 -4 7 -3 7 -3 8 
-3 7 -3 7 -2 7 -3 7 -3 6 -2 6 -3 5 -3 4 
-2 5 -3 3 -3 3 -2 2 -2 2 -2 1 -2 1 -3 0 
-2 0 -2 0 -2 0 -1 0 -2 0 -1 0 -2 0 -1 0 
-1 1 -2 0 -2 0 -1 1 -1 0 -1 0 -1 0 -1 -1 
-1 -1 0 -23 1 -4 0 -4 1 -4 0 -8 1 -4 0 -8 
2 -4 0 -9 1 -4 1 -4 0 -4 1 -4 0 -11 1 -4 
0 -12 1 -2 0 -9 -1 -1 0 -3 -2 -2 -1 -1 -1 0 
-1 0 -1 0 -1 0 -1 0 -1 0 1 0 -2 0 -1 0 
-1 0 -1 0 -1 0 -1 0 -1 0 -1 0 -1 -1 -1 0 
-1 0 -1 0 -1 1 -1 0 1 0 -2 2 0 5 1 1 
0 -1 2 -2 0 -4 2065 1550 100 MP stroke
1 -2 0 -2 1 -2 0 -3 2 -2 -1 -1 -1 -2 1 -1 
0 -2 2 0 1 -1 1 -1 1 -1 1 0 1 0 1 0 
1 -1 1 -1 1 -1 0 -1 2 -1 0 -2 2 -2 0 -2 
1 -1 1 -2 1 -2 1 -2 1 -2 1 -2 2 -3 1 -2 
1 -2 1 -1 1 -2 2 -2 1 -2 1 -1 1 -2 2 -1 
1 -2 1 -1 2 -1 1 -2 2 -1 1 -2 2 -2 1 -2 
2 -3 1 -3 1 -3 2 -3 2 -4 0 -3 2 -5 1 -4 
2 -4 1 -5 3 -4 2 -5 1 -5 2 -4 1 -5 1 -4 
3 -4 1 -4 2 -4 2 -3 0 -3 1 -4 2 -3 2 -3 
0 -3 1 -3 2 -3 1 -3 2 -3 1 -4 2 -3 1 -3 
1 -4 2 -3 1 -3 1 -4 1 -3 1 -3 1 -2 0 -5 
1 -3 0 -2 1 -1 1 -2 0 -1 1 -2 1 -1 0 -5 
1 -1 1 -1 -1 -1 1956 1787 100 MP stroke
-1 -2 2 -1 0 -2 -1 -1 -1 -2 1 -1 0 -5 -1 -1 
1 -2 0 -2 -1 -2 0 -2 -1 -3 0 -4 -1 -3 0 -9 
-1 -3 -1 -3 0 -4 -1 -3 -1 -4 0 -3 -1 -3 -1 -3 
-1 -3 -1 -3 -1 -2 -1 -2 -1 -1 -1 -1 -1 0 -1 0 
-2 1 -1 1 -1 2 -2 2 -2 3 -1 3 -2 3 -1 4 
-2 3 -1 4 -2 3 -2 4 -2 3 -2 3 -1 3 -2 2 
-2 2 -1 2 -2 2 -2 2 -2 1 -2 1 -1 2 -2 1 
-2 0 -2 1 -2 1 -2 1 -1 1 -2 1 -2 1 -2 1 
-2 2 -2 1 -2 0 -2 1 -2 1 -1 1 -1 0 -2 0 
-2 0 -2 -1 -2 0 -2 -1 -2 -2 -3 -1 -2 -2 -2 -2 
-2 -2 -2 -2 -3 -2 -2 -2 -2 -2 -3 -3 -2 -2 -3 -1 
-2 -3 -2 -1 -2 -1 -2 -2 -2 -1 -3 -2 -3 -1 -3 1 
-3 0 -3 -1 -3 -1 2106 1834 100 MP stroke
-3 0 -4 1 -2 0 -3 0 -4 0 -4 -1 -3 -1 -3 -3 
-5 -3 -3 -3 -4 -5 -4 -6 -4 -6 -5 -11 -4 -8 -4 -6 
-4 -8 -3 -10 -5 -9 -6 -9 -5 -5 -5 -5 -5 -4 -5 -3 
-4 -1 -3 1 -8 0 -6 2 -4 2 -5 3 -6 3 -5 2 
-6 1 -4 1 -5 -1 -8 -1 -5 -2 -4 -3 -6 -3 -5 -5 
-5 -6 -7 -6 -5 -7 -5 -7 -6 -5 -6 -6 -5 -7 -6 -6 
-5 -8 -5 -13 -6 -8 -5 -10 -6 -16 -5 -25 -5 -21 -6 -23 
-5 -34 -5 -42 -5 -54 -5 -81 -5 -93 -5 -85 -5 -178 -5 -1030 
2415 3711 65 MP stroke
1 -1 2 -8 1 -15 2 -22 1 -28 2 -34 2 -40 1 -45 
1 -49 3 -52 2 -54 0 -54 2 -52 1 -51 2 -47 1 -45 
1 -44 2 -45 0 -47 1 -53 1 -59 1 -68 2 -73 1 -72 
2 -61 1 -28 1 10 2 45 1 51 2 55 1 46 1 39 
2 31 1 24 2 18 2 13 2 8 1 5 3 2 1 -1 
2 -4 2 -6 3 -7 2 -10 2 -11 2 -11 3 -13 2 -14 
3 -14 2 -15 3 -15 2 -9 5 -16 4 0 -1 0 3 7 
3 13 2 20 3 27 3 34 3 36 2 40 3 41 4 40 
2 40 3 38 3 37 3 33 3 31 3 29 3 25 3 23 
3 20 3 18 3 16 4 14 3 12 3 11 3 9 2 10 
2 10 3 11 3 13 1 15 3 18 4 21 2 24 3 26 
3 28 3 29 2 30 3 30 3 29 3 28 3 26 2 24 
3 21 2 19 3 15 1819 1523 100 MP stroke
3 13 2 9 3 5 2 2 3 -2 2 -6 3 -10 2 -14 
2 -18 3 -22 3 -25 2 -28 1 -36 7 -20 6 -41 1 -21 
2 -27 3 -21 2 -13 2 -11 3 -2 2 2 2 10 2 17 
3 18 3 33 -1 -23 -5 79 3 35 3 34 1 34 3 28 
1 27 2 22 1 20 2 16 2 13 0 9 3 7 1 3 
1 1 2 -1 0 -3 2 -5 0 -7 2 -7 0 -8 1 -9 
2 -9 0 -9 1 -8 1 -8 0 -7 1 -7 0 -5 1 -5 
0 -3 1 -3 0 -3 1 -1 0 -2 1 -1 0 -3 -1 -2 
0 -4 -1 -3 -1 -2 0 -3 -1 -3 0 -3 -1 -4 -1 -3 
0 -4 -1 -4 -1 -4 -1 -4 -1 -4 -1 -5 -2 -6 -1 -6 
0 -7 -1 -7 -1 -8 -1 -9 -1 -10 -1 -10 -1 -12 -1 -12 
-2 -14 -1 -14 -1 -16 -1 -15 -1 -15 -2 -16 -1 -17 -1 -16 
-1 -16 -2 -16 -2 -14 1753 1848 100 MP stroke
-1 -15 -1 -13 -2 -12 -1 -11 -2 -11 -2 -8 -1 -6 -2 -2 
-2 3 -1 11 -2 18 -2 26 -2 34 -2 40 -2 45 -2 45 
-1 48 -3 44 -2 44 7 43 1 37 -5 36 0 30 -3 28 
-2 24 -3 20 -2 16 -1 14 -3 10 -2 7 -3 4 -3 1 
-1 -1 -4 -4 -1 -6 -4 -8 -2 -10 -1 -11 -13 -12 -9 -14 
1 -13 -4 -14 -3 -13 -3 -13 -2 -12 -3 -12 -3 -10 -1 -10 
-4 -9 -3 -7 -1 -7 -3 -5 -3 -5 -3 -4 -1 -3 -4 -3 
-2 -2 -2 -2 -3 -1 -3 -2 -2 -1 -2 -2 -4 -1 -2 -2 
-3 -2 -3 -2 -2 -3 -2 -3 -4 -3 -2 -3 -3 -4 -2 -4 
-4 -4 -2 -5 -2 -5 -4 -5 -3 -6 -2 -7 -4 -7 -3 -7 
-3 -7 -3 -9 -3 -8 -3 -9 -3 -9 -3 -9 -3 -9 -3 -9 
-4 -9 -3 -8 -1 -9 -4 -8 -4 -7 -2 -8 -3 -6 -4 -7 
-3 -7 -2 -6 -3 -6 2002 1737 100 MP stroke
-3 -7 -4 -7 -2 -7 -2 -9 -5 -9 -3 -10 -2 -12 -3 -12 
-2 -15 -4 -15 -3 -18 -3 -19 -2 -21 -3 -22 -4 -24 -3 -25 
-2 -25 -3 -27 -3 -26 -3 -26 -3 -24 -3 -21 -2 -16 -3 -11 
-3 -4 -3 3 -3 10 -3 16 -2 22 -4 26 -4 30 -2 32 
-4 33 -3 33 -3 33 -4 32 -1 30 -7 25 2 28 18 22 
-1 20 -6 19 -1 13 -8 11 -1 7 -5 4 -4 0 -1 -2 
-6 -4 0 -7 -8 -7 -3 -9 -1 -10 -22 -5 -13 -10 1 -2 
-5 -2 -3 0 -4 2 -5 4 -3 5 -3 6 -2 5 -5 7 
-4 5 -2 6 -4 4 -4 4 -3 4 -3 4 -4 2 -3 3 
-3 2 -2 2 -3 1 -4 2 -3 1 -3 1 -4 1 -3 0 
-3 1 -2 0 -3 0 -3 0 -4 0 -3 1 -1 0 -3 0 
-3 1 -3 0 -2 1 -2 1 -2 1 -2 1 -3 2 -2 2 
-1 2 -2 3 -1 3 2304 1668 100 MP stroke
-1 5 -2 5 0 7 -2 6 -1 8 -2 9 0 21 -5 10 
9 12 13 6 -3 12 0 9 -1 9 -3 8 4 4 -9 8 
-14 5 0 4 -1 4 -1 3 0 3 -1 2 -1 2 -1 1 
-2 -1 -1 -1 1 -3 -2 -3 -2 -5 1 -4 -1 -7 -2 -6 
0 -8 2 -9 -1 -8 -2 -9 3 -10 -1 -11 1 -11 3 -12 
-2 -13 1 -13 2 -13 1 -14 1 -14 2 -15 1 -16 2 -16 
2 -17 1 -17 2 -17 3 -16 2 -15 3 -16 2 -14 1 -13 
3 -12 3 -12 4 -7 5 -6 0 -7 1 -5 3 -5 3 -5 
3 -5 3 -6 2 -8 3 -8 4 -10 3 -14 5 -14 4 -16 
2 -19 4 -21 2 -22 4 -26 4 -27 -3 -28 0 -30 4 -37 
2 -29 4 -32 4 -32 7 -36 7 -35 1 -33 5 -28 3 -61 
3 -43 3 -18 2 -39 5 -8 6 -35 3 -77 2 -27 3 6 
4 -32 3 -16 3 -6 2169 2783 100 MP stroke
4 -2 3 14 3 27 3 55 4 53 3 41 3 58 4 59 
3 48 3 52 3 42 3 52 3 45 3 40 3 45 3 39 
3 40 3 40 2 37 3 37 3 36 2 34 3 34 2 34 
2 32 3 31 2 29 2 30 2 27 2 27 2 26 3 24 
3 24 1 23 1 22 2 20 1 20 1 19 2 19 1 17 
2 16 1 16 1 15 2 13 1 13 0 12 2 11 0 18 
6 7 1 6 -1 5 1 4 -1 3 -1 1 0 -2 -1 -3 
-1 -4 0 -4 -1 -5 -1 -6 -1 -6 0 -7 -1 -7 -1 -7 
-2 -7 -2 -7 0 -7 -2 -6 -1 -6 -1 -6 -1 -5 -1 -4 
-1 -4 -1 -3 -2 -2 -2 -2 -1 -1 -2 -1 -2 0 -2 0 
-1 0 -2 1 -1 0 0 2 -2 1 -2 1 -1 0 -2 0 
-2 0 -2 0 -2 0 -3 -1 -2 0 -2 -1 -2 -1 -3 0 
-3 -1 -2 0 -3 -1 2120 1405 100 MP stroke
-3 0 -3 0 -2 1 -3 1 -4 1 -3 1 -3 2 -3 2 
-3 2 -4 1 -3 2 -3 2 -3 1 -4 1 -3 0 -3 -1 
-3 -1 -3 -3 -3 -3 -3 -5 -3 -5 -3 -7 -3 -8 -2 -8 
-3 -10 -3 -10 -2 -12 -3 -12 -2 -12 -2 -13 -2 -13 -2 -13 
-1 -12 -1 -12 -2 -12 -1 -12 -1 -10 -1 -10 -1 -10 -1 -9 
0 -8 -1 -8 0 -13 -1 -7 1 -6 -1 -5 1 -5 0 -10 
1 -5 0 -8 1 -3 0 -3 1 -3 0 -2 1 -1 1 -1 
1 1 1 1 1 2 1 3 0 3 1 3 0 10 1 4 
0 3 -1 3 0 4 -1 1 -1 0 -1 -1 -1 -2 -1 -3 
-1 -3 -1 -3 -1 -4 -1 -4 -1 -4 -2 -5 -1 -4 -1 -4 
-2 -5 -2 -4 -1 -4 -2 -4 -2 -3 -2 -4 -2 -3 -3 -4 
-2 -3 -2 -2 -2 -3 -3 -3 -2 -2 -3 -3 -3 -3 -2 -2 
-3 -2 -3 -3 -2 -2 2269 1757 100 MP stroke
-4 -3 -3 -2 -2 -3 -4 -2 -2 -2 -3 -2 -3 -3 -3 -2 
-3 -2 -3 -2 -3 -2 -3 -1 -3 -2 -3 -1 -3 -2 -2 -1 
-3 -1 -3 -1 -2 -1 -3 -1 -3 0 -2 -1 -3 -1 -2 -1 
-2 -1 -3 -1 -2 -2 -3 -1 -1 -2 -3 -2 -2 -2 -2 -3 
-2 -3 -1 -3 -2 -3 -2 -4 -1 -3 -2 -4 -1 -4 -2 -5 
-2 -4 -1 -4 -1 -5 -1 -4 -2 -5 -1 -4 -1 -5 -1 -4 
-1 -5 -1 -4 -1 -5 -1 -4 -1 -4 0 -4 -1 -3 -1 -4 
-1 -3 -1 -2 -1 -2 0 -2 -1 -1 -1 -1 -1 0 -1 1 
-1 2 0 1 -1 2 0 3 -1 2 -1 3 0 4 -1 3 
-1 4 0 4 -1 3 0 8 -1 4 0 4 -1 3 0 4 
-1 3 0 10 0 -3 1 -3 0 -3 1 -4 0 -6 1 -6 
1 -5 1 -8 0 -7 2 -8 1 -8 1 -9 1 -10 2 -9 
1 -10 1 -12 2 -11 2386 1972 100 MP stroke
2 -12 1 -13 2 -14 1 -14 2 -16 2 -18 2 -17 1 -20 
2 -22 2 -21 1 -23 2 -25 1 -26 1 -24 2 -26 1 -22 
1 -20 2 -15 0 -11 1 -2 1 2 1 13 0 19 1 22 
0 108 1 28 0 28 -1 26 0 24 -1 23 0 22 -1 18 
1 20 -1 17 -7 17 0 14 1 14 -3 11 -3 10 -2 10 
-3 8 -3 7 -3 7 -2 5 -4 5 -3 4 -2 5 -3 4 
-3 6 -4 5 -4 5 -3 7 -4 9 -4 8 -3 9 -5 9 
-3 9 -1 9 -4 6 -4 9 -4 7 -5 6 -4 4 -5 2 
-4 1 -5 -1 -4 -2 -4 -3 -6 -5 -4 -7 -4 -8 -5 -9 
-5 -10 -5 -9 -5 -11 -5 -11 -5 -10 -5 -11 -5 -7 -5 -6 
-5 -6 -5 -3 -5 -2 -6 -1 -5 4 -5 3 -5 5 -6 5 
-5 6 -6 6 -6 6 -5 5 -5 7 -5 5 -6 5 -6 4 
-5 3 -6 3 -5 1 2631 1785 100 MP stroke
-7 0 -5 -1 -7 -2 -7 -5 -6 -4 -6 -7 -6 -9 -8 -11 
-6 -11 -5 -15 -8 -13 -3 -11 -5 -17 -10 -17 -5 -13 -4 -14 
-6 -13 -6 -14 -6 -12 -7 -8 -6 0 -6 -1 -7 2 -6 2 
-5 6 -6 11 -6 7 -6 5 -7 9 -5 6 -6 4 -5 2 
-5 -1 -6 -4 -6 -3 -7 -6 -6 -10 -6 -11 -6 -11 -6 -12 
-6 -14 -5 -17 -5 -8 -6 -6 -5 -5 -5 -8 -7 -7 -5 5 
-3 12 -5 7 -5 3 -5 16 -6 7 -4 7 -5 6 -4 4 
-5 -5 -4 -2 -4 -12 -5 -15 -4 -22 -4 -33 -3 -41 -4 -49 
-4 -59 -3 -78 -4 -98 -3 -128 -3 -164 -3 -119 -3 -24 -3 197 
-3 97 -3 130 -2 89 -3 87 -2 52 -3 50 -2 39 -2 30 
-2 29 -2 24 -2 19 -2 15 -2 18 -2 12 -1 11 -2 8 
-3 5 0 5 -2 3 -2 0 -1 -3 -2 -2 -1 -5 -1 -6 
-1 -8 -1 -10 -1 -9 3063 1957 100 MP stroke
-1 -11 0 -12 -1 -12 0 -57 1 -14 0 -15 1 -16 0 -34 
1 -15 0 -16 1 -14 1 -13 1 -9 1 -11 1 0 2 -7 
1 11 2 8 1 11 2 3 2 29 2 16 2 20 2 21 
3 19 2 20 2 19 2 17 3 19 2 19 3 15 3 17 
3 16 2 15 3 13 3 13 2 12 4 10 3 9 3 8 
3 7 3 5 3 5 3 3 3 3 2 1 3 0 3 -1 
2 -1 3 -2 3 -3 2 -3 3 -3 2 -2 2 -3 3 -3 
2 -2 3 -2 2 -1 2 1 2 1 3 2 2 3 3 4 
2 4 2 4 2 5 2 5 2 6 2 5 1 4 2 5 
1 4 2 4 1 4 1 5 2 3 0 5 2 5 0 4 
2 6 0 6 1 6 1 6 0 6 1 7 0 7 1 7 
0 19 1 6 2 6 -1 6 0 10 -1 4 0 4 -1 4 
0 4 -1 2 -2 2 2909 1654 100 MP stroke
4 1 -2 1 -3 -1 4 0 -2 -2 -1 -2 -1 -2 -2 -2 
0 -1 -1 -2 -2 -1 -1 0 -1 1 -1 2 -2 2 -1 2 
-1 4 -1 3 -1 3 -2 3 -1 3 -2 2 -1 2 -1 2 
-2 2 -1 1 -1 2 0 2 -2 1 -1 3 -2 2 -1 2 
-2 2 -4 2 -1 1 -2 1 -2 -1 -1 -2 -2 -3 -2 -4 
-2 -6 -2 -8 -1 -11 -2 -11 -2 -14 -2 -16 -2 -16 -1 -19 
-1 -20 -2 -20 -2 -21 -1 -22 -2 -23 -2 -20 -2 -20 -1 -18 
-1 -16 -3 -14 -1 -11 -2 -9 -2 -5 -1 -2 -2 1 -2 9 
-1 7 -2 10 -2 11 -2 11 -2 13 -1 12 -2 10 -2 9 
-2 7 -1 5 -2 1 -2 2 -3 0 -2 -3 -2 -4 -2 -6 
-2 -6 -2 -7 -1 -8 -2 -6 -2 -5 -2 -3 -3 -5 -2 1 
-2 3 -2 4 -2 5 -3 6 -2 10 -2 8 -2 5 -2 9 
-3 9 -2 5 -2 6 3068 1821 100 MP stroke
-3 4 -3 2 -2 1 -3 0 -2 -2 -2 -3 -3 -3 -2 -4 
-3 -4 -3 -4 -2 -5 -3 -4 -3 -5 -3 -4 -3 -3 -3 -4 
-2 -1 -3 -2 -3 -2 -3 -2 -3 3 -3 0 -3 3 -3 2 
-3 4 -3 4 -4 4 -3 3 -3 4 -3 4 -3 4 -3 4 
-3 2 -3 2 -3 0 -3 1 -3 0 -3 -1 -3 -1 -2 -2 
-3 -3 -3 -2 -3 -4 -2 -3 -3 -3 -3 -4 -2 -4 -3 -5 
-2 -6 -3 -5 -2 -3 -2 -5 -3 -5 -2 -5 -2 -3 -3 -6 
-2 -6 -2 -4 -2 -1 -2 -3 -2 -2 -2 -1 -2 0 -2 2 
-2 2 -2 1 -2 -1 -2 0 -2 7 -2 1 -1 2 -2 -3 
-2 -6 -2 -10 -1 -15 -2 -26 -2 -25 -2 -37 -1 -45 -2 -61 
-2 -70 -2 -89 -1 -122 -2 -97 -2 -46 -1 55 -2 122 -2 127 
-1 92 -2 81 -1 62 -2 50 -1 38 -2 32 -1 24 -2 15 
-1 12 -2 6 -1 1 3298 1830 100 MP stroke
-1 -2 -2 -6 -1 -9 -1 -10 -1 -10 -2 -12 -1 -12 -1 -15 
-1 -8 -1 -8 -1 -4 -1 0 -1 2 -1 3 -1 10 0 12 
-1 15 -1 19 -1 21 0 20 -1 22 -1 21 -1 21 0 19 
-1 18 0 15 -1 15 0 12 -1 10 0 18 -1 8 0 42 
1 12 0 31 1 18 0 67 1 24 0 25 1 25 1 24 
0 24 1 23 0 22 1 21 1 19 1 17 0 16 1 13 
1 12 1 10 1 8 2 5 1 4 1 1 2 0 1 -3 
1 -5 2 -7 2 -10 1 -11 1 -15 1 -17 1 -19 1 -22 
1 -26 1 -28 0 -32 2 -36 1 -41 -1 -46 0 -52 1 -60 
0 -70 1 -82 -1 -97 1 -119 0 -149 -1 -149 0 -67 0 108 
-1 150 0 127 -1 100 -2 81 -2 66 -2 54 -2 45 -1 38 
-3 32 -3 27 -2 22 -3 18 -3 15 -3 11 -4 9 -3 6 
-4 4 -4 2 -4 0 3337 1430 100 MP stroke
-4 -1 -5 -2 -4 -3 -5 -4 -6 -4 -5 -5 -5 -5 -6 -5 
-6 -6 -6 -5 -6 -5 -7 -5 -6 -4 -7 -5 -7 -3 -7 -3 
-7 -3 -7 -2 -7 -3 -8 -3 -8 -3 -7 -3 -8 -3 -7 -3 
-8 -3 -8 -4 -8 -4 -8 -4 -8 -5 -8 -4 -9 -4 -8 -4 
-9 -3 -8 -4 -9 -3 -8 -3 -9 -3 -9 -3 -9 -1 -9 -2 
-9 -2 -9 -2 -9 -1 -9 -2 -9 -3 -9 -2 -10 -4 -9 -4 
-9 -5 -9 -7 -10 -7 -9 -9 -9 -11 -10 -12 -9 -13 -9 -15 
-9 -16 -10 -18 -9 -19 -9 -20 -9 -21 -10 -21 -9 -21 -9 -19 
-9 -19 -10 -16 -9 -12 -9 -8 -9 -3 -10 1 -9 9 -9 13 
-9 19 -9 22 -9 27 -9 28 -9 31 -9 31 -9 31 -9 32 
-9 30 -9 31 -9 29 -9 27 -9 27 -8 26 -9 24 -8 23 
-8 22 -8 21 -9 20 -8 19 -8 18 -7 17 -8 16 -8 16 
-8 14 -7 14 -8 12 4147 1234 100 MP stroke
-7 12 -7 11 -8 9 -7 8 -7 8 -7 6 -7 4 -7 4 
-7 2 -6 0 -7 -1 -7 -2 -6 -5 -6 -5 -6 -7 -7 -9 
-5 -10 -6 -11 -5 -13 -5 -13 -6 -14 -5 -15 -5 -14 -5 -14 
-5 -14 -5 -13 -4 -13 -5 -11 -5 -10 -5 -8 -5 -8 -5 -8 
-4 -7 -4 -7 -5 -8 -4 -7 -5 -8 -5 -10 -4 -11 -5 -12 
-4 -14 -5 -15 -4 -17 -5 -18 -4 -20 -5 -21 -5 -24 -4 -24 
-4 -25 -4 -25 -4 -25 -5 -24 -5 -21 -4 -13 -4 -7 -6 1 
-4 7 -4 12 -6 18 -5 20 -5 21 -6 22 -5 20 -6 19 
-6 17 -7 15 -7 13 -5 10 -6 9 -6 7 -6 6 -7 5 
-6 4 -7 3 -6 3 -7 4 -6 4 -7 8 -7 8 -7 10 
-7 12 -6 14 -7 15 -7 17 -8 20 -8 20 -8 21 -8 22 
-7 21 -9 22 -7 22 -9 20 -8 19 -8 18 -8 16 -8 14 
-9 13 -8 10 -8 8 4737 1161 100 MP stroke
-10 5 -7 3 -9 0 -10 -2 -8 -5 -9 -8 -8 -11 -9 -14 
-9 -18 -9 -20 -10 -24 -8 -27 -10 -30 -9 -35 -8 -38 -10 -40 
-9 -43 -9 -50 -10 -52 -9 -52 -10 -55 -9 -57 -9 -58 -9 -61 
-9 -62 -10 -60 -9 -60 -9 -66 -9 -49 -10 -49 -10 -45 -9 -57 
-9 -3 -10 -17 -8 64 -11 21 -10 -2 -9 -46 -9 48 -10 -30 
-9 -20 -10 -51 -9 -122 -10 32 -10 122 -9 63 -10 89 -9 87 
-10 101 -12 98 -10 78 -9 68 -10 63 -9 55 -9 47 -9 41 
-11 36 -11 31 -10 28 -9 22 -8 18 -10 15 -10 11 -11 7 
-11 5 -7 3 -10 2 -10 -2 -9 -4 -10 -4 -9 -5 -10 -6 
-9 -7 -10 -8 -9 -8 -9 -8 -10 -8 -8 -10 -9 -9 -10 -11 
-8 -9 -10 -9 -9 -10 -8 -9 -9 -8 -8 -6 -10 -4 -7 -3 
-10 3 -10 6 -6 8 -7 10 -9 13 -7 14 -9 17 -7 17 
-8 15 -7 15 -8 14 5646 1353 100 MP stroke
-7 13 -7 12 -7 11 -7 10 -7 9 -6 8 -7 7 -7 8 
-6 8 -6 9 -6 9 -6 8 -6 8 -5 9 -5 10 -6 10 
-5 9 -4 9 -5 8 -5 9 -4 8 -4 12 -4 11 -3 13 
-4 13 -2 15 -3 15 -3 16 -2 17 -2 16 -2 16 -2 15 
-1 13 -2 12 -1 11 0 8 -1 6 -1 4 -1 2 0 -1 
1 -3 0 -5 1 -7 0 -8 1 -11 1 -11 1 -13 1 -14 
2 -14 2 -14 2 -14 2 -13 1 -11 3 -10 3 -8 1 -5 
2 -2 3 1 3 4 3 11 2 13 4 17 4 19 4 20 
3 22 3 20 4 19 4 21 4 18 4 16 5 14 4 12 
4 9 4 8 4 6 5 3 5 2 5 0 4 -1 5 -3 
5 -4 4 -5 4 -5 5 -7 5 -7 4 -8 5 -8 4 -9 
5 -9 4 -9 5 -10 5 -11 4 -10 4 -11 5 -11 4 -11 
5 -12 4 -12 5 -13 5608 1031 100 MP stroke
4 -13 4 -13 4 -14 4 -14 4 -14 4 -14 4 -15 4 -15 
4 -16 4 -15 4 -16 3 -16 4 -17 3 -16 4 -17 4 -17 
3 -17 3 -18 4 -17 3 -19 4 -18 3 -18 4 -19 3 -18 
3 -19 3 -18 5 -19 3 -17 3 -15 4 -14 3 -11 3 -7 
3 -4 4 1 3 6 3 11 4 15 3 17 3 21 3 23 
3 25 3 24 3 25 3 25 3 24 3 22 2 22 3 20 
2 18 3 17 2 15 2 13 2 12 3 10 2 9 1 8 
2 7 2 5 2 5 2 5 1 4 2 5 1 5 1 5 
1 5 1 6 1 7 1 8 2 9 0 9 1 10 1 11 
0 22 1 11 -1 10 0 29 -1 8 0 8 -1 6 0 5 
-1 4 -1 3 -1 2 -1 0 -2 -1 -1 -2 -1 -3 -1 -3 
-1 -4 -2 -4 -1 -4 -2 -5 -1 -4 -1 -3 -2 -4 -1 -2 
-2 -3 -1 -1 -1 -1 5431 988 100 MP stroke
-2 1 0 1 -1 1 -2 2 -1 3 -3 3 -2 4 -1 4 
-1 4 -2 3 -1 4 -1 3 -1 3 -1 3 0 2 -1 2 
-1 0 1 0 -2 0 0 -1 -1 -1 0 -29 1 -4 0 -9 
1 -4 0 -4 1 -4 0 -3 1 -3 1 -2 0 -2 1 -1 
1 -1 1 0 1 0 1 0 1 1 2 1 1 1 1 2 
1 2 1 2 2 2 1 2 1 2 2 2 1 2 2 1 
1 2 2 1 1 2 2 1 1 1 2 0 1 1 2 0 
1 1 1 -1 2 0 2 0 1 -1 1 -1 2 -2 1 -2 
1 -2 2 -3 1 -3 1 -4 1 -4 1 -5 1 -5 1 -6 
0 -7 1 -7 0 -7 1 -8 0 -8 1 -8 0 -38 -1 -7 
0 -10 -1 -3 -1 -3 0 -1 -1 -1 0 1 -2 1 -1 3 
-1 2 -1 4 -1 3 -1 3 -1 3 -2 1 -1 1 -2 -1 
-1 -2 -1 -4 -2 -6 5414 1122 100 MP stroke
-1 -8 -1 -10 -2 -11 -1 -14 -1 -16 -2 -17 -1 -19 -1 -20 
-2 -20 -1 -21 -1 -20 -2 -20 -1 -18 -1 -16 -1 -14 -1 -8 
-1 -4 -2 -1 0 3 -1 6 -1 9 0 87 1 10 1 8 
1 5 1 4 1 2 2 -1 2 -4 2 -5 2 -8 2 -11 
3 -12 3 -15 4 -18 3 -19 3 -23 4 -24 4 -27 3 -29 
5 -33 4 -34 5 -37 4 -39 5 -40 5 -41 5 -39 5 -35 
6 -28 5 -14 6 0 5 12 6 22 6 29 6 32 6 32 
6 33 6 30 7 28 6 26 7 23 7 20 6 18 6 16 
7 13 7 10 7 8 7 6 6 4 6 1 8 -1 6 -4 
7 -5 8 -7 7 -9 6 -11 6 -13 6 -14 6 -14 6 -16 
7 -15 5 -16 6 -15 6 -14 5 -13 7 -10 4 -8 6 -3 
5 -2 4 2 8 4 4 8 2 10 7 11 5 12 5 13 
5 14 5 12 4 12 5056 1510 100 MP stroke
4 10 4 9 5 9 4 7 3 7 4 5 4 6 3 5 
5 6 3 5 3 7 4 7 4 8 3 8 3 9 3 10 
3 9 3 11 3 9 3 9 3 8 2 7 4 7 2 5 
2 5 2 3 2 2 3 0 2 1 2 0 2 -1 2 -3 
2 -3 2 -4 2 -5 2 -4 1 -6 1 -5 1 -6 2 -5 
1 -6 1 -4 1 -4 1 -4 1 -3 1 -1 1 0 -1 0 
2 3 0 2 1 3 0 3 1 3 0 10 1 2 0 2 
1 1 -1 1 0 11 -3 5 2 6 1 7 -1 9 1 10 
0 11 -1 12 1 14 -1 13 1 14 0 67 1 1 1 -1 
0 -4 1 -5 0 -7 1 -9 2 -10 0 -10 2 -12 1 -11 
2 -12 1 -11 1 -10 2 -9 2 -7 2 -7 2 -4 2 -3 
2 -2 3 1 2 2 3 2 3 4 2 5 3 5 3 4 
3 4 3 4 3 2 4880 1271 100 MP stroke
3 2 3 0 4 -1 3 -3 4 -3 3 -4 4 -4 3 -5 
4 -4 3 -3 4 -3 3 -1 4 0 4 1 4 1 3 2 
3 1 4 1 4 0 3 -2 3 -3 4 -4 4 -6 3 -8 
3 -10 4 -12 3 -12 3 -13 3 -14 3 -15 4 -14 3 -15 
3 -15 2 -13 3 -14 3 -12 3 -12 2 -11 3 -11 2 -9 
3 -9 2 -8 3 -8 2 -6 2 -2 2 -2 2 1 2 3 
2 4 2 6 2 6 1 8 2 7 2 6 1 6 2 3 
1 2 2 -2 1 -3 1 -6 2 -8 2 -11 1 -14 1 -17 
2 -20 1 -22 2 -22 1 -22 1 -25 2 -23 1 -23 2 -21 
1 -20 2 -14 1 -9 2 -5 1 -3 1 -1 2 3 1 7 
2 9 1 10 2 11 1 11 2 11 2 11 1 13 2 11 
1 10 2 11 2 12 1 9 2 8 2 8 1 7 2 5 
2 3 1 2 2 2 4652 1619 100 MP stroke
2 0 1 -1 2 -2 2 -3 2 -4 2 -5 2 -5 1 -7 
2 -6 2 -7 2 -8 2 -9 2 -9 2 -9 2 -9 2 -10 
1 -9 2 -10 2 -10 2 -11 2 -8 1 -10 2 -10 2 -10 
1 -9 2 -12 2 -12 1 -8 2 -2 2 -4 2 -3 1 -4 
2 -3 2 -3 2 -5 2 -6 2 -10 2 -14 2 -18 2 -21 
2 -17 3 -22 2 -20 2 -20 2 -17 2 -5 3 7 2 15 
2 23 2 28 2 30 3 31 2 29 2 25 3 21 2 18 
2 14 3 10 2 7 3 4 2 1 2 -2 3 -5 2 -6 
3 -9 2 -11 3 -11 2 -13 3 -13 2 -12 3 -9 2 -6 
3 -2 2 7 3 10 2 12 3 16 2 20 3 19 2 20 
2 17 3 15 2 15 3 13 2 9 3 5 2 6 2 0 
2 0 2 -2 3 -5 2 -6 3 -8 2 -9 2 -10 2 -11 
3 -12 2 -13 2 -14 4440 1768 100 MP stroke
2 -16 2 -17 2 -20 3 -17 2 -21 2 -21 2 -25 2 -27 
2 -32 2 -31 2 -35 2 -44 2 -60 2 -55 2 -65 2 -70 
1 -90 2 -167 2 -551 4402 3132 20 MP stroke
-1 158 2 105 1 100 6 81 11 62 1 47 2 37 3 34 
1 28 1 27 3 26 4 22 3 23 1 24 1 24 2 23 
2 23 1 25 1 23 2 24 2 22 2 21 2 21 2 19 
2 18 1 17 1 15 2 14 1 13 1 10 1 12 1 10 
2 9 0 8 1 7 1 6 0 5 3 5 1 4 0 3 
1 4 0 2 2 3 1 2 1 1 3 1 -1 0 1 0 
2 -1 0 -1 2 -3 1 -3 1 -5 1 -5 2 -7 1 -9 
1 -9 3 -12 2 -13 1 -15 3 -15 2 -18 1 -19 4 -22 
2 -21 3 -24 1 -26 3 -28 1 -30 0 -31 5 -23 2 -32 
3 -31 3 -33 3 -31 4 -30 4 -25 5 -21 4 -8 1 7 
5 13 3 25 2 44 4 44 5 47 5 52 2 46 4 48 
5 43 3 40 6 37 6 34 3 31 5 28 5 26 4 23 
4 20 5 19 5 16 3064 1457 100 MP stroke
5 15 5 13 5 11 5 10 5 9 4 7 5 7 6 6 
6 5 5 4 5 3 6 2 5 2 6 1 6 0 5 -2 
6 -2 6 -3 6 -5 5 -6 7 -7 5 -8 6 -10 6 -11 
6 -13 5 -14 6 -15 6 -16 6 -17 5 -18 6 -19 5 -19 
6 -19 6 -19 5 -19 6 -19 5 -16 6 -16 5 -15 5 -13 
6 -11 5 -10 5 -8 5 -6 5 -5 6 -4 5 -3 5 -2 
5 -2 6 -1 5 -2 5 -1 5 -1 5 -1 5 -1 5 -2 
5 -3 5 0 5 -2 5 -1 5 -1 5 -1 5 0 5 0 
5 2 5 1 5 2 5 2 5 1 5 2 4 1 5 2 
5 0 5 0 4 1 5 0 5 0 4 -2 5 -2 4 -3 
5 -1 4 -3 4 -4 5 -4 4 -4 4 -5 4 -4 4 -4 
4 -5 4 -4 4 -3 4 -3 4 -1 4 -1 3 1 4 1 
4 3 3 7 4 7 2569 1771 100 MP stroke
4 8 3 10 4 10 4 11 3 13 4 13 3 13 4 14 
4 14 3 15 4 14 3 14 3 14 4 14 3 13 4 13 
3 12 4 11 3 11 3 9 4 9 3 9 4 7 3 7 
4 6 3 5 4 5 3 4 4 4 4 3 3 2 4 2 
4 2 4 1 4 1 4 1 4 0 4 1 5 0 4 0 
5 0 3 0 5 0 5 -1 5 0 4 0 6 -1 5 0 
5 0 5 0 5 1 6 0 5 1 5 2 6 1 5 2 
6 3 6 2 5 4 6 3 7 4 6 4 5 4 6 5 
6 5 5 6 6 5 6 6 6 6 5 7 5 6 7 6 
6 6 6 7 6 6 6 5 6 6 6 6 6 5 6 5 
6 4 6 5 6 4 6 4 6 3 6 4 6 3 6 3 
5 3 4 2 4 3 5 2 5 2 5 3 5 2 4 2 
5 2 4 3 5 2 2103 1273 100 MP stroke
3 3 4 2 4 3 4 3 4 3 3 2 6 3 5 3 
1 3 4 2 4 2 3 2 3 1 3 0 5 0 3 0 
2 -2 4 -2 2 -4 2 -4 4 -5 2 -6 2 -7 2 -8 
2 -9 1 -10 2 -11 2 -12 3 -13 1 -14 1 -15 1 -16 
1 -17 1 -17 1 -19 2 -19 2 -20 0 -21 2 -22 1 -22 
0 -22 1 -24 1 -23 1 -23 1 -23 0 -22 1 -22 1 -20 
0 -17 1 -15 1 -12 -2 -7 1 -3 2 3 0 6 1 12 
1 16 1 18 3 22 1 23 2 25 2 25 2 26 3 25 
2 25 3 24 3 24 3 22 3 22 2 20 3 18 4 18 
4 16 2 15 4 13 3 12 2 10 2 8 1 7 4 6 
2 4 0 2 3 0 1 -1 1 -3 3 -5 2 -6 0 -31 
1 -15 -1 -17 0 -66 -1 -27 1 -31 -1 -35 -1 -38 -1 -42 
-2 -48 -2 -52 -1 -57 1927 1776 100 MP stroke
-2 -62 -2 -65 -3 -63 -1 -54 -3 -31 -2 2 -2 31 -3 48 
-1 55 -3 56 -3 52 -3 48 -3 43 -3 38 -4 35 -3 32 
-1 28 -4 26 -3 23 -2 21 -4 20 -2 17 -4 15 -3 14 
-3 13 -2 11 -1 10 -2 8 -3 8 -2 6 -4 6 -2 5 
-2 4 -3 3 -2 3 -3 2 -2 1 -2 1 -2 1 -3 0 
-2 0 -2 -1 -2 -1 -2 -2 -2 -3 -3 -3 -1 -4 -3 -4 
-2 -5 -1 -6 -2 -6 -1 -6 -1 -8 -3 -7 -2 -8 -1 -9 
-2 -9 -1 -9 -1 -9 -1 -9 -2 -10 -1 -9 -1 -9 0 -9 
-2 -9 -1 -8 0 -9 -1 -8 -1 -7 0 -7 -1 -7 -1 -6 
-1 -7 0 -12 -1 -6 0 -6 2 -6 0 -7 1 -7 1 -7 
-1 -8 1 -7 0 -17 1 -8 1 -9 1 -9 0 -10 2 -10 
2 -11 -1 -13 1 -15 1 -17 1 -20 2 -24 0 -29 2 -35 
1 -38 1 -41 2 -40 2056 1991 100 MP stroke
1 -31 1 -7 1 23 1 45 2 60 1 60 2 56 1 51 
2 41 2 32 1 22 2041 1639 12 MP stroke
3307 3428 PD
-1 209 0 451 -1 66 0 71 -1 45 -1 35 0 23 -1 25 
0 16 -1 11 0 16 -1 -1 0 -6 -1 -3 1 -2 1 -2 
0 -4 1 -2 0 -3 1 -4 1 -6 1 -10 0 -11 1 -15 
1 -16 0 -20 1 -26 1 -32 1 -37 2 -45 0 -49 -1 -75 
1 -56 1 -74 1 -95 2 -91 1 -98 1 -66 0 17 1 76 
2 84 1 89 1 76 1 68 1 59 2 55 1 49 1 45 
1 42 1 38 0 36 1 33 1 33 2 31 0 30 1 29 
3 27 1 27 1 28 1 26 0 27 1 25 0 50 1 24 
0 23 1 22 0 56 1 16 1 14 1 12 1 11 -1 8 
0 6 2 5 1 4 1 1 1 -2 0 -6 1 -5 1 -5 
1 -7 1 -6 1 -8 0 -7 2 -8 1 -8 0 -26 1 -9 
1 -10 -1 -11 1 -11 1 -12 1 -13 1 -15 0 -16 1 -17 
0 -19 1 -21 1 -23 1392 2158 100 MP stroke
0 -26 2 -27 2 -29 0 -30 1 -31 0 -51 1 -14 0 -1 
0 126 -1 48 0 48 -1 46 0 45 -1 41 0 39 -1 37 
-1 33 -2 32 -1 28 -1 27 -1 24 -1 22 -2 20 -2 18 
-2 17 -2 15 -1 13 -2 11 -1 11 -2 8 -3 7 -2 6 
-1 5 -2 3 -2 2 -3 1 -4 -1 1 -2 -3 -3 -3 -4 
0 -5 -3 -6 -1 -8 -1 -8 -2 -10 0 -10 -3 -12 -2 -12 
1 -13 -2 -14 0 -30 -1 -16 0 -50 -1 -17 0 -84 1 -17 
-1 -16 1 -15 0 -15 1 -15 0 -14 -1 -13 0 -47 -1 -10 
-1 -9 -1 -7 0 -7 -1 -6 0 -4 1 -4 -2 -3 -1 -2 
-2 -2 -1 -1 0 -1 -1 -2 -2 0 -2 -1 -1 -1 -3 -2 
-2 -2 -1 -3 -3 -3 -2 -3 -2 -3 -2 -4 -2 -3 -4 -2 
-1 -3 -3 -1 -1 -1 -3 1 -2 2 -1 7 -3 11 -1 15 
-4 19 -2 27 -1 31 1505 2068 100 MP stroke
-2 33 -1 39 -4 33 0 42 -4 31 -1 36 20 35 4 23 
-7 31 3 18 -7 23 -4 15 1 10 -1 9 -4 5 -4 3 
3 -1 -3 -1 -22 -12 -10 -19 4 7 -10 -17 6 6 20 -5 
0 -10 -6 -7 0 -25 -3 -10 0 -13 1 -14 -23 11 -15 -13 
4 4 -5 -3 -1 0 -1 0 -4 -1 1 0 -6 -3 -1 -4 
-2 -6 -6 -9 -2 -12 0 -31 2 -21 2 -25 -1 -27 -1 -30 
1 -34 -2 -36 -1 -38 0 -78 -1 -38 -2 -35 0 -48 -1 -11 
-1 -1 -1 7 1 12 -1 17 0 19 -1 19 -1 19 1 17 
0 16 -1 14 0 12 -1 10 0 8 -1 6 -1 3 0 1 
-1 -1 0 -4 -1 -7 0 -7 -2 -11 0 -13 -2 -16 -1 -19 
-1 -21 0 -23 1 -26 -1 -29 -2 -29 -1 -30 0 -55 -1 -20 
-1 -11 -1 11 -1 22 -2 31 0 35 -1 37 -1 37 -1 36 
-1 34 -1 32 -3 30 1633 2129 100 MP stroke
-2 28 -2 26 -2 23 -1 21 -1 20 -2 18 -2 16 -2 14 
-2 13 -2 12 -2 10 -2 10 -2 8 -2 8 -1 6 -2 6 
-3 5 -1 4 -2 3 -2 2 -4 2 -1 1 -4 0 0 -1 
-2 -2 -3 -3 -2 -4 -1 -4 -2 -6 -2 -6 -1 -7 -2 -8 
-1 -8 1 -9 -3 -10 -2 -10 0 -21 -2 -11 -1 -10 1 -11 
-1 -10 -1 -9 0 -9 1 -8 0 -8 1 -6 0 -6 -2 -4 
0 -4 2 -3 0 -7 1 -2 0 -2 1 -2 1 -3 1 -3 
2 -3 1 -5 0 -5 2 -6 1 -7 2 -8 2 -10 2 -10 
1 -11 1 -13 2 -13 1 -15 2 -15 2 -16 2 -18 2 -18 
2 -19 2 -19 2 -18 2 -19 2 -18 2 -16 2 -15 2 -11 
2 -8 2 -3 1 1 2 6 2 11 2 14 2 18 2 21 
2 23 1 23 3 24 2 24 2 22 2 23 2 22 2 20 
2 20 2 18 1 17 1620 2102 100 MP stroke
2 16 1 14 2 14 1 13 1 12 1 11 1 9 2 9 
0 8 1 7 3 6 1 5 1 5 1 3 0 2 1 2 
1 1 2 0 1 -1 1 0 1 0 1 0 1 2 1 3 
1 4 2 6 2 8 0 11 1 12 0 14 2 15 1 17 
1 17 2 18 0 17 2 18 0 17 1 17 2 16 0 15 
2 15 0 13 1 12 2 12 -1 11 2 9 0 10 -1 8 
1 7 0 7 2 5 0 4 -2 4 1 2 2 2 -1 0 
-2 -1 1 -2 -2 -2 3 -2 -1 -2 -2 -3 -3 -2 4 3 
-4 1 2 5 25 6 5 3 -3 7 1 4 -1 4 -1 3 
-2 0 4 -3 -18 2 -21 -7 6 -3 -3 -6 -1 -6 1 -6 
-3 -6 0 -5 -3 -5 1 -4 1 -4 -1 -2 1 -2 -2 -1 
1 0 1 0 -1 1 1 2 -1 2 2 3 0 2 -1 3 
0 5 1 2 -1 1 1583 1633 100 MP stroke
1 2 1 0 -1 0 0 -3 2 -3 0 -12 1 -6 1 -6 
0 -8 1 -7 0 -9 -1 -9 2 -9 1 -9 1 -9 -1 -9 
1 -9 1 -8 0 -7 2 -6 1 -5 0 -3 1 -2 3 -1 
1 2 1 2 1 4 -1 5 3 6 1 6 -1 7 1 6 
-1 7 0 6 2 5 -1 5 1 4 0 3 -1 3 0 2 
0 -1 -1 -1 0 -2 -2 -2 -3 -4 0 -4 2 -3 0 -4 
-2 -4 1 -4 -2 -4 -4 -3 1 -3 0 -3 -2 -2 -1 -2 
-1 -2 -2 -1 -1 -1 -1 -1 -2 0 -1 -1 0 1 -2 0 
-1 1 -1 0 -1 1 -1 2 -1 1 -2 2 -1 2 -1 2 
-1 3 -1 2 -1 3 0 4 -1 4 -1 4 -1 4 -1 5 
0 5 -1 6 -2 6 -1 6 -1 6 1 7 0 6 -2 6 
0 17 -1 5 0 13 1 2 0 1 1 1 2 1 1 0 
1 -1 2 0 1 -1 1597 1623 100 MP stroke
0 -1 1 -2 -2 -1 2 -2 4 -1 2 -2 1 -2 1 -1 
1 -2 2 -2 2 -2 2 -1 2 -2 1 -2 1 -2 1 -2 
2 -2 1 -3 2 -2 2 -3 3 -2 2 -3 2 -3 1 -2 
2 -3 2 -3 1 -3 2 -2 1 -3 2 -2 1 -3 1 -2 
3 -2 1 -1 0 -2 1 -1 1 -2 1 0 1 -1 1 -1 
1 -1 0 5 -1 1 1 3 -1 3 -1 3 1 3 -1 4 
-1 5 0 5 -2 6 -1 5 -1 6 -2 7 -2 6 -1 7 
-2 6 -2 7 -2 6 -2 7 -1 6 -3 6 -3 5 -2 5 
-1 5 -3 5 -3 4 -2 4 -2 3 -3 3 -3 3 -2 2 
-2 3 -3 1 -2 2 -2 1 -3 0 -3 1 -3 0 -2 -1 
-4 -1 -3 -2 -2 -3 -3 -3 -3 -4 -4 -5 -3 -6 -3 -7 
-4 -9 -4 -9 -4 -11 -3 -12 -4 -13 -4 -15 -3 -16 -4 -18 
-4 -20 -4 -22 -4 -23 1674 1748 100 MP stroke
-4 -24 -5 -27 -4 -28 -4 -29 -5 -30 -4 -30 -4 -29 -5 -27 
-5 -24 -5 -17 -5 -11 -5 -2 -5 5 -5 13 -6 18 -6 22 
-5 25 -5 25 -6 25 -6 25 -6 23 -6 22 -6 20 -5 19 
-6 17 -6 16 -5 14 -6 13 -7 11 -7 11 -4 10 -6 8 
-9 9 -4 7 -7 7 -8 7 -6 6 -8 6 -7 6 -7 6 
-7 5 -8 6 -7 5 -7 6 -7 5 -6 5 -9 5 -9 5 
-7 5 -7 4 -7 5 -8 4 -8 4 -7 3 -8 3 -7 2 
-9 2 -9 0 -8 1 -8 -1 -7 -2 -8 -2 -8 -3 -8 -4 
-7 -5 -8 -6 -8 -6 -6 -7 -10 -9 -8 -9 -4 -10 -7 -11 
-7 -12 -9 -13 -7 -15 -6 -16 -8 -19 -5 -22 -6 -24 -7 -28 
-8 -32 -6 -38 -8 -44 -6 -51 -7 -59 -8 -70 -6 -81 -8 -83 
-7 -76 -7 -9 -8 51 -5 102 -7 80 -6 97 -1 72 -7 59 
-6 51 -6 38 -7 32 2320 1740 100 MP stroke
-5 23 -6 17 -5 12 -6 5 -5 -1 -5 -6 -5 -13 -5 -16 
-5 -20 -4 -25 -4 -28 -4 -29 -5 -28 -4 -26 -2 -22 -6 -14 
-6 -18 -3 14 -4 13 -3 20 -3 20 -3 20 -4 19 -3 19 
-2 18 -3 16 -2 16 -4 14 -3 13 -2 12 -4 11 -2 9 
-3 9 -2 8 -3 8 -3 7 -2 6 -2 5 -2 5 -2 4 
-3 4 -2 4 -2 3 -1 3 -3 5 -3 5 -2 5 -4 6 
-1 6 1 6 -2 7 -3 8 -3 8 -2 8 -2 8 -3 7 
-3 9 -3 7 -3 8 -3 7 -3 6 -2 6 -3 6 -3 6 
-2 5 -3 5 -3 4 -2 5 -2 4 -3 4 -3 5 -5 4 
-6 4 -2 4 -2 4 -4 3 -3 4 -3 3 -1 4 -3 3 
-5 3 -1 2 -3 3 -4 2 -4 2 -4 2 -4 1 -4 2 
-4 2 -3 1 -4 1 -4 2 -3 1 -4 1 -3 0 -5 1 
-3 0 -4 -1 -4 -1 2641 1406 100 MP stroke
-3 -3 -4 -3 -3 -5 -4 -6 -4 -7 -3 -9 -3 -10 -3 -11 
-4 -14 -3 -14 -3 -16 -3 -16 -3 -18 -3 -19 -3 -20 -3 -19 
-3 -20 -3 -19 -3 -19 -3 -17 -3 -17 -2 -14 -3 -13 -3 -12 
-2 -9 -3 -6 -3 -5 -2 -3 -3 -2 -2 -2 -3 -3 -2 -1 
-2 -2 -3 -3 -2 -4 -3 -6 -3 -8 -2 -7 -2 -10 -3 -12 
-2 -12 -3 -12 -2 -13 -3 -13 -3 -11 -3 -11 -2 -8 -3 -6 
-3 -3 -3 0 -2 3 -3 7 -3 7 -3 11 -3 14 -2 13 
-3 15 -3 15 -3 14 -3 14 -3 14 -3 12 -2 12 -3 10 
-3 9 -2 8 -3 6 -2 5 -2 4 -3 2 -2 1 -2 -1 
-2 -1 -2 -3 -2 -4 -3 -4 -1 -5 -2 -6 -2 -6 -2 -5 
-2 -6 -1 -7 -2 -6 -1 -5 -2 -6 -2 -5 -2 -6 -2 -5 
-2 -5 -2 -5 -1 -5 -3 -5 -2 -6 -2 -6 -2 -7 -2 -7 
-2 -9 -3 -9 -2 -11 2894 1859 100 MP stroke
-3 -12 -3 -14 -2 -15 -3 -18 -5 -17 -5 -17 1 -19 -3 -21 
-4 -22 -2 -23 -7 -20 -4 -23 0 -15 -4 -18 -4 -19 -4 -18 
-4 -7 -4 -14 -4 -7 -5 -5 -4 -6 -4 -6 -5 1 -4 0 
-5 -2 -4 -2 -5 3 -5 -2 -4 -3 -5 2 -5 -4 -5 -5 
-5 -9 -5 -13 -5 -12 -5 -16 -5 -21 -5 -27 -5 -30 -5 -35 
-5 -31 -5 -32 -4 -22 -5 -37 -5 10 -5 18 -5 39 -5 63 
-4 46 -5 39 -5 43 -5 38 -4 29 -5 24 -5 16 -4 16 
-4 7 -5 5 -4 -3 -5 -5 -4 -10 -4 -14 -4 -16 -4 -17 
-4 -21 -4 -10 -4 -14 -4 -6 -4 2 -3 2 -4 1 -4 8 
-3 3 -3 4 -4 3 -3 -4 -3 -10 -3 -12 -4 -19 -3 -23 
-3 -34 -3 -24 -3 -26 -3 -17 -3 -20 -3 -26 -3 2 -2 -14 
-3 -12 -3 -25 -2 -7 -3 -82 -2 -89 -3 -254 -2 69 -2 -68 
-3 39 -2 8 -2 131 3275 2709 100 MP stroke
-1 91 -3 127 -1 56 -2 101 -2 62 -2 42 -2 32 0 21 
-3 16 -3 7 0 -4 -1 0 -2 -6 -1 -19 -2 -17 -1 -15 
-1 -17 -1 -24 -2 -36 -1 -9 -1 -1 -1 -13 -1 1 -1 -6 
-1 3 -1 2 -1 3 -1 0 -1 15 0 22 -1 17 -1 27 
-1 21 -1 23 0 17 -1 14 0 11 -1 6 0 3 0 -73 
1 -26 0 -76 1 -39 0 -26 1 -27 1 -37 1 -32 1 -46 
0 -43 1 -38 1 -127 1 -99 1 -218 2 71 1 127 1 -8 
2 -105 0 117 2 162 2 10 -1 -26 5 -26 -6 23 3303 2698 64 MP stroke
2 1 0 259 3 124 0 130 1 41 -1 33 0 22 1 15 
-1 8 0 3 -1 -3 0 -18 -1 -15 1 -17 0 -19 -1 -22 
0 -22 -1 -23 0 -42 -1 -18 0 -15 -1 -10 0 -6 -1 4 
0 8 -1 11 0 28 -1 16 0 15 -3 15 -2 15 1 12 
-1 12 -1 9 0 8 -1 7 0 4 -2 3 0 1 -1 1 
0 -4 -1 -2 2 -3 -1 -3 0 -12 1 -1 2 1 1 2 
0 1 4 3 0 2 -1 3 3 3 1 3 0 3 4 3 
0 3 2 3 2 3 -1 4 4 3 2 3 1 3 3 2 
0 3 4 2 1 2 0 2 4 2 2 1 2 0 3 0 
1 0 2 -1 1 -1 1 -2 1 -2 3 -3 1 -3 2 -4 
3 -4 -1 -5 2 -5 1 -5 1 -6 1 -6 1 -6 3 -7 
0 -7 1 -8 2 -7 0 -9 2 -8 1 -9 1 -9 2 -9 
0 -10 2 -10 1 -11 1420 2025 100 MP stroke
0 -11 1 -12 0 -12 1 -14 0 -14 1 -16 1 -17 0 -19 
1 -22 2 -23 1 -27 0 -30 1 -33 1 -38 0 -88 1 -54 
0 -57 1 -59 1 -65 1 -42 1 -23 1 19 0 63 1 77 
0 163 1 73 0 71 2 63 1 53 -1 63 1 35 0 58 
-2 36 0 77 1 26 1 26 0 75 -1 4 0 5 -1 1 
-1 1 -1 2 0 4 -1 2 -1 3 -1 2 0 3 -1 2 
-1 1 -1 0 -1 -1 -1 -2 -1 -3 0 -5 -2 -5 0 -10 
-1 -5 0 -3 -1 1 0 -4 -1 16 -1 2 -1 17 0 32 
-3 17 -3 14 2 15 -1 12 0 11 -1 9 -2 8 0 5 
-1 4 0 2 -1 0 -1 -1 -1 -4 -2 -4 1 -7 -1 -8 
-1 -11 0 -12 -2 -14 -1 -16 -1 -19 -1 -21 -1 -23 -1 -26 
0 -29 -2 -32 0 -35 -2 -39 0 -89 -1 -52 -1 -58 -1 -64 
-1 -73 -1 -83 -1 -98 1451 2384 100 MP stroke
0 -117 -2 -159 0 -204 1 -604 1452 3468 5 MP stroke
5 717 5 210 5 161 5 138 4 95 4 82 4 61 3 56 
3 45 3 38 2 30 3 24 2 17 2 13 2 7 2 2 
1 -4 1 -9 1 -15 1 -21 1 -28 0 -35 1 -43 0 -599 
-1 -219 0 -120 -1 176 0 175 -1 145 -1 95 -1 64 -1 56 
-1 37 -1 31 -1 22 -1 13 -1 6 -1 5 -1 -1 -2 0 
-1 3 -1 1 -1 5 -1 8 -2 10 -1 12 -1 16 -1 17 
-1 20 -1 17 -1 18 -1 16 0 15 -1 13 -1 14 0 11 
-1 10 0 15 -1 7 0 7 1 2 0 -1 1 -3 0 -10 
1 -7 1 -8 0 -7 1 -10 1 -9 0 -9 1 -10 1 -9 
2 -5 1 -5 1 -4 2 -1 1 0 2 3 2 7 2 6 
2 13 2 14 2 21 3 21 2 21 3 22 2 23 3 23 
3 21 2 21 3 18 3 17 4 13 3 13 3 9 3 7 
3 6 3 3 4 2 3653 1414 100 MP stroke
3 0 3 -2 4 -4 3 -6 4 -8 4 -9 3 -11 4 -13 
4 -14 4 -13 4 -13 4 -16 4 -13 4 -13 5 -11 4 -9 
4 -7 5 -4 4 0 5 3 4 6 5 7 5 11 4 12 
5 14 4 17 5 19 4 21 5 21 4 21 5 21 4 20 
5 19 4 17 4 15 5 12 5 9 4 7 5 3 5 1 
4 -1 5 -5 5 -6 4 -9 5 -11 5 -11 5 -12 4 -13 
4 -11 5 -10 4 -8 3 -4 4 -1 5 2 4 5 4 5 
4 7 4 8 4 5 4 7 5 5 4 1 4 -1 4 -5 
4 -9 4 -13 5 -18 4 -24 4 -30 5 -38 4 -45 4 -55 
4 -68 5 -82 4 -104 5 -137 4 -189 4 -331 3 -578 4 571 
5 293 5 150 3 117 5 81 4 57 4 41 5 27 5 21 
4 15 4 10 4 3 5 -1 4 -4 5 -6 4 -8 5 -8 
4 -8 5 -6 4 -4 3229 1747 100 MP stroke
5 -4 4 -4 4 -2 5 -4 4 -3 5 4 5 0 4 0 
5 -1 5 -2 4 -2 4 -4 4 -4 5 -3 4 -3 5 -2 
4 -1 4 2 4 3 5 7 4 9 4 12 5 13 4 16 
4 15 4 15 5 15 4 13 4 11 5 10 4 8 4 6 
4 4 5 2 4 0 5 0 4 -3 5 -3 4 -4 5 -4 
4 -4 5 -2 4 -3 5 -1 4 0 5 1 4 3 4 3 
5 4 4 4 5 4 4 3 5 2 4 1 4 0 4 -2 
5 -4 5 -7 4 -9 4 -10 5 -15 4 -17 5 -20 4 -23 
5 -25 10 -30 2 -33 1 -38 7 -39 4 -42 5 -45 5 -44 
5 -44 5 -32 5 -24 6 -3 5 14 5 23 6 32 5 33 
6 36 5 34 6 30 6 28 6 26 7 19 5 19 7 15 
7 12 6 10 6 6 7 5 6 3 7 -1 7 0 7 -2 
7 -4 7 -3 7 -6 2744 1797 100 MP stroke
7 -4 7 -5 8 -5 8 -4 7 -3 8 -3 7 -2 8 -2 
8 -2 8 -1 9 -3 8 -2 8 -5 9 -6 8 -7 9 -10 
8 -11 9 -13 9 -14 9 -15 9 -17 9 -18 9 -18 10 -16 
9 -14 9 -13 10 -11 10 -6 9 -3 10 3 10 6 10 10 
10 13 10 16 10 18 10 23 10 23 11 24 10 25 11 25 
11 24 10 26 11 26 11 24 11 24 11 23 11 22 12 21 
11 21 11 19 12 19 12 17 11 17 12 16 11 16 12 14 
12 14 12 14 12 13 12 13 13 12 13 12 12 12 13 12 
12 12 13 11 13 12 12 11 13 11 13 11 12 11 12 10 
12 10 11 8 12 8 12 7 10 5 11 5 11 3 11 1 
10 0 10 -2 11 -3 9 -5 8 -7 10 -8 7 -10 9 -12 
10 -13 8 -15 8 -16 7 -17 8 -18 9 -19 7 -19 6 -18 
8 -18 7 -18 6 -15 1759 1510 100 MP stroke
7 -14 6 -11 7 -9 6 -6 6 -3 5 -1 6 2 6 3 
5 4 4 6 5 6 6 7 6 6 4 6 5 6 9 5 
4 5 3 4 5 3 3 3 5 2 5 2 3 1 4 1 
4 1 5 1 3 0 5 1 4 1 4 1 4 1 4 1 
4 1 4 1 4 1 5 0 4 0 8 -2 5 -3 -1 -5 
6 -6 4 -9 4 -11 5 -14 1 -17 2 -21 4 -24 3 -29 
4 -34 3 -40 3 -46 2 -51 2 -59 2 -66 3 -71 2 -73 
2 -66 1 -43 2 -9 1 24 1 44 0 46 1 44 0 38 
-1 29 0 23 -1 15 -1 9 0 3 -1 -2 -2 -7 -1 -12 
-3 -16 -2 -19 -3 -23 -2 -25 -3 -26 -4 -27 -1 -24 -4 -22 
-3 -15 -3 -8 -5 0 -3 9 -5 15 -6 20 -2 26 -5 26 
-3 27 -2 26 -7 25 -3 23 -3 22 -7 21 -4 18 -4 17 
-3 15 -4 14 -4 12 1615 1806 100 MP stroke
-3 11 -6 10 -4 8 -1 7 -3 5 -4 4 -4 3 -2 1 
-3 0 -3 -1 -2 -3 -2 -5 -2 -7 -3 -9 -1 -10 -1 -13 
-1 -16 -1 -18 0 -71 -1 -31 0 -118 1 -51 -1 -57 2 -66 
-1 -75 -1 -85 1 -105 0 -110 1 -127 1 -106 0 -18 1 65 
1 89 1 85 0 68 1 53 0 61 -1 48 2 42 0 38 
2 39 1 38 1 38 2 37 1 38 0 36 3 36 2 34 
3 32 1 31 2 28 1 26 1 23 1 22 1 18 2 17 
1 15 2 12 2 10 0 9 1 7 2 5 1 3 1 2 
1 1 2 -1 1 -1 1 -3 0 -3 3 -4 1 -5 1 -4 
2 -6 0 -6 2 -6 1 -6 -1 -6 2 -6 2 -4 2 -4 
0 -2 1 2 1 5 2 10 0 40 1 29 -1 34 0 37 
2 39 -1 37 3 39 -1 34 3 33 6 34 -2 25 4 25 
-9 18 -8 14 13 14 1586 1351 100 MP stroke
2 7 -3 4 2 0 -3 -4 2 -8 -2 -10 -2 -14 2 -18 
-7 -17 -7 -26 -1 -20 0 -24 -1 -24 -1 -23 -6 -24 -5 -22 
2 -22 -3 -19 -3 -17 -1 -14 -1 -12 -2 -8 2 -6 -3 -4 
-6 -2 2 0 0 1 -5 2 -1 3 -1 2 -2 3 -2 3 
-3 2 -2 1 -1 1 -2 1 -3 0 -2 -1 -1 -2 -2 -2 
-3 -3 -3 -3 -2 -3 -3 -4 -2 -4 -1 -3 -3 -4 -3 -4 
-1 -3 -2 -4 -2 -3 -1 -3 -3 -2 -4 -2 -2 -2 -3 -1 
0 -1 -4 -1 -5 1 -2 2 -3 2 -1 3 -4 4 -3 5 
-3 5 -3 6 -1 8 -3 7 -4 9 -2 8 -3 9 -3 9 
-3 9 -4 9 -4 9 -3 8 -3 8 -2 7 -6 7 -5 6 
-3 5 -4 5 -4 4 -3 4 -5 3 -4 3 -2 2 -3 1 
-5 2 -3 0 -3 1 -4 0 -4 -1 -4 -1 -4 -1 -4 -2 
-3 -2 -4 -3 -3 -3 1837 1556 100 MP stroke
-4 -5 -4 -5 -3 -6 -3 -6 -2 -8 -3 -9 -3 -10 -2 -11 
-3 -12 -2 -13 -3 -14 -2 -15 -2 -16 -1 -16 -2 -16 -2 -16 
-1 -15 0 -15 -1 -13 0 -35 1 -1 0 1 1 2 1 4 
1 4 1 4 1 5 2 4 2 5 2 3 2 4 1 3 
3 2 3 2 1 0 3 1 3 -1 3 -1 2 -2 2 -3 
3 -3 3 -4 3 -5 4 -5 3 -6 3 -6 4 -7 2 -7 
3 -8 5 -7 4 -8 3 -7 3 -8 3 -7 3 -6 2 -6 
4 -5 3 -5 3 -3 3 -3 3 -2 3 -1 3 0 2 1 
3 2 2 3 3 4 3 6 2 7 3 7 2 9 2 10 
2 11 2 11 2 13 3 13 0 14 2 14 3 14 2 14 
2 14 1 14 2 14 2 13 1 13 2 13 1 11 2 11 
1 11 1 10 1 9 1 8 1 7 1 7 2 6 2 5 
0 4 1 3 1 3 1709 1566 100 MP stroke
0 1 2 1 1 -1 1 -1 0 -2 1 -3 1 -5 0 -11 
1 -7 2 -8 0 -38 1 -11 -1 -11 1 -11 0 -22 1 -10 
1 -11 0 -9 -1 -9 1 -8 0 -14 1 -5 0 -4 2 -3 
0 -1 1 1 -2 2 1 4 0 4 -1 5 2 5 1 6 
0 28 -1 4 0 5 -1 1 1 0 0 -10 -1 -6 1 -9 
-1 -10 0 -12 1 -14 -1 -17 1 -18 0 -98 1 -30 0 -32 
2 -32 0 -32 1 -28 1 -21 0 -9 3 5 -1 19 2 31 
2 38 -1 39 3 45 -1 36 4 39 0 52 21 28 12 2 
-1 21 1 7 1 2 4 -5 -16 5 -11 -19 7 -9 -2 -22 
3 -21 2 -25 1 -28 3 -27 0 -29 3 -27 1 -26 2 -22 
3 -16 -1 -11 3 -4 1 2 2 8 1 14 1 17 3 20 
0 23 2 24 1 25 2 24 1 24 0 24 2 23 1 22 
2 21 0 37 3 18 1619 1678 100 MP stroke
0 16 2 14 3 14 0 13 1 11 1 11 1 9 1 9 
1 7 -1 7 1 6 1 4 1 4 3 3 1 3 1 1 
2 1 2 -1 2 -1 1 -2 3 -2 3 -4 2 -4 3 -5 
3 -5 3 -6 3 -6 3 -8 3 -7 4 -8 5 -8 1 -9 
4 -9 7 -9 0 -9 1 -10 4 -9 3 -10 3 -10 3 -10 
3 -10 4 -10 3 -10 3 -10 3 -10 2 -10 3 -9 2 -10 
2 -8 3 -9 2 -7 1 -7 2 -6 2 -5 1 -4 2 -3 
1 -2 1 -1 1 1 2 1 1 2 -1 3 0 3 1 3 
-1 4 -2 4 0 4 -1 4 -1 5 -2 4 -1 5 -1 5 
-2 5 -2 6 -2 5 -2 5 -2 6 -2 5 -2 6 -2 6 
-2 5 -3 6 -2 6 -2 6 -2 6 -1 6 -2 6 -2 6 
-2 6 -1 6 -2 6 -2 7 -1 6 -2 6 -1 6 -1 5 
-1 6 -1 6 -1 5 1546 1624 100 MP stroke
-1 5 -1 5 -1 5 0 8 -1 4 0 8 1 2 0 2 
1 1 1 0 1 -1 1 -1 1 -1 1 -1 1 -2 1 -2 
1 -2 1 -1 1 -2 1 -2 3 -1 0 -2 1 -1 1 -1 
2 -1 3 0 1 0 2 0 1 0 2 1 1 0 1 1 
1 1 2 1 1 1 1 0 1 1 0 1 2 1 1 2 
1 1 0 1 1 2 1 2 0 1 1 2 0 5 1 3 
0 15 -1 4 0 3 -1 3 0 4 -1 3 0 3 -1 3 
-1 3 0 3 -1 2 -2 3 -1 2 -1 2 0 2 -1 1 
-2 1 -1 1 -2 1 -1 1 -1 0 -2 -1 -2 -1 -1 -1 
-1 -2 -1 -2 -2 -3 -1 -4 0 -4 -1 -5 -1 -6 0 -14 
-1 -7 0 -9 -1 -9 0 -22 1 -12 0 -28 1 -16 1 -18 
0 -42 1 -24 1 -27 0 -30 2 -34 1 -37 0 -40 2 -43 
2 -46 1 -47 0 -45 1524 2097 100 MP stroke
1 -37 1 -24 1 -7 0 12 2 26 1 35 0 38 1 39 
2 38 0 34 3 32 3 28 0 53 3 25 -1 17 1 23 
3 20 1 19 0 20 1 15 2 14 0 12 2 9 0 11 
1 2 1 -2 0 -5 1 -8 1 -12 1 -16 -1 -20 1 -25 
0 -30 1 -38 1 -45 0 -55 1 -66 0 -345 1 -252 2 -264 
1486 2826 41 MP stroke
4 546 3 182 4 123 4 94 4 75 3 62 4 52 3 44 
4 36 3 30 3 25 4 19 3 15 3 12 4 7 3 5 
3 2 3 -1 3 -2 2 -4 3 -5 3 -7 2 -7 3 -7 
2 -8 2 -8 2 -7 2 -7 2 -6 2 -6 2 -6 2 -4 
1 -4 1 -4 1 -3 1 -3 2 -2 1 -2 0 -2 1 -2 
0 -1 1 -1 0 -4 -1 -1 0 -1 -1 -1 -1 0 -1 -1 
0 -1 -2 -1 -1 -1 -1 -2 -1 -2 -2 -2 -1 -3 -2 -4 
-2 -4 -2 -4 -2 -5 -2 -6 -3 -7 -2 -7 -2 -8 -3 -8 
-3 -9 -3 -10 -3 -11 -3 -11 -3 -12 -3 -13 -3 -13 -3 -15 
-4 -14 -4 -16 -3 -16 -4 -17 -4 -17 -4 -18 -4 -18 -4 -19 
-4 -19 -4 -19 -4 -19 -5 -19 -4 -19 -5 -18 -4 -19 -5 -17 
-4 -17 -3 -15 -9 -15 -6 -14 1 -13 -6 -12 -5 -12 -4 -10 
-5 -10 -4 -10 -5 -9 4752 1353 100 MP stroke
-4 -10 -5 -11 -5 -11 -4 -12 -5 -14 -4 -16 -5 -18 -4 -21 
-4 -25 -5 -26 -4 -28 -4 -32 -4 -35 -4 -39 -5 -38 -3 -37 
-5 -36 -3 -26 -4 -19 -4 -9 -3 2 -4 14 -3 18 -3 19 
-3 16 -3 13 -3 8 -3 6 -3 1 -3 -2 -2 -5 -3 -10 
-2 -14 -3 -7 -2 -10 -3 -9 -2 -5 -2 -2 -3 3 -2 6 
-2 8 -2 10 -2 9 -2 9 -2 7 -3 5 -1 1 -3 -1 
-1 -3 -2 -6 -2 -7 -2 -10 -2 -9 -2 -5 -1 -9 -2 -9 
-2 -2 -2 -2 -1 -3 -1 -2 -2 0 -1 3 -2 0 -1 -1 
-1 -1 -2 -1 -1 -6 -1 -1 -1 -2 -1 7 0 6 -1 7 
-1 10 -1 11 -1 19 0 26 -1 25 0 31 -1 43 0 101 
-1 48 0 47 1 45 0 123 1 35 1 33 0 30 1 26 
1 25 2 21 1 19 1 16 2 14 2 11 1 9 2 6 
2 5 2 2 3 1 4926 1000 100 MP stroke
2 -2 3 -4 3 -6 2 -8 4 -10 3 -12 3 -14 4 -16 
4 -19 4 -20 3 -21 5 -23 4 -24 4 -25 5 -23 5 -23 
5 -20 4 -18 6 -16 5 -12 5 -10 6 -6 6 -3 5 -1 
4 2 6 5 7 6 5 10 7 12 6 15 7 16 9 18 
7 18 7 19 7 18 7 18 8 15 7 14 8 12 7 9 
8 6 8 4 8 1 8 -1 8 -4 8 -6 9 -9 8 -11 
9 -14 8 -15 9 -18 9 -20 8 -21 10 -24 9 -24 8 -26 
10 -27 9 -28 9 -30 9 -30 10 -30 9 -31 10 -32 10 -32 
9 -33 10 -32 10 -33 10 -32 11 -33 9 -32 10 -33 11 -28 
10 -25 11 -22 9 -14 11 -2 12 4 9 11 11 18 9 21 
10 24 11 27 10 25 11 20 11 15 10 9 11 6 11 -1 
11 -8 11 -12 10 -16 11 -17 11 -21 11 -23 10 -22 11 -15 
11 -4 11 11 11 21 4140 1797 100 MP stroke
11 29 12 28 10 36 10 31 11 27 11 20 11 17 10 11 
11 6 10 1 10 -3 11 -8 10 -13 9 -18 11 -21 10 -24 
9 -26 9 -31 10 -30 9 -33 9 -28 9 -28 9 -25 9 -23 
8 -14 9 -15 8 -8 8 -8 9 -7 8 -7 8 -11 7 -11 
8 -11 7 -17 7 -19 8 -27 6 -39 7 -52 7 -73 6 -126 
6 -227 6 -405 3766 2979 43 MP stroke
gr

c8
0 sg
%%IncludeResource: font Helvetica
/Helvetica /WindowsLatin1Encoding 120 FMSR

1950  294 mt 
(Experiment 3a - Analog magnetometers - Bias of orientation) s
2502 4902 mt 
(Distance to center of sensor network [m]) s
 558 2855 mt  -90 rotate
(Bias [degree]) s
90 rotate

end %%Color Dict

eplot
%%EndObject

epage
end

showpage

%%Trailer
%%EOF
