%!PS-Adobe-2.0 EPSF-1.2
%%Creator: MATLAB, The MathWorks, Inc. Version 7.13.0.564 (R2011b). Operating System: Microsoft Windows 7.
%%Title: ..\figures\digital_all_pos_bias.eps
%%CreationDate: 11/13/2012  17:43:56
%%DocumentNeededFonts: Helvetica
%%DocumentProcessColors: Cyan Magenta Yellow Black
%%Extensions: CMYK
%%Pages: 1
%%BoundingBox:    52   199   549   602
%%EndComments

%%BeginProlog
% MathWorks dictionary
/MathWorks 160 dict begin
% definition operators
/bdef {bind def} bind def
/ldef {load def} bind def
/xdef {exch def} bdef
/xstore {exch store} bdef
% operator abbreviations
/c  /clip ldef
/cc /concat ldef
/cp /closepath ldef
/gr /grestore ldef
/gs /gsave ldef
/mt /moveto ldef
/np /newpath ldef
/cm /currentmatrix ldef
/sm /setmatrix ldef
/rm /rmoveto ldef
/rl /rlineto ldef
/s {show newpath} bdef
/sc {setcmykcolor} bdef
/sr /setrgbcolor ldef
/sg /setgray ldef
/w /setlinewidth ldef
/j /setlinejoin ldef
/cap /setlinecap ldef
/rc {rectclip} bdef
/rf {rectfill} bdef
% page state control
/pgsv () def
/bpage {/pgsv save def} bdef
/epage {pgsv restore} bdef
/bplot /gsave ldef
/eplot {stroke grestore} bdef
% orientation switch
/portraitMode 0 def /landscapeMode 1 def /rotateMode 2 def
% coordinate system mappings
/dpi2point 0 def
% font control
/FontSize 0 def
/FMS {/FontSize xstore findfont [FontSize 0 0 FontSize neg 0 0]
  makefont setfont} bdef
/ISOLatin1Encoding where {pop /WindowsLatin1Encoding 256 array bdef
ISOLatin1Encoding WindowsLatin1Encoding copy pop
/.notdef/.notdef/quotesinglbase/florin/quotedblbase/ellipsis/dagger
/daggerdbl/circumflex/perthousand/Scaron/guilsinglleft/OE/.notdef/.notdef
/.notdef/.notdef/quoteleft/quoteright/quotedblleft/quotedblright/bullet
/endash/emdash/tilde/trademark/scaron/guilsinglright/oe/.notdef/.notdef
/Ydieresis WindowsLatin1Encoding 128 32 getinterval astore pop}
{/WindowsLatin1Encoding StandardEncoding bdef} ifelse
/reencode {exch dup where {pop load} {pop StandardEncoding} ifelse
  exch dup 3 1 roll findfont dup length dict begin
  { 1 index /FID ne {def}{pop pop} ifelse } forall
  /Encoding exch def currentdict end definefont pop} bdef
/isroman {findfont /CharStrings get /Agrave known} bdef
/FMSR {3 1 roll 1 index dup isroman {reencode} {pop pop} ifelse
  exch FMS} bdef
/csm {1 dpi2point div -1 dpi2point div scale neg translate
 dup landscapeMode eq {pop -90 rotate}
  {rotateMode eq {90 rotate} if} ifelse} bdef
% line types: solid, dotted, dashed, dotdash
/SO { [] 0 setdash } bdef
/DO { [.5 dpi2point mul 4 dpi2point mul] 0 setdash } bdef
/DA { [6 dpi2point mul] 0 setdash } bdef
/DD { [.5 dpi2point mul 4 dpi2point mul 6 dpi2point mul 4
  dpi2point mul] 0 setdash } bdef
% macros for lines and objects
/L {lineto stroke} bdef
/MP {3 1 roll moveto 1 sub {rlineto} repeat} bdef
/AP {{rlineto} repeat} bdef
/PDlw -1 def
/W {/PDlw currentlinewidth def setlinewidth} def
/PP {closepath eofill} bdef
/DP {closepath stroke} bdef
/MR {4 -2 roll moveto dup  0 exch rlineto exch 0 rlineto
  neg 0 exch rlineto closepath} bdef
/FR {MR stroke} bdef
/PR {MR fill} bdef
/L1i {{currentfile picstr readhexstring pop} image} bdef
/tMatrix matrix def
/MakeOval {newpath tMatrix currentmatrix pop translate scale
0 0 1 0 360 arc tMatrix setmatrix} bdef
/FO {MakeOval stroke} bdef
/PO {MakeOval fill} bdef
/PD {currentlinewidth 2 div 0 360 arc fill
   PDlw -1 eq not {PDlw w /PDlw -1 def} if} def
/FA {newpath tMatrix currentmatrix pop translate scale
  0 0 1 5 -2 roll arc tMatrix setmatrix stroke} bdef
/PA {newpath tMatrix currentmatrix pop	translate 0 0 moveto scale
  0 0 1 5 -2 roll arc closepath tMatrix setmatrix fill} bdef
/FAn {newpath tMatrix currentmatrix pop translate scale
  0 0 1 5 -2 roll arcn tMatrix setmatrix stroke} bdef
/PAn {newpath tMatrix currentmatrix pop translate 0 0 moveto scale
  0 0 1 5 -2 roll arcn closepath tMatrix setmatrix fill} bdef
/vradius 0 def /hradius 0 def /lry 0 def
/lrx 0 def /uly 0 def /ulx 0 def /rad 0 def
/MRR {/vradius xdef /hradius xdef /lry xdef /lrx xdef /uly xdef
  /ulx xdef newpath tMatrix currentmatrix pop ulx hradius add uly
  vradius add translate hradius vradius scale 0 0 1 180 270 arc 
  tMatrix setmatrix lrx hradius sub uly vradius add translate
  hradius vradius scale 0 0 1 270 360 arc tMatrix setmatrix
  lrx hradius sub lry vradius sub translate hradius vradius scale
  0 0 1 0 90 arc tMatrix setmatrix ulx hradius add lry vradius sub
  translate hradius vradius scale 0 0 1 90 180 arc tMatrix setmatrix
  closepath} bdef
/FRR {MRR stroke } bdef
/PRR {MRR fill } bdef
/MlrRR {/lry xdef /lrx xdef /uly xdef /ulx xdef /rad lry uly sub 2 div def
  newpath tMatrix currentmatrix pop ulx rad add uly rad add translate
  rad rad scale 0 0 1 90 270 arc tMatrix setmatrix lrx rad sub lry rad
  sub translate rad rad scale 0 0 1 270 90 arc tMatrix setmatrix
  closepath} bdef
/FlrRR {MlrRR stroke } bdef
/PlrRR {MlrRR fill } bdef
/MtbRR {/lry xdef /lrx xdef /uly xdef /ulx xdef /rad lrx ulx sub 2 div def
  newpath tMatrix currentmatrix pop ulx rad add uly rad add translate
  rad rad scale 0 0 1 180 360 arc tMatrix setmatrix lrx rad sub lry rad
  sub translate rad rad scale 0 0 1 0 180 arc tMatrix setmatrix
  closepath} bdef
/FtbRR {MtbRR stroke } bdef
/PtbRR {MtbRR fill } bdef
/stri 6 array def /dtri 6 array def
/smat 6 array def /dmat 6 array def
/tmat1 6 array def /tmat2 6 array def /dif 3 array def
/asub {/ind2 exch def /ind1 exch def dup dup
  ind1 get exch ind2 get sub exch } bdef
/tri_to_matrix {
  2 0 asub 3 1 asub 4 0 asub 5 1 asub
  dup 0 get exch 1 get 7 -1 roll astore } bdef
/compute_transform {
  dmat dtri tri_to_matrix tmat1 invertmatrix 
  smat stri tri_to_matrix tmat2 concatmatrix } bdef
/ds {stri astore pop} bdef
/dt {dtri astore pop} bdef
/db {2 copy /cols xdef /rows xdef mul dup 3 mul string
  currentfile exch readhexstring pop
  dup 0 3 index getinterval /rbmap xdef
  dup 2 index dup getinterval /gbmap xdef
  1 index dup 2 mul exch getinterval /bbmap xdef pop pop}bdef
/it {gs np dtri aload pop moveto lineto lineto cp c
  cols rows 8 compute_transform 
  rbmap gbmap bbmap true 3 colorimage gr}bdef
/il {newpath moveto lineto stroke}bdef
currentdict end def
%%EndProlog

%%BeginSetup
MathWorks begin

0 cap

end
%%EndSetup

%%Page: 1 1
%%BeginPageSetup
%%PageBoundingBox:    52   199   549   602
MathWorks begin
bpage
%%EndPageSetup

%%BeginObject: obj1
bplot

/dpi2point 12 def
portraitMode 0204 7344 csm

  422   110  5965  4844 MR c np
85 dict begin %Colortable dictionary
/c0 { 0.000000 0.000000 0.000000 sr} bdef
/c1 { 1.000000 1.000000 1.000000 sr} bdef
/c2 { 0.900000 0.000000 0.000000 sr} bdef
/c3 { 0.000000 0.820000 0.000000 sr} bdef
/c4 { 0.000000 0.000000 0.800000 sr} bdef
/c5 { 0.910000 0.820000 0.320000 sr} bdef
/c6 { 1.000000 0.260000 0.820000 sr} bdef
/c7 { 0.000000 0.820000 0.820000 sr} bdef
c0
1 j
1 sg
   0    0 6913 5185 PR
6 w
0 4225 5356 0 0 -4225 899 4614 4 MP
PP
-5356 0 0 4225 5356 0 0 -4225 899 4614 5 MP stroke
4 w
DO
SO
6 w
0 sg
 899  389 mt 6255  389 L
 899 4614 mt 6255 4614 L
6255 4614 mt 6255  389 L
 899 4614 mt  899  389 L
 899 4614 mt 6255 4614 L
 899 4614 mt  899  389 L
 899 4614 mt  899 4560 L
 899  389 mt  899  442 L
%%IncludeResource: font Helvetica
/Helvetica /WindowsLatin1Encoding 120 FMSR

 866 4759 mt 
(0) s
1664 4614 mt 1664 4560 L
1664  389 mt 1664  442 L
1581 4759 mt 
(0.2) s
2429 4614 mt 2429 4560 L
2429  389 mt 2429  442 L
2346 4759 mt 
(0.4) s
3194 4614 mt 3194 4560 L
3194  389 mt 3194  442 L
3111 4759 mt 
(0.6) s
3959 4614 mt 3959 4560 L
3959  389 mt 3959  442 L
3876 4759 mt 
(0.8) s
4724 4614 mt 4724 4560 L
4724  389 mt 4724  442 L
4691 4759 mt 
(1) s
5489 4614 mt 5489 4560 L
5489  389 mt 5489  442 L
5406 4759 mt 
(1.2) s
6255 4614 mt 6255 4560 L
6255  389 mt 6255  442 L
6172 4759 mt 
(1.4) s
 899 4614 mt  925 4614 L
6255 4614 mt 6228 4614 L
 899 4614 mt  952 4614 L
6255 4614 mt 6201 4614 L
 640 4658 mt 
(10) s
%%IncludeResource: font Helvetica
/Helvetica /WindowsLatin1Encoding 80 FMSR

 773 4584 mt 
(-1) s
 899 4359 mt  925 4359 L
6255 4359 mt 6228 4359 L
 899 4210 mt  925 4210 L
6255 4210 mt 6228 4210 L
 899 4105 mt  925 4105 L
6255 4105 mt 6228 4105 L
 899 4023 mt  925 4023 L
6255 4023 mt 6228 4023 L
 899 3956 mt  925 3956 L
6255 3956 mt 6228 3956 L
 899 3899 mt  925 3899 L
6255 3899 mt 6228 3899 L
 899 3850 mt  925 3850 L
6255 3850 mt 6228 3850 L
 899 3807 mt  925 3807 L
6255 3807 mt 6228 3807 L
 899 3769 mt  925 3769 L
6255 3769 mt 6228 3769 L
 899 3769 mt  952 3769 L
6255 3769 mt 6201 3769 L
%%IncludeResource: font Helvetica
/Helvetica /WindowsLatin1Encoding 120 FMSR

 640 3813 mt 
(10) s
%%IncludeResource: font Helvetica
/Helvetica /WindowsLatin1Encoding 80 FMSR

 773 3739 mt 
(0) s
 899 3514 mt  925 3514 L
6255 3514 mt 6228 3514 L
 899 3365 mt  925 3365 L
6255 3365 mt 6228 3365 L
 899 3260 mt  925 3260 L
6255 3260 mt 6228 3260 L
 899 3178 mt  925 3178 L
6255 3178 mt 6228 3178 L
 899 3111 mt  925 3111 L
6255 3111 mt 6228 3111 L
 899 3054 mt  925 3054 L
6255 3054 mt 6228 3054 L
 899 3005 mt  925 3005 L
6255 3005 mt 6228 3005 L
 899 2962 mt  925 2962 L
6255 2962 mt 6228 2962 L
 899 2924 mt  925 2924 L
6255 2924 mt 6228 2924 L
 899 2924 mt  952 2924 L
6255 2924 mt 6201 2924 L
%%IncludeResource: font Helvetica
/Helvetica /WindowsLatin1Encoding 120 FMSR

 640 2968 mt 
(10) s
%%IncludeResource: font Helvetica
/Helvetica /WindowsLatin1Encoding 80 FMSR

 773 2894 mt 
(1) s
 899 2669 mt  925 2669 L
6255 2669 mt 6228 2669 L
 899 2520 mt  925 2520 L
6255 2520 mt 6228 2520 L
 899 2415 mt  925 2415 L
6255 2415 mt 6228 2415 L
 899 2333 mt  925 2333 L
6255 2333 mt 6228 2333 L
 899 2266 mt  925 2266 L
6255 2266 mt 6228 2266 L
 899 2209 mt  925 2209 L
6255 2209 mt 6228 2209 L
 899 2160 mt  925 2160 L
6255 2160 mt 6228 2160 L
 899 2117 mt  925 2117 L
6255 2117 mt 6228 2117 L
 899 2079 mt  925 2079 L
6255 2079 mt 6228 2079 L
 899 2079 mt  952 2079 L
6255 2079 mt 6201 2079 L
%%IncludeResource: font Helvetica
/Helvetica /WindowsLatin1Encoding 120 FMSR

 640 2123 mt 
(10) s
%%IncludeResource: font Helvetica
/Helvetica /WindowsLatin1Encoding 80 FMSR

 773 2049 mt 
(2) s
 899 1824 mt  925 1824 L
6255 1824 mt 6228 1824 L
 899 1675 mt  925 1675 L
6255 1675 mt 6228 1675 L
 899 1570 mt  925 1570 L
6255 1570 mt 6228 1570 L
 899 1488 mt  925 1488 L
6255 1488 mt 6228 1488 L
 899 1421 mt  925 1421 L
6255 1421 mt 6228 1421 L
 899 1364 mt  925 1364 L
6255 1364 mt 6228 1364 L
 899 1315 mt  925 1315 L
6255 1315 mt 6228 1315 L
 899 1272 mt  925 1272 L
6255 1272 mt 6228 1272 L
 899 1234 mt  925 1234 L
6255 1234 mt 6228 1234 L
 899 1234 mt  952 1234 L
6255 1234 mt 6201 1234 L
%%IncludeResource: font Helvetica
/Helvetica /WindowsLatin1Encoding 120 FMSR

 640 1278 mt 
(10) s
%%IncludeResource: font Helvetica
/Helvetica /WindowsLatin1Encoding 80 FMSR

 773 1204 mt 
(3) s
 899  979 mt  925  979 L
6255  979 mt 6228  979 L
 899  830 mt  925  830 L
6255  830 mt 6228  830 L
 899  725 mt  925  725 L
6255  725 mt 6228  725 L
 899  643 mt  925  643 L
6255  643 mt 6228  643 L
 899  576 mt  925  576 L
6255  576 mt 6228  576 L
 899  519 mt  925  519 L
6255  519 mt 6228  519 L
 899  470 mt  925  470 L
6255  470 mt 6228  470 L
 899  427 mt  925  427 L
6255  427 mt 6228  427 L
 899  389 mt  925  389 L
6255  389 mt 6228  389 L
 899  389 mt  952  389 L
6255  389 mt 6201  389 L
%%IncludeResource: font Helvetica
/Helvetica /WindowsLatin1Encoding 120 FMSR

 640  433 mt 
(10) s
%%IncludeResource: font Helvetica
/Helvetica /WindowsLatin1Encoding 80 FMSR

 773  359 mt 
(4) s
 899  389 mt 6255  389 L
 899 4614 mt 6255 4614 L
6255 4614 mt 6255  389 L
 899 4614 mt  899  389 L
gs 899 389 5357 4226 MR c np
/c8 { 0.000000 0.000000 1.000000 sr} bdef
c8
3 126 3 94 3 68 3 52 3 39 4 26 3 44 4 34 
4 24 4 20 4 23 5 16 4 10 4 8 5 4 4 5 
4 -1 4 4 5 2 4 5 4 4 4 9 4 11 4 11 
4 9 4 8 4 4 3 4 4 2 3 0 3 2 3 5 
4 4 2 7 3 9 3 8 2 12 2 11 2 16 2 12 
1 12 1 13 1 11 1 8 2 8 0 21 -1 1 -1 0 
-2 -1 -2 1 -2 3 -2 4 -2 5 -2 5 -2 5 -2 3 
-2 1 -1 -3 -3 -4 -2 -9 -1 -11 -2 -15 -1 -17 -2 -19 
0 -15 -2 -23 0 -8 -1 -5 -1 -5 1 1 -1 7 0 69 
-1 23 1 27 2 29 0 27 1 27 1 26 1 24 1 21 
1 19 1 19 1 13 1 12 1 7 0 6 1 2 1 0 
0 -44 -1 -10 -1 -10 -1 -8 -2 -9 -2 -1 -2 -1 -2 -2 
-3 1 -3 3 -2 3 1583 3060 100 MP stroke
-4 5 -4 4 -3 3 -4 6 -4 5 -5 4 -4 3 -5 4 
-5 3 -5 3 -6 5 -6 6 -5 7 -6 8 -7 10 -6 11 
-6 11 -7 13 -6 14 -7 14 -6 13 -7 10 -6 9 -7 7 
-7 5 -6 2 -6 1 -7 -3 -6 -5 -6 -6 -6 -8 -5 -8 
-7 -10 -6 -8 -5 -8 -6 -8 -5 -7 -5 -6 -5 -6 -5 -1 
-7 0 -5 -1 -4 1 -5 2 -4 4 -3 4 -5 5 -3 4 
-3 3 -3 4 -3 3 -4 1 -2 1 -3 -2 -3 -1 -2 -5 
-3 -3 -2 -5 -2 -5 -3 -4 -2 -5 -2 -5 -2 -1 -2 -1 
-2 -1 -2 -2 -1 0 -2 -1 -2 -2 -2 -3 -1 -3 -2 -5 
-1 -5 1 -4 -3 -5 0 -3 -2 -2 -2 1 -2 2 -1 4 
-2 5 -1 6 0 5 -3 5 -2 3 -2 1 -2 -1 -2 -3 
-2 -5 -2 -8 -2 -9 -2 -11 -1 -13 -2 -14 -1 -14 -2 -16 
-1 -16 -1 -18 0 -14 1938 3110 100 MP stroke
-1 -15 -1 -15 -1 -12 0 -18 1 -1 0 5 1 6 2 7 
1 11 1 10 1 11 2 10 1 8 2 4 3 12 2 5 
3 3 3 4 2 0 3 -1 4 -4 4 -5 2 -5 3 -6 
3 -7 4 -8 4 -5 3 -3 3 1 4 1 3 4 3 6 
3 5 4 7 3 8 3 10 3 9 3 8 3 8 3 6 
3 6 2 7 2 4 3 0 2 2 2 -4 2 -5 2 -7 
2 -10 2 -12 1 -14 2 -15 1 -12 2 -17 2 -14 2 -7 
1 -9 2 -6 2 -2 1 0 2 4 2 8 3 6 2 5 
1 14 3 9 2 10 2 8 2 2 2 -1 3 -6 2 -11 
3 -14 2 -22 2 -15 3 -17 3 -22 3 -16 2 -10 3 -2 
3 0 3 4 3 3 3 6 3 1 3 -2 3 -4 4 -10 
3 -6 4 -13 3 -7 3 -11 3 -12 4 -10 3 -12 5 -10 
0 -3 3 -5 3 -5 1704 3327 100 MP stroke
3 -6 3 -2 2 -7 3 -3 3 -6 2 -11 3 -9 2 -9 
3 -6 2 -4 4 13 3 31 2 32 2 37 3 35 2 33 
2 29 1 24 2 17 2 11 1 7 1 3 1 -3 1 -8 
1 -11 0 -11 1 -12 1 -11 1 -11 0 -12 1 -8 0 9 
-1 9 1 8 -1 8 0 10 -1 6 0 -1 -1 3 0 2 
-1 -4 -1 -3 0 -3 -1 1 -1 -1 -2 5 -1 8 -1 13 
-1 14 -1 18 -2 19 -1 20 -2 19 -1 18 -1 18 -1 16 
-2 15 -2 13 -2 12 -1 12 -2 11 -2 10 -2 10 -1 11 
-2 10 -3 11 -2 10 -2 12 -2 11 -2 12 -2 12 -2 12 
-2 13 -1 13 -2 14 -2 14 -2 15 -1 15 -2 16 -1 16 
-2 16 -1 16 -1 15 -2 15 -1 13 -1 12 -1 9 0 7 
-1 3 -1 0 0 -15 -1 -16 0 -138 1 -62 1722 2818 95 MP stroke
-1 208 0 289 -1 112 1 58 0 40 1 11 1 -9 0 -13 
1 -53 1 -38 1 79 2 -13 1 16 2 1 1 58 2 31 
1 36 2 31 2 29 2 37 3 31 2 32 3 31 3 27 
3 24 3 20 3 16 2 10 4 7 2 5 4 -1 3 -4 
3 -6 5 -10 2 -10 1 -9 5 -5 3 -6 3 5 4 10 
3 15 4 17 3 22 4 22 4 23 4 22 3 21 4 18 
3 17 5 14 5 13 0 11 3 9 3 8 3 6 2 6 
2 4 2 3 2 2 2 1 1 0 1 -1 1 -2 1 -3 
0 -4 1 -5 0 -13 -2 -7 1 -8 -1 -9 0 -8 2 -9 
-3 -9 -1 -9 -2 -9 -2 -8 -2 -9 -1 -8 -3 -8 -4 -8 
-2 -9 -3 -10 -4 -10 -5 -12 -4 -12 -4 -14 -4 -16 -4 -16 
-5 -16 -4 -15 -5 -18 -5 -16 -4 -18 -5 -15 -5 -16 -5 -22 
-5 -35 -5 -21 -5 -19 2058 3065 100 MP stroke
-6 -23 -4 -37 -3 -2 -7 8 -4 31 -6 26 -7 19 -5 27 
-5 22 -6 15 -5 9 -5 -4 -5 -2 -5 -2 -5 -4 -5 -8 
-4 -5 -5 -3 -4 3 -5 11 -4 15 -4 13 -4 25 -3 21 
-4 22 -4 21 -4 19 -5 18 -4 18 -5 16 -4 14 -4 13 
-5 10 -4 12 -4 12 -4 8 -3 11 -4 8 -4 8 -4 9 
-3 8 -4 7 -3 7 -4 6 -3 6 -3 6 -4 5 -3 5 
-4 6 -4 6 -5 7 -4 8 -4 9 -4 8 -5 10 -4 10 
-4 8 -4 9 -5 6 -4 5 -4 2 -4 -1 -4 -4 -4 -9 
-5 -10 -4 -15 -4 -21 -5 -24 -4 -25 -5 -28 -5 -30 -5 -27 
-4 -25 -6 -16 -4 -4 -5 10 -5 14 -5 20 -5 24 -5 24 
-4 28 -5 26 -6 25 -4 24 -6 25 -5 23 -5 21 -5 20 
-5 20 -5 17 -6 16 -5 13 -5 12 -5 10 -6 8 -5 6 
-5 4 -5 4 -5 3 2507 2389 100 MP stroke
-4 2 -5 3 -4 3 -4 3 -4 5 -4 6 -4 6 -4 6 
-3 8 -3 7 -4 9 -2 7 -3 8 -3 8 -2 8 -2 7 
-3 5 -1 5 -2 3 -1 1 -2 -1 -1 -2 -1 -4 0 -6 
-1 -7 -1 -8 0 -38 -1 -4 0 -3 -1 -1 0 1 -1 2 
0 3 -1 4 0 3 -1 3 -1 3 -1 3 -1 1 0 1 
-1 1 -2 1 -1 0 -2 1 -1 0 -1 1 -2 1 -1 0 
-1 0 -2 0 -2 -1 -2 -2 -1 -4 -2 -5 -2 -6 -2 -8 
-3 -8 -2 -9 -2 -11 -3 -10 -2 -7 -2 -8 -3 -6 -2 -6 
-3 -1 -2 -1 -2 0 -3 0 -2 0 -3 -1 -2 -4 -3 -5 
-2 -6 -3 -9 -2 -8 -3 -14 -2 -14 -3 -15 -2 -18 -3 -15 
-3 -18 -2 -21 -3 -13 -3 -15 -2 -11 -3 -13 -2 -12 -3 5 
-2 -3 -3 10 -2 8 -2 8 -2 19 -2 13 -2 18 -2 17 
-2 15 -1 12 -1 12 2709 2495 100 MP stroke
-1 12 -1 9 0 13 -1 4 0 6 1 2 0 8 1 6 
0 16 1 11 0 50 -1 -2 0 -13 -1 -11 -1 -12 0 -14 
-1 -16 0 -11 -1 -10 -1 -6 0 1 -1 4 -1 8 -1 8 
0 9 -1 8 -1 3 -1 2 0 -3 -1 -6 -1 -7 0 -31 
-1 -15 0 -40 1 -20 0 -18 -1 -14 0 -11 0 9 -1 21 
0 105 -1 43 0 106 -1 27 0 23 -1 18 0 13 -1 10 
0 6 -1 3 -1 -2 -1 -3 0 -5 -1 -4 0 -7 -1 -2 
-1 -1 -1 0 -1 1 -1 2 -1 1 -2 2 -1 1 -1 2 
-2 3 -2 4 -2 3 -2 6 -2 6 -2 7 -3 9 -2 8 
-3 10 -2 9 -3 10 -3 9 -3 9 -4 8 -3 7 -4 7 
-3 5 -4 3 -4 4 -4 2 -4 0 -4 0 -4 -2 -4 -2 
-4 -4 -5 -4 -4 -4 -4 -5 -5 -5 -4 -5 -5 -4 -5 -4 
-4 -4 -5 -2 -4 -3 2865 2125 100 MP stroke
-4 -3 -6 -2 -4 -4 -5 -3 -4 -5 -5 -5 -4 -5 -4 -5 
-4 -4 -4 -2 -4 -1 -4 2 -4 3 -4 4 -4 6 -4 7 
-4 7 -3 6 -4 6 -3 5 -3 4 -3 2 -2 2 -3 -1 
-2 -2 -2 -4 -3 -5 -1 -7 -2 -10 -2 -10 -2 -14 -1 -16 
-1 -14 -1 -16 -1 -14 -1 -14 0 -12 -1 -9 0 -19 1 -4 
0 -7 1 -8 1 -9 0 -8 1 -10 1 -9 1 -10 1 -11 
1 -9 1 -4 1 -6 2 -4 1 -1 1 -1 1 2 2 3 
1 3 1 6 2 7 1 6 1 7 1 6 1 6 1 5 
0 5 1 4 1 3 0 8 1 6 0 19 -1 4 0 -3 
-1 -6 0 -7 -1 -11 0 -15 -1 -15 -1 -8 -1 -13 -1 -10 
-1 -8 -1 -7 -2 1 -1 8 -2 12 -1 15 -1 17 -2 17 
-1 18 -1 17 -1 15 -2 15 -1 10 -1 8 -2 3 -1 0 
-1 -6 -1 -11 -1 -18 2980 2260 100 MP stroke
-1 -21 -1 -29 -1 -38 -1 -45 -1 -51 0 -134 -1 -75 0 -88 
0 16 1 40 0 58 1 45 1 34 1 27 1 13 1 10 
2 4 1 -4 2 -10 2 -13 2 -13 2 -12 3 -9 2 11 
3 17 2 20 3 23 3 24 2 24 3 17 4 17 3 12 
3 8 4 3 3 -1 4 -4 4 -8 3 -11 4 -13 4 -18 
4 -19 4 -25 4 -22 4 -29 4 -28 4 -34 4 -41 4 -43 
5 -30 4 -37 4 -36 5 -25 4 -18 5 -10 4 10 4 15 
5 7 4 38 4 27 4 23 5 23 4 36 4 31 5 30 
4 29 4 26 4 28 4 25 4 23 4 19 4 16 4 13 
4 8 3 3 4 -3 3 -8 4 -14 3 -24 3 -31 3 -43 
3 -54 3 -69 3 -84 2 -112 3 -116 3 -105 2 27 3 158 
2 88 3 60 3 43 2 29 2 19 3 16 2 8 3 4 
3 1 2 -1 2 1 2702 2611 100 MP stroke
3 2 2 3 3 6 2 7 2 9 3 11 2 13 3 14 
2 13 3 14 3 12 3 14 2 12 3 10 2 11 3 9 
2 10 3 8 3 7 2 8 3 7 3 8 2 8 3 8 
2 8 3 9 2 9 3 9 2 11 3 10 2 12 3 11 
3 11 2 9 3 10 3 8 3 7 3 6 3 3 3 3 
3 1 4 0 4 -1 3 -1 4 -3 4 -3 4 -4 3 -4 
4 -5 4 -5 4 -6 4 -7 3 -6 4 -7 4 -7 3 -6 
4 -6 3 -6 4 -5 3 -5 4 -4 4 -3 3 -2 3 -1 
4 0 3 1 3 1 4 3 3 2 4 3 3 2 3 1 
4 1 3 0 3 -2 3 -2 2 -4 3 -5 3 -6 2 -7 
3 -7 2 -7 3 -6 2 -5 3 -3 2 -2 2 0 3 0 
2 1 2 1 2 1 3 -3 2 -4 2 -8 2 -10 2 -12 
2 -16 2 -17 3 -19 2416 2475 100 MP stroke
2 -21 1 -18 2 -14 1 -10 2 -6 1 -2 1 2 1 6 
0 5 1 7 0 10 -1 0 -1 -2 0 -4 -1 -4 -2 -7 
-1 -8 -2 -10 -1 -10 -2 -13 -2 -13 -3 -17 -2 -16 -3 -18 
-2 -20 -3 -20 -3 -21 -3 -17 -3 -19 -4 -5 -3 2 -4 10 
-3 16 -4 18 -4 16 -5 17 -4 11 -5 7 -4 2 -5 -3 
-5 -9 -4 -7 -6 -10 -5 -3 -5 0 -5 12 -5 20 -6 27 
-5 32 -5 35 -6 34 -5 32 -6 30 -5 28 -6 26 -6 22 
-6 21 -6 17 -6 15 -6 13 -6 9 -7 8 -6 6 -7 4 
-6 2 -7 0 -7 0 -7 -1 -6 -1 -8 -1 -7 -1 -7 -1 
-7 -1 -7 0 -7 1 -7 1 -7 2 -7 1 -6 2 -7 2 
-7 1 -7 1 -7 0 -6 -1 -7 -1 -7 -1 -6 -1 -7 -1 
-6 0 -7 1 -7 0 -7 1 -6 1 -7 1 -7 1 -7 1 
-6 1 -7 2 -6 2 2856 2269 100 MP stroke
-7 4 -6 4 -7 5 -6 7 -6 6 -6 7 -6 7 -6 7 
-6 6 -6 5 -6 5 -6 4 -5 3 -7 3 -6 1 -6 2 
-6 0 -6 -1 -6 0 -6 -2 -6 -2 -6 -2 -6 -3 -6 -1 
-6 0 -6 1 -6 1 -6 2 -6 5 -6 5 -6 6 -6 7 
-6 8 -6 8 -6 9 -6 8 -5 8 -6 8 -4 8 -6 6 
-5 7 -5 5 -5 4 -4 4 -5 4 -4 3 -4 2 -4 2 
-3 2 -4 2 -3 1 -3 1 -3 1 -3 0 -3 0 -2 0 
-3 1 -2 1 -2 3 -2 4 -1 7 -1 10 -1 12 -1 15 
0 87 1 18 0 16 1 16 1 14 2 14 1 14 2 13 
1 12 2 11 2 11 3 10 2 9 2 8 3 7 2 6 
2 5 3 4 2 3 3 2 2 1 3 0 2 -1 3 -2 
3 -2 2 -3 3 -4 2 -4 3 -5 3 -5 3 -6 3 -6 
3 -6 4 -6 3 -7 3091 1799 100 MP stroke
3 -7 4 -6 3 -7 4 -7 4 -6 3 -7 4 -6 4 -6 
4 -6 4 -6 4 -5 5 -6 4 -5 4 -5 5 -4 4 -4 
5 -3 4 -3 4 -2 4 -2 4 -2 3 -2 5 -1 4 -2 
4 -2 5 -3 4 -3 4 -4 4 -5 5 -6 4 -6 4 -8 
5 -8 4 -9 4 -9 5 -10 4 -11 4 -10 5 -11 4 -11 
5 -10 5 -10 5 -9 5 -10 5 -9 5 -8 6 -9 5 -8 
6 -9 5 -9 5 -10 6 -10 6 -11 5 -12 6 -12 5 -14 
6 -15 5 -15 5 -16 5 -16 5 -18 5 -18 7 -19 5 -20 
6 -21 4 -21 4 -22 0 -22 4 -23 8 -23 3 -23 3 -23 
4 -23 3 -22 4 -22 2 -19 3 -14 2 -9 3 -3 3 5 
2 10 2 13 1 16 1 14 2 21 0 16 1 11 0 8 
-1 4 -1 0 -3 -1 1 -9 -3 -13 -2 -16 -1 -18 -2 -25 
-1 -27 -2 -27 -2 -28 2750 2658 100 MP stroke
-4 -28 -10 -20 -20 4 -7 7 -1 17 -4 21 -4 32 -5 32 
3 28 3 32 -7 32 -4 28 -6 26 -5 26 -7 23 -6 21 
-5 21 -5 20 -7 18 -4 17 -8 14 -5 13 -2 12 -7 11 
-5 11 -5 10 -2 10 -1 10 -5 10 -5 10 -4 11 -3 11 
-11 10 -3 11 -3 11 -4 10 -1 10 -8 9 -4 8 -5 6 
-4 5 -5 4 -4 1 -3 0 -6 -3 -3 -4 -4 -6 -2 -9 
-5 -11 -2 -12 -2 -14 -4 -16 -4 -17 -4 -18 -3 -18 -3 -15 
-3 -14 -3 -13 -3 -8 -4 -8 -3 1 -3 5 -3 9 -2 12 
-3 14 -2 16 -2 17 -3 18 -2 16 -2 16 -1 14 -2 13 
-2 10 -1 9 -2 8 -2 6 -2 5 -2 5 -2 4 -2 3 
-1 4 -2 3 -2 4 -2 4 -1 3 -2 3 -2 3 -1 3 
-2 1 -2 2 -2 0 -1 -1 -2 -2 -2 -4 -2 -4 -2 -6 
-2 -7 -2 -9 -2 -10 3094 2081 100 MP stroke
-2 -10 -3 -11 -2 -12 -3 -11 -2 -10 -4 -9 -3 -7 -3 -6 
-3 -4 -4 -2 -4 -1 -4 1 -4 1 -5 2 -4 3 -5 3 
-5 5 -6 5 -5 6 -6 6 -5 7 -6 6 -6 7 -6 5 
-7 5 -6 3 -7 3 -7 2 -7 1 -7 1 -7 0 -7 0 
-7 1 -8 2 -8 2 -7 3 -8 3 -8 5 -8 5 -8 5 
-8 5 -8 5 -8 5 -8 5 -7 4 -8 4 -8 4 -8 2 
-8 4 -8 2 -8 4 -7 5 -8 4 -8 4 -8 6 -8 5 
-8 5 -8 5 -8 5 -9 5 -8 4 -8 5 -9 5 -9 5 
-9 6 -9 7 -8 8 -10 9 -9 10 -9 11 -10 11 -9 12 
-10 11 -10 12 -10 10 -10 10 -10 9 -10 8 -10 6 -11 6 
-10 4 -11 4 -11 3 -11 3 -10 3 -11 3 -11 4 -11 5 
-11 6 -11 8 -11 9 -11 10 -12 11 -10 11 -11 12 -10 10 
-11 10 -10 9 -10 8 3862 1680 100 MP stroke
-10 7 -10 4 -9 4 -10 1 -8 1 -9 -1 -9 -2 -9 -3 
-8 -4 -8 -4 -8 -4 -8 -4 -7 -5 -6 -3 -6 -3 -6 -3 
-6 -1 -5 -1 -4 1 -5 1 -4 2 -4 3 -3 3 -3 3 
-3 3 -3 2 -3 3 -2 1 -2 1 -3 0 -2 0 1 -1 
-2 -2 0 -15 1 -2 1 -1 1 0 1 0 1 1 1 1 
1 1 1 1 1 -1 1 -2 1 -2 1 -4 1 -5 0 -6 
1 -6 1 -7 0 -13 1 -6 -1 -5 0 -6 -1 -1 0 1 
-2 3 -1 5 -2 7 -1 8 -2 10 -3 10 -2 12 -3 12 
-3 12 -4 11 -5 11 -4 11 -5 9 -6 9 -7 8 -6 6 
-8 6 -7 4 -8 3 -8 3 -10 2 -9 1 -10 1 -11 1 
-11 0 -11 1 -11 0 -12 1 -13 2 -13 1 -13 2 -14 2 
-13 3 -14 3 -15 5 -14 4 -15 6 -15 7 -15 8 -15 9 
-15 11 -15 11 -16 12 4419 1505 100 MP stroke
-15 12 -15 13 -15 12 -15 11 -15 12 -15 10 -15 10 -16 9 
-15 8 -15 8 -14 7 -15 6 -14 6 -15 5 -13 4 -14 3 
-13 3 -13 2 -13 2 -13 1 -12 0 -12 0 -13 -1 -12 -1 
-11 -1 -12 -1 -12 -2 -11 -2 -11 -2 -11 -2 -10 -2 -11 -1 
-9 -2 -10 -1 -10 -1 -9 0 -9 0 -9 0 -9 0 -8 0 
-8 1 -8 0 -7 0 -7 0 -7 -1 -5 -1 -6 -2 -4 -2 
-4 -3 -3 -3 -3 -4 -1 -4 -1 -4 -1 -3 0 -4 1 -3 
2 -2 2 -1 3 0 3 1 4 2 5 3 5 4 6 6 
6 6 7 6 8 6 7 5 8 5 9 4 8 3 9 2 
9 1 9 0 10 -1 9 -2 10 -2 9 -3 10 -2 9 -3 
10 -3 9 -2 9 -3 9 -2 8 -1 9 -2 8 -1 8 -1 
8 -1 7 0 7 -1 7 -1 8 -2 6 -1 6 -1 6 -2 
6 -1 6 -2 5 -2 4673 1404 100 MP stroke
6 -2 5 -3 4 -2 5 -3 3 -3 4 -3 4 -3 3 -3 
2 -4 3 -4 2 -5 2 -4 2 -5 1 -5 2 -5 1 -5 
1 -4 2 -4 1 -4 1 -2 2 -3 1 -1 1 0 1 1 
0 4 -1 2 0 2 -1 1 -1 1 -1 1 -1 0 -1 -1 
-1 -1 -1 -1 -1 -2 -1 -1 -1 -1 -1 -2 -1 0 -1 -1 
-1 0 -1 0 -1 1 -1 0 -1 -1 0 -19 1 -8 0 -9 
1 -10 1 -11 1 -12 1 -12 1 -13 2 -12 2 -13 1 -13 
2 -13 2 -14 2 -13 3 -14 2 -11 2 -12 3 -11 2 -9 
3 -7 2 -6 3 -3 2 -1 3 2 2 3 3 5 3 6 
2 7 3 8 2 7 3 7 3 6 3 4 3 3 3 1 
3 -2 3 -4 2 -11 3 -7 3 -11 3 -12 2 -15 3 -15 
2 -10 2 -8 2 -7 2 -1 3 2 2 7 2 9 2 11 
3 14 3 13 3 15 4513 1698 100 MP stroke
3 13 3 14 4 12 3 11 4 10 4 8 4 7 4 6 
5 4 4 3 4 1 5 0 4 0 4 -2 5 -2 4 -3 
5 -4 4 -3 5 -3 5 -3 5 -2 5 0 5 0 5 1 
5 3 5 3 5 5 5 4 5 5 4 6 5 6 4 6 
4 7 4 7 4 7 3 7 4 8 3 7 3 8 4 8 
3 7 3 8 3 7 3 6 3 6 3 6 4 6 3 6 
3 5 3 6 3 6 3 5 3 6 3 6 3 5 4 5 
3 5 3 5 4 3 3 3 3 3 4 1 3 1 3 0 
3 -1 3 -2 3 -2 3 -3 3 -2 3 -3 3 -3 3 -3 
2 -2 3 -2 2 -1 3 -1 2 0 2 0 2 1 1 1 
2 2 2 1 1 2 1 1 2 2 1 1 1 2 0 1 
1 2 1 1 0 3 1 2 0 8 -1 2 0 10 -1 3 
0 3 -1 4 -1 3 4217 1386 100 MP stroke
-1 3 0 3 -2 3 -1 2 -1 2 -1 2 -1 1 -1 0 
-1 0 -1 -1 -1 -2 0 -1 -1 -1 0 -4 -1 -2 0 -14 
1 -5 0 -4 2 -5 1 -5 1 -5 1 -5 2 -5 2 -4 
2 -3 2 -3 2 -2 3 -3 3 -2 2 -2 3 -1 2 -2 
4 -2 3 -1 3 -1 3 -1 4 -1 3 -1 4 0 4 -1 
4 0 4 -1 4 -1 4 -1 4 -1 5 -1 4 -2 4 -1 
5 -2 4 -3 5 -3 4 -4 5 -5 4 -5 5 -6 4 -7 
5 -7 5 -8 4 -9 5 -10 5 -9 4 -11 5 -11 5 -11 
5 -12 5 -13 5 -13 5 -13 5 -14 5 -14 6 -14 5 -13 
6 -13 5 -12 6 -10 6 -9 5 -7 6 -4 6 -3 6 -2 
5 0 6 0 5 1 6 0 6 0 5 -2 5 -2 6 -5 
5 -5 5 -8 6 -8 5 -10 5 -11 6 -12 5 -13 6 -13 
6 -14 5 -14 6 -13 3875 1873 100 MP stroke
6 -14 6 -14 5 -14 5 -14 6 -15 5 -16 5 -17 6 -19 
5 -21 6 -24 4 -26 4 -30 5 -34 5 -39 4 -42 6 -45 
4 -45 5 -43 5 -34 3 -17 3 0 3 20 4 29 3 35 
2 34 2 38 2 38 1 37 2 36 4 33 -1 32 -1 29 
5 25 -1 23 -3 18 3 15 -1 12 1 11 1 8 -1 8 
-3 7 -2 8 -2 9 -3 11 -2 12 -2 13 -2 13 -4 15 
-2 14 -4 14 -5 13 -3 13 -4 11 -4 10 -5 9 -4 8 
-5 7 -6 5 -6 5 -5 4 -6 4 -5 3 -6 4 -7 3 
-7 4 -5 3 -8 5 -5 4 -7 5 -7 6 -7 6 -5 5 
-7 6 -6 6 -6 5 -7 5 -5 3 -5 3 -6 1 -6 0 
-5 -2 -7 -3 -5 -4 -6 -5 -3 -6 -7 -7 -4 -6 -5 -7 
-5 -5 -4 -5 -4 -3 -4 -2 -4 -1 -4 0 -3 1 -3 2 
-3 2 -2 2 -4 2 4025 1680 100 MP stroke
-3 2 -4 1 -3 0 -3 -1 -4 -1 -3 -2 -3 -2 -4 -3 
-4 -2 -4 -2 -4 -2 -5 0 -4 -1 -5 1 -4 1 -6 2 
-5 3 -5 3 -5 3 -6 3 -6 4 -6 3 -5 3 -6 3 
-6 3 -6 3 -6 4 -6 4 -5 4 -6 5 -6 6 -6 6 
-6 7 -7 9 -6 8 -6 10 -6 10 -7 10 -6 12 -6 11 
-6 12 -6 12 -6 12 -6 12 -5 12 -6 11 -5 10 -5 9 
-6 9 -5 8 -6 7 -6 6 -5 5 -6 4 -5 3 -5 2 
-6 2 -5 0 -5 0 -4 0 -7 -2 -5 -2 -5 -3 -4 -3 
-5 -3 -5 -4 -4 -4 -4 -5 -5 -4 -4 -4 -4 -4 -4 -3 
-4 -4 -4 -3 -4 -3 -3 -3 -4 -2 -2 -3 -3 -3 -3 -2 
-2 -2 -3 -2 -3 -1 -2 -1 -2 -1 -2 -1 -2 0 -2 0 
-1 0 -1 -1 -2 -1 0 -2 -1 -3 0 -4 -1 -5 0 -6 
-1 -8 0 -28 1 -11 4445 1557 100 MP stroke
1 -12 0 -12 2 -13 1 -13 2 -13 2 -15 2 -15 3 -15 
3 -15 4 -16 3 -17 4 -17 4 -17 4 -18 5 -17 4 -18 
5 -19 5 -17 6 -17 5 -16 6 -15 6 -13 6 -10 6 -8 
7 -5 6 0 7 5 7 7 7 11 7 12 7 15 7 16 
7 15 7 14 7 13 7 11 7 9 7 6 7 3 7 2 
7 -3 7 -6 6 -10 7 -13 7 -18 6 -22 7 -27 7 -34 
6 -39 7 -46 6 -54 7 -66 7 -91 6 -87 7 -131 7 -157 
6 -223 7 43 7 196 6 134 7 99 6 66 6 79 7 55 
6 44 7 40 6 34 6 34 6 28 7 26 6 25 6 23 
6 23 6 21 5 22 6 21 5 20 5 21 6 19 4 19 
5 17 4 16 4 14 5 12 4 10 3 9 4 6 3 4 
4 3 3 1 3 -1 3 -3 3 -5 2 -5 3 -8 2 -8 
2 -9 2 -9 2 -10 3932 1682 100 MP stroke
1 -9 2 -9 1 -8 0 -7 1 -6 0 -5 1 -4 0 -4 
-1 -2 0 -2 -1 -1 -1 -1 -1 -1 -1 0 -1 0 -2 0 
-1 0 -1 -1 -1 0 -2 -1 -1 -1 -1 -1 -2 -2 -1 -3 
-1 -3 -1 -3 -1 -4 0 -4 -1 -4 0 -10 1 -4 0 -4 
1 -4 2 -3 1 -2 2 -2 2 -1 3 0 2 1 3 2 
3 2 3 3 4 3 4 4 4 3 4 4 5 3 5 3 
5 3 5 2 6 2 5 2 5 1 6 0 6 0 6 0 
6 -1 7 -1 6 -2 7 -1 7 -2 6 -2 7 -3 7 -2 
7 -2 6 -1 7 -2 7 -1 6 -1 6 -2 7 -1 6 -1 
6 -2 7 -2 6 -2 6 -3 6 -4 6 -4 6 -5 6 -5 
6 -5 5 -5 6 -5 5 -5 5 -3 6 -3 5 -1 5 1 
5 1 5 2 5 4 5 3 5 3 5 4 4 2 5 2 
4 1 5 0 4 -1 3606 1817 100 MP stroke
5 -2 4 -3 4 -4 4 -5 4 -5 3 -6 4 -6 3 -7 
3 -6 4 -7 3 -7 4 -7 3 -6 3 -7 3 -7 3 -7 
3 -6 3 -7 2 -5 3 -4 3 -4 3 -3 3 -3 3 -2 
4 -1 3 0 3 -1 4 1 3 1 4 3 4 3 4 6 
3 7 4 7 5 8 4 8 4 8 4 6 5 6 4 3 
5 1 4 0 5 -1 5 -4 5 -5 5 -6 5 -7 6 -8 
6 -8 5 -9 7 -7 6 -7 6 -6 7 -4 7 -3 7 -1 
7 0 8 2 7 3 8 4 9 5 8 5 9 5 9 5 
9 5 10 4 9 3 10 2 10 0 10 -1 10 -2 10 -4 
10 -6 10 -7 10 -9 10 -10 9 -12 10 -13 10 -15 9 -15 
10 -16 9 -17 9 -16 9 -17 9 -16 8 -15 9 -14 8 -13 
7 -10 8 -9 7 -7 8 -5 7 -3 7 -2 7 -2 7 0 
6 -1 7 0 7 -1 3003 2168 100 MP stroke
7 0 6 -1 7 -2 7 -2 6 -2 7 -3 6 -3 6 -4 
7 -4 6 -5 6 -5 7 -5 6 -5 6 -4 6 -3 6 -2 
6 1 6 3 5 6 5 7 5 10 5 10 5 11 4 12 
5 11 4 9 3 8 4 5 3 4 2 1 3 -1 2 -2 
2 -4 1 -6 2 -7 0 -8 1 -8 0 -36 -1 -9 -1 -9 
-1 -9 -1 -9 -1 -8 -2 -9 -1 -8 -2 -10 -1 -9 -2 -10 
-1 -11 -1 -12 -2 -13 -1 -14 0 -13 -1 -13 -1 -13 1 -12 
0 -18 1 -5 2 -2 1 1 2 5 2 8 3 11 2 13 
3 14 4 16 4 16 4 15 4 14 5 12 5 10 5 9 
5 6 6 4 6 2 6 0 6 -1 7 -4 6 -5 8 -7 
7 -7 7 -8 7 -8 8 -7 7 -7 8 -6 8 -4 8 -2 
8 0 8 2 8 3 8 4 9 4 8 4 8 4 9 3 
8 1 9 1 9 -2 2598 2294 100 MP stroke
8 -2 9 -5 8 -6 8 -7 9 -7 9 -8 9 -9 8 -10 
9 -9 9 -10 9 -10 9 -9 8 -9 9 -7 9 -7 9 -5 
8 -4 9 -2 8 0 9 1 9 1 9 2 8 3 9 1 
8 1 9 1 9 -2 9 -2 8 -4 8 -4 8 -6 9 -7 
8 -8 10 -9 9 -11 7 -11 8 -12 8 -13 7 -14 8 -14 
7 -15 7 -15 6 -14 7 -14 6 -12 7 -11 5 -10 6 -9 
6 -8 4 -7 5 -8 5 -8 5 -9 4 -12 3 -11 4 -11 
3 -13 3 -14 3 -14 3 -15 2 -15 3 -15 1 -14 2 -16 
1 -10 1 -11 0 -10 1 -7 0 -8 -1 -3 -1 3 -1 11 
-2 8 -2 6 -1 7 -3 3 -3 3 -2 7 -4 1 -3 -1 
-4 -7 -4 -7 -5 -9 -4 -12 -5 -15 -5 -17 -5 -18 -7 -14 
-5 -17 -6 -9 -6 1 -6 2 -7 3 -7 5 -7 16 -6 11 
-7 13 -7 10 -8 9 2281 2873 100 MP stroke
-7 7 -8 6 -7 12 -8 9 -8 17 -8 16 -7 18 -8 20 
-8 22 -8 20 -8 20 -7 18 -8 16 -8 13 -8 11 -8 8 
-7 4 -8 4 -7 1 -8 -1 -7 -3 -7 -5 -7 -6 -7 -6 
-6 -8 -8 -8 -6 -8 -6 -9 -6 -8 -6 -8 -5 -7 -6 -7 
-4 -4 -5 -3 -4 -3 -5 -2 -4 -1 -4 -2 -4 0 -2 0 
-5 -1 -2 -2 -4 -3 -3 -5 -2 -3 -3 -4 -2 -6 -3 -7 
-2 -8 -2 -8 -2 -6 -3 -6 -2 -5 -2 -7 -2 -1 -2 0 
-2 0 -2 0 -2 6 -2 10 -3 11 -2 12 -2 18 -2 23 
-2 20 -3 25 -2 25 -2 23 -2 22 -2 21 -2 16 -2 17 
-2 15 -2 13 -3 11 -1 10 -2 10 -1 10 -2 10 -1 11 
-2 11 -1 12 -1 13 -2 14 -1 15 -1 14 -1 15 -1 13 
-1 13 -2 12 -1 10 -1 9 -1 7 -2 6 -1 4 -1 2 
-2 0 -1 -2 -2 -3 2658 2298 100 MP stroke
-1 -5 -1 -7 -1 -7 -1 -9 -2 -10 -1 -11 -1 -10 0 -9 
-1 -9 -1 -5 -1 -4 -1 -1 -1 3 -1 4 -1 7 -2 8 
-1 9 -1 9 -1 8 -1 9 0 7 -1 6 -2 6 0 4 
-2 3 0 3 -1 3 -1 2 0 4 -1 5 0 5 -1 7 
0 8 -1 9 0 64 1 1 -1 -2 1 -4 0 -12 1 -7 
-1 -8 1 -8 1 -9 0 -17 1 -8 0 -21 -1 -7 0 -11 
-1 -6 0 -7 -1 -6 -1 -7 0 -9 -1 -9 -1 -11 -2 -12 
0 -12 -2 -16 -1 -14 -2 -16 -1 -18 -2 -12 -1 -16 -2 -10 
-2 -3 -2 -4 -2 0 -2 5 -3 5 -2 5 -2 0 -3 5 
-3 -1 -2 -3 -3 -5 -2 -7 -3 -8 -3 -9 -2 -5 -3 2 
-3 7 -3 10 -2 17 -3 21 -2 23 -3 22 -3 23 -2 26 
-2 21 -3 21 -2 19 -2 15 -2 15 -2 13 -1 10 -2 9 
-1 8 -2 6 -1 5 2784 2218 100 MP stroke
-1 4 -1 5 -1 4 -1 6 -1 6 0 5 -1 6 0 22 
1 1 0 -2 1 -4 1 -5 0 -8 1 -10 1 -12 1 -12 
1 -14 1 -14 2 -13 1 -13 1 -11 1 -11 1 -9 1 -9 
2 -9 1 -9 1 -9 2 -10 1 -11 2 -11 1 -12 2 -14 
1 -14 1 -16 2 -15 1 -18 2 -19 1 -22 1 -26 2 -27 
1 -30 1 -33 1 -35 1 -38 1 -25 1 -23 1 -12 1 -6 
1 14 1 16 0 21 2 18 0 16 1 16 0 10 2 9 
0 10 1 12 1 13 1 14 0 18 1 17 1 18 1 19 
1 18 1 16 1 16 1 14 1 12 1 12 1 11 1 10 
1 9 1 7 1 8 1 4 1 5 2 3 1 1 2 -2 
2 -2 2 -5 2 -7 2 -10 2 -11 2 -11 3 -13 3 -13 
3 -11 2 -10 4 -4 3 1 3 14 3 15 4 18 3 18 
4 19 3 17 4 14 2659 2346 100 MP stroke
4 10 3 6 4 2 4 0 4 -4 3 -7 5 -9 4 -9 
4 -11 4 -11 5 -8 5 -7 4 -5 5 -2 5 0 4 2 
6 4 4 4 6 4 5 4 5 2 5 0 6 -1 5 -3 
5 -6 7 -6 5 -9 6 -10 6 -12 6 -13 5 -14 7 -15 
6 -12 7 -13 5 -12 6 -12 10 -9 6 -9 8 -6 7 -5 
7 -3 8 -3 9 1 7 0 8 0 8 2 8 1 8 0 
9 -1 8 -4 8 -4 8 -6 8 -10 9 -13 8 -15 9 -20 
8 -20 9 -26 8 -28 8 -29 8 -31 8 -30 8 -27 8 -30 
7 -19 6 0 8 3 8 5 5 9 7 12 6 10 6 6 
5 6 5 2 6 -2 1 -5 8 -8 5 -11 3 -14 5 -14 
4 -17 4 -22 3 -13 3 -12 3 -13 3 -7 3 -5 3 -4 
3 -3 3 -3 3 -6 2 -6 2 -3 3 2 1 -11 2 -15 
2 1 1 -12 2 -17 2112 3030 100 MP stroke
3 -19 1 -27 2 -29 1 -26 1 -37 3 -42 0 -32 2 -49 
1 -92 1 -74 1 37 0 -45 2 -375 -2 300 0 -36 1 -123 
1 219 -1 -14 0 154 -5 55 0 82 -1 56 -2 61 -2 25 
-2 26 -2 37 -3 28 -3 20 -3 15 -4 15 -4 2 -3 5 
-3 -4 -5 -10 -5 -6 -7 -4 -4 -5 -6 4 -6 15 -6 25 
-8 42 -7 42 -5 41 -8 40 -6 36 -6 30 -7 25 -4 19 
-10 16 -6 9 -5 5 -8 -1 -3 -5 -7 -12 -5 -16 -6 -21 
-4 -27 -6 -30 -4 -31 -3 -34 -3 -32 -3 -31 -3 -19 -3 -11 
-3 -7 -1 3 -2 3 -3 0 -1 -1 -1 -2 -2 -2 -2 -11 
-1 -23 -2 -22 -1 -24 -2 -38 0 -32 -2 -47 -2 -64 -1 -78 
-1 -49 -1 -6 -3 -11 -1 35 -1 47 0 42 -2 49 0 43 
-2 12 0 58 -1 30 -1 17 -1 19 -1 16 0 15 -2 17 
3 13 -4 11 1 13 2344 2837 100 MP stroke
-1 10 -3 3 0 1 0 -1 -1 -5 -2 -8 0 -30 -3 -10 
0 -15 -1 -12 -1 -10 -2 -9 0 -2 -2 -3 -1 0 -2 5 
-1 7 -2 7 -1 9 -2 2 -2 10 -2 13 -2 11 -2 10 
-2 11 -2 14 -3 16 -2 19 -3 20 -3 17 -2 18 -4 18 
-2 13 -4 9 -2 9 -4 3 -4 1 -4 -3 -4 -2 -4 -4 
-4 -2 -4 -2 -3 2 -5 6 -4 8 -4 11 -5 15 -4 15 
-5 15 -3 14 -5 14 -4 12 -3 9 -6 9 -5 6 -4 3 
-5 1 -4 -1 -5 -3 -5 -4 -5 -5 -3 -6 -5 -5 -4 -6 
-4 -4 -5 -2 -4 0 -4 2 -5 3 -4 6 -4 10 -5 10 
-4 12 -5 14 -4 14 -5 15 -3 15 -6 14 -4 13 -5 13 
-4 12 -6 11 -2 11 -4 10 -4 9 -2 9 -4 7 -4 7 
-5 6 -3 5 -3 4 -2 2 -5 2 -1 1 -3 1 -4 -1 
-2 2 -2 2 -3 1 2664 2353 100 MP stroke
-2 2 -3 2 -2 1 -2 1 -2 0 -2 -1 -2 -3 -1 -4 
-2 -6 -1 -8 -2 -10 -1 -12 -1 -14 -1 -16 0 -18 -1 -20 
0 -96 1 -28 0 -24 1 -21 0 -20 2 -20 2 -14 1 -3 
2 -7 2 2 2 1 2 -3 2 5 3 0 3 -1 3 -4 
3 -8 4 -11 3 -15 4 -18 3 -21 4 -24 3 -23 4 -23 
4 -19 4 -26 3 -12 4 -5 4 -3 4 7 4 0 3 11 
4 9 3 11 4 7 4 4 3 2 3 0 3 -3 3 -5 
3 -7 3 -10 3 -13 3 -12 3 -11 2 -8 3 -7 2 -3 
2 -1 3 7 1 9 2 15 1 24 1 23 2 23 1 26 
1 24 1 23 0 78 -1 3 0 5 -2 2 -2 3 -2 5 
0 7 -4 10 3 12 -4 14 0 16 -4 17 1 18 -3 19 
-6 18 4 19 -8 17 -2 16 -3 16 -3 14 -3 11 -3 10 
-4 9 -2 6 -3 4 2592 2406 100 MP stroke
-3 3 -4 1 -4 1 -5 -1 -4 -2 -3 -2 -4 -3 -4 -3 
-4 -4 -5 -4 0 -5 -1 -5 -8 -6 -1 -7 -8 -8 3 -8 
-8 -10 -6 -10 -3 -11 0 -10 -1 -11 -9 -9 4 -7 -7 -4 
-3 -3 3 -2 -9 1 3 3 -3 1 -6 1 3 2 -4 -1 
-5 -2 -1 -4 -2 -3 -1 -2 -2 0 0 4 -2 7 -1 9 
0 28 -1 15 0 29 -1 13 0 20 1 7 0 11 1 3 
0 3 2 1 1 -1 1 -1 2 -2 0 -2 1 -3 1 -3 
2 -2 1 -4 -1 -4 2 -4 2 -5 5 -5 1 -4 3 -4 
0 -3 2 -2 2 -2 3 0 4 -1 3 0 2 -1 2 0 
4 0 3 -1 4 -2 3 -3 4 -2 5 -4 4 -4 5 -4 
4 -4 5 -4 3 -4 4 -4 4 -4 4 -3 4 -4 5 -2 
4 -2 5 -2 3 -2 4 -2 6 -3 3 -4 4 -5 5 -7 
5 -8 4 -10 3 -12 2555 2549 100 MP stroke
4 -13 4 -15 5 -17 4 -17 5 -18 4 -19 4 -18 5 -17 
4 -18 4 -14 5 -13 5 -11 3 -9 6 -6 4 -2 6 0 
5 3 5 4 6 5 5 3 6 3 5 -2 6 -1 6 -4 
6 -7 6 -11 6 -11 6 -12 7 -16 6 -16 7 -16 8 -18 
6 -17 7 -19 7 -16 6 -18 7 -22 6 -25 8 -26 5 -25 
7 -25 8 -36 7 -38 6 -48 7 -48 6 -50 7 -79 7 -98 
7 -82 6 -39 7 -4 5 60 7 58 6 23 8 84 5 42 
7 33 6 23 6 20 6 17 6 11 6 23 6 29 6 25 
6 26 5 25 8 20 4 25 7 15 6 13 6 7 5 3 
7 1 6 -3 7 -8 5 -7 9 -5 3 -11 11 1 1 -1 
19 1 17 1 -2 13 9 11 2 16 8 8 6 10 8 6 
8 4 3 -2 8 -2 7 -6 6 -9 7 -12 6 -14 12 -18 
1 -14 8 -14 5 -12 1946 3051 100 MP stroke
-4 -8 2 -4 11 4 5 6 7 10 6 12 4 11 9 10 
6 8 4 8 9 5 5 2 5 0 6 -2 5 -4 7 -6 
6 -7 4 -7 8 -5 4 -4 4 -3 6 -1 4 0 6 0 
4 1 11 -3 16 -14 0 4 7 -8 2 -9 -8 -13 1 -22 
7 -12 3 -19 5 -17 3 -19 5 -22 2 -22 5 -23 2 -20 
3 -19 2 -15 4 -11 2 -4 3 -2 1 -2 4 3 2 6 
5 0 1 -4 3 -7 2 -12 4 -21 0 -22 3 -40 4 -55 
4 -29 1 -139 14 158 3 -31 -2 47 5 32 1 9 4 16 
-3 -3 10 11 2 -25 -3 24 -1 -140 5 55 2 -4 3 -7 
2 -48 11 120 3 -9 2 -5 3 -3 3 -8 2 -4 1 -65 
4 -16 -4 107 1 38 3 45 2 38 3 44 1 32 3 31 
1 25 2 21 1 17 2 12 2 7 1 5 1 3 0 -1 
1 -3 2 -3 1 -5 1610 3100 100 MP stroke
-1 -6 0 -9 1 -7 0 -8 -2 -9 2 -10 5 -11 -2 -8 
1 -14 -2 -7 3 -7 0 -19 -3 -10 -2 -16 3 -4 -3 -12 
1 -1 -1 -5 1 -17 -1 21 -3 12 0 5 -1 8 -1 19 
-1 18 -2 14 2 12 -3 16 -1 15 -1 20 -2 16 -1 15 
0 13 -3 12 -1 13 -4 9 0 14 -1 7 -1 3 -2 3 
-1 1 -3 1 -3 1 2 0 -3 -2 -1 -3 -2 -6 -1 -3 
-1 -4 -1 -6 -1 -9 -2 -7 0 -6 -3 -7 -3 -6 -1 -7 
-2 -10 -1 -10 -1 -7 -2 -3 -3 -9 -2 -14 -1 2 -3 -5 
-3 -2 -2 -4 -3 -5 -3 -7 -2 -6 -3 0 -2 -9 -4 -2 
-2 -7 -2 -7 -5 1 -2 -1 -4 -5 -4 -2 -2 7 -2 7 
-6 -1 -5 4 -1 11 -4 8 -4 7 -3 8 -6 8 -2 17 
-4 10 -3 11 -4 7 0 5 13 12 -6 12 -1 3 -6 6 
-1 -9 -20 27 -5 5 1788 3025 100 MP stroke
-4 0 -2 0 -4 0 -4 0 -3 -4 -4 -9 -3 -16 -4 -16 
-4 -22 -4 -29 -3 -31 -4 -34 -3 -22 -3 -22 -4 -11 -3 -1 
-4 9 -3 21 -4 18 -1 18 -4 27 -4 22 -3 14 -4 8 
-3 4 -4 -1 -4 -9 -4 -18 -4 -29 -4 -37 -4 -16 -4 -27 
-4 -23 -4 1 -4 21 -4 39 -4 42 -4 44 -4 38 -4 30 
-5 23 -4 22 -4 14 -5 8 -4 4 -5 0 -4 -5 -5 -11 
-4 -10 -5 -13 -4 -16 -5 -14 -4 -14 -5 -12 -4 -8 -4 5 
-4 8 -5 13 -5 17 -4 19 -5 20 -4 20 -4 19 -5 19 
-4 20 -3 15 -5 13 -4 11 -3 10 -4 7 -4 4 -3 2 
-4 0 -3 -3 -3 -5 -3 -8 -3 -10 -2 -12 -3 -13 -2 -15 
-2 -15 -3 -16 -3 -16 -2 -14 -2 -13 -2 -10 -2 -7 -2 -4 
-1 -1 -2 1 -1 3 -1 4 -1 4 -1 5 -1 4 0 3 
-1 1 0 1 0 -3 2121 2995 100 MP stroke
1 -2 1 -3 1 -3 1 -2 1 -1 1 -1 2 1 2 4 
1 4 2 7 2 8 2 12 2 11 1 14 2 14 2 14 
2 13 1 11 1 8 1 6 2 2 0 -1 1 -6 1 -11 
0 -113 -1 -37 0 -37 -1 -37 -1 -34 -1 -33 0 -22 -2 -7 
-1 4 -1 12 -1 29 -1 36 -2 37 -2 38 -2 36 -2 35 
-2 32 -3 29 -2 24 -2 22 -2 17 -2 15 -3 9 -2 6 
-1 1 -3 -2 -1 -6 -2 -9 -2 -11 -2 -17 -1 -16 -2 -19 
-2 -20 -1 -17 -1 -16 -2 -15 -1 -15 -1 -16 -1 -19 -1 -10 
-1 -18 -1 -24 -1 -31 0 -37 -1 -41 -1 -35 0 -27 -1 -35 
0 -57 0 22 1 9 0 -24 1 -26 0 -36 1 -54 0 8 
1 1 1 -87 1 -5 1 -12 1 109 1 -15 1 -6 1 -13 
2 -15 2 43 1 -22 2 54 1 57 2 34 2 20 2 6 
1 48 2 31 2 1 2124 3219 100 MP stroke
2 42 2 15 1 3 2 20 2 10 2 5 2 2 2 -2 
2 14 3 15 2 3 2 22 3 19 2 17 2 25 2 18 
3 21 2 23 3 16 2 4 2 4 3 11 2 0 2 -6 
2 -11 2 -14 2 -19 3 -20 1 -25 2 -31 2 -23 2 -21 
1 -22 2 -13 2 -5 1 13 1 18 1 32 1 22 1 27 
1 20 1 15 0 12 0 -23 -1 -17 0 -27 -1 -29 -1 -31 
-1 -39 -1 -43 -1 -33 -1 -35 -2 -1 -1 -3 -2 4 -2 29 
-2 50 -2 48 -2 61 -2 60 -1 53 -2 48 -2 42 -3 36 
-2 30 -2 24 -2 19 -3 12 -3 7 -3 2 -2 -3 -4 -6 
-3 -12 -3 -12 -3 -17 -4 -22 -4 -19 -4 -19 -4 -19 -4 -19 
-4 -19 -5 -12 -5 -11 -4 -7 -5 -1 -5 6 -5 7 -5 6 
-5 7 -5 9 -5 10 -5 10 -5 7 -4 5 -5 5 -5 5 
-5 5 -5 6 -5 8 2216 2821 100 MP stroke
-5 10 -5 15 -5 16 -4 23 -5 23 -5 28 -5 27 -5 26 
-5 27 -4 24 -5 23 -4 19 -5 16 -4 11 -5 7 -4 1 
-4 -4 -4 -9 -5 -9 -4 -12 -4 -19 -3 -23 -4 -19 -4 -18 
-4 -20 -3 -15 -3 -13 -4 -10 -3 -12 -2 3 -3 4 -2 6 
-2 9 -3 10 -1 13 -2 12 -1 11 -1 12 -1 13 -1 12 
-1 11 0 21 1 9 0 8 1 7 1 7 1 6 2 4 
1 4 3 6 2 5 3 5 3 5 3 4 5 3 4 2 
4 -1 5 -1 6 -5 6 -8 7 -10 7 -11 8 -15 8 -14 
9 -15 9 -17 9 -14 10 -15 10 -14 11 -12 11 -13 11 -12 
12 -12 12 -14 12 -12 13 -12 12 -14 13 -15 14 -12 13 -9 
13 -9 14 -9 14 -5 13 -3 14 -5 13 -2 14 -1 13 -1 
13 -3 13 0 13 -1 13 1 12 -1 12 -1 12 -2 11 -4 
12 -6 10 -9 11 -11 1858 2845 100 MP stroke
10 -15 9 -18 9 -21 8 -24 8 -26 8 -30 7 -29 6 -29 
6 -29 6 -29 5 -29 4 -18 4 -16 4 -14 3 -16 3 -8 
2 -6 2 -6 2 -3 1 -3 0 -7 1 -5 -1 -11 -1 -14 
-1 -17 -1 -18 -2 -23 -2 -24 -1 -19 -3 -18 -2 -17 -3 -15 
-3 -11 -3 -26 -3 -5 -4 -19 -3 -8 -4 -15 -4 -12 -3 -4 
-4 4 -4 11 -4 19 -5 24 -4 31 -4 23 -4 30 -5 24 
-4 19 -5 16 -3 12 -5 9 -4 4 -4 2 -4 0 -6 -3 
-4 -7 -4 -6 -5 -8 -4 -10 -4 -10 -4 -10 -4 -8 -4 -5 
-2 -1 -3 6 -3 17 -3 20 -2 25 -2 30 -2 27 -2 28 
-1 31 -2 23 -2 23 -1 15 -1 12 0 9 -1 -1 -1 -8 
0 -39 -1 -16 0 -15 1 -11 0 -22 2 -4 -1 -2 1 0 
0 -1 0 2 1 4 -1 0 1 1 0 3 -1 2 2 -4 
0 -9 1 -1 2 0 1917 3197 100 MP stroke
0 -2 2 -2 1 -3 1 1 1 -4 2 -2 2 5 1 4 
3 6 3 6 2 7 3 5 3 10 4 16 3 12 4 12 
5 12 5 12 4 11 5 9 5 8 7 5 4 -1 6 3 
6 -1 6 -5 7 -9 6 -7 7 -11 6 -10 7 -12 6 -15 
8 -12 6 -13 6 -13 6 -10 7 -10 5 -8 5 -6 5 -3 
5 -2 4 -2 4 4 4 3 2 2 2 3 2 0 2 2 
0 -3 1 -4 -2 -5 -1 -2 -2 -4 -1 -2 -4 0 -2 2 
-3 3 -3 7 -4 10 -5 12 -4 15 -5 16 -4 18 -4 21 
-6 23 -5 19 -10 18 -4 18 -3 13 -7 10 -4 8 -7 4 
-6 0 -7 -3 -6 -6 -6 -7 -6 -8 -7 -9 -6 -9 -6 -7 
-6 -5 -4 -5 -7 3 -12 2 0 5 -5 5 -4 7 -7 6 
-7 7 -3 4 -7 3 -5 1 -5 -2 -6 -4 -6 -7 -4 -9 
-2 -12 -6 -11 -5 -12 1957 3078 100 MP stroke
-5 -9 -4 -10 -4 -7 -3 -5 -4 -2 -2 -1 -5 7 -3 4 
-4 5 -2 5 -2 3 0 3 -3 3 -3 2 1 -1 -1 -1 
-1 0 -2 -2 0 -1 1 4 -1 7 -2 7 1 10 2 11 
2 9 4 4 3 13 1 10 3 4 0 8 4 5 1 3 
3 5 2 4 4 6 2 5 3 5 3 3 3 2 3 2 
3 0 3 -3 4 -7 3 -5 3 -8 2 -8 1 -13 6 -8 
2 -5 4 -6 5 -4 1 -2 6 -1 6 0 3 0 5 0 
4 -6 4 -1 5 -5 4 -6 5 -11 5 -5 5 -9 2 -12 
7 -5 3 3 7 6 6 12 5 12 5 16 5 16 4 16 
5 14 5 12 5 9 5 6 5 0 4 -1 5 -4 5 -7 
4 -10 4 -10 5 -10 4 -8 5 -9 4 -8 4 -6 4 -2 
4 -6 3 0 4 1 4 -4 3 1 4 -5 2 1 4 3 
3 2 3 3 2 5 1720 3040 100 MP stroke
3 4 2 0 2 6 2 4 2 0 1 -2 1 -4 1 -8 
1 -10 1 -13 0 -15 2 -19 3 -22 -1 -19 -1 -23 0 -66 
-1 -1 0 -1 -1 6 0 12 -1 13 -1 10 -1 10 -1 12 
-1 9 0 4 -2 -3 -1 -2 -1 -9 -2 -15 -1 -17 -4 -17 
-1 -19 -2 -24 -2 -22 -1 -25 -2 1 -2 3 -2 24 -2 32 
-3 44 -2 44 -2 50 -2 46 -2 41 -2 30 0 36 -5 28 
-2 22 -3 16 -4 10 -3 8 -3 6 -3 0 -3 -5 -3 -8 
-3 -10 -3 -12 -4 -16 -2 -17 -3 -19 -3 -19 -4 -18 -6 -17 
-2 -10 -2 -11 -3 -10 -2 -7 -4 -6 -1 -6 -2 -5 -3 -8 
-2 0 -1 -3 -3 -2 -2 2 -3 2 1 3 -1 2 -1 3 
0 7 -1 3 0 2 1 2 0 -2 2 -5 1 -6 0 -9 
1 -12 2 -15 0 -19 2 -21 2 -23 2 -26 2 -25 2 -27 
3 -30 2 -18 3 -15 1810 3301 100 MP stroke
3 -14 4 1 3 5 4 12 4 18 4 23 4 22 4 21 
5 19 5 15 5 13 4 9 6 4 4 5 5 2 5 -1 
6 -4 4 -2 8 -8 4 -3 2 -3 6 -7 5 -6 5 -8 
3 -7 5 -5 4 -3 4 -4 4 -4 4 -3 4 -2 4 -2 
3 -1 4 -1 4 0 3 0 3 1 4 0 2 2 3 0 
2 -1 3 -2 2 -2 3 -6 2 -5 2 -5 2 -6 2 -6 
3 -6 3 -3 0 -4 2 -1 2 -1 3 1 2 0 2 2 
2 2 5 3 1 4 4 -2 1 5 0 4 2 -1 4 0 
2 -2 2 -4 2 -3 2 -3 1 -7 2 -4 2 0 2 1 
1 -1 2 0 1 2 2 0 1 -5 0 12 1 3 1 3 
-1 3 1 4 0 5 -1 5 0 5 -1 6 0 5 -1 5 
-1 4 -1 3 -1 1 0 -1 -3 -4 -1 -4 -2 -6 -2 -9 
-1 -11 -2 -12 -5 -13 1587 3269 100 MP stroke
-1 -15 -2 -9 -2 -7 -3 -17 -3 -4 -3 -6 -4 3 -3 -2 
-4 1 -4 -2 -4 8 -3 11 -4 13 -5 11 -3 5 -4 14 
-3 15 -5 9 -4 11 -4 6 -5 2 -3 6 -4 2 -5 -3 
-5 -3 -3 -4 -5 -2 -5 -1 -3 1 -5 1 -4 3 -6 1 
-4 -1 -4 -2 -5 -5 -4 -7 -5 -10 -4 -9 -4 -9 -4 -4 
-4 -5 -4 -4 -5 0 -4 2 -3 -4 -4 -2 -4 2 -4 -2 
-4 -7 -4 -2 -4 -1 -4 2 -3 3 -3 3 -4 2 -2 3 
-6 3 -5 5 -1 6 -4 8 -3 14 -4 17 -2 18 -4 20 
-2 23 -4 20 -2 20 -4 19 -2 16 -3 12 -3 13 -4 7 
-2 4 -3 4 -3 1 -2 2 -2 -2 -3 -3 -3 -2 -1 -2 
-3 0 -2 0 -2 3 -2 3 -2 4 -2 5 -1 6 -2 6 
-1 6 -2 7 -2 7 -1 6 0 4 -2 5 -1 3 -2 0 
-1 -2 0 -5 -1 -5 1903 3002 100 MP stroke
-1 -10 0 -12 -2 -15 1 -18 0 -17 -1 -18 -1 -16 1 -5 
0 52 -1 26 1 25 0 94 1 11 1 17 -1 0 2 -4 
0 -7 1 -4 1 -7 1 -10 0 -8 1 -10 2 -10 1 -10 
1 -11 1 -12 2 -11 1 -15 2 -17 1 -21 2 -23 3 -28 
2 -33 2 -41 2 -41 2 -47 2 -53 3 -69 2 -87 3 -56 
1 -79 4 -131 2 83 2 134 3 91 2 116 2 90 3 68 
2 71 3 55 2 46 2 36 2 29 2 22 1 12 2 12 
1 5 2 -5 1 -9 0 -21 1 -11 1 -11 -1 -11 0 -2 
-2 -2 0 -1 -2 2 -2 2 -2 1 -1 0 -1 -1 -2 -5 
-2 -10 -3 -8 -4 -14 -2 -17 -4 -15 -3 -17 -4 -18 -4 -15 
-4 -10 -4 -8 -4 -8 -4 -6 -4 0 -4 10 -4 8 -4 3 
-5 2 -4 9 -4 8 -4 5 -4 7 -4 11 -4 8 -4 8 
-4 8 -4 9 -4 7 1940 2980 100 MP stroke
-4 6 -3 2 -4 -1 -4 -5 -3 -4 -3 -6 -4 -9 -3 -9 
-3 -9 -3 -8 -3 -8 -3 -1 -3 3 -3 2 -3 13 -2 14 
-3 18 -2 20 -3 21 -2 23 -2 22 -2 20 -2 19 -2 16 
-2 13 -2 9 -2 8 -2 2 -1 1 -2 -2 -2 -6 -1 -8 
-1 -12 -2 -12 -1 -12 -2 -16 0 -17 -1 -20 -1 -22 -1 -18 
-1 -44 0 -21 -1 -36 -1 -39 0 -37 -1 -49 -1 -23 0 -15 
-1 4 0 -15 0 19 -1 -35 0 -21 0 149 -1 58 0 122 
-1 39 0 30 -1 22 0 15 -1 11 0 9 -1 -5 0 -24 
1 -15 -3 -16 2 -24 1 -23 -3 -18 2 -18 2 -21 -3 -21 
3 -20 1 -25 0 -44 1 -28 0 -34 1 -44 0 -117 1 -58 
0 -88 1 -15 1 25 1 60 0 60 1 59 2 56 0 24 
1 31 3 5 -4 -14 -1 -15 3 -34 0 -36 2 -64 1 -105 
1 -123 2 -80 1 50 2023 3569 100 MP stroke
1 131 1 98 2 108 2 70 1 47 2 32 2 28 2 15 
1 7 2 4 2 -5 2 -8 2 -9 2 -9 1 -1 2 10 
3 19 1 28 2 33 2 35 2 34 1 30 1 26 3 22 
0 18 2 14 2 10 2 6 2 4 2 0 2 -2 3 -5 
3 -7 2 -8 3 -10 2 -12 3 -12 3 -15 1 -15 3 -18 
3 -19 2 -21 2 -21 3 -22 3 -24 2 -27 3 -29 1 -30 
3 -35 2 -34 3 -40 2 -40 3 -51 2 -49 2 -50 3 -39 
2 -35 2 -83 3 11 2 -47 2 28 3 -6 2 52 2 15 
2 28 2 26 2 -4 2 31 1 20 2 14 2 24 1 13 
2 10 1 5 1 2 2 -13 1 -8 0 -25 1 -26 1 -47 
1 -62 0 -63 1 -99 0 -229 0 128 -1 218 0 -8 -1 0 
0 26 -1 18 -1 -29 0 33 -1 -37 0 93 -1 19 -1 17 
0 -6 -2 14 -1 -42 1874 3431 100 MP stroke
-1 34 -1 -5 -1 -8 -1 -61 -1 -8 -1 -53 -2 -36 -1 14 
-1 -55 -2 -176 -1 -173 -2 204 -1 303 -2 141 -1 126 -2 127 
-1 100 -2 88 -1 75 -2 65 -2 54 -1 45 -2 38 -2 32 
-2 25 -2 20 -2 15 -2 10 -1 6 -2 3 -2 -1 -1 -3 
-2 -5 -2 -6 -1 -7 -2 -8 -1 -9 -1 -8 -2 -7 -1 -7 
-1 -7 -2 -6 -1 -5 -1 -5 -1 -5 -1 -5 -1 -5 -2 -5 
-1 -6 -1 -6 -1 -7 -2 -7 -1 -8 -1 -9 -2 -9 -1 -9 
-1 -10 -2 -11 -2 -10 -1 -10 -1 -10 -2 -10 -1 -10 -2 -9 
-1 -8 0 -7 -2 -6 -1 -5 -1 -4 -1 -2 -1 -2 -2 0 
-1 0 -1 2 -1 2 -1 3 -1 4 -1 3 -1 5 0 4 
-1 5 -1 5 -1 6 -1 5 0 7 -1 6 0 12 -1 6 
0 5 -1 4 0 3 -1 2 0 2 0 -2 -1 -3 0 -7 
-1 -5 0 -5 -1 -6 1993 2697 100 MP stroke
0 -6 -1 -8 -1 -9 0 -9 -1 -11 -1 -12 -1 -14 0 -15 
-1 -18 -1 -19 -1 -20 -1 -23 -1 -24 -1 -27 -1 -26 -1 -27 
-2 -28 -2 -27 -1 -26 -2 -26 -2 -23 -2 -23 -1 -21 -2 -21 
-2 -5 -2 -10 -2 1 -2 7 -2 10 -2 18 -2 17 -2 12 
-1 16 -2 16 -1 9 -2 4 -2 7 -2 1 -1 0 -2 -1 
-2 1 -1 -4 -2 2 -2 3 -2 2 -1 3 -2 7 -1 5 
-2 8 -1 6 -2 5 -2 3 -1 9 -2 3 -2 2 -1 1 
-2 -3 -1 -16 -1 4 -1 -6 -1 -12 0 -69 1 -20 1 -27 
1 -25 1 -35 1 -38 2 -59 2 -28 2 -41 2 12 2 -58 
3 50 3 60 4 35 3 40 4 36 4 30 4 30 6 21 
4 21 5 14 4 16 6 10 5 8 6 4 6 4 6 4 
6 1 5 -2 6 5 6 2 5 2 4 6 4 7 5 6 
5 8 4 7 5 6 1938 2992 100 MP stroke
4 6 4 4 3 0 4 -1 3 -5 4 -7 1 -10 5 -12 
4 -14 2 -14 1 -9 0 -9 1 -11 0 -12 1 4 0 7 
-1 8 0 8 -1 11 -1 11 -1 10 -1 14 0 15 -1 12 
0 10 -2 8 0 12 1 4 -1 1 -1 -1 -1 -4 1 -7 
0 -41 1 -21 0 -22 1 -23 0 -22 1 -13 2 -3 2 8 
1 13 2 19 2 24 2 19 3 19 2 12 3 8 3 8 
3 1 4 -3 3 -6 4 -11 4 -13 3 -17 4 -19 4 -24 
4 -22 4 -21 5 -26 5 -19 4 -10 5 2 5 1 5 14 
5 17 5 16 6 21 6 19 5 19 6 16 6 15 6 15 
6 13 5 10 6 8 6 6 6 4 5 0 6 -3 5 -5 
5 -4 6 -8 5 -8 5 -8 6 -7 5 -3 5 -1 4 4 
5 3 5 5 5 5 6 2 2 -2 5 0 1 -8 2 -11 
5 -12 1 -15 4 -15 1647 3063 100 MP stroke
4 -12 1 -10 3 1 3 6 2 12 2 14 2 13 2 15 
2 11 1 7 1 3 1 -3 1 -6 1 -10 1 -11 0 -11 
1 -9 0 -8 1 4 0 7 -1 10 -1 11 -1 11 -1 12 
-1 9 -1 8 -1 5 -2 2 -2 1 -2 -1 -3 -3 -1 -6 
-3 -4 -2 -3 -3 -5 -3 -5 -3 -3 -3 0 -3 1 -2 3 
-3 4 -3 6 -3 6 -2 8 -2 9 -2 8 -2 7 -2 6 
-2 4 -1 3 -1 -2 -1 -3 0 -5 1 -6 0 -6 1 -7 
1 -6 1 -5 1 -3 2 -1 2 1 2 6 3 5 3 10 
3 11 3 12 3 11 4 10 4 10 3 6 4 4 4 3 
4 0 4 -3 4 -5 4 -7 3 -8 4 -10 4 -10 3 -12 
4 -9 4 -10 3 -6 3 -9 3 -5 2 -2 2 -1 3 0 
3 0 1 0 2 1 1 1 2 0 1 -1 1 -1 2 -1 
1 -2 0 -3 2 -2 1566 3006 100 MP stroke
1 -3 0 -5 1 -2 -1 -1 1 0 0 3 -1 3 0 4 
-1 4 -1 4 0 5 -1 4 -2 5 -1 4 -1 3 -2 1 
-2 2 -2 0 0 -1 -2 -4 -2 -3 -2 -6 -1 -6 -2 -5 
-2 -7 -2 -7 -2 -8 -1 -7 -1 -6 -2 -5 -1 -7 -2 -5 
-1 -5 -1 -6 0 -8 -1 -4 1 -3 0 -2 -1 -2 -1 -2 
7 -1 1 -1 1 0 0 -3 1 -1 1 -3 1 -5 1 -7 
2 -9 2 -10 2 -13 1 -14 2 -17 2 -18 2 -19 2 -20 
1 -20 2 -20 2 -19 1 -16 2 -14 1 -12 2 -11 1 2 
0 -3 1 -1 1 -1 1 -3 0 -18 1 -10 0 -30 -1 -17 
0 -20 -1 -21 -1 -21 -1 -22 -1 -21 -1 -18 -1 -16 -2 -11 
-1 -7 -1 -2 -2 3 -2 7 -1 10 -3 12 -1 13 -2 13 
-3 11 -2 10 -2 9 -2 7 -1 4 -3 2 -1 1 -2 -2 
-2 -3 -2 -3 -1 -3 1603 3486 100 MP stroke
-2 -2 -1 2 -2 2 -1 3 -2 9 -1 9 -1 9 -1 12 
-1 11 0 23 -2 12 0 13 -1 13 0 27 1 14 0 30 
1 16 0 15 1 15 1 13 0 13 2 14 1 10 1 10 
2 10 1 9 2 7 1 7 2 7 2 5 1 4 2 4 
2 3 2 3 2 1 1 1 2 0 2 1 1 -1 2 0 
1 0 1 1 2 2 1 4 1 7 1 9 1 13 0 15 
1 20 0 132 -1 29 1 28 -1 25 0 24 -1 22 0 36 
-1 14 0 12 -1 9 0 6 -1 5 0 2 2 1 -1 -2 
0 -3 -1 -5 1 -6 -1 -8 0 -120 1 -14 0 -15 1 -13 
1 -12 0 -11 1 -11 0 -11 2 -10 1 -11 1 -9 0 -10 
1 -10 1 -10 1 -10 1 -9 1 -10 2 -8 1 -8 1 -7 
1 -8 1 -6 1 -5 0 -5 1 -4 1 -4 1 -2 1 -3 
1 -2 1 0 1 0 1552 3098 100 MP stroke
1 0 -2 2 -1 2 1 2 3 4 2 3 -1 3 1 3 
0 4 0 -1 -1 -2 -1 -3 0 -4 -1 -4 0 -5 -1 -6 
-1 -4 -1 -4 -1 -4 -1 -5 -1 -4 -2 -5 0 -4 -2 -8 
-2 -4 -2 -7 -1 -14 -2 -3 -2 -9 -1 -7 -3 -9 -1 -9 
-2 -7 -4 -6 -2 -6 -4 -5 -3 -4 -3 -4 -4 -3 -3 -3 
-4 -3 -4 -4 -4 -3 -4 -4 -5 -4 -3 -4 -5 -6 -5 -4 
-4 -5 -4 -4 -5 -5 -4 -5 -4 -6 -4 -5 -5 -3 -4 -2 
-4 0 -5 3 -4 6 -4 9 -4 12 -5 12 -4 14 -4 13 
-4 13 -4 13 -5 13 -4 12 -4 10 -4 12 -4 13 -4 14 
-4 15 -3 15 -4 17 -4 16 -3 17 -3 18 -3 16 -3 16 
-3 15 -3 14 -3 12 -9 10 -2 8 -3 7 -1 4 -2 3 
-2 1 -1 -1 7 -3 -1 -3 0 -5 -1 -6 0 -19 1 -7 
0 -7 1 -7 1 -7 1783 2997 100 MP stroke
1 -7 2 -7 1 -6 2 -7 2 -6 1 -6 3 -5 3 -4 
2 -3 3 -3 3 -2 4 -2 3 0 4 -2 4 -1 4 -3 
5 -3 5 -6 4 -8 5 -11 5 -11 6 -15 5 -17 5 -20 
6 -21 6 -21 6 -22 6 -21 5 -18 6 -16 6 -14 6 -12 
6 -10 5 -10 7 -8 5 -9 5 -8 6 -9 5 -9 4 -6 
5 -6 5 -7 4 -5 4 1 5 -2 4 -2 4 0 2 1 
3 0 3 3 2 3 3 3 2 3 2 3 1 3 2 2 
1 2 1 1 1 -2 0 -3 -1 -3 0 -1 -1 -2 -1 -2 
-1 -2 -1 -4 -2 -3 -1 -3 -2 0 -2 -4 -2 -5 -2 -5 
-3 -5 -2 -7 -1 -9 -5 -12 -1 -12 -3 -15 -3 -19 -2 -21 
-5 -26 -3 -28 -3 -33 -3 -30 -3 -35 -4 -37 -3 -46 -4 -12 
-3 -20 -4 -18 -3 -10 -5 -1 -3 -9 -4 -16 -4 6 -4 -14 
-3 -23 -3 -34 -4 -102 1661 3990 100 MP stroke
-4 -70 -3 5 -3 40 -3 12 -3 72 -3 65 -3 56 -2 50 
-3 49 -3 34 -1 29 -2 17 -2 12 -1 6 -1 -7 -1 -14 
-1 -13 1 -30 0 -96 1 -59 1 -82 1 -162 2 -297 1694 4373 24 MP stroke
4 163 4 91 4 105 4 73 2 67 4 49 2 40 3 31 
1 24 1 20 0 13 -1 8 0 7 -1 -1 -2 -2 0 -3 
-1 -3 -3 -4 -3 -1 -3 0 -2 1 -3 2 -4 2 -4 1 
-3 2 -2 3 -3 1 -3 0 -4 1 -2 2 -2 0 -2 -1 
-2 3 0 2 -2 2 -2 2 0 12 -1 5 1 4 1 5 
0 10 2 6 0 5 2 4 0 6 -1 2 1 1 1 0 
-1 -2 1 -3 -1 -2 -1 -4 -2 -1 0 -3 -2 -2 -1 -1 
-2 -1 -2 0 -1 -1 -3 2 -2 3 -3 1 -2 2 -2 0 
-2 -1 -1 -1 -2 -1 -2 -3 -1 -4 -1 -6 -2 -8 -1 -3 
-2 -1 1 -8 -2 1 -3 5 -1 5 -2 7 -1 8 -2 15 
-2 13 -2 14 -3 13 -2 13 -3 12 -2 11 -2 11 -3 10 
-4 8 -3 6 -3 5 -3 4 -4 3 -3 2 -4 0 -3 1 
-4 1 -2 0 -3 2 1634 2930 100 MP stroke
-3 2 -3 4 -3 4 -4 4 -4 6 -3 5 -2 6 -3 5 
-3 4 -4 2 -4 1 -3 -2 -3 -6 -5 -8 -2 -12 -1 -15 
-4 -21 -6 -24 -8 -25 -5 -28 -5 -33 -1 -24 -5 -31 -2 -17 
-2 -13 -7 -16 -1 16 -4 16 -6 19 -1 25 -4 26 -4 27 
0 25 -4 27 -3 23 -2 20 -2 17 0 16 -1 12 -1 9 
-2 7 2 5 -1 3 -1 1 1 -1 -2 -2 0 -2 -1 -4 
-1 -5 0 -7 8 -5 -9 -7 1 -6 4 -6 -3 -3 -1 -3 
-2 -1 1 -2 -2 3 -4 7 -2 8 -2 9 -3 10 -2 8 
-2 8 -2 6 -3 4 -2 2 -2 -1 -2 -4 -3 -7 -4 -11 
-1 -13 -1 -15 -1 -18 -1 -21 0 -21 -2 -22 1 -21 1 -19 
1 -17 -1 -12 2 -7 3 -5 -1 3 4 3 1 7 2 7 
4 9 3 9 0 8 1 7 2 5 1 4 3 0 1 -2 
0 -4 1 -6 -1 -9 1781 3030 100 MP stroke
0 -11 -2 -12 -1 -12 -2 -12 -2 -12 -2 -9 -2 -8 -3 -4 
-3 0 -4 1 -3 8 -4 10 -4 12 -3 14 -5 17 -5 18 
-4 17 -4 18 -5 17 -5 16 -4 15 -6 14 -5 12 -5 12 
-5 11 -6 9 -6 8 -5 8 -5 5 -6 6 -5 5 -6 3 
-5 2 -5 1 -6 -1 -6 -1 -5 -2 -5 -5 -6 -6 -5 -7 
-6 -10 -3 -9 4 -11 -14 -14 -9 -11 -5 -12 -5 -13 -6 -8 
-2 -9 -2 -6 -12 -8 -2 -5 -6 1 -4 -3 -6 -2 -3 -3 
-6 -3 -5 -5 -4 -3 -3 -6 -5 -4 0 1 -3 0 -2 0 
-2 -1 -2 5 -1 3 -1 2 -1 6 1 9 0 7 2 10 
3 13 2 12 3 12 4 8 3 14 5 12 4 6 5 4 
5 1 5 -1 4 -5 5 -8 5 -12 5 -15 4 -17 6 -22 
5 -23 5 -21 4 -22 4 -23 5 -21 4 -14 4 -11 2 -1 
3 4 5 7 3 7 1952 3091 100 MP stroke
5 9 2 8 4 6 3 3 4 1 2 -2 3 -4 4 -7 
3 -7 2 -9 3 -9 1 -9 3 -7 1 -5 2 -2 1 2 
2 6 0 10 2 12 1 16 2 16 1 17 1 17 0 14 
3 12 -1 8 6 6 3 2 2 -1 2 -4 4 -8 2 -10 
3 -11 2 -11 3 -9 3 -8 3 -7 3 2 4 3 2 6 
3 6 2 7 4 8 2 7 4 6 2 5 3 5 3 5 
4 3 1 3 5 2 2 2 3 1 3 0 4 -1 2 -3 
3 -3 3 -5 3 -5 1 -5 4 -4 1 -3 4 -1 0 -1 
4 5 -1 4 10 9 25 1 0 8 3 1 2 0 1 -5 
4 -9 -1 -8 -21 -18 7 -5 1 -11 4 -10 3 -11 5 -7 
4 -9 4 -10 5 -11 6 -10 3 -12 8 -14 6 -16 6 -17 
7 -18 5 -17 8 -17 7 -16 7 -13 7 -11 8 -9 7 -10 
9 -4 9 -6 7 -6 1621 3298 100 MP stroke
9 -7 7 -5 9 -7 8 -9 9 -7 8 -11 8 -8 9 -11 
7 -4 7 -8 8 -5 7 -2 6 0 6 2 7 0 6 4 
5 6 6 5 4 3 5 1 3 4 5 1 3 0 3 -2 
4 -2 3 -2 2 0 4 0 1 2 3 4 3 6 4 4 
2 10 5 9 5 9 1 6 4 2 3 -1 5 -7 4 -10 
9 -19 0 -27 5 -11 4 -16 6 -5 4 19 6 41 12 50 
5 52 3 53 5 47 4 37 4 31 4 26 2 22 5 19 
0 16 4 13 1 11 1 10 1 7 0 6 1 3 0 2 
1 -1 0 -6 -2 -8 1 -14 -1 -18 -2 -25 0 -31 -1 -39 
-1 -47 -2 -73 4 -48 -1 -82 -1 -55 0 -58 -2 -8 0 9 
-1 32 -1 29 0 66 -2 19 -1 33 -2 24 -1 22 -3 18 
-2 19 -3 16 -2 12 -3 12 -3 6 -2 6 -4 2 -3 -1 
-4 -3 -4 -6 -4 -7 1379 3146 100 MP stroke
-4 -8 -4 -8 -4 -7 -3 -7 -4 -4 -3 -2 -3 1 -4 4 
-5 5 -2 8 -3 8 -2 9 -3 8 -3 7 -2 6 -1 4 
-2 2 2 -2 0 -2 -1 -7 -1 -9 -1 -12 -1 -13 1 -18 
0 -16 -1 -16 1 -21 1 -15 -1 -9 0 -15 -1 5 0 2 
1 7 -3 6 0 4 -3 3 -1 1 -1 -1 -2 -6 -2 -4 
-3 -6 -6 -7 -2 -9 -3 -7 -2 -5 -4 -11 -3 0 -4 -3 
-3 -4 -2 0 -4 1 -5 1 -5 3 -4 10 -4 11 -5 13 
-5 9 -4 6 -6 10 -5 4 -5 -1 -5 -6 -5 -4 -5 -8 
-5 -12 -5 -7 -4 -4 -4 -2 -5 0 -3 1 -7 -3 -2 -2 
-5 -12 -5 -12 -4 -7 -3 -16 -4 -20 -3 -17 -4 -3 -3 -2 
-4 6 -3 11 -3 14 -3 14 -3 11 -2 6 -3 1 -1 -3 
-3 4 -1 6 -2 -3 -1 3 -1 12 -1 7 -1 11 0 24 
1 1 1 0 1 -2 1638 3256 100 MP stroke
1 -4 2 -5 2 -7 2 -8 2 -12 3 -11 3 -15 4 -11 
3 -10 5 -12 3 -1 5 0 3 3 5 7 5 8 6 6 
4 7 4 2 6 -2 6 -7 5 -9 4 -7 8 -11 5 -9 
3 -4 5 -4 6 6 3 3 4 4 5 15 4 12 3 9 
4 8 3 8 3 5 2 10 2 9 1 8 1 8 1 7 
1 10 0 13 -1 7 -1 7 -1 6 -2 6 -1 5 -2 4 
-2 4 -1 4 -2 3 -3 4 -3 2 -2 2 -2 2 -4 2 
-1 2 -3 1 -2 0 -6 1 -4 -3 -2 -1 -3 -2 -2 -2 
-3 -4 -4 -3 -4 -4 -3 -3 -4 -3 -2 -4 -4 -1 -3 -3 
-5 -2 -6 -2 -3 -2 -5 -4 -4 -4 -6 -6 -7 -6 -5 -7 
-6 -9 -6 -9 -8 -5 -7 -10 -7 -5 -8 -6 -8 -5 -8 -1 
-7 -1 -8 5 -8 5 -8 8 -9 9 -8 11 -8 12 -8 10 
-8 9 -9 8 -7 6 1755 3209 100 MP stroke
-8 4 -8 4 -7 1 -9 -1 -8 1 -8 -1 -8 1 -8 6 
-8 6 -9 9 -8 10 -7 13 -8 14 -8 17 -8 18 -9 18 
-8 20 -8 19 -9 19 -8 17 -9 19 -7 18 -9 16 -8 16 
-7 15 -7 13 -8 13 -6 11 -7 10 -5 8 -8 7 -5 5 
-4 4 -4 3 -1 2 -4 1 -1 0 -2 0 -1 -1 2 0 
1 -1 1 -1 3 -1 4 -1 3 -2 5 -2 4 -3 5 -4 
6 -5 6 -7 5 -7 6 -8 6 -10 7 -11 5 -13 7 -14 
6 -15 7 -16 6 -17 6 -17 7 -17 6 -17 6 -16 6 -14 
5 -12 6 -12 4 -7 5 -5 5 -3 3 -2 3 0 4 0 
0 1 5 0 2 -1 1 -1 1 -3 5 -3 0 -4 3 -4 
-2 -5 2 -5 2 -6 0 -4 -1 -5 1 -6 0 -7 -1 -8 
1 -10 -1 -10 -1 -12 1 -13 0 -12 -1 -11 1 -9 0 -8 
1 -5 0 -3 1 -3 1839 3271 100 MP stroke
1 0 1 -1 1 1 1 1 2 3 1 4 1 5 2 7 
1 8 2 11 2 9 2 12 2 12 2 13 2 10 2 9 
2 6 2 4 3 1 1 -1 2 0 2 0 2 2 1 1 
2 2 1 7 2 6 2 4 0 5 3 3 0 2 1 -3 
1 -4 2 -6 0 -9 2 -10 0 -10 1 -11 1 -10 2 -7 
1 -6 1 -3 1 -1 1 1 0 4 1 5 1 8 2 8 
1 9 2 10 0 10 1 10 2 10 2 10 3 9 2 9 
3 7 3 6 4 6 4 2 3 -1 4 -5 4 -9 3 -12 
5 -17 5 -20 6 -20 5 -16 3 -7 4 4 5 15 5 19 
5 29 4 26 6 22 5 17 2 12 6 7 5 2 4 -4 
3 -7 4 -11 3 -13 3 -15 5 -16 3 -15 3 -13 2 -11 
5 -9 3 -5 3 -2 3 1 4 5 3 6 4 5 3 10 
4 8 4 6 3 4 1590 3111 100 MP stroke
3 1 5 -1 3 -4 3 -6 3 -8 4 -10 3 -12 6 -16 
0 -11 3 -14 3 -13 2 -15 4 -10 2 -11 2 -12 2 -17 
3 1 1 -4 1 -2 1 -5 1 3 1 4 0 5 1 3 
0 12 1 9 1 10 0 23 1 10 0 5 -1 4 0 2 
-1 1 0 5 -1 9 0 9 -2 7 0 10 -3 15 -2 17 
-3 19 -2 16 -1 18 -2 17 -1 14 -2 12 -3 11 -3 9 
-2 6 -5 3 -4 -2 -2 -2 -4 -2 -5 -5 -5 -5 -5 -6 
-5 -6 -4 -5 -6 -3 -5 -1 -6 1 -5 2 -6 2 -6 4 
-6 5 -6 2 -6 3 -6 2 -6 0 -4 -2 -6 -3 -6 -5 
-5 -6 -5 -6 -6 -7 -4 -10 -5 -5 -4 -6 -3 -7 -4 -6 
-3 -2 -5 -4 -3 -2 -1 0 -4 -4 -4 6 0 6 -9 12 
-4 10 -8 11 -4 10 0 13 3 9 -2 3 0 1 0 -3 
2 -7 1 -11 2 -13 1753 3036 100 MP stroke
3 -14 5 -11 7 -14 5 -8 9 -11 2 -3 4 -2 3 0 
2 -4 5 -3 3 -7 4 -7 4 -8 4 -9 4 -5 4 -9 
4 -7 6 -4 3 -4 4 -3 4 0 6 -1 4 0 5 -1 
4 0 5 0 4 0 4 0 5 -2 5 0 5 -2 3 -2 
5 -2 5 -2 3 -4 6 -3 2 -3 5 -3 3 -3 3 -4 
3 -1 3 -1 1 -1 4 0 2 0 2 0 1 1 1 -3 
-1 -4 -1 -6 -2 -7 -2 -9 -2 -8 -4 -11 -3 -2 -5 1 
-4 5 -5 6 -5 12 -7 5 -6 0 -7 -2 -8 -1 -7 -9 
-7 2 -9 19 -8 30 -9 38 -6 39 -19 39 -13 27 -6 31 
-2 12 -11 10 -8 -6 -10 -9 -8 -22 -5 -23 -10 -29 -9 -25 
-8 -27 -9 -18 -10 -14 -6 7 -9 8 -8 19 -9 22 -8 25 
-8 28 -9 28 -8 29 -7 28 -7 26 -8 23 -9 19 -6 16 
-8 14 -5 9 -6 5 1922 2856 100 MP stroke
-5 1 -8 -1 -5 -5 -6 -9 -6 -10 -6 -15 -6 -15 -5 -20 
-4 -19 -8 -17 -4 -15 -4 -15 -3 -7 -4 -4 -6 0 -5 5 
-4 9 -5 12 -5 14 -4 15 -5 16 -4 15 -3 14 -4 11 
-4 11 -3 9 -3 6 -3 5 -4 3 -4 2 -2 0 -4 -1 
-3 -2 -2 -2 -3 0 -2 -3 -3 -2 -2 -3 -3 -3 -2 -3 
-3 -5 -3 -6 -3 -5 -2 -5 -3 -9 -3 -8 -4 -9 -2 -10 
-6 -13 15 -11 11 -17 -10 -14 1 -19 -9 -21 3 -27 -23 -16 
-1 -20 14 -23 -11 -8 1 -16 -9 0 -25 -9 -2 -6 -4 17 
-4 21 -3 10 -3 7 -5 5 -3 5 -3 5 -3 3 -4 1 
-3 -3 -6 -8 -2 -8 -2 -13 -3 -19 -3 -23 -4 -25 -3 -31 
-3 -35 -3 -42 -2 -57 -3 -60 -3 -57 -2 -86 -3 -115 -3 -176 
-2 -202 -2 -62 -2 224 -1 134 -2 155 -2 86 -2 70 -1 49 
0 47 -1 35 -1 30 2258 3274 100 MP stroke
-1 27 0 59 1 6 0 3 1 2 0 10 2 8 0 23 
2 17 0 18 1 17 1 17 3 14 -1 11 0 6 1 4 
0 -4 1 -5 1 -9 1 -14 0 -19 2 -22 3 -21 -2 -16 
1 -26 1 -22 1 -1 4 0 1 4 -3 12 2 7 3 1 
1 18 -1 17 -1 14 2 9 2 6 2 1 -2 -2 -1 0 
0 -5 3 -6 -2 -9 2 -10 -2 -9 -1 -10 0 -9 2 -9 
-3 -7 2 -5 2 -5 -3 -3 -3 -4 3 3 0 -1 -2 3 
-2 1 1 6 1 9 0 24 -3 7 0 26 -6 27 2 24 
0 23 2 21 -2 17 -1 15 1 11 4 7 1 2 1 -1 
0 -9 3 -12 -1 -28 9 -3 7 -23 1 -25 7 -32 7 -36 
4 16 9 -3 5 14 3 11 0 25 11 13 -9 -6 5 0 
-2 -23 9 1 -3 -22 -5 -22 8 -30 -2 -1 1 -1 -1 7 
-1 14 2 35 2 33 2164 3078 100 MP stroke
6 26 2 25 -7 18 3 18 0 11 -1 9 6 6 1 3 
1 1 1 0 1 -1 0 -3 -1 3 0 4 -2 5 0 19 
-1 13 0 15 -2 18 0 17 -2 16 2 18 -1 14 -1 13 
-5 10 -2 8 -2 6 -3 2 -1 0 -3 -2 -4 -5 -4 -6 
-3 -7 -4 -7 -4 -8 -2 -6 -7 -5 -3 1 -2 1 -4 7 
-4 11 -4 14 -4 15 -5 18 -4 17 -2 16 -4 17 -4 15 
-5 14 -5 12 -5 11 -7 9 -5 7 -4 5 -5 4 -5 1 
-4 1 -6 -1 -4 -2 -3 -3 -4 -4 -4 -5 -4 -5 -3 -5 
-4 -5 -5 -5 -1 -5 -2 -4 -3 -4 -2 -4 -2 -5 -2 -2 
-2 -3 -4 -4 -2 -5 -1 -5 -3 -6 1 -6 -2 -9 -3 -10 
0 -12 -2 -13 -2 -13 -1 -16 0 -15 -2 -14 0 -12 -3 -12 
-2 -10 2 -5 -5 -5 -2 -3 0 -2 -4 0 -2 2 -2 4 
-4 3 3 8 5 7 2374 2849 100 MP stroke
-3 8 -1 9 -3 7 3 5 5 3 -7 2 3 0 -3 -1 
4 -4 0 -10 -1 -4 3 -4 -1 -3 2 -3 -1 -2 1 0 
-1 0 0 2 0 2 0 -1 -1 3 -1 2 0 5 -1 4 
-1 3 -2 4 -1 2 -1 7 -2 6 -2 5 -2 3 -2 5 
-2 4 -3 3 -2 2 -3 2 -2 1 -3 1 -2 4 -3 4 
-2 6 -3 5 -3 6 -2 4 -3 6 -3 1 -2 1 -3 -2 
-3 -5 -3 -8 -2 -10 -3 -9 -4 -9 -3 -7 -3 -3 -3 6 
-4 9 -3 15 -4 18 -4 19 -5 21 -3 24 -4 21 -5 20 
-5 20 -3 19 -6 17 -5 17 -5 14 -5 13 -5 11 -5 11 
-6 8 -4 7 -5 6 -6 6 -5 5 -4 6 -4 5 -6 6 
-4 6 -5 7 -5 7 -4 8 -5 7 -4 6 -5 5 -5 5 
-3 3 -5 1 -3 0 -3 -3 -4 -3 -4 -5 -4 -6 -4 -7 
-3 -6 -3 -6 -4 -3 2643 2457 100 MP stroke
-2 -2 -4 2 -2 6 -3 8 -3 10 -2 14 -3 15 -2 15 
-3 16 -2 16 -2 15 -3 14 -2 13 -2 12 -3 11 -2 9 
-2 9 -2 6 -2 6 -1 4 2 4 -2 2 -1 3 -2 2 
-1 1 -2 1 -4 2 -1 1 -2 0 -2 1 0 -1 -9 -1 
-7 -3 1 -4 -3 -5 1 -6 -4 -8 5 -10 5 -12 -2 -12 
0 -12 -3 -12 -2 -14 0 -12 -2 -10 -3 -9 -2 -7 -2 -5 
-1 -3 -2 -2 -3 0 -2 -2 -1 -1 -2 -3 -2 -3 -2 -5 
-2 -6 -1 -9 -2 -5 -1 -6 -2 -3 -1 -1 -2 3 -2 6 
-2 10 -1 14 -1 15 -1 17 -2 17 -2 14 0 15 -1 12 
-1 12 -2 9 -1 6 -1 4 -1 1 -2 1 -1 -3 -1 -3 
-1 -6 -1 -6 -2 -6 0 -6 -2 -4 0 -4 -1 -3 -1 -1 
-1 -1 -1 3 -1 3 -1 2 -1 3 -1 4 -1 3 -1 4 
-2 4 -1 5 -2 4 2801 2285 100 MP stroke
-2 5 -2 7 -3 7 -2 8 -3 8 -3 9 -3 10 -4 11 
-3 12 -4 13 -4 13 -5 14 -5 13 -5 15 -5 13 -5 13 
-6 13 -6 13 -5 12 -6 11 -5 8 -6 9 -7 8 -6 7 
-6 5 -7 6 -6 4 -7 6 -5 5 -7 7 -6 6 -5 8 
-6 8 -6 9 -6 9 -5 9 -5 9 -5 9 -6 8 -5 8 
-5 8 -5 7 -4 6 -5 6 -4 6 -4 5 -5 5 -4 4 
-4 4 -4 3 -4 4 -3 3 -4 3 -4 3 -3 3 -4 3 
-3 2 -3 3 -3 3 -3 3 -3 2 -3 3 -3 2 -3 1 
-3 1 -3 0 -3 0 -2 -2 -3 -2 -3 -4 -3 -4 -3 -6 
-3 -6 -3 -6 -2 -8 -3 -7 -3 -7 -2 -7 -3 -6 -2 -5 
-2 -5 -2 -3 -1 -3 -2 -2 -2 -2 -1 -1 -2 -1 -1 -1 
-2 -2 -2 -1 -1 -1 -2 -2 -1 -2 -2 -2 -1 -1 -2 -2 
-1 -1 -1 -1 -1 0 3162 1927 100 MP stroke
-1 1 -1 1 -1 1 0 4 -1 1 0 2 1 1 1 -2 
0 -4 1 -4 1 -5 1 -7 2 -8 1 -8 2 -8 1 -9 
2 -9 2 -8 3 -7 2 -6 2 -5 2 -4 3 -2 2 -1 
3 0 2 1 3 2 3 3 2 2 3 2 2 1 3 1 
3 -1 2 -2 3 -3 2 -4 3 -6 2 -6 2 -6 3 -7 
2 -7 2 -6 2 -4 1 -3 2 -2 2 1 1 2 1 4 
1 5 1 6 1 6 0 13 1 5 -1 4 0 3 -1 1 
-1 -1 -1 -2 -1 -4 -2 -4 -1 -6 -2 -6 -1 -6 -3 -7 
-1 -5 -3 -5 -2 -3 -3 -3 -2 -1 -3 0 -3 2 -3 2 
-3 4 -4 4 -4 5 -4 6 -5 6 -5 6 -5 5 -5 6 
-6 6 -6 6 -5 5 -7 5 -6 5 -7 5 -7 5 -7 5 
-7 5 -8 5 -8 4 -8 5 -9 4 -8 5 -10 5 -9 5 
-10 5 -9 5 -11 5 3296 1920 100 MP stroke
-9 6 -11 6 -10 6 -10 6 -10 6 -11 5 -9 4 -12 3 
-11 3 -10 1 -12 1 -10 0 -12 0 -10 -1 -11 -1 -10 1 
-11 1 -10 2 -10 5 -11 6 -9 6 -11 7 -10 7 -11 7 
-10 6 -11 4 -10 2 -10 1 -10 -1 -11 -1 -10 -3 -10 -3 
-10 -4 -11 -2 -10 -4 -10 -2 -11 -3 -10 -2 -10 -3 -10 -2 
-10 -2 -10 -2 -9 -1 -10 0 -10 2 -10 3 -9 7 -10 8 
-9 11 -9 13 -9 14 -9 15 -9 16 -8 17 -9 16 -8 16 
-9 15 -8 13 -8 14 -7 13 -8 11 -8 11 -7 10 -7 10 
-7 9 -7 10 -6 10 -7 9 -6 9 -6 8 -6 8 -6 7 
-6 8 -6 6 -6 6 -5 7 -6 5 -6 6 -6 5 -5 5 
-6 4 -6 5 -5 4 -6 4 -6 3 -6 3 -5 3 -6 3 
-5 2 -6 2 -6 2 -5 1 -6 2 -6 2 -5 2 -6 3 
-6 2 -5 3 -6 3 4126 1449 100 MP stroke
-6 3 -5 4 -6 4 -6 4 -6 4 -6 5 -6 4 -5 4 
-6 5 -6 4 -6 5 -6 4 -6 5 -6 4 -5 4 -6 4 
-6 4 -6 3 -6 4 -6 2 -6 3 -6 1 -6 2 -7 1 
-6 1 -6 1 -7 1 -6 1 -7 1 -6 2 -7 1 -7 2 
-7 3 -6 3 -7 2 -7 3 -6 3 -7 3 -7 3 -6 3 
-7 3 -6 3 -6 2 -6 2 -6 2 -6 1 -6 2 -5 1 
-6 1 -6 2 -6 1 -5 2 -6 2 -5 2 -6 2 -6 2 
-5 2 -6 2 -6 2 -5 2 -6 2 -6 1 -5 2 -6 2 
-6 1 -5 2 -6 1 -6 2 -6 2 -5 2 -6 2 -6 3 
-6 3 -6 3 -5 4 -6 5 -6 4 -6 5 -5 5 -6 5 
-6 5 -5 5 -6 4 -6 4 -6 4 -6 3 -6 3 -5 2 
-6 1 -6 2 -6 0 -6 0 -6 0 -6 0 -6 -1 -6 -1 
-6 -1 -6 -1 -5 -1 4715 1207 100 MP stroke
-6 -1 -5 0 -5 0 -6 0 -5 0 -5 1 -5 0 -5 1 
-5 1 -4 2 -5 1 -4 1 -4 2 -5 1 -4 1 -4 2 
-4 1 -4 1 -4 1 -4 1 -4 1 -4 2 -4 1 -3 1 
-4 1 -3 2 -3 1 -3 1 -3 2 -3 1 -3 1 -2 1 
-3 0 -2 0 -3 -1 -2 -1 -2 -2 -1 -2 -2 -3 -2 -4 
-1 -4 -1 -4 -2 -5 -1 -4 -1 -5 -1 -4 -1 -4 -1 -3 
-1 -3 0 -3 -1 -1 -1 -2 0 -1 -1 -1 -1 0 -1 1 
0 1 -1 2 -1 1 -1 2 0 3 -1 2 -1 2 0 1 
-1 2 0 1 -1 -1 0 -4 -1 -2 0 -28 -1 -4 0 -8 
-1 -4 0 -33 -1 -5 0 -17 -1 -5 0 -5 -1 -4 0 -7 
-1 -2 0 -2 -1 0 0 2 -1 2 0 2 -1 3 -1 2 
0 2 -1 1 -1 1 -1 0 -1 -2 -1 -2 -1 -4 -1 -4 
0 -5 -1 -6 -2 -6 4907 1360 100 MP stroke
-1 -6 -1 -6 -1 -7 -1 -5 -1 -5 -1 -5 -2 -3 -1 -3 
-1 -1 -1 -1 -1 0 -2 1 -1 1 -1 1 -1 2 -1 2 
-1 2 -1 2 -1 2 -1 1 -1 2 -1 2 -1 2 0 3 
-1 3 0 3 -1 4 -1 5 0 10 -1 6 0 5 -1 5 
0 5 -1 4 0 6 -1 1 0 -1 -1 -3 0 -5 -1 -6 
-1 -9 0 -23 -1 -14 -1 -15 0 -16 -1 -16 0 -15 -1 -13 
-1 -10 0 -7 -1 -2 -1 2 0 5 -1 9 -1 11 -1 12 
0 12 -1 12 -1 12 -1 11 0 11 -1 9 -1 9 0 8 
-1 7 -1 8 -1 7 -1 7 0 7 -1 8 -1 7 -1 8 
0 8 -1 8 -1 8 0 8 -1 7 -1 7 0 7 -1 6 
-1 5 0 5 -1 4 0 4 -1 3 0 2 -1 2 0 2 
-1 1 0 2 0 -1 1 1 0 3 1 1 0 5 1 1 
0 5 -1 1 0 3 4972 1187 100 MP stroke
-1 2 0 2 -1 2 0 2 -1 3 -1 2 -1 3 0 3 
-2 2 -1 3 -1 3 -1 2 -1 2 -2 2 -1 2 -2 2 
-2 2 -2 1 -1 1 -2 2 -2 1 -2 1 -2 1 -3 0 
-2 1 -2 1 -3 1 -2 1 -3 2 -2 1 -3 1 -3 1 
-3 1 -3 2 -3 1 -3 1 -3 1 -3 0 -3 1 -3 0 
-4 1 -3 0 -3 0 -3 0 -4 1 -3 0 -3 0 -3 0 
-4 0 -3 1 -3 0 -4 0 -3 1 -3 0 -3 1 -3 0 
-4 1 -3 0 -3 1 -3 0 -3 1 -3 0 -3 0 -3 1 
-3 0 -4 0 -3 0 -3 1 -3 0 -4 0 -3 1 -3 0 
-3 1 -3 0 -3 1 -3 1 -3 1 -3 1 -2 1 -3 0 
-2 1 -3 1 -2 1 -2 1 -3 0 -2 1 -2 0 -2 0 
-2 1 -2 0 -1 -1 -2 0 -1 0 -1 0 -2 -1 -1 0 
-1 0 0 -1 0 -2 5205 1107 100 MP stroke
1 0 1 -1 2 0 1 -1 2 0 2 0 2 0 2 -1 
2 0 3 0 2 0 3 -1 3 0 4 0 4 -1 3 0 
4 -1 4 0 4 0 4 -1 4 0 5 0 4 -1 5 0 
4 0 5 0 5 0 4 0 5 0 4 0 5 0 4 0 
3 0 5 0 3 0 4 0 4 0 3 0 2 -1 3 0 
2 0 2 -1 1 0 1 -1 -1 0 1 0 -3 -1 -1 -1 
-2 -1 -3 0 -3 -1 -4 -1 -4 -1 -5 0 -5 -1 -5 0 
-5 0 -6 -1 -7 0 -6 0 -6 0 -7 0 -7 0 -7 0 
-7 0 -7 0 -7 0 -7 0 -8 0 -7 0 -7 0 -7 -1 
-7 0 -6 0 -7 -1 -6 0 -6 0 -5 -1 -5 0 -4 0 
-4 -1 -5 0 -4 0 -4 0 -3 0 -3 0 -3 0 -4 0 
-2 0 -3 0 -2 0 -2 -1 -2 0 -1 0 -2 -1 -2 -1 
-1 0 -1 -1 -2 -1 5304 1135 100 MP stroke
-1 -1 -2 -1 -1 -1 -1 -1 -2 -1 -1 -1 -2 -1 -2 -1 
-1 -1 -2 0 -1 -1 -2 0 -1 0 -2 -1 -1 0 -2 0 
-1 0 -2 0 -2 -1 -1 0 -1 0 -2 0 -1 0 -2 -1 
-2 0 -2 0 -1 -1 -2 0 -2 -1 -2 0 -2 -1 -3 -1 
-3 0 -2 -1 -3 -1 -3 -1 -3 -1 -3 -1 -4 0 -3 -1 
-3 -1 -3 -1 -3 0 -3 0 -3 -1 -2 0 -3 0 -2 0 
-2 0 -2 0 -1 1 -2 0 -1 0 -1 1 -1 0 -1 0 
-1 1 1 1 1 0 1 0 2 0 1 -1 2 0 2 0 
2 -1 2 -1 3 -1 2 0 3 -1 3 -1 3 -1 3 -1 
4 -1 4 -1 3 0 4 -1 5 -1 4 0 4 0 5 -1 
5 0 4 0 5 0 5 0 4 0 5 -1 5 0 5 0 
4 -1 5 0 5 -1 4 0 5 -1 5 0 4 -1 5 0 
4 0 5 0 4 0 5262 1175 100 MP stroke
4 0 4 1 4 1 3 1 4 1 3 2 3 1 4 2 
3 1 2 2 3 2 2 2 3 1 2 2 2 1 2 2 
1 1 2 2 2 1 2 2 1 1 1 1 1 1 1 1 
1 1 1 1 0 3 1 1 0 10 1 1 0 3 1 1 
1 0 -1 0 2 2 1 0 1 1 1 0 1 1 2 0 
2 1 2 1 2 0 2 1 3 1 3 1 3 0 3 1 
3 1 4 1 4 0 4 1 4 0 4 1 4 1 4 0 
5 1 4 0 4 1 5 0 5 0 5 1 4 0 5 1 
5 0 5 0 5 1 6 0 5 0 5 0 5 1 6 0 
5 0 6 0 5 0 5 0 5 1 6 0 5 0 5 0 
6 0 5 1 5 0 5 0 6 0 5 0 5 1 5 0 
5 0 5 0 4 0 5 0 4 0 5 0 4 0 4 0 
4 0 3 0 4 0 4929 1098 100 MP stroke
3 0 4 0 3 0 3 0 2 0 2 0 3 0 1 -1 
2 0 1 0 1 0 -1 -1 -1 0 -1 -1 -2 0 -2 0 
-2 -1 -2 0 -3 0 -3 0 -4 -1 -3 0 -5 0 -5 0 
-5 0 -5 -1 -6 0 -7 0 -7 0 -7 0 -7 0 -8 0 
-8 0 -8 0 -9 0 -9 -1 -9 0 -10 0 -9 0 -10 -1 
-9 0 -10 0 -9 -1 -10 0 -9 -1 -10 0 -9 -1 -9 0 
-9 -1 -9 0 -8 -1 -9 0 -8 -1 -8 0 -8 -1 -7 0 
-7 -1 -7 0 -6 -1 -5 -1 -5 0 -5 -1 -4 -1 -4 -2 
-3 -1 -2 -2 -3 -1 -1 -2 -1 -2 -1 -1 0 -4 1 -1 
1 -2 2 -1 2 -1 2 -2 3 -1 2 -1 4 -1 3 -1 
4 -1 4 -1 4 -1 4 -1 5 -1 5 -1 6 -2 5 -1 
6 -1 6 -1 6 -2 6 -1 7 -1 6 -2 7 -1 6 -2 
7 -1 7 -2 6 -2 5130 1169 100 MP stroke
7 -2 7 -2 6 -3 7 -3 7 -2 7 -4 8 -3 7 -3 
7 -3 8 -4 7 -3 8 -3 7 -2 8 -3 8 -2 7 -2 
8 -1 7 -1 8 0 7 -1 7 1 8 0 7 1 7 1 
7 2 7 1 8 1 7 1 7 1 7 1 7 0 8 0 
7 -1 7 0 8 -1 7 -1 7 -1 7 -1 7 -1 6 0 
7 -1 7 1 6 0 6 2 6 2 6 2 6 2 6 3 
5 4 6 3 6 3 6 3 5 2 6 2 5 2 5 1 
6 0 5 -1 5 -1 5 -2 5 -3 5 -3 5 -4 5 -3 
5 -4 4 -4 5 -4 5 -3 4 -3 5 -3 4 -3 5 -2 
4 -2 4 -1 4 -2 4 -1 3 0 4 -1 3 -1 3 0 
3 0 3 0 2 0 3 -1 3 0 3 0 3 0 3 -1 
3 0 4 -1 3 0 4 0 4 0 4 -1 4 1 4 0 
5 0 5 0 4 1 4573 1234 100 MP stroke
5 0 5 1 5 0 5 0 6 0 5 0 5 -1 5 -1 
6 -1 5 -1 5 -1 6 -2 5 -1 5 -1 6 -1 5 0 
5 -1 5 -1 6 -1 5 -1 5 -1 6 -1 6 -2 5 -2 
6 -2 6 -3 5 -4 6 -3 6 -5 6 -4 5 -4 6 -5 
5 -5 5 -4 6 -4 5 -4 5 -3 5 -3 5 -2 5 -1 
5 -1 4 0 5 0 4 0 5 1 4 1 4 2 4 1 
4 1 3 1 4 1 3 0 4 0 3 0 3 -1 3 -2 
3 -2 3 -2 2 -3 3 -4 2 -3 3 -5 2 -4 3 -5 
2 -5 2 -6 2 -5 2 -6 1 -7 2 -6 2 -6 1 -5 
1 -5 2 -5 1 -4 1 -2 1 -2 1 0 1 2 1 3 
0 4 1 5 0 25 -1 1 -1 -2 0 -2 -1 -2 -1 -3 
-1 -3 0 -3 -1 -3 -1 -3 -1 -3 -1 -2 -1 -3 -1 -2 
-1 -2 0 -1 -1 -2 4265 1393 100 MP stroke
-1 -1 -1 -2 -1 -2 0 -2 -1 -3 0 -8 -1 -5 0 -12 
-1 -7 0 -19 1 -6 0 -10 1 -3 1 -3 1 -2 1 -2 
2 -2 2 -1 2 -2 2 -2 2 -3 3 -3 3 -5 3 -5 
3 -7 4 -7 5 -9 4 -10 6 -11 5 -12 6 -13 7 -14 
7 -15 7 -16 8 -17 8 -17 9 -19 9 -19 10 -20 10 -22 
11 -23 10 -24 12 -26 11 -27 12 -29 13 -31 12 -32 14 -34 
13 -34 14 -35 15 -35 14 -33 15 -30 15 -25 15 -17 16 -12 
16 -1 16 4 17 9 16 11 17 14 17 13 17 15 17 13 
17 11 16 10 18 8 17 7 18 5 17 3 18 3 16 1 
18 2 12 1 24 2 17 3 15 4 16 5 13 7 17 7 
16 9 16 9 16 10 16 9 15 10 15 9 15 8 16 7 
14 7 15 6 14 5 14 4 13 3 13 3 14 2 13 2 
13 1 10 2 11 1 3256 1914 100 MP stroke
13 2 11 2 11 2 10 3 11 2 9 2 10 2 8 1 
9 0 8 -1 7 -1 8 -3 5 -4 7 -5 6 -6 6 -6 
5 -7 5 -8 5 -7 4 -7 5 -6 3 -6 4 -4 3 -4 
3 -2 2 -1 3 -1 2 0 2 1 1 1 0 1 2 1 
2 1 3 1 2 0 1 1 1 0 1 1 1 1 1 0 
1 1 1 1 1 1 2 0 1 0 1 0 1 -1 0 -3 
1 -3 0 -57 -1 -12 0 -13 -1 -14 -1 -15 -1 -15 -1 -16 
-1 -17 -2 -18 -1 -18 -2 -19 -2 -18 -3 -17 -2 -16 -2 -10 
-3 -7 -3 -1 -2 4 -3 9 -3 11 -3 15 -4 15 -3 16 
-3 16 -4 17 -4 17 -3 17 -4 17 -3 17 -4 17 -3 14 
-4 14 -4 13 -3 11 -4 10 -4 7 -3 6 -4 5 -4 2 
-3 3 -4 2 -3 1 -4 0 -3 0 -4 0 -3 0 -3 -1 
-4 -1 -3 -2 -3 -3 3186 1986 100 MP stroke
-4 -3 -3 -5 -3 -6 -3 -8 -2 -9 -3 -12 -3 -14 -3 -17 
-2 -17 -3 -19 -2 -17 -3 -16 -2 -8 -2 -1 -2 5 -1 12 
-2 18 -1 19 -1 20 0 18 -1 17 0 14 1 11 0 9 
1 8 2 7 2 7 2 6 2 8 3 8 3 9 3 11 
3 10 4 11 4 11 4 10 4 10 4 8 4 8 5 6 
5 5 5 5 4 3 5 2 5 0 5 0 5 -1 6 -2 
5 -3 6 -4 5 -5 6 -5 6 -6 6 -7 7 -7 6 -7 
7 -7 7 -8 7 -7 7 -8 7 -7 8 -7 7 -6 8 -6 
8 -6 9 -7 8 -6 9 -6 8 -7 9 -7 9 -7 9 -7 
10 -7 9 -7 9 -6 10 -6 9 -5 10 -4 10 -4 10 -3 
10 -3 11 -3 10 -2 10 -2 11 -2 11 -3 11 -2 11 -3 
10 -3 12 -3 10 -4 11 -3 12 -5 11 -5 12 -5 10 -6 
12 -7 11 -7 11 -8 2683 2116 100 MP stroke
11 -9 11 -9 12 -11 14 -11 9 -11 12 -12 11 -13 11 -13 
11 -14 11 -14 11 -15 12 -15 11 -15 11 -16 11 -17 10 -16 
11 -17 10 -17 11 -17 10 -16 10 -16 12 -15 10 -14 11 -14 
10 -12 10 -12 10 -11 10 -12 9 -12 9 -11 8 -14 8 -11 
8 -13 8 -12 7 -13 7 -10 6 -11 6 -6 6 -3 5 -2 
5 1 4 2 4 3 3 5 3 6 3 4 2 3 2 2 
2 1 2 -2 1 -2 1 -5 1 -7 2 -7 0 -7 1 -9 
1 -7 0 -14 1 -6 0 -28 -1 1 0 6 -1 -3 0 -122 
1 -6 0 -9 1 2 0 -1 1 -6 0 -5 1 -11 0 -15 
1 -19 1 -23 0 -29 1 -35 1 -31 1 -26 1 -22 1 -15 
1 13 1 19 1 28 2 25 1 22 1 17 1 12 1 5 
1 5 2 -4 1 -8 1 -14 2 -17 1 -17 2 -6 2 -14 
1 -6 2 -3 2 -6 2219 3003 100 MP stroke
2 7 2 8 2 11 2 12 2 12 2 13 2 11 2 15 
1 16 2 15 2 14 1 5 2 8 2 -1 1 -4 1 -7 
2 -12 1 -15 1 -13 1 -11 1 -9 1 -5 2 9 0 10 
1 16 1 16 1 18 1 12 1 11 0 9 1 8 0 9 
1 -2 -1 2 0 -1 -1 -9 -1 -7 -1 -9 -2 -13 -2 -7 
-2 -5 -2 -3 -2 0 -3 1 -3 -2 -2 0 -8 3 -4 2 
-2 -4 -3 -9 -3 -17 -4 -15 -3 -15 -3 -15 -3 -15 -3 -15 
-2 -19 -3 -11 -3 -14 -1 -12 -3 -12 -2 -8 -2 -13 -2 -29 
-3 -22 -2 -11 -2 -14 -2 -34 -1 -25 -2 -22 -2 -9 -1 -33 
-1 13 0 -40 -3 7 0 27 -2 8 0 10 -1 66 0 56 
-2 60 0 19 -2 22 1 20 -2 7 0 5 0 -12 1 6 
0 84 1 26 2 22 2 20 -1 16 0 10 2 6 0 2 
0 -5 1 -10 0 -17 2270 2830 100 MP stroke
-2 -18 3 -24 0 -32 1 -36 2 -37 4 -45 0 -53 4 -36 
1 -44 1 -32 -1 -39 10 -50 5 4 1 -2 3 29 3 47 
3 38 1 53 -2 41 3 29 5 31 -1 34 3 26 0 9 
2 10 3 20 5 6 2 2 4 0 2 -1 2 -6 3 -1 
2 -4 3 -2 2 -2 3 -7 3 -3 2 -6 2 -5 4 -11 
2 -21 3 -17 3 -26 2 -37 3 -37 3 -31 3 -42 2 -40 
4 -23 3 -13 3 10 3 15 3 16 3 28 3 12 3 -4 
3 3 3 1 3 -7 3 -4 3 11 3 20 3 34 2 41 
3 34 4 36 2 28 2 22 3 17 2 11 2 6 2 -2 
2 -5 2 8 2 -1 2 -2 2 2 2 2 2 5 2 9 
1 11 2 13 2 12 1 16 1 16 2 14 1 13 -1 12 
4 9 -2 7 4 6 0 3 -1 2 5 0 -3 -2 1 -3 
3 -4 0 -6 2 -6 2052 2775 100 MP stroke
0 -7 1 -9 1 -8 1 -10 1 -10 0 -11 2 -12 2 -11 
-1 -12 2 -12 0 -11 1 -11 1 -10 0 -24 -1 1 -1 1 
0 2 -1 2 -1 1 -1 -1 -1 -2 -1 -4 -1 -5 -2 -9 
-1 -11 -1 -14 -2 -17 -2 -19 -2 -24 -1 -26 -2 -28 -2 -33 
-2 -33 -3 -36 -1 -44 -2 -39 -2 -35 -2 -32 -3 -26 -2 -16 
-2 -15 -2 -19 -2 4 -2 21 -2 11 -1 4 -3 36 3 21 
-1 9 -3 -1 -1 -19 -2 -72 0 -129 -2 -226 0 -277 -1 13 
2102 4019 57 MP stroke
gr

c8
0 sg
%%IncludeResource: font Helvetica
/Helvetica /WindowsLatin1Encoding 120 FMSR

2044  294 mt 
(Experiment 3b - Digital magnetometers - Bias of position) s
2502 4902 mt 
(Distance to center of sensor network [m]) s
 558 2769 mt  -90 rotate
(Bias [mm]) s
90 rotate

end %%Color Dict

eplot
%%EndObject

epage
end

showpage

%%Trailer
%%EOF
