%!PS-Adobe-2.0 EPSF-1.2
%%Creator: MATLAB, The MathWorks, Inc. Version 7.13.0.564 (R2011b). Operating System: Microsoft Windows 7.
%%Title: ..\figures\digital_all_ori_bias.eps
%%CreationDate: 11/13/2012  17:43:58
%%DocumentNeededFonts: Helvetica
%%DocumentProcessColors: Cyan Magenta Yellow Black
%%Extensions: CMYK
%%Pages: 1
%%BoundingBox:    52   199   549   602
%%EndComments

%%BeginProlog
% MathWorks dictionary
/MathWorks 160 dict begin
% definition operators
/bdef {bind def} bind def
/ldef {load def} bind def
/xdef {exch def} bdef
/xstore {exch store} bdef
% operator abbreviations
/c  /clip ldef
/cc /concat ldef
/cp /closepath ldef
/gr /grestore ldef
/gs /gsave ldef
/mt /moveto ldef
/np /newpath ldef
/cm /currentmatrix ldef
/sm /setmatrix ldef
/rm /rmoveto ldef
/rl /rlineto ldef
/s {show newpath} bdef
/sc {setcmykcolor} bdef
/sr /setrgbcolor ldef
/sg /setgray ldef
/w /setlinewidth ldef
/j /setlinejoin ldef
/cap /setlinecap ldef
/rc {rectclip} bdef
/rf {rectfill} bdef
% page state control
/pgsv () def
/bpage {/pgsv save def} bdef
/epage {pgsv restore} bdef
/bplot /gsave ldef
/eplot {stroke grestore} bdef
% orientation switch
/portraitMode 0 def /landscapeMode 1 def /rotateMode 2 def
% coordinate system mappings
/dpi2point 0 def
% font control
/FontSize 0 def
/FMS {/FontSize xstore findfont [FontSize 0 0 FontSize neg 0 0]
  makefont setfont} bdef
/ISOLatin1Encoding where {pop /WindowsLatin1Encoding 256 array bdef
ISOLatin1Encoding WindowsLatin1Encoding copy pop
/.notdef/.notdef/quotesinglbase/florin/quotedblbase/ellipsis/dagger
/daggerdbl/circumflex/perthousand/Scaron/guilsinglleft/OE/.notdef/.notdef
/.notdef/.notdef/quoteleft/quoteright/quotedblleft/quotedblright/bullet
/endash/emdash/tilde/trademark/scaron/guilsinglright/oe/.notdef/.notdef
/Ydieresis WindowsLatin1Encoding 128 32 getinterval astore pop}
{/WindowsLatin1Encoding StandardEncoding bdef} ifelse
/reencode {exch dup where {pop load} {pop StandardEncoding} ifelse
  exch dup 3 1 roll findfont dup length dict begin
  { 1 index /FID ne {def}{pop pop} ifelse } forall
  /Encoding exch def currentdict end definefont pop} bdef
/isroman {findfont /CharStrings get /Agrave known} bdef
/FMSR {3 1 roll 1 index dup isroman {reencode} {pop pop} ifelse
  exch FMS} bdef
/csm {1 dpi2point div -1 dpi2point div scale neg translate
 dup landscapeMode eq {pop -90 rotate}
  {rotateMode eq {90 rotate} if} ifelse} bdef
% line types: solid, dotted, dashed, dotdash
/SO { [] 0 setdash } bdef
/DO { [.5 dpi2point mul 4 dpi2point mul] 0 setdash } bdef
/DA { [6 dpi2point mul] 0 setdash } bdef
/DD { [.5 dpi2point mul 4 dpi2point mul 6 dpi2point mul 4
  dpi2point mul] 0 setdash } bdef
% macros for lines and objects
/L {lineto stroke} bdef
/MP {3 1 roll moveto 1 sub {rlineto} repeat} bdef
/AP {{rlineto} repeat} bdef
/PDlw -1 def
/W {/PDlw currentlinewidth def setlinewidth} def
/PP {closepath eofill} bdef
/DP {closepath stroke} bdef
/MR {4 -2 roll moveto dup  0 exch rlineto exch 0 rlineto
  neg 0 exch rlineto closepath} bdef
/FR {MR stroke} bdef
/PR {MR fill} bdef
/L1i {{currentfile picstr readhexstring pop} image} bdef
/tMatrix matrix def
/MakeOval {newpath tMatrix currentmatrix pop translate scale
0 0 1 0 360 arc tMatrix setmatrix} bdef
/FO {MakeOval stroke} bdef
/PO {MakeOval fill} bdef
/PD {currentlinewidth 2 div 0 360 arc fill
   PDlw -1 eq not {PDlw w /PDlw -1 def} if} def
/FA {newpath tMatrix currentmatrix pop translate scale
  0 0 1 5 -2 roll arc tMatrix setmatrix stroke} bdef
/PA {newpath tMatrix currentmatrix pop	translate 0 0 moveto scale
  0 0 1 5 -2 roll arc closepath tMatrix setmatrix fill} bdef
/FAn {newpath tMatrix currentmatrix pop translate scale
  0 0 1 5 -2 roll arcn tMatrix setmatrix stroke} bdef
/PAn {newpath tMatrix currentmatrix pop translate 0 0 moveto scale
  0 0 1 5 -2 roll arcn closepath tMatrix setmatrix fill} bdef
/vradius 0 def /hradius 0 def /lry 0 def
/lrx 0 def /uly 0 def /ulx 0 def /rad 0 def
/MRR {/vradius xdef /hradius xdef /lry xdef /lrx xdef /uly xdef
  /ulx xdef newpath tMatrix currentmatrix pop ulx hradius add uly
  vradius add translate hradius vradius scale 0 0 1 180 270 arc 
  tMatrix setmatrix lrx hradius sub uly vradius add translate
  hradius vradius scale 0 0 1 270 360 arc tMatrix setmatrix
  lrx hradius sub lry vradius sub translate hradius vradius scale
  0 0 1 0 90 arc tMatrix setmatrix ulx hradius add lry vradius sub
  translate hradius vradius scale 0 0 1 90 180 arc tMatrix setmatrix
  closepath} bdef
/FRR {MRR stroke } bdef
/PRR {MRR fill } bdef
/MlrRR {/lry xdef /lrx xdef /uly xdef /ulx xdef /rad lry uly sub 2 div def
  newpath tMatrix currentmatrix pop ulx rad add uly rad add translate
  rad rad scale 0 0 1 90 270 arc tMatrix setmatrix lrx rad sub lry rad
  sub translate rad rad scale 0 0 1 270 90 arc tMatrix setmatrix
  closepath} bdef
/FlrRR {MlrRR stroke } bdef
/PlrRR {MlrRR fill } bdef
/MtbRR {/lry xdef /lrx xdef /uly xdef /ulx xdef /rad lrx ulx sub 2 div def
  newpath tMatrix currentmatrix pop ulx rad add uly rad add translate
  rad rad scale 0 0 1 180 360 arc tMatrix setmatrix lrx rad sub lry rad
  sub translate rad rad scale 0 0 1 0 180 arc tMatrix setmatrix
  closepath} bdef
/FtbRR {MtbRR stroke } bdef
/PtbRR {MtbRR fill } bdef
/stri 6 array def /dtri 6 array def
/smat 6 array def /dmat 6 array def
/tmat1 6 array def /tmat2 6 array def /dif 3 array def
/asub {/ind2 exch def /ind1 exch def dup dup
  ind1 get exch ind2 get sub exch } bdef
/tri_to_matrix {
  2 0 asub 3 1 asub 4 0 asub 5 1 asub
  dup 0 get exch 1 get 7 -1 roll astore } bdef
/compute_transform {
  dmat dtri tri_to_matrix tmat1 invertmatrix 
  smat stri tri_to_matrix tmat2 concatmatrix } bdef
/ds {stri astore pop} bdef
/dt {dtri astore pop} bdef
/db {2 copy /cols xdef /rows xdef mul dup 3 mul string
  currentfile exch readhexstring pop
  dup 0 3 index getinterval /rbmap xdef
  dup 2 index dup getinterval /gbmap xdef
  1 index dup 2 mul exch getinterval /bbmap xdef pop pop}bdef
/it {gs np dtri aload pop moveto lineto lineto cp c
  cols rows 8 compute_transform 
  rbmap gbmap bbmap true 3 colorimage gr}bdef
/il {newpath moveto lineto stroke}bdef
currentdict end def
%%EndProlog

%%BeginSetup
MathWorks begin

0 cap

end
%%EndSetup

%%Page: 1 1
%%BeginPageSetup
%%PageBoundingBox:    52   199   549   602
MathWorks begin
bpage
%%EndPageSetup

%%BeginObject: obj1
bplot

/dpi2point 12 def
portraitMode 0204 7344 csm

  422   110  5965  4844 MR c np
85 dict begin %Colortable dictionary
/c0 { 0.000000 0.000000 0.000000 sr} bdef
/c1 { 1.000000 1.000000 1.000000 sr} bdef
/c2 { 0.900000 0.000000 0.000000 sr} bdef
/c3 { 0.000000 0.820000 0.000000 sr} bdef
/c4 { 0.000000 0.000000 0.800000 sr} bdef
/c5 { 0.910000 0.820000 0.320000 sr} bdef
/c6 { 1.000000 0.260000 0.820000 sr} bdef
/c7 { 0.000000 0.820000 0.820000 sr} bdef
c0
1 j
1 sg
   0    0 6913 5185 PR
6 w
0 4225 5356 0 0 -4225 899 4614 4 MP
PP
-5356 0 0 4225 5356 0 0 -4225 899 4614 5 MP stroke
4 w
DO
SO
6 w
0 sg
 899  389 mt 6255  389 L
 899 4614 mt 6255 4614 L
6255 4614 mt 6255  389 L
 899 4614 mt  899  389 L
 899 4614 mt 6255 4614 L
 899 4614 mt  899  389 L
 899 4614 mt  899 4560 L
 899  389 mt  899  442 L
%%IncludeResource: font Helvetica
/Helvetica /WindowsLatin1Encoding 120 FMSR

 866 4759 mt 
(0) s
1664 4614 mt 1664 4560 L
1664  389 mt 1664  442 L
1581 4759 mt 
(0.2) s
2429 4614 mt 2429 4560 L
2429  389 mt 2429  442 L
2346 4759 mt 
(0.4) s
3194 4614 mt 3194 4560 L
3194  389 mt 3194  442 L
3111 4759 mt 
(0.6) s
3959 4614 mt 3959 4560 L
3959  389 mt 3959  442 L
3876 4759 mt 
(0.8) s
4724 4614 mt 4724 4560 L
4724  389 mt 4724  442 L
4691 4759 mt 
(1) s
5489 4614 mt 5489 4560 L
5489  389 mt 5489  442 L
5406 4759 mt 
(1.2) s
6255 4614 mt 6255 4560 L
6255  389 mt 6255  442 L
6172 4759 mt 
(1.4) s
 899 4614 mt  925 4614 L
6255 4614 mt 6228 4614 L
 899 4614 mt  952 4614 L
6255 4614 mt 6201 4614 L
 640 4658 mt 
(10) s
%%IncludeResource: font Helvetica
/Helvetica /WindowsLatin1Encoding 80 FMSR

 773 4584 mt 
(-2) s
 899 4359 mt  925 4359 L
6255 4359 mt 6228 4359 L
 899 4210 mt  925 4210 L
6255 4210 mt 6228 4210 L
 899 4105 mt  925 4105 L
6255 4105 mt 6228 4105 L
 899 4023 mt  925 4023 L
6255 4023 mt 6228 4023 L
 899 3956 mt  925 3956 L
6255 3956 mt 6228 3956 L
 899 3899 mt  925 3899 L
6255 3899 mt 6228 3899 L
 899 3850 mt  925 3850 L
6255 3850 mt 6228 3850 L
 899 3807 mt  925 3807 L
6255 3807 mt 6228 3807 L
 899 3769 mt  925 3769 L
6255 3769 mt 6228 3769 L
 899 3769 mt  952 3769 L
6255 3769 mt 6201 3769 L
%%IncludeResource: font Helvetica
/Helvetica /WindowsLatin1Encoding 120 FMSR

 640 3813 mt 
(10) s
%%IncludeResource: font Helvetica
/Helvetica /WindowsLatin1Encoding 80 FMSR

 773 3739 mt 
(-1) s
 899 3514 mt  925 3514 L
6255 3514 mt 6228 3514 L
 899 3365 mt  925 3365 L
6255 3365 mt 6228 3365 L
 899 3260 mt  925 3260 L
6255 3260 mt 6228 3260 L
 899 3178 mt  925 3178 L
6255 3178 mt 6228 3178 L
 899 3111 mt  925 3111 L
6255 3111 mt 6228 3111 L
 899 3054 mt  925 3054 L
6255 3054 mt 6228 3054 L
 899 3005 mt  925 3005 L
6255 3005 mt 6228 3005 L
 899 2962 mt  925 2962 L
6255 2962 mt 6228 2962 L
 899 2924 mt  925 2924 L
6255 2924 mt 6228 2924 L
 899 2924 mt  952 2924 L
6255 2924 mt 6201 2924 L
%%IncludeResource: font Helvetica
/Helvetica /WindowsLatin1Encoding 120 FMSR

 640 2968 mt 
(10) s
%%IncludeResource: font Helvetica
/Helvetica /WindowsLatin1Encoding 80 FMSR

 773 2894 mt 
(0) s
 899 2669 mt  925 2669 L
6255 2669 mt 6228 2669 L
 899 2520 mt  925 2520 L
6255 2520 mt 6228 2520 L
 899 2415 mt  925 2415 L
6255 2415 mt 6228 2415 L
 899 2333 mt  925 2333 L
6255 2333 mt 6228 2333 L
 899 2266 mt  925 2266 L
6255 2266 mt 6228 2266 L
 899 2209 mt  925 2209 L
6255 2209 mt 6228 2209 L
 899 2160 mt  925 2160 L
6255 2160 mt 6228 2160 L
 899 2117 mt  925 2117 L
6255 2117 mt 6228 2117 L
 899 2079 mt  925 2079 L
6255 2079 mt 6228 2079 L
 899 2079 mt  952 2079 L
6255 2079 mt 6201 2079 L
%%IncludeResource: font Helvetica
/Helvetica /WindowsLatin1Encoding 120 FMSR

 640 2123 mt 
(10) s
%%IncludeResource: font Helvetica
/Helvetica /WindowsLatin1Encoding 80 FMSR

 773 2049 mt 
(1) s
 899 1824 mt  925 1824 L
6255 1824 mt 6228 1824 L
 899 1675 mt  925 1675 L
6255 1675 mt 6228 1675 L
 899 1570 mt  925 1570 L
6255 1570 mt 6228 1570 L
 899 1488 mt  925 1488 L
6255 1488 mt 6228 1488 L
 899 1421 mt  925 1421 L
6255 1421 mt 6228 1421 L
 899 1364 mt  925 1364 L
6255 1364 mt 6228 1364 L
 899 1315 mt  925 1315 L
6255 1315 mt 6228 1315 L
 899 1272 mt  925 1272 L
6255 1272 mt 6228 1272 L
 899 1234 mt  925 1234 L
6255 1234 mt 6228 1234 L
 899 1234 mt  952 1234 L
6255 1234 mt 6201 1234 L
%%IncludeResource: font Helvetica
/Helvetica /WindowsLatin1Encoding 120 FMSR

 640 1278 mt 
(10) s
%%IncludeResource: font Helvetica
/Helvetica /WindowsLatin1Encoding 80 FMSR

 773 1204 mt 
(2) s
 899  979 mt  925  979 L
6255  979 mt 6228  979 L
 899  830 mt  925  830 L
6255  830 mt 6228  830 L
 899  725 mt  925  725 L
6255  725 mt 6228  725 L
 899  643 mt  925  643 L
6255  643 mt 6228  643 L
 899  576 mt  925  576 L
6255  576 mt 6228  576 L
 899  519 mt  925  519 L
6255  519 mt 6228  519 L
 899  470 mt  925  470 L
6255  470 mt 6228  470 L
 899  427 mt  925  427 L
6255  427 mt 6228  427 L
 899  389 mt  925  389 L
6255  389 mt 6228  389 L
 899  389 mt  952  389 L
6255  389 mt 6201  389 L
%%IncludeResource: font Helvetica
/Helvetica /WindowsLatin1Encoding 120 FMSR

 640  433 mt 
(10) s
%%IncludeResource: font Helvetica
/Helvetica /WindowsLatin1Encoding 80 FMSR

 773  359 mt 
(3) s
 899  389 mt 6255  389 L
 899 4614 mt 6255 4614 L
6255 4614 mt 6255  389 L
 899 4614 mt  899  389 L
gs 899 389 5357 4226 MR c np
/c8 { 0.000000 0.000000 1.000000 sr} bdef
c8
5 104 5 89 6 46 5 44 4 42 5 22 5 34 4 36 
4 48 5 31 4 35 4 34 2 31 3 29 3 27 2 25 
3 21 2 19 2 15 1 11 2 9 1 4 1 3 1 -1 
0 -34 -1 -16 0 -21 -1 -21 -1 -27 -1 -32 -1 -34 -2 -46 
-1 -51 -2 -37 -2 -59 -2 -62 -2 -59 -3 -65 -2 -39 -1 -32 
-5 -27 -1 -56 -3 42 -3 16 -2 -93 -5 157 -3 22 -3 48 
-3 76 -3 42 -4 39 -3 46 -4 44 -3 37 -4 27 -3 20 
-5 19 -3 12 -4 0 -4 7 -4 -5 -3 -8 -3 -15 -4 -31 
-4 -16 -3 5 -3 -4 -3 -3 -3 5 -3 8 -3 6 -2 10 
-3 -9 -3 17 -1 0 -2 -8 -2 5 -1 11 -1 1 -1 5 
-1 10 1 4 0 -3 1 4 1 -8 1 -20 2 -24 2 -25 
2 -54 2 -27 3 -21 3 -35 3 -30 3 -14 3 -5 4 -23 
3 57 4 43 4 25 1658 2894 100 MP stroke
4 11 4 25 5 10 4 8 4 2 5 -6 4 -10 4 -21 
4 -13 5 -22 4 -19 4 4 4 5 4 8 4 16 4 13 
4 14 4 0 3 -12 4 -10 3 -2 3 -25 3 -10 4 -13 
2 1 3 -4 3 19 2 31 2 28 2 31 2 16 1 29 
1 21 1 17 1 14 2 11 0 36 -1 2 0 -1 -1 2 
-2 -1 0 -2 -2 2 -2 4 -2 7 -2 10 -2 12 -2 11 
-2 10 -2 12 -1 6 -3 3 -2 -1 -1 -6 -2 -14 -1 -11 
-2 -21 0 -22 -2 -23 0 -24 -1 -14 -1 -21 1 -2 -1 -2 
0 45 -1 21 1 19 2 17 0 21 1 22 1 18 1 16 
1 17 1 15 1 13 1 11 1 9 1 6 0 8 1 8 
1 2 0 2 0 -23 -1 -10 -1 -13 -1 -13 -2 -14 -2 -15 
-2 -14 -2 -17 -3 -16 -3 -18 -2 -11 -4 -17 -4 -21 -3 -21 
-4 -12 -4 -22 -5 -7 1607 2769 100 MP stroke
-4 -6 -5 2 -5 15 -5 30 -6 34 -6 34 -5 43 -6 39 
-7 35 -6 31 -6 26 -7 24 -6 22 -7 18 -6 11 -7 11 
-6 6 -7 4 -7 1 -6 -3 -6 -4 -7 -6 -6 -8 -6 -8 
-6 -12 -5 -9 -7 -13 -6 -5 -5 -9 -6 -6 -5 -5 -5 -2 
-5 -1 -5 1 -7 2 -5 3 -4 3 -5 2 -4 2 -3 2 
-5 -1 -3 6 -3 4 -3 5 -3 6 -4 5 -2 4 -3 5 
-3 7 -2 1 -3 5 -2 1 -2 0 -3 0 -2 0 -2 -2 
-2 -2 -2 -1 -2 -2 -2 -4 -1 -3 -2 -5 -2 -6 -2 -8 
-1 -11 -2 -15 -1 -5 1 -11 -3 -9 0 -9 -2 -5 -2 -2 
-2 0 -1 3 -2 3 -1 5 0 3 -3 4 -2 2 -2 1 
-2 0 -2 0 -2 0 -2 0 -2 0 -2 2 -1 3 -2 3 
-1 3 -2 6 -1 5 -1 7 0 7 -1 6 -1 7 -1 8 
0 14 1 6 0 11 1940 2408 100 MP stroke
1 5 2 5 1 2 1 3 1 0 2 0 1 -1 2 -3 
3 -2 2 -4 3 -4 3 -4 2 -6 3 -5 4 -5 4 -8 
2 -4 3 -4 3 -4 4 -6 4 -4 3 -4 3 1 4 -4 
3 -5 3 -7 3 -13 4 -17 3 -18 3 -18 3 -22 3 -30 
3 -29 3 -28 3 -26 2 -16 2 -13 3 -10 2 -7 2 -10 
2 -20 2 -22 2 -20 2 -43 1 -22 2 -41 1 -6 2 -25 
2 -26 2 56 1 33 2 18 2 39 1 26 2 38 2 29 
3 27 2 41 1 39 3 29 2 27 2 17 2 11 2 6 
3 -4 2 -14 3 -24 2 -34 2 -34 3 -48 3 -75 3 -60 
2 -74 3 -61 3 -46 3 1 3 -4 3 -33 3 26 3 6 
3 -57 4 -46 3 56 4 -56 3 67 3 -5 3 -45 4 -9 
3 50 5 13 0 -29 3 28 3 6 3 12 3 -2 2 -2 
3 1 3 20 2 -26 1688 3024 100 MP stroke
3 41 2 19 3 51 2 65 4 71 3 63 2 55 2 47 
3 40 2 32 2 24 1 16 2 7 2 0 1 2 1 -6 
1 -13 1 -13 1 -19 0 -23 1 -15 1 -22 1 -20 0 -23 
1 -8 0 -3 0 5 -1 10 1 4 -1 14 0 8 -1 2 
0 -1 -1 -10 0 -11 -1 -13 -1 -13 0 -15 -1 0 -1 5 
-2 14 -1 26 -1 25 -1 25 -1 20 -2 24 -1 17 -2 17 
-1 11 -1 10 -1 5 -2 2 -2 -1 -2 -3 -1 -4 -2 -5 
-2 -3 -2 -1 -1 2 -2 7 -3 10 -2 15 -2 18 -2 21 
-2 22 -2 23 -2 23 -2 24 -1 24 -2 24 -2 23 -2 24 
-1 23 -2 23 -1 23 -2 21 -1 21 -1 20 -2 18 -1 16 
-1 14 -1 11 0 8 -1 4 -1 0 0 -14 -1 -15 0 -138 
1 -62 1722 2259 90 MP stroke
2 340 2 157 1 112 2 69 2 60 2 46 3 32 2 21 
3 10 3 13 3 5 4 -3 3 -5 4 -9 4 -11 3 -14 
4 -19 4 -22 4 -19 4 -26 5 -38 5 -41 4 -28 5 -29 
5 -31 5 -29 5 -5 5 11 6 26 6 48 5 43 6 41 
6 34 6 34 6 26 5 20 6 15 6 9 6 4 5 -7 
6 -2 5 -10 5 -17 6 -15 5 -20 5 -19 6 -20 5 -20 
5 -16 4 -5 5 -7 5 -9 5 -7 6 -5 2 -12 5 -1 
1 0 2 7 5 11 1 20 4 29 4 38 1 46 3 41 
3 38 2 35 2 29 2 22 2 18 2 14 1 7 1 1 
1 -5 1 -10 1 -16 1 -21 0 -26 1 -30 0 -73 1 -41 
0 -43 -1 -43 -1 -40 -1 -36 -1 -30 -1 -24 -1 -19 -1 -21 
-2 -22 -2 -7 -2 -15 -3 -20 -1 -48 -3 -17 -2 38 -3 -7 
-3 -35 -3 44 -3 15 1652 2857 100 MP stroke
-3 14 -2 28 -3 28 -3 32 -3 23 -2 30 -2 37 -2 20 
-2 19 -2 14 -2 8 -1 6 0 -3 -1 -7 -1 -11 0 -12 
1 -15 0 -16 1 -15 1 -8 1 -1 1 0 2 12 2 18 
2 16 3 21 3 20 3 16 3 12 3 10 4 8 4 -1 
3 -5 4 -9 4 -15 4 -18 4 -20 4 -25 4 -26 3 -22 
4 -11 4 -6 3 -10 4 2 4 21 3 32 3 12 3 20 
2 19 2 11 3 8 3 2 1 -3 2 -5 1 -11 2 -15 
1 -21 1 -19 2 -24 1 -23 0 -25 2 -23 1 -23 0 -35 
1 -11 -1 -8 1 -10 0 -11 -1 -3 0 -3 -1 -19 -1 -4 
0 -15 -1 -18 -2 -18 -1 -26 -1 -74 -2 -36 -2 50 -2 48 
0 -11 -2 -39 -2 -152 -2 82 -1 64 -2 47 -2 7 -2 -12 
-2 -114 -1 0 -1 114 -2 16 -1 -19 -2 -22 -1 -10 -1 -38 
0 -95 -1 -27 1 -1 1602 3189 100 MP stroke
0 62 -1 59 -1 -17 7 149 1 52 0 89 1 33 0 23 
1 19 1 8 1 -2 1 -9 2 -21 2 -27 2 -44 1 -48 
2 -73 2 -85 2 -101 2 -143 1 -25 2 -54 2 207 1 103 
2 45 1 -63 2 51 1 90 0 2 1 -6 1 -18 1 -21 
0 -80 1 -11 0 -31 -1 15 0 11 -1 -15 -1 45 -1 18 
-1 21 -1 20 -1 15 -2 15 -1 14 -1 13 -2 12 -2 11 
-1 13 -3 13 -1 12 -2 12 -3 11 -2 7 -2 10 -2 4 
-1 6 -3 0 -1 1 -2 -5 -2 -6 -2 -4 -1 -12 -2 -6 
-1 -7 -2 -8 -1 -4 -2 -1 -1 -3 -1 -2 -1 -3 -1 -3 
0 -29 0 14 -2 -15 0 7 -1 -10 0 -24 1 -5 0 8 
0 -3 1 6 0 -7 1 2 1 -18 0 1 2 28 1 -21 
1 -6 2 33 1 0 2 12 1 -2 2 8 2 -1 1 -6 
2 -2 2 -8 2 -12 1593 2906 100 MP stroke
2 -14 1 -31 2 -35 2 -36 1 -40 2 -46 1 -60 1 -49 
2 -75 1 -162 1 294 1 54 1 84 0 84 1 70 0 310 
-1 53 1 46 -1 39 0 38 -1 31 0 50 -1 19 0 16 
-1 12 0 9 -1 6 0 4 2 2 -1 -1 0 -2 -1 -5 
1 -7 -1 -9 0 -177 1 -29 0 -32 1 -32 1 -34 0 -35 
1 -35 0 -36 2 -38 1 -40 1 -37 0 -41 1 -44 1 -45 
1 -46 1 -62 1 -47 2 -74 1 -58 1 -60 1 -274 1 307 
1 30 0 88 1 52 1 47 1 33 1 8 1 27 1 -10 
1 16 1 -38 -2 -26 -1 -23 1 -53 3 -57 2 -335 -1 268 
1 -112 0 149 -1 -15 0 82 1 46 -1 34 -1 27 0 29 
-1 24 0 40 -1 32 -1 24 -1 19 -1 12 -1 11 -1 8 
-2 -1 0 1 -2 -5 -2 -10 -2 -12 -1 -11 -2 -10 -2 -4 
-1 8 -3 6 -1 8 1575 2819 100 MP stroke
-2 19 -4 14 -2 17 -4 17 -3 13 -3 16 -4 16 -3 14 
-4 12 -4 10 -4 7 -4 6 -5 3 -3 -1 -5 2 -5 3 
-4 -16 -4 5 -5 -8 -4 -13 -4 -21 -4 -28 -5 -40 -4 -48 
-4 -70 -5 -90 -4 -130 -4 -136 -4 -53 -5 97 -4 165 -4 115 
-4 89 -4 57 -5 60 -4 51 -4 35 -4 40 -4 35 -4 30 
-4 30 -3 27 -4 26 -4 25 -3 22 -3 22 -3 18 -3 17 
-3 15 -3 11 -3 11 -9 8 -2 6 -3 3 -1 3 -2 0 
-2 0 -1 -1 7 -2 -1 -2 0 -3 -1 -3 0 -15 1 -7 
0 -8 1 -9 1 -10 1 -11 2 -11 1 -13 2 -12 2 -12 
1 -11 3 -9 3 -8 2 -6 3 -4 3 -2 4 -1 3 2 
4 1 4 1 4 -1 5 -3 5 -7 4 -12 5 -19 5 -16 
6 -26 5 -34 5 -41 6 -48 6 -57 6 -71 6 -85 5 -110 
6 -147 6 -185 1660 3299 99 MP stroke
3 383 2 176 2 112 2 69 2 64 1 36 2 30 1 17 
0 4 2 -4 1 -11 0 -43 1 -30 1 -26 -1 -25 0 -25 
-2 -22 0 -22 -2 -18 -2 -17 -2 -21 -1 -17 -1 -30 -2 -39 
-2 -50 -3 -60 -4 -84 -2 -119 -4 -126 -3 40 -4 121 -4 129 
-4 104 -4 56 -4 43 -4 19 -4 23 -4 -15 -4 1 -4 -36 
-5 -67 -4 -85 -4 -104 -4 -110 -4 -117 -4 161 -4 111 -4 111 
-4 54 -4 57 -4 35 -4 17 -3 5 -4 -6 -4 -15 -3 -23 
-3 -24 -4 -27 -3 -19 -3 -9 -3 1 -3 14 -3 28 -3 26 
-3 23 -3 26 -2 25 -3 22 -2 16 -3 19 -2 15 -2 18 
-2 20 -2 14 -2 14 -2 11 -2 8 -2 9 -2 1 -1 -4 
-2 1 -2 -9 -1 -13 -1 -18 -2 -15 -1 -21 -2 -29 0 -29 
-1 -34 -1 -53 -1 -52 -1 -30 0 -2 -1 -17 -1 19 0 29 
-1 54 -1 47 0 90 2037 2614 100 MP stroke
-1 41 0 74 -1 11 0 9 0 -45 -1 -29 0 -60 -1 -25 
0 -32 -1 -24 0 -21 -1 -15 0 -47 -1 -43 0 -154 1 -67 
-3 -60 2 -94 1 196 -3 121 2 89 2 69 -3 65 3 48 
1 42 0 66 1 23 0 27 1 21 0 34 1 13 0 11 
1 8 1 6 1 4 1 1 2 -2 0 -1 1 -3 3 -8 
-4 -9 -1 -9 3 -16 0 -12 2 -18 1 -27 1 -27 2 -34 
1 -42 1 -48 1 -55 2 -61 2 -81 1 -75 2 -81 2 -50 
2 -57 1 -39 2 -42 2 -8 2 29 2 73 2 54 1 94 
2 117 3 93 1 78 2 68 2 62 2 53 1 46 1 41 
3 34 0 28 2 23 2 18 2 14 2 10 2 5 2 1 
3 -1 3 -5 2 -9 3 -11 2 -14 3 -16 3 -20 1 -22 
3 -25 3 -28 2 -32 2 -34 3 -37 3 -40 2 -42 3 -41 
1 -40 3 -33 2 -25 1922 2690 100 MP stroke
3 -15 2 -5 3 0 2 6 2 3 3 12 2 5 2 4 
3 1 2 1 2 1 3 -2 2 1 2 1 2 -1 2 -3 
2 -3 2 5 1 0 2 -1 2 -1 1 -2 2 1 1 0 
1 4 2 6 1 8 0 8 1 11 1 14 1 14 0 15 
1 15 0 47 0 -2 -1 -7 0 -11 -1 -14 0 -42 -1 -20 
-1 -23 0 -24 -1 -20 0 -17 -1 -6 -1 5 0 11 -2 19 
-1 24 -1 27 -1 23 -1 26 -1 21 -1 16 -1 12 -2 12 
-1 5 -1 -1 -2 -10 -1 -18 -2 -26 -1 -40 -2 -57 -1 -72 
-2 -67 -1 -39 -2 93 -1 119 -2 103 -2 85 -1 70 -2 59 
-2 47 -2 41 -2 32 -2 25 -2 20 -1 15 -2 11 -2 8 
-1 4 -2 2 -2 1 -1 -1 -2 -3 -1 -3 -1 -4 -2 -4 
-1 -5 -1 -4 -2 -5 -1 -5 -1 -4 -1 -5 -1 -5 -1 -5 
-2 -5 -1 -5 -1 -5 1946 2188 100 MP stroke
-1 -5 -2 -6 -1 -5 -1 -5 -2 -6 -1 -5 -1 -6 -2 -5 
-2 -5 -1 -6 -1 -5 -2 -5 -1 -6 -2 -6 -1 -7 0 -7 
-2 -8 -1 -9 -1 -9 -1 -9 -1 -10 -2 -11 -1 -10 -1 -10 
-1 -9 -1 -8 -1 -6 -1 -5 -1 -2 -1 2 -1 5 -1 6 
-1 8 0 9 -1 10 0 20 -1 10 0 9 -1 8 0 8 
-1 6 0 12 -1 1 0 -2 -1 -3 0 -3 -1 -4 0 -5 
-1 -6 -1 -6 0 -7 -1 -9 -1 -8 -1 -10 0 -11 -1 -12 
-1 -12 -1 -14 -1 -15 -1 -16 -1 -16 -1 -18 -1 -18 -2 -18 
-2 -18 -1 -18 -2 -17 -2 -16 -2 -15 -1 -15 -2 -12 -2 -12 
-2 -10 -2 -10 -2 -7 -2 -6 -2 -2 -2 1 -2 1 -1 8 
-2 14 -1 10 -2 14 -2 16 -2 16 -1 14 -2 14 -2 11 
-1 9 -2 14 -2 7 -2 7 -1 4 -2 2 -1 0 -2 -2 
-1 -5 -2 -7 -2 -9 2069 2502 100 MP stroke
-1 -12 -2 -16 -2 -20 -1 -22 -2 -31 -1 -39 -1 -26 -1 -41 
-1 -44 0 -201 1 -48 1 -8 1 -2 1 12 1 36 2 32 
2 36 2 45 2 -26 2 47 3 34 3 -10 4 8 3 -15 
4 -15 4 -30 4 -28 6 -31 4 -17 5 0 4 9 6 23 
5 15 6 40 6 34 6 24 6 19 5 28 6 21 6 20 
5 28 4 31 4 23 5 25 5 23 4 19 5 13 4 8 
4 6 3 -1 4 -7 3 -11 4 -15 1 -18 5 -18 4 -18 
2 -22 1 -7 0 -11 1 -3 0 -6 1 18 0 25 -1 30 
0 28 -1 25 -1 20 -1 14 -1 11 0 16 -1 7 0 1 
-2 -6 0 -14 1 -9 -1 -14 -1 -16 -1 -18 1 -29 0 -132 
1 -87 0 -117 1 -346 1908 3255 84 MP stroke
-4 280 -4 125 -4 119 -4 70 -4 84 -3 60 -3 41 -4 27 
-2 20 -6 14 -5 7 -1 4 -4 -1 -3 2 -4 1 -2 11 
-4 13 -2 19 -4 17 -2 22 -4 23 -2 23 -3 15 -3 17 
-4 9 -2 -2 -3 8 -3 3 -2 1 -2 -5 -3 -6 -3 -6 
-1 -6 -3 -6 -2 -4 -2 0 -2 1 -2 3 -2 6 -1 7 
-2 7 -1 9 -2 9 -2 11 -1 9 0 7 -2 6 -1 5 
-2 3 -1 -2 0 -6 -1 -10 -1 -14 0 -21 -2 -28 1 -36 
0 -45 -1 -60 -1 -82 1 -89 0 -137 0 73 -1 86 1 76 
0 212 1 22 0 33 1 3 0 -2 1 -4 0 -8 1 -9 
1 -13 1 -18 0 -22 1 -21 2 -21 1 -25 1 -24 1 -26 
2 -17 1 -21 2 -21 1 -25 2 -20 3 -13 2 -15 2 -16 
2 18 2 15 2 26 3 20 2 27 3 4 1 17 4 5 
2 -18 2 -42 3 -64 1853 2793 100 MP stroke
2 -118 2 -233 1849 3144 3 MP stroke
1 279 2 187 0 128 2 103 2 74 2 45 2 37 2 22 
3 8 2 -3 3 -13 3 -33 4 -39 3 -52 4 -63 4 -76 
4 -79 4 -31 4 -62 5 6 5 2 5 -67 4 66 6 -16 
4 43 5 21 5 -8 6 -46 4 59 8 -27 4 144 2 54 
6 9 5 0 5 -42 3 14 5 -31 4 62 4 10 4 1 
4 13 4 29 4 30 3 35 4 37 4 42 3 39 3 38 
4 35 2 34 3 27 2 22 3 17 2 12 3 8 2 9 
2 5 2 2 2 -1 3 -1 3 -1 0 2 2 -2 2 -1 
3 -2 2 -2 2 -3 2 -4 5 -3 1 -4 4 -6 1 -4 
0 -4 2 -6 4 -8 2 1 2 -1 2 1 2 4 1 3 
2 9 2 10 2 10 1 11 2 9 1 9 2 8 1 8 
0 14 1 7 1 7 -1 7 1 8 0 9 -1 8 0 9 
-1 9 0 8 -1 8 1568 2340 100 MP stroke
-1 6 -1 6 -1 4 0 3 -3 1 -1 -2 -2 -4 -2 -6 
-1 -9 -2 -12 -5 -15 -1 -18 -2 -19 -2 -23 -3 -24 -3 -24 
-3 -25 -4 -22 -3 -21 -4 -19 -4 -13 -4 -2 -3 -1 -4 4 
-5 8 -3 8 -4 9 -3 10 -5 8 -4 4 -4 3 -5 -4 
-3 -4 -4 -10 -5 -19 -5 -18 -3 -26 -5 -35 -5 -30 -3 -36 
-5 -33 -4 -26 -6 -23 -4 -19 -4 -28 -5 2 -4 -14 -5 -28 
-4 -16 -4 -32 -4 -28 -4 -108 -4 -19 -5 -35 -4 -81 -3 -585 
1762 3780 57 MP stroke
-5 477 -2 104 -3 73 -4 47 -3 23 -3 18 -3 4 -3 -21 
-3 -14 -3 -13 -3 -31 -4 -43 -2 -55 -3 -79 -3 -172 -4 78 
-6 -45 -2 47 -2 54 -3 66 -2 47 -4 45 -1 34 -2 27 
-3 15 -2 16 -1 11 -3 3 0 -4 -2 -3 -3 -7 1 -17 
-1 -6 -1 -18 0 -24 -1 -31 0 -38 1 -54 0 -125 2 -132 
1832 3097 41 MP stroke
-2 354 -2 -180 -1 258 -2 101 -1 17 -2 55 0 86 -2 93 
-2 87 -1 82 -1 72 -1 64 -3 55 -1 45 -1 38 0 30 
-2 21 0 18 -2 10 0 3 -1 -3 -1 -8 -1 -14 -1 -19 
0 -19 -2 -23 3 -23 -4 -22 1 -15 -1 -13 -3 -6 0 11 
-1 10 -2 10 0 26 -3 10 0 14 -1 11 -1 11 -2 10 
0 8 -2 10 -1 7 -2 8 -1 6 -2 6 -1 8 -2 7 
-2 8 -2 10 -2 10 -2 11 -2 12 -2 11 -3 12 -2 11 
-3 10 -3 8 -2 6 -4 5 -2 2 -4 -1 -2 -2 -4 -5 
-4 -8 -4 -5 -4 -8 -4 -8 -4 -7 -4 -6 -3 -5 -5 -3 
-4 -1 -4 0 -5 1 -4 3 -5 2 -3 3 -5 3 -4 4 
-3 3 -6 4 -5 3 -4 5 -5 3 -4 5 -5 4 -5 5 
-5 4 -3 5 -5 6 -4 5 -4 6 -5 5 -4 6 -4 5 
-5 4 -4 4 -4 4 2560 2184 100 MP stroke
-5 2 -4 2 -5 1 -4 3 -5 2 -3 4 -6 4 -4 7 
-5 8 -4 10 -6 10 -2 15 -4 15 -4 16 -2 16 -4 16 
-4 15 -5 13 -3 12 -3 10 -2 9 -5 6 -1 4 -3 2 
-4 1 -2 -1 -2 -1 -3 -3 -2 -4 -3 -5 -2 -6 -2 -7 
-2 -8 -2 -9 -2 -11 -1 -12 -2 -14 -1 -15 -2 -17 -1 -19 
-1 -20 -1 -22 0 -23 -1 -25 0 -109 1 -30 0 -33 1 -27 
0 -27 2 -24 2 -24 1 -19 2 -16 2 -15 2 1 2 2 
2 3 3 6 3 11 3 10 3 9 4 10 3 7 4 6 
3 3 4 1 3 0 4 -2 4 -5 4 -7 3 -3 4 -4 
4 -3 4 -2 4 -1 3 2 4 0 3 -1 4 2 4 1 
3 0 3 -1 3 -1 3 -1 3 -1 3 0 3 -1 3 0 
3 -1 2 1 3 0 2 -2 2 -3 3 -4 1 -6 2 -11 
1 -8 1 -7 2 -13 2544 2540 100 MP stroke
1 -11 1 -10 1 -8 0 -4 0 32 -1 7 0 5 -2 1 
-2 -2 -2 -1 0 -4 -4 4 3 4 -4 7 0 15 -4 27 
1 29 -3 31 -6 36 4 36 -8 35 -2 35 -3 33 -3 30 
-3 27 -3 25 -4 21 -2 19 -3 15 -3 12 -4 9 -4 7 
-5 3 -4 3 -3 0 -4 -1 -4 -2 -4 -4 -5 -3 0 -3 
-1 -4 -8 -2 -1 -4 -8 -1 3 -3 -8 -2 -6 -3 -3 -5 
0 -5 -1 -7 -9 -9 4 -11 -7 -13 -3 -16 3 -18 -9 -19 
3 -22 -3 -21 -6 -20 3 -20 -4 -15 -5 -11 -1 -4 -2 1 
-1 8 -2 14 0 18 -2 21 -1 22 0 46 -1 20 0 38 
-1 15 0 23 1 9 0 12 1 4 0 4 2 1 1 0 
1 0 2 -1 0 -1 1 -1 1 -1 2 -1 1 -2 -1 -1 
2 -1 2 -2 5 -1 1 -3 3 -2 0 -3 2 -3 2 -3 
3 -4 4 -3 3 -4 2670 2101 100 MP stroke
2 -3 2 -2 4 -2 3 0 4 0 3 0 4 2 5 3 
4 4 5 3 4 4 5 4 3 4 4 3 4 3 4 3 
4 1 5 -1 4 -1 5 -4 3 -5 4 -6 6 -9 3 -11 
4 -14 5 -16 5 -18 4 -21 3 -24 4 -26 4 -29 5 -31 
4 -31 5 -34 4 -33 4 -32 5 -31 4 -26 4 -22 5 -16 
5 -11 3 -6 6 -1 4 4 6 5 5 5 5 5 6 4 
5 -1 6 -1 5 -3 6 -8 6 -12 6 -16 6 -14 6 -21 
6 -23 7 -26 6 -20 7 -26 8 -29 6 -32 7 -37 7 -39 
6 -45 7 -46 6 -58 8 -137 5 4 7 38 8 41 7 62 
6 75 7 70 6 86 7 61 7 49 7 50 6 39 7 36 
5 24 7 15 6 1 8 4 5 -8 7 -16 6 -26 6 -39 
6 -44 6 -54 6 -48 6 -32 6 -4 6 22 5 31 8 53 
4 38 7 32 6 23 2144 2521 100 MP stroke
6 15 5 9 7 0 6 -1 7 -10 5 -10 9 -16 3 -15 
11 -19 1 -45 19 1 17 -36 -2 -9 9 -15 2 -19 8 -13 
6 -9 8 -9 8 -8 3 -2 8 -6 7 -6 6 6 7 2 
6 -3 12 -12 1 -58 8 3 5 -72 -4 76 2 -45 11 72 
5 19 7 48 6 44 4 40 9 32 6 24 4 18 9 12 
5 7 5 -2 6 -14 5 -17 7 -31 6 -42 4 -51 8 -60 
4 -54 4 -40 6 42 4 94 6 106 4 54 11 86 16 15 
0 48 7 15 2 18 -8 25 1 -7 7 -2 3 -15 5 -17 
3 -22 5 -25 2 -28 5 -27 2 -26 3 -25 2 -19 4 -16 
2 -13 3 -9 1 -5 4 -10 2 6 5 13 1 21 3 30 
2 41 4 50 0 51 3 55 4 48 4 45 1 35 14 42 
3 27 -2 23 5 17 1 12 4 7 -3 1 10 -1 2 -4 
-3 -5 -1 -13 5 -2 1669 2106 100 MP stroke
2 -7 3 1 2 -7 11 13 3 -9 2 1 3 -11 3 -10 
2 -14 1 -22 4 -30 -4 -31 1 -40 3 -42 2 -41 3 -45 
1 -44 3 -46 1 -35 2 -27 1 -17 2 -10 2 5 1 9 
1 18 0 16 1 16 2 14 1 13 -1 7 0 3 1 -1 
0 -6 -2 -14 2 -16 5 -14 -2 -18 1 -22 -2 -23 3 -18 
0 -33 -3 5 -2 5 3 9 -3 14 1 16 -1 17 1 5 
-1 25 -3 13 0 13 -1 9 -1 5 -1 4 -2 3 2 -2 
-3 -1 -1 -1 -1 -2 -2 -3 -1 -2 0 -6 -3 2 -1 -2 
-4 -2 0 -5 -1 -3 -1 -10 -2 0 -1 -7 -3 -7 -3 -11 
2 -12 -3 -17 -1 -18 -2 -22 -1 -26 -1 -35 -1 -35 -1 -35 
-2 -52 0 -60 -3 -51 -3 -141 -1 -44 -2 -148 -1 -290 -1 -386 
-2 504 -3 196 -2 134 -1 177 -3 49 -3 94 -2 44 -3 33 
-3 11 -2 12 -3 12 1691 2668 100 MP stroke
-2 -1 -4 -13 -2 -11 -2 -28 -5 -9 -2 -14 -4 -8 -4 -17 
-2 8 -2 -30 -6 22 -5 -36 -1 35 -4 2 -4 16 -3 11 
-6 22 -2 30 -4 18 -3 38 -4 15 0 44 13 14 -6 34 
-1 25 -6 25 -1 24 -20 22 -5 21 -4 18 -2 16 -4 14 
-4 11 -3 7 -4 4 -3 -1 -4 -4 -4 -9 -4 -16 -3 -21 
-4 -29 -3 -33 -3 -43 -4 -65 -3 -60 -4 -89 -3 -95 -4 -134 
-1 -178 -4 -28 -4 105 -3 68 -4 67 -3 50 -4 17 -4 1 
-4 -26 -4 -29 -4 -47 -4 129 -4 79 -4 77 -4 81 -4 68 
-4 57 -4 48 -4 40 -4 34 -4 25 -5 21 -4 17 -4 11 
-5 8 -4 3 -5 0 -4 -4 -5 -7 -4 -7 -5 -11 -4 -13 
-5 -12 -4 -14 -5 -13 -4 -8 -4 -7 -4 -2 -5 4 -5 7 
-4 12 -5 13 -4 17 -4 15 -5 15 -4 15 -3 13 -5 10 
-4 7 -3 5 -4 2 2064 2203 100 MP stroke
-4 -1 -3 -2 -4 -5 -3 -7 -3 -8 -3 -9 -3 -10 -2 -9 
-3 -9 -2 -9 -2 -7 -3 -5 -3 -4 -2 -2 -2 0 -2 1 
-2 2 -2 4 -1 5 -2 5 -1 6 -1 7 -1 6 -1 8 
-1 6 0 7 -1 5 0 17 1 1 1 1 1 0 1 -1 
1 -1 1 -4 2 -1 2 -3 1 -1 2 -2 2 -1 2 0 
2 1 1 2 2 3 2 3 2 2 1 2 1 1 1 -2 
2 -3 0 -5 1 -7 1 -11 0 -90 -1 -25 0 -27 -1 -27 
-1 -28 -1 -29 0 -25 -2 -23 -1 -18 -1 -7 -1 4 -1 13 
-2 24 -2 29 -2 32 -2 32 -2 32 -3 28 -2 25 -2 22 
-2 17 -2 15 -3 10 -2 7 -1 4 -3 1 -1 -2 -2 -4 
-2 -6 -2 -8 -1 -9 -2 -10 -2 -11 -1 -10 -1 -11 -2 -7 
-1 -7 -1 -8 -1 -5 -1 -7 -1 -6 -1 -9 -1 -11 0 -11 
-1 -14 -1 -20 0 -21 2153 2438 100 MP stroke
-1 -26 0 -249 1 -19 0 -15 1 -9 0 3 1 10 0 11 
1 12 1 16 1 10 1 11 1 19 1 11 1 14 1 12 
2 9 2 12 1 10 2 11 1 11 2 14 2 14 2 13 
1 16 2 12 2 12 2 9 2 7 1 2 2 2 2 1 
2 -3 2 -9 2 -2 2 -10 3 -7 2 -4 2 -5 3 -5 
2 -5 2 -3 2 -2 3 2 2 -1 3 -1 2 3 2 8 
3 6 2 8 2 8 2 12 2 11 2 12 3 13 1 9 
2 10 2 7 2 5 1 3 2 0 2 -5 1 -7 1 -11 
1 -12 1 -17 1 -18 1 -20 1 -20 0 -91 -1 -9 0 -10 
-1 1 -1 3 -1 6 -1 6 -1 6 -1 1 -2 -10 -1 -14 
-2 -32 -2 -37 -2 -14 -2 -6 -2 34 -2 49 -1 62 -2 58 
-2 54 -3 49 -2 39 -2 29 -2 19 -3 14 -3 7 -3 1 
-2 -4 -4 -9 -3 -14 2098 2334 100 MP stroke
-3 -16 -3 -18 -4 -17 -4 -19 -4 -17 -4 -14 -4 -14 -4 -10 
-5 -9 -5 -10 -4 -8 -5 -4 -5 -6 -5 -5 -5 -5 -5 -7 
-5 -3 -5 -3 -5 -5 -5 0 -4 -2 -5 -1 -5 2 -5 4 
-5 7 -5 10 -5 13 -5 16 -5 18 -4 21 -5 21 -5 21 
-5 21 -5 20 -5 18 -4 16 -5 13 -4 11 -5 8 -4 4 
-5 2 -4 -1 -4 -3 -4 -8 -5 -10 -4 -13 -4 -15 -3 -16 
-4 -17 -4 -20 -4 -17 -3 -15 -3 -14 -4 -9 -3 -4 -2 -3 
-3 5 -2 9 -2 11 -3 13 -1 9 -2 10 -1 8 -1 8 
-1 3 -1 0 -1 -2 0 -10 1 -5 0 -4 1 -3 1 3 
1 4 2 14 1 15 3 21 2 23 3 27 3 28 3 29 
5 28 4 26 4 25 5 21 6 19 6 15 7 12 7 8 
8 4 8 1 9 -3 9 -6 9 -10 10 -11 10 -15 11 -16 
11 -18 11 -19 12 -20 2187 2189 100 MP stroke
12 -18 12 -17 13 -17 12 -14 13 -12 14 -9 13 -4 13 -3 
14 2 14 3 13 5 14 7 13 7 14 8 13 7 13 8 
13 6 13 5 13 5 12 2 12 2 12 -1 11 -2 12 -4 
10 -6 11 -8 10 -9 9 -11 9 -12 8 -14 8 -12 8 -12 
7 -10 6 -9 6 -8 6 -7 5 -5 4 -3 4 0 4 0 
3 -1 3 1 2 2 2 2 2 1 1 0 0 -8 1 -8 
-1 -12 -1 -15 -1 -18 -1 -21 -2 -24 -2 -26 -1 -25 -3 -26 
-2 -23 -3 -22 -3 -7 -3 -18 -3 11 -4 6 -3 11 -4 28 
-4 23 -3 25 -4 26 -4 25 -4 24 -5 21 -4 19 -4 16 
-4 13 -5 11 -4 7 -5 5 -3 2 -5 1 -4 -1 -4 -1 
-4 -4 -6 -4 -4 -4 -4 -5 -5 -5 -4 -6 -4 -5 -4 -7 
-4 -6 -4 -6 -2 -4 -3 -2 -3 0 -3 3 -2 5 -2 9 
-2 10 -2 12 -1 15 1916 2329 100 MP stroke
-2 13 -2 13 -1 9 -1 7 0 4 0 -1 -1 -5 -1 -10 
0 -54 -1 -25 0 -26 1 -28 0 -65 2 -13 -1 -9 1 1 
0 22 1 9 -1 7 0 5 1 6 0 2 -1 3 2 0 
0 -5 1 4 2 3 0 6 2 8 1 11 1 12 1 13 
2 15 2 15 1 15 3 15 3 14 2 12 3 11 3 9 
4 16 3 10 4 9 5 9 5 7 4 7 5 3 5 5 
7 0 4 -1 6 -1 6 -4 6 -5 7 -6 6 -6 7 -6 
6 -6 7 -6 6 -6 8 -5 6 -5 6 -4 6 -4 7 -4 
5 -3 5 -3 5 -3 5 -2 4 -3 4 -1 4 -3 2 -3 
2 -3 2 -5 2 -5 0 -13 1 -8 -2 -7 -1 -7 -2 -6 
-1 -3 -4 -1 -2 0 -3 3 -3 5 -4 8 -5 9 -4 11 
-5 12 -4 13 -4 13 -6 15 -5 12 -10 12 -4 9 -3 8 
-7 6 -4 3 -7 1 1806 2248 100 MP stroke
-6 0 -7 -2 -6 -4 -6 -4 -6 -4 -7 -5 -6 -4 -6 -3 
-6 0 -4 0 -7 3 -12 4 0 5 -5 5 -4 7 -7 5 
-7 6 -3 3 -7 2 -5 0 -5 -2 -6 -5 -6 -8 -4 -10 
-2 -13 -6 -14 -5 -15 -5 -16 -4 -15 -4 -14 -3 -10 -4 -8 
-2 -6 -5 -3 -3 0 -4 2 -2 2 -2 2 0 6 -3 5 
-3 5 1 5 -1 6 -1 8 -2 8 0 18 1 11 -1 12 
-2 11 1 11 2 11 2 11 4 9 3 9 1 6 3 6 
0 5 4 3 1 1 3 1 2 0 4 0 2 -2 3 -2 
3 -2 3 -2 3 -4 3 -4 3 -4 4 -5 3 -7 3 -8 
2 -9 1 -12 6 -13 2 -15 4 -17 5 -19 1 -19 6 -21 
6 -19 3 -23 5 -17 4 -18 4 -16 5 -11 4 -14 5 -1 
5 -1 5 4 2 8 7 10 3 23 7 21 6 23 5 24 
5 23 5 21 4 18 1829 2309 100 MP stroke
5 16 5 12 5 9 5 4 5 1 4 -3 5 -7 5 -11 
4 -14 4 -19 5 -22 4 -27 5 -30 4 -34 4 -39 4 -43 
4 -53 3 -38 4 -43 4 -44 3 -54 4 -27 2 -26 4 -29 
3 -11 3 -25 2 19 3 -7 2 -24 2 0 2 4 2 49 
1 10 1 5 1 6 1 5 1 19 0 4 2 18 3 9 
-1 11 -1 0 0 10 0 -26 -1 -16 0 -47 -1 -18 0 -17 
-1 -32 -1 -46 -1 -35 -1 -6 -1 -53 0 59 -2 12 -1 11 
-1 67 -2 51 -1 61 -4 49 -1 48 -2 36 -2 22 -1 19 
-2 9 -2 -3 -2 -12 -2 -36 -3 -47 -2 -85 -2 -131 -2 -355 
-2 -80 1744 3329 74 MP stroke
-3 186 -3 105 -4 64 -4 33 -3 43 -3 11 -5 10 -5 -11 
-7 16 -4 4 -6 32 -6 36 -6 37 -8 56 -7 48 -5 41 
-8 32 -6 32 -6 23 -7 16 -4 13 -10 9 -6 3 -5 0 
-8 -5 -3 -9 -7 -12 -5 -17 -6 -24 -4 -28 -6 -34 -4 -39 
-3 -48 -3 -58 -3 -68 -3 -87 -3 -101 -3 -126 -1 -213 2305 3125 40 MP stroke
1 11 7 24 7 39 4 21 9 62 5 42 3 42 0 54 
11 16 -9 6 5 1 -2 -10 9 -11 -3 -35 -5 -9 8 -32 
-2 -32 1 -39 -1 -38 -1 -36 2 -35 2 -31 6 -25 2 -16 
-7 -9 3 1 0 5 -1 10 6 13 1 15 1 14 1 14 
1 12 0 18 -1 8 0 5 -2 4 0 8 -1 4 0 3 
-2 5 0 4 -2 5 2 5 -1 5 -1 4 -5 3 -2 0 
-2 -1 -3 -4 -1 -6 -3 -8 -4 -11 -4 -14 -3 -15 -4 -16 
-4 -17 -2 -17 -7 -18 -3 -12 -2 -9 -4 -6 -4 2 -4 7 
-4 11 -5 16 -4 18 -2 19 -4 19 -4 17 -5 16 -5 13 
-5 12 -7 10 -5 7 -4 6 -5 3 -5 2 -4 0 -6 -1 
-4 -3 -3 -4 -4 -6 -4 -6 -4 -7 -3 -8 -4 -9 -5 -9 
-1 -10 -2 -11 -3 -12 -2 -13 -2 -16 -2 -15 -2 -19 -4 -20 
-2 -22 -1 -24 -3 -26 2349 2336 100 MP stroke
1 -27 -2 -29 -3 -28 0 -28 -2 -24 -2 -29 -1 -28 0 -10 
-2 -16 0 -20 -3 -19 -2 -10 2 -8 -5 1 -2 7 0 16 
-4 21 -2 27 -2 27 -4 21 3 22 5 19 -3 16 -1 14 
-3 9 3 12 5 -16 -7 32 3 8 -3 8 4 6 0 9 
-1 4 3 2 -1 3 2 1 -1 3 1 4 0 11 -1 6 
0 13 -1 7 -1 5 0 4 -1 4 -1 3 -2 2 -1 1 
-1 1 -2 1 -2 2 -2 1 -2 2 -2 2 -3 3 -2 3 
-3 5 -2 5 -3 6 -2 8 -3 8 -2 9 -3 8 -3 8 
-2 7 -3 7 -3 5 -2 1 -3 -1 -3 -3 -3 -8 -2 -9 
-3 -10 -4 -13 -3 -12 -3 -12 -3 -7 -4 -4 -3 2 -4 8 
-4 13 -5 16 -3 20 -4 19 -5 20 -5 18 -3 16 -6 14 
-5 12 -5 9 -5 6 -5 4 -5 1 -6 -1 -4 -1 -5 -2 
-6 -2 -5 -3 -4 0 2556 2098 100 MP stroke
-4 0 -6 2 -4 3 -5 5 -5 4 -4 4 -5 5 -4 3 
-5 2 -5 0 -3 -1 -5 -3 -3 -5 -3 -6 -4 -7 -4 -8 
-4 -8 -4 -8 -3 -7 -3 -5 -4 -3 -2 -1 -4 3 -2 5 
-3 9 -3 11 -2 12 -3 14 -2 15 -3 14 -2 14 -2 13 
-3 11 -2 10 -2 8 -3 6 -2 5 -2 3 -2 2 -2 0 
-1 -1 2 -1 -2 -1 -1 -2 -2 -2 -1 -1 -2 -1 -4 -2 
-1 -1 -2 -2 -2 -2 0 -3 -9 -4 -7 -5 1 -6 -3 -7 
1 -8 -4 -10 5 -12 5 -13 -2 -14 0 -15 -3 -15 -2 -16 
0 -17 -2 -15 -3 -14 -2 -13 -2 -12 -1 -10 -2 -8 -3 -10 
-2 -11 -1 -15 -2 -20 -2 -21 -2 -24 -2 -27 -1 -24 -2 -22 
-1 -11 -2 6 -1 19 -2 29 -2 32 -2 31 -1 27 -1 24 
-1 18 -2 15 -2 12 0 7 -1 6 -1 3 -2 4 -1 1 
-1 1 -1 0 -2 -1 2778 2161 100 MP stroke
-1 -2 -1 -4 -1 -7 -1 -9 -2 -13 0 -16 -2 -18 0 -21 
-1 -25 -1 -25 -1 -27 -1 -28 -1 -26 -1 -25 -1 -20 -1 -10 
-1 -7 -1 3 -2 12 -1 18 -2 26 -2 29 -2 34 -3 33 
-2 33 -3 33 -3 30 -3 26 -4 24 -3 20 -4 18 -4 13 
-5 11 -5 10 -5 7 -5 6 -5 6 -6 7 -6 8 -5 11 
-6 14 -5 16 -6 20 -7 22 -6 24 -6 25 -7 26 -6 25 
-7 24 -5 25 -7 22 -6 21 -5 20 -6 17 -6 16 -6 15 
-5 13 -5 12 -5 12 -6 10 -5 10 -5 10 -5 10 -4 9 
-5 10 -4 9 -4 10 -5 9 -4 10 -4 9 -4 8 -4 8 
-3 8 -4 7 -4 6 -3 6 -4 5 -3 5 -3 5 -3 3 
-3 4 -3 3 -3 2 -3 2 -3 2 -3 2 -3 1 -3 0 
-2 1 -3 -1 -3 0 -3 -1 -3 -2 -3 -3 -3 -2 -2 -4 
-3 -3 -3 -5 -2 -4 3128 1498 100 MP stroke
-3 -4 -2 -5 -2 -4 -2 -4 -1 -4 -2 -3 -2 -4 -1 -2 
-2 -3 -1 -2 -2 -3 -2 -1 -1 -2 -2 -2 -1 -1 -2 -1 
-1 -2 -2 -1 -1 0 -1 -1 -1 -1 -1 0 -1 -1 -1 0 
-1 0 1 0 0 0 1 -1 0 -1 1 -1 1 -2 1 -2 
2 -3 1 -3 2 -4 1 -4 2 -4 2 -5 3 -4 2 -5 
2 -4 2 -4 3 -4 2 -4 3 -3 2 -2 3 -3 3 -1 
2 -2 3 -1 2 -1 3 -1 3 0 2 -1 3 -1 2 -1 
3 -1 2 -1 2 -1 3 -1 2 -2 2 -1 2 -2 1 -1 
2 -1 2 -1 1 0 1 0 1 0 1 0 1 0 1 0 
-1 -1 0 -1 -1 -1 -1 -3 -1 -2 -1 -4 -2 -4 -1 -5 
-2 -6 -1 -5 -3 -7 -1 -6 -3 -6 -2 -7 -3 -5 -2 -6 
-3 -4 -3 -4 -3 -3 -3 -2 -4 -1 -4 -1 -4 1 -5 1 
-5 1 -5 3 -5 2 3148 1709 100 MP stroke
-6 3 -6 2 -5 3 -7 3 -6 2 -7 3 -7 2 -7 3 
-7 2 -8 3 -8 2 -8 3 -9 3 -8 2 -10 3 -9 3 
-10 3 -9 2 -11 2 -9 2 -11 1 -10 0 -10 -1 -10 -2 
-11 -4 -9 -4 -12 -6 -11 -8 -10 -8 -12 -9 -10 -10 -12 -10 
-10 -10 -11 -8 -10 -7 -11 -6 -10 -2 -10 0 -11 2 -9 5 
-11 6 -10 6 -11 7 -10 6 -11 5 -10 4 -10 0 -10 -1 
-11 -4 -10 -5 -10 -9 -10 -9 -11 -11 -10 -12 -10 -11 -11 -11 
-10 -9 -10 -7 -10 -4 -10 -2 -10 1 -9 3 -10 4 -10 7 
-10 8 -9 7 -10 8 -9 8 -9 6 -9 6 -9 5 -9 3 
-8 3 -9 1 -8 0 -9 0 -8 -1 -8 -1 -7 -2 -8 -1 
-8 -1 -7 1 -7 1 -7 2 -7 2 -6 4 -7 4 -6 4 
-6 5 -6 5 -6 5 -6 6 -6 6 -6 7 -5 8 -6 8 
-6 10 -6 11 -5 12 4018 1641 100 MP stroke
-6 12 -6 14 -5 14 -6 13 -6 14 -6 13 -5 13 -6 11 
-5 11 -6 9 -6 9 -5 7 -6 7 -6 7 -5 6 -6 6 
-6 7 -5 6 -6 8 -6 7 -5 8 -6 8 -6 9 -6 8 
-6 9 -6 8 -5 8 -6 8 -6 8 -6 7 -6 6 -6 6 
-6 6 -5 4 -6 5 -6 3 -6 4 -6 3 -6 2 -6 3 
-6 2 -6 2 -7 2 -6 2 -6 1 -7 2 -6 2 -7 1 
-6 2 -7 1 -7 2 -7 1 -6 1 -7 1 -7 2 -6 1 
-7 0 -7 1 -6 1 -7 0 -6 1 -6 0 -6 1 -6 0 
-6 1 -6 0 -5 1 -6 1 -6 0 -6 1 -5 1 -6 1 
-5 1 -6 1 -6 1 -5 1 -6 1 -6 1 -5 0 -6 1 
-6 0 -5 0 -6 1 -6 0 -5 0 -6 0 -6 0 -6 0 
-5 0 -6 1 -6 0 -6 0 -6 0 -5 0 -6 -1 -6 0 
-6 -1 -5 -1 -6 -1 4604 1284 100 MP stroke
-6 -1 -5 -2 -6 -1 -6 -1 -6 -2 -6 -1 -6 -1 -5 0 
-6 -1 -6 0 -6 0 -6 1 -6 1 -6 1 -6 1 -6 2 
-6 2 -6 1 -5 2 -6 2 -5 1 -5 1 -6 1 -5 0 
-5 0 -5 0 -5 -1 -5 -2 -4 -1 -5 -2 -4 -3 -4 -2 
-5 -3 -4 -3 -4 -3 -4 -2 -4 -3 -4 -2 -4 -2 -4 -1 
-4 -1 -4 0 -3 0 -4 0 -3 1 -3 1 -3 2 -3 2 
-3 2 -3 2 -2 2 -3 2 -2 2 -3 1 -2 1 -2 0 
-1 1 -2 0 -2 -1 -1 -1 -1 -1 -2 -1 -1 -1 -1 -1 
-1 -1 -1 -1 -1 -1 -1 0 -1 0 -1 1 -1 1 0 1 
-1 1 0 1 -1 1 -1 0 -1 0 -1 0 1 0 -2 -2 
-1 -1 -1 -1 0 -1 -1 1 0 3 -1 1 0 19 -1 2 
0 3 -1 1 0 1 0 -1 -2 -2 -1 -1 -1 0 -1 0 
-1 1 -1 1 -1 0 4897 1269 100 MP stroke
-1 0 -1 0 -1 0 -1 0 -1 0 -1 -1 -1 0 -1 -1 
-2 -1 -1 0 -1 -1 -1 0 -1 -1 -1 0 -1 -1 -2 0 
-1 -1 -1 0 -1 -1 -1 0 -2 -1 -1 -1 -1 0 -1 -1 
-1 -1 -1 -1 -1 -1 -1 -1 -1 -1 -1 0 -1 -1 -1 -1 
-1 -1 -1 -1 -1 -1 0 -1 -1 -1 -1 -1 -1 -1 0 -2 
-2 -2 0 -1 -1 -1 -1 -1 0 -2 -1 -1 -1 -1 -1 -1 
-1 -1 -1 -1 -1 -1 -1 -1 -1 -1 -1 0 -1 -1 -1 -1 
-1 -1 -1 0 -1 -1 -1 -1 -1 -1 -1 0 -1 -1 -1 0 
-1 -1 -1 -1 -1 0 -1 -1 -1 -1 -1 -1 -1 0 -1 -1 
-1 0 -1 -1 -1 0 -1 0 -1 -1 0 -1 2 -2 1 1 
0 3 -1 1 -1 1 -1 -1 -1 -1 -1 -1 -1 -1 0 -1 
-2 -2 -1 -1 -1 -2 -1 -1 -1 -1 -2 -2 -1 -1 -2 -1 
-2 -1 -2 -1 -1 -1 4993 1342 100 MP stroke
-2 -1 -2 -1 -2 0 -2 0 -3 -1 -2 0 -2 0 -3 0 
-2 0 -3 0 -2 1 -3 0 -3 1 -3 1 -3 0 -3 1 
-3 1 -3 1 -3 1 -3 1 -3 2 -4 1 -3 1 -3 0 
-3 1 -4 1 -3 1 -3 0 -3 1 -4 1 -3 1 -3 1 
-4 1 -3 1 -3 1 -3 1 -3 1 -4 2 -3 1 -3 1 
-3 2 -3 1 -3 1 -3 1 -3 1 -3 1 -4 1 -3 1 
-3 0 -3 1 -4 1 -3 1 -3 1 -3 1 -3 1 -3 1 
-3 1 -3 1 -3 1 -2 1 -3 1 -2 1 -3 1 -2 1 
-2 1 -3 1 -2 0 -2 1 -2 1 -2 0 -2 1 -1 0 
-2 1 -1 0 -1 1 -2 0 -1 1 -1 1 0 1 -1 1 
0 4 1 1 1 1 0 1 1 1 2 1 1 2 2 1 
2 1 2 1 2 2 2 1 3 1 2 2 3 1 3 2 
4 1 4 2 3 2 5168 1254 100 MP stroke
4 2 4 2 4 1 4 2 4 2 5 2 4 2 5 2 
4 1 5 2 5 1 4 2 5 1 4 2 5 1 4 1 
3 1 5 1 3 1 4 1 4 1 3 0 2 1 3 1 
2 1 2 0 1 1 1 0 -1 0 1 0 -3 1 -1 0 
-2 0 -3 0 -3 0 -4 -1 -4 0 -5 0 -5 -1 -5 0 
-5 -1 -6 -1 -7 0 -6 -1 -6 0 -7 -1 -7 0 -7 -1 
-7 -1 -7 0 -7 -1 -7 -1 -8 -1 -7 -1 -7 -1 -7 -1 
-7 -1 -6 -1 -7 -1 -6 -2 -6 -1 -5 -2 -5 -1 -4 -1 
-4 -2 -5 -1 -4 -1 -4 -2 -3 -1 -3 -1 -3 -1 -4 -1 
-2 -1 -3 -1 -2 0 -2 -1 -2 -1 -1 -1 -2 0 -2 -1 
-1 -1 -1 0 -2 -1 -1 0 -2 -1 -1 0 -1 -1 -2 0 
-1 0 -2 0 -2 0 -1 0 -2 0 -1 0 -2 0 -1 0 
-2 1 -1 1 -2 0 5328 1260 100 MP stroke
-1 1 -2 1 -2 1 -1 1 -1 1 -2 1 -1 1 -2 1 
-2 1 -2 1 -1 1 -2 1 -2 0 -2 1 -2 1 -3 1 
-3 1 -2 1 -3 0 -3 1 -3 1 -3 0 -4 1 -3 0 
-3 1 -3 0 -3 0 -3 0 -3 -1 -2 0 -3 -1 -2 0 
-2 -1 -2 -1 -1 -1 -2 0 -1 -1 -1 -1 -1 0 -1 -1 
0 -1 -1 -1 1 -1 1 -1 1 0 2 -1 1 0 2 0 
2 0 2 0 2 0 3 0 2 0 3 1 3 1 3 0 
3 1 4 2 4 1 3 1 4 2 5 1 4 2 4 1 
5 2 5 1 4 1 5 1 5 0 4 1 5 0 5 0 
5 -1 4 0 5 -1 5 0 4 -1 5 -1 5 0 4 -1 
5 0 4 0 5 0 4 0 4 0 4 0 4 1 3 0 
4 1 3 0 3 1 4 1 3 2 2 1 3 1 2 2 
3 2 2 2 2 1 5216 1223 100 MP stroke
2 2 1 2 2 3 2 2 2 1 1 2 1 2 1 2 
1 2 1 1 1 2 0 3 1 1 0 10 1 1 0 1 
1 1 1 0 1 0 1 0 1 0 1 0 1 0 2 0 
2 -1 2 0 2 0 2 0 3 0 3 0 3 0 3 -1 
3 0 4 0 4 0 4 -1 4 0 4 0 4 -1 4 0 
5 -1 4 0 4 -1 5 0 5 -1 5 0 4 -1 5 0 
5 -1 5 0 5 0 6 -1 5 0 5 -1 5 0 6 -1 
5 0 6 -1 5 0 5 -1 5 0 6 -1 5 -1 5 0 
6 -1 5 -1 5 0 5 -1 6 -1 5 -1 5 -1 5 -1 
5 -1 5 -1 4 -1 5 -1 4 -1 5 -1 4 -1 4 -1 
4 -1 3 -1 4 -1 3 -1 4 0 3 -1 3 -1 2 -1 
2 0 3 -1 1 -1 2 0 1 -1 1 0 -1 0 0 -2 
-1 0 -1 0 -2 0 4909 1228 100 MP stroke
-2 -1 -2 0 -2 0 -3 0 -3 0 -4 0 -3 0 -5 0 
-5 0 -5 0 -5 0 -6 0 -7 0 -7 1 -7 0 -7 0 
-8 0 -8 1 -8 0 -9 1 -9 0 -9 1 -10 0 -9 1 
-10 0 -9 1 -10 1 -9 0 -10 1 -9 1 -10 1 -9 1 
-9 1 -9 1 -9 1 -8 1 -9 1 -8 1 -8 1 -8 1 
-7 0 -7 1 -7 1 -6 1 -5 1 -5 1 -5 0 -4 1 
-4 0 -3 1 -2 0 -3 0 -1 0 -1 1 -1 0 1 -1 
1 0 2 0 2 0 2 0 3 0 2 -1 4 0 3 0 
4 0 4 -1 4 0 4 0 5 -1 5 0 6 0 5 -1 
6 0 6 0 6 -1 6 0 7 0 6 -1 7 0 6 0 
7 -1 7 0 6 0 7 -1 7 0 6 0 7 -1 7 0 
7 0 8 -1 7 0 7 -1 8 0 7 0 8 -1 7 0 
8 -1 8 0 7 0 5014 1216 100 MP stroke
8 -1 7 0 8 0 7 0 7 0 8 0 7 -1 7 0 
7 1 7 0 8 0 7 0 7 0 7 0 7 0 8 0 
7 0 7 0 8 1 7 0 7 0 7 -1 7 0 6 0 
7 0 7 0 6 0 6 0 6 0 6 0 6 -1 6 0 
5 0 6 0 6 0 6 -1 5 0 6 0 5 -1 5 0 
6 -1 5 -1 5 -1 5 0 5 -1 5 -1 5 -1 5 -1 
5 -1 4 -1 5 -1 5 -1 4 -1 5 -1 4 -1 5 -1 
4 -1 4 -1 4 -1 4 -1 3 -1 4 -1 3 -1 3 -1 
3 -1 3 -1 2 -1 3 -1 3 -1 3 0 3 -1 3 -1 
3 -1 4 -1 3 0 4 0 4 -1 4 0 4 0 4 0 
5 0 5 0 4 0 5 0 5 0 5 0 5 0 6 -1 
5 0 5 -1 5 0 6 -1 5 -1 5 -1 6 -1 5 0 
5 -1 6 -1 5 -1 4489 1262 100 MP stroke
5 0 5 -1 6 0 5 0 5 0 6 0 6 0 5 0 
6 0 6 0 5 0 6 0 6 0 6 0 5 0 6 0 
5 0 5 0 6 -1 5 0 5 0 5 0 5 -1 5 0 
5 -1 4 0 5 -1 4 0 5 -1 4 -1 4 -1 4 -1 
4 -1 3 -2 4 -1 3 -1 4 -2 3 -1 3 -2 3 -2 
3 -2 3 -2 2 -2 3 -2 2 -2 3 -3 2 -2 3 -3 
2 -3 2 -3 2 -3 2 -3 1 -3 2 -3 2 -3 1 -3 
1 -3 2 -3 1 -3 1 -2 1 -2 0 -2 1 -2 1 -2 
1 -2 0 -1 1 -2 0 -11 -1 -2 0 -4 -1 -3 0 -3 
-1 -2 -1 -3 -1 -3 0 -3 -1 -2 -1 -3 -1 -3 -1 -2 
-1 -2 -1 -2 -1 -2 0 -2 -1 -1 -1 -1 -1 -1 -1 -1 
-1 -1 0 -1 -1 -1 0 -2 -1 -1 0 -5 1 -3 0 -5 
1 -3 1 -2 1 -3 4267 1432 100 MP stroke
1 -3 2 -3 2 -3 2 -2 2 -3 2 -3 3 -3 3 -3 
3 -4 3 -3 4 -4 5 -4 4 -4 6 -5 5 -5 6 -6 
7 -6 7 -7 7 -7 8 -8 8 -9 9 -9 9 -10 10 -11 
10 -12 11 -12 10 -13 12 -15 11 -15 12 -17 13 -19 12 -20 
14 -22 13 -25 14 -27 15 -30 14 -33 15 -37 15 -42 15 -47 
16 -53 16 -61 16 -69 17 -81 16 -97 17 -114 17 -128 17 -99 
17 21 17 103 16 100 18 85 17 70 18 60 17 50 18 44 
16 40 18 35 12 32 24 29 17 26 15 25 16 21 13 20 
17 19 16 16 16 15 16 14 16 13 15 12 15 12 15 10 
16 11 14 10 15 9 14 9 14 9 13 9 13 9 14 8 
13 9 13 8 10 7 11 8 13 7 11 7 11 6 10 6 
11 6 9 5 10 4 8 3 9 3 8 2 7 1 8 1 
5 0 7 -1 6 -1 3123 1618 100 MP stroke
6 -1 5 -1 5 -1 5 -1 4 -1 5 0 3 -1 4 -1 
3 0 3 -1 2 -2 3 -1 2 -3 2 -3 1 -3 0 -4 
2 -5 2 -5 3 -5 2 -5 1 -5 1 -5 1 -5 1 -4 
1 -4 1 -4 1 -4 1 -4 2 -3 1 -4 1 -4 1 -4 
0 -5 1 -4 0 -35 -1 -6 0 -7 -1 -7 -1 -7 -1 -9 
-1 -10 -1 -11 -2 -12 -1 -14 -2 -14 -2 -15 -3 -16 -2 -15 
-2 -14 -3 -13 -3 -11 -2 -9 -3 -6 -3 -2 -3 1 -4 4 
-3 6 -3 9 -4 10 -4 11 -3 12 -4 12 -3 11 -4 12 
-3 11 -4 11 -4 9 -3 9 -4 7 -4 7 -3 5 -4 4 
-4 3 -3 2 -4 1 -3 0 -4 -1 -3 -2 -4 -2 -3 -2 
-3 -3 -4 -3 -3 -3 -3 -4 -4 -3 -3 -4 -3 -4 -3 -4 
-2 -4 -3 -5 -3 -5 -3 -5 -2 -5 -3 -5 -2 -4 -3 -4 
-2 -2 -2 -1 -2 1 3226 1871 100 MP stroke
-1 3 -2 5 -1 7 -1 8 0 9 -1 10 0 11 1 11 
0 11 1 11 2 10 2 10 2 10 2 9 3 8 3 7 
3 7 3 6 4 5 4 5 4 4 4 3 4 3 4 2 
5 3 5 2 5 2 4 2 5 3 5 3 5 4 5 4 
6 4 5 4 6 5 5 4 6 4 6 4 6 3 7 2 
6 3 7 1 7 1 7 1 7 0 7 1 8 -1 7 0 
8 0 8 -1 9 0 8 -1 9 0 8 -1 9 -1 9 0 
9 -1 10 -1 9 0 9 -1 10 0 9 -1 10 0 10 -1 
10 0 10 -1 11 0 10 -1 10 -1 11 -1 11 -1 11 -2 
11 -2 10 -2 12 -2 10 -3 11 -2 12 -3 11 -3 12 -3 
10 -3 12 -3 11 -3 11 -3 11 -3 11 -3 12 -4 14 -3 
9 -4 12 -5 11 -5 11 -6 11 -6 11 -8 11 -8 12 -9 
11 -10 11 -11 11 -12 2514 1782 100 MP stroke
10 -12 11 -13 10 -13 11 -14 10 -14 10 -14 12 -14 10 -14 
11 -13 10 -13 10 -13 10 -12 10 -12 9 -11 9 -11 8 -11 
8 -10 8 -11 8 -9 7 -9 7 -8 6 -7 6 -5 6 -4 
5 -3 5 -1 4 0 4 0 3 1 3 1 3 0 2 0 
2 -1 2 -2 2 -4 1 -5 1 -6 1 -8 2 -9 0 -10 
1 -10 1 -10 0 -19 1 -8 0 -13 0 3 -1 -2 0 -20 
-1 -10 0 -164 1 -19 0 -35 1 -14 0 -13 1 -8 0 -8 
1 -4 0 -4 1 -2 1 -3 0 -7 1 -5 1 -7 1 -7 
1 -10 1 -11 1 -10 1 -8 1 -6 2 0 1 5 1 11 
1 15 1 17 1 19 2 19 1 16 1 14 2 11 1 10 
2 4 2 3 1 -1 2 -4 2 -7 2 -10 2 -12 2 -16 
2 -18 2 -17 2 -19 2 -20 2 -16 1 -14 2 -10 2 -2 
1 4 2 10 2 14 2193 2524 100 MP stroke
1 19 1 23 2 20 1 20 1 19 1 15 1 12 1 12 
2 19 0 14 1 12 1 12 1 13 1 11 1 10 0 11 
1 9 0 13 1 8 -1 6 0 6 -1 6 -1 6 -1 6 
-2 4 -2 3 -2 1 -2 0 -2 -2 -3 -5 -3 -7 -2 -10 
-8 -8 -4 -9 -2 -10 -3 -9 -3 -9 -4 -5 -3 -2 -3 -1 
-3 1 -3 2 -2 3 -3 3 -3 2 -1 2 -3 1 -2 -2 
-2 -3 -2 -6 -3 -7 -2 -9 -2 -12 -2 -12 -1 -15 -2 -12 
-2 -13 -1 -9 -1 -7 0 -4 -3 1 0 5 -2 11 0 10 
-1 13 0 25 -2 11 0 8 -2 6 1 2 -2 -1 0 -27 
1 -10 0 -15 0 6 1 8 2 9 2 8 -1 9 0 6 
2 5 0 4 1 -1 0 -5 -2 -6 3 -9 0 -12 1 -12 
2 -15 4 -16 0 -17 4 -16 1 -17 1 -17 -1 -14 10 -11 
5 -12 1 -7 3 -5 2238 2486 100 MP stroke
3 -5 3 1 1 2 -2 0 3 1 5 5 -1 2 3 1 
0 -1 2 -4 3 16 5 2 2 3 4 7 2 5 2 4 
3 3 2 2 3 3 2 2 3 1 3 -1 2 -1 2 -3 
4 -5 2 -9 3 -15 3 -12 2 -18 3 -27 3 -21 3 -31 
2 -34 4 -27 3 -27 3 -25 3 -18 3 -20 3 -24 3 4 
3 -10 3 -10 3 -1 3 8 3 19 3 39 3 49 3 54 
2 53 3 49 4 43 2 40 2 33 3 27 2 22 2 18 
2 13 2 10 2 6 2 3 2 1 2 0 2 -2 2 -2 
2 -2 1 -1 2 -1 2 0 1 2 1 3 2 5 1 6 
-1 8 4 9 -2 10 4 10 0 10 -1 9 5 8 -3 7 
1 6 3 4 0 2 2 1 1 -2 1 -3 1 -5 1 -5 
0 -6 2 -7 2 -8 -1 -8 2 -8 0 -9 1 -8 1 -9 
0 -44 -1 -7 -1 -6 2043 2327 100 MP stroke
0 -7 -1 -7 -1 -8 -1 -9 -1 -9 -1 -10 -1 -12 -2 -11 
-1 -12 -1 -12 -2 -12 -2 -11 -2 -11 -1 -8 -2 -8 -2 -6 
-2 -4 -3 -3 -1 -2 -2 -1 -2 0 -2 1 -3 1 -2 2 
-2 2 -2 3 -2 2 -2 1 -2 1 -1 0 -3 -2 3 -4 
-1 -5 -3 -6 -1 -2 -2 -6 0 -3 -2 -2 0 2 -1 5 
-1 9 0 12 -1 15 0 17 -1 19 1 19 0 38 1 17 
1 16 0 15 1 12 1 9 1 10 2 8 1 6 2 6 
1 6 2 5 1 5 2 7 2 8 2 10 3 11 2 13 
3 13 3 14 3 14 3 13 3 12 2 10 4 8 2 4 
4 3 3 -1 3 -4 5 -7 2 -9 1 -12 5 -13 3 -15 
3 -13 4 -13 3 -11 4 -8 3 -5 4 -1 4 2 4 6 
3 8 4 10 3 11 5 12 5 11 0 11 3 10 3 10 
3 8 2 8 2 6 1968 2115 100 MP stroke
2 5 2 5 2 3 1 3 1 3 1 1 1 2 0 1 
1 1 0 3 -2 1 1 2 -1 2 0 2 2 2 -3 2 
-1 2 -2 1 -2 1 -2 -1 -1 -2 -3 -4 -4 -5 -2 -8 
-3 -10 -4 -12 -5 -14 -4 -16 -4 -18 -4 -20 -4 -21 -5 -21 
-4 -22 -5 -23 -5 -20 -4 -20 -5 -22 -5 -21 -5 -22 -5 -19 
-5 -18 -5 -17 -6 -22 -4 -27 -3 -32 -7 -37 -4 -23 -6 -37 
-7 -47 -5 -46 -5 -49 -6 -33 -5 -24 -5 -7 -5 29 -5 46 
-5 47 -5 60 -4 63 -5 62 -4 57 -5 56 -4 48 -4 43 
-4 37 -3 31 -4 26 -4 21 -4 18 -5 13 -4 10 -5 6 
-4 5 -4 4 -5 2 -4 1 -4 2 -4 2 -3 2 -4 3 
-4 4 -4 5 -3 5 -4 6 -3 5 -4 6 -3 5 -3 5 
-4 4 -3 4 -4 4 -4 4 -5 4 -4 5 -4 4 -4 6 
-5 5 -4 4 -4 4 2305 2030 100 MP stroke
-4 3 -5 1 -4 -1 -4 -4 -4 -6 -4 -8 -4 -12 -5 -13 
-4 -15 -4 -16 -5 -16 -4 -17 -5 -16 -5 -13 -5 -13 -4 -13 
-6 -11 -4 -11 -5 -11 -5 -10 -5 -9 -5 -6 -5 -1 -4 3 
-5 9 -6 14 -4 19 -6 21 -5 23 -5 22 -5 22 -5 21 
-5 19 -6 17 -5 16 -5 14 -5 12 -6 12 -5 10 -5 9 
-5 9 -5 8 -4 8 -5 8 -4 8 -4 8 -4 8 -4 9 
-4 8 -4 8 -3 8 -3 8 -4 8 -2 7 -3 7 -3 6 
-2 5 -2 5 -3 3 -1 3 -2 1 -1 1 -2 -1 -1 -2 
-1 -3 0 -4 -1 -5 -1 -6 0 -40 -1 -8 0 -7 -1 -6 
0 -11 -1 -4 0 -3 -1 -2 0 -2 -1 -2 -1 -2 -1 -1 
-1 -1 0 -2 -1 -1 -2 -2 -1 -2 -2 -2 -1 -2 -1 -3 
-2 -4 -1 -3 -1 -5 -2 -5 -2 -6 -2 -6 -1 -8 -2 -8 
-2 -9 -2 -10 -3 -11 2611 2040 100 MP stroke
-2 -11 -2 -12 -3 -13 -2 -12 -2 -13 -3 -12 -2 -12 -3 -11 
-2 -10 -2 -9 -3 -8 -2 -7 -3 -7 -2 -6 -3 -5 -2 -4 
-3 -5 -2 -3 -3 -3 -2 -3 -3 -1 -2 -1 -3 0 -3 0 
-2 0 -3 -1 -3 -1 -2 -3 -3 -4 -2 -8 -3 -6 -2 -10 
-3 -10 -2 -12 -2 -11 -2 -11 -2 -11 -2 -11 -2 -11 -2 -15 
-1 -12 -1 -14 -1 -12 -1 -14 0 -26 -1 -10 0 -3 1 3 
0 49 1 30 0 55 1 29 0 136 -1 11 0 21 -1 8 
-1 8 0 7 -1 6 0 3 -1 4 -1 1 -1 -2 -1 -3 
-1 -5 0 -6 -1 -7 -1 -7 -1 -10 0 -10 -1 -11 -1 -11 
0 -24 -1 -11 0 -23 1 -9 0 -9 -1 -6 0 -8 0 1 
-1 5 0 49 -1 29 0 89 -1 29 0 27 -1 23 0 20 
-1 18 0 14 -1 13 0 10 -1 8 -1 7 0 5 -1 4 
0 7 -1 3 -1 3 2735 1851 100 MP stroke
-1 2 -1 3 -1 3 -1 3 -2 3 -1 4 -1 5 -2 5 
-2 5 -2 6 -2 6 -2 6 -2 5 -3 6 -2 5 -3 4 
-2 4 -3 3 -3 3 -3 1 -4 1 -3 0 -4 -1 -3 -1 
-4 -2 -4 -2 -4 -2 -4 -2 -4 -1 -4 -1 -4 0 -4 0 
-5 2 -4 1 -4 3 -5 3 -4 3 -5 4 -5 5 -4 4 
-5 5 -4 4 -4 4 -6 3 -4 2 -5 1 -4 0 -5 -1 
-4 -2 -4 -3 -4 -4 -4 -5 -4 -6 -4 -7 -4 -6 -4 -7 
-4 -6 -4 -7 -4 -5 -3 -5 -4 -4 -3 -4 -3 -2 -3 -2 
-2 -2 -3 -1 -2 -1 -2 0 -3 -1 -1 -2 -2 -2 -2 -3 
-2 -4 -1 -5 -1 -6 -1 -7 -1 -9 -1 -9 0 -10 -1 -11 
0 -79 1 -14 0 -15 1 -14 1 -15 0 -14 1 -16 1 -15 
1 -17 1 -17 1 -18 1 -18 1 -19 2 -20 1 -20 1 -21 
1 -21 2 -20 1 -20 2960 2278 100 MP stroke
1 -19 2 -18 1 -17 1 -16 1 -16 1 -14 1 -15 0 -13 
1 -13 1 -9 0 -8 1 -7 0 -6 0 20 -1 9 0 26 
-1 7 0 16 -1 15 0 11 -1 10 -1 8 -1 6 -1 3 
-1 1 -1 -4 -2 -6 -1 -8 -2 -13 -1 -16 -1 -20 -2 -21 
-1 -24 -1 -27 -1 -25 -2 -26 -1 -22 -1 -20 -2 -25 -1 -4 
-1 -5 -1 -2 -1 -2 -1 2 -1 -1 -1 15 -1 15 -1 17 
0 41 -1 25 0 77 1 25 0 23 1 21 1 21 1 17 
1 14 1 12 2 7 1 4 2 1 2 -3 2 -8 2 -10 
3 -12 2 -15 3 -17 2 -15 3 -14 3 -13 2 -9 3 -7 
4 -6 3 -6 3 -7 4 -5 3 -8 4 -9 4 -4 3 0 
4 5 4 9 4 12 4 15 4 14 4 10 4 6 4 2 
4 -3 4 -11 5 -17 4 -22 4 -31 5 -33 4 -34 5 -32 
4 -25 4 -16 5 7 2840 2563 100 MP stroke
4 13 4 19 4 24 5 24 4 24 4 19 5 17 4 16 
4 14 4 12 4 13 4 11 4 11 4 8 4 8 4 6 
3 5 4 1 3 -1 4 -4 3 -9 3 -12 3 -17 3 -23 
3 -30 3 -39 2 -39 3 -49 3 -39 2 -28 3 5 2 34 
3 50 3 48 2 49 2 39 3 34 2 26 3 25 3 18 
2 15 2 13 3 12 2 13 3 15 2 17 2 18 3 20 
2 21 3 21 2 21 3 21 3 18 3 18 2 15 3 13 
2 12 3 9 2 7 3 7 3 4 2 3 3 3 3 3 
2 2 3 2 2 3 3 4 2 5 3 6 2 6 3 8 
2 8 3 9 3 8 2 9 3 8 3 7 3 6 3 5 
3 4 3 3 3 2 4 0 4 0 3 -1 4 -2 4 -3 
4 -2 3 -3 4 -3 4 -3 4 -3 4 -3 3 -3 4 -2 
4 -3 3 -3 4 -3 2534 1893 100 MP stroke
3 -3 4 -3 3 -3 4 -4 4 -4 3 -4 3 -3 4 -4 
3 -3 3 -4 4 -2 3 -2 4 -1 3 -1 3 1 4 0 
3 2 3 1 3 2 2 2 3 2 3 1 2 1 3 1 
2 1 3 0 2 0 3 1 2 0 2 0 3 0 2 0 
2 0 2 -1 3 -1 2 -3 2 -3 2 -5 2 -5 2 -8 
2 -8 3 -10 2 -11 1 -11 2 -11 1 -11 2 -9 1 -8 
1 -7 1 -5 0 -3 1 -3 0 -3 -1 -1 -1 -2 0 -1 
-1 -2 -2 -2 -1 -3 -2 -2 -1 -2 -2 -3 -2 -3 -3 -4 
-2 -5 -3 -7 -2 -8 -3 -11 -3 -15 -3 -17 -3 -21 -4 -25 
-3 -28 -4 -32 -3 -34 -4 -35 -4 -35 -5 -35 -4 -28 -5 -16 
-4 -13 -5 -5 -5 2 -4 25 -6 28 -5 43 -5 42 -5 45 
-5 46 -6 45 -5 41 -5 38 -6 33 -5 31 -6 29 -5 25 
-6 23 -6 21 -6 18 2575 1905 100 MP stroke
-6 18 -6 16 -6 15 -6 13 -7 12 -6 11 -7 10 -6 9 
-7 8 -7 6 -7 6 -6 4 -8 3 -7 2 -7 0 -7 -1 
-7 -1 -7 -3 -7 -4 -7 -4 -7 -5 -6 -6 -7 -5 -7 -6 
-7 -5 -7 -4 -6 -4 -7 -4 -7 -3 -6 -3 -7 -2 -6 -2 
-7 -1 -7 -1 -7 -1 -6 0 -7 -1 -7 0 -7 0 -6 -1 
-7 0 -6 0 -7 -1 -6 0 -7 -1 -6 -1 -6 -1 -6 -1 
-6 -1 -6 -1 -6 -1 -6 -1 -6 -1 -6 -1 -5 -2 -7 -1 
-6 -2 -6 -3 -6 -3 -6 -5 -6 -5 -6 -6 -6 -7 -6 -7 
-6 -8 -6 -9 -6 -8 -6 -8 -6 -8 -6 -6 -6 -6 -6 -5 
-6 -5 -6 -4 -6 -4 -6 -4 -6 -5 -6 -5 -5 -6 -6 -7 
-4 -7 -6 -9 -5 -11 -5 -12 -5 -12 -4 -14 -5 -13 -4 -14 
-4 -14 -4 -14 -3 -13 -4 -12 -3 -10 -3 -6 -3 -4 -3 2 
-3 11 -2 18 -3 24 3158 2099 100 MP stroke
-2 31 -2 33 -2 37 -1 36 -1 34 -1 33 -1 31 0 115 
1 17 0 15 1 13 1 13 2 12 1 12 2 12 1 11 
2 14 2 13 3 14 2 14 2 14 3 13 2 14 2 12 
3 12 2 11 3 9 2 9 3 7 2 6 3 5 3 4 
2 4 3 2 2 2 3 1 3 0 3 1 3 -1 3 0 
4 0 3 -1 3 -1 4 -1 3 -1 4 -1 4 -2 3 -1 
4 -2 4 -2 4 -3 4 -2 4 -3 5 -3 4 -4 4 -3 
5 -4 4 -5 5 -4 4 -5 4 -5 4 -6 4 -5 3 -6 
5 -6 4 -5 4 -6 5 -5 4 -5 4 -5 4 -4 5 -4 
4 -4 4 -3 5 -3 4 -2 4 -3 5 -2 4 -3 4 -3 
5 -3 4 -4 5 -5 5 -6 5 -6 5 -8 5 -8 5 -9 
6 -10 5 -10 6 -11 5 -12 5 -11 6 -12 6 -11 5 -12 
6 -11 5 -11 6 -11 2835 1768 100 MP stroke
5 -10 5 -11 5 -10 5 -10 5 -11 7 -10 5 -11 6 -12 
4 -12 4 -13 0 -14 4 -14 8 -16 3 -16 3 -16 4 -17 
3 -16 4 -15 2 -14 3 -11 2 -10 3 -7 3 -6 2 -3 
2 -1 1 -1 1 -1 2 -2 0 -4 1 -6 0 -9 -1 -13 
-1 -17 -3 -23 1 -28 -3 -36 -2 -43 -1 -53 -2 -66 -1 -80 
-2 -100 -2 -131 -4 -166 -10 -764 -20 628 -7 237 -1 111 -4 80 
-4 56 -5 54 3 38 3 38 -7 46 -4 37 -6 39 -5 40 
-7 40 -6 40 -5 39 -5 38 -7 35 -4 33 -8 30 -5 28 
-2 25 -7 22 -5 20 -5 17 -2 16 -1 14 -5 12 -5 12 
-4 11 -3 10 -11 10 -3 10 -3 9 -4 9 -1 9 -8 8 
-4 6 -5 6 -4 5 -5 3 -4 1 -3 0 -6 -2 -3 -4 
-4 -5 -2 -7 -5 -9 -2 -10 -2 -11 -4 -13 -4 -13 -4 -13 
-3 -13 -3 -13 -3 -12 3007 1800 100 MP stroke
-3 -10 -3 -8 -4 -6 -3 -3 -3 0 -3 3 -2 5 -3 8 
-2 8 -2 13 -3 12 -2 14 -2 13 -1 14 -2 13 -2 12 
-1 11 -2 11 -2 10 -2 9 -2 9 -2 8 -2 7 -1 6 
-2 6 -2 5 -2 4 -1 3 -2 2 -2 1 -1 0 -2 -1 
-2 -3 -2 -4 -1 -6 -2 -7 -2 -9 -2 -10 -2 -10 -2 -12 
-2 -11 -2 -11 -2 -11 -3 -10 -2 -9 -3 -8 -2 -5 -4 -5 
-3 -3 -3 -1 -3 -1 -4 1 -4 2 -4 2 -4 2 -5 4 
-4 3 -5 3 -5 4 -6 4 -5 4 -6 5 -5 4 -6 6 
-6 5 -6 6 -7 6 -6 6 -7 5 -7 6 -7 5 -7 4 
-7 4 -7 3 -7 2 -8 1 -8 -1 -7 0 -8 -2 -8 -3 
-8 -3 -8 -3 -8 -3 -8 -3 -8 -2 -8 -2 -7 -1 -8 0 
-8 1 -8 2 -8 3 -8 4 -8 4 -7 4 -8 5 -8 4 
-8 5 -8 4 -8 4 3445 1643 100 MP stroke
-8 3 -8 3 -9 3 -8 2 -8 1 -9 2 -9 0 -9 1 
-9 0 -8 1 -10 0 -9 1 -9 1 -10 1 -9 1 -10 2 
-10 1 -10 2 -10 1 -10 2 -10 1 -10 1 -11 1 -10 0 
-11 0 -11 0 -11 0 -10 -1 -11 0 -11 -1 -11 -1 -11 0 
-11 -1 -11 0 -11 0 -12 0 -10 0 -11 0 -10 1 -11 1 
-10 1 -10 1 -10 2 -10 2 -9 3 -10 2 -8 4 -9 3 
-9 4 -9 4 -8 5 -8 4 -8 4 -8 5 -7 4 -6 4 
-6 3 -6 3 -6 3 -5 3 -4 3 -5 2 -4 2 -4 2 
-3 2 -3 1 -3 2 -3 1 -3 1 -2 2 -2 1 -3 1 
-2 1 1 0 -2 1 0 4 1 1 1 0 1 1 1 0 
1 0 1 0 1 0 1 -1 1 0 1 -1 1 -1 1 -2 
1 -1 0 -2 1 -2 1 -2 0 -5 1 -3 -1 -2 0 -5 
-1 -3 0 -2 -2 -2 4034 1556 100 MP stroke
-1 -2 -2 -2 -1 -1 -2 -2 -3 -1 -2 -1 -3 -1 -3 0 
-4 -1 -5 0 -4 0 -5 1 -6 1 -7 1 -6 2 -8 2 
-7 3 -8 3 -8 3 -10 4 -9 4 -10 4 -11 4 -11 4 
-11 5 -11 5 -12 4 -13 5 -13 4 -13 5 -14 4 -13 5 
-14 4 -15 4 -14 3 -15 4 -15 3 -15 3 -15 2 -15 3 
-15 2 -16 1 -15 1 -15 1 -15 1 -15 0 -15 0 -15 0 
-15 0 -16 0 -15 -1 -15 0 -14 0 -15 0 -14 0 -15 0 
-13 0 -14 1 -13 0 -13 1 -13 0 -13 1 -12 1 -12 1 
-13 1 -12 1 -11 1 -12 2 -12 1 -11 1 -11 2 -11 2 
-10 2 -11 2 -9 2 -10 2 -10 2 -9 3 -9 2 -9 3 
-9 2 -8 3 -8 3 -8 2 -7 3 -7 3 -7 2 -5 3 
-6 2 -4 2 -4 2 -3 3 -3 2 -1 2 -1 2 -1 2 
0 2 1 2 2 1 4980 1386 100 MP stroke
2 2 3 2 3 2 4 2 5 1 5 2 6 1 6 2 
7 1 8 1 7 1 8 0 9 0 8 1 9 0 9 -1 
9 0 10 -1 9 0 10 -1 9 -1 10 -1 9 -1 10 -1 
9 -1 9 -1 9 -1 8 -2 9 -1 8 -1 8 -1 8 -1 
7 -2 7 -1 7 -2 8 -1 6 -2 6 -1 6 -2 6 -2 
6 -1 5 -2 6 -2 5 -2 4 -3 5 -2 3 -2 4 -3 
4 -2 3 -3 2 -3 3 -3 2 -4 2 -3 2 -4 1 -4 
2 -4 1 -4 1 -4 2 -4 1 -4 1 -4 2 -4 0 -3 
1 -4 1 -3 1 -4 0 -8 -1 -3 0 -3 -1 -2 -1 -2 
-1 -2 0 -3 -1 -2 -1 -1 -1 -2 -1 -2 -1 -1 -1 -1 
-1 0 -1 -1 -1 0 -1 1 -1 0 -1 1 -1 1 -1 1 
0 1 -1 1 0 3 1 -1 1 -1 1 -2 1 -2 1 -2 
1 -2 2 -3 2 -3 4623 1522 100 MP stroke
1 -4 2 -3 2 -4 2 -5 3 -4 2 -5 2 -5 3 -6 
2 -6 3 -6 2 -6 3 -7 2 -7 3 -8 2 -8 3 -9 
3 -8 2 -10 3 -9 2 -10 3 -10 3 -10 3 -11 3 -10 
3 -11 3 -11 3 -10 2 -11 3 -11 3 -10 3 -11 2 -11 
3 -11 2 -10 2 -11 2 -10 2 -9 3 -9 2 -7 2 -6 
2 -4 3 -2 3 -1 3 1 3 2 3 2 4 3 3 4 
4 3 4 3 4 2 4 2 5 2 4 1 4 1 5 1 
4 1 4 1 5 2 4 3 5 4 4 6 5 8 5 9 
5 10 5 12 5 12 5 13 5 13 5 13 5 12 5 13 
5 11 4 11 5 10 4 10 4 10 4 10 4 9 3 10 
4 10 3 10 3 10 4 11 3 10 3 11 3 12 3 11 
3 11 3 11 4 10 3 11 3 10 3 9 3 10 3 8 
3 9 3 7 3 7 4297 1431 100 MP stroke
4 7 3 6 3 5 4 5 3 5 3 4 4 3 3 3 
3 3 3 2 3 2 3 1 3 1 3 1 3 1 3 0 
3 0 2 -1 3 0 2 -1 3 -2 2 -1 2 -2 2 -2 
1 -1 2 -2 2 -2 1 -2 1 -1 2 -1 1 -2 1 -1 
1 -1 1 -1 1 -1 0 2 -1 1 0 5 -1 2 0 2 
-1 3 -1 3 -1 4 0 3 -2 4 -1 4 -1 5 -1 4 
-1 4 -1 4 0 4 -1 4 -1 4 0 4 -1 3 0 3 
-1 3 0 5 -1 2 0 3 1 1 2 -1 1 -1 1 -1 
1 -2 2 -2 2 -2 2 -3 2 -3 2 -4 3 -4 3 -4 
2 -5 3 -5 2 -5 4 -6 3 -6 3 -5 3 -6 4 -6 
3 -6 4 -5 4 -5 4 -5 4 -5 4 -4 4 -4 4 -4 
5 -4 4 -4 4 -3 5 -4 4 -3 5 -4 4 -4 5 -4 
4 -5 5 -4 4 -5 4104 1473 100 MP stroke
5 -6 5 -5 4 -6 5 -6 5 -6 4 -6 5 -6 5 -7 
5 -6 5 -7 5 -7 5 -7 5 -7 5 -7 6 -8 5 -8 
6 -8 5 -9 6 -9 6 -9 5 -10 6 -10 6 -11 6 -11 
5 -12 6 -12 5 -12 6 -12 6 -13 5 -12 5 -12 6 -11 
5 -11 5 -10 6 -9 5 -9 5 -7 6 -7 5 -7 6 -5 
6 -5 5 -5 6 -5 6 -5 6 -5 5 -5 5 -5 6 -6 
5 -5 5 -6 6 -5 5 -6 6 -4 4 -5 4 -4 5 -4 
5 -4 4 -5 6 -4 4 -6 5 -6 5 -8 3 -8 3 -11 
3 -11 4 -12 3 -13 2 -12 2 -11 2 -6 1 -2 2 5 
4 12 -1 18 -1 24 5 25 -1 26 -3 26 3 24 -1 22 
1 20 1 18 -1 15 -3 12 -2 11 -2 10 -3 8 -2 7 
-2 7 -2 6 -4 7 -2 7 -4 8 -5 7 -3 9 -4 8 
-4 9 -5 9 -4 9 3798 1646 100 MP stroke
-5 8 -6 9 -6 8 -5 8 -6 8 -5 8 -6 8 -7 8 
-7 8 -5 8 -8 8 -5 8 -7 8 -7 8 -7 8 -5 8 
-7 8 -6 7 -6 7 -7 6 -5 6 -5 5 -6 5 -6 4 
-5 3 -7 2 -5 2 -6 1 -3 1 -7 0 -4 -1 -5 -1 
-5 -1 -4 -2 -4 -2 -4 -2 -4 -1 -4 -3 -3 -2 -3 -2 
-3 -2 -2 -2 -4 -2 -3 -2 -4 -2 -3 -3 -3 -3 -4 -3 
-3 -3 -3 -4 -4 -3 -4 -4 -4 -4 -4 -5 -5 -4 -4 -4 
-5 -4 -4 -4 -6 -3 -5 -2 -5 -3 -5 -1 -6 -2 -6 0 
-6 0 -5 1 -6 1 -6 2 -6 2 -6 3 -6 3 -5 4 
-6 4 -6 5 -6 5 -6 5 -7 5 -6 6 -6 6 -6 7 
-7 6 -6 6 -6 7 -6 6 -6 7 -6 6 -6 6 -5 6 
-6 6 -5 5 -5 5 -6 5 -5 5 -6 5 -6 4 -5 4 
-6 4 -5 4 -5 3 4318 1387 100 MP stroke
-6 4 -5 3 -5 2 -4 2 -7 2 -5 2 -5 1 -4 1 
-5 0 -5 0 -4 0 -4 -1 -5 -1 -4 -1 -4 -2 -4 -2 
-4 -2 -4 -3 -4 -2 -3 -3 -4 -3 -2 -3 -3 -3 -3 -3 
-2 -3 -3 -3 -3 -4 -2 -3 -2 -4 -2 -3 -2 -4 -2 -4 
-1 -4 -1 -4 -2 -4 0 -4 -1 -5 0 -5 -1 -4 0 -5 
-1 -5 0 -16 1 -5 1 -6 0 -5 2 -6 1 -5 2 -6 
2 -6 2 -6 3 -6 3 -6 4 -7 3 -7 4 -7 4 -8 
4 -8 5 -8 4 -9 5 -9 5 -9 6 -9 5 -10 6 -9 
6 -10 6 -9 6 -9 7 -9 6 -9 7 -8 7 -9 7 -8 
7 -9 7 -8 7 -8 7 -9 7 -9 7 -9 7 -9 7 -9 
7 -10 7 -9 7 -10 7 -10 7 -11 6 -11 7 -11 7 -12 
6 -13 7 -14 7 -15 6 -17 7 -18 6 -20 7 -22 7 -24 
6 -25 7 -28 7 -29 4138 2090 100 MP stroke
6 -31 7 -32 7 -34 6 -34 7 -34 6 -35 6 -34 7 -33 
6 -30 7 -28 6 -23 6 -16 6 -8 7 1 6 15 6 25 
6 33 6 39 5 42 6 42 5 42 5 41 6 37 4 35 
5 33 4 30 4 27 5 25 4 23 3 21 4 19 3 18 
4 18 3 17 3 16 3 17 3 16 2 17 3 17 2 16 
2 16 2 16 2 15 1 14 2 13 1 11 0 11 1 8 
0 7 1 6 0 4 -1 2 -1 -1 -1 -2 -1 -5 -1 -5 
-1 -8 -2 -9 -1 -10 -1 -11 -1 -13 -2 -14 -1 -15 -1 -16 
-2 -17 -1 -17 -1 -18 -1 -17 -1 -16 0 -14 -1 -11 0 -13 
1 -1 0 4 1 8 2 10 1 13 2 14 2 15 3 16 
2 15 3 15 3 14 3 14 4 12 4 12 4 11 4 11 
5 9 5 9 5 8 5 7 6 7 5 6 5 6 6 5 
6 5 6 4 6 4 3849 1636 100 MP stroke
7 4 6 3 7 4 7 2 6 3 7 2 7 2 7 2 
6 2 7 2 7 1 6 1 6 2 7 1 6 1 6 1 
7 1 6 0 6 1 6 1 6 0 6 1 6 0 6 0 
5 1 6 0 5 0 5 0 6 -1 5 0 5 -1 5 -1 
5 -1 5 -2 5 -2 5 -2 5 -3 4 -3 5 -4 4 -4 
5 -5 4 -5 5 -6 4 -6 4 -7 4 -7 4 -8 3 -8 
4 -8 3 -8 3 -9 4 -8 3 -8 4 -9 3 -9 3 -8 
3 -9 3 -10 3 -9 3 -9 2 -10 3 -9 3 -9 3 -9 
3 -7 3 -7 4 -5 3 -3 3 -1 4 1 3 3 4 4 
4 5 4 7 3 8 4 7 5 8 4 8 4 7 4 7 
5 5 4 5 5 4 4 3 5 2 5 1 5 1 5 0 
5 0 6 -1 6 -1 5 -1 7 -1 6 -1 6 -1 7 0 
7 -1 7 -1 7 -1 3366 1761 100 MP stroke
8 -2 7 -2 8 -2 9 -4 8 -3 9 -4 9 -5 9 -4 
10 -4 9 -4 10 -3 10 -2 10 -1 10 0 10 1 10 3 
10 4 10 5 10 7 9 7 10 7 10 8 9 8 10 8 
9 8 9 7 9 7 9 5 8 5 9 5 8 3 7 3 
8 2 7 0 8 0 7 -1 7 -2 7 -3 7 -3 6 -5 
7 -5 7 -6 7 -7 6 -7 7 -7 7 -8 6 -8 7 -8 
6 -9 6 -7 7 -8 6 -8 6 -7 7 -7 6 -6 6 -6 
6 -6 6 -5 6 -6 6 -5 5 -4 5 -5 5 -4 5 -3 
5 -3 4 -1 5 -1 4 1 3 1 4 3 3 4 2 5 
3 5 2 6 2 6 1 7 2 6 0 6 1 6 0 17 
-1 3 -1 1 -1 1 -1 0 -1 -2 -2 -2 -1 -3 -2 -5 
-1 -5 -2 -7 -1 -7 -1 -8 -2 -9 -1 -9 0 -10 -1 -10 
-1 -10 1 -9 0 -18 2847 1905 100 MP stroke
1 -7 2 -6 1 -5 2 -5 2 -3 3 -2 2 -1 3 0 
4 0 4 1 4 1 4 3 5 2 5 4 5 4 5 5 
6 5 6 6 6 6 6 6 7 7 6 6 8 6 7 6 
7 5 7 4 8 3 7 2 8 2 8 0 8 0 8 0 
8 -1 8 -1 8 0 9 -1 8 0 8 0 9 0 8 0 
9 0 9 -1 8 -1 9 -2 8 -3 8 -4 9 -4 9 -4 
9 -6 8 -5 9 -6 9 -6 9 -6 9 -5 8 -6 9 -4 
9 -5 9 -3 8 -3 9 -3 8 -1 9 -1 9 0 9 0 
8 0 9 1 8 0 9 0 9 -1 9 -1 8 -3 8 -4 
8 -5 9 -7 8 -8 10 -10 9 -12 7 -13 8 -15 8 -15 
7 -14 8 -14 7 -13 7 -11 6 -8 7 -7 6 -4 7 -4 
5 -2 6 -3 6 -3 4 -4 5 -5 5 -7 5 -7 4 -9 
3 -11 4 -12 3 -13 2167 2176 100 MP stroke
3 -14 3 -14 3 -14 2 -13 3 -13 1 -12 2 -9 1 -8 
1 -5 0 -3 1 -1 0 4 -1 3 -1 5 0 6 -1 6 
-2 4 -2 3 -1 2 -3 -2 -3 -6 -2 -6 -4 -11 -3 -13 
-4 -18 -4 -22 -5 -25 -4 -28 -5 -29 -5 -31 -5 -30 -7 -31 
-5 -25 -6 -23 -6 -22 -6 -10 -7 -16 -7 -5 -7 -2 -6 -1 
-7 2 -7 1 -8 -1 -7 0 -8 13 -7 31 -8 37 -8 44 
-8 47 -7 45 -8 42 -8 39 -8 32 -8 29 -7 23 -8 18 
-8 13 -8 10 -8 5 -7 3 -8 0 -7 -2 -8 -4 -7 -6 
-7 -6 -7 -8 -7 -10 -6 -10 -8 -10 -6 -11 -6 -12 -6 -12 
-6 -11 -5 -12 -6 -10 -4 -11 -5 -8 -4 -5 -5 -5 -4 -1 
-4 -1 -4 1 -2 2 -5 1 -2 0 -4 0 -3 -2 -2 -3 
-3 -7 -2 -10 -3 -13 -2 -14 -2 -17 -2 -18 -3 -18 -2 -12 
-2 -10 -2 -7 -2 4 2585 2450 100 MP stroke
-2 12 -2 20 -2 26 -2 31 -3 35 -2 38 -2 38 -2 37 
-2 35 -3 33 -2 31 -2 28 -2 25 -2 23 -2 19 -2 18 
-2 15 -2 13 -3 12 -1 10 -2 10 -1 9 -2 9 -1 9 
-2 8 -1 10 -1 9 -2 9 -1 10 -1 10 -1 9 -1 8 
-1 8 -2 6 -1 6 -1 3 -1 2 -2 1 -1 -1 -1 -3 
-2 -4 -1 -5 -2 -6 -1 -7 -1 -7 -1 -8 -1 -7 -2 -6 
-1 -5 -1 -5 0 -3 -1 -2 -1 -1 -1 0 -1 0 -1 1 
-1 1 -1 2 -2 1 -1 1 -1 1 -1 0 -1 1 -1 -1 
-2 -1 -2 -1 0 -1 -1 -2 -1 -1 0 -1 -1 -1 0 -1 
-1 -1 0 -1 -1 -1 0 -29 1 -6 0 -7 -1 -7 1 -7 
0 -11 1 -4 -1 -4 1 -2 1 -2 0 -1 1 -1 -1 -2 
0 -5 -1 -5 0 -5 -1 -8 -1 -9 0 -9 -1 -12 -1 -13 
-2 -14 0 -15 -2 -17 2695 2085 100 MP stroke
-1 -17 -2 -19 -1 -21 -2 -22 -1 -23 -2 -25 -2 -28 -2 -29 
-2 -30 -2 -31 -3 -31 -2 -27 -2 -26 -3 -17 -3 -9 -2 5 
-3 7 -2 15 -3 15 -3 15 -2 16 -3 18 -3 14 -3 17 
-2 17 -3 18 -2 17 -3 22 -3 22 -2 24 -2 24 -3 24 
-2 25 -2 24 -2 23 -2 23 -1 21 -2 21 -1 19 -2 18 
-1 17 -1 15 -1 14 -1 13 -1 13 -1 11 0 11 -1 10 
0 36 1 4 0 2 1 0 1 -2 0 -3 1 -6 1 -8 
1 -10 1 -11 1 -14 2 -15 1 -17 1 -18 1 -19 1 -21 
1 -23 2 -23 1 -25 1 -27 2 -27 1 -28 2 -29 1 -27 
2 -27 1 -25 1 -21 2 -19 1 -14 2 -13 1 -10 1 -10 
2 -11 1 -13 1 -15 1 -18 1 -17 1 -20 1 -17 1 -15 
1 -11 1 -6 1 -2 0 2 2 1 1 1 0 -5 2 -8 
0 -10 1 -14 1 -19 2735 2519 100 MP stroke
1 -19 0 -17 1 -15 1 -15 1 -10 1 -9 1 -3 1 -2 
1 0 1 0 1 -2 1 12 1 7 1 14 1 12 1 14 
1 10 1 28 2 24 1 23 2 24 2 27 2 23 2 26 
2 26 2 24 2 23 3 22 3 19 3 20 2 18 4 17 
3 17 3 20 3 21 4 20 3 18 4 20 3 17 4 16 
4 15 3 12 4 9 4 8 4 6 3 4 5 3 4 1 
4 1 4 0 5 -1 5 0 4 -1 5 -1 5 -1 4 -1 
6 -1 4 -1 6 -2 5 -2 5 -3 5 -3 6 -4 5 -5 
5 -5 7 -5 5 -6 6 -6 6 -5 6 -5 5 -4 7 -2 
6 -2 7 -1 5 1 6 1 10 2 6 2 8 3 7 3 
7 2 8 1 9 2 7 0 8 -1 8 -3 8 -3 8 -5 
9 -7 8 -8 8 -10 8 -12 8 -13 9 -16 8 -18 9 -20 
8 -22 9 -24 8 -24 2293 2226 100 MP stroke
8 -24 8 -25 8 -22 8 -20 8 -16 7 -12 6 -7 8 1 
8 2 5 4 7 9 6 9 6 6 5 5 5 2 6 -2 
1 -5 8 -9 5 -14 3 -17 5 -22 4 -25 4 -29 3 -27 
3 -27 3 -24 3 -17 3 -9 3 1 3 11 3 18 3 23 
2 27 2 29 3 26 1 22 2 21 2 17 1 10 2 4 
3 0 1 -6 2 -12 1 -19 1 -24 3 -29 0 -36 2 -39 
1 -45 1 -44 1 -50 0 -49 2 -44 -2 -31 0 -58 1 -21 
1 -9 -1 -36 0 -28 -5 9 0 -42 -1 -78 -2 -422 2103 3445 64 MP stroke
4 341 0 135 4 116 -1 68 10 81 25 28 0 45 3 23 
2 10 1 0 4 -13 -1 -13 -21 -51 7 -24 1 -40 4 -40 
3 -49 5 -36 4 -30 4 -14 5 -1 6 10 3 16 8 14 
6 13 6 13 7 15 5 11 8 7 7 11 7 5 7 6 
8 4 7 2 9 1 9 0 7 -2 9 -4 7 -5 9 -6 
8 -10 9 -10 8 -13 8 -17 9 -16 7 -16 7 -19 8 -23 
7 -19 6 -17 6 -11 7 -10 6 -5 5 -2 6 -4 4 6 
5 0 3 7 5 4 3 2 3 1 4 -1 3 1 2 -1 
4 -3 1 -3 3 -2 3 -1 4 -2 2 4 5 4 5 1 
1 3 4 6 3 8 5 5 4 7 9 15 0 25 5 31 
4 45 6 50 4 49 6 54 12 44 5 53 3 40 5 33 
4 28 4 24 4 19 2 16 5 13 0 10 4 9 1 7 
1 5 1 4 0 3 1328 1990 100 MP stroke
1 1 0 -1 1 -3 0 -6 -2 -10 1 -13 -1 -18 -2 -24 
0 -30 -1 -39 -1 -43 -2 -69 4 -44 -1 -94 -1 -58 0 -88 
-2 -72 0 -81 -1 -4 -1 9 0 24 -2 20 -1 26 -2 16 
-1 15 -3 28 -2 20 -3 19 -2 16 -3 12 -3 9 -2 5 
-4 0 -3 -2 -4 -5 -4 -7 -4 -9 -4 -9 -4 -8 -4 -7 
-3 -6 -4 -3 -3 0 -3 3 -4 6 -5 8 -2 9 -3 9 
-2 10 -3 9 -3 8 -2 6 -1 4 -2 4 2 1 -1 -3 
-1 -3 -1 -4 -1 -4 1 -6 0 -6 -1 -6 1 -5 1 -4 
-1 -4 0 -8 -1 -3 0 -2 1 -3 -3 -2 0 -5 -3 -6 
-1 -6 -1 -9 -2 -12 -2 -10 -3 -14 -6 -18 -2 -16 -3 -14 
-2 -14 -4 -14 -3 -18 -4 -2 -3 -9 -2 5 -4 3 -5 3 
-5 5 -4 5 -4 3 -5 0 -5 -3 -4 -9 -6 -17 -5 -18 
-5 -31 -5 -35 -5 -42 1538 2807 100 MP stroke
-5 -46 -5 -57 -5 -41 -4 -23 -4 10 -5 16 -3 29 -7 23 
-2 -5 -5 -9 -5 0 -4 48 -3 -23 -4 51 -3 31 -4 44 
-3 29 -4 35 -3 24 -3 17 -3 13 -3 4 -2 -1 -3 -9 
-1 -19 -3 -3 -1 0 -2 -10 -1 5 -1 13 -1 17 -1 24 
0 84 1 16 1 12 1 10 1 5 2 3 2 -2 2 -5 
2 -9 3 -14 3 -18 4 -18 3 -21 5 -26 3 -21 5 -19 
3 -15 5 -11 5 -7 6 -5 4 5 4 -2 6 -3 6 -5 
5 -16 4 -1 8 -12 5 -17 3 -3 5 -6 6 -7 3 12 
4 2 5 9 4 9 3 4 4 4 3 2 3 0 2 1 
2 3 1 1 1 2 1 6 1 2 0 3 0 -3 -1 8 
-1 7 -1 5 -2 6 -1 8 -2 7 -2 12 -1 12 -2 12 
-3 12 -3 13 -2 11 -2 9 -4 11 -1 7 -3 6 -2 5 
-6 4 -4 2 0 4 1534 2530 100 MP stroke
-2 3 -3 7 -2 2 -3 7 -4 8 -4 5 -3 6 -4 5 
-2 5 -4 3 -3 3 -5 4 -6 2 -3 1 -5 1 -4 0 
-6 1 -7 2 -5 0 -6 -1 -6 0 -8 4 -7 0 -7 4 
-8 2 -8 3 -8 4 -7 4 -8 5 -8 6 -8 5 -9 5 
-8 5 -8 3 -8 1 -8 -2 -9 -4 -7 1 -8 -2 -8 -2 
-7 -3 -9 1 -8 4 -8 5 -8 9 -8 10 -8 15 -9 14 
-8 14 -7 14 -8 15 -8 16 -8 15 -9 15 -8 15 -8 16 
-9 15 -8 15 -9 15 -7 15 -9 15 -8 14 -7 12 -7 12 
-8 11 -6 9 -7 7 -5 6 -8 4 -5 3 -4 1 -4 -1 
-1 -1 -4 -3 -1 -4 -2 -5 0 -4 -1 -5 2 -5 1 -5 
1 -4 3 -4 4 -3 3 -4 5 -3 4 -3 5 -4 6 -5 
6 -6 5 -5 6 -7 6 -8 7 -10 5 -11 7 -11 6 -13 
7 -13 6 -13 6 -12 1919 2267 100 MP stroke
7 -13 6 -11 6 -10 6 -7 5 -5 6 -5 4 0 5 1 
5 2 3 5 3 4 4 6 0 5 5 5 2 3 1 1 
1 0 5 -3 0 -5 3 -7 -2 -6 2 -9 2 -12 0 -11 
-1 -12 1 -11 0 -10 -1 -10 1 -9 -1 -8 -1 -6 1 -3 
0 -2 -1 1 1 3 0 5 1 6 0 5 1 6 1 5 
1 4 1 4 1 3 2 2 1 2 1 2 2 3 1 3 
2 5 2 4 2 8 2 9 2 9 2 7 2 7 2 3 
2 1 3 -3 1 -7 2 -11 2 -15 2 -16 1 -19 2 -23 
1 -20 2 -17 2 -13 0 -12 3 -5 0 -6 1 -6 1 -2 
2 -8 0 -5 2 -8 0 -8 1 -7 1 -4 2 1 1 3 
1 6 1 9 1 12 0 12 1 13 1 14 2 11 1 12 
2 9 0 10 1 9 2 8 2 8 3 5 2 7 3 5 
3 6 4 4 4 3 1744 2351 100 MP stroke
3 1 4 -3 4 -1 3 -5 5 -7 5 -7 6 -7 5 -1 
3 2 4 8 5 11 5 13 5 17 4 15 6 12 5 9 
2 5 6 1 5 -3 4 -7 3 -11 4 -14 3 -16 3 -17 
5 -19 3 -17 3 -16 2 -15 5 -12 3 -9 3 -5 3 -3 
4 0 3 4 4 5 3 5 4 5 4 4 3 2 3 -1 
5 -6 3 -7 3 -12 3 -15 4 -20 3 -24 6 -28 0 -30 
3 -36 3 -35 2 -41 4 -49 2 -39 2 -61 2 -51 3 -41 
1 -37 1 -36 1 -10 1 4 1 21 0 45 1 39 0 48 
1 46 1 52 0 115 1 29 0 25 -1 21 0 16 -1 15 
0 11 -1 12 0 8 -2 8 0 8 -3 6 -2 5 -3 10 
-2 7 -1 6 -2 5 -1 5 -2 3 -3 2 -3 1 -2 0 
-5 -3 -4 -3 -2 -5 -4 -7 -5 -8 -5 -10 -5 -11 -5 -10 
-4 -9 -6 -8 -5 -7 1609 2514 100 MP stroke
-6 -2 -5 1 -6 -1 -6 8 -6 7 -6 7 -6 6 -6 4 
-6 3 -4 -1 -6 -3 -6 -1 -5 -5 -5 -9 -6 -8 -4 -4 
-5 -6 -4 -2 -3 1 -4 6 -3 8 -5 15 -3 20 -1 20 
-4 28 -4 26 0 27 -9 25 -4 24 -8 22 -4 19 0 18 
3 15 -2 11 0 14 2 3 1 -1 2 -5 3 -6 5 -12 
7 -11 5 -15 9 -17 0 -19 2 -21 4 -19 3 -19 2 -20 
5 -19 3 -18 4 -17 4 -13 4 -11 4 -9 4 -7 4 -6 
6 -7 3 -2 4 2 4 2 6 -1 4 1 5 -2 4 -1 
5 -3 4 -3 4 -6 5 -4 5 -5 5 -5 3 -4 5 -3 
5 0 3 2 6 5 2 5 5 9 3 10 3 11 3 12 
3 13 1 12 4 10 2 9 2 8 1 8 0 5 1 4 
-1 3 -1 1 -2 1 -2 0 -2 0 -4 -3 -3 -2 -5 -2 
-4 -5 -5 -5 -5 -9 1599 2422 100 MP stroke
-7 -12 -6 -19 -7 -23 -8 -31 -7 -38 -7 -50 -9 -52 -8 -91 
-9 -121 -6 10 -19 189 -13 -14 -6 104 -2 58 -11 26 -8 11 
-10 16 -8 -1 -5 -2 -10 -12 -9 -15 -8 -3 -9 -3 -10 -4 
-6 6 -9 8 -8 12 -9 17 -8 16 -8 22 -9 24 -8 20 
-7 18 -7 18 -8 14 -9 10 -6 6 -8 4 -5 -1 -6 -5 
-5 -9 -8 -13 -5 -17 -6 -22 -6 -23 -6 -26 -6 -30 -5 -32 
-4 -28 -8 -25 -4 -23 -4 -15 -3 -5 -4 6 -6 16 -5 20 
-4 31 -5 29 -5 34 -4 33 -5 30 -4 26 -3 23 -4 16 
-4 15 -3 10 -3 6 -3 4 -4 -1 -4 -4 -2 -6 -4 -7 
-3 -11 -2 -10 -3 -7 -2 -9 -3 -11 -2 -12 -3 -11 -2 -13 
-3 -17 -3 -18 -3 -18 -2 -15 -3 -12 -3 1 -4 6 -2 34 
-6 16 15 75 11 26 -10 44 1 23 -9 22 3 6 -23 1 
-1 -11 14 -21 -11 -23 2127 2262 100 MP stroke
1 -54 -9 -51 -25 -93 -2 -98 -4 -131 -4 -191 -3 -68 -3 165 
-5 132 -3 93 -3 64 -3 44 -4 32 -3 21 -6 7 -2 5 
-2 -8 -3 -9 -3 -13 -4 -13 -3 -15 -3 -18 -3 -14 -2 -18 
-3 -12 -3 -9 -2 -8 -3 -10 -3 -12 -2 -9 -2 -12 -2 -14 
-1 -15 -2 -18 -2 -19 -2 -21 -1 -25 0 -23 -1 -29 -1 -31 
-1 -33 0 -145 1 5 0 26 1 68 0 142 2 68 0 116 
2 46 0 40 1 33 1 28 3 19 -1 16 0 11 1 5 
1 -6 1 -8 1 -14 0 -17 2 -18 3 -20 -2 -22 1 -24 
1 -20 1 -14 4 -12 1 -3 -3 5 2 5 3 10 1 17 
-1 21 -1 19 2 16 2 13 2 10 -2 9 -1 6 0 4 
3 2 -2 -1 2 -1 -2 -4 -1 -3 0 -5 2 -1 -3 -1 
2 6 2 10 -3 16 -3 23 3 31 0 36 -2 41 -2 43 
1 43 1 40 0 71 2232 2012 100 MP stroke
-3 30 0 -34 -6 79 2 10 0 4 2 -4 -2 -10 -1 -18 
1 -25 4 -32 1 -38 1 -46 0 -45 3 -54 -1 -31 2231 2226 16 MP stroke
-3 139 -2 151 -2 75 -2 52 -1 16 -1 -16 -1 16 1 -44 
0 -6 2 -21 3 -21 2 -33 3 12 4 79 3 72 5 65 
4 30 5 23 5 24 5 0 4 6 5 -12 5 -28 5 -36 
4 -48 6 -91 5 -578 5 277 4 -34 4 -104 5 206 4 98 
4 72 2 113 3 54 5 46 3 18 5 18 2 9 4 2 
3 -2 4 -6 2 -14 3 -14 4 -18 3 -17 2 -31 3 -26 
1 -41 3 -29 1 -40 2 -43 1 -12 2 -17 0 2 2 -9 
1 75 2 45 1 48 1 54 0 37 3 29 -1 16 6 17 
3 18 2 -4 2 -3 4 -17 2 -13 3 -16 2 -16 3 -21 
3 -13 3 -24 3 11 4 19 2 6 3 -3 2 4 4 -3 
2 -3 4 -5 2 -9 3 -6 3 -15 4 -5 1 -14 5 -21 
2 12 3 -33 3 0 4 -47 2 -71 3 -96 3 4 3 -139 
1800 3244 97 MP stroke
4 121 4 134 4 71 2 78 4 41 2 33 3 25 1 17 
1 15 0 7 -1 2 0 -9 -1 -9 -2 -9 0 -17 -1 -17 
-3 -21 -3 -23 -3 -15 -2 -22 -3 -20 -4 -21 -4 -16 -3 -18 
-2 -1 -3 5 -3 10 -4 11 -2 26 -2 16 -2 24 -2 18 
0 15 -2 8 -2 9 0 7 -1 -3 1 -5 1 -7 0 -15 
2 -8 0 -8 2 -10 0 -13 -1 -6 1 -5 0 -3 1 -5 
-1 -3 1 -2 -1 -4 -1 -1 -2 -9 0 -4 -2 -1 -1 -8 
-2 -6 -2 -9 -1 -15 -3 -10 -2 -21 -3 -17 -2 -22 -2 -29 
-2 -17 -1 -14 -2 -14 -2 -7 -1 -15 -1 8 -2 -2 -1 -6 
-2 42 1 12 -2 38 -3 21 -1 14 -2 29 -1 6 -2 37 
-2 19 -2 17 -3 17 -2 13 -3 16 -2 8 -2 15 -3 14 
-4 13 -3 13 -3 13 -3 13 -4 13 -3 12 -4 15 -3 15 
-4 14 -2 16 -3 15 1634 2412 100 MP stroke
-3 15 -3 13 -3 14 -4 13 -4 12 -3 10 -2 9 -3 8 
-3 5 -4 2 -4 0 -3 -4 -3 -7 -5 -7 -2 -13 -1 -13 
-4 -15 -6 -14 -8 -9 -5 -5 -5 -1 -1 2 -5 10 -2 10 
-2 16 -7 12 -1 11 -4 10 -6 7 -1 7 -4 5 -4 6 
0 4 -4 5 -3 6 -2 5 -2 7 0 8 -1 8 -1 9 
-2 8 2 9 -1 8 -1 7 1 7 -2 4 0 5 -1 2 
-1 0 8 -2 -9 -2 1 -3 4 -3 -3 -2 -1 0 -2 0 
1 3 -2 4 -4 6 -2 7 -2 6 -3 8 -2 5 -2 4 
-2 1 -3 -1 -2 -5 -2 -8 -2 -12 -3 -17 -4 -21 -1 -26 
-1 -32 -1 -36 -1 -43 0 -49 -2 -54 1 -62 1 -68 1 -77 
-1 -74 2 -73 3 -34 -1 -40 4 9 1 20 2 0 4 62 
3 40 0 34 1 40 2 34 1 24 3 14 1 19 0 12 
1 10 -1 5 -2 1 1783 2577 100 MP stroke
-1 -2 -2 -4 -2 -5 -2 -4 -2 1 -3 -1 -3 -3 -4 2 
-3 1 -4 3 -4 5 -3 4 -5 7 -5 6 -4 10 -4 8 
-5 9 -5 9 -4 10 -6 10 -5 9 -5 10 -5 8 -6 8 
-6 7 -5 8 -5 8 -6 6 -5 6 -6 4 -5 3 -5 2 
-6 -3 -6 -1 -5 -3 -5 -4 -6 -9 -5 -11 -6 -14 -3 -13 
4 -28 -14 -11 -9 -15 -5 -23 -5 -21 -6 -23 -2 -23 -2 -27 
-12 -32 -2 -30 -6 -28 -4 -40 -6 -49 -3 -61 -6 -113 -5 -158 
-4 -203 -3 -199 2050 3574 59 MP stroke
gr

c8
0 sg
%%IncludeResource: font Helvetica
/Helvetica /WindowsLatin1Encoding 120 FMSR

1970  294 mt 
(Experiment 3b - Digital magnetometers - Bias of orientation) s
2502 4902 mt 
(Distance to center of sensor network [m]) s
 558 2855 mt  -90 rotate
(Bias [degree]) s
90 rotate

end %%Color Dict

eplot
%%EndObject

epage
end

showpage

%%Trailer
%%EOF
