%!PS-Adobe-2.0 EPSF-1.2
%%Creator: MATLAB, The MathWorks, Inc. Version 7.13.0.564 (R2011b). Operating System: Microsoft Windows 7.
%%Title: figures\digital_par\digital_par_ori.eps
%%CreationDate: 03/01/2013  14:13:57
%%DocumentNeededFonts: Helvetica
%%DocumentProcessColors: Cyan Magenta Yellow Black
%%Extensions: CMYK
%%Pages: 1
%%BoundingBox:    53   199   547   602
%%EndComments

%%BeginProlog
% MathWorks dictionary
/MathWorks 160 dict begin
% definition operators
/bdef {bind def} bind def
/ldef {load def} bind def
/xdef {exch def} bdef
/xstore {exch store} bdef
% operator abbreviations
/c  /clip ldef
/cc /concat ldef
/cp /closepath ldef
/gr /grestore ldef
/gs /gsave ldef
/mt /moveto ldef
/np /newpath ldef
/cm /currentmatrix ldef
/sm /setmatrix ldef
/rm /rmoveto ldef
/rl /rlineto ldef
/s {show newpath} bdef
/sc {setcmykcolor} bdef
/sr /setrgbcolor ldef
/sg /setgray ldef
/w /setlinewidth ldef
/j /setlinejoin ldef
/cap /setlinecap ldef
/rc {rectclip} bdef
/rf {rectfill} bdef
% page state control
/pgsv () def
/bpage {/pgsv save def} bdef
/epage {pgsv restore} bdef
/bplot /gsave ldef
/eplot {stroke grestore} bdef
% orientation switch
/portraitMode 0 def /landscapeMode 1 def /rotateMode 2 def
% coordinate system mappings
/dpi2point 0 def
% font control
/FontSize 0 def
/FMS {/FontSize xstore findfont [FontSize 0 0 FontSize neg 0 0]
  makefont setfont} bdef
/ISOLatin1Encoding where {pop /WindowsLatin1Encoding 256 array bdef
ISOLatin1Encoding WindowsLatin1Encoding copy pop
/.notdef/.notdef/quotesinglbase/florin/quotedblbase/ellipsis/dagger
/daggerdbl/circumflex/perthousand/Scaron/guilsinglleft/OE/.notdef/.notdef
/.notdef/.notdef/quoteleft/quoteright/quotedblleft/quotedblright/bullet
/endash/emdash/tilde/trademark/scaron/guilsinglright/oe/.notdef/.notdef
/Ydieresis WindowsLatin1Encoding 128 32 getinterval astore pop}
{/WindowsLatin1Encoding StandardEncoding bdef} ifelse
/reencode {exch dup where {pop load} {pop StandardEncoding} ifelse
  exch dup 3 1 roll findfont dup length dict begin
  { 1 index /FID ne {def}{pop pop} ifelse } forall
  /Encoding exch def currentdict end definefont pop} bdef
/isroman {findfont /CharStrings get /Agrave known} bdef
/FMSR {3 1 roll 1 index dup isroman {reencode} {pop pop} ifelse
  exch FMS} bdef
/csm {1 dpi2point div -1 dpi2point div scale neg translate
 dup landscapeMode eq {pop -90 rotate}
  {rotateMode eq {90 rotate} if} ifelse} bdef
% line types: solid, dotted, dashed, dotdash
/SO { [] 0 setdash } bdef
/DO { [.5 dpi2point mul 4 dpi2point mul] 0 setdash } bdef
/DA { [6 dpi2point mul] 0 setdash } bdef
/DD { [.5 dpi2point mul 4 dpi2point mul 6 dpi2point mul 4
  dpi2point mul] 0 setdash } bdef
% macros for lines and objects
/L {lineto stroke} bdef
/MP {3 1 roll moveto 1 sub {rlineto} repeat} bdef
/AP {{rlineto} repeat} bdef
/PDlw -1 def
/W {/PDlw currentlinewidth def setlinewidth} def
/PP {closepath eofill} bdef
/DP {closepath stroke} bdef
/MR {4 -2 roll moveto dup  0 exch rlineto exch 0 rlineto
  neg 0 exch rlineto closepath} bdef
/FR {MR stroke} bdef
/PR {MR fill} bdef
/L1i {{currentfile picstr readhexstring pop} image} bdef
/tMatrix matrix def
/MakeOval {newpath tMatrix currentmatrix pop translate scale
0 0 1 0 360 arc tMatrix setmatrix} bdef
/FO {MakeOval stroke} bdef
/PO {MakeOval fill} bdef
/PD {currentlinewidth 2 div 0 360 arc fill
   PDlw -1 eq not {PDlw w /PDlw -1 def} if} def
/FA {newpath tMatrix currentmatrix pop translate scale
  0 0 1 5 -2 roll arc tMatrix setmatrix stroke} bdef
/PA {newpath tMatrix currentmatrix pop	translate 0 0 moveto scale
  0 0 1 5 -2 roll arc closepath tMatrix setmatrix fill} bdef
/FAn {newpath tMatrix currentmatrix pop translate scale
  0 0 1 5 -2 roll arcn tMatrix setmatrix stroke} bdef
/PAn {newpath tMatrix currentmatrix pop translate 0 0 moveto scale
  0 0 1 5 -2 roll arcn closepath tMatrix setmatrix fill} bdef
/vradius 0 def /hradius 0 def /lry 0 def
/lrx 0 def /uly 0 def /ulx 0 def /rad 0 def
/MRR {/vradius xdef /hradius xdef /lry xdef /lrx xdef /uly xdef
  /ulx xdef newpath tMatrix currentmatrix pop ulx hradius add uly
  vradius add translate hradius vradius scale 0 0 1 180 270 arc 
  tMatrix setmatrix lrx hradius sub uly vradius add translate
  hradius vradius scale 0 0 1 270 360 arc tMatrix setmatrix
  lrx hradius sub lry vradius sub translate hradius vradius scale
  0 0 1 0 90 arc tMatrix setmatrix ulx hradius add lry vradius sub
  translate hradius vradius scale 0 0 1 90 180 arc tMatrix setmatrix
  closepath} bdef
/FRR {MRR stroke } bdef
/PRR {MRR fill } bdef
/MlrRR {/lry xdef /lrx xdef /uly xdef /ulx xdef /rad lry uly sub 2 div def
  newpath tMatrix currentmatrix pop ulx rad add uly rad add translate
  rad rad scale 0 0 1 90 270 arc tMatrix setmatrix lrx rad sub lry rad
  sub translate rad rad scale 0 0 1 270 90 arc tMatrix setmatrix
  closepath} bdef
/FlrRR {MlrRR stroke } bdef
/PlrRR {MlrRR fill } bdef
/MtbRR {/lry xdef /lrx xdef /uly xdef /ulx xdef /rad lrx ulx sub 2 div def
  newpath tMatrix currentmatrix pop ulx rad add uly rad add translate
  rad rad scale 0 0 1 180 360 arc tMatrix setmatrix lrx rad sub lry rad
  sub translate rad rad scale 0 0 1 0 180 arc tMatrix setmatrix
  closepath} bdef
/FtbRR {MtbRR stroke } bdef
/PtbRR {MtbRR fill } bdef
/stri 6 array def /dtri 6 array def
/smat 6 array def /dmat 6 array def
/tmat1 6 array def /tmat2 6 array def /dif 3 array def
/asub {/ind2 exch def /ind1 exch def dup dup
  ind1 get exch ind2 get sub exch } bdef
/tri_to_matrix {
  2 0 asub 3 1 asub 4 0 asub 5 1 asub
  dup 0 get exch 1 get 7 -1 roll astore } bdef
/compute_transform {
  dmat dtri tri_to_matrix tmat1 invertmatrix 
  smat stri tri_to_matrix tmat2 concatmatrix } bdef
/ds {stri astore pop} bdef
/dt {dtri astore pop} bdef
/db {2 copy /cols xdef /rows xdef mul dup 3 mul string
  currentfile exch readhexstring pop
  dup 0 3 index getinterval /rbmap xdef
  dup 2 index dup getinterval /gbmap xdef
  1 index dup 2 mul exch getinterval /bbmap xdef pop pop}bdef
/it {gs np dtri aload pop moveto lineto lineto cp c
  cols rows 8 compute_transform 
  rbmap gbmap bbmap true 3 colorimage gr}bdef
/il {newpath moveto lineto stroke}bdef
currentdict end def
%%EndProlog

%%BeginSetup
MathWorks begin

0 cap

end
%%EndSetup

%%Page: 1 1
%%BeginPageSetup
%%PageBoundingBox:    53   199   547   602
MathWorks begin
bpage
%%EndPageSetup

%%BeginObject: obj1
bplot

/dpi2point 12 def
portraitMode 0204 7344 csm

  443   110  5928  4844 MR c np
85 dict begin %Colortable dictionary
/c0 { 0.000000 0.000000 0.000000 sr} bdef
/c1 { 1.000000 1.000000 1.000000 sr} bdef
/c2 { 0.900000 0.000000 0.000000 sr} bdef
/c3 { 0.000000 0.820000 0.000000 sr} bdef
/c4 { 0.000000 0.000000 0.800000 sr} bdef
/c5 { 0.910000 0.820000 0.320000 sr} bdef
/c6 { 1.000000 0.260000 0.820000 sr} bdef
/c7 { 0.000000 0.820000 0.820000 sr} bdef
c0
1 j
1 sg
   0    0 6913 5185 PR
6 w
0 4225 5356 0 0 -4225 899 4614 4 MP
PP
-5356 0 0 4225 5356 0 0 -4225 899 4614 5 MP stroke
4 w
DO
SO
6 w
0 sg
 899  389 mt 6255  389 L
 899 4614 mt 6255 4614 L
6255 4614 mt 6255  389 L
 899 4614 mt  899  389 L
 899 4614 mt 6255 4614 L
 899 4614 mt  899  389 L
 899 4614 mt  899 4560 L
 899  389 mt  899  442 L
%%IncludeResource: font Helvetica
/Helvetica /WindowsLatin1Encoding 120 FMSR

 866 4759 mt 
(0) s
1434 4614 mt 1434 4560 L
1434  389 mt 1434  442 L
1401 4759 mt 
(2) s
1970 4614 mt 1970 4560 L
1970  389 mt 1970  442 L
1937 4759 mt 
(4) s
2505 4614 mt 2505 4560 L
2505  389 mt 2505  442 L
2472 4759 mt 
(6) s
3041 4614 mt 3041 4560 L
3041  389 mt 3041  442 L
3008 4759 mt 
(8) s
3577 4614 mt 3577 4560 L
3577  389 mt 3577  442 L
3511 4759 mt 
(10) s
4112 4614 mt 4112 4560 L
4112  389 mt 4112  442 L
4046 4759 mt 
(12) s
4648 4614 mt 4648 4560 L
4648  389 mt 4648  442 L
4582 4759 mt 
(14) s
5183 4614 mt 5183 4560 L
5183  389 mt 5183  442 L
5117 4759 mt 
(16) s
5719 4614 mt 5719 4560 L
5719  389 mt 5719  442 L
5653 4759 mt 
(18) s
6255 4614 mt 6255 4560 L
6255  389 mt 6255  442 L
6189 4759 mt 
(20) s
 899 4614 mt  952 4614 L
6255 4614 mt 6201 4614 L
 661 4658 mt 
(-20) s
 899 3909 mt  952 3909 L
6255 3909 mt 6201 3909 L
 798 3953 mt 
(0) s
 899 3205 mt  952 3205 L
6255 3205 mt 6201 3205 L
 731 3249 mt 
(20) s
 899 2501 mt  952 2501 L
6255 2501 mt 6201 2501 L
 731 2545 mt 
(40) s
 899 1797 mt  952 1797 L
6255 1797 mt 6201 1797 L
 731 1841 mt 
(60) s
 899 1093 mt  952 1093 L
6255 1093 mt 6201 1093 L
 731 1137 mt 
(80) s
 899  389 mt  952  389 L
6255  389 mt 6201  389 L
 664  433 mt 
(100) s
 899  389 mt 6255  389 L
 899 4614 mt 6255 4614 L
6255 4614 mt 6255  389 L
 899 4614 mt  899  389 L
gs 899 389 5357 4226 MR c np
12 w
/c8 { 0.000000 0.000000 1.000000 sr} bdef
c8
1 1 1 1 1 1 2 3 1 0 1 0 1 1 1 1 
2 1 1 2 1 1 1 -1 2 0 1 0 1 -2 1 2 
1 1 2 -2 1 -1 1 0 1 -1 1 0 2 0 1 2 
1 0 1 -1 2 1 1 -1 1 2 1 -1 1 -1 2 0 
1 0 1 -2 1 -2 2 -1 1 -2 1 0 1 0 1 -1 
2 0 1 0 1 0 1 0 1 0 2 1 1 1 1 -2 
1 2 2 2 1 0 1 0 1 2 1 0 2 -1 1 0 
1 1 1 1 2 0 1 -2 1 0 1 0 1 0 2 -2 
1 0 1 0 1 0 1 -2 2 0 1 -3 1 1 1 1 
2 -1 1 1 1 -1 1 0 1 -1 2 -1 1 0 1 -2 
1 1 2 -1 1 0 1 0 1 0 1 0 2 0 1 0 
1 1 1 3 1 1 2 6 1 0 1 1 1 -4 2 -2 
1 2 1 -3 1 1 5965 961 100 MP stroke
1 -1 2 2 1 0 1 3 1 1 2 -2 1 0 1 0 
1 0 1 1 2 2 1 1 1 1 1 0 1 0 2 1 
1 0 1 1 1 -1 2 0 1 0 1 1 1 5 1 2 
2 1 1 1 1 0 1 3 2 0 1 -1 1 0 1 0 
1 -1 2 0 1 0 1 -1 1 -2 1 -1 2 1 1 0 
1 -1 1 2 2 0 1 -2 1 1 1 -2 1 0 2 0 
1 -1 1 0 1 0 2 3 1 -3 1 -2 1 -1 1 -1 
2 0 1 0 1 2 1 -1 1 1 2 -2 1 0 1 0 
1 0 2 -2 1 -2 1 1 1 2 1 3 2 0 1 3 
1 -3 1 -1 2 5 1 -1 1 2 1 0 1 -2 2 6 
1 2 1 1 1 -2 1 0 2 0 1 2 1 1 1 1 
2 1 1 -1 1 -1 1 -1 1 -1 2 0 1 -1 1 -1 
1 -5 2 1 1 0 5844 944 100 MP stroke
1 1 1 -1 1 3 2 4 1 -1 1 1 1 3 1 4 
2 -4 1 2 1 1 1 3 2 -2 1 -4 1 2 1 0 
1 1 2 0 1 2 1 -2 1 2 2 4 1 -3 1 0 
1 0 1 0 2 0 1 0 1 2 1 1 1 -4 2 -1 
1 2 1 -6 1 0 2 0 1 0 1 2 1 -2 1 1 
2 0 1 6 1 3 1 -2 1 2 2 -1 1 1 1 -1 
1 -3 2 -2 1 1 1 1 1 1 1 -4 2 0 1 -2 
1 -2 1 0 2 4 1 1 1 0 1 2 1 1 2 1 
1 -2 1 1 1 -7 1 -1 2 1 1 1 1 -1 1 4 
2 4 1 -3 1 2 1 -3 1 0 2 2 1 0 1 2 
1 0 2 -3 1 3 1 -2 1 0 1 1 2 1 1 -1 
1 0 1 0 1 -5 2 0 1 -1 1 6 1 4 2 -2 
1 0 1 2 1 1 5724 922 100 MP stroke
1 0 2 -2 1 -2 1 1 1 0 2 1 1 0 1 -1 
1 -2 1 0 2 1 1 0 1 -3 1 2 1 0 2 -1 
1 0 1 -1 1 0 2 -1 1 -1 1 -2 1 -1 1 0 
2 0 1 1 1 -1 1 0 2 3 1 0 1 2 1 0 
1 0 2 -3 1 4 1 -1 1 0 1 -4 2 3 1 1 
1 -2 1 -3 2 0 1 1 1 0 1 0 1 1 2 0 
1 -1 1 0 1 0 2 -1 1 0 1 2 1 -2 1 0 
2 -1 1 0 1 1 1 1 1 1 2 -1 1 0 1 1 
1 -1 2 0 1 -1 1 0 1 0 1 2 2 -3 1 -2 
1 -3 1 1 2 2 1 -2 1 1 1 2 1 2 2 -3 
1 -3 1 4 1 1 1 -1 2 0 1 -2 1 -1 1 6 
2 0 1 -2 1 0 1 -2 1 -1 2 1 1 0 1 0 
1 -3 2 5 1 5 5603 930 100 MP stroke
1 -1 1 1 1 4 2 2 1 -1 1 -1 1 -1 1 0 
2 -1 1 2 1 2 1 0 2 -2 1 -1 1 -1 1 -2 
1 0 2 0 1 1 1 3 1 -1 2 0 1 -2 1 0 
1 0 1 0 2 -1 1 3 1 1 1 0 1 0 2 -4 
1 -1 1 0 1 -1 2 -1 1 0 1 5 1 -2 1 0 
2 -1 1 -1 1 -2 1 -2 2 1 1 -4 1 1 1 -2 
1 2 2 -1 1 1 1 0 1 1 1 -4 2 -2 1 1 
1 -3 1 -2 2 1 1 -2 1 1 1 -3 1 2 2 2 
1 1 1 1 1 0 2 0 1 0 1 3 1 0 1 0 
2 1 1 0 1 3 1 1 1 -1 2 -2 1 -1 1 0 
1 0 2 4 1 -5 1 3 1 2 1 1 2 1 1 -2 
1 1 1 -5 2 0 1 -4 1 1 1 -1 1 1 2 -2 
1 10 1 -2 1 -3 5483 940 100 MP stroke
1 0 2 -1 1 -2 1 3 1 -9 2 -2 1 3 1 -1 
1 -1 1 8 2 15 1 -5 1 1 1 -2 2 -4 1 -1 
1 1 1 1 1 -1 2 -1 1 3 1 4 1 -1 1 -1 
2 -6 1 0 1 0 1 -1 2 -1 1 -1 1 0 1 2 
1 -1 2 4 1 2 1 1 1 -4 2 3 1 -1 1 2 
1 -1 1 -2 2 -2 1 1 1 -3 1 3 1 1 2 1 
1 -6 1 0 1 2 2 1 1 0 1 -2 1 1 1 0 
2 0 1 0 1 -1 1 3 2 2 1 -1 1 1 1 -1 
1 1 2 0 1 0 1 0 1 3 1 -1 2 -1 1 2 
1 0 1 0 2 -1 1 0 1 1 1 -3 1 0 2 0 
1 0 1 2 1 1 2 1 1 -2 1 0 1 -1 1 0 
2 -1 1 -1 1 0 1 2 1 -1 2 0 1 0 1 0 
1 2 2 -1 1 5 5362 930 100 MP stroke
1 1 1 0 1 1 2 0 1 2 1 0 1 3 1 1 
2 -3 1 0 1 1 1 0 2 2 1 2 1 3 1 -1 
1 -5 2 2 1 3 1 2 1 2 2 2 1 -4 1 0 
1 1 1 1 2 1 1 -2 1 -2 1 0 1 2 2 2 
1 -2 1 -2 1 -1 2 1 1 0 1 0 1 -2 1 0 
2 -1 1 0 1 0 1 -1 2 -2 1 1 1 0 1 0 
1 0 2 0 1 2 1 -2 1 -1 1 0 2 -1 1 1 
1 -2 1 4 2 -1 1 -3 1 1 1 -1 1 0 2 -2 
1 4 1 0 1 0 2 1 1 -2 1 0 1 0 1 0 
2 -1 1 -1 1 -1 1 -2 1 0 2 -1 1 3 1 1 
1 0 2 1 1 -1 1 4 1 -1 1 -1 2 1 1 0 
1 -2 1 3 2 -1 1 1 1 0 1 2 1 -3 2 0 
1 3 1 0 1 -1 5242 921 100 MP stroke
1 2 2 0 1 1 1 1 1 1 2 1 1 2 1 0 
1 0 1 1 2 0 1 3 1 -3 1 2 2 1 1 -1 
1 -1 1 2 1 0 2 0 1 -1 1 0 1 1 1 -1 
2 -1 1 1 1 0 1 0 2 1 1 -1 1 0 1 0 
1 0 2 0 1 0 1 0 1 1 2 1 1 0 1 0 
1 1 1 0 2 1 1 -3 1 -1 1 -1 1 1 2 1 
1 -1 1 -1 1 0 2 3 1 1 1 0 1 2 1 1 
2 2 1 0 1 1 1 -1 2 0 1 2 1 1 1 1 
1 -2 2 1 1 0 1 0 1 0 1 0 2 0 1 0 
1 0 1 0 2 0 1 0 1 0 1 1 1 0 2 0 
1 1 1 0 1 1 2 0 1 -1 1 -1 1 -1 1 -1 
2 -1 1 -1 1 1 1 0 1 -3 2 -2 1 0 1 0 
1 -1 2 0 1 -2 5121 909 100 MP stroke
1 -3 1 0 1 0 2 1 1 -1 1 -3 1 0 2 -2 
1 0 1 0 1 3 1 -1 2 1 1 2 1 1 1 1 
1 0 2 -1 1 1 1 0 1 1 2 0 1 0 1 -1 
1 -1 1 0 2 -1 1 0 1 -1 1 0 2 0 1 -1 
1 0 1 0 1 -1 2 1 1 -1 1 3 1 0 1 1 
2 1 1 0 1 1 1 0 2 0 1 -2 1 0 1 0 
1 -1 2 -1 1 -2 1 -3 1 -2 2 0 1 0 1 -2 
1 -1 1 -2 2 -1 1 -2 1 0 1 0 1 0 2 -1 
1 -1 1 0 1 0 2 0 1 0 1 2 1 -1 1 1 
2 0 1 2 1 1 1 0 2 1 1 -1 1 0 1 -1 
1 0 2 -1 1 0 1 0 1 0 1 2 2 -1 1 0 
1 0 1 -1 2 1 1 3 1 -1 1 -1 1 2 2 0 
1 0 1 1 1 0 5001 922 100 MP stroke
2 1 1 -1 1 -1 1 -1 1 -1 2 0 1 0 1 -1 
1 0 1 0 2 -1 1 0 1 -1 1 0 2 -2 1 -1 
1 0 1 -1 1 -1 2 1 1 0 1 -1 1 0 2 -1 
1 0 1 0 1 1 1 0 2 1 1 0 1 0 1 1 
1 0 2 0 1 1 1 0 1 -1 2 0 1 0 1 0 
1 0 1 0 2 0 1 0 1 -1 1 0 2 -1 1 0 
1 0 1 7 1 3 2 -1 1 1 1 -1 1 -1 1 0 
2 0 1 0 1 0 1 1 2 -2 1 -1 1 -1 1 -1 
1 -1 2 0 1 -1 1 0 1 -1 2 1 1 0 1 0 
1 -1 1 1 2 0 1 0 1 0 1 1 1 -2 2 0 
1 -2 1 2 1 -5 2 -3 1 1 1 -1 1 3 1 0 
2 2 1 0 1 0 1 2 1 1 2 0 1 1 1 0 
1 0 2 -2 1 -1 4880 934 100 MP stroke
1 -1 1 0 1 1 2 4 1 -4 1 -5 1 2 2 -2 
1 1 1 -1 1 2 1 5 2 -3 1 -3 1 6 1 -6 
1 -2 2 0 1 -1 1 3 1 0 2 -1 1 -1 1 4 
1 -1 1 -2 2 -1 1 1 1 0 1 0 2 0 1 3 
1 1 1 2 1 -2 2 -1 1 -2 1 -1 1 -2 1 1 
2 -3 1 0 1 -3 1 4 2 0 1 2 1 -1 1 5 
1 0 2 -8 1 2 1 -2 1 1 2 -1 1 4 1 0 
1 0 1 -1 2 0 1 -1 1 1 1 -3 1 -4 2 5 
1 -2 1 -1 1 2 2 -1 1 0 1 -1 1 1 1 -1 
2 -5 1 0 1 -3 1 0 2 -1 1 0 1 0 1 0 
1 0 2 -1 1 -2 1 -1 1 0 1 -2 2 -1 1 0 
1 0 1 0 2 1 1 -1 1 0 1 0 1 1 2 -1 
1 0 1 -1 1 1 4760 962 100 MP stroke
2 0 1 -1 1 -2 1 0 1 0 2 2 1 0 1 1 
1 0 1 1 2 -2 1 -1 1 1 1 0 2 1 1 0 
1 0 1 0 1 0 2 0 1 0 1 0 1 0 2 0 
1 0 1 0 1 1 1 0 2 0 1 0 1 0 1 0 
1 0 2 2 1 2 1 0 1 1 2 1 1 1 1 1 
1 0 1 0 2 1 1 1 1 0 1 2 2 1 1 0 
1 1 1 -1 1 0 2 0 1 1 1 0 1 0 1 0 
2 1 1 0 1 0 1 0 2 0 1 1 1 0 1 0 
1 0 2 0 1 1 1 0 1 0 2 -1 1 0 1 1 
1 -1 1 -1 2 1 1 -2 1 -1 1 -1 1 0 2 0 
1 1 1 -2 1 -1 2 -1 1 -1 1 1 1 0 1 -1 
2 0 1 -1 1 1 1 2 2 -2 1 0 1 -1 1 1 
1 0 2 0 1 -2 4639 955 100 MP stroke
1 0 1 -1 1 0 2 1 1 -1 1 -2 1 2 2 1 
1 -2 1 0 1 -3 1 1 2 1 1 0 1 -1 1 1 
2 3 1 1 1 0 1 0 1 -1 2 2 1 0 1 1 
1 -2 1 0 2 0 1 0 1 0 1 0 2 0 1 0 
1 -1 1 0 1 0 2 0 1 -3 1 1 1 1 2 0 
1 -1 1 -1 1 1 1 0 2 0 1 -3 1 -1 1 1 
1 0 2 4 1 -1 1 0 1 3 2 1 1 1 1 0 
1 2 1 1 2 1 1 -2 1 2 1 -2 2 0 1 1 
1 -1 1 0 1 1 2 0 1 2 1 0 1 1 1 0 
2 -2 1 2 1 2 1 -1 2 1 1 -1 1 1 1 0 
1 1 2 -1 1 0 1 0 1 1 2 -1 1 1 1 -2 
1 -3 1 0 2 2 1 0 1 1 1 -1 1 -1 2 2 
1 1 1 -1 1 -1 4519 946 100 MP stroke
2 0 1 2 1 -3 1 -2 1 1 2 -1 1 1 1 0 
1 2 2 1 1 0 1 0 1 0 1 -1 2 0 1 -2 
1 1 1 1 1 0 2 1 1 0 1 2 1 -2 2 3 
1 3 1 -3 1 -1 1 0 2 -3 1 -2 1 1 1 -2 
2 2 1 1 1 0 1 1 1 0 2 1 1 3 1 2 
1 -1 1 1 2 0 1 2 1 2 1 -1 2 0 1 0 
1 -2 1 1 1 1 2 -2 1 1 1 0 1 1 1 0 
2 0 1 0 1 0 1 1 2 -1 1 -1 1 -1 1 -1 
1 1 2 0 1 0 1 0 1 0 2 0 1 -2 1 -1 
1 1 1 0 2 0 1 1 1 0 1 1 1 0 2 -1 
1 1 1 2 1 1 2 1 1 2 1 -2 1 1 1 4 
2 -3 1 -1 1 0 1 2 2 -1 1 1 1 0 1 1 
1 -2 2 2 1 1 4398 929 100 MP stroke
1 0 1 1 1 0 2 0 1 0 1 0 1 1 2 -1 
1 -1 1 0 1 2 1 -4 2 -5 1 2 1 -5 1 -1 
2 -1 1 0 1 -2 1 0 1 -2 2 -2 1 0 1 -3 
1 -2 1 0 2 1 1 4 1 0 1 -1 2 3 1 0 
1 -1 1 0 1 4 2 5 1 1 1 2 1 0 2 -1 
1 0 1 0 1 -1 1 0 2 -1 1 0 1 2 1 -2 
1 -1 2 -1 1 1 1 0 1 -1 2 1 1 0 1 0 
1 1 1 2 2 0 1 -5 1 1 1 -2 2 0 1 -1 
1 1 1 -2 1 5 2 -5 1 2 1 1 1 -3 1 2 
2 0 1 2 1 0 1 1 2 1 1 1 1 0 1 0 
1 1 2 1 1 1 1 0 1 0 2 1 1 0 1 1 
1 1 1 -1 2 0 1 0 1 0 1 0 1 0 2 -1 
1 0 1 3 1 -1 4278 930 100 MP stroke
2 0 1 -1 1 -1 1 0 1 1 2 -2 1 -1 1 0 
1 -1 2 1 1 -1 1 0 1 0 1 0 2 1 1 1 
1 0 1 -1 1 0 2 -2 1 1 1 -1 1 0 2 -1 
1 1 1 2 1 3 1 0 2 1 1 -1 1 0 1 0 
2 0 1 -1 1 2 1 2 1 1 2 0 1 2 1 2 
1 0 1 0 2 0 1 -1 1 -1 1 -1 2 -1 1 -1 
1 0 1 -2 1 -2 2 -1 1 0 1 3 1 1 2 1 
1 0 1 -1 1 1 1 1 2 0 1 1 1 1 1 3 
1 1 2 1 1 1 1 0 1 -1 2 -1 1 0 1 0 
1 2 1 2 2 2 1 1 1 -1 1 1 2 0 1 1 
1 0 1 0 1 1 2 1 1 -1 1 -1 1 0 1 0 
2 -2 1 1 1 -3 1 -1 2 0 1 0 1 -1 1 -5 
1 1 2 -2 1 0 4157 925 100 MP stroke
1 -1 1 0 2 0 1 -1 1 -1 1 -2 1 0 2 -1 
1 1 1 0 1 0 1 1 2 2 1 -1 1 3 1 1 
2 2 1 0 1 1 1 1 1 -1 2 1 1 0 1 0 
1 0 2 -1 1 -2 1 0 1 0 1 0 2 0 1 0 
1 0 1 0 1 1 2 0 1 3 1 0 1 -1 2 0 
1 1 1 0 1 -1 1 0 2 -1 1 -1 1 -1 1 -1 
2 -1 1 0 1 -2 1 -1 1 0 2 0 1 -1 1 0 
1 0 1 1 2 1 1 -1 1 0 1 -1 2 0 1 -2 
1 -3 1 1 1 -2 2 1 1 1 1 -1 1 -2 2 -1 
1 -1 1 0 1 0 1 0 2 1 1 0 1 0 1 0 
1 0 2 -1 1 0 1 1 1 0 2 -2 1 -1 1 1 
1 0 1 1 2 5 1 0 1 -1 1 -1 2 1 1 0 
1 0 1 0 1 0 4037 934 100 MP stroke
2 -4 1 -2 1 -2 1 0 1 -1 2 -1 1 4 1 -1 
1 0 2 -1 1 -2 1 0 1 -1 1 5 2 0 1 -1 
1 -1 1 -4 1 -2 2 1 1 5 1 2 1 1 2 -4 
1 0 1 1 1 -1 1 5 2 0 1 1 1 0 1 0 
2 -1 1 4 1 -1 1 1 1 0 2 0 1 0 1 1 
1 0 1 2 2 2 1 -2 1 -5 1 2 2 0 1 0 
1 -1 1 0 1 -2 2 0 1 3 1 2 1 0 2 1 
1 0 1 -1 1 -1 1 -1 2 0 1 1 1 1 1 1 
1 0 2 0 1 0 1 0 1 -2 2 -3 1 -1 1 -2 
1 0 1 0 2 0 1 -1 1 1 1 0 2 0 1 0 
1 0 1 0 1 2 2 5 1 1 1 0 1 1 1 3 
2 0 1 1 1 0 1 0 2 0 1 0 1 -2 1 1 
1 0 2 -2 1 0 3916 929 100 MP stroke
1 0 1 0 2 -1 1 0 1 0 1 0 1 0 2 3 
1 1 1 0 1 4 1 -1 2 0 1 0 1 0 1 0 
2 0 1 0 1 -2 1 1 1 -2 2 -1 1 1 1 0 
1 -1 2 -1 1 0 1 -4 1 -1 1 0 2 -1 1 0 
1 0 1 -2 1 0 2 0 1 -2 1 0 1 1 2 -1 
1 -1 1 0 1 -1 1 -1 2 1 1 0 1 0 1 0 
2 1 1 -1 1 1 1 0 1 1 2 1 1 3 1 3 
1 3 1 2 2 0 1 1 1 -1 1 2 2 1 1 2 
1 0 1 2 1 2 2 -1 1 1 1 1 1 1 2 -1 
1 0 1 -1 1 -1 1 -1 2 0 1 0 1 0 1 0 
1 0 2 0 1 1 1 -4 1 0 2 -1 1 1 1 -2 
1 -1 1 0 2 1 1 1 1 0 1 0 2 0 1 0 
1 0 1 0 1 1 3796 922 100 MP stroke
2 -1 1 1 1 -2 1 -1 1 0 2 -3 1 1 1 -1 
1 -1 2 -2 1 -1 1 0 1 -1 1 -3 2 0 1 0 
1 -1 1 -1 2 -1 1 1 1 0 1 0 1 -1 2 -1 
1 1 1 -2 1 0 1 0 2 -1 1 0 1 -1 1 1 
2 -1 1 0 1 0 1 1 1 0 2 0 1 -1 1 -1 
1 -1 2 1 1 -1 1 0 1 -2 1 -1 2 0 1 -2 
1 0 1 -1 1 0 2 -1 1 -1 1 1 1 -2 2 1 
1 -1 1 1 1 2 1 -2 2 -1 1 4 1 -7 1 13 
2 -3 1 1 1 -3 1 5 1 -1 2 -1 1 1 1 0 
1 -1 1 -3 2 -3 1 -4 1 0 1 3 2 1 1 -1 
1 -2 1 -3 1 -1 2 -1 1 -1 1 0 1 -2 2 -2 
1 0 1 4 1 7 1 -3 2 1 1 0 1 0 1 0 
1 0 2 1 1 -5 3675 960 100 MP stroke
1 -3 1 0 2 -1 1 1 1 0 1 2 1 0 2 2 
1 -1 1 -1 1 0 2 -1 1 -2 1 2 1 2 1 3 
2 -2 1 2 1 -2 1 6 1 0 2 -7 1 0 1 -1 
1 1 2 -1 1 2 1 -3 1 1 1 0 2 -7 1 0 
1 -3 1 1 2 0 1 -1 1 1 1 1 1 -1 2 1 
1 0 1 -2 1 0 1 0 2 2 1 2 1 0 1 1 
2 0 1 -2 1 2 1 2 1 -4 2 2 1 0 1 -1 
1 -1 2 -1 1 0 1 -4 1 -1 1 -1 2 -1 1 0 
1 -1 1 0 1 0 2 0 1 0 1 0 1 1 2 0 
1 1 1 1 1 1 1 0 2 1 1 1 1 1 1 0 
2 2 1 -3 1 0 1 1 1 -1 2 2 1 2 1 -2 
1 0 1 1 2 0 1 2 1 1 1 2 2 3 1 -3 
1 -1 1 1 1 1 3555 962 100 MP stroke
2 1 1 0 1 0 1 1 1 2 2 -1 1 -7 1 2 
1 -2 2 3 1 1 1 0 1 1 1 1 2 -2 1 4 
1 1 1 -1 2 1 1 0 1 1 1 0 1 0 2 -1 
1 1 1 -1 1 1 1 -1 2 0 1 -2 1 2 1 -2 
2 -2 1 0 1 0 1 0 1 0 2 0 1 0 1 1 
1 -3 2 -1 1 0 1 -1 1 0 1 -1 2 2 1 2 
1 -4 1 0 1 1 2 0 1 -2 1 1 1 -1 2 1 
1 0 1 1 1 2 1 0 2 2 1 -1 1 1 1 0 
2 1 1 1 1 1 1 1 1 0 2 0 1 -1 1 -1 
1 0 1 2 2 -1 1 0 1 0 1 0 2 0 1 -1 
1 1 1 0 1 1 2 0 1 1 1 1 1 0 2 0 
1 0 1 2 1 1 1 1 2 1 1 2 1 1 1 0 
1 1 2 0 1 0 3434 946 100 MP stroke
1 0 1 1 2 1 1 0 1 0 1 0 1 0 2 0 
1 1 1 1 1 0 2 1 1 -1 1 1 1 0 1 0 
2 0 1 1 1 0 1 1 1 0 2 0 1 -1 1 0 
1 0 2 0 1 1 1 1 1 0 1 0 2 0 1 1 
1 0 1 1 2 -1 1 -1 1 0 1 0 1 0 2 -1 
1 0 1 -1 1 0 1 0 2 0 1 0 1 0 1 1 
2 0 1 0 1 1 1 0 1 0 2 -1 1 -1 1 -1 
1 0 2 -1 1 0 1 0 1 0 1 -1 2 0 1 0 
1 1 1 -1 1 1 2 0 1 0 1 -1 1 1 2 -2 
1 0 1 0 1 -1 1 0 2 0 1 0 1 0 1 1 
2 2 1 0 1 1 1 2 1 1 2 1 1 2 1 0 
1 0 1 1 2 2 1 -1 1 1 1 -1 2 1 1 0 
1 0 1 1 1 0 3314 931 100 MP stroke
2 1 1 0 1 1 1 0 2 0 1 0 1 1 1 -1 
1 1 2 0 1 0 1 1 1 0 1 2 2 0 1 1 
1 0 1 1 2 1 1 0 1 1 1 1 1 0 2 1 
1 0 1 1 1 0 2 1 1 0 1 1 1 -1 1 1 
2 -1 1 0 1 0 1 0 1 -1 2 0 1 0 1 1 
1 0 2 0 1 0 1 1 1 0 1 -2 2 1 1 -1 
1 1 1 0 2 1 1 -1 1 1 1 0 1 2 2 0 
1 -1 1 2 1 1 1 1 2 0 1 0 1 1 1 1 
2 -1 1 0 1 1 1 0 1 1 2 0 1 -1 1 1 
1 0 2 0 1 1 1 1 1 0 1 0 2 0 1 0 
1 1 1 2 1 0 2 1 1 0 1 0 1 1 2 2 
1 1 1 1 1 1 1 2 2 1 1 1 1 2 1 0 
2 0 1 1 1 1 3193 888 100 MP stroke
1 0 1 1 2 0 1 0 1 1 1 0 1 0 2 1 
1 0 1 0 1 2 2 1 1 0 1 0 1 0 1 0 
2 0 1 1 1 2 1 0 2 1 1 0 1 1 1 0 
1 1 2 1 1 0 1 -1 1 1 1 0 2 0 1 2 
1 0 1 -1 2 1 1 0 1 0 1 0 1 1 2 2 
1 1 1 1 1 1 2 1 1 2 1 1 1 2 1 0 
2 0 1 2 1 -5 1 0 1 5 2 -4 1 2 1 -1 
1 2 2 0 1 2 1 1 1 2 1 0 2 2 1 0 
1 2 1 0 1 0 2 1 1 0 1 1 1 0 2 0 
1 0 1 -1 1 0 1 -1 2 0 1 0 1 0 1 -1 
2 0 1 1 1 0 1 0 1 2 2 0 1 1 1 0 
1 0 1 0 2 0 1 1 1 0 1 0 2 1 1 0 
1 1 1 0 1 1 3073 844 100 MP stroke
2 1 1 1 1 1 1 2 2 1 1 1 1 0 1 2 
1 1 2 1 1 0 1 1 1 1 1 3 2 2 1 0 
1 -2 1 0 2 -1 1 0 1 -1 1 1 1 -1 2 1 
1 1 1 0 1 -1 2 0 1 1 1 -1 1 1 1 -1 
2 0 1 0 1 4 1 -3 1 1 2 -3 1 5 1 -2 
1 -4 2 0 1 -3 1 5 1 -3 1 4 2 2 1 -4 
1 3 1 1 2 -7 1 6 1 -1 1 0 1 2 2 0 
1 -3 1 1 1 1 1 -7 2 4 1 1 1 0 1 -1 
2 -3 1 2 1 -1 1 1 1 5 2 0 1 0 1 -3 
1 1 2 1 1 0 1 0 1 0 1 0 2 -1 1 0 
1 -1 1 0 1 -1 2 -1 1 1 1 1 1 1 2 -1 
1 1 1 1 1 1 1 1 2 2 1 -3 1 2 1 0 
2 1 1 1 1 1 2952 821 100 MP stroke
1 0 1 2 2 1 1 1 1 -3 1 0 1 -1 2 1 
1 -1 1 -2 1 0 2 0 1 -1 1 -1 1 2 1 0 
2 0 1 -1 1 3 1 2 2 -3 1 -2 1 1 1 1 
1 -1 2 -4 1 1 1 0 1 2 1 -5 2 0 1 3 
1 0 1 0 2 -3 1 -1 1 1 1 -3 1 2 2 0 
1 1 1 0 1 0 2 -1 1 -1 1 -4 1 0 1 2 
2 -1 1 0 1 1 1 0 1 -1 2 -3 1 4 1 -2 
1 0 2 -1 1 1 1 -1 1 2 1 -4 2 3 1 -2 
1 -4 1 1 2 -1 1 -4 1 -3 1 1 1 1 2 -1 
1 -1 1 -2 1 2 1 -2 2 -2 1 -1 1 3 1 0 
2 -1 1 0 1 0 1 2 1 1 2 0 1 2 1 -1 
1 2 2 -2 1 3 1 0 1 -1 1 1 2 5 1 -5 
1 -1 1 0 1 -4 2832 849 100 MP stroke
2 1 1 1 1 0 1 2 2 -2 1 -1 1 1 1 0 
1 0 2 0 1 1 1 0 1 0 2 -3 1 2 1 -2 
1 6 1 -2 2 -2 1 0 1 -1 1 -2 1 2 2 0 
1 -3 1 2 1 -1 2 0 1 -3 1 0 1 -1 1 2 
2 0 1 1 1 -3 1 1 2 -2 1 0 1 -1 1 0 
1 0 2 1 1 -1 1 3 1 -1 1 -3 2 0 1 -1 
1 0 1 0 2 0 1 0 1 -3 1 -1 1 1 2 -2 
1 -1 1 -1 1 3 2 0 1 -3 1 0 1 -1 1 1 
2 -1 1 2 1 4 1 -2 1 -4 2 -1 1 -2 1 5 
1 -2 2 1 1 -4 1 -3 1 2 1 -1 2 -1 1 2 
1 5 1 -5 2 3 1 2 1 -3 1 1 1 -4 2 0 
1 1 1 0 1 -2 1 2 2 -3 1 0 1 -4 1 4 
2 -1 1 2 1 -8 2711 880 100 MP stroke
1 3 1 -3 2 6 1 -6 1 -3 1 -1 2 0 1 -3 
1 3 1 3 1 -6 2 -2 1 0 1 -1 1 2 1 2 
2 0 1 0 1 2 1 2 2 -5 1 -3 1 -3 1 3 
1 -4 2 -6 1 -1 1 1 1 -3 1 -1 2 0 1 -3 
1 2 1 0 2 0 1 -3 1 -1 1 -3 1 -1 2 -3 
1 -4 1 -3 1 -3 2 0 1 1 1 0 1 0 1 0 
2 -3 1 -7 1 -2 1 -5 1 -2 2 1 1 -2 1 1 
1 0 2 1 1 -1 1 -2 1 0 1 -1 2 0 1 -1 
1 1 1 -2 2 -2 1 0 1 -2 1 0 1 1 2 0 
1 0 1 -1 1 0 1 0 2 0 1 0 1 0 1 -2 
2 -5 1 -1 1 -1 1 0 1 0 2 -2 1 1 1 0 
1 0 2 -1 1 -1 1 -2 1 -1 1 0 2 -4 1 -1 
1 -3 1 -2 1 -2 2591 980 100 MP stroke
2 1 1 1 1 -2 1 2 2 -1 1 0 1 -2 1 1 
1 -2 2 0 1 -3 1 -1 1 -2 2 1 1 1 1 -2 
1 4 1 1 2 0 1 0 1 -2 1 -1 1 0 2 -2 
1 1 1 3 1 -7 2 -1 1 1 1 1 1 0 1 3 
2 0 1 2 1 0 1 -1 2 -3 1 1 1 -2 1 2 
1 -3 2 0 1 -4 1 -5 1 6 1 -2 2 1 1 -1 
1 -5 1 0 2 0 1 2 1 -2 1 -1 1 -1 2 -2 
1 0 1 0 1 1 2 1 1 -1 1 -1 1 0 1 1 
2 -1 1 2 1 -1 1 2 1 0 2 0 1 -1 1 4 
1 -1 2 -2 1 0 1 0 1 -2 1 3 2 -2 1 1 
1 -2 1 1 2 -2 1 0 1 0 1 2 1 -2 2 4 
1 3 1 3 1 0 1 0 2 0 1 1 1 1 1 2 
2 1 1 6 1 2 2470 982 100 MP stroke
1 2 1 1 2 2 1 3 1 -1 1 1 2 3 1 -1 
1 1 1 1 1 3 2 5 1 -3 1 -3 1 1 1 8 
2 0 1 0 1 2 1 -2 2 2 1 -2 1 1 1 2 
1 1 2 1 1 5 1 -1 1 3 2 -3 1 5 1 -2 
1 -1 1 -2 2 0 1 -1 1 1 1 0 1 2 2 1 
1 1 1 0 1 2 2 1 1 2 1 -2 1 2 1 3 
2 -1 1 -4 1 0 1 -1 2 0 1 -5 1 -1 1 -1 
1 4 2 2 1 -2 1 -5 1 1 1 0 2 -1 1 -3 
1 2 1 6 2 2 1 -1 1 -3 1 -2 1 1 2 0 
1 4 1 1 1 -3 2 -1 1 0 1 -3 1 -1 1 0 
2 4 1 2 1 -3 1 1 1 0 2 -1 1 -2 1 2 
1 1 2 -2 1 3 1 -1 1 -1 1 -2 2 -1 1 3 
1 1 1 -1 2 0 2349 950 100 MP stroke
1 0 1 -1 1 -1 1 2 2 3 1 1 1 -1 1 -2 
1 0 2 0 1 1 1 2 1 -1 2 -2 1 0 1 1 
1 0 1 -1 2 -1 1 -1 1 1 1 1 2 0 1 1 
1 -1 1 0 1 -2 2 -1 1 -1 1 1 1 1 1 0 
2 0 1 -2 1 0 1 0 2 0 1 0 1 1 1 2 
1 4 2 0 1 0 1 0 1 2 2 -3 1 -1 1 4 
1 1 1 1 2 0 1 1 1 1 1 1 1 0 2 2 
1 -1 1 1 1 -1 2 2 1 2 1 -1 1 0 1 -1 
2 -3 1 1 1 1 1 3 2 0 1 0 1 0 1 -1 
1 0 2 0 1 1 1 2 1 -1 1 1 2 1 1 3 
1 1 1 0 2 1 1 0 1 -2 1 4 1 -3 2 2 
1 -1 1 1 1 -1 2 3 1 0 1 -1 1 1 1 1 
2 0 1 -1 1 -1 2229 924 100 MP stroke
1 0 1 -1 2 1 1 0 1 1 1 -2 2 0 1 0 
1 0 1 2 1 0 2 -2 1 0 1 2 1 0 1 1 
2 0 1 -2 1 -2 1 -1 2 -1 1 1 1 0 1 -1 
1 2 2 0 1 0 1 -2 1 -1 2 -1 1 0 1 0 
1 1 1 0 2 0 1 0 1 -3 1 1 1 2 2 -1 
1 -2 1 0 1 2 2 -1 1 0 1 0 1 5 1 -2 
2 2 1 1 1 1 1 -1 2 2 1 1 1 1 1 0 
1 0 2 2 1 0 1 0 1 1 1 0 2 1 1 1 
1 1 1 0 2 1 1 0 1 -1 1 1 1 0 2 0 
1 -1 1 0 1 -1 2 1 1 1 1 -3 1 1 1 -2 
2 0 1 1 1 1 1 -2 1 0 2 -1 1 -1 1 -1 
1 3 2 -1 1 -1 1 0 1 0 1 0 2 0 1 0 
1 3 1 0 2 -1 2108 918 100 MP stroke
1 -1 1 -3 1 -2 1 2 2 -2 1 3 1 -2 1 2 
1 1 2 2 1 1 1 1 1 -4 2 2 1 0 1 2 
1 0 1 1 2 2 1 -1 1 -1 1 1 2 -1 1 1 
1 1 1 1 1 2 2 1 1 0 1 0 1 1 1 1 
2 -1 1 -1 1 -1 1 1 2 0 1 2 1 1 1 -1 
1 -1 2 1 1 0 1 0 1 -1 2 1 1 0 1 2 
1 1 1 0 2 0 1 0 1 0 1 1 1 2 2 1 
1 -1 1 0 1 0 2 2 1 0 1 2 1 0 1 0 
2 1 1 0 1 0 1 3 2 -1 1 0 1 1 1 1 
1 1 2 0 1 2 1 2 1 0 1 1 2 1 1 0 
1 1 1 2 2 0 1 2 1 1 1 1 1 0 2 0 
1 -1 1 0 1 -1 2 -1 1 -1 1 1 1 -2 1 1 
2 0 1 1 1 -2 1988 883 100 MP stroke
1 0 1 0 2 1 1 -1 1 0 1 -1 2 -1 1 -1 
1 0 1 -2 1 0 2 -1 1 1 1 0 1 -1 2 0 
1 1 1 0 1 2 1 0 2 2 1 2 1 1 1 1 
1 1 2 1 1 0 1 1 1 -1 2 0 1 -1 1 -2 
1 0 1 -1 2 0 1 0 1 0 1 -1 2 2 1 -1 
1 1 1 -1 1 1 2 0 1 1 1 0 1 0 1 -1 
2 1 1 -2 1 -1 1 0 2 0 1 -2 1 0 1 -1 
1 0 2 -1 1 -2 1 -2 1 1 2 -1 1 -1 1 -1 
1 0 1 -2 2 -1 1 -2 1 1 1 -4 1 -1 2 -1 
1 0 1 -3 1 -1 2 -1 1 0 1 1 1 -2 1 -1 
2 0 1 -2 1 0 1 -2 2 0 1 0 1 0 1 -1 
1 -1 2 0 1 1 1 -1 1 1 1 -1 2 1 1 -1 
1 1 1 -1 2 1 1867 915 100 MP stroke
1 0 1 0 1 -2 1 0 2 -2 1 -1 1 1 1 -1 
2 -2 1 -1 1 -3 1 1 1 -1 2 1 1 0 1 0 
1 -1 1 1 2 0 1 1 1 -1 1 1 2 -1 1 0 
1 0 1 2 1 -1 2 1 1 -1 1 1 1 1 2 1 
1 -1 1 1 1 -1 1 2 2 1 1 0 1 1 1 2 
1 -1 2 1 1 -1 1 1 1 1 2 0 1 -1 1 1 
1 -1 1 1 2 1 1 1 1 -1 1 1 2 1 1 1 
1 -1 1 1 1 -1 2 1 1 1 1 1 1 0 1 0 
2 0 1 2 1 1 1 1 2 1 1 2 1 2 1 3 
1 0 2 2 1 2 1 -1 1 2 1 2 2 1 1 2 
1 0 1 1 2 0 1 1 1 0 1 0 1 -2 2 0 
1 0 1 0 1 -2 2 0 1 -2 1 -1 1 -1 1 1 
2 0 1 1 1 -2 1747 893 100 MP stroke
1 1 1 3 2 -1 1 0 1 3 1 0 2 -1 1 0 
1 0 1 0 1 2 2 0 1 -1 1 1 1 1 2 1 
1 0 1 0 1 2 1 1 2 1 1 0 1 2 1 -1 
1 1 2 -2 1 2 1 -1 1 1 2 -2 1 2 1 0 
1 2 1 -1 2 0 1 0 1 1 1 1 2 2 1 -1 
1 -1 1 -1 1 2 2 -1 1 1 1 -1 1 0 1 -1 
2 1 1 0 1 -2 1 0 2 1 1 0 1 3 1 -2 
1 0 2 1 1 0 1 1 1 2 2 0 1 2 1 3 
1 1 1 2 2 0 1 1 1 2 1 0 1 -1 2 1 
1 2 1 0 1 1 2 1 1 1 1 1 1 2 1 0 
2 1 1 0 1 2 1 0 2 -2 1 2 1 2 1 -1 
1 0 2 2 1 -1 1 -1 1 -2 1 -1 2 0 1 1 
1 1 1 0 2 -3 1626 852 100 MP stroke
1 0 1 -1 1 -1 1 3 2 0 1 -2 1 -4 1 0 
2 0 1 1 1 0 1 -1 1 -1 2 -1 1 -3 1 0 
1 -1 1 1 2 -1 1 0 1 -2 1 -1 2 -3 1 -3 
1 -1 1 -1 1 0 2 -1 1 -1 1 0 1 -1 2 1 
1 0 1 -2 1 0 1 1 2 -1 1 1 1 -1 1 0 
1 2 2 3 1 4 1 6 1 6 2 6 1 7 1 7 
1 5 1 2 2 1 1 0 1 0 1 -1 2 -2 1 0 
1 -1 1 -2 1 -1 2 1 1 -2 1 -1 1 0 1 -2 
2 -2 1 -2 1 -2 1 -2 2 -2 1 -5 1 -5 1 -3 
1 -3 2 1 1 -1 1 1 1 -1 2 -3 1 -2 1 1 
1 -1 1 1 2 -2 1 0 1 -5 1 -3 1 -2 2 -1 
1 -1 1 1 1 0 2 0 1 -3 1 0 1 0 1 4 
2 2 1 1 1 -2 1506 881 100 MP stroke
1 0 2 -1 1 -2 1 -3 1 -3 1 -4 2 -1 1 -4 
1 2 1 -5 1 -3 2 -2 1 3 1 2 1 -3 2 -2 
1 -1 1 -1 1 -1 1 -4 2 2 1 -3 1 -3 1 -2 
2 1 1 -2 1 -2 1 -5 1 6 2 -2 1 3 1 -1 
1 3 1 -1 2 3 1 -4 1 1 1 0 2 4 1 0 
1 5 1 0 1 5 2 3 1 4 1 0 1 3 2 1 
1 7 1 1 1 4 1 1 2 5 1 1 1 3 1 0 
1 4 2 1 1 4 1 1 1 5 2 0 1 3 1 0 
1 3 1 2 2 5 1 3 1 4 1 2 2 4 1 4 
1 4 1 2 1 1 2 0 1 0 1 0 1 2 1 0 
2 -1 1 0 1 1 1 0 2 2 1 -1 1 2 1 1 
1 3 2 1 1 5 1 0 1 1 2 2 1 2 1 1 
1 2 1 0 2 3 1385 795 100 MP stroke
1 1 1 1 1 2 1 0 2 1 1 0 1 0 1 1 
2 0 1 0 1 0 1 -1 1 0 2 1 1 -1 1 -1 
1 -2 2 0 1 -1 1 1 1 -1 1 -1 2 -2 1 1 
1 0 1 -1 1 -3 2 1 1 -1 1 1 1 -2 2 3 
1 -1 1 2 1 -2 1 4 2 -3 1 3 1 3 1 4 
1 -2 2 3 1 -1 1 3 1 0 2 2 1 -1 1 1 
1 -1 1 2 2 -1 1 2 1 0 1 1 2 2 1 -2 
1 0 1 -1 1 0 2 -2 1 -1 1 1 1 -1 1 1 
2 -2 1 0 1 -1 1 -1 2 -1 1 -2 1 -2 1 -2 
1 -2 2 -1 1 0 1 -2 1 0 2 -1 1 0 1 -1 
1 1 1 0 2 0 1 0 1 0 1 -1 1 1 2 1 
1 1 1 1 1 1 2 0 1 1 1 1 1 0 1 -1 
2 0 1 -1 1 0 1265 796 100 MP stroke
1 2 2 1 1 1 1 1 1 1 1 0 2 1 1 -1 
1 0 1 0 1 0 2 2 1 -2 1 0 1 0 2 -1 
1 0 1 0 1 1 1 2 2 1 1 2 1 1 1 -1 
2 -3 1 1 1 1 1 0 1 -1 2 0 1 1 1 -1 
1 3 1 -1 2 1 1 -1 1 -1 1 0 2 -2 1 -1 
1 -2 1 -1 1 -2 2 -2 1 -1 1 -1 1 0 2 -1 
1 0 1 1 1 2 1 0 2 1 1 1 1 1 1 1 
1 1 2 -1 1 1 1 0 1 1 2 0 1 -1 1 0 
1 0 1 1 2 0 1 0 1 -1 1 0 2 -1 1 -1 
1 -2 1 -2 1 -1 2 -2 1 2 1 0 1 -2 1 1 
2 -1 1 1 1 -2 1 -2 2 0 1 -2 1 -2 1 1 
1 -4 2 0 1 -4 1 0 1 -5 2 -2 1 -2 1 -1 
1 -2 1 -1 2 -1 1144 828 100 MP stroke
1 -2 1 -2 1 0 1 0 2 -2 1 -1 1 -1 1 -1 
2 -1 1 -2 1 -1 1 -2 1 -1 2 -1 1 -2 1 0 
1 -2 2 -1 1 1 1 0 1 1 1 0 2 1 1 0 
1 3 1 -2 1 1 2 0 1 0 1 0 1 1 2 -1 
1 0 1 0 1 2 1 2 2 1 1 1 1 1 1 -1 
2 1 1 1 1 2 1 -1 1 2 2 3 1 -1 1 1 
1 0 1 0 2 0 1 1 1 0 1 0 2 1 1 1 
1 1 1 2 1 -1 2 -2 1 1 1 -2 1 0 2 -2 
1 -1 1 -1 1 -1 1 0 2 -1 1 0 1 -1 1 -1 
1 0 2 0 1 -1 1 2 1 -1 2 -2 1 -1 1 -1 
1 -2 1 -2 2 0 1 -1 1 1 1 -1 2 0 1 0 
1 0 1 0 1 0 2 -1 1 -1 1 -1 1 0 1 -3 
2 1 1 -2 1 -1 1024 854 100 MP stroke
1 -3 2 0 1 -2 1 -3 1 -2 1 -3 2 -3 1 -2 
1 -3 1 1 2 -1 1 1 1 -1 1 0 1 3 2 1 
1 3 1 2 1 2 1 2 2 3 1 -1 1 0 1 1 
2 2 1 0 1 1 1 1 1 1 2 1 1 2 1 0 
1 1 2 1 1 1 1 2 1 1 1 4 2 0 1 1 
1 1 1 1 1 0 2 0 1 -1 1 0 1 0 2 1 
1 -1 1 -2 1 0 1 2 2 1 1 0 1 1 1 0 
2 0 1 -2 1 -2 1 -2 1 -1 2 -2 1 0 1 -3 
1 -2 1 -1 2 -1 1 -1 1 -1 1 -2 2 -1 1 0 
1 0 1 -1 1 -1 2 -1 1 -2 1 -2 1 -4 2 0 
1 -1 1 1 1 -2 1 0 2 -1 1 -1 1 -1 1 -1 
1 -3 2 -3 1 -2 1 1 1 0 2 -3 1 -2 1 -2 
1 -1 1 -1 2 -1 903 892 100 MP stroke
1 0 1 0 1 1 1 -1 899 892 5 MP stroke
/c9 { 0.000000 0.500000 0.000000 sr} bdef
c9
1 -1 1 -2 1 -3 2 -3 1 -1 1 -2 1 -3 1 -2 
2 -1 1 -6 1 0 1 -2 2 -2 1 -1 1 -1 1 -4 
1 -2 2 0 1 -1 1 0 1 -3 1 -2 2 -3 1 1 
1 -2 1 0 2 -2 1 -2 1 -1 1 -1 1 0 2 0 
1 -1 1 -2 1 -2 2 -1 1 0 1 -3 1 1 1 0 
2 -1 1 0 1 -1 1 -2 1 -1 2 -2 1 -2 1 0 
1 -1 2 0 1 -1 1 -1 1 -2 1 -1 2 -2 1 -1 
1 -1 1 0 2 -2 1 -1 1 -1 1 -1 1 -1 2 -1 
1 -1 1 0 1 0 1 -1 2 -2 1 -1 1 0 1 0 
2 -2 1 0 1 -2 1 1 1 -2 2 -2 1 -1 1 -2 
1 0 2 -2 1 -1 1 0 1 -1 1 -1 2 -1 1 -1 
1 -2 1 -1 1 0 2 -1 1 -2 1 1 1 -2 2 0 
1 0 1 -1 1 -1 5965 3731 100 MP stroke
1 -1 2 1 1 1 1 -3 1 -1 2 -3 1 0 1 0 
1 0 1 -1 2 0 1 0 1 0 1 0 1 -2 2 0 
1 -1 1 1 1 -3 2 0 1 0 1 0 1 1 1 1 
2 -1 1 1 1 -1 1 1 2 1 1 0 1 0 1 -1 
1 1 2 0 1 -1 1 -1 1 -1 1 1 2 1 1 -1 
1 0 1 1 2 0 1 -1 1 1 1 -1 1 2 2 -2 
1 0 1 -2 1 1 2 1 1 3 1 -3 1 -4 1 3 
2 -2 1 1 1 -2 1 0 1 -1 2 0 1 0 1 0 
1 -1 2 -2 1 -1 1 0 1 1 1 1 2 -1 1 0 
1 1 1 3 2 -5 1 0 1 -2 1 0 1 -4 2 4 
1 0 1 0 1 -2 1 0 2 -1 1 0 1 0 1 2 
2 0 1 0 1 -1 1 0 1 -2 2 1 1 -2 1 3 
1 1 2 -1 1 1 5844 3754 100 MP stroke
1 0 1 -1 1 0 2 -6 1 -1 1 0 1 4 1 1 
2 -4 1 1 1 -1 1 0 2 2 1 4 1 1 1 1 
1 -2 2 0 1 0 1 1 1 -4 2 -2 1 -1 1 0 
1 1 1 0 2 -1 1 0 1 2 1 1 1 -4 2 0 
1 1 1 -1 1 7 2 -2 1 1 1 0 1 0 1 -2 
2 2 1 0 1 0 1 -1 1 1 2 -2 1 0 1 -3 
1 0 2 -1 1 0 1 -2 1 0 1 1 2 0 1 -2 
1 -1 1 1 2 3 1 2 1 0 1 -1 1 0 2 -1 
1 0 1 0 1 3 1 0 2 0 1 0 1 1 1 -2 
2 -3 1 0 1 1 1 -2 1 0 2 2 1 -1 1 0 
1 0 2 -2 1 2 1 2 1 -1 1 1 2 0 1 1 
1 0 1 0 1 -3 2 2 1 -1 1 4 1 3 2 -2 
1 2 1 3 1 0 5724 3752 100 MP stroke
1 0 2 0 1 1 1 0 1 1 2 1 1 0 1 0 
1 0 1 0 2 1 1 -1 1 0 1 7 1 1 2 0 
1 1 1 -2 1 0 2 -1 1 0 1 0 1 0 1 -1 
2 -1 1 0 1 1 1 -2 2 1 1 0 1 2 1 -1 
1 0 2 -2 1 2 1 -2 1 -1 1 -6 2 2 1 2 
1 -1 1 -2 2 -2 1 0 1 1 1 -1 1 2 2 0 
1 -1 1 -1 1 0 2 0 1 1 1 1 1 -1 1 1 
2 -1 1 1 1 1 1 0 1 1 2 -2 1 0 1 0 
1 0 2 -1 1 -1 1 0 1 -1 1 1 2 -2 1 -1 
1 -2 1 1 2 1 1 -3 1 0 1 3 1 1 2 0 
1 3 1 1 1 1 1 -2 2 1 1 -2 1 1 1 3 
2 -1 1 -1 1 0 1 -1 1 0 2 -1 1 2 1 -2 
1 -2 2 -4 1 -2 5603 3762 100 MP stroke
1 0 1 0 1 3 2 0 1 -2 1 -1 1 -3 1 -2 
2 -1 1 1 1 2 1 0 2 -2 1 -2 1 -1 1 -3 
1 1 2 -1 1 1 1 2 1 -1 2 1 1 -2 1 0 
1 -1 1 1 2 -1 1 3 1 2 1 0 1 0 2 -2 
1 0 1 0 1 0 2 1 1 0 1 5 1 0 1 1 
2 -1 1 -1 1 -1 1 -2 2 0 1 0 1 1 1 -2 
1 3 2 0 1 0 1 0 1 0 1 -3 2 -1 1 0 
1 0 1 1 2 0 1 -1 1 0 1 -3 1 0 2 -1 
1 0 1 0 1 -1 2 0 1 -2 1 -5 1 -1 1 0 
2 0 1 -1 1 -2 1 -2 1 -1 2 0 1 1 1 -2 
1 0 2 -3 1 1 1 -6 1 0 1 -2 2 -2 1 -2 
1 0 1 2 2 0 1 0 1 -1 1 0 1 0 2 -1 
1 -3 1 -3 1 -1 5483 3811 100 MP stroke
1 0 2 -1 1 -1 1 0 1 1 2 -1 1 1 1 -2 
1 0 1 -2 2 -7 1 -6 1 -1 1 0 2 1 1 -2 
1 1 1 0 1 -2 2 -1 1 -1 1 -4 1 1 1 -3 
2 -1 1 1 1 -1 1 -1 2 -2 1 -2 1 1 1 1 
1 -1 2 -6 1 -1 1 2 1 0 2 0 1 -1 1 0 
1 -2 1 -4 2 -1 1 0 1 0 1 -3 1 -4 2 0 
1 -2 1 1 1 -1 2 0 1 -1 1 -3 1 0 1 -1 
2 1 1 -2 1 0 1 -3 2 -2 1 2 1 -2 1 1 
1 0 2 1 1 0 1 -1 1 2 1 -3 2 -1 1 1 
1 0 1 -1 2 -1 1 -5 1 -3 1 2 1 -1 2 0 
1 -1 1 1 1 0 2 1 1 -3 1 1 1 0 1 -2 
2 -1 1 0 1 0 1 -1 1 0 2 1 1 1 1 -1 
1 0 2 0 1 1 5362 3890 100 MP stroke
1 -1 1 -1 1 0 2 0 1 1 1 1 1 1 1 1 
2 -6 1 0 1 1 1 0 2 2 1 2 1 1 1 0 
1 1 2 -4 1 5 1 2 1 1 2 1 1 -2 1 -1 
1 2 1 2 2 1 1 0 1 -1 1 1 1 1 2 2 
1 -1 1 -1 1 2 2 4 1 2 1 0 1 1 1 2 
2 2 1 2 1 0 1 1 2 1 1 4 1 0 1 0 
1 2 2 1 1 3 1 1 1 -1 1 2 2 3 1 0 
1 0 1 4 2 1 1 -2 1 2 1 -1 1 3 2 0 
1 4 1 0 1 1 2 2 1 1 1 1 1 0 1 0 
2 1 1 1 1 0 1 -2 1 1 2 0 1 2 1 1 
1 0 2 0 1 0 1 2 1 0 1 -1 2 0 1 -1 
1 2 1 2 2 -1 1 0 1 2 1 2 1 -3 2 1 
1 4 1 1 1 0 5242 3817 100 MP stroke
1 -2 2 -1 1 2 1 1 1 1 2 -1 1 -1 1 1 
1 0 1 1 2 0 1 2 1 -1 1 2 2 1 1 -1 
1 2 1 1 1 1 2 0 1 0 1 1 1 1 1 0 
2 -1 1 1 1 1 1 0 2 1 1 0 1 0 1 0 
1 1 2 0 1 1 1 -1 1 -3 2 1 1 1 1 -1 
1 -1 1 -1 2 0 1 1 1 0 1 -1 1 0 2 -1 
1 1 1 -1 1 -1 2 1 1 0 1 0 1 2 1 1 
2 -1 1 0 1 0 1 -1 2 1 1 0 1 -1 1 1 
1 -1 2 1 1 0 1 0 1 0 1 0 2 -1 1 0 
1 0 1 -1 2 0 1 0 1 0 1 -1 1 0 2 1 
1 2 1 0 1 -1 2 0 1 0 1 0 1 0 1 0 
2 0 1 0 1 1 1 -1 1 1 2 1 1 0 1 0 
1 0 2 -2 1 1 5121 3807 100 MP stroke
1 0 1 -1 1 -2 2 2 1 0 1 -2 1 0 2 0 
1 0 1 0 1 3 1 0 2 0 1 -2 1 -1 1 -1 
1 1 2 -2 1 0 1 -1 1 0 2 0 1 -1 1 0 
1 0 1 -1 2 -2 1 -1 1 0 1 -1 2 0 1 0 
1 0 1 0 1 0 2 1 1 -1 1 -1 1 0 1 -1 
2 -2 1 2 1 0 1 0 2 0 1 -1 1 1 1 0 
1 0 2 -1 1 2 1 -1 1 0 2 3 1 1 1 0 
1 -1 1 1 2 0 1 0 1 -1 1 0 1 0 2 0 
1 1 1 0 1 0 2 1 1 0 1 1 1 0 1 0 
2 0 1 -1 1 -1 1 0 2 0 1 0 1 -1 1 -1 
1 0 2 0 1 -2 1 1 1 -1 1 -2 2 0 1 0 
1 -1 1 0 2 0 1 1 1 0 1 -1 1 1 2 0 
1 0 1 0 1 0 5001 3823 100 MP stroke
2 1 1 -1 1 0 1 -1 1 0 2 0 1 0 1 0 
1 1 1 0 2 0 1 0 1 1 1 0 2 -1 1 0 
1 0 1 0 1 -1 2 1 1 1 1 -1 1 0 2 2 
1 0 1 0 1 1 1 0 2 0 1 0 1 0 1 1 
1 0 2 0 1 1 1 0 1 0 2 0 1 0 1 1 
1 2 1 0 2 0 1 0 1 0 1 0 2 0 1 -1 
1 -1 1 8 1 2 2 -1 1 1 1 -1 1 -1 1 0 
2 0 1 0 1 1 1 1 2 -1 1 0 1 0 1 -1 
1 0 2 0 1 -1 1 1 1 0 2 -1 1 -1 1 -1 
1 -3 1 0 2 0 1 0 1 0 1 1 1 -2 2 1 
1 -2 1 1 1 -4 2 -4 1 1 1 -2 1 0 1 -1 
2 -1 1 -1 1 0 1 1 1 0 2 -2 1 -1 1 -1 
1 -1 2 0 1 0 4880 3832 100 MP stroke
1 -3 1 0 1 -1 2 3 1 -3 1 -4 1 1 2 -1 
1 -1 1 -1 1 1 1 3 2 -6 1 -4 1 5 1 -4 
1 -3 2 0 1 0 1 1 1 -1 2 2 1 -1 1 -5 
1 -1 1 1 2 0 1 0 1 0 1 -1 2 -1 1 2 
1 -3 1 -2 1 0 2 0 1 -1 1 -1 1 -1 1 0 
2 -1 1 -1 1 -1 1 -1 2 -1 1 0 1 -1 1 3 
1 -1 2 -8 1 2 1 -2 1 1 2 -3 1 1 1 -1 
1 0 1 -1 2 0 1 -3 1 1 1 -4 1 -3 2 3 
1 -2 1 -1 1 1 2 -1 1 -2 1 -2 1 2 1 -2 
2 -3 1 -1 1 -3 1 0 2 -3 1 0 1 0 1 -1 
1 -2 2 -1 1 -2 1 -3 1 -2 1 0 2 -2 1 -2 
1 -1 1 0 2 -1 1 -1 1 -2 1 -2 1 -1 2 -2 
1 -1 1 -2 1 -1 4760 3929 100 MP stroke
2 -1 1 -2 1 -2 1 -1 1 -2 2 1 1 -1 1 -1 
1 0 1 -1 2 -2 1 0 1 -1 1 0 2 0 1 -1 
1 0 1 0 1 1 2 0 1 0 1 1 1 0 2 1 
1 1 1 -1 1 4 1 1 2 -1 1 1 1 -1 1 2 
1 0 2 2 1 1 1 1 1 1 2 1 1 1 1 1 
1 1 1 2 2 0 1 1 1 0 1 1 2 1 1 1 
1 1 1 2 1 1 2 1 1 0 1 1 1 0 1 1 
2 1 1 5 1 -1 1 1 2 1 1 0 1 -1 1 0 
1 0 2 1 1 1 1 0 1 -2 2 -1 1 1 1 -1 
1 1 1 -3 2 0 1 -1 1 0 1 -1 1 0 2 -1 
1 0 1 -1 1 0 2 0 1 0 1 -1 1 0 1 -1 
2 -1 1 0 1 0 1 0 2 -2 1 0 1 0 1 0 
1 -1 2 0 1 -1 4639 3920 100 MP stroke
1 0 1 0 1 0 2 -2 1 0 1 0 1 -1 2 0 
1 0 1 0 1 -2 1 -1 2 -1 1 1 1 -1 1 0 
2 -1 1 0 1 0 1 1 1 0 2 0 1 -1 1 1 
1 0 1 0 2 -1 1 1 1 1 1 1 2 0 1 0 
1 1 1 1 1 -1 2 3 1 -1 1 1 1 1 2 0 
1 -1 1 -1 1 2 1 0 2 1 1 -3 1 -1 1 1 
1 -1 2 3 1 -2 1 -1 1 1 2 0 1 1 1 -2 
1 0 1 0 2 0 1 -2 1 2 1 -3 2 0 1 -1 
1 1 1 0 1 0 2 -1 1 -2 1 1 1 1 1 -1 
2 -1 1 0 1 2 1 0 2 0 1 0 1 0 1 1 
1 -1 2 0 1 -2 1 1 1 1 2 0 1 -2 1 -3 
1 0 1 2 2 2 1 0 1 -1 1 1 1 1 2 1 
1 0 1 0 1 1 4519 3925 100 MP stroke
2 0 1 1 1 2 1 1 1 -1 2 0 1 2 1 2 
1 -1 2 -1 1 -1 1 1 1 1 1 -1 2 0 1 1 
1 0 1 1 1 -2 2 0 1 0 1 3 1 -2 2 0 
1 2 1 -1 1 0 1 2 2 -1 1 0 1 0 1 1 
2 0 1 -1 1 0 1 0 1 0 2 1 1 -2 1 -2 
1 0 1 0 2 1 1 0 1 -2 1 -1 2 2 1 0 
1 1 1 1 1 1 2 -2 1 0 1 0 1 0 1 -1 
2 0 1 0 1 0 1 0 2 0 1 0 1 0 1 1 
1 1 2 0 1 2 1 -1 1 2 2 0 1 0 1 3 
1 0 1 2 2 0 1 1 1 0 1 2 1 1 2 -1 
1 1 1 0 1 0 2 2 1 2 1 -2 1 2 1 2 
2 -4 1 2 1 -1 1 0 2 0 1 0 1 0 1 0 
1 2 2 -1 1 1 4398 3901 100 MP stroke
1 -1 1 0 1 -1 2 1 1 0 1 0 1 1 2 0 
1 -1 1 3 1 0 1 0 2 2 1 2 1 -3 1 0 
2 0 1 1 1 -1 1 1 1 1 2 -1 1 0 1 3 
1 1 1 -1 2 0 1 -2 1 -1 1 1 2 1 1 -1 
1 0 1 -1 1 -1 2 -2 1 -1 1 -2 1 -1 2 0 
1 -1 1 -1 1 -1 1 0 2 -1 1 0 1 -1 1 -1 
1 -1 2 0 1 -2 1 0 1 0 2 -1 1 0 1 0 
1 -2 1 1 2 1 1 2 1 0 1 0 2 0 1 0 
1 0 1 -1 1 -1 2 1 1 -1 1 -1 1 0 1 -2 
2 1 1 -1 1 0 1 0 2 -1 1 0 1 -1 1 -1 
1 0 2 0 1 1 1 -1 1 -1 2 -1 1 -1 1 -2 
1 -1 1 -1 2 -1 1 1 1 0 1 -1 1 0 2 0 
1 -1 1 1 1 0 4278 3928 100 MP stroke
2 -1 1 0 1 -1 1 0 1 -2 2 -2 1 0 1 -1 
1 -1 2 -1 1 -1 1 -1 1 -1 1 -1 2 0 1 -2 
1 -2 1 -2 1 -1 2 -2 1 -2 1 -2 1 -2 2 -1 
1 -3 1 -4 1 -1 1 -1 2 -2 1 -1 1 -1 1 -2 
2 -1 1 -2 1 -1 1 -3 1 -2 2 -1 1 -1 1 1 
1 -1 1 0 2 -1 1 0 1 0 1 -1 2 -2 1 0 
1 -1 1 1 1 -1 2 0 1 0 1 0 1 1 2 1 
1 1 1 -1 1 1 1 0 2 1 1 0 1 0 1 -2 
1 0 2 -1 1 0 1 1 1 0 2 0 1 -2 1 0 
1 0 1 -1 2 1 1 1 1 1 1 0 2 0 1 0 
1 0 1 0 1 -1 2 -1 1 0 1 0 1 1 1 1 
2 0 1 -1 1 0 1 0 2 1 1 0 1 1 1 2 
1 1 2 1 1 0 4157 3981 100 MP stroke
1 0 1 1 2 0 1 1 1 1 1 0 1 1 2 0 
1 0 1 1 1 0 1 0 2 -1 1 0 1 1 1 1 
2 0 1 0 1 0 1 1 1 0 2 0 1 0 1 1 
1 0 2 1 1 0 1 0 1 -1 1 1 2 1 1 -1 
1 0 1 0 1 1 2 0 1 0 1 0 1 0 2 0 
1 0 1 1 1 2 1 -1 2 0 1 0 1 0 1 1 
2 1 1 0 1 1 1 0 1 0 2 1 1 1 1 0 
1 0 1 1 2 1 1 0 1 1 1 0 2 -1 1 -2 
1 -3 1 5 1 -1 2 -1 1 2 1 1 1 0 2 2 
1 0 1 1 1 -1 1 1 2 2 1 0 1 -1 1 0 
1 1 2 0 1 0 1 0 1 0 2 -1 1 1 1 1 
1 0 1 1 2 -2 1 1 1 0 1 -1 2 1 1 -2 
1 1 1 0 1 0 4037 3956 100 MP stroke
2 1 1 -1 1 0 1 0 1 0 2 1 1 0 1 -1 
1 -1 2 0 1 -1 1 0 1 1 1 1 2 3 1 0 
1 -1 1 -1 1 0 2 0 1 2 1 -1 1 -1 2 -3 
1 2 1 1 1 -2 1 1 2 0 1 -1 1 -1 1 0 
2 0 1 0 1 0 1 -1 1 -1 2 1 1 0 1 0 
1 0 1 1 2 0 1 0 1 1 1 0 2 -1 1 0 
1 0 1 0 1 -1 2 0 1 -1 1 0 1 2 2 1 
1 -1 1 -1 1 0 1 -1 2 0 1 0 1 3 1 0 
1 -1 2 1 1 0 1 1 1 0 2 0 1 0 1 -2 
1 0 1 1 2 3 1 0 1 -1 1 0 2 0 1 -1 
1 1 1 -1 1 2 2 2 1 0 1 1 1 -1 1 0 
2 2 1 1 1 -1 1 1 2 0 1 0 1 0 1 1 
1 1 2 0 1 0 3916 3947 100 MP stroke
1 0 1 0 2 1 1 0 1 1 1 3 1 -1 2 1 
1 0 1 1 1 5 1 0 2 0 1 0 1 0 1 0 
2 0 1 0 1 2 1 -1 1 3 2 1 1 0 1 -1 
1 1 2 1 1 0 1 1 1 1 1 -1 2 3 1 0 
1 0 1 2 1 0 2 1 1 -3 1 4 1 -1 2 1 
1 0 1 0 1 0 1 1 2 0 1 1 1 0 1 0 
2 0 1 0 1 -2 1 0 1 0 2 1 1 4 1 2 
1 -1 1 -2 2 -2 1 1 1 -2 1 1 2 3 1 -1 
1 -3 1 1 1 0 2 -1 1 0 1 0 1 0 2 0 
1 0 1 0 1 1 1 -1 2 0 1 0 1 0 1 0 
1 0 2 2 1 -1 1 0 1 1 2 0 1 0 1 0 
1 1 1 -1 2 1 1 -1 1 -1 1 0 2 1 1 1 
1 0 1 1 1 -1 3796 3918 100 MP stroke
2 0 1 1 1 0 1 0 1 0 2 0 1 0 1 0 
1 0 2 1 1 0 1 1 1 0 1 -2 2 1 1 -1 
1 1 1 -1 2 0 1 0 1 -1 1 0 1 0 2 -1 
1 0 1 -1 1 0 1 0 2 -1 1 1 1 3 1 -3 
2 -2 1 2 1 -2 1 2 1 -3 2 2 1 0 1 0 
1 1 2 -1 1 1 1 2 1 -2 1 1 2 0 1 0 
1 0 1 2 1 -1 2 1 1 0 1 0 1 1 2 0 
1 0 1 0 1 4 1 -2 2 -1 1 4 1 -4 1 9 
2 -1 1 0 1 -4 1 4 1 -2 2 0 1 1 1 1 
1 -2 1 -2 2 -2 1 -3 1 0 1 4 2 0 1 -1 
1 -1 1 -1 1 -1 2 -2 1 1 1 -1 1 0 2 -3 
1 -2 1 2 1 4 1 -1 2 -2 1 0 1 0 1 -1 
1 1 2 0 1 -4 3675 3924 100 MP stroke
1 -3 1 1 2 1 1 -3 1 -5 1 -1 1 0 2 2 
1 -1 1 0 1 -1 2 1 1 -2 1 1 1 -5 1 -2 
2 -2 1 -1 1 -3 1 6 1 -1 2 -8 1 1 1 -2 
1 -1 2 -3 1 0 1 -3 1 1 1 0 2 -5 1 0 
1 -2 1 0 2 -3 1 -4 1 0 1 0 1 0 2 1 
1 0 1 -3 1 -1 1 -2 2 -2 1 -2 1 -1 1 -1 
2 0 1 -3 1 1 1 1 1 -5 2 -1 1 -1 1 -2 
1 -1 2 0 1 0 1 -1 1 -2 1 -2 2 0 1 -1 
1 0 1 -1 1 -1 2 -2 1 -1 1 -1 1 -1 2 0 
1 -1 1 -2 1 -1 1 -2 2 -1 1 -1 1 -1 1 -1 
2 0 1 -3 1 -1 1 -1 1 -1 2 -1 1 0 1 -2 
1 -3 1 -1 2 -1 1 0 1 -2 1 2 2 1 1 -4 
1 -3 1 -2 1 0 3555 4038 100 MP stroke
2 -1 1 -1 1 -1 1 -1 1 2 2 -1 1 -3 1 -1 
1 -1 2 -1 1 -1 1 0 1 -1 1 0 2 -2 1 2 
1 -1 1 -2 2 0 1 -1 1 0 1 0 1 -2 2 -2 
1 -1 1 -1 1 -1 1 2 2 -2 1 -2 1 0 1 -2 
2 -1 1 -1 1 -1 1 0 1 -1 2 0 1 -1 1 -1 
1 -2 2 -2 1 0 1 -1 1 0 1 -1 2 0 1 -1 
1 -1 1 -1 1 -2 2 -1 1 0 1 0 1 -1 2 0 
1 -3 1 0 1 -1 1 0 2 -1 1 -2 1 0 1 0 
2 -1 1 1 1 -2 1 -1 1 0 2 0 1 0 1 0 
1 -1 1 0 2 -1 1 -1 1 0 1 0 2 0 1 -1 
1 1 1 0 1 0 2 -1 1 0 1 -1 1 2 2 -1 
1 0 1 1 1 -1 1 2 2 -2 1 0 1 0 1 0 
1 -1 2 0 1 0 3434 4098 100 MP stroke
1 -2 1 -1 2 1 1 1 1 -1 1 0 1 0 2 -1 
1 2 1 0 1 0 2 0 1 1 1 0 1 0 1 1 
2 0 1 0 1 1 1 -1 1 1 2 0 1 1 1 0 
1 0 2 0 1 0 1 0 1 0 1 0 2 -1 1 1 
1 0 1 -1 2 0 1 -1 1 0 1 0 1 0 2 -1 
1 0 1 -1 1 0 1 0 2 0 1 -1 1 0 1 -1 
2 0 1 0 1 0 1 -1 1 1 2 -1 1 0 1 0 
1 0 2 -1 1 1 1 1 1 -1 1 0 2 0 1 0 
1 0 1 0 1 0 2 0 1 -1 1 -1 1 1 2 -1 
1 0 1 0 1 -1 1 1 2 -1 1 0 1 0 1 1 
2 0 1 0 1 1 1 0 1 0 2 -1 1 1 1 1 
1 0 1 1 2 1 1 0 1 0 1 0 2 1 1 0 
1 0 1 0 1 0 3314 4099 100 MP stroke
2 0 1 2 1 0 1 0 2 0 1 0 1 1 1 0 
1 0 2 -1 1 0 1 1 1 -1 1 1 2 0 1 -1 
1 0 1 -1 2 0 1 1 1 -2 1 0 1 -1 2 0 
1 -1 1 0 1 -2 2 1 1 -1 1 0 1 -1 1 -1 
2 -1 1 -1 1 -1 1 0 1 -1 2 0 1 -1 1 -2 
1 -1 2 0 1 -1 1 0 1 -2 1 1 2 -1 1 -1 
1 -1 1 0 2 1 1 0 1 -1 1 -1 1 -2 2 0 
1 0 1 -1 1 -1 1 0 2 0 1 -1 1 -1 1 0 
2 1 1 0 1 -1 1 0 1 0 2 0 1 0 1 0 
1 0 2 0 1 1 1 1 1 1 1 -1 2 -1 1 1 
1 1 1 1 1 1 2 0 1 1 1 0 1 -1 2 1 
1 0 1 0 1 0 1 -1 2 0 1 0 1 -1 1 -1 
2 -1 1 0 1 0 3193 4123 100 MP stroke
1 0 1 0 2 0 1 -1 1 0 1 0 1 -1 2 -1 
1 0 1 -2 1 0 2 2 1 -1 1 0 1 -2 1 -1 
2 -1 1 -1 1 -1 1 0 2 -1 1 -2 1 0 1 0 
1 -1 2 -2 1 0 1 -2 1 -1 1 0 2 -1 1 0 
1 -1 1 -2 2 -1 1 0 1 0 1 -1 1 -1 2 -1 
1 -1 1 -1 1 -1 2 0 1 -2 1 -1 1 -1 1 0 
2 0 1 -1 1 -1 1 -1 1 -1 2 -1 1 -1 1 -1 
1 -2 2 0 1 -1 1 -1 1 -1 1 0 2 0 1 -1 
1 -1 1 -1 1 0 2 -2 1 0 1 -1 1 1 2 -1 
1 1 1 -1 1 1 1 -1 2 0 1 -1 1 0 1 -1 
2 1 1 1 1 0 1 0 1 2 2 -1 1 1 1 0 
1 1 1 0 2 0 1 -1 1 0 1 0 2 0 1 -1 
1 0 1 -1 1 2 3073 4173 100 MP stroke
2 2 1 -1 1 2 1 1 2 0 1 0 1 -2 1 1 
1 1 2 1 1 2 1 1 1 0 1 2 2 -1 1 1 
1 2 1 2 2 1 1 2 1 1 1 1 1 1 2 2 
1 2 1 2 1 2 2 2 1 1 1 3 1 2 1 2 
2 1 1 2 1 1 1 1 1 4 2 2 1 2 1 1 
1 1 2 3 1 1 1 1 1 1 1 4 2 4 1 1 
1 2 1 0 2 1 1 2 1 1 1 5 1 1 2 2 
1 1 1 2 1 1 1 1 2 2 1 4 1 1 1 1 
2 -1 1 3 1 0 1 3 1 2 2 1 1 1 1 3 
1 0 2 -1 1 1 1 2 1 0 1 0 2 2 1 1 
1 0 1 2 1 -1 2 -1 1 2 1 1 1 1 2 1 
1 1 1 -1 1 1 1 1 2 1 1 -2 1 1 1 -1 
2 2 1 2 1 1 2952 4050 100 MP stroke
1 1 1 0 2 2 1 -2 1 1 1 3 1 2 2 1 
1 1 1 2 1 0 2 3 1 2 1 1 1 2 1 1 
2 1 1 2 1 0 1 2 2 2 1 0 1 2 1 2 
1 2 2 1 1 1 1 2 1 2 1 0 2 3 1 0 
1 1 1 1 2 4 1 2 1 0 1 -2 1 0 2 1 
1 2 1 3 1 2 2 0 1 1 1 -1 1 1 1 3 
2 2 1 2 1 2 1 1 1 1 2 -1 1 4 1 3 
1 2 2 1 1 2 1 1 1 2 1 2 2 1 1 1 
1 2 1 2 2 2 1 3 1 0 1 3 1 2 2 2 
1 1 1 3 1 2 1 1 2 1 1 3 1 1 1 3 
2 3 1 1 1 1 1 1 1 1 2 2 1 3 1 2 
1 -1 2 -1 1 2 1 4 1 3 1 1 2 1 1 4 
1 0 1 3 1 4 2832 3899 100 MP stroke
2 3 1 0 1 1 1 2 2 5 1 0 1 1 1 1 
1 3 2 2 1 3 1 2 1 -1 2 1 1 2 1 3 
1 -3 1 6 2 3 1 1 1 1 1 1 1 0 2 2 
1 6 1 -1 1 3 2 1 1 0 1 1 1 3 1 1 
2 2 1 2 1 1 1 0 2 1 1 4 1 1 1 0 
1 2 2 1 1 2 1 1 1 0 1 1 2 1 1 1 
1 1 1 2 2 0 1 2 1 2 1 -1 1 1 2 0 
1 0 1 2 1 0 2 1 1 4 1 -1 1 2 1 -1 
2 3 1 -1 1 -2 1 4 1 5 2 -1 1 2 1 -3 
1 3 2 1 1 5 1 4 1 -1 1 0 2 1 1 4 
1 6 1 2 2 8 1 -1 1 3 1 -1 1 2 2 8 
1 4 1 0 1 -2 1 4 2 6 1 4 1 0 1 -3 
2 4 1 2 1 4 2711 3738 100 MP stroke
1 2 1 6 2 -2 1 2 1 4 1 4 2 -3 1 7 
1 -1 1 3 1 3 2 0 1 -3 1 3 1 1 1 -2 
2 3 1 6 1 2 1 1 2 1 1 1 1 3 1 2 
1 1 2 -1 1 2 1 2 1 0 1 1 2 0 1 4 
1 0 1 1 2 2 1 2 1 -4 1 0 1 2 2 0 
1 1 1 2 1 1 2 0 1 1 1 2 1 -1 1 0 
2 -2 1 -2 1 0 1 2 1 0 2 0 1 0 1 0 
1 1 2 -1 1 0 1 0 1 -1 1 -2 2 0 1 0 
1 0 1 -2 2 -4 1 0 1 -1 1 1 1 -1 2 0 
1 0 1 -1 1 -1 1 1 2 -1 1 -1 1 0 1 0 
2 -4 1 -1 1 -1 1 0 1 0 2 1 1 0 1 1 
1 0 2 0 1 -1 1 1 1 -2 1 1 2 -2 1 -1 
1 -3 1 0 1 -1 2591 3704 100 MP stroke
2 1 1 -1 1 1 1 -1 2 0 1 0 1 0 1 1 
1 -2 2 0 1 -3 1 -2 1 0 2 -1 1 -1 1 -1 
1 0 1 -1 2 2 1 -1 1 0 1 -2 1 1 2 -2 
1 -1 1 -1 1 3 2 0 1 -5 1 0 1 1 1 0 
2 0 1 0 1 1 1 -1 2 -2 1 -1 1 0 1 -1 
1 0 2 0 1 0 1 3 1 -3 1 1 2 0 1 3 
1 -1 1 0 2 1 1 -1 1 1 1 -1 1 0 2 -1 
1 1 1 -1 1 1 2 -1 1 -1 1 0 1 -1 1 -4 
2 0 1 -2 1 0 1 -1 1 0 2 -2 1 -1 1 1 
1 -1 2 -3 1 0 1 -2 1 -1 1 -3 2 0 1 -2 
1 0 1 -1 2 -1 1 0 1 1 1 -1 1 0 2 -2 
1 -3 1 0 1 0 1 0 2 -1 1 -1 1 -1 1 -1 
2 1 1 0 1 -3 2470 3757 100 MP stroke
1 0 1 -1 2 1 1 -3 1 2 1 1 2 -1 1 -1 
1 -1 1 1 1 -2 2 -4 1 3 1 1 1 0 1 -3 
2 0 1 1 1 -1 1 2 2 -1 1 1 1 -3 1 -2 
1 1 2 -2 1 -4 1 1 1 -2 2 4 1 -2 1 1 
1 0 1 -1 2 -1 1 -1 1 0 1 -1 1 -4 2 -1 
1 0 1 -1 1 -2 2 1 1 -1 1 3 1 -3 1 -4 
2 -1 1 -3 1 -2 1 -2 2 -2 1 1 1 -2 1 1 
1 -4 2 -6 1 -2 1 -5 1 0 1 0 2 3 1 -5 
1 0 1 -2 2 -4 1 -2 1 -3 1 0 1 -1 2 -2 
1 -3 1 -3 1 -3 2 0 1 0 1 -2 1 -3 1 -1 
2 -5 1 -1 1 1 1 -1 1 0 2 -2 1 0 1 -5 
1 -1 2 2 1 -1 1 -1 1 -1 1 -1 2 0 1 -4 
1 -2 1 -1 2 0 2349 3867 100 MP stroke
1 1 1 -3 1 0 1 -3 2 -3 1 -2 1 1 1 1 
1 -2 2 0 1 -2 1 -3 1 2 2 -2 1 -1 1 -1 
1 1 1 -1 2 -2 1 1 1 0 1 -1 2 -1 1 -1 
1 0 1 -1 1 -1 2 -1 1 0 1 -2 1 0 1 1 
2 -1 1 -1 1 -2 1 -1 2 -2 1 -1 1 -1 1 -1 
1 -1 2 -1 1 -1 1 -2 1 -2 2 0 1 -2 1 -3 
1 1 1 -1 2 -1 1 -2 1 -2 1 -1 1 -1 2 -2 
1 -1 1 -2 1 2 2 -2 1 0 1 -1 1 -1 1 -2 
2 0 1 -1 1 -1 1 0 2 -1 1 -1 1 0 1 -1 
1 -1 2 -1 1 -1 1 -1 1 -1 1 0 2 1 1 -2 
1 -1 1 -1 2 0 1 0 1 0 1 -2 1 1 2 -2 
1 -1 1 1 1 1 2 -1 1 0 1 -1 1 -1 1 -1 
2 -1 1 0 1 -1 2229 3951 100 MP stroke
1 -1 1 1 2 0 1 1 1 -2 1 0 2 -2 1 0 
1 -1 1 0 1 -1 2 0 1 -2 1 0 1 -1 1 -1 
2 0 1 -1 1 -2 1 -2 2 0 1 -2 1 -2 1 -1 
1 0 2 -2 1 -1 1 -1 1 0 2 0 1 0 1 -2 
1 -3 1 0 2 -1 1 -2 1 0 1 -3 1 -5 2 -1 
1 -2 1 0 1 2 2 -5 1 -2 1 -3 1 -2 1 -1 
2 -1 1 -1 1 -2 1 -2 2 -4 1 -2 1 0 1 -4 
1 -1 2 -2 1 -1 1 -2 1 -2 1 0 2 -1 1 0 
1 -2 1 -2 2 -1 1 -1 1 1 1 -1 1 -1 2 -1 
1 -1 1 0 1 -1 2 -2 1 2 1 -3 1 2 1 1 
2 -1 1 -1 1 0 1 -1 1 0 2 1 1 0 1 -1 
1 0 2 -2 1 0 1 1 1 0 1 0 2 -1 1 -1 
1 -1 1 -1 2 1 2108 4046 100 MP stroke
1 -2 1 1 1 -1 1 -1 2 1 1 -2 1 0 1 0 
1 0 2 -2 1 -1 1 0 1 -2 2 0 1 -1 1 -1 
1 -2 1 -1 2 -2 1 -1 1 -2 1 -1 2 1 1 1 
1 -3 1 -1 1 -3 2 1 1 0 1 -2 1 -1 1 -1 
2 -1 1 -1 1 0 1 2 2 -1 1 0 1 -2 1 -2 
1 -1 2 0 1 -1 1 1 1 -1 2 -1 1 -1 1 -1 
1 -2 1 -2 2 -2 1 0 1 -1 1 -1 1 -1 2 1 
1 -1 1 -1 1 -2 2 -2 1 0 1 -1 1 -2 1 1 
2 0 1 1 1 -2 1 0 2 -3 1 -1 1 -2 1 1 
1 -1 2 1 1 -2 1 0 1 -1 1 -1 2 -1 1 0 
1 -2 1 1 2 -1 1 0 1 0 1 0 1 -1 2 0 
1 -1 1 0 1 0 2 -1 1 0 1 0 1 -1 1 0 
2 0 1 0 1 1 1988 4116 100 MP stroke
1 2 1 -1 2 1 1 0 1 1 1 -1 2 1 1 0 
1 1 1 -1 1 1 2 -1 1 1 1 0 1 0 2 -1 
1 1 1 0 1 0 1 -1 2 1 1 0 1 1 1 0 
1 0 2 0 1 1 1 -1 1 -1 2 0 1 1 1 0 
1 1 1 -1 2 1 1 -1 1 1 1 -1 2 2 1 -1 
1 1 1 0 1 2 2 -1 1 2 1 -1 1 -1 1 -1 
2 1 1 0 1 1 1 0 2 1 1 0 1 1 1 0 
1 1 2 0 1 0 1 0 1 1 2 -1 1 1 1 0 
1 1 1 -1 2 1 1 -1 1 1 1 -1 1 0 2 0 
1 0 1 0 1 1 2 -2 1 0 1 0 1 1 1 -2 
2 2 1 -2 1 1 1 -2 2 1 1 -1 1 0 1 0 
1 0 2 -1 1 1 1 -1 1 2 1 -2 2 0 1 -2 
1 0 1 0 2 0 1867 4109 100 MP stroke
1 -2 1 1 1 -1 1 2 2 -4 1 0 1 -1 1 2 
2 0 1 1 1 -1 1 1 1 -1 2 0 1 0 1 1 
1 0 1 -2 2 -2 1 1 1 -1 1 1 2 -2 1 2 
1 -3 1 0 1 -1 2 1 1 -1 1 0 1 -1 2 1 
1 -1 1 1 1 -1 1 -1 2 -2 1 1 1 -2 1 0 
1 0 2 0 1 -2 1 0 1 -2 2 0 1 -3 1 2 
1 -2 1 1 2 -2 1 1 1 -1 1 1 2 -1 1 1 
1 -1 1 1 1 -1 2 0 1 -1 1 0 1 -2 1 1 
2 -3 1 -1 1 -3 1 1 2 -1 1 1 1 -2 1 0 
1 -1 2 0 1 -1 1 1 1 -1 1 2 2 -2 1 1 
1 -2 1 1 2 -2 1 0 1 -1 1 3 1 -1 2 2 
1 -1 1 2 1 1 2 2 1 0 1 2 1 -1 1 2 
2 -1 1 2 1 -1 1747 4135 100 MP stroke
1 2 1 0 2 3 1 -1 1 2 1 -1 2 2 1 0 
1 1 1 0 1 2 2 -1 1 2 1 1 1 3 2 -1 
1 3 1 0 1 1 1 -1 2 1 1 1 1 4 1 0 
1 2 2 0 1 3 1 1 1 3 2 0 1 3 1 1 
1 3 1 0 2 3 1 0 1 2 1 0 2 4 1 1 
1 1 1 0 1 4 2 -1 1 1 1 2 1 2 1 -1 
2 2 1 0 1 1 1 1 2 1 1 -1 1 3 1 -1 
1 3 2 -2 1 2 1 0 1 1 2 1 1 1 1 -1 
1 3 1 -1 2 2 1 1 1 1 1 0 1 2 2 0 
1 3 1 1 1 2 2 -1 1 3 1 0 1 3 1 0 
2 2 1 2 1 3 1 0 2 1 1 0 1 3 1 0 
1 4 2 1 1 1 1 0 1 7 1 0 2 5 1 0 
1 2 1 -1 2 3 1626 4015 100 MP stroke
1 3 1 5 1 1 1 3 2 1 1 1 1 0 1 1 
2 2 1 1 1 1 1 3 1 1 2 2 1 0 1 1 
1 1 1 2 2 2 1 2 1 2 1 2 2 -2 1 0 
1 -1 1 0 1 -1 2 1 1 -2 1 -1 1 -1 2 0 
1 0 1 -1 1 -1 1 1 2 -2 1 1 1 -2 1 0 
1 -2 2 0 1 -1 1 2 1 -2 2 -1 1 -3 1 0 
1 -3 1 -2 2 -1 1 0 1 0 1 0 2 -3 1 3 
1 1 1 3 1 1 2 3 1 -3 1 1 1 1 1 2 
2 2 1 4 1 2 1 4 2 1 1 2 1 1 1 3 
1 3 2 5 1 -1 1 2 1 0 2 0 1 2 1 3 
1 0 1 3 2 0 1 3 1 -2 1 3 1 -1 2 2 
1 0 1 1 1 1 2 1 1 0 1 0 1 -1 1 2 
2 0 1 1 1 -1 1506 3948 100 MP stroke
1 2 2 0 1 1 1 0 1 1 1 0 2 2 1 2 
1 3 1 -1 1 -1 2 -1 1 3 1 1 1 4 2 1 
1 1 1 1 1 1 1 -1 2 3 1 -1 1 6 1 2 
2 1 1 -1 1 -1 1 -2 1 4 2 0 1 4 1 -1 
1 1 1 -1 2 1 1 -3 1 0 1 1 2 2 1 1 
1 2 1 -1 1 1 2 0 1 2 1 0 1 2 2 1 
1 1 1 1 1 1 1 0 2 2 1 0 1 2 1 0 
1 2 2 0 1 1 1 0 1 2 2 0 1 2 1 -1 
1 3 1 -1 2 1 1 -1 1 1 1 -3 2 2 1 1 
1 3 1 -1 1 2 2 -2 1 2 1 0 1 2 1 0 
2 2 1 -1 1 2 1 1 2 2 1 -1 1 2 1 -1 
1 2 2 0 1 3 1 2 1 3 2 -1 1 3 1 -1 
1 3 1 0 2 2 1385 3862 100 MP stroke
1 0 1 2 1 0 1 1 2 0 1 3 1 0 1 2 
2 0 1 3 1 0 1 2 1 0 2 4 1 0 1 4 
1 0 2 1 1 2 1 1 1 1 1 2 2 0 1 2 
1 1 1 1 1 1 2 1 1 1 1 2 1 1 2 2 
1 -1 1 2 1 2 1 2 2 -1 1 2 1 0 1 -1 
1 1 2 -1 1 1 1 1 1 1 2 1 1 0 1 -1 
1 -1 1 -1 2 0 1 1 1 1 1 0 2 1 1 0 
1 0 1 1 1 1 2 0 1 1 1 1 1 2 1 0 
2 0 1 0 1 1 1 0 2 1 1 1 1 1 1 0 
1 0 2 0 1 0 1 0 1 0 2 0 1 0 1 1 
1 0 1 1 2 0 1 1 1 -1 1 -1 1 0 2 -1 
1 1 1 0 1 0 2 -1 1 1 1 0 1 0 1 0 
2 1 1 0 1 0 1265 3801 100 MP stroke
1 1 2 1 1 -1 1 1 1 0 1 0 2 0 1 0 
1 1 1 1 1 1 2 0 1 0 1 -1 1 -1 2 0 
1 0 1 0 1 0 1 1 2 0 1 1 1 1 1 0 
2 2 1 -1 1 0 1 1 1 -1 2 0 1 1 1 0 
1 -2 1 0 2 0 1 2 1 -1 1 1 2 1 1 1 
1 1 1 -1 1 1 2 -1 1 0 1 1 1 -1 2 0 
1 -1 1 0 1 0 1 0 2 0 1 0 1 -2 1 1 
1 0 2 0 1 -1 1 0 1 -1 2 0 1 -1 1 0 
1 0 1 1 2 -1 1 1 1 -1 1 0 2 -1 1 0 
1 1 1 1 1 -1 2 1 1 -1 1 -1 1 0 1 -1 
2 0 1 0 1 -1 1 -1 2 0 1 0 1 0 1 0 
1 0 2 0 1 -1 1 0 1 0 2 1 1 1 1 1 
1 -1 1 0 2 0 1144 3799 100 MP stroke
1 0 1 -1 1 0 1 -1 2 2 1 -1 1 1 1 0 
2 0 1 -1 1 0 1 0 1 1 2 -1 1 1 1 -1 
1 1 2 0 1 1 1 -1 1 0 1 -1 2 0 1 -1 
1 0 1 -1 1 0 2 -1 1 0 1 -1 1 1 2 0 
1 0 1 0 1 0 1 0 2 -1 1 -1 1 0 1 1 
2 0 1 -1 1 0 1 0 1 -1 2 -2 1 0 1 -1 
1 1 1 -2 2 2 1 0 1 -1 1 0 2 0 1 0 
1 -1 1 -1 1 0 2 -2 1 1 1 -1 1 1 2 -2 
1 2 1 -2 1 1 1 -2 2 0 1 0 1 0 1 2 
1 0 2 0 1 1 1 -2 1 0 2 -1 1 2 1 -1 
1 1 1 -1 2 1 1 0 1 1 1 0 2 2 1 1 
1 1 1 1 1 2 2 1 1 1 1 1 1 2 1 2 
2 0 1 1 1 2 1024 3795 100 MP stroke
1 1 2 2 1 0 1 2 1 1 1 3 2 0 1 3 
1 0 1 2 2 6 1 0 1 0 1 0 1 1 2 1 
1 1 1 1 1 0 1 3 2 3 1 -1 1 0 1 2 
2 0 1 2 1 1 1 1 1 0 2 1 1 0 1 0 
1 1 2 2 1 -1 1 1 1 -1 1 0 2 0 1 0 
1 -2 1 1 1 -1 2 0 1 -1 1 0 1 -2 2 1 
1 -2 1 1 1 -3 1 -2 2 -2 1 0 1 1 1 -1 
2 -1 1 -1 1 -1 1 -1 1 -1 2 -1 1 -2 1 -1 
1 -1 1 -1 2 -1 1 -1 1 0 1 -1 2 -3 1 -2 
1 -2 1 1 1 -3 2 0 1 -4 1 0 1 0 2 -2 
1 -2 1 -3 1 -3 1 -1 2 -3 1 0 1 -1 1 0 
1 -3 2 -1 1 -2 1 0 1 -4 2 1 1 -2 1 0 
1 -2 1 1 2 -3 903 3826 100 MP stroke
1 -1 1 0 1 2 1 -2 899 3827 5 MP stroke
/c10 { 1.000000 0.000000 0.000000 sr} bdef
c10
1 -8 1 -9 1 7 2 7 1 2 1 -2 1 2 1 1 
2 -2 1 0 1 0 1 0 2 3 1 1 1 0 1 -1 
1 1 2 2 1 -2 1 -3 1 1 1 0 2 2 1 0 
1 -2 1 -1 2 -2 1 0 1 -1 1 -2 1 0 2 -1 
1 2 1 2 1 1 2 4 1 -2 1 0 1 -1 1 1 
2 3 1 -2 1 -2 1 1 1 2 2 1 1 2 1 -1 
1 1 2 -1 1 -1 1 -1 1 3 1 2 2 3 1 2 
1 -1 1 -2 2 1 1 -2 1 -1 1 0 1 3 2 3 
1 -1 1 0 1 1 1 2 2 2 1 -1 1 -1 1 0 
2 0 1 -1 1 -2 1 -1 1 0 2 2 1 0 1 1 
1 1 2 0 1 2 1 2 1 0 1 -1 2 -2 1 0 
1 1 1 1 1 1 2 1 1 3 1 2 1 0 2 0 
1 1 1 -1 1 -2 5965 1054 100 MP stroke
1 -2 2 -1 1 5 1 3 1 1 2 -2 1 2 1 -2 
1 2 1 -3 2 -2 1 2 1 1 1 0 1 2 2 1 
1 0 1 1 1 -3 2 -2 1 0 1 1 1 -2 1 -2 
2 1 1 -1 1 -1 1 0 2 -1 1 0 1 -1 1 0 
1 -1 2 -2 1 -2 1 1 1 0 1 0 2 -2 1 0 
1 -1 1 -3 2 0 1 0 1 3 1 4 1 0 2 2 
1 1 1 1 1 0 2 -2 1 1 1 -4 1 -2 1 0 
2 -1 1 0 1 0 1 0 1 1 2 0 1 -1 1 0 
1 1 2 1 1 2 1 0 1 4 1 1 2 -1 1 -1 
1 1 1 2 2 2 1 -2 1 1 1 1 1 1 2 -1 
1 0 1 1 1 1 1 0 2 0 1 2 1 1 1 -1 
2 0 1 -1 1 -2 1 0 1 1 2 -1 1 1 1 1 
1 1 2 3 1 -3 5844 1048 100 MP stroke
1 -1 1 4 1 2 2 0 1 0 1 0 1 2 1 2 
2 -2 1 0 1 1 1 -1 2 -1 1 3 1 3 1 3 
1 4 2 1 1 2 1 4 1 -3 2 2 1 -2 1 -1 
1 2 1 2 2 3 1 2 1 0 1 -1 1 0 2 -1 
1 0 1 1 1 3 2 0 1 -1 1 -1 1 1 1 -1 
2 1 1 -2 1 2 1 1 1 1 2 4 1 2 1 -1 
1 -1 2 -2 1 0 1 0 1 0 1 1 2 1 1 0 
1 2 1 0 2 3 1 4 1 -1 1 -1 1 3 2 2 
1 3 1 -1 1 1 1 1 2 0 1 -2 1 1 1 2 
2 3 1 3 1 2 1 -2 1 -2 2 0 1 0 1 3 
1 0 2 1 1 2 1 -1 1 1 1 2 2 -1 1 1 
1 2 1 -1 1 -3 2 0 1 1 1 -1 1 3 2 -2 
1 2 1 -2 1 -2 5724 984 100 MP stroke
1 2 2 2 1 -1 1 1 1 -1 2 0 1 1 1 4 
1 -1 1 0 2 1 1 0 1 2 1 -1 1 0 2 2 
1 -1 1 0 1 -1 2 -1 1 1 1 2 1 1 1 0 
2 -2 1 2 1 1 1 3 2 4 1 4 1 2 1 0 
1 -1 2 -2 1 1 1 0 1 0 1 0 2 2 1 -1 
1 1 1 1 2 -1 1 2 1 0 1 -2 1 1 2 1 
1 0 1 -1 1 2 2 0 1 0 1 -2 1 -1 1 2 
2 0 1 1 1 -1 1 1 1 3 2 -3 1 0 1 0 
1 -2 2 3 1 -2 1 2 1 0 1 0 2 0 1 0 
1 1 1 1 2 1 1 1 1 0 1 0 1 2 2 0 
1 1 1 1 1 0 1 2 2 -2 1 0 1 0 1 1 
2 0 1 -1 1 -1 1 2 1 1 2 -1 1 1 1 0 
1 -2 2 -1 1 2 5603 945 100 MP stroke
1 1 1 0 1 1 2 -1 1 1 1 0 1 1 1 1 
2 2 1 -2 1 1 1 1 2 1 1 0 1 1 1 2 
1 -3 2 0 1 -1 1 0 1 0 2 0 1 1 1 2 
1 1 1 0 2 -1 1 -1 1 -2 1 1 1 -2 2 3 
1 1 1 -1 1 -1 2 -1 1 1 1 0 1 -1 1 -1 
2 -2 1 -2 1 -1 1 0 2 4 1 0 1 -1 1 -2 
1 0 2 0 1 1 1 -1 1 -1 1 1 2 2 1 4 
1 -2 1 0 2 -1 1 1 1 1 1 2 1 1 2 1 
1 0 1 -2 1 0 2 -2 1 -1 1 1 1 0 1 1 
2 2 1 1 1 -2 1 -1 1 0 2 0 1 1 1 -1 
1 0 2 -1 1 0 1 -1 1 -1 1 -1 2 -2 1 3 
1 -1 1 1 2 -2 1 0 1 -1 1 1 1 1 2 1 
1 2 1 0 1 -2 5483 941 100 MP stroke
1 2 2 2 1 0 1 0 1 2 2 2 1 3 1 0 
1 -1 1 -1 2 0 1 1 1 -1 1 0 2 -1 1 -1 
1 -4 1 1 1 -2 2 -1 1 0 1 2 1 0 1 2 
2 1 1 0 1 -1 1 0 2 0 1 -2 1 0 1 1 
1 0 2 0 1 1 1 -1 1 0 2 0 1 -2 1 -1 
1 -1 1 -3 2 -1 1 1 1 2 1 2 1 3 2 1 
1 1 1 0 1 3 2 1 1 3 1 -1 1 -1 1 0 
2 -1 1 1 1 -1 1 -1 2 -2 1 0 1 0 1 0 
1 2 2 1 1 -1 1 1 1 1 1 0 2 -1 1 0 
1 1 1 1 2 0 1 -1 1 1 1 -1 1 0 2 1 
1 -1 1 -2 1 1 2 2 1 0 1 -1 1 -2 1 -1 
2 -1 1 0 1 0 1 1 1 -1 2 0 1 1 1 4 
1 3 2 0 1 -1 5362 927 100 MP stroke
1 0 1 1 1 0 2 -1 1 1 1 0 1 0 1 0 
2 -1 1 1 1 0 1 -1 2 2 1 3 1 0 1 0 
1 1 2 1 1 1 1 0 1 0 2 3 1 -3 1 1 
1 -1 1 0 2 0 1 -2 1 2 1 2 1 -1 2 -3 
1 0 1 0 1 -1 2 0 1 0 1 1 1 1 1 -1 
2 0 1 -2 1 -3 1 -1 2 3 1 5 1 -4 1 1 
1 -2 2 -4 1 -6 1 -3 1 -13 1 5 2 -6 1 9 
1 -1 1 1 2 1 1 0 1 -1 1 0 1 2 2 1 
1 1 1 1 1 -2 2 2 1 1 1 1 1 0 1 -2 
2 -1 1 0 1 2 1 -2 1 -1 2 -1 1 -2 1 -1 
1 1 2 1 1 2 1 -2 1 -2 1 -1 2 -3 1 -1 
1 -1 1 -1 2 1 1 0 1 1 1 4 1 1 2 -5 
1 -1 1 0 1 -3 5242 952 100 MP stroke
1 -3 2 0 1 -4 1 -3 1 1 2 1 1 -15 1 -6 
1 5 1 -2 2 5 1 13 1 4 1 15 2 3 1 0 
1 -2 1 2 1 -10 2 -10 1 0 1 -2 1 0 1 -1 
2 3 1 2 1 2 1 -3 2 0 1 -1 1 0 1 -3 
1 -2 2 1 1 1 1 -1 1 -1 2 -1 1 0 1 2 
1 2 1 2 2 -1 1 1 1 -1 1 1 1 0 2 -1 
1 -1 1 -1 1 -2 2 0 1 1 1 3 1 1 1 -1 
2 1 1 0 1 1 1 1 2 0 1 2 1 -1 1 -1 
1 -2 2 -1 1 0 1 -1 1 0 1 -1 2 0 1 -1 
1 0 1 1 2 -2 1 1 1 -3 1 -2 1 -1 2 1 
1 0 1 1 1 0 2 1 1 -2 1 0 1 -1 1 1 
2 1 1 1 1 -1 1 -1 1 1 2 1 1 -2 1 -1 
1 -3 2 -1 1 -2 5121 974 100 MP stroke
1 -4 1 2 1 -1 2 1 1 1 1 0 1 1 2 -1 
1 0 1 -1 1 0 1 2 2 -1 1 4 1 -2 1 -1 
1 -1 2 -3 1 -2 1 -3 1 -1 2 -2 1 1 1 3 
1 2 1 1 2 0 1 -2 1 -1 1 1 2 1 1 -2 
1 0 1 0 1 1 2 0 1 2 1 0 1 -1 1 -1 
2 -2 1 -2 1 0 1 -1 2 -1 1 0 1 -1 1 -1 
1 -3 2 -1 1 -2 1 -1 1 0 2 -1 1 1 1 -4 
1 -2 1 1 2 3 1 2 1 -1 1 2 1 0 2 0 
1 -1 1 0 1 -2 2 -1 1 1 1 -2 1 -1 1 3 
2 1 1 2 1 0 1 -1 2 2 1 1 1 -1 1 -2 
1 0 2 2 1 1 1 3 1 -2 1 1 2 0 1 1 
1 1 1 -1 2 0 1 -2 1 -2 1 1 1 0 2 -1 
1 -1 1 0 1 0 5001 995 100 MP stroke
2 0 1 -1 1 3 1 1 1 0 2 1 1 2 1 -1 
1 1 1 1 2 -1 1 0 1 0 1 4 2 -2 1 0 
1 1 1 0 1 3 2 -2 1 -1 1 -1 1 -1 2 3 
1 0 1 0 1 0 1 -1 2 1 1 -1 1 1 1 0 
1 -2 2 2 1 -2 1 1 1 1 2 -1 1 1 1 -1 
1 -1 1 -1 2 -1 1 2 1 -2 1 -1 2 0 1 2 
1 -1 1 -1 1 2 2 -2 1 3 1 2 1 1 1 -2 
2 -1 1 -1 1 3 1 0 2 1 1 1 1 3 1 0 
1 0 2 -1 1 0 1 0 1 -2 2 -3 1 0 1 1 
1 2 1 1 2 2 1 0 1 -1 1 1 1 -2 2 -1 
1 3 1 -1 1 -1 2 1 1 1 1 0 1 2 1 -1 
2 -1 1 -1 1 -1 1 0 1 2 2 1 1 3 1 -1 
1 0 2 -2 1 2 4880 977 100 MP stroke
1 1 1 0 1 -1 2 0 1 -1 1 -1 1 3 2 -1 
1 2 1 0 1 -1 1 1 2 0 1 1 1 1 1 0 
1 1 2 0 1 2 1 0 1 0 2 -1 1 -1 1 1 
1 4 1 2 2 -2 1 -1 1 0 1 0 2 0 1 1 
1 -1 1 1 1 -1 2 1 1 -1 1 -1 1 -2 1 1 
2 0 1 -1 1 -1 1 0 2 -1 1 0 1 -1 1 1 
1 1 2 1 1 1 1 1 1 -2 2 1 1 1 1 -1 
1 1 1 0 2 -1 1 -1 1 0 1 -1 1 0 2 3 
1 0 1 1 1 -1 2 -2 1 -2 1 -2 1 1 1 1 
2 -1 1 1 1 3 1 1 2 2 1 -1 1 0 1 -1 
1 1 2 -1 1 -1 1 1 1 -1 1 1 2 0 1 -1 
1 1 1 0 2 1 1 -1 1 0 1 2 1 3 2 1 
1 0 1 -2 1 0 4760 965 100 MP stroke
2 2 1 -3 1 -1 1 -3 1 1 2 0 1 2 1 1 
1 0 1 -1 2 -1 1 -1 1 2 1 -2 2 1 1 1 
1 1 1 0 1 1 2 2 1 2 1 1 1 3 2 1 
1 0 1 0 1 -3 1 2 2 2 1 1 1 1 1 2 
1 0 2 -1 1 -1 1 0 1 -1 2 -1 1 0 1 3 
1 -1 1 0 2 1 1 0 1 0 1 4 2 0 1 0 
1 0 1 -3 1 0 2 -2 1 0 1 -3 1 -1 1 -1 
2 -1 1 0 1 -2 1 1 2 2 1 -1 1 -1 1 2 
1 2 2 0 1 -1 1 0 1 -2 2 1 1 -1 1 1 
1 1 1 -1 2 -2 1 2 1 0 1 1 1 -1 2 -2 
1 0 1 -3 1 0 2 2 1 2 1 0 1 -1 1 0 
2 0 1 1 1 1 1 -2 2 -4 1 0 1 -2 1 1 
1 -2 2 -2 1 -2 4639 971 100 MP stroke
1 -2 1 -2 1 0 2 0 1 0 1 0 1 0 2 3 
1 3 1 1 1 0 1 3 2 1 1 0 1 -1 1 0 
2 -1 1 1 1 1 1 2 1 0 2 1 1 1 1 -1 
1 0 1 -1 2 -1 1 0 1 -1 1 2 2 -1 1 2 
1 0 1 1 1 3 2 0 1 0 1 1 1 -1 2 -2 
1 -1 1 3 1 0 1 3 2 -7 1 3 1 5 1 4 
1 -4 2 -4 1 -9 1 -22 1 12 2 2 1 11 1 7 
1 2 1 8 2 -5 1 1 1 3 1 -2 2 -2 1 2 
1 -2 1 2 1 -3 2 0 1 -2 1 -1 1 -2 1 -5 
2 -2 1 1 1 7 1 -1 2 0 1 4 1 13 1 5 
1 5 2 -5 1 -10 1 -9 1 0 2 4 1 2 1 0 
1 1 1 3 2 -5 1 0 1 -2 1 2 1 1 2 0 
1 6 1 2 1 3 4519 937 100 MP stroke
2 -11 1 5 1 0 1 1 1 -3 2 0 1 -1 1 1 
1 1 2 1 1 2 1 0 1 -1 1 1 2 -2 1 3 
1 1 1 0 1 0 2 0 1 1 1 1 1 -1 2 0 
1 2 1 -3 1 2 1 1 2 -1 1 2 1 1 1 3 
2 -3 1 0 1 0 1 1 1 1 2 0 1 1 1 0 
1 -2 1 -1 2 5 1 -1 1 3 1 -2 2 -1 1 3 
1 -2 1 1 1 -1 2 -2 1 -2 1 0 1 2 1 1 
2 2 1 3 1 -1 1 1 2 0 1 0 1 -2 1 -2 
1 0 2 -1 1 1 1 0 1 1 2 0 1 -1 1 1 
1 -1 1 -1 2 0 1 1 1 2 1 0 1 2 2 -2 
1 -1 1 -1 1 1 2 -1 1 1 1 2 1 3 1 1 
2 0 1 -2 1 -2 1 1 2 1 1 -1 1 2 1 -1 
1 0 2 -1 1 4 4398 921 100 MP stroke
1 1 1 2 1 -2 2 -1 1 0 1 2 1 -1 2 -2 
1 -2 1 2 1 0 1 -1 2 -1 1 -3 1 0 1 -2 
2 0 1 1 1 -1 1 1 1 -1 2 1 1 1 1 0 
1 0 1 0 2 -1 1 2 1 1 1 0 2 0 1 -3 
1 2 1 -1 1 3 2 1 1 -3 1 3 1 0 2 -2 
1 -1 1 -1 1 0 1 1 2 0 1 2 1 -2 1 -4 
1 -2 2 2 1 3 1 1 1 0 2 -2 1 4 1 -2 
1 2 1 -2 2 0 1 3 1 1 1 -1 2 -2 1 0 
1 -1 1 0 1 2 2 2 1 1 1 2 1 2 1 -1 
2 1 1 3 1 -1 1 0 2 1 1 0 1 0 1 0 
1 -1 2 3 1 -2 1 2 1 -1 2 1 1 0 1 -1 
1 -3 1 2 2 4 1 1 1 -1 1 0 1 -2 2 3 
1 1 1 -2 1 2 4278 908 100 MP stroke
2 4 1 2 1 1 1 -4 1 -2 2 1 1 0 1 0 
1 3 2 0 1 0 1 2 1 1 1 2 2 0 1 0 
1 0 1 2 1 2 2 4 1 -2 1 1 1 4 2 2 
1 0 1 0 1 2 1 2 2 0 1 -2 1 -1 1 1 
2 1 1 -1 1 0 1 1 1 -1 2 0 1 -2 1 -3 
1 2 1 2 2 0 1 -2 1 1 1 0 2 -1 1 2 
1 1 1 2 1 0 2 0 1 1 1 0 1 -1 2 0 
1 2 1 3 1 0 1 1 2 -3 1 -2 1 1 1 2 
1 0 2 -2 1 2 1 0 1 1 2 -1 1 -1 1 3 
1 0 1 0 2 -2 1 -1 1 0 1 -2 2 -3 1 -2 
1 2 1 3 1 0 2 -3 1 -2 1 -1 1 -1 1 -1 
2 2 1 0 1 -3 1 -1 2 -3 1 2 1 -1 1 0 
1 0 2 0 1 -2 4157 894 100 MP stroke
1 -2 1 -2 2 -2 1 -2 1 0 1 1 1 -1 2 1 
1 1 1 1 1 -4 1 2 2 1 1 2 1 2 1 1 
2 1 1 -1 1 0 1 -1 1 -1 2 0 1 3 1 -2 
1 0 2 -1 1 0 1 1 1 2 1 -2 2 -1 1 0 
1 -1 1 -1 1 1 2 0 1 -1 1 -1 1 1 2 -1 
1 -1 1 -2 1 0 1 -1 2 -2 1 -1 1 -1 1 2 
2 -1 1 -2 1 -1 1 -1 1 1 2 2 1 -1 1 -3 
1 0 1 0 2 -3 1 -1 1 1 1 3 2 -1 1 0 
1 -1 1 1 1 -2 2 -3 1 -2 1 2 1 3 2 1 
1 -3 1 0 1 0 1 0 2 -2 1 0 1 1 1 1 
1 -2 2 0 1 1 1 4 1 1 2 1 1 -1 1 1 
1 1 1 0 2 0 1 -2 1 0 1 1 2 2 1 -1 
1 -1 1 2 1 0 4037 910 100 MP stroke
2 -3 1 0 1 -1 1 0 1 3 2 -3 1 2 1 1 
1 -1 2 -1 1 -1 1 1 1 1 1 -1 2 -1 1 -2 
1 0 1 0 1 -2 2 -3 1 -2 1 1 1 -2 2 -1 
1 3 1 0 1 1 1 2 2 2 1 2 1 0 1 0 
2 0 1 0 1 -1 1 0 1 2 2 -2 1 1 1 1 
1 -1 1 0 2 1 1 0 1 1 1 -1 2 0 1 4 
1 -1 1 -1 1 -2 2 0 1 1 1 0 1 -3 2 -3 
1 -1 1 -1 1 -1 1 0 2 0 1 1 1 0 1 -1 
1 0 2 -1 1 -1 1 0 1 2 2 0 1 -1 1 1 
1 1 1 3 2 2 1 1 1 0 1 0 2 -2 1 0 
1 1 1 -1 1 3 2 0 1 -1 1 0 1 0 1 -1 
2 -1 1 -2 1 1 1 -2 2 1 1 0 1 -1 1 1 
1 1 2 5 1 1 3916 912 100 MP stroke
1 -2 1 -2 2 -1 1 2 1 1 1 -1 1 -1 2 -1 
1 0 1 0 1 0 1 -2 2 -2 1 -3 1 1 1 3 
2 0 1 3 1 2 1 0 1 -2 2 -1 1 -2 1 -3 
1 2 2 1 1 0 1 3 1 -1 1 -3 2 -2 1 -2 
1 -2 1 0 1 -2 2 -1 1 3 1 1 1 1 2 1 
1 3 1 1 1 0 1 0 2 0 1 -3 1 0 1 -1 
2 3 1 0 1 0 1 0 1 0 2 1 1 0 1 1 
1 1 1 -1 2 1 1 4 1 0 1 0 2 -1 1 -1 
1 2 1 2 1 1 2 1 1 1 1 -2 1 -1 2 -1 
1 0 1 -2 1 -1 1 -2 2 0 1 -3 1 -1 1 -2 
1 0 2 -1 1 0 1 -1 1 2 2 0 1 0 1 0 
1 -1 1 -1 2 -1 1 -1 1 1 1 -1 2 2 1 2 
1 0 1 0 1 0 3796 924 100 MP stroke
2 0 1 -3 1 -3 1 -3 1 -2 2 3 1 -1 1 1 
1 3 2 2 1 3 1 -2 1 -3 1 -2 2 1 1 1 
1 1 1 1 2 -3 1 1 1 -1 1 -4 1 -2 2 -1 
1 -1 1 -1 1 -2 1 2 2 3 1 1 1 -2 1 -1 
2 -1 1 1 1 0 1 -1 1 -1 2 -3 1 0 1 0 
1 0 2 -1 1 2 1 1 1 -3 1 -1 2 -1 1 -1 
1 1 1 2 1 1 2 1 1 1 1 2 1 -1 2 1 
1 1 1 0 1 -1 1 2 2 1 1 -1 1 -1 1 1 
2 1 1 -1 1 -1 1 1 1 0 2 -2 1 0 1 -1 
1 0 1 -1 2 -3 1 2 1 -1 1 -1 2 0 1 -1 
1 1 1 2 1 2 2 2 1 0 1 0 1 -3 2 1 
1 0 1 0 1 3 1 1 2 1 1 -2 1 1 1 1 
1 0 2 0 1 -1 3675 936 100 MP stroke
1 2 1 0 2 -2 1 -1 1 3 1 2 1 3 2 3 
1 1 1 -1 1 2 2 -1 1 -1 1 -2 1 2 1 0 
2 0 1 0 1 3 1 2 1 2 2 2 1 1 1 4 
1 2 2 1 1 2 1 1 1 3 1 1 2 1 1 2 
1 3 1 3 2 -1 1 0 1 -1 1 1 1 -1 2 -1 
1 4 1 -1 1 0 1 2 2 1 1 1 1 2 1 1 
2 2 1 0 1 -2 1 -4 1 4 2 0 1 0 1 1 
1 -1 2 -1 1 2 1 0 1 1 1 -1 2 4 1 3 
1 3 1 -1 1 -1 2 4 1 1 1 1 1 1 2 3 
1 3 1 4 1 1 1 3 2 2 1 1 1 -1 1 -1 
2 -1 1 0 1 -1 1 0 1 2 2 4 1 0 1 -1 
1 -1 1 0 2 1 1 1 1 -1 1 0 2 1 1 2 
1 0 1 -1 1 -2 3555 852 100 MP stroke
2 -1 1 -1 1 -1 1 1 1 1 2 0 1 -1 1 0 
1 -1 2 -2 1 -2 1 0 1 -1 1 2 2 3 1 -1 
1 1 1 1 2 -3 1 1 1 0 1 1 1 -3 2 0 
1 -1 1 1 1 0 1 -3 2 -1 1 0 1 -2 1 0 
2 -1 1 1 1 1 1 0 1 -1 2 -1 1 0 1 2 
1 -1 2 -2 1 -1 1 2 1 1 1 -2 2 -4 1 0 
1 0 1 -3 1 -3 2 -1 1 0 1 2 1 1 2 -1 
1 -1 1 2 1 -1 1 -4 2 -1 1 0 1 0 1 4 
2 1 1 -1 1 1 1 -1 1 -1 2 -1 1 0 1 1 
1 -2 1 -1 2 0 1 6 1 1 1 0 2 -2 1 2 
1 2 1 -2 1 0 2 3 1 2 1 0 1 3 2 -1 
1 -1 1 -1 1 0 1 -3 2 -2 1 0 1 -1 1 1 
1 1 2 0 1 1 3434 871 100 MP stroke
1 0 1 -3 2 2 1 -2 1 3 1 2 1 0 2 1 
1 1 1 -1 1 -2 2 -3 1 0 1 3 1 2 1 3 
2 1 1 -1 1 -2 1 -2 1 0 2 -1 1 -1 1 -1 
1 5 2 4 1 2 1 2 1 1 1 3 2 -1 1 -1 
1 -1 1 3 2 1 1 -1 1 -2 1 2 1 -1 2 0 
1 -1 1 -2 1 0 1 -1 2 1 1 0 1 -2 1 -1 
2 -3 1 -3 1 -1 1 1 1 1 2 1 1 -1 1 3 
1 1 2 4 1 -3 1 -6 1 -1 1 -2 2 1 1 0 
1 0 1 4 1 4 2 2 1 3 1 0 1 0 2 0 
1 0 1 0 1 3 1 3 2 6 1 1 1 1 1 -1 
2 3 1 3 1 -2 1 1 1 2 2 2 1 -3 1 -1 
1 0 1 3 2 -1 1 -1 1 0 1 0 2 2 1 1 
1 1 1 2 1 4 3314 828 100 MP stroke
2 4 1 1 1 -2 1 0 2 -2 1 0 1 2 1 -1 
1 1 2 0 1 -2 1 -1 1 0 1 0 2 0 1 4 
1 2 1 3 2 -3 1 1 1 0 1 -2 1 2 2 1 
1 2 1 1 1 3 2 2 1 -3 1 0 1 2 1 1 
2 -1 1 0 1 -2 1 1 1 2 2 -1 1 0 1 3 
1 0 2 3 1 3 1 1 1 -2 1 -1 2 2 1 2 
1 4 1 1 2 2 1 3 1 -1 1 4 1 4 2 3 
1 2 1 1 1 -2 1 0 2 -1 1 3 1 1 1 3 
2 3 1 -2 1 4 1 2 1 1 2 3 1 2 1 2 
1 4 2 -1 1 1 1 2 1 3 1 1 2 5 1 0 
1 3 1 2 1 0 2 0 1 -1 1 0 1 3 2 -2 
1 0 1 0 1 6 1 3 2 2 1 0 1 5 1 3 
2 1 1 2 1 1 3193 717 100 MP stroke
1 2 1 2 2 1 1 4 1 0 1 2 1 1 2 -1 
1 0 1 -2 1 -1 2 4 1 3 1 2 1 2 1 1 
2 0 1 -2 1 0 1 2 2 -1 1 1 1 3 1 2 
1 3 2 4 1 1 1 -2 1 -2 1 2 2 1 1 -1 
1 0 1 1 2 0 1 -1 1 2 1 2 1 -3 2 0 
1 -2 1 -2 1 -1 2 1 1 0 1 2 1 -2 1 -1 
2 1 1 0 1 1 1 -2 1 -2 2 1 1 0 1 0 
1 -2 2 1 1 -2 1 -2 1 0 1 1 2 1 1 2 
1 1 1 -1 1 2 2 2 1 1 1 0 1 -1 2 2 
1 4 1 3 1 0 1 2 2 2 1 1 1 -2 1 0 
2 -3 1 -1 1 -1 1 -1 1 0 2 0 1 -1 1 -1 
1 -4 1 0 2 0 1 2 1 -2 1 -2 2 -3 1 -2 
1 5 1 -1 1 0 3073 691 100 MP stroke
2 -3 1 -4 1 2 1 1 2 -2 1 -4 1 0 1 -8 
1 -4 2 -3 1 -7 1 -11 1 3 1 5 2 11 1 10 
1 6 1 4 2 4 1 -3 1 -3 1 0 1 -13 2 -2 
1 -20 1 -4 1 27 2 13 1 -7 1 1 1 -11 1 18 
2 -29 1 -25 1 -6 1 0 1 6 2 3 1 -3 1 5 
1 -12 2 0 1 -2 1 0 1 1 1 -1 2 1 1 0 
1 -2 1 -1 2 -2 1 -3 1 -3 1 -1 1 -1 2 -1 
1 -2 1 -2 1 -2 1 1 2 -3 1 0 1 1 1 1 
2 -2 1 -3 1 1 1 4 1 5 2 -1 1 -2 1 -2 
1 -2 2 -2 1 -1 1 -3 1 1 1 -3 2 -1 1 0 
1 0 1 1 1 2 2 -2 1 0 1 2 1 2 2 1 
1 -1 1 1 1 0 1 -1 2 0 1 0 1 -1 1 2 
2 1 1 1 1 -2 2952 782 100 MP stroke
1 -1 1 3 2 -5 1 3 1 -2 1 -3 1 2 2 -28 
1 0 1 3 1 0 2 -5 1 9 1 4 1 0 1 0 
2 0 1 -2 1 -1 1 -2 2 -1 1 -1 1 -1 1 2 
1 2 2 6 1 0 1 -2 1 -5 1 -3 2 8 1 -4 
1 10 1 -38 2 9 1 11 1 -17 1 -4 1 21 2 1 
1 -10 1 -1 1 -4 2 -5 1 -1 1 -4 1 -3 1 -2 
2 -9 1 -11 1 3 1 4 1 7 2 12 1 5 1 16 
1 -26 2 18 1 -27 1 -13 1 -1 1 -2 2 5 1 30 
1 -5 1 -14 2 5 1 -12 1 -3 1 1 1 6 2 1 
1 30 1 -48 1 11 1 3 2 -7 1 4 1 -7 1 4 
2 0 1 -7 1 1 1 21 1 -7 2 12 1 0 1 -22 
1 8 2 3 1 -29 1 -8 1 13 1 6 2 -9 1 18 
1 -4 1 3 1 11 2832 853 100 MP stroke
2 -9 1 -12 1 -6 1 17 2 5 1 9 1 -7 1 -10 
1 -15 2 1 1 -15 1 1 1 14 2 14 1 5 1 -7 
1 2 1 5 2 6 1 -1 1 0 1 12 1 -29 2 0 
1 -11 1 17 1 -2 2 3 1 18 1 2 1 1 1 -8 
2 -13 1 4 1 9 1 2 2 1 1 13 1 -13 1 4 
1 2 2 3 1 -9 1 -18 1 25 1 -10 2 -24 1 -2 
1 -9 1 4 2 3 1 3 1 1 1 3 1 -2 2 -8 
1 -5 1 19 1 -13 2 8 1 7 1 8 1 6 1 10 
2 -4 1 -7 1 2 1 7 1 -3 2 -2 1 -19 1 -5 
1 9 2 -33 1 -15 1 30 1 19 1 -26 2 10 1 -3 
1 20 1 4 2 5 1 -15 1 -4 1 6 1 6 2 -17 
1 -2 1 9 1 9 1 -1 2 -12 1 -15 1 15 1 5 
2 -31 1 -25 1 3 2711 924 100 MP stroke
1 -6 1 -9 2 6 1 -8 1 37 1 9 2 -7 1 -30 
1 27 1 -9 1 -1 2 -8 1 0 1 -17 1 -11 1 -2 
2 -4 1 0 1 0 1 1 2 -1 1 -2 1 0 1 -2 
1 -2 2 -1 1 -1 1 -1 1 -1 1 -1 2 -5 1 -1 
1 -1 1 -2 2 0 1 -4 1 1 1 -5 1 -2 2 0 
1 -4 1 -1 1 0 2 0 1 0 1 -1 1 -2 1 1 
2 0 1 -4 1 -2 1 3 1 3 2 0 1 0 1 -1 
1 -3 2 0 1 0 1 -2 1 -3 1 -3 2 1 1 -2 
1 -2 1 -3 2 -1 1 1 1 0 1 0 1 2 2 0 
1 1 1 0 1 1 1 2 2 2 1 -4 1 -1 1 -1 
2 0 1 1 1 0 1 0 1 0 2 0 1 -1 1 -1 
1 1 2 -2 1 1 1 -1 1 0 1 1 2 -2 1 0 
1 -4 1 0 1 1 2591 1016 100 MP stroke
2 0 1 0 1 2 1 -2 2 1 1 -2 1 -2 1 0 
1 0 2 0 1 -1 1 1 1 -1 2 0 1 0 1 0 
1 3 1 2 2 1 1 -1 1 1 1 2 1 0 2 1 
1 -1 1 -1 1 0 2 1 1 1 1 1 1 -4 1 -1 
2 -1 1 2 1 0 1 -1 2 0 1 0 1 -2 1 1 
1 -1 2 1 1 1 1 -1 1 3 1 1 2 0 1 1 
1 -1 1 1 2 1 1 1 1 3 1 -1 1 -1 2 -2 
1 0 1 0 1 -2 2 1 1 -2 1 2 1 1 1 1 
2 2 1 1 1 3 1 3 1 1 2 2 1 4 1 0 
1 1 2 -2 1 -2 1 2 1 -1 1 1 2 1 1 -1 
1 2 1 1 2 1 1 0 1 2 1 0 1 -1 2 -1 
1 3 1 -1 1 -1 1 0 2 1 1 2 1 2 1 -3 
2 3 1 2 1 0 2470 982 100 MP stroke
1 2 1 1 2 0 1 1 1 -1 1 3 2 0 1 0 
1 0 1 2 1 1 2 2 1 2 1 5 1 -1 1 0 
2 0 1 1 1 3 1 0 2 1 1 0 1 1 1 0 
1 -2 2 -1 1 1 1 -1 1 0 2 0 1 1 1 0 
1 0 1 -1 2 -1 1 1 1 0 1 0 1 -1 2 -1 
1 0 1 0 1 1 2 -5 1 0 1 -2 1 -1 1 0 
2 -2 1 1 1 2 1 2 2 1 1 3 1 4 1 11 
1 -25 2 9 1 -10 1 -4 1 0 1 -10 2 3 1 8 
1 7 1 -13 2 18 1 0 1 1 1 -1 1 -1 2 0 
1 1 1 -1 1 -3 2 0 1 1 1 0 1 -1 1 0 
2 2 1 0 1 0 1 0 1 0 2 -2 1 0 1 0 
1 0 2 -2 1 -1 1 -1 1 1 1 -1 2 -1 1 -2 
1 2 1 -2 2 1 2349 976 100 MP stroke
1 1 1 0 1 0 1 0 2 0 1 -4 1 -1 1 1 
1 -1 2 2 1 -2 1 0 1 2 2 2 1 0 1 -2 
1 -1 1 -1 2 1 1 1 1 2 1 -1 2 -1 1 0 
1 0 1 4 1 -2 2 0 1 2 1 1 1 1 1 1 
2 1 1 1 1 1 1 2 2 1 1 2 1 -1 1 -1 
1 0 2 2 1 1 1 2 1 0 2 0 1 0 1 0 
1 1 1 0 2 2 1 2 1 2 1 0 1 -1 2 -2 
1 1 1 2 1 0 2 1 1 2 1 1 1 -1 1 1 
2 0 1 2 1 1 1 -2 2 2 1 1 1 0 1 0 
1 2 2 3 1 0 1 -1 1 -1 1 0 2 1 1 2 
1 -1 1 1 2 3 1 -2 1 -2 1 0 1 2 2 0 
1 5 1 3 1 2 2 2 1 -2 1 2 1 0 1 -2 
2 -1 1 2 1 0 2229 927 100 MP stroke
1 0 1 0 2 2 1 3 1 0 1 0 2 1 1 0 
1 -2 1 2 1 1 2 2 1 2 1 0 1 0 1 -2 
2 2 1 0 1 -2 1 1 2 -4 1 -1 1 -4 1 3 
1 6 2 13 1 4 1 15 1 10 2 -30 1 -82 1 45 
1 7 1 8 2 26 1 -2 1 -12 1 2 1 7 2 13 
1 -24 1 13 1 3 2 6 1 3 1 -1 1 0 1 4 
2 2 1 2 1 -1 1 1 2 1 1 1 1 1 1 2 
1 3 2 -1 1 0 1 0 1 2 1 -2 2 1 1 1 
1 2 1 3 2 5 1 2 1 0 1 -2 1 3 2 -2 
1 0 1 1 1 4 2 2 1 -1 1 1 1 1 1 2 
2 2 1 -1 1 -1 1 0 1 2 2 2 1 4 1 1 
1 4 2 0 1 1 1 0 1 2 1 3 2 0 1 0 
1 3 1 0 2 3 2108 830 100 MP stroke
1 3 1 5 1 1 1 2 2 2 1 0 1 4 1 4 
1 -1 2 1 1 0 1 1 1 3 2 0 1 3 1 0 
1 4 1 4 2 1 1 1 1 2 1 2 2 1 1 0 
1 1 1 -2 1 2 2 -1 1 -2 1 2 1 2 1 1 
2 2 1 1 1 4 1 -1 2 1 1 1 1 0 1 1 
1 -2 2 3 1 3 1 3 1 4 2 1 1 3 1 3 
1 1 1 1 2 0 1 0 1 0 1 -3 1 1 2 3 
1 2 1 -1 1 0 2 0 1 0 1 -1 1 1 1 -3 
2 -2 1 -2 1 -1 1 3 2 1 1 2 1 0 1 3 
1 1 2 0 1 -1 1 -2 1 -1 1 -1 2 0 1 2 
1 -1 1 0 2 2 1 1 1 2 1 0 1 -1 2 0 
1 0 1 0 1 -3 2 1 1 0 1 -4 1 -2 1 -2 
2 3 1 1 1 3 1988 754 100 MP stroke
1 -3 1 -1 2 -2 1 0 1 -3 1 -3 2 -2 1 -2 
1 -1 1 -2 1 -2 2 -1 1 1 1 1 1 2 2 1 
1 1 1 0 1 -3 1 1 2 1 1 0 1 1 1 1 
1 2 2 2 1 3 1 0 1 2 2 -2 1 1 1 -2 
1 0 1 0 2 -1 1 -1 1 0 1 -1 2 -1 1 -2 
1 -1 1 -2 1 -4 2 -3 1 0 1 0 1 -1 1 1 
2 0 1 -2 1 -1 1 -3 2 0 1 0 1 -2 1 -3 
1 1 2 -1 1 -1 1 -2 1 -2 2 -2 1 -4 1 1 
1 -1 1 1 2 0 1 -2 1 2 1 1 1 1 2 2 
1 2 1 -2 1 -1 2 -2 1 -2 1 0 1 0 1 -2 
2 -1 1 -1 1 -1 1 1 2 1 1 -3 1 0 1 1 
1 1 2 -3 1 -2 1 -3 1 2 1 1 2 0 1 2 
1 1 1 1 2 1 1867 805 100 MP stroke
1 -1 1 0 1 -3 1 -1 2 -1 1 1 1 -1 1 1 
2 1 1 -2 1 2 1 -1 1 2 2 -1 1 -3 1 -2 
1 1 1 0 2 0 1 3 1 -1 1 -3 2 -2 1 -1 
1 1 1 1 1 3 2 -1 1 2 1 1 1 0 2 -2 
1 0 1 -1 1 2 1 1 2 1 1 4 1 2 1 0 
1 3 2 -2 1 4 1 1 1 -1 2 1 1 -4 1 2 
1 3 1 2 2 0 1 -1 1 0 1 1 2 -1 1 3 
1 1 1 3 1 1 2 0 1 2 1 -1 1 1 1 -2 
2 2 1 2 1 -1 1 0 2 2 1 1 1 -2 1 -1 
1 -2 2 -2 1 -1 1 0 1 1 1 2 2 0 1 -1 
1 -1 1 1 2 1 1 1 1 2 1 5 1 4 2 1 
1 3 1 0 1 2 2 1 1 0 1 -3 1 1 1 -1 
2 3 1 -1 1 2 1747 766 100 MP stroke
1 -3 1 -2 2 -1 1 -2 1 -1 1 2 2 3 1 -1 
1 -1 1 0 1 1 2 2 1 -4 1 0 1 -3 2 -3 
1 0 1 -2 1 0 1 -1 2 -3 1 0 1 -3 1 -2 
1 -3 2 -4 1 1 1 1 1 5 2 3 1 -3 1 -2 
1 -1 1 2 2 -1 1 0 1 2 1 0 2 1 1 2 
1 2 1 0 1 2 2 -2 1 -2 1 -4 1 -1 1 -1 
2 -1 1 -2 1 -1 1 -1 2 -1 1 1 1 -3 1 -4 
1 0 2 2 1 -1 1 1 1 1 2 1 1 -4 1 -6 
1 -9 1 -2 2 -5 1 1 1 -2 1 2 1 -14 2 -15 
1 -1 1 8 1 19 2 -2 1 6 1 -28 1 5 1 9 
2 -5 1 -4 1 4 1 -7 2 25 1 11 1 15 1 -29 
1 8 2 -16 1 -3 1 -15 1 -6 1 18 2 -6 1 -3 
1 -4 1 -2 2 7 1626 851 100 MP stroke
1 -5 1 -1 1 0 1 0 2 0 1 -2 1 0 1 0 
2 -1 1 -1 1 0 1 -2 1 -1 2 -1 1 0 1 1 
1 -1 1 -2 2 -2 1 -1 1 0 1 1 2 0 1 3 
1 1 1 1 1 -1 2 0 1 1 1 -2 1 -3 2 0 
1 2 1 -1 1 1 1 -1 2 1 1 3 1 1 1 3 
1 3 2 3 1 2 1 1 1 2 2 -1 1 1 1 1 
1 -1 1 -2 2 2 1 0 1 0 1 0 2 2 1 2 
1 -3 1 -4 1 -5 2 -2 1 1 1 2 1 -5 1 0 
2 5 1 4 1 1 1 -11 2 -18 1 -8 1 19 1 -23 
1 -1 2 0 1 0 1 0 1 -3 2 -3 1 1 1 -2 
1 -1 1 -4 2 -4 1 0 1 -1 1 -3 1 -3 2 -1 
1 0 1 -5 1 -5 2 1 1 5 1 3 1 3 1 2 
2 11 1 -5 1 5 1506 902 100 MP stroke
1 4 2 -21 1 1 1 1 1 -13 1 -3 2 -7 1 -3 
1 17 1 1 1 -2 2 -3 1 -8 1 -7 1 -3 2 -7 
1 15 1 7 1 -10 1 -6 2 14 1 -4 1 0 1 -2 
2 -1 1 0 1 -1 1 2 1 1 2 3 1 -12 1 -6 
1 -6 1 3 2 6 1 14 1 -3 1 11 2 2 1 15 
1 2 1 3 1 2 2 3 1 2 1 4 1 2 2 2 
1 1 1 0 1 1 1 2 2 2 1 0 1 0 1 5 
1 1 2 3 1 1 1 3 1 2 2 3 1 0 1 1 
1 1 1 1 2 2 1 3 1 2 1 1 2 0 1 0 
1 1 1 0 1 1 2 0 1 0 1 1 1 1 1 0 
2 -1 1 -1 1 2 1 0 2 -1 1 0 1 4 1 3 
1 1 2 1 1 0 1 -1 1 0 2 1 1 0 1 0 
1 -3 1 2 2 -1 1385 848 100 MP stroke
1 -4 1 1 1 -1 1 -2 2 -2 1 0 1 2 1 -4 
2 -3 1 -1 1 0 1 1 1 2 2 0 1 0 1 0 
1 -1 2 1 1 1 1 -3 1 -1 1 -2 2 -1 1 2 
1 0 1 1 1 -1 2 -4 1 0 1 -1 1 2 2 -1 
1 -1 1 -1 1 0 1 0 2 0 1 2 1 -1 1 -3 
1 -3 2 0 1 0 1 0 1 -1 2 2 1 1 1 -1 
1 -1 1 -1 2 0 1 0 1 -1 1 -1 2 -2 1 0 
1 0 1 0 1 0 2 -2 1 0 1 -2 1 -2 1 -4 
2 0 1 1 1 3 1 -1 2 2 1 1 1 -1 1 -2 
1 -4 2 1 1 0 1 -3 1 -2 2 3 1 1 1 1 
1 -1 1 -2 2 2 1 0 1 0 1 1 1 1 2 1 
1 1 1 0 1 0 2 -2 1 0 1 2 1 3 1 0 
2 -1 1 2 1 2 1265 880 100 MP stroke
1 -2 2 1 1 1 1 -1 1 -3 1 0 2 3 1 2 
1 -3 1 -1 1 -1 2 -1 1 0 1 0 1 -1 2 0 
1 -2 1 -1 1 1 1 3 2 -6 1 -1 1 -3 1 1 
2 2 1 -1 1 0 1 1 1 -2 2 -1 1 -2 1 -3 
1 -2 1 -1 2 0 1 1 1 4 1 5 2 1 1 0 
1 -5 1 -2 1 0 2 -3 1 -3 1 1 1 2 2 1 
1 4 1 2 1 -1 1 0 2 -4 1 -4 1 -2 1 -2 
1 0 2 -1 1 -1 1 -2 1 0 2 0 1 -3 1 -1 
1 -1 1 -2 2 -3 1 -3 1 -1 1 0 2 0 1 -2 
1 -5 1 -2 1 -1 2 -3 1 -1 1 -2 1 4 1 4 
2 2 1 -1 1 -1 1 -2 2 0 1 0 1 1 1 0 
1 0 2 -1 1 -4 1 -2 1 1 2 2 1 1 1 1 
1 1 1 -2 2 -1 1144 939 100 MP stroke
1 0 1 0 1 0 1 0 2 1 1 1 1 -1 1 1 
2 1 1 1 1 -2 1 -2 1 -1 2 -2 1 1 1 -1 
1 1 2 0 1 0 1 1 1 1 1 2 2 0 1 -2 
1 1 1 2 1 1 2 2 1 1 1 1 1 0 2 2 
1 1 1 -1 1 -2 1 0 2 0 1 0 1 1 1 0 
2 1 1 0 1 -2 1 -2 1 0 2 1 1 -1 1 -1 
1 0 1 0 2 1 1 1 1 3 1 0 2 2 1 0 
1 0 1 -2 1 0 2 0 1 1 1 1 1 -2 2 -3 
1 0 1 -1 1 -1 1 0 2 -1 1 -1 1 -2 1 1 
1 -1 2 -2 1 0 1 0 1 1 2 -1 1 -1 1 0 
1 0 1 -1 2 -1 1 -1 1 -2 1 0 2 0 1 0 
1 -2 1 0 1 0 2 -2 1 -2 1 1 1 3 1 1 
2 1 1 3 1 -1 1024 944 100 MP stroke
1 3 2 2 1 2 1 4 1 2 1 -3 2 -1 1 2 
1 0 1 4 2 1 1 -1 1 2 1 0 1 1 2 1 
1 -3 1 2 1 2 1 -1 2 0 1 2 1 3 1 0 
2 -1 1 -1 1 -1 1 0 1 1 2 1 1 0 1 1 
1 -1 2 -3 1 -3 1 -4 1 0 1 0 2 0 1 3 
1 0 1 3 1 0 2 4 1 3 1 1 1 -1 2 -4 
1 -4 1 -4 1 7 1 2 2 8 1 1 1 -4 1 -5 
2 -3 1 -1 1 -5 1 -6 1 0 2 -7 1 5 1 1 
1 -1 1 -2 2 4 1 11 1 4 1 0 2 22 1 3 
1 -21 1 -12 1 2 2 -8 1 -11 1 14 1 8 2 -7 
1 -15 1 -6 1 2 1 -25 2 15 1 12 1 -8 1 -1 
1 4 2 -8 1 11 1 -4 1 1 2 11 1 21 1 -13 
1 0 1 9 2 -17 903 942 100 MP stroke
1 -1 1 6 1 -9 1 15 899 931 5 MP stroke
/c11 { 0.000000 0.750000 0.750000 sr} bdef
c11
1 -7 1 5 1 34 2 -23 1 -1 1 -1 1 1 1 2 
2 0 1 2 1 -2 1 -3 2 0 1 -3 1 -4 1 -3 
1 -3 2 -3 1 -2 1 0 1 -2 1 -4 2 0 1 0 
1 -1 1 -2 2 0 1 -1 1 -4 1 -3 1 0 2 1 
1 -1 1 0 1 -3 2 -1 1 -1 1 -1 1 2 1 -1 
2 1 1 -4 1 -3 1 -1 1 1 2 2 1 -3 1 -3 
1 -3 2 -3 1 -1 1 -1 1 -2 1 0 2 0 1 0 
1 -1 1 -3 2 2 1 -4 1 -4 1 -4 1 1 2 -2 
1 -1 1 -1 1 -1 1 -1 2 -2 1 -1 1 0 1 -1 
2 -2 1 1 1 -3 1 -2 1 0 2 0 1 -2 1 -1 
1 -1 2 0 1 -1 1 0 1 -1 1 2 2 -2 1 1 
1 0 1 -1 1 -1 2 0 1 -3 1 -1 1 1 2 0 
1 0 1 0 1 -1 5965 3730 100 MP stroke
1 0 2 0 1 -2 1 -1 1 -2 2 -3 1 -5 1 -2 
1 -1 1 1 2 -1 1 1 1 2 1 -1 1 0 2 0 
1 2 1 0 1 -1 2 -3 1 0 1 2 1 -1 1 -2 
2 0 1 0 1 1 1 0 2 -3 1 0 1 -2 1 1 
1 2 2 -1 1 -3 1 2 1 1 1 2 2 -2 1 1 
1 1 1 0 2 1 1 -2 1 2 1 2 1 -2 2 0 
1 -2 1 -1 1 3 2 -1 1 0 1 -2 1 -1 1 0 
2 2 1 1 1 0 1 3 1 -1 2 -1 1 -2 1 -1 
1 0 2 -1 1 1 1 0 1 -1 1 2 2 -2 1 5 
1 1 1 -2 2 2 1 -1 1 -1 1 1 1 -1 2 1 
1 0 1 -1 1 2 1 -1 2 0 1 0 1 3 1 0 
2 1 1 1 1 1 1 -4 1 3 2 0 1 2 1 -3 
1 -1 2 2 1 3 5844 3737 100 MP stroke
1 3 1 0 1 1 2 1 1 1 1 0 1 -1 1 0 
2 0 1 -2 1 0 1 0 2 2 1 -2 1 2 1 -2 
1 2 2 -5 1 0 1 0 1 -1 2 0 1 1 1 1 
1 1 1 1 2 -1 1 0 1 0 1 1 1 -1 2 0 
1 -1 1 0 1 1 2 2 1 0 1 -2 1 1 1 -2 
2 1 1 -2 1 -2 1 -1 1 1 2 3 1 3 1 -1 
1 2 2 0 1 1 1 1 1 3 1 0 2 0 1 0 
1 1 1 0 2 -2 1 -3 1 -1 1 1 1 -1 2 2 
1 1 1 0 1 -2 1 -2 2 1 1 0 1 -3 1 -1 
2 -3 1 0 1 -1 1 1 1 0 2 3 1 0 1 2 
1 0 2 -1 1 -1 1 -1 1 0 1 1 2 1 1 -3 
1 1 1 0 1 4 2 -1 1 0 1 0 1 3 2 2 
1 1 1 -1 1 0 5724 3729 100 MP stroke
1 0 2 -1 1 -3 1 -1 1 -1 2 1 1 0 1 -1 
1 -1 1 -1 2 -2 1 1 1 0 1 -1 1 -1 2 -2 
1 -1 1 -1 1 -1 2 -1 1 -1 1 0 1 -3 1 -2 
2 0 1 -2 1 -3 1 2 2 -3 1 -1 1 1 1 1 
1 -3 2 -2 1 1 1 2 1 1 1 -1 2 0 1 0 
1 1 1 -1 2 -2 1 -4 1 1 1 1 1 -1 2 1 
1 4 1 -2 1 1 2 -3 1 -3 1 -2 1 -1 1 -1 
2 -3 1 1 1 -1 1 -4 1 0 2 1 1 -1 1 2 
1 -1 2 3 1 2 1 1 1 1 1 1 2 -2 1 -3 
1 -4 1 -2 2 -4 1 -2 1 2 1 -1 1 -2 2 1 
1 2 1 -2 1 -3 1 -2 2 -4 1 -1 1 -1 1 0 
2 1 1 2 1 0 1 1 1 0 2 0 1 -1 1 -1 
1 -2 2 1 1 0 5603 3795 100 MP stroke
1 -1 1 -3 1 -1 2 -1 1 1 1 0 1 0 1 -1 
2 -2 1 0 1 0 1 0 2 0 1 -1 1 0 1 0 
1 2 2 1 1 -3 1 -2 1 1 2 -1 1 -1 1 -1 
1 -2 1 -3 2 0 1 0 1 1 1 -2 1 -2 2 2 
1 0 1 -1 1 -1 2 0 1 0 1 0 1 -1 1 -1 
2 -1 1 -3 1 -2 1 -1 2 1 1 -2 1 0 1 0 
1 -1 2 0 1 0 1 -1 1 -1 1 0 2 -1 1 -3 
1 -1 1 1 2 1 1 -1 1 -2 1 3 1 -1 2 1 
1 -2 1 -4 1 0 2 -1 1 -3 1 1 1 -2 1 -1 
2 0 1 -1 1 -2 1 -2 1 -1 2 -1 1 -3 1 -1 
1 -1 2 1 1 -2 1 -1 1 -1 1 -3 2 -3 1 1 
1 0 1 3 2 -2 1 -1 1 -2 1 -1 1 -3 2 1 
1 -1 1 -2 1 -1 5483 3873 100 MP stroke
1 -2 2 1 1 -2 1 0 1 1 2 -2 1 2 1 -3 
1 -1 1 2 2 0 1 1 1 -1 1 0 2 0 1 -2 
1 -2 1 -1 1 0 2 -2 1 -3 1 1 1 0 1 -2 
2 1 1 -3 1 -2 1 -2 2 0 1 1 1 -1 1 1 
1 0 2 1 1 0 1 -1 1 -1 2 0 1 0 1 -1 
1 0 1 0 2 -2 1 -1 1 0 1 -1 1 4 2 2 
1 0 1 0 1 1 2 2 1 2 1 0 1 -1 1 -1 
2 -1 1 0 1 1 1 1 2 -1 1 -1 1 0 1 0 
1 -1 2 1 1 -1 1 0 1 2 1 -1 2 0 1 1 
1 -1 1 1 2 -3 1 -2 1 -2 1 -1 1 3 2 0 
1 0 1 0 1 1 2 -1 1 1 1 0 1 0 1 -1 
2 -1 1 -1 1 0 1 1 1 1 2 -3 1 0 1 -1 
1 2 2 2 1 3 5362 3892 100 MP stroke
1 0 1 2 1 3 2 1 1 0 1 -2 1 2 1 2 
2 1 1 4 1 -1 1 1 2 0 1 1 1 1 1 0 
1 0 2 2 1 2 1 2 1 0 2 -1 1 1 1 -1 
1 -1 1 0 2 2 1 0 1 1 1 -2 1 2 2 0 
1 0 1 2 1 1 2 1 1 1 1 1 1 0 1 0 
2 0 1 4 1 0 1 0 2 -2 1 0 1 7 1 4 
1 1 2 1 1 9 1 -3 1 4 1 11 2 -7 1 -3 
1 0 1 3 2 5 1 2 1 0 1 2 1 2 2 2 
1 -1 1 1 1 -1 2 -1 1 2 1 1 1 -2 1 0 
2 2 1 0 1 0 1 0 1 0 2 0 1 -1 1 -2 
1 1 2 3 1 1 1 3 1 0 1 -1 2 2 1 -2 
1 -4 1 0 2 -1 1 0 1 1 1 0 1 0 2 0 
1 2 1 0 1 0 5242 3819 100 MP stroke
1 -5 2 -5 1 3 1 -1 1 -6 2 -3 1 -8 1 9 
1 12 1 20 2 5 1 -10 1 3 1 5 2 -16 1 -5 
1 3 1 7 1 12 2 4 1 -3 1 -4 1 1 1 0 
2 -1 1 -3 1 2 1 1 2 -1 1 0 1 0 1 -2 
1 -3 2 -2 1 1 1 0 1 1 2 1 1 -1 1 2 
1 -1 1 2 2 1 1 -2 1 -2 1 1 1 0 2 -1 
1 -2 1 -2 1 1 2 -2 1 0 1 1 1 -2 1 0 
2 -1 1 1 1 -1 1 -3 2 1 1 0 1 0 1 1 
1 1 2 2 1 1 1 -2 1 1 1 0 2 2 1 -2 
1 -1 1 0 2 0 1 1 1 1 1 2 1 1 2 -2 
1 1 1 0 1 0 2 0 1 0 1 0 1 -1 1 -1 
2 -1 1 1 1 -2 1 -2 1 2 2 0 1 1 1 -4 
1 0 2 3 1 -1 5121 3815 100 MP stroke
1 -2 1 -3 1 0 2 -1 1 0 1 -2 1 1 2 4 
1 -1 1 -1 1 1 1 0 2 -2 1 -2 1 -2 1 1 
1 0 2 1 1 -1 1 -2 1 0 2 2 1 -1 1 -1 
1 0 1 -1 2 -1 1 0 1 -2 1 3 2 -1 1 -2 
1 -2 1 3 1 2 2 0 1 2 1 1 1 3 1 3 
2 -2 1 -1 1 -2 1 -2 2 -2 1 -3 1 -1 1 3 
1 0 2 1 1 -2 1 1 1 1 2 0 1 -1 1 0 
1 0 1 1 2 0 1 1 1 3 1 -2 1 -1 2 -3 
1 -2 1 1 1 -2 2 -2 1 -2 1 2 1 0 1 0 
2 -1 1 0 1 2 1 -1 2 -3 1 2 1 2 1 2 
1 -1 2 1 1 1 1 1 1 -2 1 -2 2 0 1 1 
1 0 1 -1 2 2 1 2 1 0 1 -1 1 1 2 0 
1 1 1 -1 1 0 5001 3829 100 MP stroke
2 -1 1 0 1 1 1 1 1 1 2 -1 1 1 1 4 
1 -2 1 1 2 -1 1 1 1 -5 1 -2 2 1 1 -1 
1 -1 1 2 1 1 2 4 1 2 1 0 1 0 2 -1 
1 -1 1 -1 1 3 1 1 2 0 1 -1 1 -1 1 2 
1 0 2 0 1 0 1 1 1 1 2 1 1 0 1 -1 
1 -3 1 0 2 -1 1 1 1 -2 1 -1 2 -2 1 1 
1 1 1 2 1 1 2 0 1 -1 1 2 1 2 1 1 
2 1 1 -4 1 0 1 0 2 -1 1 -1 1 -4 1 0 
1 1 2 -1 1 -2 1 -2 1 0 2 1 1 -1 1 -2 
1 -1 1 -3 2 -3 1 -3 1 -3 1 0 1 -2 2 -2 
1 -3 1 -2 1 -3 2 0 1 -3 1 0 1 1 1 -1 
2 0 1 1 1 -1 1 -1 1 0 2 -1 1 -1 1 -1 
1 -1 2 -1 1 -1 4880 3869 100 MP stroke
1 0 1 1 1 0 2 -2 1 -1 1 1 1 -2 2 -1 
1 3 1 -4 1 1 1 -2 2 -3 1 -2 1 -2 1 -1 
1 -2 2 -2 1 -1 1 0 1 1 2 -1 1 -2 1 1 
1 -3 1 -3 2 2 1 -1 1 -1 1 -3 2 -2 1 1 
1 0 1 -1 1 -2 2 2 1 -1 1 -2 1 0 1 -1 
2 0 1 0 1 -2 1 0 2 -2 1 0 1 -1 1 -2 
1 1 2 1 1 -1 1 -4 1 -1 2 -4 1 0 1 -3 
1 -2 1 -2 2 -1 1 -2 1 -1 1 -1 1 0 2 -2 
1 -1 1 -2 1 -1 2 -1 1 0 1 -3 1 -2 1 3 
2 -1 1 -2 1 0 1 -1 2 -2 1 -2 1 -1 1 1 
1 -2 2 0 1 -2 1 -2 1 -2 1 -2 2 -2 1 -2 
1 -1 1 1 2 0 1 0 1 -2 1 0 1 1 2 2 
1 -1 1 -4 1 0 4760 3966 100 MP stroke
2 0 1 -3 1 0 1 -1 1 -1 2 0 1 1 1 3 
1 1 1 1 2 0 1 0 1 1 1 2 2 0 1 -1 
1 3 1 1 1 0 2 2 1 3 1 1 1 1 2 1 
1 1 1 0 1 -2 1 -3 2 0 1 0 1 2 1 0 
1 0 2 1 1 1 1 1 1 0 2 -1 1 0 1 0 
1 0 1 -1 2 0 1 2 1 0 1 -2 2 0 1 1 
1 3 1 -2 1 -1 2 -1 1 2 1 0 1 0 1 0 
2 2 1 3 1 1 1 0 2 0 1 2 1 0 1 1 
1 -1 2 -2 1 0 1 0 1 -2 2 -4 1 0 1 1 
1 3 1 1 2 1 1 1 1 0 1 -1 1 1 2 0 
1 -2 1 -3 1 -2 2 -3 1 1 1 0 1 -1 1 -1 
2 2 1 0 1 1 1 1 2 1 1 -2 1 0 1 -4 
1 0 2 0 1 0 4639 3955 100 MP stroke
1 0 1 -2 1 -1 2 0 1 3 1 0 1 0 2 0 
1 0 1 -1 1 -1 1 0 2 0 1 0 1 1 1 1 
2 0 1 0 1 2 1 -3 1 0 2 -3 1 0 1 -1 
1 0 1 0 2 0 1 -1 1 -1 1 5 2 2 1 0 
1 0 1 -3 1 1 2 2 1 1 1 -3 1 2 2 -1 
1 -4 1 -6 1 -12 1 0 2 10 1 10 1 5 1 0 
1 10 2 12 1 0 1 -11 1 -1 2 -1 1 5 1 -30 
1 0 1 -1 2 5 1 5 1 5 1 -2 2 6 1 1 
1 -2 1 0 1 1 2 2 1 -1 1 2 1 -1 1 9 
2 2 1 5 1 10 1 9 2 5 1 -14 1 -32 1 -6 
1 13 2 10 1 -6 1 6 1 0 2 3 1 1 1 -1 
1 -2 1 -1 2 -2 1 -1 1 -4 1 1 1 3 2 -5 
1 4 1 2 1 6 4519 3934 100 MP stroke
2 2 1 4 1 1 1 2 1 1 2 1 1 2 1 0 
1 1 2 2 1 4 1 1 1 4 1 0 2 1 1 1 
1 2 1 4 1 0 2 -1 1 0 1 2 1 4 2 1 
1 -1 1 -2 1 0 1 1 2 1 1 0 1 2 1 1 
2 -2 1 -2 1 -2 1 0 1 0 2 0 1 1 1 3 
1 3 1 -1 2 0 1 1 1 2 1 -4 2 -3 1 -3 
1 1 1 3 1 0 2 3 1 1 1 1 1 1 1 1 
2 2 1 2 1 4 1 2 2 2 1 4 1 2 1 3 
1 -1 2 0 1 0 1 1 1 0 2 1 1 2 1 1 
1 1 1 -1 2 1 1 1 1 -1 1 2 1 -1 2 1 
1 3 1 -2 1 0 2 -1 1 3 1 -1 1 -2 1 -1 
2 -1 1 -1 1 -3 1 -1 2 1 1 3 1 1 1 -1 
1 2 2 3 1 -2 4398 3861 100 MP stroke
1 1 1 0 1 0 2 1 1 0 1 1 1 3 2 2 
1 -1 1 -2 1 1 1 2 2 2 1 1 1 -3 1 -3 
2 -2 1 -1 1 -2 1 2 1 -2 2 -1 1 2 1 1 
1 0 1 2 2 1 1 -1 1 -1 1 0 2 1 1 -3 
1 -3 1 -2 1 0 2 -2 1 -1 1 -2 1 2 2 0 
1 0 1 -1 1 -3 1 -2 2 -2 1 -2 1 1 1 1 
1 1 2 -1 1 -1 1 2 1 2 2 0 1 0 1 -2 
1 -2 1 -2 2 -5 1 1 1 3 1 2 2 -1 1 1 
1 0 1 0 1 0 2 -2 1 0 1 0 1 2 1 0 
2 -2 1 -2 1 0 1 -3 2 -2 1 0 1 -1 1 0 
1 -1 2 -4 1 0 1 0 1 1 2 2 1 0 1 -1 
1 -2 1 -1 2 -1 1 0 1 0 1 1 1 0 2 -1 
1 -1 1 1 1 -4 4278 3899 100 MP stroke
2 -2 1 -1 1 -1 1 -2 1 -3 2 -2 1 0 1 -2 
1 -2 2 0 1 0 1 0 1 -3 1 -3 2 -4 1 -1 
1 -3 1 -1 1 1 2 4 1 -2 1 -2 1 -3 2 -1 
1 0 1 -4 1 -1 1 -1 2 -1 1 0 1 -1 1 -3 
2 1 1 0 1 -2 1 0 1 1 2 2 1 -1 1 -1 
1 -2 1 -2 2 2 1 0 1 -2 1 -1 2 -1 1 2 
1 1 1 0 1 2 2 0 1 1 1 1 1 1 2 -3 
1 -3 1 0 1 -1 1 0 2 1 1 -1 1 1 1 1 
1 0 2 -3 1 2 1 1 1 0 2 -1 1 -2 1 -2 
1 -1 1 -1 2 0 1 1 1 2 1 -1 2 0 1 -2 
1 1 1 0 1 2 2 0 1 0 1 1 1 1 1 2 
2 1 1 -1 1 -1 1 2 2 -2 1 -2 1 1 1 1 
1 0 2 1 1 2 4157 3944 100 MP stroke
1 3 1 1 2 -1 1 1 1 2 1 -1 1 0 2 2 
1 2 1 4 1 -3 1 -2 2 -1 1 0 1 -1 1 -1 
2 -2 1 -2 1 0 1 0 1 0 2 0 1 0 1 -2 
1 -2 2 0 1 1 1 0 1 1 1 -1 2 -2 1 0 
1 0 1 -1 1 0 2 -2 1 0 1 -2 1 -1 2 1 
1 2 1 -1 1 1 1 0 2 -1 1 -1 1 0 1 2 
2 2 1 -1 1 -3 1 1 1 0 2 0 1 0 1 -1 
1 0 1 0 2 -1 1 -2 1 3 1 3 2 0 1 -1 
1 0 1 0 1 1 2 2 1 1 1 1 1 1 2 1 
1 -1 1 1 1 0 1 0 2 -2 1 -2 1 2 1 2 
1 1 2 -1 1 0 1 0 1 -2 2 0 1 -3 1 -2 
1 2 1 1 2 -2 1 1 1 -2 1 0 2 2 1 1 
1 -2 1 1 1 0 4037 3949 100 MP stroke
2 2 1 -3 1 -2 1 2 1 -1 2 -2 1 -4 1 0 
1 2 2 1 1 1 1 0 1 2 1 1 2 1 1 0 
1 0 1 0 1 -1 2 -2 1 0 1 1 1 1 2 0 
1 2 1 3 1 -1 1 -2 2 -4 1 -1 1 0 1 2 
2 -1 1 -1 1 -3 1 0 1 1 2 1 1 0 1 1 
1 0 1 0 2 -1 1 -1 1 -1 1 -1 2 -2 1 1 
1 2 1 0 1 0 2 -1 1 -3 1 1 1 0 2 1 
1 2 1 1 1 -1 1 0 2 2 1 0 1 2 1 1 
1 -1 2 0 1 -1 1 -1 1 1 2 -1 1 2 1 1 
1 0 1 -2 2 0 1 0 1 -1 1 -1 2 0 1 3 
1 0 1 0 1 -1 2 0 1 1 1 0 1 1 1 2 
2 1 1 2 1 -1 1 0 2 1 1 1 1 1 1 -1 
1 1 2 0 1 0 3916 3944 100 MP stroke
1 -4 1 2 2 1 1 1 1 1 1 0 1 2 2 3 
1 1 1 1 1 1 1 2 2 3 1 0 1 -3 1 -2 
2 0 1 0 1 1 1 0 1 0 2 1 1 0 1 0 
1 1 2 1 1 2 1 0 1 -3 1 -1 2 2 1 1 
1 -1 1 0 1 0 2 3 1 3 1 0 1 0 2 0 
1 0 1 -3 1 -3 1 0 2 0 1 -1 1 -2 1 -4 
2 3 1 2 1 1 1 -1 1 0 2 1 1 1 1 1 
1 1 1 -1 2 -1 1 -1 1 1 1 0 2 -1 1 0 
1 0 1 2 1 0 2 -1 1 0 1 1 1 -1 2 0 
1 1 1 2 1 1 1 1 2 -1 1 0 1 0 1 0 
1 -1 2 -2 1 0 1 0 1 -3 2 1 1 0 1 -2 
1 1 1 -1 2 1 1 0 1 1 1 -2 2 -1 1 -2 
1 2 1 0 1 0 3796 3935 100 MP stroke
2 1 1 1 1 3 1 1 1 -1 2 -1 1 1 1 0 
1 1 2 2 1 2 1 0 1 0 1 -2 2 0 1 0 
1 0 1 1 2 -2 1 0 1 2 1 1 1 -1 2 0 
1 -3 1 2 1 1 1 -2 2 1 1 -2 1 0 1 0 
2 -2 1 1 1 -3 1 -1 1 1 2 1 1 -2 1 -2 
1 1 2 -1 1 2 1 0 1 -1 1 -1 2 1 1 -1 
1 2 1 4 1 -1 2 1 1 -1 1 1 1 -1 2 -2 
1 0 1 1 1 1 1 1 2 2 1 2 1 -1 1 0 
2 1 1 3 1 -3 1 -2 1 0 2 1 1 -1 1 -4 
1 0 1 1 2 -3 1 -2 1 1 1 0 2 0 1 -3 
1 -3 1 -2 1 0 2 -1 1 -1 1 0 1 -1 2 -1 
1 -1 1 -2 1 -2 1 -1 2 2 1 -1 1 -3 1 1 
1 0 2 -1 1 -1 3675 3956 100 MP stroke
1 0 1 0 2 2 1 -2 1 -2 1 -3 1 0 2 -3 
1 -1 1 0 1 2 2 1 1 -1 1 0 1 0 1 1 
2 0 1 -2 1 0 1 -1 1 0 2 -1 1 -1 1 0 
1 0 2 -1 1 1 1 -3 1 -4 1 0 2 0 1 -2 
1 1 1 4 2 1 1 -3 1 -2 1 -3 1 1 2 -1 
1 -1 1 -2 1 -1 1 -1 2 1 1 -1 1 2 1 -1 
2 1 1 3 1 -2 1 -3 1 0 2 1 1 -3 1 1 
1 -3 2 -1 1 -2 1 2 1 2 1 4 2 -2 1 -2 
1 1 1 -1 1 -1 2 -2 1 -1 1 1 1 -1 2 -2 
1 -1 1 2 1 1 1 -1 2 -1 1 -1 1 4 1 -1 
2 -4 1 1 1 0 1 -4 1 -4 2 -1 1 1 1 -3 
1 -2 1 -1 2 -3 1 0 1 3 1 1 2 -2 1 0 
1 1 1 0 1 -3 3555 4010 100 MP stroke
2 0 1 -1 1 -1 1 0 1 -1 2 1 1 -4 1 -1 
1 -4 2 0 1 0 1 2 1 2 1 -1 2 0 1 1 
1 -2 1 0 2 -1 1 0 1 0 1 -2 1 -2 2 0 
1 0 1 -2 1 2 1 -1 2 -2 1 -1 1 -2 1 -3 
2 -2 1 -1 1 1 1 1 1 -3 2 0 1 -2 1 0 
1 -2 2 -1 1 1 1 -1 1 1 1 2 2 0 1 -4 
1 -2 1 0 1 2 2 -4 1 1 1 -4 1 -3 2 -2 
1 -3 1 1 1 2 1 -2 2 0 1 -2 1 -1 1 -3 
2 2 1 1 1 -2 1 -1 1 -2 2 -2 1 -3 1 -1 
1 0 1 1 2 1 1 0 1 1 1 1 2 -2 1 -1 
1 -2 1 0 1 0 2 0 1 -1 1 3 1 3 2 3 
1 1 1 3 1 1 1 0 2 0 1 -1 1 -1 1 -3 
1 -1 2 -2 1 -2 3434 4069 100 MP stroke
1 0 1 0 2 0 1 1 1 0 1 1 1 0 2 1 
1 -2 1 -2 1 1 2 2 1 -3 1 -1 1 -1 1 -1 
2 2 1 2 1 -1 1 0 1 -2 2 -2 1 6 1 2 
1 -2 2 -1 1 1 1 0 1 2 1 3 2 1 1 0 
1 -1 1 0 2 0 1 1 1 0 1 -1 1 0 2 0 
1 -2 1 0 1 -1 1 0 2 -2 1 -2 1 0 1 1 
2 -1 1 -1 1 -1 1 -1 1 1 2 -1 1 -3 1 1 
1 0 2 2 1 5 1 -1 1 -3 1 -1 2 0 1 -1 
1 -1 1 -3 1 3 2 3 1 3 1 -1 1 0 2 -4 
1 -1 1 -1 1 1 1 2 2 1 1 1 1 3 1 -1 
2 -1 1 4 1 2 1 -1 1 1 2 1 1 -1 1 0 
1 0 1 -1 2 -1 1 1 1 -3 1 -1 2 1 1 0 
1 0 1 -1 1 2 3314 4067 100 MP stroke
2 2 1 2 1 0 1 -1 2 1 1 -1 1 1 1 0 
1 2 2 -1 1 0 1 -3 1 2 1 1 2 2 1 2 
1 -2 1 0 2 -3 1 -2 1 0 1 1 1 -3 2 0 
1 2 1 -1 1 0 2 0 1 1 1 -1 1 -1 1 1 
2 0 1 0 1 -2 1 -1 1 0 2 -2 1 -1 1 0 
1 1 2 -2 1 0 1 -1 1 -2 1 -4 2 0 1 1 
1 -2 1 2 2 4 1 2 1 1 1 -2 1 0 2 3 
1 -1 1 -1 1 0 1 -2 2 0 1 0 1 1 1 0 
2 -1 1 -2 1 -2 1 1 1 -1 2 0 1 1 1 0 
1 3 2 1 1 -1 1 0 1 -1 1 4 2 -1 1 -1 
1 -2 1 0 1 -1 2 -2 1 2 1 -1 1 -2 2 -1 
1 -1 1 1 1 -2 1 -1 2 -2 1 -1 1 -1 1 0 
2 -2 1 -1 1 -1 3193 4092 100 MP stroke
1 1 1 1 2 1 1 -3 1 -2 1 0 1 -3 2 -2 
1 -1 1 0 1 0 2 0 1 1 1 -2 1 -1 1 -4 
2 -3 1 0 1 1 1 0 2 -2 1 1 1 -1 1 1 
1 0 2 -2 1 -2 1 -1 1 1 1 -1 2 -3 1 1 
1 -3 1 2 2 0 1 -3 1 -3 1 -4 1 -1 2 -3 
1 0 1 2 1 1 2 -4 1 -3 1 0 1 -2 1 -1 
2 -1 1 1 1 4 1 0 1 -1 2 1 1 -1 1 -3 
1 -3 2 -3 1 0 1 0 1 3 1 -2 2 0 1 1 
1 -1 1 -1 1 -3 2 1 1 1 1 2 1 3 2 1 
1 -2 1 -3 1 -1 1 -1 2 -2 1 -2 1 1 1 0 
2 -1 1 -1 1 1 1 -1 1 -3 2 -1 1 2 1 1 
1 2 1 1 2 1 1 0 1 0 1 -1 2 1 1 -1 
1 -3 1 -4 1 2 3073 4154 100 MP stroke
2 1 1 2 1 4 1 1 2 1 1 -1 1 -3 1 2 
1 4 2 -1 1 2 1 4 1 3 1 6 2 3 1 -3 
1 -5 1 -3 2 6 1 9 1 -16 1 0 1 6 2 -2 
1 22 1 -7 1 8 2 -18 1 -8 1 -5 1 -13 1 39 
2 5 1 5 1 -2 1 2 1 23 2 2 1 0 1 3 
1 6 2 3 1 -1 1 -2 1 1 1 3 2 2 1 2 
1 0 1 1 2 4 1 0 1 0 1 4 1 2 2 4 
1 -1 1 2 1 3 1 3 2 2 1 -1 1 2 1 3 
2 3 1 0 1 -1 1 0 1 1 2 0 1 -2 1 -2 
1 -1 2 2 1 3 1 2 1 3 1 1 2 0 1 1 
1 -1 1 0 1 4 2 -4 1 -3 1 0 1 1 2 5 
1 -1 1 0 1 0 1 2 2 -1 1 0 1 1 1 -2 
2 5 1 0 1 0 2952 4020 100 MP stroke
1 3 1 1 2 1 1 4 1 4 1 6 1 15 2 -8 
1 -1 1 0 1 2 2 -2 1 -1 1 22 1 2 1 4 
2 4 1 4 1 1 1 1 2 3 1 0 1 3 1 1 
1 3 2 1 1 -3 1 -2 1 0 1 -6 2 4 1 -2 
1 10 1 5 2 -9 1 2 1 6 1 4 1 8 2 0 
1 -7 1 0 1 -2 2 6 1 -6 1 4 1 5 1 7 
2 0 1 6 1 2 1 -21 1 -4 2 9 1 2 1 -4 
1 -17 2 -9 1 8 1 1 1 2 1 15 2 -11 1 -2 
1 23 1 8 2 -25 1 19 1 3 1 -13 1 -2 2 12 
1 27 1 -14 1 0 1 -28 2 35 1 13 1 -6 1 16 
2 4 1 -3 1 0 1 2 1 -6 2 -3 1 9 1 6 
1 9 2 -25 1 -7 1 -11 1 8 1 0 2 5 1 32 
1 0 1 1 1 22 2832 3835 100 MP stroke
2 -16 1 11 1 -18 1 -3 2 -5 1 9 1 9 1 -4 
1 -34 2 3 1 9 1 -1 1 -8 2 5 1 -2 1 19 
1 -10 1 14 2 40 1 10 1 6 1 -15 1 -9 2 -18 
1 8 1 8 1 10 2 -10 1 20 1 -2 1 4 1 0 
2 -16 1 7 1 -6 1 -3 2 -4 1 12 1 -14 1 -4 
1 -1 2 8 1 -8 1 1 1 33 1 1 2 12 1 -1 
1 -1 1 -3 2 -13 1 -20 1 -2 1 9 1 9 2 0 
1 -7 1 5 1 -17 2 -16 1 -8 1 -10 1 -8 1 37 
2 16 1 20 1 8 1 11 1 -3 2 -11 1 8 1 21 
1 -15 2 16 1 1 1 -29 1 15 1 -9 2 9 1 -3 
1 -20 1 1 2 -5 1 4 1 -7 1 11 1 15 2 10 
1 6 1 7 1 11 1 6 2 -9 1 -10 1 2 1 4 
2 12 1 1 1 -13 2711 3752 100 MP stroke
1 9 1 -20 2 -28 1 13 1 25 1 41 2 -8 1 -39 
1 4 1 17 1 3 2 -7 1 4 1 14 1 7 1 -2 
2 1 1 0 1 1 1 0 2 0 1 0 1 2 1 0 
1 0 2 1 1 1 1 1 1 -1 1 1 2 0 1 3 
1 2 1 -1 2 2 1 1 1 0 1 -1 1 0 2 0 
1 0 1 2 1 0 2 -1 1 2 1 4 1 -2 1 -5 
2 -5 1 -2 1 -1 1 0 1 0 2 0 1 0 1 1 
1 -4 2 -1 1 1 1 1 1 -2 1 1 2 0 1 0 
1 -1 1 0 2 1 1 1 1 -1 1 -1 1 0 2 -2 
1 -1 1 1 1 1 1 0 2 0 1 1 1 -1 1 0 
2 1 1 0 1 0 1 -1 1 -1 2 -1 1 -1 1 -3 
1 -4 2 0 1 0 1 1 1 -1 1 0 2 -1 1 0 
1 0 1 -1 1 0 2591 3731 100 MP stroke
2 1 1 -3 1 2 1 -2 2 -1 1 -2 1 -1 1 1 
1 2 2 0 1 2 1 -3 1 -1 2 -1 1 -1 1 -1 
1 -2 1 -1 2 0 1 0 1 1 1 1 1 1 2 0 
1 -1 1 0 1 2 2 2 1 -1 1 -3 1 -2 1 1 
2 0 1 0 1 2 1 0 2 1 1 2 1 -2 1 0 
1 -2 2 1 1 1 1 -1 1 1 1 1 2 -1 1 -2 
1 -1 1 2 2 -1 1 -1 1 -3 1 0 1 1 2 0 
1 -2 1 -1 1 -2 2 0 1 0 1 -1 1 0 1 0 
2 -2 1 1 1 1 1 0 1 -2 2 -4 1 2 1 -2 
1 -2 2 0 1 -4 1 0 1 0 1 1 2 -2 1 -1 
1 -4 1 -2 2 1 1 -1 1 -1 1 2 1 1 2 -1 
1 1 1 -1 1 1 1 -1 2 -2 1 0 1 0 1 1 
2 -5 1 0 1 0 2470 3774 100 MP stroke
1 1 1 0 2 -1 1 -2 1 1 1 -1 2 0 1 -2 
1 0 1 -1 1 1 2 -1 1 -2 1 -1 1 4 1 -2 
2 -1 1 2 1 1 1 -1 2 1 1 -1 1 -2 1 -3 
1 -1 2 -2 1 0 1 -1 1 -1 2 -1 1 -1 1 -1 
1 -2 1 0 2 0 1 -2 1 1 1 -2 1 0 2 0 
1 -3 1 0 1 -1 2 -3 1 -4 1 1 1 0 1 -2 
2 -2 1 -3 1 -8 1 -3 2 3 1 5 1 13 1 6 
1 -17 2 -12 1 -2 1 4 1 -25 1 0 2 1 1 27 
1 12 1 -18 2 -25 1 -6 1 0 1 -1 1 -2 2 -2 
1 0 1 -3 1 -1 2 0 1 2 1 -1 1 -2 1 -2 
2 0 1 0 1 -3 1 -1 1 -1 2 -2 1 -2 1 -2 
1 -1 2 -2 1 -1 1 -1 1 -2 1 0 2 0 1 0 
1 -2 1 -2 2 -2 2349 3895 100 MP stroke
1 -1 1 -2 1 -2 1 0 2 3 1 -1 1 -1 1 -3 
1 0 2 -1 1 -1 1 -5 1 -2 2 2 1 4 1 3 
1 -1 1 -1 2 -1 1 -2 1 -3 1 -1 2 -1 1 0 
1 -1 1 -1 1 3 2 -1 1 -2 1 1 1 -3 1 0 
2 0 1 -4 1 -4 1 -2 2 -1 1 -1 1 -1 1 -2 
1 -5 2 -3 1 -1 1 -1 1 0 2 -1 1 2 1 -3 
1 -2 1 -1 2 -3 1 -1 1 2 1 1 1 -1 2 -3 
1 -2 1 -1 1 2 2 -1 1 0 1 0 1 1 1 -1 
2 -1 1 0 1 1 1 1 2 0 1 0 1 3 1 2 
1 1 2 -2 1 0 1 -2 1 -2 1 -3 2 -2 1 -2 
1 0 1 -2 2 0 1 -1 1 -1 1 2 1 -1 2 -1 
1 -2 1 -2 1 5 2 -3 1 -1 1 -1 1 2 1 -1 
2 -4 1 -2 1 -1 2229 3973 100 MP stroke
1 0 1 -2 2 -3 1 1 1 1 1 -1 2 -1 1 -1 
1 0 1 -1 1 -2 2 -2 1 0 1 0 1 2 1 1 
2 -1 1 -2 1 3 1 0 2 -4 1 -3 1 -7 1 -5 
1 -9 2 0 1 -1 1 5 1 10 2 -23 1 -38 1 108 
1 -10 1 0 2 -35 1 23 1 -17 1 -2 1 -14 2 -5 
1 13 1 -9 1 -2 2 1 1 -1 1 -4 1 -3 1 -5 
2 -1 1 -3 1 -1 1 0 2 1 1 0 1 -2 1 0 
1 1 2 -1 1 -1 1 1 1 -1 1 -1 2 -2 1 -2 
1 -4 1 -2 2 2 1 1 1 0 1 -2 1 -1 2 -2 
1 -1 1 0 1 1 2 0 1 0 1 -1 1 1 1 1 
2 0 1 -1 1 -2 1 1 1 1 2 -2 1 0 1 0 
1 -2 2 -1 1 -2 1 -1 1 -3 1 0 2 3 1 -1 
1 0 1 1 2 -2 2108 4048 100 MP stroke
1 0 1 -2 1 -4 1 -1 2 0 1 -2 1 -2 1 -1 
1 2 2 -1 1 -3 1 -2 1 -1 2 -2 1 -3 1 -3 
1 -3 1 1 2 1 1 -2 1 0 1 -2 2 -2 1 -1 
1 -1 1 -1 1 0 2 1 1 0 1 -2 1 1 1 0 
2 -1 1 -3 1 -2 1 -2 2 -2 1 0 1 0 1 -1 
1 0 2 -1 1 -2 1 -2 1 0 2 -2 1 1 1 0 
1 0 1 0 2 -1 1 1 1 3 1 -2 1 1 2 -1 
1 1 1 -1 1 0 2 -1 1 -1 1 -2 1 0 1 0 
2 -1 1 0 1 1 1 1 2 3 1 1 1 -1 1 3 
1 0 2 -1 1 1 1 -1 1 4 1 -2 2 0 1 1 
1 0 1 -2 2 -2 1 -2 1 1 1 0 1 1 2 1 
1 3 1 0 1 0 2 0 1 0 1 -1 1 3 1 -2 
2 0 1 0 1 0 1988 4094 100 MP stroke
1 4 1 3 2 -2 1 0 1 -2 1 0 2 1 1 1 
1 2 1 1 1 -1 2 0 1 1 1 0 1 0 2 -3 
1 0 1 5 1 2 1 3 2 0 1 2 1 3 1 0 
1 0 2 -1 1 -1 1 -2 1 1 2 0 1 1 1 3 
1 0 1 -2 2 0 1 0 1 -2 1 2 2 -1 1 0 
1 2 1 0 1 0 2 -3 1 0 1 3 1 -1 1 0 
2 0 1 0 1 -1 1 1 2 -2 1 1 1 0 1 1 
1 -1 2 0 1 1 1 2 1 -2 2 -1 1 2 1 -2 
1 0 1 2 2 1 1 -2 1 -1 1 1 1 5 2 2 
1 -2 1 -3 1 -1 2 0 1 0 1 -1 1 1 1 -1 
2 -2 1 -1 1 1 1 -1 2 -1 1 3 1 -3 1 -1 
1 -1 2 2 1 0 1 -4 1 -1 1 0 2 2 1 1 
1 -1 1 0 2 1 1867 4081 100 MP stroke
1 0 1 -1 1 1 1 -1 2 -2 1 0 1 0 1 0 
2 2 1 0 1 -2 1 -1 1 4 2 -2 1 -1 1 -3 
1 -1 1 -2 2 0 1 -1 1 -1 1 -1 2 2 1 1 
1 -2 1 -2 1 0 2 -1 1 0 1 -2 1 0 2 -1 
1 -5 1 2 1 0 1 1 2 -2 1 -3 1 0 1 -1 
1 3 2 -1 1 -1 1 1 1 -2 2 1 1 -3 1 -1 
1 2 1 2 2 -3 1 -2 1 -1 1 -2 2 1 1 -1 
1 1 1 1 1 1 2 1 1 -2 1 0 1 1 1 -2 
2 0 1 -2 1 -1 1 -4 2 1 1 -2 1 0 1 -1 
1 -2 2 0 1 1 1 0 1 -1 1 1 2 0 1 3 
1 0 1 1 2 3 1 -2 1 0 1 2 1 3 2 6 
1 2 1 3 1 3 2 0 1 2 1 0 1 -2 1 0 
2 1 1 1 1 2 1747 4094 100 MP stroke
1 2 1 -2 2 0 1 0 1 1 1 4 2 0 1 0 
1 0 1 1 1 1 2 5 1 4 1 1 1 2 2 2 
1 -2 1 -2 1 1 1 3 2 2 1 -1 1 2 1 0 
1 1 2 1 1 4 1 2 1 1 2 4 1 3 1 2 
1 -2 1 -1 2 1 1 2 1 3 1 1 2 1 1 0 
1 1 1 -2 1 2 2 -1 1 2 1 0 1 -1 1 -1 
2 -1 1 1 1 -2 1 -2 2 1 1 0 1 -1 1 -2 
1 -6 2 2 1 1 1 0 1 -2 2 1 1 3 1 0 
1 -3 1 0 2 3 1 5 1 -3 1 -6 1 3 2 0 
1 0 1 7 1 -21 2 10 1 21 1 -3 1 -3 1 5 
2 8 1 11 1 21 1 -17 2 -11 1 9 1 -19 1 -21 
1 0 2 16 1 5 1 20 1 -20 1 8 2 31 1 2 
1 1 1 -12 2 -3 1626 4010 100 MP stroke
1 13 1 -2 1 -3 1 1 2 -3 1 0 1 -1 1 1 
2 1 1 1 1 1 1 4 1 1 2 -2 1 -1 1 0 
1 0 1 0 2 -1 1 -2 1 -2 1 -1 2 -2 1 2 
1 -2 1 1 1 -1 2 0 1 1 1 1 1 -1 2 0 
1 -2 1 -3 1 -1 1 -2 2 -1 1 -1 1 1 1 1 
1 0 2 0 1 -2 1 1 1 -1 2 -3 1 0 1 1 
1 2 1 1 2 2 1 1 1 1 1 -2 2 1 1 2 
1 -1 1 2 1 -2 2 -4 1 -4 1 0 1 -1 1 9 
2 -5 1 10 1 5 1 12 2 4 1 -25 1 25 1 -4 
1 1 2 -1 1 1 1 2 1 3 2 -1 1 -1 1 0 
1 2 1 -4 2 -3 1 -1 1 0 1 1 1 -5 2 -2 
1 -3 1 1 1 4 2 -1 1 5 1 -4 1 24 1 -9 
2 4 1 -11 1 -4 1506 3991 100 MP stroke
1 36 2 3 1 -11 1 -24 1 17 1 1 2 2 1 -2 
1 0 1 16 1 2 2 -9 1 10 1 0 1 -2 2 -6 
1 -2 1 18 1 8 1 -1 2 -17 1 11 1 -4 1 1 
2 7 1 4 1 2 1 -1 1 -2 2 1 1 13 1 -13 
1 0 1 11 2 -7 1 0 1 -11 1 -13 2 14 1 27 
1 2 1 1 1 2 2 1 1 4 1 1 1 -1 2 2 
1 0 1 0 1 3 1 1 2 2 1 1 1 -1 1 -1 
1 3 2 1 1 0 1 -1 1 -2 2 2 1 1 1 2 
1 2 1 4 2 3 1 2 1 -1 1 -1 2 1 1 0 
1 -1 1 0 1 1 2 1 1 4 1 2 1 0 1 1 
2 4 1 2 1 0 1 0 2 1 1 2 1 2 1 1 
1 1 2 1 1 2 1 2 1 1 2 2 1 5 1 2 
1 -1 1 1 2 0 1385 3843 100 MP stroke
1 -1 1 -1 1 0 1 2 2 2 1 1 1 1 1 4 
2 2 1 1 1 3 1 -1 1 0 2 2 1 -1 1 0 
1 2 2 0 1 2 1 4 1 3 1 2 2 2 1 -1 
1 3 1 -1 1 -2 2 1 1 -1 1 1 1 -1 2 0 
1 2 1 -1 1 1 1 -2 2 1 1 1 1 1 1 3 
1 0 2 -1 1 2 1 0 1 2 2 -2 1 1 1 3 
1 2 1 0 2 0 1 2 1 0 1 0 2 0 1 -1 
1 1 1 1 1 1 2 -1 1 0 1 -1 1 1 1 1 
2 0 1 -1 1 3 1 -1 2 -2 1 -1 1 0 1 2 
1 -4 2 1 1 4 1 0 1 2 2 3 1 1 1 3 
1 0 1 1 2 -2 1 0 1 -1 1 0 1 1 2 1 
1 1 1 2 1 0 2 1 1 2 1 0 1 0 1 -2 
2 -1 1 -2 1 1 1265 3786 100 MP stroke
1 0 2 1 1 1 1 3 1 -2 1 0 2 -1 1 1 
1 2 1 1 1 0 2 1 1 -1 1 -1 1 1 2 0 
1 0 1 -1 1 -1 1 2 2 3 1 1 1 0 1 2 
2 0 1 0 1 -2 1 1 1 0 2 3 1 2 1 -1 
1 2 1 0 2 1 1 -4 1 1 1 -1 2 1 1 1 
1 -2 1 -2 1 1 2 1 1 0 1 -1 1 -2 2 -1 
1 0 1 0 1 0 1 0 2 1 1 0 1 0 1 0 
1 -1 2 0 1 -2 1 0 1 2 2 -2 1 0 1 0 
1 1 1 0 2 -1 1 1 1 3 1 -2 2 1 1 2 
1 -1 1 1 1 2 2 0 1 0 1 1 1 1 1 -1 
2 1 1 -1 1 -1 1 -2 2 -1 1 -3 1 0 1 0 
1 0 2 1 1 -3 1 3 1 -1 2 1 1 2 1 1 
1 -3 1 -2 2 -1 1144 3779 100 MP stroke
1 0 1 4 1 -2 1 -2 2 1 1 2 1 -2 1 -2 
2 -1 1 3 1 -3 1 2 1 1 2 0 1 0 1 -1 
1 -1 2 3 1 -1 1 -1 1 -1 1 -1 2 0 1 0 
1 2 1 0 1 -2 2 -2 1 0 1 -2 1 -1 2 0 
1 -1 1 1 1 -2 1 1 2 0 1 1 1 -1 1 0 
2 -1 1 -1 1 -1 1 1 1 1 2 0 1 0 1 -1 
1 -1 1 1 2 0 1 1 1 0 1 1 2 -4 1 -2 
1 -1 1 3 1 -3 2 1 1 2 1 2 1 2 2 0 
1 1 1 3 1 -1 1 -2 2 -3 1 -1 1 0 1 1 
1 0 2 1 1 1 1 0 1 0 2 1 1 1 1 2 
1 1 1 0 2 0 1 2 1 1 1 2 2 -1 1 3 
1 3 1 2 1 0 2 3 1 5 1 0 1 2 1 3 
2 2 1 1 1 -3 1024 3757 100 MP stroke
1 2 2 -1 1 3 1 1 1 1 1 -1 2 0 1 1 
1 3 1 2 2 -1 1 -3 1 0 1 -1 1 -1 2 2 
1 2 1 0 1 -1 1 1 2 2 1 1 1 0 1 -1 
2 -1 1 -1 1 0 1 1 1 2 2 -3 1 1 1 -1 
1 0 2 1 1 -2 1 -3 1 2 1 -1 2 1 1 -1 
1 0 1 0 1 -1 2 0 1 -2 1 -1 1 0 2 -1 
1 0 1 3 1 -1 1 -4 2 2 1 -2 1 1 1 0 
2 0 1 -1 1 -2 1 2 1 1 2 1 1 -2 1 3 
1 4 1 7 2 1 1 -13 1 -18 1 -14 2 -15 1 7 
1 18 1 -5 1 -6 2 14 1 -12 1 -1 1 12 2 0 
1 8 1 -1 1 7 1 -42 2 -10 1 2 1 0 1 -1 
1 -4 2 -3 1 4 1 -14 1 0 2 0 1 9 1 -11 
1 -21 1 0 2 33 903 3820 100 MP stroke
1 8 1 -25 1 16 1 -16 899 3837 5 MP stroke
gr

12 w
c11
0 sg
3363 4902 mt 
(Time [s]) s
 579 2732 mt  -90 rotate
([Degree]) s
90 rotate
2613  294 mt 
(Digital magnetometers - Orientation) s
 882 4657 mt 
( ) s
6239  431 mt 
( ) s
6 w
1 sg
0 626 1176 0 0 -626 5020 1075 4 MP
PP
-1176 0 0 626 1176 0 0 -626 5020 1075 5 MP stroke
4 w
DO
SO
6 w
0 sg
5020  449 mt 6196  449 L
5020 1075 mt 6196 1075 L
6196 1075 mt 6196  449 L
5020 1075 mt 5020  449 L
5020 1075 mt 6196 1075 L
5020 1075 mt 5020  449 L
5020  449 mt 6196  449 L
5020 1075 mt 6196 1075 L
6196 1075 mt 6196  449 L
5020 1075 mt 5020  449 L
5484  583 mt 
(Ry, VICON) s
gs 5020 449 1177 627 MR c np
12 w
c8
356 0 5091 541 2 MP stroke
gr

12 w
c8
0 sg
5484  731 mt 
(Rx, VICON) s
gs 5020 449 1177 627 MR c np
c9
356 0 5091 688 2 MP stroke
gr

c9
0 sg
5484  878 mt 
(Ry, 3DWand) s
gs 5020 449 1177 627 MR c np
c10
356 0 5091 835 2 MP stroke
gr

c10
0 sg
5484 1026 mt 
(Rx, 3DWand) s
gs 5020 449 1177 627 MR c np
c11
356 0 5091 982 2 MP stroke
6 w
gr

6 w
c11

end %%Color Dict

eplot
%%EndObject

epage
end

showpage

%%Trailer
%%EOF
